BLOCK SPINFO
   1   SPheno
   2   v4.0.5be

BLOCK SPHENOINFO
   1   2
   2   2

BLOCK MODSEL
   1   0

BLOCK MINPAR
   3    27.582689
   4   -1

BLOCK EXTPAR
   0    4852.2451
   1    450.89343
   2    4018.1579
   3    2420.8229
   11   -4832.9756
   12   -4617.1032
   13   -6349.4836
   23   -430.90365
   25    26.456228
   26    4088.3538
   31    3940.8952
   32    3940.8952
   33    486.15415
   34    893.90039
   35    893.90039
   36    3282.2621
   41    2670.3894
   42    2670.3894
   43    4918.7141
   44    3430.2246
   45    3430.2246
   46    4770.5567
   47    1636.6996
   48    1636.6996
   49    2315.5847

BLOCK SMINPUTS
   1    127.90897
   2    1.1663787e-05
   3    0.1184
   4    91.1876
   5    4.18
   6    173.2
   7    1.777
   8    0
   11    0.00051099893
   12    0
   13    0.10565837
   14    0
   21    0.005
   22    0.0025
   23    0.095
   24    1.27

BLOCK GAUGE Q=  4852.2451
   1    0.35536298
   2    0.66519887
   3    1.219778

BLOCK YU Q=  4852.2451
   1   1    8.3903594e-06
   2   2    0.0042623026
   3   3    1.0136228

BLOCK YD Q=  4852.2451
   1   1    0.00044605534
   2   2    0.0084750514
   3   3    0.44234712

BLOCK YE Q=  4852.2451
   1   1    7.7839918e-05
   2   2    0.016094826
   3   3    0.2706885

BLOCK AU Q=  4852.2451
   1   1    0
   2   2    0
   3   3   -4832.9786

BLOCK AD Q=  4852.2451
   1   1    0
   2   2    0
   3   3   -4617.1007

BLOCK AE Q=  4852.2451
   1   1    0
   2   2    0
   3   3   -6349.4822

BLOCK MSOFT Q=  4852.2451
   1    450.89343
   2    4018.1579
   3    2420.8229
   21    16540647
   22    209187.35
   31    3940.8952
   32    3940.8952
   33    486.15415
   34    893.90039
   35    893.90039
   36    3282.2621
   41    2670.3894
   42    2670.3894
   43    4918.7141
   44    3430.2246
   45    3430.2246
   46    4770.5567
   47    1636.6996
   48    1636.6996
   49    2315.5847

BLOCK MASS
   6    173.2
   23    91.1876
   24    80.429995
   15    1.777
   25    123.25055
   35    4088.0976
   36    4088.3538
   37    4089.0979
   1000001    2853.4165
   2000001    1834.5172
   1000002    2852.3368
   2000002    3524.4878
   1000003    2853.413
   2000003    1834.5088
   1000004    2852.3333
   2000004    3524.4868
   1000005    2450.301
   2000005    4965.526
   1000006    4721.0838
   2000006    4987.0503
   1000011    3975.0635
   2000011    936.37941
   1000012    3973.846
   1000013    3975.0503
   2000013    936.29739
   1000014    3973.8327
   1000015    596.2693
   2000015    3279.9308
   1000016    598.11886
   1000021    2698.0029
   1000022    413.69786
   1000023   -447.31608
   1000025    473.97706
   1000035    4001.3448
   1000024    445.69743
   1000037    4001.4456

BLOCK ALPHA
      -0.036286944

BLOCK HMIX Q=  4852.2451
   1   -430.90365
   2    26.456228
   3    242.74095
   4    16714637

BLOCK STOPMIX
   1   1    0.28154157
   1   2    0.95954903
   2   1   -0.95954903
   2   2    0.28154157

BLOCK SBOTMIX
   1   1   -0.00072307957
   1   2    0.99999974
   2   1   -0.99999974
   2   2   -0.00072307957

BLOCK STAUMIX
   1   1   -0.99999965
   1   2    0.00084198483
   2   1   -0.00084198483
   2   2   -0.99999965

BLOCK NMIX
   1   1   -0.7128875
   1   2    0.009887211
   1   3    0.5148733
   1   4    0.4760243
   2   1   -0.036374953
   2   2    0.012904365
   2   3   -0.70517471
   2   4    0.70798233
   3   1    0.70033435
   3   2    0.011101237
   3   3    0.48747528
   3   4    0.52132179
   4   1    0.00025676255
   4   2   -0.99980622
   4   3    0.0014026798
   4   4    0.019633736

BLOCK UMIX
   1   1   -0.0019890736
   1   2   -0.99999802
   2   1    0.99999802
   2   2   -0.0019890736

BLOCK VMIX
   1   1   -0.027786779
   1   2    0.99961387
   2   1    0.99961387
   2   2    0.027786779

BLOCK HIGGSBOUNDSINPUTHIGGSCOUPLINGSFERMIONS
       0, 699.93201,3,36,15,15

BLOCK HIGGSBOUNDSINPUTHIGGSCOUPLINGSBOSONS
       0,4,36,21,21,23

BLOCK SPHENOLOWENERGY
   1    0.00032909624
   2    1.58999e-06
   3    3.5267902e-05
   4    2.2574266e-15
   5    9.6434958e-11
   6    2.0203985e-08
   7    7.6786962e-14
   8    3.2803448e-09
   9    6.9632052e-07
   10    9.6526145e-05
   11    0.99707812
   12    0.54193299
   13    19.361791
   14    0
   15    0
   16    0.0021570664
   17    2.2816561e-15
   18    2.4808963e-11
   19    8.2929261e-11
   20   -5.1661538e-16
   21   -2.2084935e-11
   22   -1.9063043e-08
   23    0
   24    0
   25    0
   26    0
   27    0
   28    0
   29    0
   30    0
   31    0
   39    5.675724e-05
   40    0
   41    0
   42    0

BLOCK FWCOEF Q=  160
   305   4422   0   0   -0.18881911
   305   4422   0   2   -0.19929037
   305   4322   0   2   -0.00028752728
   305   6421   0   0   -0.095227835
   305   6421   0   2   -0.10196322
   305   6321   0   2   -0.00018218573
   3051111   4133   0   0    1.6333082
   3051111   4133   0   2    1.633668
   3051111   4233   0   2    0.00017538985
   3051111   4137   0   0   -4.4560003
   3051111   4137   0   2   -4.4558874
   3051111   4237   0   2   -0.0012865534
   3051313   4133   0   0    1.6333082
   3051313   4133   0   2    1.6336677
   3051313   4233   0   2    0.00017538971
   3051313   4137   0   0   -4.4560003
   3051313   4137   0   2   -4.4558877
   3051313   4237   0   2   -0.0012865537
   3051212   4137   0   0    1.5053501
   3051212   4137   0   2    1.5053265
   3051212   4237   0   2    0.00027779064
   3051414   4137   0   0    1.5053501
   3051414   4137   0   2    1.5053265
   3051414   4237   0   2    0.00027779064
   3051616   4137   0   0    1.5053501
   3051616   4137   0   2    1.5053256
   3051616   4237   0   2    0.00027779251

BLOCK IMFWCOEF Q=  160
   305   4422   0   0    3.8581372e-07
   305   4422   0   2   -1.3369247e-05
   305   4322   0   2   -3.7299704e-06
   305   6421   0   0    3.3047497e-07
   305   6421   0   2    2.2878989e-05
   305   6321   0   2   -1.3643407e-06
   3051111   4133   0   2    1.0101181e-06
   3051111   4233   0   2    3.3464126e-06
   3051111   4137   0   2   -5.5102205e-06
   3051111   4237   0   2   -2.4547026e-05
   3051313   4133   0   2    1.0101171e-06
   3051313   4233   0   2    3.3464106e-06
   3051313   4137   0   2   -5.5102209e-06
   3051313   4237   0   2   -2.4547031e-05
   3051212   4137   0   2    1.2026634e-06
   3051212   4237   0   2    5.3001528e-06
   3051414   4137   0   2    1.2026633e-06
   3051414   4237   0   2    5.3001528e-06
   3051616   4137   0   2    1.1866794e-06
   3051616   4237   0   2    5.3001616e-06

DECAY 23  2.4952


DECAY 24  2.085


DECAY 2000011  2.8290709
    0.54744274   2    1000022    11
    0.45124647   2    1000025    11
    0.001310766   2    1000023    11

DECAY 1000011  4.8798254
    0.51707675   2    1000025    11
    0.4827466   2    1000022    11
    0.00014899017   2    1000023    11

DECAY 2000013  2.8343142
    0.54663109   2    1000022    13
    0.45053853   2    1000025    13
    0.001812073   2    1000023    13
    0.0010183086   2   -1000024    14

DECAY 1000013  4.899896
    0.51592262   2    1000025    13
    0.48185168   2    1000022    13
    0.0021750065   2    1000023    13

DECAY 1000015  0.32235016
    0.49015851   2    1000022    15
    0.25640578   2    1000023    15
    0.25341847   2    1000025    15

DECAY 2000015  25.12541
    0.37160535   2    1000022    15
    0.35182346   2    1000025    15
    0.18332732   2   -1000024    16
    0.091985067   2    1000023    15
    0.00061083935   2    1000016   -24
    0.00034251542   2    1000015    25
    0.00030544056   2    1000015    23

DECAY 1000012  4.896947
    0.53354289   2    1000022    12
    0.45743844   2    1000025    12
    0.005377833   2    1000024    11
    0.0036408419   2    1000023    12

DECAY 1000014  4.9168967
    0.53137625   2    1000022    14
    0.45558083   2    1000025    14
    0.0094168702   2    1000024    13
    0.0036260568   2    1000023    14

DECAY 1000016  0.33136995
    0.52348173   2    1000024    15
    0.32998759   2    1000022    16
    0.14491733   2    1000025    16
    0.0016133531   2    1000023    16

DECAY 2000001  0.90763423
    0.51663384   2    1000022    1
    0.48203476   2    1000025    1
    0.0013243146   2    1000023    1

DECAY 1000001  2.9122629
    0.86840092   2    1000021    1
    0.077388502   2    1000022    1
    0.052634846   2    1000025    1
    0.0015432236   2    1000023    1

DECAY 2000003  0.91225867
    0.51469858   2    1000022    3
    0.48017911   2    1000025    3
    0.0025779906   2    1000023    3
    0.0025443093   2   -1000024    4

DECAY 1000003  2.9170302
    0.86694389   2    1000021    3
    0.077616316   2    1000022    3
    0.052861741   2    1000025    3
    0.0022001476   2    1000023    3
    0.00036863597   2   -1000024    4

DECAY 1000005  19.019982
    0.4638117   2   -1000024    6
    0.23309893   2    1000023    5
    0.1601963   2    1000022    5
    0.14289308   2    1000025    5

DECAY 2000005  326.9198
    0.59550307   2    1000021    5
    0.30448341   2   -1000024    6
    0.028952972   2    1000023    5
    0.016674844   2    1000022    5
    0.016358132   2   -1000037    6
    0.015061525   2    1000006   -24
    0.014657309   2    1000025    5
    0.0082172808   2    1000035    5

DECAY 1000002  2.8986416
    0.8610431   2    1000021    2
    0.075538042   2    1000025    2
    0.056879254   2    1000022    2
    0.0063693948   2    1000024    1
    0.00017021254   2    1000023    2

DECAY 2000002  55.306408
    0.86217473   2    1000021    2
    0.070345162   2    1000022    2
    0.067297826   2    1000025    2
    0.00018228147   2    1000023    2

DECAY 1000004  2.9032744
    0.85959512   2    1000021    4
    0.075507725   2    1000025    4
    0.056866113   2    1000022    4
    0.0076918175   2    1000024    3
    0.0003392209   2    1000023    4

DECAY 2000004  55.308695
    0.86213593   2    1000021    4
    0.070347172   2    1000022    4
    0.067301175   2    1000025    4
    0.00019343981   2    1000023    4

DECAY 1000006  367.91225
    0.47199784   2    1000021    6
    0.24347362   2    1000024    5
    0.12975635   2    1000023    6
    0.083072765   2    1000022    6
    0.070375723   2    1000025    6
    0.00054381603   3    1000022    24    5
    0.00051950584   2    1000037    5
    0.00025710128   2    1000035    6

DECAY 2000006  330.09344
    0.57665052   2    1000021    6
    0.15070541   2    1000023    6
    0.099157757   2    1000025    6
    0.074447453   2    1000024    5
    0.057097809   2    1000022    6
    0.015913405   2    1000037    5
    0.0093964816   2    1000006    25
    0.0086527729   2    1000006    23
    0.0079247569   2    1000035    6

DECAY 1000024  2.3037346e-05
    0.33472569   3    1000022   -1    2
    0.33227518   3    1000022   -3    4
    0.11157613   3    1000022   -13    14
    0.11157609   3    1000022   -11    12
    0.10984692   3    1000022   -15    16

DECAY 1000037  119.96239
    0.14036795   2   -1000015    16
    0.14022113   2    1000016   -15
    0.10648249   2    1000004   -3
    0.10648196   2    1000002   -1
    0.10639761   2   -1000003    4
    0.10639716   2   -1000001    2
    0.072028936   2    1000024    25
    0.067934253   2    1000023    24
    0.067855882   2    1000024    23
    0.03803807   2    1000025    24
    0.029640733   2    1000022    24
    0.0078651407   3    1000024    6   -6
    0.0050508572   3    1000023   -5    6
    0.0026964909   3    1000025   -5    6
    0.0021674269   3    1000022   -5    6
    0.00021980433   3    1000024    5   -5

DECAY 1000022 -1


DECAY 1000023  7.5772813e-05
    0.2009684   3    1000022    12   -12
    0.15021442   3    1000022    1   -1
    0.15020149   3    1000022    3   -3
    0.12710602   3    1000022    5   -5
    0.11715567   3    1000022    2   -2
    0.11505427   3    1000022    4   -4
    0.038576006   2    1000022    22
    0.033877439   3    1000022    11   -11
    0.033873191   3    1000022    13   -13
    0.032972396   3    1000022    15   -15

DECAY 1000025  5.0686308e-05
    0.095340584   3    1000023    12   -12
    0.084592922   3    1000024    1   -2
    0.084592922   3   -1000024   -1    2
    0.083786323   3    1000024    3   -4
    0.083786323   3   -1000024   -3    4
    0.071328682   3    1000023    1   -1
    0.071318607   3    1000023    3   -3
    0.055629006   3    1000023    2   -2
    0.054162381   3    1000023    5   -5
    0.05401399   3    1000023    4   -4
    0.043934576   2    1000023    22
    0.028197364   3    1000024    13   -14
    0.028197364   3   -1000024   -13    14
    0.028197354   3    1000024    11   -12
    0.028197354   3   -1000024   -11    12
    0.027604303   3    1000024    15   -16
    0.027604303   3   -1000024   -15    16
    0.016107512   3    1000023    11   -11
    0.016104099   3    1000023    13   -13
    0.015312458   3    1000023    15   -15
    0.00088389194   2    1000022    22
    0.00035291521   3    1000022    12   -12
    0.0002042257   3    1000022    15   -15
    0.00010606244   3    1000022    5   -5

DECAY 1000035  121.85141
    0.069067136   2    1000016   -16
    0.069067136   2   -1000016    16
    0.069048732   2    1000015   -15
    0.069048732   2   -1000015    15
    0.066950336   2    1000024   -24
    0.066950336   2   -1000024    24
    0.052424423   2    1000004   -4
    0.052424423   2   -1000004    4
    0.052424205   2    1000002   -2
    0.052424205   2   -1000002    2
    0.052352055   2    1000003   -3
    0.052352055   2   -1000003    3
    0.052351788   2    1000001   -1
    0.052351788   2   -1000001    1
    0.047238733   2    1000023    25
    0.038199052   2    1000023    23
    0.023177048   2    1000025    25
    0.017545374   2    1000022    25
    0.015647374   2    1000025    23
    0.01288474   2    1000022    23
    0.0043225726   3    1000024    5   -6
    0.0043225726   3   -1000024   -5    6
    0.0035967142   3    1000023    6   -6
    0.0019262164   3    1000025    6   -6
    0.0015298746   3    1000022    6   -6
    0.00010264218   3    1000023    5   -5

DECAY 1000021  48.662085
    0.23721406   2    2000003   -3
    0.23721406   2   -2000003    3
    0.23721029   2    2000001   -1
    0.23721029   2   -2000001    1
    0.025181743   2    1000005   -5
    0.025181743   2   -1000005    5
    0.00014045473   3    1000024    5   -6
    0.00014045473   3   -1000024   -5    6
    0.00012812038   3    1000023    6   -6

DECAY 25  0.0036580409
    0.5990869   2   -5    5
    0.20093845   2   -24    24
    0.073862985   2    21    21
    0.06879488   2   -15    15
    0.02967408   2   -4    4
    0.023485037   2    23    23
    0.0023405065   2    22    22
    0.0013527114   2    22    23
    0.00023853662   2   -13    13
    0.00022513368   2   -3    3
    6.2247229e-07   2   -1    1
    1.5292324e-07   2   -2    2
    5.3625908e-09   2   -11    11

DECAY 35  47.947774
    0.68875305   2   -5    5
    0.12179557   2   -15    15
    0.044320546   2   -2000015    1000015
    0.044320546   2   -1000015    2000015
    0.031710928   2    1000023    1000025
    0.02508782   2    1000022    1000022
    0.018879121   2    1000025    1000025
    0.013013332   2    1000022    1000023
    0.0063259815   2    1000022    1000025
    0.0042235999   2   -6    6
    0.00053073725   2   -1000024    1000024
    0.00043642527   2   -13    13
    0.00031466122   2    1000023    1000023
    0.00027801457   2   -3    3
    4.2735293e-06   2    25    25
    2.842921e-06   2    21    21
    7.6864873e-07   2   -1    1
    5.0075887e-07   2    23    23
    2.8046624e-07   2   -1000015    1000015
    1.0479114e-07   2   -1000011    1000011
    1.0430513e-07   2   -1000013    1000013
    1.031385e-07   2   -24    24
    5.7921965e-08   2   -4    4
    2.3269251e-08   2   -1000001    1000001
    2.321267e-08   2   -1000003    1000003
    9.8008615e-09   2   -11    11
    3.5124404e-09   2    22    23
    2.8257227e-09   2    22    22
    2.9856933e-13   2   -2    2

DECAY 36  46.225178
    0.68301426   2   -5    5
    0.12078402   2   -15    15
    0.045988251   2   -2000015    1000015
    0.045988251   2   -1000015    2000015
    0.035763556   2    1000023    1000025
    0.023630217   2    1000022    1000022
    0.017625394   2    1000025    1000025
    0.015361682   2    1000022    1000023
    0.0061198061   2    1000022    1000025
    0.0040361648   2   -6    6
    0.00057022843   2   -1000024    1000024
    0.00043279163   2   -13    13
    0.00039536297   2    1000023    1000023
    0.00027569633   2   -3    3
    1.2350741e-05   2    21    21
    1.121957e-06   2    23    25
    7.6224118e-07   2   -1    1
    5.4960721e-08   2   -4    4
    1.0249289e-08   2    22    22
    9.7193897e-09   2   -11    11
    9.0064652e-09   2    22    23
    2.8331289e-13   2   -2    2
    2.1555839e-38   2    25    25

DECAY 37  47.808794
    0.68262709   2   -5    6
    0.13013325   2   -15    16
    0.089718652   2   -2000015    1000016
    0.066740924   2    1000024    1000025
    0.029026329   2    1000022    1000024
    0.0010064974   2   -5    4
    0.00046006735   2   -13    14
    0.00025385612   2   -3    4
    1.192847e-05   2   -3    2
    7.1874287e-06   2   -5    2
    6.4976948e-06   2   -3    6
    5.5826853e-06   2    1000023    1000024
    1.0857496e-06   2    24    25
    7.0426455e-07   2   -1    2
    2.8066603e-07   2   -1    6
    3.55603e-08   2   -1    4
    2.5229536e-08   2   -1000015    1000016
    1.0761023e-08   2   -11    12
    2.8524234e-14   2    24    35

DECAY 6  2.43
    1   2    5    24

DECAY 15 -1
