BLOCK SPINFO
   1   SPheno
   2   v4.0.5be

BLOCK SPHENOINFO
   1   2
   2   2

BLOCK MODSEL
   1   0

BLOCK MINPAR
   3    14.45368
   4   -1

BLOCK EXTPAR
   0    3852.6791
   1   -3010.0049
   2    1911.441
   3    4492.7778
   11   -5186.6796
   12    2309.2072
   13   -4435.3848
   23   -706.44434
   25    13.78221
   26    3101.6527
   31    3260.3337
   32    3260.3337
   33    2273.8299
   34    4741.4832
   35    4741.4832
   36    4488.6268
   41    2372.4053
   42    2372.4053
   43    3574.5173
   44    1605.3351
   45    1605.3351
   46    3976.7126
   47    245.91964
   48    245.91964
   49    338.51238

BLOCK SMINPUTS
   1    127.90897
   2    1.1663787e-05
   3    0.1184
   4    91.1876
   5    4.18
   6    173.2
   7    1.777
   8    0
   11    0.00051099893
   12    0
   13    0.10565837
   14    0
   21    0.005
   22    0.0025
   23    0.095
   24    1.27

BLOCK GAUGE Q=  3852.6791
   1    0.35536298
   2    0.66519887
   3    1.219778

BLOCK YU Q=  3852.6791
   1   1    8.4064132e-06
   2   2    0.0042704579
   3   3    1.0155622

BLOCK YD Q=  3852.6791
   1   1    0.00023281441
   2   2    0.0044234737
   3   3    0.23087894

BLOCK YE Q=  3852.6791
   1   1    4.0627816e-05
   2   2    0.0084005439
   3   3    0.14128333

BLOCK AU Q=  3852.6791
   1   1    0
   2   2    0
   3   3   -5186.6849

BLOCK AD Q=  3852.6791
   1   1    0
   2   2    0
   3   3    2309.2081

BLOCK AE Q=  3852.6791
   1   1    0
   2   2    0
   3   3   -4435.3831

BLOCK MSOFT Q=  3852.6791
   1   -3010.0049
   2    1911.441
   3    4492.7778
   21    9012932.9
   22   -200989.3
   31    3260.3337
   32    3260.3337
   33    2273.8299
   34    4741.4832
   35    4741.4832
   36    4488.6268
   41    2372.4053
   42    2372.4053
   43    3574.5173
   44    1605.3351
   45    1605.3351
   46    3976.7126
   47    245.91964
   48    245.91964
   49    338.51238

BLOCK MASS
   6    173.2
   23    91.1876
   24    80.429995
   15    1.777
   25    123.96403
   35    3101.5918
   36    3101.6527
   37    3102.8803
   1000001    2577.1591
   2000001    758.85048
   1000002    2575.9142
   2000002    1817.8261
   1000003    2577.1582
   2000003    758.84741
   1000004    2575.9134
   2000004    1817.8253
   1000005    789.18959
   2000005    3699.4464
   1000006    3674.3634
   2000006    4039.6485
   1000011    3274.7307
   2000011    4751.8673
   1000012    3273.3666
   1000013    3274.7273
   2000013    4751.8615
   1000014    3273.3631
   1000015    2293.8495
   2000015    4497.2558
   1000016    2292.1512
   1000021    4528.7448
   1000022    715.7238
   1000023   -718.89821
   1000025    1953.8997
   1000035   -2966.548
   1000024    716.79721
   1000037    1954.0536

BLOCK ALPHA
      -0.069237055

BLOCK HMIX Q=  3852.6791
   1   -706.44434
   2    13.78221
   3    242.98525
   4    9620249.3

BLOCK STOPMIX
   1   1    0.96430222
   1   2    0.26480415
   2   1   -0.26480415
   2   2    0.96430222

BLOCK SBOTMIX
   1   1   -0.0021377151
   1   2    0.99999772
   2   1   -0.99999772
   2   2   -0.0021377151

BLOCK STAUMIX
   1   1   -0.9999998
   1   2    0.00062600077
   2   1   -0.00062600077
   2   2   -0.9999998

BLOCK NMIX
   1   1    0.0077413006
   1   2    0.041734943
   1   3    0.70758635
   1   4    0.70535085
   2   1    0.014662524
   2   2    0.022442599
   2   3   -0.70647743
   2   4    0.70722767
   3   1    0.00039667514
   3   2   -0.9988766
   3   3    0.013690017
   3   4    0.045364824
   4   1   -0.99986245
   4   2    0.00025595357
   4   3   -0.0048763439
   4   4    0.015850251

BLOCK UMIX
   1   1   -0.019385293
   1   2   -0.99981209
   2   1    0.99981209
   2   2   -0.019385293

BLOCK VMIX
   1   1   -0.064211404
   1   2    0.99793632
   2   1    0.99793632
   2   2    0.064211404

BLOCK HIGGSBOUNDSINPUTHIGGSCOUPLINGSFERMIONS
       0, 189.94932,3,36,15,15

BLOCK HIGGSBOUNDSINPUTHIGGSCOUPLINGSBOSONS
       0,4,36,21,21,23

BLOCK SPHENOLOWENERGY
   1    0.00032996864
   2    1.5897943e-06
   3    3.5266675e-05
   4    2.4191608e-15
   5    1.0334385e-10
   6    2.163682e-08
   7    8.1828458e-14
   8    3.4957106e-09
   9    7.4156281e-07
   10    9.6669475e-05
   11    0.99855867
   12    0.5419781
   13    19.364547
   14    0
   15    0
   16    0.002157257
   17    2.2816578e-15
   18    2.4808181e-11
   19    8.2926002e-11
   20   -5.1846234e-16
   21   -2.216588e-11
   22   -7.9058567e-09
   23    0
   24    0
   25    0
   26    0
   27    0
   28    0
   29    0
   30    0
   31    0
   39    1.4160656e-05
   40    0
   41    0
   42    0

BLOCK FWCOEF Q=  160
   305   4422   0   0   -0.18881911
   305   4422   0   2   -0.19945695
   305   4322   0   2   -0.00022974449
   305   6421   0   0   -0.095227835
   305   6421   0   2   -0.10528592
   305   6321   0   2   -0.00021058053
   3051111   4133   0   0    1.6249638
   3051111   4133   0   2    1.6252695
   3051111   4233   0   2    4.5503873e-05
   3051111   4137   0   0   -4.4476559
   3051111   4137   0   2   -4.4473701
   3051111   4237   0   2   -0.00033765806
   3051313   4133   0   0    1.6249638
   3051313   4133   0   2    1.6252694
   3051313   4233   0   2    4.5503865e-05
   3051313   4137   0   0   -4.4476559
   3051313   4137   0   2   -4.4473702
   3051313   4237   0   2   -0.00033765807
   3051212   4137   0   0    1.5053501
   3051212   4137   0   2    1.5052919
   3051212   4237   0   2    7.3042708e-05
   3051414   4137   0   0    1.5053501
   3051414   4137   0   2    1.5052919
   3051414   4237   0   2    7.3042709e-05
   3051616   4137   0   0    1.5053501
   3051616   4137   0   2    1.5052918
   3051616   4237   0   2    7.3042991e-05

BLOCK IMFWCOEF Q=  160
   305   4422   0   0    3.858118e-07
   305   4422   0   2   -6.2726809e-06
   305   4322   0   2   -1.8791752e-06
   305   6421   0   0    3.3047332e-07
   305   6421   0   2    2.7494326e-06
   305   6321   0   2   -8.5264276e-07
   3051111   4133   0   2    5.6473862e-07
   3051111   4233   0   2    9.0415877e-07
   3051111   4137   0   2   -2.881478e-06
   3051111   4237   0   2   -6.7094602e-06
   3051313   4133   0   2    5.6473658e-07
   3051313   4233   0   2    9.0415871e-07
   3051313   4137   0   2   -2.8814776e-06
   3051313   4237   0   2   -6.7094605e-06
   3051212   4137   0   2    6.8735006e-07
   3051212   4237   0   2    1.4514007e-06
   3051414   4137   0   2    6.8735007e-07
   3051414   4237   0   2    1.4514007e-06
   3051616   4137   0   2    6.8715935e-07
   3051616   4237   0   2    1.4514007e-06

DECAY 23  2.4952


DECAY 24  2.085


DECAY 1000011  18.092559
    0.6604469   2   -1000037    12
    0.32952334   2    1000025    11
    0.0073054256   2    1000035    11
    0.0015199589   2    1000022    11
    0.00066161788   2    1000023    11
    0.00054276013   2   -1000024    12

DECAY 2000011  8.8958286
    0.9992951   2    1000035    11
    0.00055095357   2    1000023    11
    0.00015363919   2    1000022    11

DECAY 1000013  18.096663
    0.66029492   2   -1000037    14
    0.32944752   2    1000025    13
    0.0073036226   2    1000035    13
    0.0016349582   2    1000022    13
    0.00077633989   2    1000023    13
    0.00054263637   2   -1000024    14

DECAY 2000013  8.9085692
    0.99786165   2    1000035    13
    0.00090702921   2    1000023    13
    0.00071489952   2   -1000024    14
    0.00051152691   2    1000022    13

DECAY 1000015  3.0499351
    0.498044   2   -1000037    16
    0.24864827   2    1000025    15
    0.12756702   2    1000022    15
    0.12368699   2    1000023    15
    0.0020537145   2   -1000024    16

DECAY 2000015  10.626459
    0.67835722   2    1000035    15
    0.15955391   2   -1000024    16
    0.080096244   2    1000023    15
    0.080039387   2    1000022    15
    0.00092365528   2    1000016   -24
    0.00048588483   2    1000015    25
    0.00046081466   2    1000015    23

DECAY 1000012  18.107762
    0.65653915   2    1000037    11
    0.32908543   2    1000025    12
    0.0072545938   2    1000035    12
    0.0059471074   2    1000024    11
    0.0010198666   2    1000022    12
    0.0001538552   2    1000023    12

DECAY 1000014  18.111863
    0.65638827   2    1000037    13
    0.32900979   2    1000025    14
    0.007252801   2    1000035    14
    0.0061756784   2    1000024    13
    0.0010196344   2    1000022    14
    0.00015382017   2    1000023    14

DECAY 1000016  3.0748056
    0.48793326   2    1000037    15
    0.26297431   2    1000024    15
    0.24474479   2    1000025    16
    0.0037781969   2    1000022    16
    0.0005694504   2    1000023    16

DECAY 2000001  1.3024527e-06
    0.75133885   2    1000023    1
    0.24136795   2    1000022    1
    0.0072932026   2   -1000024    2

DECAY 1000001  6.1714908
    0.66406144   2   -1000037    2
    0.33159778   2    1000025    1
    0.0025497413   2    1000022    1
    0.0011759661   2   -1000024    2
    0.0006150538   2    1000023    1

DECAY 2000003  8.0954818e-06
    0.42328128   2   -1000024    4
    0.31667933   2    1000023    3
    0.26003939   2    1000022    3

DECAY 1000003  6.1731469
    0.66388077   2   -1000037    4
    0.33150802   2    1000025    3
    0.0026182088   2    1000022    3
    0.0013037982   2   -1000024    4
    0.00068366717   2    1000023    3

DECAY 1000005  0.025392874
    0.51893657   2    1000022    5
    0.48106343   2    1000023    5

DECAY 2000005  99.187072
    0.70241666   2   -1000024    6
    0.17309347   2   -1000037    6
    0.085175554   2    1000025    5
    0.018589797   2    1000022    5
    0.018341938   2    1000023    5
    0.0010287331   2    1000005    25
    0.00068864877   2    1000005    23
    0.00066519866   2    1000035    5

DECAY 2000002  0.00079503436
    0.78151751   2    1000023    2
    0.2184802   2    1000022    2

DECAY 1000002  6.2133702
    0.65507914   2    1000037    1
    0.32825081   2    1000025    2
    0.012807664   2    1000024    1
    0.0028883282   2    1000022    2
    0.00097406142   2    1000023    2

DECAY 2000004  0.0017334371
    0.49423815   2    1000023    4
    0.2702362   2    1000024    3
    0.23552566   2    1000022    4

DECAY 1000004  6.2149959
    0.6549063   2    1000037    3
    0.32816375   2    1000025    4
    0.01294134   2    1000024    3
    0.0029509943   2    1000022    4
    0.0010376026   2    1000023    4

DECAY 1000006  101.95416
    0.33975046   2    1000022    6
    0.33868211   2    1000023    6
    0.1430721   2    1000037    5
    0.096492123   2    1000024    5
    0.072780243   2    1000025    6
    0.0063120398   3    1000022    24    5
    0.0016910079   2    1000035    6
    0.0012189385   2    1000005    24

DECAY 2000006  180.51701
    0.39121457   2    1000024    5
    0.21524391   2    1000023    6
    0.21253283   2    1000022    6
    0.067113228   2    2000005    24
    0.044267232   2    1000006    25
    0.037861154   2    1000006    23
    0.014880529   2    1000037    5
    0.0092612006   2    1000035    6
    0.0074985295   2    1000025    6

DECAY 1000024  1.337404e-12
    0.67256473   2    1000022    211
    0.16761476   3    1000022   -11    12
    0.15982051   3    1000022   -13    14

DECAY 1000037  15.290784
    0.24752591   2    1000024    25
    0.24248345   2    1000023    24
    0.24035817   2    1000022    24
    0.24026726   2    1000024    23
    0.010701093   3    1000024    6   -6
    0.010380532   3    1000023   -5    6
    0.0082385167   3    1000022   -5    6

DECAY 1000022 -1


DECAY 1000023  5.9896941e-09
    0.91486983   2    1000022    22
    0.021084496   3    1000022    12   -12
    0.015765988   3    1000022    1   -1
    0.01556047   3    1000022    3   -3
    0.012296556   3    1000022    2   -2
    0.0038765767   3    1000024    1   -2
    0.0038765767   3   -1000024   -1    2
    0.0035580676   3    1000022    11   -11
    0.0034851987   3    1000022    13   -13
    0.0012922566   3    1000024    11   -12
    0.0012922566   3   -1000024   -11    12
    0.0012691664   3    1000024    13   -14
    0.0012691664   3   -1000024   -13    14
    0.00017826629   3    1000024    3   -4
    0.00017826629   3   -1000024   -3    4
    0.00014685681   3    1000022    4   -4

DECAY 1000025  18.345776
    0.21326648   2    1000023    25
    0.20134843   2    1000024   -24
    0.20134843   2   -1000024    24
    0.15994039   2    1000022    25
    0.15695347   2    1000023    23
    0.044976249   2    1000022    23
    0.0066508428   3    1000024    5   -6
    0.0066508428   3   -1000024   -5    6
    0.0048483968   3    1000023    6   -6
    0.0039724793   3    1000022    6   -6

DECAY 1000035  39.118989
    0.099045016   2    2000004   -4
    0.099045016   2   -2000004    4
    0.099044888   2    2000002   -2
    0.099044888   2   -2000002    2
    0.055451988   2    2000003   -3
    0.055451988   2   -2000003    3
    0.055451923   2    2000001   -1
    0.055451923   2   -2000001    1
    0.054822203   2    1000005   -5
    0.054822203   2   -1000005    5
    0.052091716   2    1000024   -24
    0.052091716   2   -1000024    24
    0.040658213   2    1000022    23
    0.039321917   2    1000023    25
    0.029652589   2    1000022    25
    0.011435394   2    1000023    23
    0.0077402881   2    1000016   -16
    0.0077402881   2   -1000016    16
    0.0076915219   2    1000015   -15
    0.0076915219   2   -1000015    15
    0.0024262639   3    1000024    5   -6
    0.0024262639   3   -1000024   -5    6
    0.0019240326   3    1000023    6   -6
    0.0016722319   3    1000022    6   -6
    0.00095791631   2    1000002   -2
    0.00095791631   2   -1000002    2
    0.00095791109   2    1000004   -4
    0.00095791109   2   -1000004    4
    0.00095774391   2    1000003   -3
    0.00095774391   2   -1000003    3
    0.00095773953   2    1000001   -1
    0.00095773953   2   -1000001    1

DECAY 1000021  848.12288
    0.074652499   2    2000003   -3
    0.074652499   2   -2000003    3
    0.074652465   2    2000001   -1
    0.074652465   2   -2000001    1
    0.074301699   2    1000005   -5
    0.074301699   2   -1000005    5
    0.055613569   2    2000004   -4
    0.055613569   2   -2000004    4
    0.055613553   2    2000002   -2
    0.055613553   2   -2000002    2
    0.036164729   2    1000004   -4
    0.036164729   2   -1000004    4
    0.03616471   2    1000002   -2
    0.03616471   2   -1000002    2
    0.036131299   2    1000003   -3
    0.036131299   2   -1000003    3
    0.036131274   2    1000001   -1
    0.036131274   2   -1000001    1
    0.0087475205   2    2000005   -5
    0.0087475205   2   -2000005    5
    0.0080407214   2    1000006   -6
    0.0080407214   2   -1000006    6
    0.0036970013   2    2000006   -6
    0.0036970013   2   -2000006    6

DECAY 25  0.0037493312
    0.58824036   2   -5    5
    0.21176335   2   -24    24
    0.074020814   2    21    21
    0.067587795   2   -15    15
    0.029071808   2   -4    4
    0.025109494   2    23    23
    0.0023398531   2    22    22
    0.0014102819   2    22    23
    0.00023441851   2   -13    13
    0.00022105691   2   -3    3
    6.1120019e-07   2   -1    1
    1.4981717e-07   2   -2    2
    5.2700015e-09   2   -11    11

DECAY 35  19.286563
    0.38525874   2   -5    5
    0.17054413   2   -1000024    1000037
    0.17054413   2   -1000037    1000024
    0.11794874   2    1000023    1000025
    0.066439492   2   -15    15
    0.052774834   2    1000022    1000025
    0.030679722   2   -6    6
    0.0043016379   2   -1000024    1000024
    0.00082858173   2    1000022    1000022
    0.00023212314   2   -13    13
    0.00015904191   2   -3    3
    0.00011738187   2    1000022    1000023
    9.7098842e-05   2    1000023    1000023
    5.8627616e-05   2    25    25
    7.8004305e-06   2    23    23
    2.2548553e-06   2   -24    24
    2.2383649e-06   2    21    21
    1.5388173e-06   2   -1000005    1000005
    4.550011e-07   2   -1000001    1000001
    4.5465491e-07   2   -1000003    1000003
    4.3972287e-07   2   -1    1
    4.3864655e-07   2   -4    4
    7.2814852e-08   2    22    23
    1.5174612e-08   2    22    22
    6.3747348e-09   2   -2000003    1000003
    6.3747348e-09   2   -1000003    2000003
    5.2133051e-09   2   -11    11
    1.7659427e-11   2   -2000001    1000001
    1.7659427e-11   2   -1000001    2000001
    2.2612812e-12   2   -2    2

DECAY 36  19.031841
    0.3801588   2   -5    5
    0.17250978   2   -1000024    1000037
    0.17250978   2   -1000037    1000024
    0.11998358   2    1000022    1000025
    0.065562081   2   -15    15
    0.05301498   2    1000023    1000025
    0.02963785   2   -6    6
    0.0050488823   2   -1000024    1000024
    0.0008023517   2    1000022    1000022
    0.0002290567   2   -13    13
    0.00017973194   2    1000022    1000023
    0.00016405705   2    1000023    1000023
    0.0001569319   2   -3    3
    2.7901045e-05   2    21    21
    1.3172113e-05   2    23    25
    4.3388623e-07   2   -1    1
    4.1817868e-07   2   -4    4
    1.5819093e-07   2    22    23
    3.6358285e-08   2    22    22
    6.4573622e-09   2   -2000003    1000003
    6.4573622e-09   2   -1000003    2000003
    5.1443935e-09   2   -11    11
    1.7888323e-11   2   -2000001    1000001
    1.7888323e-11   2   -1000001    2000001
    2.1558977e-12   2   -2    2
    2.2672342e-36   2    25    25

DECAY 37  19.013478
    0.40745793   2   -5    6
    0.17487903   2    1000022    1000037
    0.17363486   2    1000024    1000025
    0.17305857   2    1000023    1000037
    0.068179771   2   -15    16
    0.0013795515   2    1000023    1000024
    0.0005587404   2   -5    4
    0.00039496954   2    1000022    1000024
    0.00024103982   2   -13    14
    0.00014519457   2   -3    4
    4.3888216e-05   2   -3    6
    1.3208242e-05   2    24    25
    6.7848852e-06   2   -3    2
    3.9899788e-06   2   -5    2
    2.0030743e-06   2   -1    6
    4.0182066e-07   2   -1    2
    3.7073392e-08   2   -1    4
    1.2226975e-08   2   -1000003    2000004
    5.6379465e-09   2   -11    12
    6.5494059e-10   2   -1000003    2000002
    3.392891e-11   2   -1000001    2000002
    5.9673121e-12   2   -1000005    1000004
    2.7686476e-12   2   -1000003    1000004
    1.8121029e-12   2   -1000001    2000004
    2.5430344e-13   2    24    35
    1.9963622e-13   2    24    36
    4.1032846e-16   2   -1000001    1000004
    7.7786676e-19   2   -1000003    1000002
    2.2350887e-19   2   -1000005    1000002
    4.0297058e-20   2   -1000001    1000002

DECAY 6  2.43
    1   2    5    24

DECAY 15 -1
