BLOCK SPINFO
   1   SPheno
   2   v4.0.5be

BLOCK SPHENOINFO
   1   2
   2   2

BLOCK MODSEL
   1   0

BLOCK MINPAR
   3    36.110357
   4    1

BLOCK EXTPAR
   0    1166.2983
   1   -848.61918
   2    1291.1081
   3    3000
   11   -2165.3589
   12   -1215.9446
   13    1403.6099
   23    581.6645
   25    35.227527
   26    3532.9007
   31    704.60716
   32    704.60716
   33    978.78628
   34    1240.1603
   35    1240.1603
   36    1240.6928
   41    5000
   42    5000
   43    999.1654
   44    5000
   45    5000
   46    1575.0224
   47    5000
   48    5000
   49    1139.6929

BLOCK SMINPUTS
   1    127.90897
   2    1.1663787e-05
   3    0.1184
   4    91.1876
   5    4.18
   6    173.2
   7    1.777
   8    0
   11    0.00051099893
   12    0
   13    0.10565837
   14    0
   21    0.005
   22    0.0025
   23    0.095
   24    1.27

BLOCK GAUGE Q=  1166.2983
   1    0.35536298
   2    0.66519887
   3    1.219778

BLOCK YU Q=  1166.2983
   1   1    8.3877496e-06
   2   2    0.0042609768
   3   3    1.0133075

BLOCK YD Q=  1166.2983
   1   1    0.00059375578
   2   2    0.01128136
   3   3    0.58881968

BLOCK YE Q=  1166.2983
   1   1    0.00010361473
   2   2    0.021424239
   3   3    0.36032046

BLOCK AU Q=  1166.2983
   1   1    0
   2   2    0
   3   3   -2165.3588

BLOCK AD Q=  1166.2983
   1   1    0
   2   2    0
   3   3   -1215.9447

BLOCK AE Q=  1166.2983
   1   1    0
   2   2    0
   3   3    1403.6099

BLOCK MSOFT Q=  1166.2983
   1   -848.61918
   2    1291.1081
   3    3000
   21    12112691
   22   -324796.84
   31    704.60716
   32    704.60716
   33    978.78628
   34    1240.1603
   35    1240.1603
   36    1240.6928
   41    5000
   42    5000
   43    999.1654
   44    5000
   45    5000
   46    1575.0224
   47    5000
   48    5000
   49    1139.6929

BLOCK MASS
   6    173.2
   23    91.1876
   24    80.429995
   15    1.777
   25    120.98282
   35    3531.389
   36    3532.9007
   37    3532.6792
   1000001    5011.6632
   2000001    5003.1098
   1000002    5011.2118
   2000002    5005.9624
   1000003    5011.6695
   2000003    5003.1189
   1000004    5011.2173
   2000004    5005.9636
   1000005    913.13017
   2000005    1086.8043
   1000006    888.71233
   2000006    1530.5872
   1000011    724.58792
   2000011    1238.419
   1000012    719.81366
   1000013    724.60977
   2000013    1238.4444
   1000014    719.83933
   1000015    999.40796
   2000015    1247.7738
   1000016    996.97621
   1000021    3165.4003
   1000022    584.63687
   1000023   -587.49887
   1000025   -853.37714
   1000035    1328.3208
   1000024    586.73787
   1000037    1328.535

BLOCK ALPHA
      -0.027730688

BLOCK HMIX Q=  1166.2983
   1    581.6645
   2    35.227527
   3    244.26638
   4    12481388

BLOCK STOPMIX
   1   1    0.97926739
   1   2    0.20257191
   2   1   -0.20257191
   2   2    0.97926739

BLOCK SBOTMIX
   1   1    0.99032693
   1   2    0.13875363
   2   1   -0.13875363
   2   2    0.99032693

BLOCK STAUMIX
   1   1    0.99801261
   1   2    0.063014558
   2   1   -0.063014558
   2   2    0.99801261

BLOCK NMIX
   1   1   -0.022118313
   1   2   -0.07843969
   1   3    0.70714557
   1   4   -0.70235543
   2   1    0.1130772
   2   2    0.0287084
   2   3    0.70326294
   2   4    0.7012921
   3   1    0.9933388
   3   2   -0.0034738051
   3   3   -0.064256129
   3   4   -0.095588256
   4   1   -0.0015359304
   4   2    0.99649936
   4   3    0.03517866
   4   4   -0.075823

BLOCK UMIX
   1   1   -0.049853887
   1   2    0.99875652
   2   1    0.99875652
   2   2    0.049853887

BLOCK VMIX
   1   1   -0.10745534
   1   2    0.99420991
   2   1    0.99420991
   2   2    0.10745534

BLOCK HIGGSBOUNDSINPUTHIGGSCOUPLINGSFERMIONS
       0, 1240.9786,3,36,15,15

BLOCK HIGGSBOUNDSINPUTHIGGSCOUPLINGSBOSONS
       0,4,36,21,21,23

BLOCK SPHENOLOWENERGY
   1    0.00027525773
   2    1.6006381e-06
   3    3.5263683e-05
   4    2.3976239e-15
   5    1.0242346e-10
   6    2.1421251e-08
   7    8.0635687e-14
   8    3.444744e-09
   9    7.3000594e-07
   10    9.6362471e-05
   11    0.99538743
   12    0.5425634
   13    19.383559
   14    0
   15    0
   16    0.0021592313
   17    2.2816782e-15
   18    2.4794489e-11
   19    8.2894666e-11
   20    6.8465131e-15
   21    2.9268955e-10
   22    8.0822298e-08
   23    0
   24    0
   25    0
   26    0
   27    0
   28    0
   29    0
   30    0
   31    0
   39    8.016554e-05
   40    0
   41    0
   42    0

BLOCK FWCOEF Q=  160
   305   4422   0   0   -0.18881911
   305   4422   0   2   -0.13072445
   305   4322   0   2    0.00020584134
   305   6421   0   0   -0.095227835
   305   6421   0   2   -0.072919469
   305   6321   0   2   -2.3683362e-05
   3051111   4133   0   0    1.5831733
   3051111   4133   0   2    1.5851844
   3051111   4233   0   2    0.00017683782
   3051111   4137   0   0   -4.4058654
   3051111   4137   0   2   -4.4053058
   3051111   4237   0   2   -0.0013932898
   3051313   4133   0   0    1.5831733
   3051313   4133   0   2    1.5851805
   3051313   4233   0   2    0.00017683699
   3051313   4137   0   0   -4.4058654
   3051313   4137   0   2   -4.4053097
   3051313   4237   0   2   -0.0013932923
   3051212   4137   0   0    1.5053501
   3051212   4137   0   2    1.5052371
   3051212   4237   0   2    0.0003042563
   3051414   4137   0   0    1.5053501
   3051414   4137   0   2    1.5052371
   3051414   4237   0   2    0.00030425633
   3051616   4137   0   0    1.5053501
   3051616   4137   0   2    1.5052373
   3051616   4237   0   2    0.00030426266

BLOCK IMFWCOEF Q=  160
   305   4422   0   0    3.8587427e-07
   305   4422   0   2    2.5655786e-05
   305   4322   0   2    5.349235e-06
   305   6421   0   0    3.3052683e-07
   305   6421   0   2   -2.5234054e-07
   305   6321   0   2    1.759608e-06
   3051111   4133   0   2    1.504479e-07
   3051111   4233   0   2    3.5764602e-06
   3051111   4137   0   2   -6.2954035e-07
   3051111   4237   0   2   -2.818733e-05
   3051313   4133   0   2    1.503941e-07
   3051313   4233   0   2    3.5764479e-06
   3051313   4137   0   2   -6.2957332e-07
   3051313   4237   0   2   -2.8187377e-05
   3051212   4137   0   2    2.7172231e-07
   3051212   4237   0   2    6.1553433e-06
   3051414   4137   0   2    2.7172027e-07
   3051414   4237   0   2    6.1553433e-06
   3051616   4137   0   2    2.7518633e-07
   3051616   4237   0   2    6.1553415e-06

DECAY 23  2.4952


DECAY 24  2.085


DECAY 1000011  0.008035214
    0.39378958   2    1000022    11
    0.37078018   2    1000023    11
    0.23542974   2   -1000024    12

DECAY 2000011  1.743004
    0.97152213   2    1000025    11
    0.027422912   2    1000023    11
    0.0010548536   2    1000022    11

DECAY 1000013  0.0088253079
    0.40412462   2    1000022    13
    0.38146679   2    1000023    13
    0.21440814   2   -1000024    14

DECAY 2000013  1.7575415
    0.96358597   2    1000025    13
    0.029107558   2    1000023    13
    0.0038643625   2   -1000024    14
    0.0029897046   2    1000022    13
    0.00045240947   2    1000013    25

DECAY 1000015  1.2655273
    0.45973456   2    1000022    15
    0.44766875   2    1000023    15
    0.071569607   2    1000025    15
    0.021027084   2   -1000024    16

DECAY 2000015  6.0550272
    0.31741387   2   -1000024    16
    0.2900729   2    1000025    15
    0.16625527   2    1000023    15
    0.16000098   2    1000022    15
    0.034758623   2    1000016   -24
    0.015964642   2    1000015    23
    0.015533721   2    1000015    25

DECAY 1000012  0.010280239
    0.80696937   2    1000024    11
    0.15843668   2    1000022    12
    0.034593944   2    1000023    12

DECAY 1000014  0.01102359
    0.8199295   2    1000024    13
    0.147799   2    1000022    14
    0.0322715   2    1000023    14

DECAY 1000016  1.2411983
    0.91964811   2    1000024    15
    0.072081487   2    1000025    16
    0.0067557604   2    1000022    16
    0.0015146417   2    1000023    16

DECAY 2000001  144.6641
    0.98179083   2    1000021    1
    0.017959347   2    1000025    1
    0.00024024185   2    1000023    1

DECAY 1000001  200.81135
    0.71171867   2    1000021    1
    0.18943397   2   -1000037    2
    0.09434572   2    1000035    1
    0.0033691954   2    1000025    1
    0.00059331043   2    1000022    1
    0.00053120017   2   -1000024    2

DECAY 2000003  144.68962
    0.98162419   2    1000021    3
    0.017956558   2    1000025    3
    0.00028219626   2    1000023    3

DECAY 1000003  200.82617
    0.71166943   2    1000021    3
    0.1894204   2   -1000037    4
    0.094338982   2    1000035    3
    0.0033691976   2    1000025    3
    0.00062392133   2    1000022    3
    0.00053982012   2   -1000024    4

DECAY 1000005  6.7062235
    0.67161951   2   -1000024    6
    0.16728192   2    1000022    5
    0.1608142   2    1000023    5
    0.00028437504   2    1000025    5

DECAY 2000005  8.4721132
    0.45481551   2   -1000024    6
    0.21923337   2    1000022    5
    0.21783731   2    1000023    5
    0.052700823   2    1000006   -24
    0.028344275   2    1000005    25
    0.015210105   2    1000005    23
    0.011858605   2    1000025    5

DECAY 2000002  152.8704
    0.9310311   2    1000021    2
    0.068024454   2    1000025    2
    0.00090948713   2    1000023    2

DECAY 1000002  200.80511
    0.7115065   2    1000021    2
    0.187697   2    1000037    1
    0.09423407   2    1000035    2
    0.0031144103   2    1000025    2
    0.0024678468   2    1000024    1
    0.0007252607   2    1000022    2
    0.00025491035   2    1000023    2

DECAY 2000004  152.87398
    0.93100973   2    1000021    4
    0.068022953   2    1000025    4
    0.00091513348   2    1000023    4

DECAY 1000004  200.81977
    0.71145712   2    1000021    4
    0.18768371   2    1000037    3
    0.094227374   2    1000035    4
    0.0031142669   2    1000025    4
    0.0025288026   2    1000024    3
    0.0007295271   2    1000022    4
    0.00025919945   2    1000023    4

DECAY 1000006  5.6388358
    0.40332447   2    1000024    5
    0.30254428   2    1000022    6
    0.29301529   2    1000023    6
    0.00062673472   2    1000022    4
    0.00027083644   3    1000022    24    5
    0.00021723901   2    1000023    4

DECAY 2000006  101.88774
    0.25055634   2    1000005    24
    0.20883482   2    1000024    5
    0.16995581   2    1000006    25
    0.13280483   2    1000006    23
    0.11250482   2    1000023    6
    0.1092464   2    1000022    6
    0.012553308   2    1000025    6
    0.0021900966   2    2000005    24
    0.0010533896   2    1000037    5
    0.00030019529   2    1000035    6

DECAY 1000024  8.1276678e-12
    0.59695445   3    1000022   -1    2
    0.19908022   3    1000022   -11    12
    0.19478972   3    1000022   -13    14
    0.0091756091   3    1000022   -3    4

DECAY 1000037  33.939715
    0.13969836   2    1000006   -5
    0.11303847   2   -1000005    6
    0.085926278   2    1000023    24
    0.084991787   2    1000012   -11
    0.084986907   2    1000014   -13
    0.08482481   2   -1000011    12
    0.084820477   2   -1000013    14
    0.084286167   2    1000022    24
    0.084003434   2    1000024    23
    0.082515841   2    1000024    25
    0.032513328   2    1000016   -15
    0.032148075   2   -1000015    16
    0.0016302215   3    1000022   -5    6
    0.001516792   3    1000023   -5    6
    0.0014345178   3    1000024    6   -6
    0.0011393339   2   -2000005    6
    0.00046816671   2    1000025    24

DECAY 1000022 -1


DECAY 1000023  4.6967239e-09
    0.92714834   2    1000022    22
    0.020929673   3    1000022    12   -12
    0.01565208   3    1000022    1   -1
    0.015428269   3    1000022    3   -3
    0.012207733   3    1000022    2   -2
    0.0035300325   3    1000022    11   -11
    0.0034511233   3    1000022    13   -13
    0.00048714835   3    1000024    1   -2
    0.00048714835   3   -1000024   -1    2
    0.00016235652   3    1000024    11   -12
    0.00016235652   3   -1000024   -11    12
    0.00015522899   3    1000024    13   -14
    0.00015522899   3   -1000024   -13    14

DECAY 1000025  2.4423543
    0.18857917   2    1000022    23
    0.18737557   2    1000024   -24
    0.18737557   2   -1000024    24
    0.15708257   2    1000022    25
    0.13251027   2    1000023    25
    0.018263471   2    1000012   -12
    0.018263471   2   -1000012    12
    0.018257045   2    1000014   -14
    0.018257045   2   -1000014    14
    0.016642816   2    1000011   -11
    0.016642816   2   -1000011    11
    0.016638301   2    1000013   -13
    0.016638301   2   -1000013    13
    0.0069462494   2    1000023    23
    0.00024355319   3    1000024    5   -6
    0.00024355319   3   -1000024   -5    6

DECAY 1000035  35.940451
    0.080349117   2    1000024   -24
    0.080349117   2   -1000024    24
    0.071453816   2    1000023    23
    0.068128563   2    1000022    25
    0.065387148   2    1000005   -5
    0.065387148   2   -1000005    5
    0.062102135   2    1000023    25
    0.054560827   2    1000006   -6
    0.054560827   2   -1000006    6
    0.040364351   2    1000012   -12
    0.040364351   2   -1000012    12
    0.040361957   2    1000014   -14
    0.040361957   2   -1000014    14
    0.039787643   2    1000011   -11
    0.039787643   2   -1000011    11
    0.039785684   2    1000013   -13
    0.039785684   2   -1000013    13
    0.015426462   2    1000016   -16
    0.015426462   2   -1000016    16
    0.015076466   2    1000015   -15
    0.015076466   2   -1000015    15
    0.0095409698   2    1000022    23
    0.0014993865   3    1000024    5   -6
    0.0014993865   3   -1000024   -5    6
    0.00088236383   2    2000005   -5
    0.00088236383   2   -2000005    5
    0.00052731176   3    1000022    6   -6
    0.00047711597   3    1000023    6   -6
    0.0004269261   2    1000025    23
    0.00034203574   2    1000025    25

DECAY 1000021  318.48022
    0.12353716   2    1000005   -5
    0.12353716   2   -1000005    5
    0.11889028   2    1000006   -6
    0.11889028   2   -1000006    6
    0.11455625   2    2000005   -5
    0.11455625   2   -2000005    5
    0.09100756   2    2000006   -6
    0.09100756   2   -2000006    6
    0.051647805   2    1000006   -4
    0.051647805   2   -1000006    4
    0.00017594024   3    1000037    5   -6
    0.00017594024   3   -1000037   -5    6
    0.00010236317   3    1000035    5   -5

DECAY 25  0.0034244483
    0.63301748   2   -5    5
    0.16660844   2   -24    24
    0.07432225   2    21    21
    0.072247473   2   -15    15
    0.03123356   2   -4    4
    0.018599912   2    23    23
    0.0023215403   2    22    22
    0.0011607975   2    22    23
    0.00025061369   2   -13    13
    0.00023711178   2   -3    3
    6.5558996e-07   2   -1    1
    1.6096705e-07   2   -2    2
    5.6341313e-09   2   -11    11

DECAY 35  93.474892
    0.43892485   2   -5    5
    0.11167316   2   -15    15
    0.1069699   2   -1000024    1000037
    0.1069699   2   -1000037    1000024
    0.063664912   2    1000023    1000035
    0.042937263   2    1000022    1000035
    0.019499705   2   -2000005    1000005
    0.019499705   2   -1000005    2000005
    0.018519448   2    1000022    1000025
    0.017471025   2    1000023    1000025
    0.013257809   2   -2000006    1000006
    0.013257809   2   -1000006    2000006
    0.0060852566   2   -2000015    1000015
    0.0060852566   2   -1000015    2000015
    0.0031088217   2   -1000024    1000024
    0.0030198851   2   -1000006    1000006
    0.0015393894   2   -1000005    1000005
    0.0014771336   2   -2000006    2000006
    0.0014107903   2   -2000005    2000005
    0.0010129126   2   -6    6
    0.00081922021   2    1000025    1000035
    0.00072424501   2    1000022    1000023
    0.00059732107   2    1000022    1000022
    0.00039970483   2   -13    13
    0.00024683299   2    1000025    1000025
    0.00022859129   2   -1000037    1000037
    0.00019120519   2   -3    3
    0.00011636447   2    1000023    1000023
    0.00011483787   2    1000035    1000035
    9.3484882e-05   2   -1000015    1000015
    7.9889562e-05   2   -2000015    2000015
    1.7095799e-06   2    21    21
    5.2861179e-07   2   -1    1
    1.6651135e-07   2    23    23
    1.2868046e-07   2    25    25
    5.7281292e-08   2   -1000011    1000011
    5.6802595e-08   2   -1000013    1000013
    4.0833139e-08   2   -24    24
    3.5282268e-08   2    22    23
    2.8768052e-08   2   -2000011    2000011
    2.8615885e-08   2   -2000013    2000013
    1.7658167e-08   2   -4    4
    1.6359924e-08   2    22    22
    8.9767175e-09   2   -11    11
    3.0079061e-09   2   -2000013    1000013
    3.0079061e-09   2   -1000013    2000013
    9.1029367e-14   2   -2    2
    7.0356509e-14   2   -2000011    1000011
    7.0356509e-14   2   -1000011    2000011

DECAY 36  90.24047
    0.42594797   2   -5    5
    0.11038014   2   -1000024    1000037
    0.11038014   2   -1000037    1000024
    0.10838688   2   -15    15
    0.066291064   2    1000022    1000035
    0.044196177   2    1000023    1000035
    0.02172904   2   -2000005    1000005
    0.02172904   2   -1000005    2000005
    0.019294657   2    1000023    1000025
    0.018083511   2    1000022    1000025
    0.016138329   2   -2000006    1000006
    0.016138329   2   -1000006    2000006
    0.006392456   2   -2000015    1000015
    0.006392456   2   -1000015    2000015
    0.0038013815   2   -1000024    1000024
    0.00082883459   2   -6    6
    0.00077392917   2    1000022    1000022
    0.00065320077   2   -1000037    1000037
    0.00064046262   2    1000022    1000023
    0.00050715935   2    1000025    1000035
    0.00038794521   2   -13    13
    0.0003277515   2    1000035    1000035
    0.00028250088   2    1000025    1000025
    0.0001855635   2   -3    3
    0.00012103248   2    1000023    1000023
    9.0411525e-06   2    21    21
    5.1301599e-07   2   -1    1
    3.2117294e-07   2    23    25
    9.2109022e-08   2    22    23
    5.8856638e-08   2    22    22
    1.4481661e-08   2   -4    4
    8.7125854e-09   2   -11    11
    3.0942716e-09   2   -2000013    1000013
    3.0942716e-09   2   -1000013    2000013
    9.6137394e-14   2    23    35
    7.4656413e-14   2   -2    2
    7.2375327e-14   2   -2000011    1000011
    7.2375327e-14   2   -1000011    2000011
    5.2127276e-41   2    25    25

DECAY 37  97.385178
    0.48334351   2   -5    6
    0.10475442   2    1000022    1000037
    0.1033911   2    1000024    1000035
    0.10177576   2    1000023    1000037
    0.094595436   2   -15    16
    0.040974421   2   -2000005    1000006
    0.033769811   2    1000024    1000025
    0.01926067   2   -1000005    2000006
    0.011816026   2   -2000015    1000016
    0.0025827915   2    1000023    1000024
    0.001252606   2    1000025    1000037
    0.00098216881   2   -2000005    2000006
    0.00071530243   2   -5    4
    0.00033442857   2   -13    14
    0.0002200606   2    1000022    1000024
    0.00017000278   2   -3    4
    4.1302602e-05   2   -1000015    1000016
    7.9765629e-06   2   -3    2
    5.107997e-06   2   -5    2
    4.0121402e-06   2   -1000005    1000006
    1.7892296e-06   2   -3    6
    4.7149357e-07   2   -1    2
    2.976869e-07   2    24    25
    2.1592149e-07   2   -1000011    1000012
    2.1527611e-07   2   -1000013    1000014
    7.0475759e-08   2   -1    6
    2.2702452e-08   2   -1    4
    7.8223191e-09   2   -11    12
    5.8825076e-09   2   -2000013    1000014
    7.5082171e-10   2    1000035    1000037
    1.3759698e-13   2   -2000011    1000012
    4.9991182e-14   2    24    35

DECAY 6  2.43
    1   2    5    24

DECAY 15 -1
