BLOCK SPINFO
   1   SPheno
   2   v4.0.5be

BLOCK SPHENOINFO
   1   2
   2   2

BLOCK MODSEL
   1   0

BLOCK MINPAR
   3    26.006594
   4    1

BLOCK EXTPAR
   0    948.64687
   1   -1563.7095
   2   -1435.4401
   3    3000
   11   -2448.0669
   12    1821.8917
   13    1870.3638
   23    488.18485
   25    25.264886
   26    525.88582
   31    1239.688
   32    1239.688
   33    630.64053
   34    1721.9889
   35    1721.9889
   36    1953.721
   41    5000
   42    5000
   43    1208.7812
   44    5000
   45    5000
   46    1042.9012
   47    5000
   48    5000
   49    1384.6901

BLOCK SMINPUTS
   1    127.90897
   2    1.1663787e-05
   3    0.1184
   4    91.1876
   5    4.18
   6    173.2
   7    1.777
   8    0
   11    0.00051099893
   12    0
   13    0.10565837
   14    0
   21    0.005
   22    0.0025
   23    0.095
   24    1.27

BLOCK GAUGE Q=  948.64687
   1    0.35536298
   2    0.66519887
   3    1.219778

BLOCK YU Q=  948.64687
   1   1    8.3909371e-06
   2   2    0.0042625961
   3   3    1.0136926

BLOCK YD Q=  948.64687
   1   1    0.0004259985
   2   2    0.0080939714
   3   3    0.42245702

BLOCK YE Q=  948.64687
   1   1    7.4339853e-05
   2   2    0.015371124
   3   3    0.25851702

BLOCK AU Q=  948.64687
   1   1    0
   2   2    0
   3   3   -2448.0669

BLOCK AD Q=  948.64687
   1   1    0
   2   2    0
   3   3    1821.8917

BLOCK AE Q=  948.64687
   1   1    0
   2   2    0
   3   3    1870.3638

BLOCK MSOFT Q=  948.64687
   1   -1563.7095
   2   -1435.4401
   3    3000
   21    37430.832
   22   -234868.97
   31    1239.688
   32    1239.688
   33    630.64053
   34    1721.9889
   35    1721.9889
   36    1953.721
   41    5000
   42    5000
   43    1208.7812
   44    5000
   45    5000
   46    1042.9012
   47    5000
   48    5000
   49    1384.6901

BLOCK MASS
   6    173.2
   23    91.1876
   24    80.429995
   15    1.777
   25    121.72401
   35    525.91163
   36    525.88582
   37    532.7436
   1000001    5002.1156
   2000001    4994.558
   1000002    5001.6719
   2000002    4995.0367
   1000003    5002.1194
   2000003    4994.5624
   1000004    5001.6753
   2000004    4995.0381
   1000005    1085.3003
   2000005    1309.6254
   1000006    764.70663
   2000006    1176.8315
   1000011    1249.6896
   2000011    1726.435
   1000012    1246.7883
   1000013    1249.687
   2000013    1726.4306
   1000014    1246.7862
   1000015    643.35374
   2000015    1955.2378
   1000016    638.16353
   1000021    3149.868
   1000022   -491.58805
   1000023    496.49241
   1000025   -1469.963
   1000035   -1568.2713
   1000024    494.02318
   1000037    1470.2394

BLOCK ALPHA
      -0.041364804

BLOCK HMIX Q=  948.64687
   1    488.18485
   2    25.264886
   3    244.41353
   4    276555.9

BLOCK STOPMIX
   1   1    0.48871957
   1   2    0.87244093
   2   1   -0.87244093
   2   2    0.48871957

BLOCK SBOTMIX
   1   1    0.99898808
   1   2    0.044975662
   2   1   -0.044975662
   2   2    0.99898808

BLOCK STAUMIX
   1   1    0.99998599
   1   2    0.0052923357
   2   1   -0.0052923357
   2   2    0.99998599

BLOCK NMIX
   1   1   -0.02773842
   1   2    0.053919082
   1   3   -0.70829536
   1   4   -0.70330718
   2   1    0.015809569
   2   2   -0.029657335
   2   3   -0.70565274
   2   4    0.70776035
   3   1    0.023949909
   3   2    0.99786337
   3   3    0.017103862
   3   4    0.058331493
   4   1   -0.9992032
   4   2    0.021951728
   4   3    0.0089076615
   4   4    0.032120643

BLOCK UMIX
   1   1   -0.02456067
   1   2    0.99969834
   2   1   -0.99969834
   2   2   -0.02456067

BLOCK VMIX
   1   1    0.083694886
   1   2    0.99649143
   2   1    0.99649143
   2   2   -0.083694886

BLOCK HIGGSBOUNDSINPUTHIGGSCOUPLINGSFERMIONS
       0, 638.31449,3,36,15,15

BLOCK HIGGSBOUNDSINPUTHIGGSCOUPLINGSBOSONS
       0,4,36,21,21,23

BLOCK SPHENOLOWENERGY
   1    0.00034328407
   2    1.5868966e-06
   3    3.5221517e-05
   4    3.1760333e-15
   5    1.3567158e-10
   6    2.8113947e-08
   7    1.0641758e-13
   8    4.5459993e-09
   9    9.5507659e-07
   10    8.6539884e-05
   11    0.89392387
   12    0.54310059
   13    19.367207
   14    0
   15    0
   16    0.0021614624
   17    2.2817149e-15
   18    2.4799675e-11
   19    8.2895943e-11
   20   -4.8705683e-15
   21   -2.0823173e-10
   22   -8.1188703e-08
   23    0
   24    0
   25    0
   26    0
   27    0
   28    0
   29    0
   30    0
   31    0
   39    7.7638024e-05
   40    0
   41    0
   42    0

BLOCK FWCOEF Q=  160
   305   4422   0   0   -0.18881911
   305   4422   0   2   -0.20396313
   305   4322   0   2   -0.0012113541
   305   6421   0   0   -0.095227835
   305   6421   0   2   -0.14858266
   305   6321   0   2   -0.0014866884
   3051111   4133   0   0    1.5755709
   3051111   4133   0   2    1.5776112
   3051111   4233   0   2   -9.2197856e-05
   3051111   4137   0   0   -4.398263
   3051111   4137   0   2   -4.3935285
   3051111   4237   0   2    0.00074028529
   3051313   4133   0   0    1.5755709
   3051313   4133   0   2    1.5776095
   3051313   4233   0   2   -9.2216569e-05
   3051313   4137   0   0   -4.398263
   3051313   4137   0   2   -4.3935302
   3051313   4237   0   2    0.00074030339
   3051212   4137   0   0    1.5053501
   3051212   4137   0   2    1.5043186
   3051212   4237   0   2   -0.00016193732
   3051414   4137   0   0    1.5053501
   3051414   4137   0   2    1.5043186
   3051414   4237   0   2   -0.00016193326
   3051616   4137   0   0    1.5053501
   3051616   4137   0   2    1.5043179
   3051616   4237   0   2   -0.00016078696

BLOCK IMFWCOEF Q=  160
   305   4422   0   0    3.8587064e-07
   305   4422   0   2   -9.8895797e-06
   305   4322   0   2    4.5204327e-06
   305   6421   0   0    3.3052372e-07
   305   6421   0   2   -8.3353556e-06
   305   6321   0   2    1.6229099e-06
   3051111   4133   0   2   -2.2425496e-06
   3051111   4233   0   2    1.5782335e-06
   3051111   4137   0   2    1.8208499e-05
   3051111   4237   0   2   -1.2577131e-05
   3051313   4133   0   2   -2.2425334e-06
   3051313   4233   0   2    1.5782312e-06
   3051313   4137   0   2    1.8208518e-05
   3051313   4237   0   2   -1.257714e-05
   3051212   4137   0   2   -3.9029371e-06
   3051212   4237   0   2    2.7512705e-06
   3051414   4137   0   2   -3.9029373e-06
   3051414   4237   0   2    2.7512705e-06
   3051616   4137   0   2   -3.9157432e-06
   3051616   4237   0   2    2.7512759e-06

DECAY 23  2.4952


DECAY 24  2.085


DECAY 1000011  0.012487773
    0.48114271   2    1000022    11
    0.37829642   2   -1000024    12
    0.14056085   2    1000023    11

DECAY 2000011  0.27257035
    0.97124716   2    1000035    11
    0.020677746   2    1000022    11
    0.0066935183   2    1000023    11
    0.0013809714   2    1000025    11

DECAY 1000013  0.016667355
    0.48677542   2    1000022    13
    0.28343205   2   -1000024    14
    0.22979251   2    1000023    13

DECAY 2000013  0.28637996
    0.92436495   2    1000035    13
    0.031683336   2    1000022    13
    0.023871593   2   -1000024    14
    0.018243798   2    1000023    13
    0.0013149451   2    1000025    13
    0.00052009145   2    1000013    25

DECAY 1000015  0.1455865
    0.51542215   2    1000022    15
    0.47993725   2    1000023    15
    0.004640553   2   -1000024    16

DECAY 2000015  9.8912958
    0.23003279   2   -1000024    16
    0.19601505   2    1000016   -37
    0.126145   2    1000035    15
    0.11615482   2    1000022    15
    0.11487791   2    1000023    15
    0.098114358   2    1000015    35
    0.098048281   2    1000015    36
    0.010199741   2    1000016   -24
    0.0051375155   2    1000015    25
    0.0050595332   2    1000015    23
    0.00014266475   2    1000025    15

DECAY 1000012  0.078770249
    0.69360763   2    1000024    11
    0.23478067   2    1000022    12
    0.071611697   2    1000023    12

DECAY 1000014  0.082934511
    0.70899291   2    1000024    13
    0.22299133   2    1000022    14
    0.068015764   2    1000023    14

DECAY 1000016  0.1459284
    0.9806097   2    1000024    15
    0.015036391   2    1000022    16
    0.0043539136   2    1000023    16

DECAY 2000001  145.26656
    0.98439946   2    1000021    1
    0.015571929   2    1000035    1

DECAY 1000001  199.50326
    0.72073228   2    1000021    1
    0.1841177   2   -1000037    2
    0.09094532   2    1000025    1
    0.0035849945   2    1000035    1
    0.00037501439   2    1000022    1
    0.00013055801   2   -1000024    2
    0.0001141326   2    1000023    1

DECAY 2000003  145.27975
    0.98431323   2    1000021    3
    0.015570538   2    1000035    3

DECAY 1000003  199.51185
    0.72070319   2    1000021    3
    0.18411002   2   -1000037    4
    0.090941508   2    1000025    3
    0.0035848462   2    1000035    3
    0.00039103082   2    1000022    3
    0.00013937326   2   -1000024    4
    0.00013003659   2    1000023    3

DECAY 1000005  38.937133
    0.61488941   2    1000006   -24
    0.32248662   2   -1000024    6
    0.031898208   2    1000022    5
    0.030725765   2    1000023    5

DECAY 2000005  7.4547786
    0.45071825   2   -1000024    6
    0.22904246   2    1000023    5
    0.22880294   2    1000022    5
    0.049889039   2    1000006   -37
    0.027369491   2    1000006   -24
    0.0082049615   2    1000005    25
    0.0048399846   2    1000005    23
    0.0011328722   2    2000006   -24

DECAY 2000002  152.11629
    0.94040048   2    1000021    2
    0.059491121   2    1000035    2

DECAY 1000002  199.49425
    0.72053281   2    1000021    2
    0.18292423   2    1000037    1
    0.092506354   2    1000025    2
    0.0021829149   2    1000035    2
    0.001516093   2    1000024    1
    0.00025964936   2    1000022    2

DECAY 2000004  152.11991
    0.94037864   2    1000021    4
    0.059489716   2    1000035    4

DECAY 1000004  199.50274
    0.72050363   2    1000021    4
    0.18291663   2    1000037    3
    0.092502497   2    1000025    4
    0.002182833   2    1000035    4
    0.0015479665   2    1000024    3
    0.00026403869   2    1000022    4

DECAY 1000006  5.8507733
    0.67747026   2    1000024    5
    0.16412713   2    1000022    6
    0.1583955   2    1000023    6

DECAY 2000006  50.960703
    0.35264394   2    1000006    23
    0.17572642   2    1000022    6
    0.17337502   2    1000023    6
    0.15780351   2    1000006    25
    0.13445438   2    1000024    5
    0.0059967306   2    1000005    24

DECAY 1000024  2.3382884e-10
    0.51681201   3    1000022   -1    2
    0.17228064   3    1000022   -11    12
    0.1706762   3    1000022   -13    14
    0.1319728   3    1000022   -3    4
    0.0082583564   3    1000022   -15    16

DECAY 1000037  40.171467
    0.10538184   2    1000016   -15
    0.10522935   2   -1000015    16
    0.092081004   2    1000006   -5
    0.081280697   2   -1000005    6
    0.073599306   2    1000024    25
    0.071122119   2    1000023    24
    0.071093355   2    1000022    24
    0.070625364   2    1000024    23
    0.059929826   2    1000024    36
    0.05970975   2    1000024    35
    0.059241266   2    37    1000023
    0.053851846   2    37    1000022
    0.040666405   2    2000006   -5
    0.012619136   2    1000014   -13
    0.012618904   2    1000012   -11
    0.012399305   2   -1000013    14
    0.012399036   2   -1000011    12
    0.0021316408   3    1000022   -5    6
    0.0020993662   3    1000024    6   -6
    0.0019204721   3    1000023   -5    6

DECAY 1000022 -1


DECAY 1000023  3.1749362e-08
    0.76775785   2    1000022    22
    0.062154743   3    1000022    12   -12
    0.046473677   3    1000022    1   -1
    0.046271419   3    1000022    3   -3
    0.036245702   3    1000022    2   -2
    0.013972977   3    1000022    4   -4
    0.010487794   3    1000022    11   -11
    0.010415972   3    1000022    13   -13
    0.0013519903   3    1000024    1   -2
    0.0013519903   3   -1000024   -1    2
    0.00095343457   3    1000022    15   -15
    0.00045068083   3    1000024    11   -12
    0.00045068083   3   -1000024   -11    12
    0.00044659725   3    1000024    13   -14
    0.00044659725   3   -1000024   -13    14
    0.0003596932   3    1000024    3   -4
    0.0003596932   3   -1000024   -3    4

DECAY 1000025  42.605502
    0.069433798   2    1000024   -24
    0.069433798   2   -1000024    24
    0.062100419   2    1000023    25
    0.051534331   2    37   -1000024
    0.051534331   2   -37    1000024
    0.051510218   2    1000022    25
    0.050692994   2    1000023    23
    0.05068567   2    1000015   -15
    0.05068567   2   -1000015    15
    0.048523491   2    1000016   -16
    0.048523491   2   -1000016    16
    0.047516386   2    1000022    35
    0.046365733   2    1000005   -5
    0.046365733   2   -1000005    5
    0.045253674   2    1000006   -6
    0.045253674   2   -1000006    6
    0.040252374   2    1000023    35
    0.019544571   2    2000006   -6
    0.019544571   2   -2000006    6
    0.014995153   2    1000022    23
    0.008848245   2    1000023    36
    0.0077183583   2    1000022    36
    0.0059615186   2    1000013   -13
    0.0059615186   2   -1000013    13
    0.0059613915   2    1000011   -11
    0.0059613915   2   -1000011    11
    0.0058012109   2    1000014   -14
    0.0058012109   2   -1000014    14
    0.0058011088   2    1000012   -12
    0.0058011088   2   -1000012    12
    0.0023765665   3    1000024    5   -6
    0.0023765665   3   -1000024   -5    6
    0.00095074552   3    1000023    6   -6
    0.00084446344   3    1000022    6   -6

DECAY 1000035  17.329635
    0.14530167   2    1000006   -6
    0.14530167   2   -1000006    6
    0.051695726   2    1000024   -24
    0.051695726   2   -1000024    24
    0.051107585   2    1000023    25
    0.046814633   2    1000023    23
    0.042827501   2    1000016   -16
    0.042827501   2   -1000016    16
    0.042392854   2    1000022    25
    0.040827018   2    1000022    35
    0.036778525   2    37   -1000024
    0.036778525   2   -37    1000024
    0.036095427   2    1000015   -15
    0.036095427   2   -1000015    15
    0.034593269   2    1000023    35
    0.01673889   2    2000006   -6
    0.01673889   2   -2000006    6
    0.014831682   2    1000022    23
    0.0089003525   2    1000023    36
    0.0083285688   2    1000014   -14
    0.0083285688   2   -1000014    14
    0.0083284706   2    1000012   -12
    0.0083284706   2   -1000012    12
    0.0077429266   2    1000022    36
    0.0069520434   2    1000013   -13
    0.0069520434   2   -1000013    13
    0.0069519379   2    1000011   -11
    0.0069519379   2   -1000011    11
    0.0069339492   2    2000005   -5
    0.0069339492   2   -2000005    5
    0.0064609968   2    1000005   -5
    0.0064609968   2   -1000005    5
    0.0017129984   3    1000024    5   -6
    0.0017129984   3   -1000024   -5    6
    0.0009479215   3    1000023    6   -6
    0.00084536498   3    1000022    6   -6
    0.00037941686   2    1000037   -24
    0.00037941686   2   -1000037    24

DECAY 1000021  287.80422
    0.13278421   2    2000006   -6
    0.13278421   2   -2000006    6
    0.12914428   2    1000006   -6
    0.12914428   2   -1000006    6
    0.12576776   2    1000005   -5
    0.12576776   2   -1000005    5
    0.11084944   2    2000005   -5
    0.11084944   2   -2000005    5
    0.0012338539   2    1000006   -4
    0.0012338539   2   -1000006    4

DECAY 25  0.0038783045
    0.65169847   2   -5    5
    0.1600456   2   -24    24
    0.074194368   2   -15    15
    0.064472306   2    21    21
    0.027727803   2   -4    4
    0.018135884   2    23    23
    0.0021192279   2    22    22
    0.0011033323   2    22    23
    0.00025794566   2   -13    13
    0.00024424142   2   -3    3
    6.7529638e-07   2   -1    1
    1.4289757e-07   2   -2    2
    5.7989514e-09   2   -11    11

DECAY 35  5.3046879
    0.86862695   2   -5    5
    0.12693892   2   -15    15
    0.0030515337   2   -6    6
    0.00045473323   2   -13    13
    0.00034594923   2   -3    3
    0.00031073235   2    25    25
    0.00016412544   2    21    21
    7.1659256e-05   2   -24    24
    3.4167336e-05   2    23    23
    9.5642931e-07   2   -1    1
    1.1762019e-07   2   -4    4
    1.0955683e-07   2    22    22
    2.813982e-08   2    22    23
    1.0218493e-08   2   -11    11
    6.0676391e-13   2   -2    2

DECAY 36  5.2424793
    0.86755786   2   -5    5
    0.12677242   2   -15    15
    0.0046005206   2   -6    6
    0.00045410541   2   -13    13
    0.00034546907   2   -3    3
    0.00020871421   2    21    21
    5.9526564e-05   2    23    25
    9.5510188e-07   2   -1    1
    2.2649952e-07   2    22    22
    1.0152994e-07   2   -4    4
    8.988904e-08   2    22    23
    1.0204383e-08   2   -11    11
    5.2434369e-13   2   -2    2
    2.6319886e-35   2    25    25

DECAY 37  4.4518995
    0.83559712   2   -5    6
    0.16185484   2   -15    16
    0.0014929928   2   -5    4
    0.00057222692   2   -13    14
    0.00036831806   2   -3    4
    7.520383e-05   2    24    25
    1.6851541e-05   2   -3    2
    1.0661626e-05   2   -5    2
    1.0245597e-05   2   -3    6
    1.0214729e-06   2   -1    2
    4.5026271e-07   2   -1    6
    5.1722797e-08   2   -1    4
    1.3384448e-08   2   -11    12
    4.5703062e-09   2    24    36
    4.4851081e-09   2    24    35

DECAY 6  2.43
    1   2    5    24

DECAY 15 -1
