BLOCK SPINFO
   1   SPheno
   2   v4.0.5be

BLOCK SPHENOINFO
   1   2
   2   2

BLOCK MODSEL
   1   0

BLOCK MINPAR
   3    41.847697
   4    1

BLOCK EXTPAR
   0    1387.7335
   1   -1925.9225
   2    1487.7787
   3    3000
   11   -3970.6748
   12   -662.10087
   13   -795.65944
   23    146.15568
   25    41.134607
   26    1919.8075
   31    204.71776
   32    204.71776
   33    1839.9472
   34    482.51891
   35    482.51891
   36    1517.029
   41    5000
   42    5000
   43    1886.0435
   44    5000
   45    5000
   46    1151.0595
   47    5000
   48    5000
   49    1998.4803

BLOCK SMINPUTS
   1    127.90897
   2    1.1663787e-05
   3    0.1184
   4    91.1876
   5    4.18
   6    173.2
   7    1.777
   8    0
   11    0.00051099893
   12    0
   13    0.10565837
   14    0
   21    0.005
   22    0.0025
   23    0.095
   24    1.27

BLOCK GAUGE Q=  1387.7335
   1    0.35536298
   2    0.66519887
   3    1.219778

BLOCK YU Q=  1387.7335
   1   1    8.3868493e-06
   2   2    0.0042605195
   3   3    1.0131988

BLOCK YD Q=  1387.7335
   1   1    0.00069324452
   2   2    0.013171646
   3   3    0.68748133

BLOCK YE Q=  1387.7335
   1   1    0.00012097624
   2   2    0.025014049
   3   3    0.42069516

BLOCK AU Q=  1387.7335
   1   1    0
   2   2    0
   3   3   -3970.6746

BLOCK AD Q=  1387.7335
   1   1    0
   2   2    0
   3   3   -662.1009

BLOCK AE Q=  1387.7335
   1   1    0
   2   2    0
   3   3   -795.65944

BLOCK MSOFT Q=  1387.7335
   1   -1925.9225
   2    1487.7787
   3    3000
   21    3695652.9
   22   -13338.561
   31    204.71776
   32    204.71776
   33    1839.9472
   34    482.51891
   35    482.51891
   36    1517.029
   41    5000
   42    5000
   43    1886.0435
   44    5000
   45    5000
   46    1151.0595
   47    5000
   48    5000
   49    1998.4803

BLOCK MASS
   6    173.2
   23    91.1876
   24    80.429995
   15    1.777
   25    122.90034
   35    1919.2786
   36    1919.8075
   37    1922.0438
   1000001    5023.7753
   2000001    5015.4197
   1000002    5023.3471
   2000002    5016.2635
   1000003    5023.7798
   2000003    5015.4273
   1000004    5023.3515
   2000004    5016.2644
   1000005    1857.7673
   2000005    2016.0591
   1000006    1014.7658
   2000006    1897.782
   1000011    251.77649
   2000011    493.40148
   1000012    238.79628
   1000013    251.74691
   2000013    493.37785
   1000014    238.77044
   1000015    1517.225
   2000015    1846.9959
   1000016    1844.9934
   1000021    3186.4637
   1000022    146.72336
   1000023   -150.92536
   1000025    1537.9125
   1000035   -1920.8215
   1000024    148.82436
   1000037    1538.0233

BLOCK ALPHA
      -0.024051571

BLOCK HMIX Q=  1387.7335
   1    146.15568
   2    41.134607
   3    244.05734
   4    3685660.8

BLOCK STOPMIX
   1   1    0.23001758
   1   2    0.97318647
   2   1   -0.97318647
   2   2    0.23001758

BLOCK SBOTMIX
   1   1    0.99963893
   1   2    0.026870257
   2   1   -0.026870257
   2   2    0.99963893

BLOCK STAUMIX
   1   1    0.011023349
   1   2    0.99993924
   2   1   -0.99993924
   2   2    0.011023349

BLOCK NMIX
   1   1   -0.015362316
   1   2   -0.041759783
   1   3    0.71153954
   1   4   -0.70123577
   2   1    0.017293219
   2   2    0.033178907
   2   3    0.70261577
   2   4    0.71058511
   3   1    0.0006742674
   3   2   -0.99857648
   3   3   -0.0064101795
   3   4    0.052947787
   4   1    0.99973221
   4   2   -0.00054213469
   4   3   -0.0012155961
   4   4   -0.023102797

BLOCK UMIX
   1   1   -0.0090775005
   1   2    0.9999588
   2   1    0.9999588
   2   2    0.0090775005

BLOCK VMIX
   1   1   -0.074996741
   1   2    0.99718378
   2   1    0.99718378
   2   2    0.074996741

BLOCK HIGGSBOUNDSINPUTHIGGSCOUPLINGSFERMIONS
       0, 1692.0559,3,36,15,15

BLOCK HIGGSBOUNDSINPUTHIGGSCOUPLINGSBOSONS
       0,4,36,21,21,23

BLOCK SPHENOLOWENERGY
   1    0.00026265006
   2    1.6064473e-06
   3    3.5301668e-05
   4    4.6769832e-15
   5    1.9978297e-10
   6    4.107446e-08
   7    1.5742827e-13
   8    6.724925e-09
   9    1.4016839e-06
   10    9.4544176e-05
   11    0.97660514
   12    0.54281708
   13    19.378341
   14    0
   15    0
   16    0.0021607009
   17    2.2816956e-15
   18    2.4824204e-11
   19    8.2965401e-11
   20    3.9419382e-15
   21    1.684182e-10
   22    5.3122672e-08
   23    0
   24    0
   25    0
   26    0
   27    0
   28    0
   29    0
   30    0
   31    0
   39    0.0001019238
   40    0
   41    0
   42    0

BLOCK FWCOEF Q=  160
   305   4422   0   0   -0.18881911
   305   4422   0   2   -0.11347194
   305   4322   0   2    0.00035010306
   305   6421   0   0   -0.095227835
   305   6421   0   2   -0.065917791
   305   6321   0   2   -5.8194225e-05
   3051111   4133   0   0    1.5895605
   3051111   4133   0   2    1.5915882
   3051111   4233   0   2    0.00020942247
   3051111   4137   0   0   -4.4122526
   3051111   4137   0   2   -4.4154205
   3051111   4237   0   2   -0.0016351438
   3051313   4133   0   0    1.5895605
   3051313   4133   0   2    1.5915782
   3051313   4233   0   2    0.00020941952
   3051313   4137   0   0   -4.4122526
   3051313   4137   0   2   -4.4154305
   3051313   4237   0   2   -0.0016351463
   3051212   4137   0   0    1.5053501
   3051212   4137   0   2    1.5060494
   3051212   4237   0   2    0.0003565587
   3051414   4137   0   0    1.5053501
   3051414   4137   0   2    1.5060494
   3051414   4237   0   2    0.00035655907
   3051616   4137   0   0    1.5053501
   3051616   4137   0   2    1.5060503
   3051616   4237   0   2    0.00035666228

BLOCK IMFWCOEF Q=  160
   305   4422   0   0    3.858494e-07
   305   4422   0   2    2.3821845e-05
   305   4322   0   2    1.0706706e-05
   305   6421   0   0    3.3050553e-07
   305   6421   0   2   -2.5620869e-06
   305   6321   0   2    4.5462652e-06
   3051111   4133   0   2   -6.8855987e-07
   3051111   4233   0   2    5.2316814e-06
   3051111   4137   0   2    5.4484944e-06
   3051111   4237   0   2   -4.0874689e-05
   3051313   4133   0   2   -6.8870482e-07
   3051313   4233   0   2    5.2316596e-06
   3051313   4137   0   2    5.4483033e-06
   3051313   4237   0   2   -4.0874765e-05
   3051212   4137   0   2   -1.0733562e-06
   3051212   4237   0   2    8.9130894e-06
   3051414   4137   0   2   -1.0733583e-06
   3051414   4237   0   2    8.9130894e-06
   3051616   4137   0   2   -1.0573314e-06
   3051616   4237   0   2    8.913082e-06

DECAY 23  2.4952


DECAY 24  2.085


DECAY 1000011  0.0021069008
    0.57273553   2    1000022    11
    0.39013906   2    1000023    11
    0.036822945   2   -1000024    12
    0.00015477475   3    1000012    1   -2
    0.00014768535   3    1000012    3   -4

DECAY 2000011  0.0010960652
    0.55626265   2    1000023    11
    0.44362538   2    1000022    11
    0.00010836622   2   -1000024    12

DECAY 1000013  0.003435234
    0.55212367   2    1000022    13
    0.42511514   2    1000023    13
    0.022575959   2   -1000024    14

DECAY 2000013  0.011419332
    0.44466028   2   -1000024    14
    0.27166647   2    1000023    13
    0.26885977   2    1000022    13
    0.014813479   2    1000013    25

DECAY 1000015  10.485459
    0.49981226   2   -1000024    16
    0.25360604   2    1000022    15
    0.2465817   2    1000023    15

DECAY 2000015  8.7582958
    0.37305072   2    1000022    15
    0.36366165   2    1000023    15
    0.17447949   2   -1000037    16
    0.086999   2    1000025    15
    0.00090675045   2    1000015    23
    0.00089426795   2    1000015    25

DECAY 1000012  0.0051180371
    0.86774581   2    1000024    11
    0.089584827   2    1000022    12
    0.042669365   2    1000023    12

DECAY 1000014  0.0062280747
    0.89135874   2    1000024    13
    0.073590727   2    1000022    14
    0.035050531   2    1000023    14

DECAY 1000016  8.7892375
    0.73972488   2    1000024    15
    0.17103325   2    1000037    15
    0.085867516   2    1000025    16
    0.0018247693   2    1000015    24
    0.0010270621   2    1000022    16
    0.00052252185   2    1000023    16

DECAY 2000001  142.82955
    0.9857214   2    1000021    1
    0.014267449   2    1000035    1

DECAY 1000001  196.66592
    0.7203075   2    1000021    1
    0.18467853   2   -1000037    2
    0.092109035   2    1000025    1
    0.0026135775   2    1000035    1
    0.00017105811   2    1000022    1
    0.00010180139   2    1000023    1

DECAY 2000003  142.86482
    0.98548365   2    1000021    3
    0.014263965   2    1000035    3
    0.00012094682   2   -1000024    4

DECAY 1000003  196.68553
    0.72023807   2    1000021    3
    0.1846604   2   -1000037    4
    0.092099974   2    1000025    3
    0.0026133211   2    1000035    3
    0.00021547528   2    1000022    3
    0.00014511466   2    1000023    3

DECAY 1000005  134.61388
    0.58307422   2    1000006   -24
    0.27159799   2   -1000024    6
    0.065080815   2    1000022    5
    0.063195308   2    1000023    5
    0.011057582   2   -1000037    6
    0.0059940901   2    1000025    5

DECAY 2000005  37.356745
    0.49511098   2   -1000024    6
    0.25376712   2    1000022    5
    0.24803939   2    1000023    5
    0.0023477112   2    1000006   -24
    0.00025636761   2    1000035    5
    0.0001578803   2    1000005    25
    0.00010583619   2   -1000037    6
    0.00010088448   2    1000005    23

DECAY 2000002  149.03752
    0.94525167   2    1000021    2
    0.054708155   2    1000035    2

DECAY 1000002  196.66224
    0.72009428   2    1000021    2
    0.18363624   2    1000037    1
    0.092055375   2    1000025    2
    0.002581612   2    1000035    2
    0.0012627396   2    1000024    1
    0.00022221041   2    1000022    2
    0.00014754029   2    1000023    2

DECAY 2000004  149.04117
    0.94522877   2    1000021    4
    0.054706818   2    1000035    4

DECAY 1000004  196.68177
    0.72002478   2    1000021    4
    0.18361824   2    1000037    3
    0.092046367   2    1000025    4
    0.002581364   2    1000035    4
    0.0013503618   2    1000024    3
    0.00022671507   2    1000022    4
    0.00015217358   2    1000023    4

DECAY 1000006  37.925835
    0.51688995   2    1000024    5
    0.24402063   2    1000023    6
    0.23906519   2    1000022    6

DECAY 2000006  148.06679
    0.32483972   2    1000006    25
    0.28155062   2    1000006    23
    0.12824814   2    1000023    6
    0.12460714   2    1000022    6
    0.12126861   2    1000024    5
    0.013205267   2    1000037    5
    0.00628051   2    1000025    6

DECAY 1000024  1.7603644e-11
    0.57675455   3    1000022   -1    2
    0.1923609   3    1000022   -11    12
    0.18930076   3    1000022   -13    14
    0.041566708   3    1000022   -3    4

DECAY 1000037  39.719918
    0.16141111   2   -1000013    14
    0.16140902   2   -1000011    12
    0.16140533   2    1000014   -13
    0.1614036   2    1000012   -11
    0.087308985   2    1000023    24
    0.085926417   2    1000024    23
    0.08503998   2    1000022    24
    0.084381974   2    1000024    25
    0.0034757513   3    1000024    6   -6
    0.002798895   3    1000023   -5    6
    0.0027987786   3    1000022   -5    6
    0.0022778038   2    1000006   -5
    0.00028853195   3    1000024    5   -5

DECAY 1000022 -1


DECAY 1000023  8.3432033e-09
    0.71599111   2    1000022    22
    0.074343356   3    1000022    12   -12
    0.055580622   3    1000022    1   -1
    0.055200491   3    1000022    3   -3
    0.043348627   3    1000022    2   -2
    0.012533832   3    1000022    11   -11
    0.012405118   3    1000022    13   -13
    0.0085902403   3    1000022    4   -4
    0.0061075787   3    1000024    1   -2
    0.0061075787   3   -1000024   -1    2
    0.0020364938   3    1000024    11   -12
    0.0020364938   3   -1000024   -11    12
    0.0020100354   3    1000024    13   -14
    0.0020100354   3   -1000024   -13    14
    0.00081060064   3    1000024    3   -4
    0.00081060064   3   -1000024   -3    4

DECAY 1000025  40.28097
    0.085447285   2    1000024   -24
    0.085447285   2   -1000024    24
    0.079852303   2    1000014   -14
    0.079852303   2   -1000014    14
    0.079851449   2    1000012   -12
    0.079851449   2   -1000012    12
    0.079297997   2    1000013   -13
    0.079297997   2   -1000013    13
    0.079296969   2    1000011   -11
    0.079296969   2   -1000011    11
    0.053076702   2    1000023    23
    0.050552864   2    1000022    25
    0.047398108   2    1000023    25
    0.031766167   2    1000022    23
    0.0023515976   3    1000024    5   -6
    0.0023515976   3   -1000024   -5    6
    0.0013597438   3    1000023    6   -6
    0.0013487944   3    1000022    6   -6
    0.00095607987   2    1000006   -6
    0.00095607987   2   -1000006    6
    0.00015569926   3    1000022    5   -5
    0.00015359573   3    1000023    5   -5

DECAY 1000035  39.47024
    0.10660443   2    2000013   -13
    0.10660443   2   -2000013    13
    0.10660299   2    2000011   -11
    0.10660299   2   -2000011    11
    0.082559218   2    1000006   -6
    0.082559218   2   -1000006    6
    0.032090403   2    1000024   -24
    0.032090403   2   -1000024    24
    0.029672495   2    1000014   -14
    0.029672495   2   -1000014    14
    0.029672294   2    1000012   -12
    0.029672294   2   -1000012    12
    0.029448784   2    1000013   -13
    0.029448784   2   -1000013    13
    0.029448541   2    1000011   -11
    0.029448541   2   -1000011    11
    0.018117477   2    1000022    25
    0.017497881   2    1000022    23
    0.017280416   2    1000015   -15
    0.017280416   2   -1000015    15
    0.016935386   2    1000023    25
    0.014537934   2    1000023    23
    0.0014962089   3    1000024    5   -6
    0.0014962089   3   -1000024   -5    6
    0.0009976447   3    1000023    6   -6
    0.00098438443   3    1000022    6   -6
    0.00018336231   2    1000016   -16
    0.00018336231   2   -1000016    16
    0.00017351425   2    2000015   -15
    0.00017351425   2   -2000015    15
    0.00015791093   3    1000022    5   -5
    0.0001568642   3    1000023    5   -5

DECAY 1000021  190.865
    0.18859441   2    1000006   -6
    0.18859441   2   -1000006    6
    0.11004407   2    2000006   -6
    0.11004407   2   -2000006    6
    0.10763563   2    1000005   -5
    0.10763563   2   -1000005    5
    0.088881   2    2000005   -5
    0.088881   2   -2000005    5
    0.0047467599   2    1000006   -4
    0.0047467599   2   -1000006    4

DECAY 25  0.0036282153
    0.60676358   2   -5    5
    0.19498183   2   -24    24
    0.072016477   2    21    21
    0.06973256   2   -15    15
    0.029765413   2   -4    4
    0.022627688   2    23    23
    0.0023259824   2    22    22
    0.0013157198   2    22    23
    0.00024169965   2   -13    13
    0.0002282599   2   -3    3
    6.3111521e-07   2   -1    1
    1.5339453e-07   2   -2    2
    5.4337098e-09   2   -11    11

DECAY 35  51.509901
    0.79369998   2   -5    5
    0.1357356   2   -15    15
    0.02228026   2   -1000024    1000037
    0.02228026   2   -1000037    1000024
    0.014895523   2    1000023    1000025
    0.0074419055   2    1000022    1000025
    0.0017382826   2   -1000024    1000024
    0.00081526004   2   -6    6
    0.00052107891   2   -13    13
    0.00028517649   2   -3    3
    0.00017365813   2    1000022    1000022
    9.5949305e-05   2    1000023    1000023
    1.9041779e-05   2    21    21
    9.1083098e-06   2    1000022    1000023
    5.2861357e-06   2    25    25
    8.441122e-07   2    23    23
    7.8840399e-07   2   -1    1
    4.7477275e-07   2   -24    24
    1.5243499e-07   2   -1000011    1000011
    1.510025e-07   2   -1000013    1000013
    8.7261557e-08   2   -2000011    2000011
    8.6449559e-08   2   -2000013    2000013
    1.8509483e-08   2    22    23
    1.1756472e-08   2   -4    4
    1.1704755e-08   2   -11    11
    8.8995602e-09   2    22    22
    7.2770699e-10   2   -2000013    1000013
    7.2770699e-10   2   -1000013    2000013
    6.0608196e-14   2   -2    2
    1.7021925e-14   2   -2000011    1000011
    1.7021925e-14   2   -1000011    2000011

DECAY 36  49.265882
    0.79085706   2   -5    5
    0.13525184   2   -15    15
    0.023319036   2   -1000024    1000037
    0.023319036   2   -1000037    1000024
    0.015891059   2    1000022    1000025
    0.0075211134   2    1000023    1000025
    0.0018825169   2   -1000024    1000024
    0.00081866412   2   -6    6
    0.00051920743   2   -13    13
    0.00028414897   2   -3    3
    0.00020425877   2    1000022    1000022
    9.3288953e-05   2    1000023    1000023
    3.1564423e-05   2    21    21
    5.0728092e-06   2    1000022    1000023
    1.1827666e-06   2    23    25
    7.855628e-07   2   -1    1
    7.847996e-08   2    22    22
    5.6546334e-08   2    22    23
    1.1662691e-08   2   -11    11
    1.1402671e-08   2   -4    4
    7.3667528e-10   2   -2000013    1000013
    7.3667528e-10   2   -1000013    2000013
    5.8784682e-14   2   -2    2
    1.723091e-14   2   -2000011    1000011
    1.723091e-14   2   -1000011    2000011
    5.2013543e-39   2    25    25

DECAY 37  51.246562
    0.797836   2   -5    6
    0.13135192   2   -15    16
    0.023071852   2    1000022    1000037
    0.022685659   2    1000024    1000025
    0.02244582   2    1000023    1000037
    0.0011872584   2   -5    4
    0.00046437641   2   -13    14
    0.00041113137   2    1000023    1000024
    0.00026155672   2   -3    4
    0.00025895797   2    1000022    1000024
    1.2185751e-05   2   -3    2
    8.4782544e-06   2   -5    2
    1.6326748e-06   2   -3    6
    1.1428256e-06   2    24    25
    7.2560107e-07   2   -1    2
    5.9876719e-07   2   -1000011    1000012
    5.9674652e-07   2   -1000013    1000014
    5.7383924e-08   2   -1    6
    3.4237141e-08   2   -1    4
    1.0861812e-08   2   -11    12
    1.6166117e-09   2   -2000013    1000014
    4.290047e-12   2    24    35
    1.4844745e-12   2    24    36
    3.7820502e-14   2   -2000011    1000012

DECAY 6  2.43
    1   2    5    24

DECAY 15 -1
