BLOCK SPINFO
   1   SPheno
   2   v4.0.5be

BLOCK SPHENOINFO
   1   2
   2   2

BLOCK MODSEL
   1   0

BLOCK MINPAR
   3    11.936395
   4    1

BLOCK EXTPAR
   0    3138.0117
   1    4167.0644
   2   -3795.1236
   3    3797.5545
   11    7287.7999
   12   -1860.6483
   13   -1817.4718
   23    181.15718
   25    11.354743
   26    3045.3094
   31    1759.0268
   32    1759.0268
   33    2357.1556
   34    2967.4882
   35    2967.4882
   36    572.49218
   41    4278.5077
   42    4278.5077
   43    2760.6242
   44    3983.2983
   45    3983.2983
   46    3559.8746
   47    2457.4247
   48    2457.4247
   49    730.54984

BLOCK SMINPUTS
   1    127.90897
   2    1.1663787e-05
   3    0.1184
   4    91.1876
   5    4.18
   6    173.2
   7    1.777
   8    0
   11    0.00051099893
   12    0
   13    0.10565837
   14    0
   21    0.005
   22    0.0025
   23    0.095
   24    1.27

BLOCK GAUGE Q=  3138.0117
   1    0.35536298
   2    0.66519887
   3    1.219778

BLOCK YU Q=  3138.0117
   1   1    8.4168245e-06
   2   2    0.0042757468
   3   3    1.01682

BLOCK YD Q=  3138.0117
   1   1    0.00019204625
   2   2    0.0036488788
   3   3    0.1904497

BLOCK YE Q=  3138.0117
   1   1    3.3513476e-05
   2   2    0.0069295238
   3   3    0.11654319

BLOCK AU Q=  3138.0117
   1   1    0
   2   2    0
   3   3    7287.8003

BLOCK AD Q=  3138.0117
   1   1    0
   2   2    0
   3   3   -1860.6483

BLOCK AE Q=  3138.0117
   1   1    0
   2   2    0
   3   3   -1817.4718

BLOCK MSOFT Q=  3138.0117
   1    4167.0644
   2   -3795.1236
   3    3797.5545
   21    9029891.3
   22    166324.45
   31    1759.0268
   32    1759.0268
   33    2357.1556
   34    2967.4882
   35    2967.4882
   36    572.49218
   41    4278.5077
   42    4278.5077
   43    2760.6242
   44    3983.2983
   45    3983.2983
   46    3559.8746
   47    2457.4247
   48    2457.4247
   49    730.54984

BLOCK MASS
   6    173.2
   23    91.1876
   24    80.429995
   15    1.777
   25    126.67929
   35    3045.353
   36    3045.3094
   37    3046.6496
   1000001    4400.6213
   2000001    2599.376
   1000002    4399.9204
   2000002    4093.6981
   1000003    4400.6207
   2000003    2599.3753
   1000004    4399.9198
   2000004    4093.6976
   1000005    962.88228
   2000005    2853.887
   1000006    2812.255
   2000006    3501.5023
   1000011    1793.6636
   2000011    2982.4261
   1000012    1791.5508
   1000013    1793.661
   2000013    2982.4225
   1000014    1791.5485
   1000015    609.91236
   2000015    2388.0951
   1000016    2386.3975
   1000021    3965.3682
   1000022   -193.23941
   1000023    194.73057
   1000025   -3791.0719
   1000035    4116.4255
   1000024    194.30852
   1000037    3791.21

BLOCK ALPHA
      -0.08378743

BLOCK HMIX Q=  3138.0117
   1    181.15718
   2    11.354743
   3    243.16826
   4    9273909.3

BLOCK STOPMIX
   1   1   -0.97244595
   1   2    0.23312843
   2   1   -0.23312843
   2   2   -0.97244595

BLOCK SBOTMIX
   1   1    0.001187868
   1   2    0.99999929
   2   1   -0.99999929
   2   2    0.001187868

BLOCK STAUMIX
   1   1    0.0012763963
   1   2    0.99999918
   2   1   -0.99999918
   2   2    0.0012763963

BLOCK NMIX
   1   1   -0.0064425267
   1   2   -0.014064953
   1   3    0.70846268
   1   4    0.7055787
   2   1    0.0084848978
   2   2    0.015237019
   2   3    0.7057464
   2   4   -0.70824986
   3   1   -0.00011080554
   3   2    0.99978498
   3   3   -0.00078930174
   3   4    0.020721156
   4   1    0.99994324
   4   2   -0.00010912287
   4   3   -0.0014240646
   4   4    0.010558033

BLOCK UMIX
   1   1    0.0011143487
   1   2    0.99999938
   2   1   -0.99999938
   2   2    0.0011143487

BLOCK VMIX
   1   1    0.029310402
   1   2    0.99957036
   2   1    0.99957036
   2   2   -0.029310402

BLOCK HIGGSBOUNDSINPUTHIGGSCOUPLINGSFERMIONS
       0, 128.93019,3,36,15,15

BLOCK HIGGSBOUNDSINPUTHIGGSCOUPLINGSBOSONS
       0,4,36,21,21,23

BLOCK SPHENOLOWENERGY
   1    0.00033072369
   2    1.5900951e-06
   3    3.5273289e-05
   4    2.4392612e-15
   5    1.0420249e-10
   6    2.1815054e-08
   7    8.1880315e-14
   8    3.4979252e-09
   9    7.4198647e-07
   10    9.6714141e-05
   11    0.99902005
   12    0.54210082
   13    19.36927
   14    0
   15    0
   16    0.0021578023
   17    2.2816633e-15
   18    2.4811083e-11
   19    8.2933847e-11
   20   -4.0371822e-16
   21   -1.7260206e-11
   22   -5.1554221e-09
   23    0
   24    0
   25    0
   26    0
   27    0
   28    0
   29    0
   30    0
   31    0
   39   -9.770122e-06
   40    0
   41    0
   42    0

BLOCK FWCOEF Q=  160
   305   4422   0   0   -0.18881911
   305   4422   0   2   -0.20012954
   305   4322   0   2   -0.00019829714
   305   6421   0   0   -0.095227835
   305   6421   0   2   -0.1064499
   305   6321   0   2   -0.00020565503
   3051111   4133   0   0    1.6177644
   3051111   4133   0   2    1.6183066
   3051111   4233   0   2    3.8369432e-05
   3051111   4137   0   0   -4.4404565
   3051111   4137   0   2   -4.4408335
   3051111   4237   0   2   -0.00028716913
   3051313   4133   0   0    1.6177644
   3051313   4133   0   2    1.6183065
   3051313   4233   0   2    3.8369426e-05
   3051313   4137   0   0   -4.4404565
   3051313   4137   0   2   -4.4408336
   3051313   4237   0   2   -0.00028716915
   3051212   4137   0   0    1.5053501
   3051212   4137   0   2    1.5054325
   3051212   4237   0   2    6.2222117e-05
   3051414   4137   0   0    1.5053501
   3051414   4137   0   2    1.5054325
   3051414   4237   0   2    6.2222118e-05
   3051616   4137   0   0    1.5053501
   3051616   4137   0   2    1.5054326
   3051616   4237   0   2    6.2222227e-05

BLOCK IMFWCOEF Q=  160
   305   4422   0   0    3.8581769e-07
   305   4422   0   2    1.3549678e-07
   305   4322   0   2   -1.2749435e-06
   305   6421   0   0    3.3047836e-07
   305   6421   0   2   -7.226595e-06
   305   6321   0   2   -7.1792278e-07
   3051111   4133   0   2    6.245165e-07
   3051111   4233   0   2    7.4797397e-07
   3051111   4137   0   2   -3.2000169e-06
   3051111   4237   0   2   -5.5991146e-06
   3051313   4133   0   2    6.245158e-07
   3051313   4233   0   2    7.479739e-07
   3051313   4137   0   2   -3.2000177e-06
   3051313   4237   0   2   -5.5991148e-06
   3051212   4137   0   2    7.0531537e-07
   3051212   4237   0   2    1.2131823e-06
   3051414   4137   0   2    7.0531532e-07
   3051414   4237   0   2    1.2131823e-06
   3051616   4137   0   2    7.075917e-07
   3051616   4237   0   2    1.2131818e-06

DECAY 23  2.4952


DECAY 24  2.085


DECAY 1000011  0.0053963559
    0.55841057   2    1000023    11
    0.43804078   2    1000022    11
    0.0035486417   2   -1000024    12

DECAY 2000011  0.0016866021
    0.63424537   2    1000023    11
    0.36571541   2    1000022    11

DECAY 1000013  0.007069934
    0.54411295   2    1000023    13
    0.45317843   2    1000022    13
    0.0027086116   2   -1000024    14

DECAY 2000013  0.0073397537
    0.38488355   2   -1000024    14
    0.33743219   2    1000023    13
    0.27723313   2    1000022    13
    0.00045113901   2    1000013    25

DECAY 1000015  0.26646952
    0.49929316   2   -1000024    16
    0.2516904   2    1000022    15
    0.24901644   2    1000023    15

DECAY 2000015  0.6560347
    0.49201457   2    1000022    15
    0.48969539   2    1000023    15
    0.0093483452   2    1000015    23
    0.0088850862   2    1000015    25

DECAY 1000012  0.014983738
    0.88309818   2    1000024    11
    0.058884169   2    1000023    12
    0.058017655   2    1000022    12

DECAY 1000014  0.016655226
    0.89483037   2    1000024    13
    0.052974591   2    1000023    14
    0.05219504   2    1000022    14

DECAY 1000016  0.66875175
    0.97815664   2    1000024    15
    0.018318231   2    1000015    24
    0.001775773   2    1000023    16
    0.0017493611   2    1000022    16

DECAY 2000001  0.00016665083
    0.62554526   2    1000023    1
    0.36313763   2    1000022    1
    0.011317115   2   -1000024    2

DECAY 1000001  16.159215
    0.7600051   2    1000021    1
    0.15931378   2   -1000037    2
    0.079659281   2    1000025    1
    0.00059447803   2    1000035    1
    0.00022505003   2    1000023    1
    0.00019934673   2    1000022    1

DECAY 2000003  0.0015245981
    0.44657526   2   -1000024    4
    0.29017659   2    1000023    3
    0.26324815   2    1000022    3

DECAY 1000003  16.161924
    0.75987583   2    1000021    3
    0.15928646   2   -1000037    4
    0.079645795   2    1000025    3
    0.00059437607   2    1000035    3
    0.00026069599   2    1000023    3
    0.00023527277   2    1000022    3
    0.00010152713   2   -1000024    4

DECAY 1000005  1.2340597
    0.48173342   2   -1000024    6
    0.26032308   2    1000022    5
    0.25794351   2    1000023    5

DECAY 2000005  59.74339
    0.96543371   2   -1000024    6
    0.017175605   2    1000022    5
    0.017050138   2    1000023    5
    0.0002111452   2    1000005    25
    0.0001294046   2    1000005    23

DECAY 2000002  1.2316928
    0.99916135   2    1000021    2
    0.00053194031   2    1000023    2
    0.00030669984   2    1000022    2

DECAY 1000002  16.14954
    0.7582483   2    1000021    2
    0.15895504   2    1000037    1
    0.079541911   2    1000025    2
    0.0020526168   2    1000024    1
    0.00059063942   2    1000035    2
    0.00033504922   2    1000023    2
    0.00027643625   2    1000022    2

DECAY 2000004  1.234569
    0.99676383   2    1000021    4
    0.0011995604   2    1000024    3
    0.0011328877   2    1000023    4
    0.00090368871   2    1000022    4

DECAY 1000004  16.152182
    0.75811821   2    1000021    4
    0.15892879   2    1000037    3
    0.079528474   2    1000025    4
    0.0021239583   2    1000024    3
    0.0005905301   2    1000035    4
    0.00038450512   2    1000023    4
    0.00032553125   2    1000022    4

DECAY 1000006  63.009597
    0.45594453   2    1000023    6
    0.45254395   2    1000022    6
    0.087778541   2    1000024    5
    0.0035019046   3    1000022    24    5
    0.00021968789   2    1000005    24

DECAY 2000006  271.96219
    0.2468972   2    1000024    5
    0.21569113   2    2000005    24
    0.1569709   2    1000006    25
    0.13062377   2    1000023    6
    0.12965704   2    1000022    6
    0.12015347   2    1000006    23

DECAY 1000024  3.2361858e-12
    0.60564409   3    1000022   -1    2
    0.20190842   3    1000022   -11    12
    0.19244749   3    1000022   -13    14

DECAY 1000037  108.90557
    0.092354254   2    1000014   -13
    0.092354121   2    1000012   -11
    0.092308172   2   -1000013    14
    0.092308022   2   -1000011    12
    0.085976441   2    1000006   -5
    0.083783702   2   -2000005    6
    0.075070867   2    1000024    25
    0.072900638   2    1000023    24
    0.072588389   2    1000024    23
    0.072341482   2    1000022    24
    0.055811433   2    1000016   -15
    0.055755002   2   -2000015    16
    0.0098366189   2    1000024    36
    0.009814675   2    1000024    35
    0.0097781319   2    37    1000023
    0.0089155829   2    37    1000022
    0.0077330676   3    1000024    6   -6
    0.0048866638   3    1000022   -5    6
    0.0047213396   3    1000023   -5    6
    0.00075978441   2    2000006   -5

DECAY 1000022 -1


DECAY 1000023  4.2335445e-10
    0.95893197   2    1000022    22
    0.012173436   3    1000022    12   -12
    0.0091018879   3    1000022    1   -1
    0.0086841206   3    1000022    3   -3
    0.0070993404   3    1000022    2   -2
    0.0020543034   3    1000022    11   -11
    0.001907964   3    1000022    13   -13

DECAY 1000025  110.196
    0.071820492   2    1000024   -24
    0.071820492   2   -1000024    24
    0.048679117   2    1000023    25
    0.045657812   2    1000014   -14
    0.045657812   2   -1000014    14
    0.045657746   2    1000012   -12
    0.045657746   2   -1000012    12
    0.045585078   2    1000013   -13
    0.045585078   2   -1000013    13
    0.045585004   2    1000011   -11
    0.045585004   2   -1000011    11
    0.042857379   2    1000006   -6
    0.042857379   2   -1000006    6
    0.042629022   2    2000005   -5
    0.042629022   2   -2000005    5
    0.03846494   2    1000022    23
    0.034465167   2    1000022    25
    0.03327228   2    1000023    23
    0.027590431   2    1000016   -16
    0.027590431   2   -1000016    16
    0.027532338   2    2000015   -15
    0.027532338   2   -2000015    15
    0.0087634416   2    37   -1000024
    0.0087634416   2   -37    1000024
    0.0069669937   2    1000022    35
    0.0052910678   3    1000024    5   -6
    0.0052910678   3   -1000024   -5    6
    0.0049433565   2    1000023    35
    0.0040490152   3    1000023    6   -6
    0.0039652311   3    1000022    6   -6
    0.0038621342   2    1000023    36
    0.0027444312   2    1000022    36
    0.00031957101   2    2000006   -6
    0.00031957101   2   -2000006    6

DECAY 1000035  75.336328
    0.13129828   2    1000015   -15
    0.13129828   2   -1000015    15
    0.040882887   2    1000005   -5
    0.040882887   2   -1000005    5
    0.03551168   2    1000024   -24
    0.03551168   2   -1000024    24
    0.030978768   2    2000013   -13
    0.030978768   2   -2000013    13
    0.030978604   2    2000011   -11
    0.030978604   2   -2000011    11
    0.022555606   2    1000014   -14
    0.022555606   2   -1000014    14
    0.02255558   2    1000012   -12
    0.02255558   2   -1000012    12
    0.022512336   2    1000013   -13
    0.022512336   2   -1000013    13
    0.022512306   2    1000011   -11
    0.022512306   2   -1000011    11
    0.022390175   2    1000022    23
    0.021948937   2    1000023    25
    0.016539952   2    2000003   -3
    0.016539952   2   -2000003    3
    0.01653994   2    2000001   -1
    0.01653994   2   -2000001    1
    0.015543955   2    1000022    25
    0.015131694   2    1000016   -16
    0.015131694   2   -1000016    16
    0.015097785   2    2000015   -15
    0.015097785   2   -2000015    15
    0.013110083   2    1000023    23
    0.011976771   2    2000006   -6
    0.011976771   2   -2000006    6
    0.0074959528   2    1000006   -6
    0.0074959528   2   -1000006    6
    0.0066778155   2    37   -1000024
    0.0066778155   2   -37    1000024
    0.0049074107   2    1000022    35
    0.0034815959   2    1000023    35
    0.0032230858   2    1000023    36
    0.0030888751   2    2000005   -5
    0.0030888751   2   -2000005    5
    0.0022980175   3    1000024    5   -6
    0.0022980175   3   -1000024   -5    6
    0.0022863487   2    1000022    36
    0.001904737   3    1000023    6   -6
    0.0018480512   3    1000022    6   -6

DECAY 1000021  243.18266
    0.21370943   2    1000005   -5
    0.21370943   2   -1000005    5
    0.078489395   2    2000003   -3
    0.078489395   2   -2000003    3
    0.078489331   2    2000001   -1
    0.078489331   2   -2000001    1
    0.063844068   2    1000006   -6
    0.063844068   2   -1000006    6
    0.056073676   2    2000005   -5
    0.056073676   2   -2000005    5
    0.0090010984   2    2000006   -6
    0.0090010984   2   -2000006    6
    0.0003595642   2    1000006   -4
    0.0003595642   2   -1000006    4

DECAY 25  0.0041074427
    0.54563797   2   -5    5
    0.25686164   2   -24    24
    0.071081341   2    21    21
    0.062934224   2   -15    15
    0.032123628   2    23    23
    0.026959239   2   -4    4
    0.0023396668   2    22    22
    0.0016383843   2    22    23
    0.00021825726   2   -13    13
    0.00020493629   2   -3    3
    5.6662724e-07   2   -1    1
    1.3892213e-07   2   -2    2
    4.9066456e-09   2   -11    11

DECAY 35  6.3799815
    0.72499521   2   -5    5
    0.13790808   2   -15    15
    0.12176598   2   -6    6
    0.0052241258   2   -2000015    1000015
    0.0052241258   2   -1000015    2000015
    0.0033482808   2   -1000024    1000024
    0.00047539846   2   -13    13
    0.00028206167   2   -3    3
    0.00026628809   2    1000022    1000022
    0.0002412509   2    25    25
    0.00019302866   2    1000023    1000023
    3.6941966e-05   2    23    23
    1.412908e-05   2    21    21
    1.0936745e-05   2   -24    24
    6.2906485e-06   2   -1000015    1000015
    3.8586486e-06   2    1000022    1000023
    1.6571988e-06   2   -4    4
    1.5026989e-06   2   -1000005    1000005
    7.7981807e-07   2   -1    1
    6.1646618e-08   2    22    22
    1.0677077e-08   2   -11    11
    5.2992796e-09   2    22    23
    8.5427495e-12   2   -2    2

DECAY 36  6.2048981
    0.72596639   2   -5    5
    0.13809241   2   -15    15
    0.12026484   2   -6    6
    0.0053709885   2   -2000015    1000015
    0.0053709885   2   -1000015    2000015
    0.0035349957   2   -1000024    1000024
    0.00047603338   2   -13    13
    0.00028243825   2   -3    3
    0.00028215708   2    1000023    1000023
    0.00019865334   2    1000022    1000022
    9.2303102e-05   2    21    21
    6.241285e-05   2    23    25
    2.7476314e-06   2    1000022    1000023
    1.6141111e-06   2   -4    4
    7.8086382e-07   2   -1    1
    1.8925025e-07   2    22    22
    5.321407e-08   2    22    23
    1.069142e-08   2   -11    11
    8.3209855e-12   2   -2    2
    1.9554589e-36   2    25    25

DECAY 37  6.2853293
    0.84769243   2   -5    6
    0.13811349   2   -15    16
    0.010727583   2   -1000015    1000016
    0.0010583007   2   -5    4
    0.00069033522   2    1000022    1000024
    0.00068739964   2    1000023    1000024
    0.00048828048   2   -13    14
    0.0002602778   2   -3    4
    0.00019091954   2   -3    6
    6.1733182e-05   2    24    25
    1.2113036e-05   2   -3    2
    8.7388823e-06   2   -1    6
    7.5573404e-06   2   -5    2
    7.1750736e-07   2   -1    2
    1.1337474e-07   2   -1    4
    1.1420931e-08   2   -11    12
    9.3661684e-13   2    24    36
    7.9387548e-13   2    24    35

DECAY 6  2.43
    1   2    5    24

DECAY 15 -1
