BLOCK SPINFO
   1   SPheno
   2   v4.0.5be

BLOCK SPHENOINFO
   1   2
   2   2

BLOCK MODSEL
   1   0

BLOCK MINPAR
   3    30.057332
   4   -1

BLOCK EXTPAR
   0    1961.9936
   1    2855.005
   2   -1241.2635
   3    2469.48
   11    3193.4026
   12   -6148.0013
   13   -6539.507
   23   -809.9042
   25    29.247129
   26    840.94685
   31    4686.0701
   32    4686.0701
   33    4059.6479
   34    2544.2542
   35    2544.2542
   36    1638.7619
   41    3601.5528
   42    3601.5528
   43    1715.5505
   44    2376.523
   45    2376.523
   46    2226.2604
   47    3404.0503
   48    3404.0503
   49    968.75748

BLOCK SMINPUTS
   1    127.90897
   2    1.1663787e-05
   3    0.1184
   4    91.1876
   5    4.18
   6    173.2
   7    1.777
   8    0
   11    0.00051099893
   12    0
   13    0.10565837
   14    0
   21    0.005
   22    0.0025
   23    0.095
   24    1.27

BLOCK GAUGE Q=  1961.9936
   1    0.35536298
   2    0.66519887
   3    1.219778

BLOCK YU Q=  1961.9936
   1   1    8.3892716e-06
   2   2    0.00426175
   3   3    1.0134914

BLOCK YD Q=  1961.9936
   1   1    0.00049304634
   2   2    0.0093678805
   3   3    0.48894747

BLOCK YE Q=  1961.9936
   1   1    8.6040192e-05
   2   2    0.017790383
   3   3    0.29920497

BLOCK AU Q=  1961.9936
   1   1    0
   2   2    0
   3   3    3193.4026

BLOCK AD Q=  1961.9936
   1   1    0
   2   2    0
   3   3   -6148.0015

BLOCK AE Q=  1961.9936
   1   1    0
   2   2    0
   3   3   -6539.507

BLOCK MSOFT Q=  1961.9936
   1    2855.005
   2   -1241.2635
   3    2469.48
   21    175712.41
   22   -583990.83
   31    4686.0701
   32    4686.0701
   33    4059.6479
   34    2544.2542
   35    2544.2542
   36    1638.7619
   41    3601.5528
   42    3601.5528
   43    1715.5505
   44    2376.523
   45    2376.523
   46    2226.2604
   47    3404.0503
   48    3404.0503
   49    968.75748

BLOCK MASS
   6    173.2
   23    91.1876
   24    80.429995
   15    1.777
   25    123.65266
   35    840.84528
   36    840.94685
   37    845.34578
   1000001    3654.9007
   2000001    3451.7123
   1000002    3654.1755
   2000002    2457.8301
   1000003    3654.8998
   2000003    3451.7109
   1000004    3654.1746
   2000004    2457.83
   1000005    1000.7629
   2000005    1729.2619
   1000006    1705.8177
   2000006    2256.6414
   1000011    4696.0149
   2000011    2546.9076
   1000012    4694.9351
   1000013    4696.0122
   2000013    2546.9122
   1000014    4694.9325
   1000015    1648.2844
   2000015    4064.128
   1000016    4062.9496
   1000021    2632.2565
   1000022   -810.33235
   1000023    818.7036
   1000025   -1296.5618
   1000035    2836.4537
   1000024    812.43335
   1000037    1296.6776

BLOCK ALPHA
      -0.034334079

BLOCK HMIX Q=  1961.9936
   1   -809.9042
   2    29.247129
   3    243.7101
   4    707191.61

BLOCK STOPMIX
   1   1   -0.97717787
   1   2    0.21242271
   2   1   -0.21242271
   2   2   -0.97717787

BLOCK SBOTMIX
   1   1   -0.025685294
   1   2    0.99967008
   2   1   -0.99967008
   2   2   -0.025685294

BLOCK STAUMIX
   1   1   -0.0022468862
   1   2    0.99999748
   2   1   -0.99999748
   2   2   -0.0022468862

BLOCK NMIX
   1   1   -0.0086125486
   1   2   -0.12133789
   1   3   -0.70469286
   1   4    0.69900709
   2   1   -0.014587682
   2   2   -0.026013533
   2   3    0.70626727
   2   4    0.70731678
   3   1    0.0011082684
   3   2   -0.99227028
   3   3    0.067655043
   3   4   -0.10402529
   4   1    0.99985589
   4   2   -0.00032485068
   4   3    0.0041592202
   4   4    0.016456004

BLOCK UMIX
   1   1   -0.096000473
   1   2   -0.99538129
   2   1   -0.99538129
   2   2    0.096000473

BLOCK VMIX
   1   1    0.14759544
   1   2    0.98904782
   2   1    0.98904782
   2   2   -0.14759544

BLOCK HIGGSBOUNDSINPUTHIGGSCOUPLINGSFERMIONS
       0, 855.39455,3,36,15,15

BLOCK HIGGSBOUNDSINPUTHIGGSCOUPLINGSBOSONS
       0,4,36,21,21,23

BLOCK SPHENOLOWENERGY
   1    0.00034241138
   2    1.5880229e-06
   3    3.5248183e-05
   4    6.2313722e-15
   5    2.6615195e-10
   6    5.307224e-08
   7    2.1983219e-13
   8    9.3895987e-09
   9    1.8952634e-06
   10    9.0865598e-05
   11    0.93860684
   12    0.54221183
   13    19.366521
   14    0
   15    0
   16    0.0021586689
   17    2.2816805e-15
   18    2.4790543e-11
   19    8.2884615e-11
   20    1.2810105e-15
   21    5.4766907e-11
   22    2.054687e-08
   23    0
   24    0
   25    0
   26    0
   27    0
   28    0
   29    0
   30    0
   31    0
   39    8.3467945e-05
   40    0
   41    0
   42    0

BLOCK FWCOEF Q=  160
   305   4422   0   0   -0.18881911
   305   4422   0   2   -0.20778708
   305   4322   0   2   -0.00062085833
   305   6421   0   0   -0.095227835
   305   6421   0   2   -0.13265914
   305   6321   0   2   -0.00086945382
   3051111   4133   0   0    1.6015726
   3051111   4133   0   2    1.6026661
   3051111   4233   0   2    2.272216e-05
   3051111   4137   0   0   -4.4242647
   3051111   4137   0   2   -4.4221617
   3051111   4237   0   2   -0.0001703951
   3051313   4133   0   0    1.6015726
   3051313   4133   0   2    1.6026658
   3051313   4233   0   2    2.2714183e-05
   3051313   4137   0   0   -4.4242647
   3051313   4137   0   2   -4.422162
   3051313   4237   0   2   -0.00017038773
   3051212   4137   0   0    1.5053501
   3051212   4137   0   2    1.5048957
   3051212   4237   0   2    3.7056143e-05
   3051414   4137   0   0    1.5053501
   3051414   4137   0   2    1.5048957
   3051414   4237   0   2    3.7057834e-05
   3051616   4137   0   0    1.5053501
   3051616   4137   0   2    1.5048957
   3051616   4237   0   2    3.7534305e-05

BLOCK IMFWCOEF Q=  160
   305   4422   0   0    3.8586299e-07
   305   4422   0   2    1.2030284e-05
   305   4322   0   2    4.131252e-06
   305   6421   0   0    3.3051717e-07
   305   6421   0   2    2.2702683e-05
   305   6321   0   2    1.9973724e-06
   3051111   4133   0   2    9.7263473e-07
   3051111   4233   0   2    2.9949668e-06
   3051111   4137   0   2   -3.0631305e-06
   3051111   4237   0   2   -2.2937247e-05
   3051313   4133   0   2    9.7263085e-07
   3051313   4233   0   2    2.9949633e-06
   3051313   4137   0   2   -3.0631307e-06
   3051313   4237   0   2   -2.2937255e-05
   3051212   4137   0   2    7.1795885e-07
   3051212   4237   0   2    4.9880738e-06
   3051414   4137   0   2    7.1795889e-07
   3051414   4237   0   2    4.9880738e-06
   3051616   4137   0   2    7.1895325e-07
   3051616   4237   0   2    4.9880742e-06

DECAY 23  2.4952


DECAY 24  2.085


DECAY 2000011  0.0029655802
    0.73837259   2    1000023    11
    0.25861626   2    1000022    11
    0.0029093752   2    1000025    11
    0.00010113542   2   -1000024    12

DECAY 1000011  55.362453
    0.6313074   2   -1000037    12
    0.31331869   2    1000025    11
    0.042922281   2    1000035    11
    0.006476285   2   -1000024    12
    0.0055741861   2    1000022    11
    0.00040115863   2    1000023    11

DECAY 2000013  0.028773841
    0.44563995   2   -1000024    14
    0.29962535   2    1000023    13
    0.250216   2    1000022    13
    0.0028188035   2   -1000037    14
    0.0016998939   2    1000025    13

DECAY 1000013  55.390522
    0.63098701   2   -1000037    14
    0.31316174   2    1000025    13
    0.042900456   2    1000035    13
    0.0064729991   2   -1000024    14
    0.0058209097   2    1000022    13
    0.00065127982   2    1000023    13

DECAY 1000015  3.346355
    0.49894197   2   -1000024    16
    0.25089152   2    1000022    15
    0.24858563   2    1000023    15
    0.0010559002   2   -1000037    16
    0.00052498203   2    1000025    15

DECAY 2000015  66.134147
    0.43250036   2   -1000037    16
    0.21505122   2    1000025    15
    0.11057498   2    1000015    35
    0.1105721   2    1000015    36
    0.054017766   2    1000022    15
    0.050545553   2    1000023    15
    0.020278546   2    1000035    15
    0.0044996881   2   -1000024    16
    0.001014237   2    1000015    23
    0.00094555044   2    1000015    25

DECAY 1000012  55.378116
    0.62293224   2    1000037    11
    0.31388252   2    1000025    12
    0.042982042   2    1000035    12
    0.015299964   2    1000024    11
    0.0047867696   2    1000022    12
    0.0001164642   2    1000023    12

DECAY 1000014  55.405867
    0.622624   2    1000037    13
    0.31372507   2    1000025    14
    0.042960433   2    1000035    14
    0.015789712   2    1000024    13
    0.004784369   2    1000022    14
    0.00011640579   2    1000023    14

DECAY 1000016  66.144993
    0.42750772   2    1000037    15
    0.22094292   2    1000015    37
    0.21499902   2    1000025    16
    0.11074917   2    1000024    15
    0.020294643   2    1000035    16
    0.0033970905   2    1000022    16
    0.0020268249   2    1000015    24

DECAY 2000001  47.91062
    0.99574907   2    1000021    1
    0.0042399878   2    1000035    1

DECAY 1000001  103.86523
    0.64345955   2    1000021    1
    0.23451586   2   -1000037    2
    0.11657847   2    1000025    1
    0.0025799733   2   -1000024    2
    0.0020099631   2    1000022    1
    0.00077949783   2    1000035    1

DECAY 2000003  47.921198
    0.99552656   2    1000021    3
    0.004239035   2    1000035    3
    0.00011118462   2   -1000024    4

DECAY 1000003  103.87211
    0.64341618   2    1000021    3
    0.23450052   2   -1000037    4
    0.11657091   2    1000025    3
    0.002590979   2   -1000024    4
    0.0020373477   2    1000022    3
    0.00077944498   2    1000035    3
    0.00010425195   2    1000023    3

DECAY 1000005  0.72291061
    0.39113567   2    1000022    5
    0.35921603   2    1000023    5
    0.2496483   2   -1000024    6

DECAY 2000005  30.338914
    0.66241578   2   -1000024    6
    0.10326268   2   -1000037    6
    0.083577515   2    1000022    5
    0.081554098   2    1000023    5
    0.047689691   2    1000025    5
    0.010965012   2    1000005    23
    0.010535227   2    1000005    25

DECAY 2000002  0.001250146
    0.73847028   2    1000023    2
    0.25871861   2    1000022    2
    0.0028089378   2    1000025    2

DECAY 1000002  103.84418
    0.64291192   2    1000021    2
    0.2315155   2    1000037    1
    0.11647294   2    1000025    2
    0.0060983044   2    1000024    1
    0.0021140439   2    1000022    2
    0.00077290301   2    1000035    2
    0.00011438009   2    1000023    2

DECAY 2000004  0.0026497864
    0.48075047   2    1000023    4
    0.26018709   2    1000024    3
    0.25204824   2    1000022    4
    0.0038025065   2    1000037    3
    0.0032116972   2    1000025    4

DECAY 1000004  103.85094
    0.64286841   2    1000021    4
    0.2315008   2    1000037    3
    0.1164653   2    1000025    4
    0.0061527218   2    1000024    3
    0.0021195604   2    1000022    4
    0.0007728485   2    1000035    4
    0.00012012013   2    1000023    4

DECAY 1000006  31.917694
    0.34316438   2    1000022    6
    0.33215087   2    1000023    6
    0.20392286   2    1000024    5
    0.07126328   2    1000037    5
    0.027620067   2    1000025    6
    0.018410983   2    1000005    24
    0.00243324   3    1000022    24    5
    0.00098173178   2    1000022    4

DECAY 2000006  120.89574
    0.26171314   2    1000024    5
    0.19789629   2    2000005    24
    0.13705853   2    1000023    6
    0.13373723   2    1000006    25
    0.13109263   2    1000022    6
    0.10514101   2    1000006    23
    0.013640957   2    1000037    5
    0.012212734   2    1000005    37
    0.0065163616   2    1000025    6
    0.00099111185   2    1000005    24

DECAY 1000024  3.506276e-11
    0.58989852   3    1000022   -1    2
    0.19664224   3    1000022   -11    12
    0.19292123   3    1000022   -13    14
    0.020538008   3    1000022   -3    4

DECAY 1000037  9.8339882
    0.26617855   2    1000022    24
    0.24596602   2    1000024    23
    0.24535623   2    1000023    24
    0.23604844   2    1000024    25
    0.0023922435   3    1000022   -5    6
    0.0023543218   3    1000023   -5    6
    0.00098653978   3    1000024    6   -6
    0.00057306912   2   -1000005    6
    0.0001218425   3    1000024    5   -5

DECAY 1000022 -1


DECAY 1000023  2.9587956e-07
    0.50986331   2    1000022    22
    0.096029519   3    1000022    12   -12
    0.071808868   3    1000022    1   -1
    0.07170141   3    1000022    3   -3
    0.056004831   3    1000022    2   -2
    0.041109567   3    1000022    4   -4
    0.02058201   3    1000024    1   -2
    0.02058201   3   -1000024   -1    2
    0.017264826   3    1000024    3   -4
    0.017264826   3   -1000024   -3    4
    0.016205224   3    1000022    11   -11
    0.016167076   3    1000022    13   -13
    0.0082211061   3    1000022    15   -15
    0.0068606617   3    1000024    11   -12
    0.0068606617   3   -1000024   -11    12
    0.0068520568   3    1000024    13   -14
    0.0068520568   3   -1000024   -13    14
    0.0048848594   3    1000024    15   -16
    0.0048848594   3   -1000024   -15    16

DECAY 1000025  12.17344
    0.21794934   2    1000024   -24
    0.21794934   2   -1000024    24
    0.20481441   2    1000023    23
    0.18048091   2    1000022    25
    0.16466084   2    1000023    25
    0.0090601446   2    1000022    23
    0.0020495917   3    1000024    5   -6
    0.0020495917   3   -1000024   -5    6
    0.00023072837   2    1000005   -5
    0.00023072837   2   -1000005    5
    0.0001985903   3    1000022    6   -6
    0.00016086355   3    1000023    6   -6

DECAY 1000035  31.095708
    0.10049787   2    1000015   -15
    0.10049787   2   -1000015    15
    0.058461828   2    1000005   -5
    0.058461828   2   -1000005    5
    0.054797672   2    1000024   -24
    0.054797672   2   -1000024    24
    0.047377093   2    37   -1000024
    0.047377093   2   -37    1000024
    0.045762945   2    1000022    25
    0.040599691   2    1000023    25
    0.040374613   2    1000022    23
    0.03900574   2    1000023    35
    0.034888736   2    2000006   -6
    0.034888736   2   -2000006    6
    0.033667843   2    1000022    35
    0.018962271   2    2000002   -2
    0.018962271   2   -2000002    2
    0.01896216   2    2000004   -4
    0.01896216   2   -2000004    4
    0.01801762   2    1000006   -6
    0.01801762   2   -1000006    6
    0.01459478   2    1000023    23
    0.010418152   2    1000022    36
    0.0090389424   2    1000023    36
    0.008599321   2    2000011   -11
    0.008599321   2   -2000011    11
    0.008599062   2    2000013   -13
    0.008599062   2   -2000013    13
    0.0076175088   2    2000005   -5
    0.0076175088   2   -2000005    5
    0.0026427041   3    1000024    5   -6
    0.0026427041   3   -1000024   -5    6
    0.0020363328   3    1000022    6   -6
    0.0019225808   3    1000023    6   -6
    0.00057093459   2    1000037   -24
    0.00057093459   2   -1000037    24
    0.00055375739   2    1000025    25
    0.00050032298   2    37   -1000037
    0.00050032298   2   -37    1000037
    0.00049323355   2    1000025    23
    0.00040152291   2    1000025    35

DECAY 1000021  129.14108
    0.2208011   2    1000005   -5
    0.2208011   2   -1000005    5
    0.10975212   2    1000006   -6
    0.10975212   2   -1000006    6
    0.097438553   2    2000005   -5
    0.097438553   2   -2000005    5
    0.046791514   2    1000006   -4
    0.046791514   2   -1000006    4
    0.015224067   2    2000006   -6
    0.015224067   2   -2000006    6
    0.0049532189   2    2000002   -2
    0.0049532189   2   -2000002    2
    0.0049531014   2    2000004   -4
    0.0049531014   2   -2000004    4

DECAY 25  0.0039249211
    0.61221573   2   -5    5
    0.19562164   2   -24    24
    0.069059957   2    21    21
    0.068340377   2   -15    15
    0.027723932   2   -4    4
    0.023050327   2    23    23
    0.0022162961   2    22    22
    0.00130952   2    22    23
    0.0002370025   2   -13    13
    0.0002244508   2   -3    3
    6.2057755e-07   2   -1    1
    1.42872e-07   2   -2    2
    5.3280968e-09   2   -11    11

DECAY 35  20.801487
    0.92220288   2   -5    5
    0.075368262   2   -15    15
    0.0018516353   2   -6    6
    0.00026029131   2   -13    13
    0.00020726038   2   -3    3
    6.6524362e-05   2    21    21
    2.5911484e-05   2    25    25
    1.017909e-05   2   -24    24
    6.361422e-06   2    23    23
    5.7294095e-07   2   -1    1
    4.7177898e-08   2    22    22
    4.2844331e-08   2    22    23
    2.9790452e-08   2   -4    4
    5.8482803e-09   2   -11    11
    1.5361587e-13   2   -2    2

DECAY 36  20.238063
    0.92185016   2   -5    5
    0.075338607   2   -15    15
    0.0022188734   2   -6    6
    0.0002601841   2   -13    13
    0.00020717192   2   -3    3
    0.00011423272   2    21    21
    1.0078224e-05   2    23    25
    5.7269623e-07   2   -1    1
    6.7895991e-08   2    22    22
    2.9389078e-08   2   -4    4
    2.1752673e-08   2    22    23
    5.8458689e-09   2   -11    11
    1.5157569e-13   2   -2    2
    5.9267899e-37   2    25    25

DECAY 37  19.058568
    0.91789032   2   -5    6
    0.080137656   2   -15    16
    0.0014467818   2   -5    4
    0.00028331752   2   -13    14
    0.00020710271   2   -3    4
    1.0974631e-05   2    24    25
    1.0331558e-05   2   -5    2
    9.5430105e-06   2   -3    2
    3.2266849e-06   2   -3    6
    5.7440616e-07   2   -1    2
    1.352105e-07   2   -1    6
    2.7731307e-08   2   -1    4
    6.6268265e-09   2   -11    12
    1.3112887e-10   2    24    35
    1.1699735e-10   2    24    36

DECAY 6  2.43
    1   2    5    24

DECAY 15 -1
