BLOCK SPINFO
   1   SPheno
   2   v4.0.5be

BLOCK SPHENOINFO
   1   2
   2   2

BLOCK MODSEL
   1   0

BLOCK MINPAR
   3    26.555711
   4    1

BLOCK EXTPAR
   0    1474.0306
   1    356.76511
   2    353.88749
   3    3000
   11    3157.8137
   12    1475.0367
   13    269.32609
   23    770.51058
   25    25.593255
   26    1585.868
   31    1263.6221
   32    1263.6221
   33    1598.4651
   34    628.34949
   35    628.34949
   36    1650.6895
   41    5000
   42    5000
   43    1818.503
   44    5000
   45    5000
   46    1272.7666
   47    5000
   48    5000
   49    1125.5311

BLOCK SMINPUTS
   1    127.90897
   2    1.1663787e-05
   3    0.1184
   4    91.1876
   5    4.18
   6    173.2
   7    1.777
   8    0
   11    0.00051099893
   12    0
   13    0.10565837
   14    0
   21    0.005
   22    0.0025
   23    0.095
   24    1.27

BLOCK GAUGE Q=  1474.0306
   1    0.35536298
   2    0.66519887
   3    1.219778

BLOCK YU Q=  1474.0306
   1   1    8.3907698e-06
   2   2    0.0042625111
   3   3    1.0136724

BLOCK YD Q=  1474.0306
   1   1    0.00043152661
   2   2    0.0081990056
   3   3    0.42793918

BLOCK YE Q=  1474.0306
   1   1    7.5304549e-05
   2   2    0.015570592
   3   3    0.26187175

BLOCK AU Q=  1474.0306
   1   1    0
   2   2    0
   3   3    3157.8137

BLOCK AD Q=  1474.0306
   1   1    0
   2   2    0
   3   3    1475.0365

BLOCK AE Q=  1474.0306
   1   1    0
   2   2    0
   3   3    269.32609

BLOCK MSOFT Q=  1474.0306
   1    356.76511
   2    353.88749
   3    3000
   21    1930261.4
   22   -540689.9
   31    1263.6221
   32    1263.6221
   33    1598.4651
   34    628.34949
   35    628.34949
   36    1650.6895
   41    5000
   42    5000
   43    1818.503
   44    5000
   45    5000
   46    1272.7666
   47    5000
   48    5000
   49    1125.5311

BLOCK MASS
   6    173.2
   23    91.1876
   24    80.429995
   15    1.777
   25    124.30131
   35    1585.5966
   36    1585.868
   37    1588.1886
   1000001    5028.6433
   2000001    5018.0114
   1000002    5028.1984
   2000002    5019.0284
   1000003    5028.6457
   2000003    5018.0132
   1000004    5028.2001
   2000004    5019.0292
   1000005    1117.07
   2000005    1803.1269
   1000006    1180.7
   2000006    1840.2355
   1000011    1266.3767
   2000011    634.54151
   1000012    1263.5402
   1000013    1266.3739
   2000013    634.5299
   1000014    1263.5359
   1000015    1598.1773
   2000015    1653.5154
   1000016    1598.0449
   1000021    3188.3332
   1000022    353.66964
   1000023    374.14287
   1000025   -779.77506
   1000035    788.16579
   1000024    373.87116
   1000037    788.15816

BLOCK ALPHA
      -0.038028245

BLOCK HMIX Q=  1474.0306
   1    770.51058
   2    25.593255
   3    244.00502
   4    2514977.2

BLOCK STOPMIX
   1   1   -0.24660428
   1   2    0.96911626
   2   1   -0.96911626
   2   2   -0.24660428

BLOCK SBOTMIX
   1   1    0.017449677
   1   2    0.99984774
   2   1   -0.99984774
   2   2    0.017449677

BLOCK STAUMIX
   1   1    0.98062151
   1   2    0.19591187
   2   1   -0.19591187
   2   2    0.98062151

BLOCK NMIX
   1   1   -0.98416711
   1   2    0.1449545
   1   3   -0.091806929
   1   4    0.044438585
   2   1    0.15793496
   2   2    0.97838639
   2   3   -0.11926501
   2   4    0.059937236
   3   1    0.026877809
   3   2   -0.046889885
   3   3   -0.70463105
   3   4   -0.70751255
   4   1   -0.07582374
   4   2    0.13981987
   4   3    0.69342803
   4   4   -0.70275083

BLOCK UMIX
   1   1   -0.98244343
   1   2    0.18656071
   2   1    0.18656071
   2   2    0.98244343

BLOCK VMIX
   1   1   -0.99558479
   1   2    0.093866558
   2   1    0.093866558
   2   2    0.99558479

BLOCK HIGGSBOUNDSINPUTHIGGSCOUPLINGSFERMIONS
       0, 655.01471,3,36,15,15

BLOCK HIGGSBOUNDSINPUTHIGGSCOUPLINGSBOSONS
       0,4,36,21,21,23

BLOCK SPHENOLOWENERGY
   1    0.00035683591
   2    1.5844691e-06
   3    3.5186516e-05
   4    2.8245949e-15
   5    1.2066353e-10
   6    2.5261325e-08
   7    9.4623347e-14
   8    4.0423074e-09
   9    8.5743301e-07
   10    9.4789869e-05
   11    0.97914306
   12    0.54358243
   13    19.414178
   14    0
   15    0
   16    0.0021659376
   17    2.2817478e-15
   18    2.4758118e-11
   19    8.2802366e-11
   20    7.5969949e-15
   21    3.2479421e-10
   22    6.5134236e-08
   23    0
   24    0
   25    0
   26    0
   27    0
   28    0
   29    0
   30    0
   31    0
   39    7.9880619e-05
   40    0
   41    0
   42    0

BLOCK FWCOEF Q=  160
   305   4422   0   0   -0.18881911
   305   4422   0   2   -0.22845002
   305   4322   0   2   -0.00047896852
   305   6421   0   0   -0.095227835
   305   6421   0   2   -0.1276876
   305   6321   0   2   -0.00048413482
   3051111   4133   0   0    1.5913316
   3051111   4133   0   2    1.5920651
   3051111   4233   0   2    5.4999214e-05
   3051111   4137   0   0   -4.4140237
   3051111   4137   0   2   -4.4058277
   3051111   4237   0   2   -0.0004273062
   3051313   4133   0   0    1.5913316
   3051313   4133   0   2    1.5920635
   3051313   4233   0   2    5.4998488e-05
   3051313   4137   0   0   -4.4140237
   3051313   4137   0   2   -4.4058293
   3051313   4237   0   2   -0.00042730617
   3051212   4137   0   0    1.5053501
   3051212   4137   0   2    1.5035811
   3051212   4237   0   2    9.3128486e-05
   3051414   4137   0   0    1.5053501
   3051414   4137   0   2    1.5035811
   3051414   4237   0   2    9.3128601e-05
   3051616   4137   0   0    1.5053501
   3051616   4137   0   2    1.5035806
   3051616   4237   0   2    9.3161209e-05

BLOCK IMFWCOEF Q=  160
   305   4422   0   0    3.8575002e-07
   305   4422   0   2    1.4871801e-05
   305   4322   0   2   -2.5512571e-06
   305   6421   0   0    3.3042041e-07
   305   6421   0   2   -3.7144179e-06
   305   6321   0   2   -1.23041e-06
   3051111   4133   0   2   -7.5357617e-07
   3051111   4233   0   2    1.7785951e-06
   3051111   4137   0   2    8.357618e-06
   3051111   4237   0   2   -1.384633e-05
   3051313   4133   0   2   -7.5357806e-07
   3051313   4233   0   2    1.7785916e-06
   3051313   4137   0   2    8.3576339e-06
   3051313   4237   0   2   -1.3846339e-05
   3051212   4137   0   2   -1.4982002e-06
   3051212   4237   0   2    3.017879e-06
   3051414   4137   0   2   -1.4981999e-06
   3051414   4237   0   2    3.017879e-06
   3051616   4137   0   2   -1.5066401e-06
   3051616   4237   0   2    3.0178835e-06

DECAY 23  2.4952


DECAY 24  2.085


DECAY 2000011  1.5013429
    0.97745817   2    1000022    11
    0.022541825   2    1000023    11

DECAY 1000011  15.066212
    0.59510869   2   -1000024    12
    0.3480966   2    1000023    11
    0.045607888   2    1000022    11
    0.009666308   2   -1000037    12
    0.001369603   2    1000035    11
    0.0001509172   2    1000025    11

DECAY 2000013  1.5013399
    0.97741653   2    1000022    13
    0.022553231   2    1000023    13

DECAY 1000013  15.06938
    0.59498175   2   -1000024    14
    0.348027   2    1000023    13
    0.045601104   2    1000022    13
    0.0096642002   2   -1000037    14
    0.0014425617   2    1000035    13
    0.00022848931   2    1000025    13

DECAY 1000015  21.499971
    0.55902358   2   -1000024    16
    0.32573479   2    1000023    15
    0.058523826   2    1000022    15
    0.027668343   2    1000025    15
    0.024744656   2    1000035    15
    0.0043048   2   -1000037    16

DECAY 2000015  10.564531
    0.66379272   2    1000022    15
    0.1422753   2   -1000037    16
    0.075143684   2    1000035    15
    0.068344853   2    1000025    15
    0.032438498   2    1000023    15
    0.017998383   2   -1000024    16

DECAY 1000012  15.116074
    0.60723387   2    1000024    11
    0.24475818   2    1000023    12
    0.1405942   2    1000022    12
    0.0044649622   2    1000035    12
    0.0024197019   2    1000037    11
    0.00052908892   2    1000025    12

DECAY 1000014  15.118373
    0.60715007   2    1000024    13
    0.24471981   2    1000023    14
    0.14057218   2    1000022    14
    0.0044642293   2    1000035    14
    0.0025647117   2    1000037    13
    0.00052900223   2    1000025    14

DECAY 1000016  21.833354
    0.57370148   2    1000024    15
    0.23003531   2    1000023    16
    0.13107794   2    1000022    16
    0.058484529   2    1000037    15
    0.0059991916   2    1000035    16
    0.00070155   2    1000025    16

DECAY 2000001  143.60925
    0.98069061   2    1000021    1
    0.018707835   2    1000022    1
    0.00048120186   2    1000023    1
    0.00010674949   2    1000035    1

DECAY 1000001  208.22906
    0.68166771   2    1000021    1
    0.20292855   2   -1000024    2
    0.09492445   2    1000023    1
    0.010791248   2    1000022    1
    0.0070401071   2   -1000037    2
    0.0023775265   2    1000035    1
    0.00027040788   2    1000025    1

DECAY 2000003  143.62219
    0.98060356   2    1000021    3
    0.018706543   2    1000022    3
    0.00048181436   2    1000023    3
    0.00012805525   2    1000035    3

DECAY 1000003  208.23746
    0.68164139   2    1000021    3
    0.2029205   2   -1000024    4
    0.094921117   2    1000023    3
    0.010791086   2    1000022    3
    0.007048101   2   -1000037    4
    0.0023921719   2    1000035    3
    0.00028562976   2    1000025    3

DECAY 1000005  2.5124502
    0.3027784   2   -1000037    6
    0.21073548   2    1000025    5
    0.20850459   2    1000022    5
    0.19491287   2    1000035    5
    0.054322549   2   -1000024    6
    0.028746111   2    1000023    5

DECAY 2000005  94.341124
    0.46665844   2    1000006   -24
    0.25713082   2   -1000037    6
    0.14638702   2   -1000024    6
    0.07017245   2    1000023    5
    0.023451722   2    1000035    5
    0.023086558   2    1000025    5
    0.0083619793   2    1000022    5
    0.0032872528   2    1000005    25
    0.0014637588   2    1000005    23

DECAY 2000002  152.03627
    0.92702938   2    1000021    2
    0.070698217   2    1000022    2
    0.0018184896   2    1000023    2
    0.00040319652   2    1000035    2

DECAY 1000002  208.22423
    0.68146101   2    1000021    2
    0.20837967   2    1000024    1
    0.10648744   2    1000023    2
    0.0017821675   2    1000037    1
    0.0016136319   2    1000035    2
    0.00017946476   2    1000025    2

DECAY 2000004  152.03975
    0.92700833   2    1000021    4
    0.070696621   2    1000022    4
    0.0018184911   2    1000023    4
    0.0004088017   2    1000035    4

DECAY 1000004  208.23249
    0.68143455   2    1000021    4
    0.20837258   2    1000024    3
    0.10648326   2    1000023    4
    0.0018116788   2    1000037    3
    0.0016176841   2    1000035    4
    0.00018361428   2    1000025    4

DECAY 1000006  16.983704
    0.42482304   2    1000037    5
    0.23406658   2    1000035    6
    0.22316257   2    1000025    6
    0.10270244   2    1000022    6
    0.007344268   2    1000023    6
    0.0060863579   2    1000024    5
    0.0018093429   2    1000023    4

DECAY 2000006  99.437934
    0.24398118   2    1000006    25
    0.24059655   2    1000006    23
    0.15176409   2    1000024    5
    0.1201092   2    1000025    6
    0.11131471   2    1000035    6
    0.074610909   2    1000023    6
    0.049369826   2    1000037    5
    0.0052423897   2    1000022    6
    0.0030111518   2    1000005    24

DECAY 1000024  4.1129206e-07
    0.33658232   3    1000022   -1    2
    0.33017736   3    1000022   -3    4
    0.11253767   3    1000022   -11    12
    0.11253652   3    1000022   -13    14
    0.10816613   3    1000022   -15    16

DECAY 1000037  5.1941514
    0.35506088   2    1000023    24
    0.29961669   2    1000024    23
    0.2901084   2    1000024    25
    0.052422261   2    1000022    24
    0.0021337934   3    1000023   -5    6
    0.00031565433   3    1000022   -5    6
    0.00028982838   3    1000024    6   -6

DECAY 1000022 -1


DECAY 1000023  9.0301311e-10
    0.26278331   2    1000022    22
    0.14263782   3    1000022    1   -1
    0.14260476   3    1000022    3   -3
    0.1094795   3    1000022    2   -2
    0.10424983   3    1000022    4   -4
    0.10324865   3    1000022    5   -5
    0.099971619   3    1000022    12   -12
    0.019667055   3    1000022    15   -15
    0.0076793059   3    1000022    13   -13
    0.0076752306   3    1000022    11   -11

DECAY 1000025  7.004542
    0.23979954   2    1000024   -24
    0.23979954   2   -1000024    24
    0.17850214   2    1000023    23
    0.14471757   2    1000023    25
    0.11261044   2    1000022    23
    0.081422121   2    1000022    25
    0.0014477218   3    1000024    5   -6
    0.0014477218   3   -1000024   -5    6

DECAY 1000035  5.1864692
    0.30652207   2    1000024   -24
    0.30652207   2   -1000024    24
    0.21620947   2    1000023    25
    0.12159426   2    1000022    25
    0.026066606   2    1000023    23
    0.018132205   2    1000022    23
    0.0018612516   3    1000024    5   -6
    0.0018612516   3   -1000024   -5    6
    0.00029344987   2    2000013   -13
    0.00029344987   2   -2000013    13
    0.00027171399   2    2000011   -11
    0.00027171399   2   -2000011    11

DECAY 1000021  229.78118
    0.16188689   2    1000006   -6
    0.16188689   2   -1000006    6
    0.15801884   2    1000005   -5
    0.15801884   2   -1000005    5
    0.095016198   2    2000005   -5
    0.095016198   2   -2000005    5
    0.083865998   2    2000006   -6
    0.083865998   2   -2000006    6
    0.0011027729   2    1000006   -4
    0.0011027729   2   -1000006    4

DECAY 25  0.0038179094
    0.58620358   2   -5    5
    0.21559826   2   -24    24
    0.07178377   2    21    21
    0.067779174   2   -15    15
    0.028674386   2   -4    4
    0.02573805   2    23    23
    0.0023337648   2    22    22
    0.0014318436   2    22    23
    0.00023518776   2   -13    13
    0.00022121975   2   -3    3
    6.1165051e-07   2   -1    1
    1.4776814e-07   2   -2    2
    5.2872918e-09   2   -11    11

DECAY 35  22.477565
    0.42108721   2   -5    5
    0.13715317   2   -1000024    1000037
    0.13715317   2   -1000037    1000024
    0.11712013   2    1000022    1000025
    0.10591527   2   -15    15
    0.04909072   2    1000022    1000035
    0.013716763   2   -1000024    1000024
    0.01080996   2    1000022    1000022
    0.0022637563   2   -6    6
    0.0020638066   2    1000023    1000025
    0.0016452928   2    1000025    1000035
    0.00084732501   2    1000023    1000035
    0.00038393933   2    1000022    1000023
    0.0003719195   2   -13    13
    0.00021728086   2   -3    3
    6.6573087e-05   2    25    25
    4.0421808e-05   2    1000035    1000035
    1.8262996e-05   2   -1000037    1000037
    1.2247564e-05   2    1000025    1000025
    6.4815397e-06   2    23    23
    5.9075345e-06   2    21    21
    4.7905676e-06   2   -24    24
    3.4082938e-06   2    1000023    1000023
    6.0075488e-07   2   -1    1
    5.2390327e-07   2    22    23
    4.2373561e-07   2   -1000011    1000011
    4.2105642e-07   2   -1000013    1000013
    1.7218657e-07   2    22    22
    4.2958082e-08   2   -4    4
    8.354749e-09   2   -11    11
    2.2149978e-13   2   -2    2

DECAY 36  22.111814
    0.41645971   2   -5    5
    0.13599239   2   -1000024    1000037
    0.13599239   2   -1000037    1000024
    0.10938908   2    1000022    1000035
    0.10474415   2   -15    15
    0.055010345   2    1000022    1000025
    0.018574812   2   -1000024    1000024
    0.014626457   2    1000022    1000022
    0.0023604954   2   -6    6
    0.0019261347   2    1000023    1000035
    0.0016382662   2    1000035    1000035
    0.00095051749   2    1000023    1000025
    0.0008954654   2   -1000037    1000037
    0.00052317539   2    1000022    1000023
    0.0003678048   2   -13    13
    0.00022813648   2    1000025    1000025
    0.00021487212   2   -3    3
    6.0230578e-05   2    1000025    1000035
    3.0091415e-05   2    21    21
    8.7198456e-06   2    23    25
    4.67807e-06   2    1000023    1000023
    9.4465502e-07   2    22    23
    5.9409552e-07   2   -1    1
    4.9375864e-07   2    22    22
    4.2362181e-08   2   -4    4
    8.2623054e-09   2   -11    11
    2.1846111e-13   2   -2    2
    8.9674795e-38   2    25    25

DECAY 37  21.721227
    0.41104638   2   -5    6
    0.14467976   2    1000024    1000025
    0.14199644   2    1000024    1000035
    0.10311647   2   -15    16
    0.1014528   2    1000023    1000037
    0.086032351   2    1000022    1000037
    0.0083793742   2    1000023    1000024
    0.0011319104   2    1000022    1000024
    0.00075488189   2    1000025    1000037
    0.00060909548   2   -5    4
    0.00036455417   2   -13    14
    0.00020343191   2    1000035    1000037
    0.00020255238   2   -3    4
    9.4120193e-06   2   -3    2
    8.936525e-06   2    24    25
    6.4321895e-06   2   -3    6
    4.3495738e-06   2   -5    2
    5.6203351e-07   2   -1    2
    2.8159842e-07   2   -1    6
    2.866539e-08   2   -1    4
    8.5269601e-09   2   -11    12
    7.3222408e-12   2    24    35
    4.2126136e-12   2    24    36

DECAY 6  2.43
    1   2    5    24

DECAY 15 -1
