BLOCK SPINFO
   1   SPheno
   2   v4.0.5be

BLOCK SPHENOINFO
   1   2
   2   2

BLOCK MODSEL
   1   0

BLOCK MINPAR
   3    31.430798
   4    1

BLOCK EXTPAR
   0    1413.8754
   1    438.48575
   2   -631.32093
   3    3000
   11    4065.3018
   12   -543.28841
   13    1136.5643
   23    332.63906
   25    30.378097
   26    3513.1403
   31    1129.6351
   32    1129.6351
   33    1240.446
   34    451.09072
   35    451.09072
   36    1402.5164
   41    5000
   42    5000
   43    1212.2321
   44    5000
   45    5000
   46    1870.4266
   47    5000
   48    5000
   49    1942.7118

BLOCK SMINPUTS
   1    127.90897
   2    1.1663787e-05
   3    0.1184
   4    91.1876
   5    4.18
   6    173.2
   7    1.777
   8    0
   11    0.00051099893
   12    0
   13    0.10565837
   14    0
   21    0.005
   22    0.0025
   23    0.095
   24    1.27

BLOCK GAUGE Q=  1413.8754
   1    0.35536298
   2    0.66519887
   3    1.219778

BLOCK YU Q=  1413.8754
   1   1    8.3889137e-06
   2   2    0.0042615681
   3   3    1.0134482

BLOCK YD Q=  1413.8754
   1   1    0.00051209029
   2   2    0.0097297154
   3   3    0.5078331

BLOCK YE Q=  1413.8754
   1   1    8.93635e-05
   2   2    0.018477537
   3   3    0.31076178

BLOCK AU Q=  1413.8754
   1   1    0
   2   2    0
   3   3    4065.3019

BLOCK AD Q=  1413.8754
   1   1    0
   2   2    0
   3   3   -543.28839

BLOCK AE Q=  1413.8754
   1   1    0
   2   2    0
   3   3    1136.5643

BLOCK MSOFT Q=  1413.8754
   1    438.48575
   2   -631.32093
   3    3000
   21    12202263
   22   -40349.556
   31    1129.6351
   32    1129.6351
   33    1240.446
   34    451.09072
   35    451.09072
   36    1402.5164
   41    5000
   42    5000
   43    1212.2321
   44    5000
   45    5000
   46    1870.4266
   47    5000
   48    5000
   49    1942.7118

BLOCK MASS
   6    173.2
   23    91.1876
   24    80.429995
   15    1.777
   25    125.6099
   35    3512.1469
   36    3513.1403
   37    3513.2882
   1000001    5027.372
   2000001    5016.9304
   1000002    5026.9437
   2000002    5018.9592
   1000003    5027.375
   2000003    5016.9349
   1000004    5026.9466
   2000004    5018.96
   1000005    1172.4736
   2000005    1972.3578
   1000006    1094.6007
   2000006    1826.2765
   1000011    1136.2881
   2000011    450.88903
   1000012    1133.209
   1000013    1136.2925
   2000013    450.91384
   1000014    1133.2115
   1000015    1247.2391
   2000015    1404.357
   1000016    1244.6215
   1000021    3187.8631
   1000022   -329.24858
   1000023    331.82194
   1000025    447.30178
   1000035   -677.77187
   1000024    331.83146
   1000037    678.0443

BLOCK ALPHA
      -0.031850902

BLOCK HMIX Q=  1413.8754
   1    332.63906
   2    30.378097
   3    244.0227
   4    12342155

BLOCK STOPMIX
   1   1   -0.95523721
   1   2    0.29584095
   2   1   -0.29584095
   2   2   -0.95523721

BLOCK SBOTMIX
   1   1    0.99996321
   1   2    0.0085775888
   2   1   -0.0085775888
   2   2    0.99996321

BLOCK STAUMIX
   1   1    0.99929672
   1   2    0.037497519
   2   1   -0.037497519
   2   2    0.99929672

BLOCK NMIX
   1   1    0.037931182
   1   2    0.1613205
   1   3   -0.70651754
   1   4   -0.68801882
   2   1   -0.28683502
   2   2   -0.056620924
   2   3   -0.68157058
   2   4    0.67080645
   3   1   -0.95721003
   3   2    0.017196666
   3   3    0.17578108
   3   4   -0.22924714
   4   1    0.0059881857
   4   2   -0.98512641
   4   3   -0.073454288
   4   4   -0.15522425

BLOCK UMIX
   1   1   -0.10485405
   1   2    0.99448762
   2   1   -0.99448762
   2   2   -0.10485405

BLOCK VMIX
   1   1    0.22129601
   1   2    0.97520668
   2   1    0.97520668
   2   2   -0.22129601

BLOCK HIGGSBOUNDSINPUTHIGGSCOUPLINGSFERMIONS
       0, 922.82878,3,36,15,15

BLOCK HIGGSBOUNDSINPUTHIGGSCOUPLINGSBOSONS
       0,4,36,21,21,23

BLOCK SPHENOLOWENERGY
   1    0.00036378752
   2    1.5872573e-06
   3    3.5243608e-05
   4    2.731941e-15
   5    1.1670569e-10
   6    2.4446818e-08
   7    9.1620942e-14
   8    3.914053e-09
   9    8.3074444e-07
   10    9.626193e-05
   11    0.99434889
   12    0.54309103
   13    19.402879
   14    0
   15    0
   16    0.002163048
   17    2.2817171e-15
   18    2.4784199e-11
   19    8.286944e-11
   20   -7.3370914e-15
   21   -3.1366043e-10
   22   -9.0485894e-08
   23    0
   24    0
   25    0
   26    0
   27    0
   28    0
   29    0
   30    0
   31    0
   39    7.7713956e-05
   40    0
   41    0
   42    0

BLOCK FWCOEF Q=  160
   305   4422   0   0   -0.18881911
   305   4422   0   2   -0.23886336
   305   4322   0   2   -0.00035236579
   305   6421   0   0   -0.095227835
   305   6421   0   2   -0.12327627
   305   6321   0   2   -0.00022995872
   3051111   4133   0   0    1.5899479
   3051111   4133   0   2    1.5913015
   3051111   4233   0   2    0.00017243356
   3051111   4137   0   0   -4.4126401
   3051111   4137   0   2   -4.4100545
   3051111   4237   0   2   -0.0013456679
   3051313   4133   0   0    1.5899479
   3051313   4133   0   2    1.5912995
   3051313   4233   0   2    0.00017243287
   3051313   4137   0   0   -4.4126401
   3051313   4137   0   2   -4.4100564
   3051313   4237   0   2   -0.0013456694
   3051212   4137   0   0    1.5053501
   3051212   4137   0   2    1.5048083
   3051212   4237   0   2    0.00029340101
   3051414   4137   0   0    1.5053501
   3051414   4137   0   2    1.5048083
   3051414   4237   0   2    0.00029340103
   3051616   4137   0   0    1.5053501
   3051616   4137   0   2    1.5048082
   3051616   4237   0   2    0.00029340481

BLOCK IMFWCOEF Q=  160
   305   4422   0   0    3.8576329e-07
   305   4422   0   2   -2.211714e-05
   305   4322   0   2   -4.6414634e-06
   305   6421   0   0    3.3043177e-07
   305   6421   0   2   -1.5200216e-05
   305   6321   0   2   -1.8957863e-06
   3051111   4133   0   2   -2.2115904e-07
   3051111   4233   0   2    3.3983158e-06
   3051111   4137   0   2    2.9212279e-06
   3051111   4237   0   2   -2.6524896e-05
   3051313   4133   0   2   -2.2122218e-07
   3051313   4233   0   2    3.3983048e-06
   3051313   4137   0   2    2.9212489e-06
   3051313   4237   0   2   -2.6524925e-05
   3051212   4137   0   2   -2.5663791e-07
   3051212   4237   0   2    5.7833339e-06
   3051414   4137   0   2   -2.5663674e-07
   3051414   4237   0   2    5.7833339e-06
   3051616   4137   0   2   -2.5859968e-07
   3051616   4237   0   2    5.7833347e-06

DECAY 23  2.4952


DECAY 24  2.085


DECAY 2000011  0.040400968
    0.96951478   2    1000023    11
    0.017579225   2    1000022    11
    0.012905622   2    1000025    11

DECAY 1000011  7.3900983
    0.55506422   2   -1000037    12
    0.27080647   2    1000035    11
    0.11801512   2    1000025    11
    0.024937648   2    1000023    11
    0.018725203   2    1000022    11
    0.012451341   2   -1000024    12

DECAY 2000013  0.041685081
    0.94699495   2    1000023    13
    0.025052761   2    1000022    13
    0.015271854   2   -1000024    14
    0.012680435   2    1000025    13

DECAY 1000013  7.3968749
    0.55456257   2   -1000037    14
    0.27056431   2    1000035    13
    0.11793052   2    1000025    13
    0.025320867   2    1000023    13
    0.019144855   2    1000022    13
    0.01244   2   -1000024    14

DECAY 1000015  11.585037
    0.46278419   2   -1000037    16
    0.22632838   2    1000035    15
    0.10482651   2    1000022    15
    0.10240576   2    1000023    15
    0.091435141   2    1000025    15
    0.012220017   2   -1000024    16

DECAY 2000015  10.553734
    0.50272843   2    1000025    15
    0.22128715   2   -1000024    16
    0.15308376   2    1000023    15
    0.11229006   2    1000022    15
    0.0051238904   2   -1000037    16
    0.0025324703   2    1000035    15
    0.0015969435   2    1000016   -24
    0.00072027869   2    1000015    25
    0.00063701773   2    1000015    23

DECAY 1000012  7.4434909
    0.52530957   2    1000037    11
    0.2700107   2    1000035    12
    0.13341587   2    1000025    12
    0.054858933   2    1000024    11
    0.011176888   2    1000022    12
    0.0052280443   2    1000023    12

DECAY 1000014  7.4499388
    0.52486282   2    1000037    13
    0.26977896   2    1000035    14
    0.13330091   2    1000025    14
    0.055666518   2    1000024    13
    0.011167249   2    1000022    14
    0.0052235355   2    1000023    14

DECAY 1000016  11.616852
    0.44457642   2    1000037    15
    0.22794128   2    1000035    16
    0.21565717   2    1000024    15
    0.099911274   2    1000025    16
    0.0081156861   2    1000022    16
    0.0037981752   2    1000023    16

DECAY 2000001  143.53826
    0.98078367   2    1000021    1
    0.017596035   2    1000025    1
    0.0015915182   2    1000023    1

DECAY 1000001  206.57883
    0.68674475   2    1000021    1
    0.20424056   2   -1000037    2
    0.10042683   2    1000035    1
    0.0037123999   2    1000025    1
    0.0025372506   2    1000022    1
    0.0023348899   2   -1000024    2

DECAY 2000003  143.5574
    0.98065613   2    1000021    3
    0.017595703   2    1000025    3
    0.0016215288   2    1000023    3

DECAY 1000003  206.59034
    0.686708   2    1000021    3
    0.20422974   2   -1000037    4
    0.10042154   2    1000035    3
    0.0037135864   2    1000025    3
    0.0025597267   2    1000022    3
    0.0023430395   2   -1000024    4

DECAY 1000005  30.944608
    0.58623497   2   -1000024    6
    0.17044648   2   -1000037    6
    0.085896795   2    1000022    5
    0.076592169   2    1000023    5
    0.072337948   2    1000035    5
    0.0084916371   2    1000025    5

DECAY 2000005  20.185937
    0.45998107   2   -1000024    6
    0.23581847   2    1000022    5
    0.22357954   2    1000023    5
    0.059626634   2    1000025    5
    0.0056757034   2    1000006   -24
    0.0051724727   2   -1000037    6
    0.0050450459   2    1000005    25
    0.0025792212   2    1000035    5
    0.0025190292   2    1000005    23

DECAY 2000002  152.02864
    0.9273985   2    1000021    2
    0.066481092   2    1000025    2
    0.0060127017   2    1000023    2
    0.00010516157   2    1000022    2

DECAY 1000002  206.57869
    0.68652934   2    1000021    2
    0.19637993   2    1000037    1
    0.099983866   2    1000035    2
    0.010399465   2    1000024    1
    0.0029998118   2    1000022    2
    0.0024760448   2    1000025    2
    0.0012315424   2    1000023    2

DECAY 2000004  152.03225
    0.9273766   2    1000021    4
    0.066480149   2    1000025    4
    0.0060178656   2    1000023    4
    0.00011075485   2    1000022    4

DECAY 1000004  206.59011
    0.68649251   2    1000021    4
    0.19636967   2    1000037    3
    0.099978564   2    1000035    4
    0.010443709   2    1000024    3
    0.0030037814   2    1000022    4
    0.0024763603   2    1000025    4
    0.0012354016   2    1000023    4

DECAY 1000006  30.193247
    0.31312644   2    1000022    6
    0.26920273   2    1000023    6
    0.2505795   2    1000024    5
    0.084447512   2    1000037    5
    0.046635448   2    1000025    6
    0.03324781   2    1000035    6
    0.001273582   2    1000022    4
    0.00096568143   3    1000022    24    5
    0.00052129552   2    1000023    4

DECAY 2000006  223.31529
    0.32210105   2    1000005    24
    0.19016081   2    1000006    23
    0.17600432   2    1000006    25
    0.12673012   2    1000024    5
    0.070861084   2    1000023    6
    0.067324422   2    1000022    6
    0.019975403   2    1000037    5
    0.017099533   2    1000025    6
    0.0097432428   2    1000035    6

DECAY 1000024  3.3570898e-10
    0.50241158   3    1000022   -1    2
    0.16751551   3    1000022   -11    12
    0.16613569   3    1000022   -13    14
    0.15138728   3    1000022   -3    4
    0.012549935   3    1000022   -15    16

DECAY 1000037  5.0093422
    0.28052878   2    1000022    24
    0.24814257   2    1000024    23
    0.24449569   2    1000023    24
    0.21679152   2    1000024    25
    0.0082089974   2    1000025    24
    0.0010376321   3    1000022   -5    6
    0.00077740927   3    1000023   -5    6

DECAY 1000022 -1


DECAY 1000023  2.8951574e-09
    0.91754082   2    1000022    22
    0.024251922   3    1000022    12   -12
    0.018137062   3    1000022    1   -1
    0.017852433   3    1000022    3   -3
    0.014146086   3    1000022    2   -2
    0.0040847202   3    1000022    11   -11
    0.0039848441   3    1000022    13   -13

DECAY 1000025  0.50151195
    0.63319661   2    1000022    23
    0.17903532   2    1000024   -24
    0.17903532   2   -1000024    24
    0.0086051807   2    1000023    23

DECAY 1000035  6.4426293
    0.22756825   2    1000024   -24
    0.22756825   2   -1000024    24
    0.18644372   2    1000023    23
    0.17362963   2    1000023    25
    0.14384253   2    1000022    25
    0.023952467   2    1000022    23
    0.0083035668   2    1000025    23
    0.0067754222   2    1000025    25
    0.00092175655   3    1000024    5   -6
    0.00092175655   3   -1000024   -5    6

DECAY 1000021  248.60664
    0.15777032   2    1000006   -6
    0.15777032   2   -1000006    6
    0.14190091   2    1000005   -5
    0.14190091   2   -1000005    5
    0.077515884   2    2000006   -6
    0.077515884   2   -2000006    6
    0.072298697   2    2000005   -5
    0.072298697   2   -2000005    5
    0.050434774   2    1000006   -4
    0.050434774   2   -1000006    4

DECAY 25  0.0039605831
    0.56512405   2   -5    5
    0.2385444   2   -24    24
    0.07002994   2    21    21
    0.064844641   2   -15    15
    0.029225483   2    23    23
    0.027888412   2   -4    4
    0.002354582   2    22    22
    0.0015512997   2    22    23
    0.00022487677   2   -13    13
    0.00021157799   2   -3    3
    5.8499135e-07   2   -1    1
    1.43714e-07   2   -2    2
    5.0554714e-09   2   -11    11

DECAY 35  79.984577
    0.34722617   2   -5    5
    0.15307228   2   -1000024    1000037
    0.15307228   2   -1000037    1000024
    0.08256575   2   -15    15
    0.078731047   2    1000022    1000035
    0.07127673   2    1000023    1000035
    0.022998857   2    1000022    1000025
    0.019150823   2    1000023    1000025
    0.019091233   2   -1000024    1000024
    0.0068485048   2    1000025    1000035
    0.0067196738   2   -2000006    1000006
    0.0067196738   2   -1000006    2000006
    0.0047680946   2    1000022    1000023
    0.0042478856   2    1000022    1000022
    0.004151986   2   -1000037    1000037
    0.0040191198   2   -1000006    1000006
    0.0030240208   2   -2000015    1000015
    0.0030240208   2   -1000015    2000015
    0.0022627432   2    1000025    1000025
    0.0020989224   2    1000035    1000035
    0.0011098772   2    1000023    1000023
    0.0011052037   2   -6    6
    0.001103693   2   -2000005    1000005
    0.001103693   2   -1000005    2000005
    0.00028634124   2   -13    13
    0.00017150488   2   -3    3
    1.8755687e-05   2   -1000015    1000015
    1.6815088e-05   2   -2000015    2000015
    5.8090789e-06   2    21    21
    5.2326537e-06   2    25    25
    1.3529681e-06   2   -1000005    1000005
    4.7417215e-07   2   -1    1
    1.9953286e-07   2    23    23
    1.0970881e-07   2    22    23
    7.4120153e-08   2   -2000011    2000011
    7.3802223e-08   2   -2000013    2000013
    7.337511e-08   2    22    22
    6.0555702e-08   2   -1000011    1000011
    6.0158754e-08   2   -1000013    1000013
    4.9262114e-08   2   -24    24
    1.7578829e-08   2   -4    4
    6.4307122e-09   2   -11    11
    1.2188527e-09   2   -2000013    1000013
    1.2188527e-09   2   -1000013    2000013
    9.0618325e-14   2   -2    2
    2.8509211e-14   2   -2000011    1000011
    2.8509211e-14   2   -1000011    2000011

DECAY 36  78.202422
    0.3350468   2   -5    5
    0.15710842   2   -1000024    1000037
    0.15710842   2   -1000037    1000024
    0.079676102   2   -15    15
    0.077285229   2    1000023    1000035
    0.076569678   2    1000022    1000035
    0.023284577   2    1000023    1000025
    0.019395601   2    1000022    1000025
    0.019025784   2   -1000024    1000024
    0.0098752459   2   -2000006    1000006
    0.0098752459   2   -1000006    2000006
    0.0068669359   2    1000025    1000035
    0.0048741158   2    1000022    1000023
    0.0039749132   2    1000022    1000022
    0.0037687405   2   -1000037    1000037
    0.0031114473   2   -2000015    1000015
    0.0031114473   2   -1000015    2000015
    0.0029313325   2    1000025    1000025
    0.0019154844   2    1000035    1000035
    0.0013337118   2    1000023    1000023
    0.001146312   2   -6    6
    0.0011322483   2   -2000005    1000005
    0.0011322483   2   -1000005    2000005
    0.00027631933   2   -13    13
    0.00016549717   2   -3    3
    7.2189312e-06   2    21    21
    4.5756393e-07   2   -1    1
    3.7782988e-07   2    23    25
    4.6634698e-08   2    22    23
    1.832166e-08   2   -4    4
    6.205687e-09   2   -11    11
    3.4388922e-09   2    22    22
    1.2469919e-09   2   -2000013    1000013
    1.2469919e-09   2   -1000013    2000013
    9.4451501e-14   2   -2    2
    2.916727e-14   2   -2000011    1000011
    2.916727e-14   2   -1000011    2000011
    7.0179613e-40   2    25    25

DECAY 37  79.45038
    0.34503521   2   -5    6
    0.17001502   2    1000022    1000037
    0.16096381   2    1000024    1000035
    0.1457035   2    1000023    1000037
    0.08736227   2   -15    16
    0.037859164   2    1000024    1000025
    0.017147957   2    1000023    1000024
    0.013492449   2    1000025    1000037
    0.0097436986   2   -1000005    2000006
    0.0061252857   2   -2000015    1000016
    0.0034611363   2   -2000005    1000006
    0.0010591102   2   -1000005    1000006
    0.0010330948   2    1000022    1000024
    0.00050918213   2   -5    4
    0.00030885676   2   -13    14
    0.00015739281   2   -3    4
    7.516779e-06   2   -1000015    1000016
    7.38401e-06   2   -3    2
    3.6360854e-06   2   -5    2
    2.7071062e-06   2   -3    6
    4.3679236e-07   2   -1    2
    3.7211066e-07   2    24    25
    2.9323422e-07   2   -2000011    1000012
    2.9278473e-07   2   -2000013    1000014
    1.1343515e-07   2   -1    6
    7.740931e-08   2    1000035    1000037
    2.1469652e-08   2   -1    4
    7.2241916e-09   2   -11    12
    2.3975608e-09   2   -1000013    1000014
    5.6078081e-14   2   -1000011    1000012
    3.3197156e-14   2    24    35

DECAY 6  2.43
    1   2    5    24

DECAY 15 -1
