BLOCK SPINFO
   1   SPheno
   2   v4.0.5be

BLOCK SPHENOINFO
   1   2
   2   2

BLOCK MODSEL
   1   0

BLOCK MINPAR
   3    43.161535
   4    1

BLOCK EXTPAR
   0    4327.4514
   1    2351.8014
   2   -1596.9963
   3    3724.3414
   11    2987.6202
   12   -4858.3371
   13    1610.7176
   23    222.83447
   25    42.024279
   26    2725.5361
   31    1999.4939
   32    1999.4939
   33    964.89537
   34    3779.7932
   35    3779.7932
   36    4014.8713
   41    2109.2843
   42    2109.2843
   43    4425.758
   44    3294.3544
   45    3294.3544
   46    4083.9289
   47    4597.5724
   48    4597.5724
   49    2506.7492

BLOCK SMINPUTS
   1    127.90897
   2    1.1663787e-05
   3    0.1184
   4    91.1876
   5    4.18
   6    173.2
   7    1.777
   8    0
   11    0.00051099893
   12    0
   13    0.10565837
   14    0
   21    0.005
   22    0.0025
   23    0.095
   24    1.27

BLOCK GAUGE Q=  4327.4514
   1    0.35536298
   2    0.66519887
   3    1.219778

BLOCK YU Q=  4327.4514
   1   1    8.3867456e-06
   2   2    0.0042604667
   3   3    1.0131862

BLOCK YD Q=  4327.4514
   1   1    0.00070822946
   2   2    0.01345636
   3   3    0.7023417

BLOCK YE Q=  4327.4514
   1   1    0.00012359122
   2   2    0.025554745
   3   3    0.42978876

BLOCK AU Q=  4327.4514
   1   1    0
   2   2    0
   3   3    2987.6201

BLOCK AD Q=  4327.4514
   1   1    0
   2   2    0
   3   3   -4858.3382

BLOCK AE Q=  4327.4514
   1   1    0
   2   2    0
   3   3    1610.7176

BLOCK MSOFT Q=  4327.4514
   1    2351.8014
   2   -1596.9963
   3    3724.3414
   21    7688919.5
   22    332353.3
   31    1999.4939
   32    1999.4939
   33    964.89537
   34    3779.7932
   35    3779.7932
   36    4014.8713
   41    2109.2843
   42    2109.2843
   43    4425.758
   44    3294.3544
   45    3294.3544
   46    4083.9289
   47    4597.5724
   48    4597.5724
   49    2506.7492

BLOCK MASS
   6    173.2
   23    91.1876
   24    80.429995
   15    1.777
   25    122.49897
   35    2724.4764
   36    2725.5361
   37    2725.7326
   1000001    2340.003
   2000001    4716.0717
   1000002    2338.6221
   2000002    3464.5353
   1000003    2339.9953
   2000003    4716.062
   1000004    2338.6144
   2000004    3464.5345
   1000005    2661.1193
   2000005    4505.74
   1000006    4150.0414
   2000006    4512.4454
   1000011    2022.3986
   2000011    3787.3381
   1000012    2020.4172
   1000013    2022.3522
   2000013    3787.2766
   1000014    2020.379
   1000015    987.53235
   2000015    4004.6675
   1000016    992.38334
   1000021    3927.733
   1000022   -241.09214
   1000023    244.19314
   1000025   -1630.7274
   1000035    2321.3977
   1000024    243.19314
   1000037    1630.9328

BLOCK ALPHA
      -0.023232202

BLOCK HMIX Q=  4327.4514
   1    222.83447
   2    42.024279
   3    242.86978
   4    7428546.9

BLOCK STOPMIX
   1   1   -0.11589024
   1   2    0.99326203
   2   1   -0.99326203
   2   2   -0.11589024

BLOCK SBOTMIX
   1   1    0.0022224488
   1   2    0.99999753
   2   1   -0.99999753
   2   2    0.0022224488

BLOCK STAUMIX
   1   1    0.99999957
   1   2    0.00092269095
   2   1   -0.00092269095
   2   2    0.99999957

BLOCK NMIX
   1   1   -0.011808057
   1   2   -0.038748335
   1   3    0.70920413
   1   4    0.7038385
   2   1    0.015366154
   2   2    0.030643448
   2   3    0.70497436
   2   4   -0.70840385
   3   1   -0.00054732025
   3   2    0.99877895
   3   3    0.0058838808
   3   4    0.049047738
   4   1    0.99981206
   4   2   -0.00038183431
   4   3   -0.0024556628
   4   4    0.019226866

BLOCK UMIX
   1   1   -0.0083371128
   1   2    0.99996525
   2   1   -0.99996525
   2   2   -0.0083371128

BLOCK VMIX
   1   1    0.069430262
   1   2    0.99758681
   2   1    0.99758681
   2   2   -0.069430262

BLOCK HIGGSBOUNDSINPUTHIGGSCOUPLINGSFERMIONS
       0, 1766.0401,3,36,15,15

BLOCK HIGGSBOUNDSINPUTHIGGSCOUPLINGSBOSONS
       0,4,36,21,21,23

BLOCK SPHENOLOWENERGY
   1    0.00033009459
   2    1.5891666e-06
   3    3.5253286e-05
   4    2.4701643e-15
   5    1.0552284e-10
   6    2.2105123e-08
   7    8.2595959e-14
   8    3.5285053e-09
   9    7.489817e-07
   10    9.5384605e-05
   11    0.98528645
   12    0.54192136
   13    19.355841
   14    0
   15    0
   16    0.0021571574
   17    2.2816583e-15
   18    2.479917e-11
   19    8.2904041e-11
   20   -2.7303294e-15
   21   -1.167306e-10
   22   -4.2009094e-08
   23    0
   24    0
   25    0
   26    0
   27    0
   28    0
   29    0
   30    0
   31    0
   39    7.1129216e-05
   40    0
   41    0
   42    0

BLOCK FWCOEF Q=  160
   305   4422   0   0   -0.18881911
   305   4422   0   2   -0.19918258
   305   4322   0   2   -0.00023476614
   305   6421   0   0   -0.095227835
   305   6421   0   2   -0.10672931
   305   6321   0   2   -0.00024633806
   3051111   4133   0   0    1.6299292
   3051111   4133   0   2    1.6301931
   3051111   4233   0   2    0.00020584002
   3051111   4137   0   0   -4.4526213
   3051111   4137   0   2   -4.4510611
   3051111   4237   0   2   -0.0015155223
   3051313   4133   0   0    1.6299292
   3051313   4133   0   2    1.6301921
   3051313   4233   0   2    0.00020583918
   3051313   4137   0   0   -4.4526213
   3051313   4137   0   2   -4.4510621
   3051313   4237   0   2   -0.0015155228
   3051212   4137   0   0    1.5053501
   3051212   4137   0   2    1.5050163
   3051212   4237   0   2    0.00032747473
   3051414   4137   0   0    1.5053501
   3051414   4137   0   2    1.5050163
   3051414   4237   0   2    0.00032747485
   3051616   4137   0   0    1.5053501
   3051616   4137   0   2    1.5050161
   3051616   4237   0   2    0.00032750897

BLOCK IMFWCOEF Q=  160
   305   4422   0   0    3.8581421e-07
   305   4422   0   2   -5.3797037e-06
   305   4322   0   2   -1.4457149e-06
   305   6421   0   0    3.3047539e-07
   305   6421   0   2   -1.0723886e-05
   305   6321   0   2   -8.3330358e-07
   3051111   4133   0   2    3.0358745e-07
   3051111   4233   0   2    4.6637724e-06
   3051111   4137   0   2   -1.6659686e-06
   3051111   4237   0   2   -3.4344743e-05
   3051313   4133   0   2    3.035741e-07
   3051313   4233   0   2    4.6637677e-06
   3051313   4137   0   2   -1.6659615e-06
   3051313   4237   0   2   -3.4344763e-05
   3051212   4137   0   2    4.1940674e-07
   3051212   4237   0   2    7.4212261e-06
   3051414   4137   0   2    4.194067e-07
   3051414   4237   0   2    7.4212261e-06
   3051616   4137   0   2    4.1672653e-07
   3051616   4237   0   2    7.4212285e-06

DECAY 23  2.4952


DECAY 24  2.085


DECAY 1000011  3.2944362
    0.66067415   2   -1000037    12
    0.32966951   2    1000025    11
    0.0053306203   2    1000022    11
    0.0039608333   2    1000023    11
    0.00036488765   2   -1000024    12

DECAY 2000011  7.4214649
    0.99904412   2    1000035    11
    0.00060050807   2    1000023    11
    0.00035471018   2    1000022    11

DECAY 1000013  3.3193261
    0.65559317   2   -1000037    14
    0.32713427   2    1000025    13
    0.0091592356   2    1000022    13
    0.0077511861   2    1000023    13
    0.00036214276   2   -1000024    14

DECAY 2000013  7.5187134
    0.98606778   2    1000035    13
    0.0064901501   2   -1000024    14
    0.0038180752   2    1000023    13
    0.0036149654   2    1000022    13

DECAY 1000015  3.2183144
    0.50396805   2    1000022    15
    0.49584163   2    1000023    15
    0.00019032665   2   -1000024    16

DECAY 2000015  39.764114
    0.36735052   2   -1000024    16
    0.22301213   2    1000035    15
    0.18485422   2    1000022    15
    0.18269953   2    1000023    15
    0.020170016   2    1000016   -37
    0.010181654   2    1000015    35
    0.010163792   2    1000015    36
    0.00077247534   2    1000016   -24
    0.00038681739   2    1000015    23
    0.00037195408   2    1000015    25

DECAY 1000012  3.3234144
    0.64641873   2    1000037    11
    0.32447756   2    1000025    12
    0.025059625   2    1000024    11
    0.0027363437   2    1000022    12
    0.0013077403   2    1000023    12

DECAY 1000014  3.3483906
    0.641494   2    1000037    13
    0.3220056   2    1000025    14
    0.03248656   2    1000024    13
    0.0027158785   2    1000022    14
    0.0012979596   2    1000023    14

DECAY 1000016  3.2675909
    0.99816054   2    1000024    15
    0.0012456113   2    1000022    16
    0.0005938524   2    1000023    16

DECAY 1000001  8.1880173
    0.66517999   2   -1000037    2
    0.33202406   2    1000025    1
    0.0016549464   2    1000022    1
    0.00095983369   2    1000023    1
    0.00017112576   2   -1000024    2

DECAY 2000001  36.454707
    0.95851994   2    1000021    1
    0.041450497   2    1000035    1

DECAY 1000003  8.1969306
    0.66444542   2   -1000037    4
    0.33165778   2    1000025    3
    0.0021580177   2    1000022    3
    0.0014574549   2    1000023    3
    0.00027130266   2   -1000024    4

DECAY 2000003  36.487695
    0.95763353   2    1000021    3
    0.04141283   2    1000035    3
    0.00046311233   2   -1000024    4
    0.00024710912   2    1000023    3
    0.00024297277   2    1000022    3

DECAY 1000005  51.227053
    0.49698171   2   -1000024    6
    0.25225504   2    1000022    5
    0.24909531   2    1000023    5
    0.0016566062   2    1000035    5

DECAY 2000005  203.74672
    0.44551257   2   -1000024    6
    0.14905424   2   -1000037    6
    0.10864548   2    1000022    5
    0.10731098   2    1000023    5
    0.10062901   2    1000021    5
    0.07335125   2    1000025    5
    0.0132248   2    1000006   -24
    0.001673268   2    1000035    5
    0.00039089871   2    1000005    25
    0.00020749992   2    1000005    23

DECAY 1000002  8.2404858
    0.65594956   2    1000037    1
    0.32885178   2    1000025    2
    0.011788034   2    1000024    1
    0.0020404971   2    1000022    2
    0.0013616377   2    1000023    2

DECAY 2000002  2.351254
    0.99877577   2    1000035    2
    0.00076926451   2    1000023    2
    0.00045436915   2    1000022    2

DECAY 1000004  8.249393
    0.65523091   2    1000037    3
    0.32849022   2    1000025    4
    0.01277193   2    1000024    3
    0.0020880067   2    1000022    4
    0.0014104887   2    1000023    4

DECAY 2000004  2.353724
    0.99772615   2    1000035    4
    0.0010325066   2    1000023    4
    0.00071462533   2    1000022    4
    0.00052379972   2    1000024    3

DECAY 1000006  174.41681
    0.48202493   2    1000024    5
    0.24241092   2    1000023    6
    0.2397013   2    1000022    6
    0.025010345   2    1000035    6
    0.010336037   2    1000021    6
    0.00047736064   3    1000022    24    5

DECAY 2000006  205.67814
    0.22205044   2    1000023    6
    0.21895503   2    1000022    6
    0.21336961   2    1000024    5
    0.1468916   2    1000037    5
    0.10270941   2    1000021    6
    0.073628326   2    1000025    6
    0.013459655   2    1000006    25
    0.006689004   2    1000006    23
    0.0018372258   2    1000035    6
    0.00040970895   2    1000005    24

DECAY 1000024  1.9160829e-11
    0.60025864   3    1000022   -1    2
    0.20009978   3    1000022   -11    12
    0.19539245   3    1000022   -13    14
    0.0042491319   3    1000022   -3    4

DECAY 1000037  19.664674
    0.17696177   2    1000024    25
    0.17220755   2    1000023    24
    0.1706496   2    1000024    23
    0.17029035   2    1000022    24
    0.14642986   2   -1000015    16
    0.14408802   2    1000016   -15
    0.0074227715   3    1000024    6   -6
    0.0060152832   3    1000022   -5    6
    0.0058614276   3    1000023   -5    6

DECAY 1000022 -1


DECAY 1000023  4.4673149e-09
    0.86609655   2    1000022    22
    0.038373828   3    1000022    12   -12
    0.028694136   3    1000022    1   -1
    0.028364283   3    1000022    3   -3
    0.022379695   3    1000022    2   -2
    0.006475637   3    1000022    11   -11
    0.0063587274   3    1000022    13   -13
    0.00076284495   3    1000024    1   -2
    0.00076284495   3   -1000024   -1    2
    0.00072049413   3    1000022    4   -4
    0.00025429942   3    1000024    11   -12
    0.00025429942   3   -1000024   -11    12
    0.00024803713   3    1000024    13   -14
    0.00024803713   3   -1000024   -13    14

DECAY 1000025  20.798617
    0.16254643   2    1000024   -24
    0.16254643   2   -1000024    24
    0.11529501   2    1000023    25
    0.10325573   2    1000022    25
    0.10053872   2    1000023    23
    0.068989145   2    1000015   -15
    0.068989145   2   -1000015    15
    0.068285815   2    1000016   -16
    0.068285815   2   -1000016    16
    0.061316245   2    1000022    23
    0.0064444474   3    1000024    5   -6
    0.0064444474   3   -1000024   -5    6
    0.0035570908   3    1000023    6   -6
    0.0034113427   3    1000022    6   -6

DECAY 1000035  11.203291
    0.13793268   2    1000024   -24
    0.13793268   2   -1000024    24
    0.087145326   2    1000015   -15
    0.087145326   2   -1000015    15
    0.08701311   2    1000016   -16
    0.08701311   2   -1000016    16
    0.085871456   2    1000022    23
    0.082376266   2    1000023    25
    0.07402141   2    1000022    25
    0.051986135   2    1000023    23
    0.0076630164   2    1000014   -14
    0.0076630164   2   -1000014    14
    0.007661206   2    1000012   -12
    0.007661206   2   -1000012    12
    0.0075481451   2    1000013   -13
    0.0075481451   2   -1000013    13
    0.0075459631   2    1000011   -11
    0.0075459631   2   -1000011    11
    0.0059176799   3    1000024    5   -6
    0.0059176799   3   -1000024   -5    6
    0.0041024889   3    1000023    6   -6
    0.0039585626   3    1000022    6   -6
    0.00024515211   3    1000022    5   -5
    0.00023644121   3    1000023    5   -5

DECAY 1000021  239.94212
    0.10094175   2    1000004   -4
    0.10094175   2   -1000004    4
    0.10094104   2    1000002   -2
    0.10094104   2   -1000002    2
    0.10081084   2    1000003   -3
    0.10081084   2   -1000003    3
    0.1008101   2    1000001   -1
    0.1008101   2   -1000001    1
    0.070897042   2    1000005   -5
    0.070897042   2   -1000005    5
    0.011934868   2    2000002   -2
    0.011934868   2   -2000002    2
    0.011934866   2    2000004   -4
    0.011934866   2   -2000004    4
    0.00082135608   3    1000024    5   -6
    0.00082135608   3   -1000024   -5    6
    0.00072785596   3    1000023    6   -6
    0.00072016443   3    1000022    6   -6

DECAY 25  0.0035830183
    0.61096301   2   -5    5
    0.18889843   2   -24    24
    0.074084828   2    21    21
    0.07005429   2   -15    15
    0.030164745   2   -4    4
    0.021743996   2    23    23
    0.0023315335   2    22    22
    0.0012858366   2    22    23
    0.00024301028   2   -13    13
    0.00022952808   2   -3    3
    6.3462253e-07   2   -1    1
    1.5545416e-07   2   -2    2
    5.4631742e-09   2   -11    11

DECAY 35  76.321553
    0.69016035   2   -5    5
    0.12450293   2   -15    15
    0.059933659   2   -1000024    1000037
    0.059933659   2   -1000037    1000024
    0.032922826   2    1000023    1000025
    0.027191986   2    1000022    1000025
    0.0017510646   2    1000022    1000035
    0.00146751   2   -1000024    1000024
    0.00073778066   2   -6    6
    0.00044879429   2   -13    13
    0.00042435764   2    1000023    1000035
    0.00026039626   2   -3    3
    0.00017054972   2    1000022    1000022
    7.7312756e-05   2    1000023    1000023
    8.9064261e-06   2    21    21
    4.918113e-06   2    1000022    1000023
    1.6156108e-06   2    25    25
    7.1993912e-07   2   -1    1
    2.5762167e-07   2    23    23
    9.0961177e-08   2   -1000015    1000015
    8.8481849e-08   2   -24    24
    2.5997746e-08   2    22    23
    2.1070919e-08   2    22    22
    1.0079959e-08   2   -11    11
    9.3342612e-09   2   -4    4
    4.8113939e-14   2   -2    2

DECAY 36  72.798744
    0.68243924   2   -5    5
    0.12311224   2   -15    15
    0.062899292   2   -1000024    1000037
    0.062899292   2   -1000037    1000024
    0.035015544   2    1000022    1000025
    0.028084789   2    1000023    1000025
    0.0018154852   2    1000023    1000035
    0.0015643582   2   -1000024    1000024
    0.00071319097   2   -6    6
    0.00046998392   2    1000022    1000035
    0.00044378569   2   -13    13
    0.00025747655   2   -3    3
    0.00016756057   2    1000022    1000022
    9.1503559e-05   2    1000023    1000023
    1.6267201e-05   2    21    21
    8.8276403e-06   2    1000022    1000023
    7.1186598e-07   2   -1    1
    4.1276494e-07   2    23    25
    1.5223339e-08   2    22    23
    9.9674337e-09   2   -11    11
    8.8421374e-09   2   -4    4
    4.9045027e-09   2    22    22
    4.5579203e-14   2   -2    2
    2.016846e-14   2    23    35
    5.911264e-41   2    25    25

DECAY 37  75.874087
    0.67981841   2   -5    6
    0.13383777   2   -15    16
    0.06120095   2    1000022    1000037
    0.060499691   2    1000024    1000025
    0.060171411   2    1000023    1000037
    0.002194753   2    1000024    1000035
    0.0010075222   2   -5    4
    0.00047316435   2   -13    14
    0.00033246638   2    1000023    1000024
    0.00023799135   2   -3    4
    0.0002049494   2    1000022    1000024
    1.1134269e-05   2   -3    2
    7.194749e-06   2   -5    2
    1.4438951e-06   2   -3    6
    6.6035015e-07   2   -1    2
    3.9641956e-07   2    24    25
    5.0103337e-08   2   -1    6
    3.1263321e-08   2   -1    4
    1.1067363e-08   2   -11    12
    4.7511239e-09   2   -1000015    1000016
    5.6136032e-14   2    24    35

DECAY 6  2.43
    1   2    5    24

DECAY 15 -1
