# SUSY Les Houches Accord 2 - MSSM spectrum + Decays
# SPheno v4.0.5be
# W. Porod, Comput. Phys. Commun. 153 (2003) 275-315, hep-ph/0301101;
# W. Porod, F.~Staub, Comput. Phys. Commun. 183 (2012) 2458
#                     arXiv:1104.1573 [hep-ph] 
# in case of problems send email to porod@physik.uni-wuerzburg.de
# Created: 07.09.2021,  19:22
Block SPINFO         # Program information
     1   SPheno      # spectrum calculator
     2   v4.0.5be    # version number
#
Block SPhenoINFO     # SPheno specific information
    1      2         # using 2-loop RGEs
    2      2         # using pole masses for boundary conditions at mZ
Block MODSEL  # Model selection
    1    0    # general MSSM
Block MINPAR  # Input parameters
    3    4.45900397E+01  # tanb at m_Z    
    4   -1.00000000E+00  # Sign(mu)
Block EXTPAR  # non-universal input parameters
    0    2.96597397E+03  # scale for input parameters
    1    4.51461301E+01  # M_1
    2    1.93211193E+03  # M_2
    3    1.52218973E+03  # M_3
   11    1.30085569E+03  # A_t
   12   -1.63637611E+03  # A_b
   13    9.45271707E+02  # A_tau
   23   -2.32391503E+02  # mu
   25    4.37211896E+01  # tan(beta)
   26    1.81649367E+03  # m_A, pole mass
   31    1.00000000E+04  # M_L11
   32    1.00000000E+04  # M_L22
   33    1.00000000E+04  # M_L33
   34    1.00000000E+04  # M_E11
   35    1.00000000E+04  # M_E22
   36    1.00000000E+04  # M_E33
   41    1.00000000E+04  # M_Q11
   42    1.00000000E+04  # M_Q22
   43    2.42666069E+03  # M_Q33
   44    1.00000000E+04  # M_U11
   45    1.00000000E+04  # M_U22
   46    3.55734837E+03  # M_U33
   47    1.00000000E+04  # M_D11
   48    1.00000000E+04  # M_D22
   49    4.00203039E+03  # M_D33
Block SMINPUTS  # SM parameters
         1     1.27908970E+02  # alpha_em^-1(MZ)^MSbar
         2     1.16637870E-05  # G_mu [GeV^-2]
         3     1.18400000E-01  # alpha_s(MZ)^MSbar
         4     9.11876000E+01  # m_Z(pole)
         5     4.18000000E+00  # m_b(m_b), MSbar
         6     1.73200000E+02  # m_t(pole)
         7     1.77700000E+00  # m_tau(pole)
         8     0.00000000E+00  # m_nu_3
        11     5.10998930E-04  # m_e(pole)
        12     0.00000000E+00  # m_nu_1
        13     1.05658372E-01  # m_muon(pole)
        14     0.00000000E+00  # m_nu_2
        21     5.00000000E-03  # m_d(2 GeV), MSbar
        22     2.50000000E-03  # m_u(2 GeV), MSbar
        23     9.50000000E-02  # m_s(2 GeV), MSbar
        24     1.27000000E+00  # m_c(m_c), MSbar
Block gauge Q=  2.96597397E+03  # (SUSY scale)
   1    3.55362975E-01  # g'(Q)^DRbar
   2    6.65198874E-01  # g(Q)^DRbar
   3    1.21977796E+00  # g3(Q)^DRbar
Block Yu Q=  2.96597397E+03  # (SUSY scale)
  1  1     8.38656494E-06   # Y_u(Q)^DRbar
  2  2     4.26037499E-03   # Y_c(Q)^DRbar
  3  3     1.01316441E+00   # Y_t(Q)^DRbar
Block Yd Q=  2.96597397E+03  # (SUSY scale)
  1  1     7.36811392E-04   # Y_d(Q)^DRbar
  2  2     1.39994164E-02   # Y_s(Q)^DRbar
  3  3     7.30686017E-01   # Y_b(Q)^DRbar
Block Ye Q=  2.96597397E+03  # (SUSY scale)
  1  1     1.28578976E-04   # Y_e(Q)^DRbar
  2  2     2.65860542E-02   # Y_mu(Q)^DRbar
  3  3     4.47133696E-01   # Y_tau(Q)^DRbar
Block Au Q=  2.96597397E+03  # (SUSY scale)
  1  1     0.00000000E+00   # A_u(Q)^DRbar
  2  2     0.00000000E+00   # A_c(Q)^DRbar
  3  3     1.30085571E+03   # A_t(Q)^DRbar
Block Ad Q=  2.96597397E+03  # (SUSY scale)
  1  1     0.00000000E+00   # A_d(Q)^DRbar
  2  2     0.00000000E+00   # A_s(Q)^DRbar
  3  3    -1.63637611E+03   # A_b(Q)^DRbar
Block Ae Q=  2.96597397E+03  # (SUSY scale)
  1  1     0.00000000E+00   # A_e(Q)^DRbar
  2  2     0.00000000E+00   # A_mu(Q)^DRbar
  3  3     9.45271717E+02   # A_tau(Q)^DRbar
Block MSOFT Q=  2.96597397E+03  # soft SUSY breaking masses at Q
   1    4.51461301E+01  # M_1
   2    1.93211193E+03  # M_2
   3    1.52218973E+03  # M_3
  21    2.97573510E+06  # M^2_(H,d)
  22    9.18580831E+04  # M^2_(H,u)
  31    1.00000000E+04  # M_(L,11)
  32    1.00000000E+04  # M_(L,22)
  33    1.00000000E+04  # M_(L,33)
  34    1.00000000E+04  # M_(E,11)
  35    1.00000000E+04  # M_(E,22)
  36    1.00000000E+04  # M_(E,33)
  41    1.00000000E+04  # M_(Q,11)
  42    1.00000000E+04  # M_(Q,22)
  43    2.42666069E+03  # M_(Q,33)
  44    1.00000000E+04  # M_(U,11)
  45    1.00000000E+04  # M_(U,22)
  46    3.55734837E+03  # M_(U,33)
  47    1.00000000E+04  # M_(D,11)
  48    1.00000000E+04  # M_(D,22)
  49    4.00203039E+03  # M_(D,33)
Block MASS  # Mass spectrum
#   PDG code      mass          particle
         6     1.73200000E+02  # m_t(pole)
        23     9.11876000E+01  # m_Z(pole)
        24     8.04299946E+01  # W+
        15     1.77700000E+00  # m_tau(pole)
        25     1.20561672E+02  # h0
        35     1.81637178E+03  # H0
        36     1.81649367E+03  # A0
        37     1.82080504E+03  # H+
   1000001     1.01176073E+04  # ~d_L
   2000001     1.00947045E+04  # ~d_R
   1000002     1.01172417E+04  # ~u_L
   2000002     1.00979335E+04  # ~u_R
   1000003     1.01176163E+04  # ~s_L
   2000003     1.00947206E+04  # ~s_R
   1000004     1.01172507E+04  # ~c_L
   2000004     1.00979350E+04  # ~c_R
   1000005     2.46617603E+03  # ~b_1
   2000005     4.02500895E+03  # ~b_2
   1000006     2.46866062E+03  # ~t_1
   2000006     3.56347144E+03  # ~t_2
   1000011     1.00192912E+04  # ~e_L-
   2000011     1.00088788E+04  # ~e_R-
   1000012     1.00185261E+04  # ~nu_eL
   1000013     1.00193330E+04  # ~mu_L-
   2000013     1.00089597E+04  # ~mu_R-
   1000014     1.00185676E+04  # ~nu_muL
   1000015     1.00305096E+04  # ~tau_1-
   2000015     1.00326426E+04  # ~tau_2-
   1000016     1.00303811E+04  # ~nu_tauL
   1000021     1.87206306E+03  # ~g
   1000022     4.44858840E+01  # ~chi_10
   1000023     2.45584074E+02  # ~chi_20
   1000025     2.47474390E+02  # ~chi_30
   1000035     2.03781707E+03  # ~chi_40
   1000024     2.42486513E+02  # ~chi_1+
   1000037     2.03778365E+03  # ~chi_2+
# Higgs mixing
Block alpha # Effective Higgs mixing angle
          -2.25684762E-02   # alpha
Block Hmix Q=  2.96597397E+03  # Higgs mixing parameters
   1   -2.32391503E+02  # mu
   2    4.37211896E+01  # tan[beta](Q)
   3    2.43262320E+02  # v(Q)
   4    3.29964925E+06  # m^2_A(Q)
Block stopmix # stop mixing matrix
   1  1    -9.99733418E-01   # Re[R_st(1,1)]
   1  2     2.30888106E-02   # Re[R_st(1,2)]
   2  1    -2.30888106E-02   # Re[R_st(2,1)]
   2  2    -9.99733418E-01   # Re[R_st(2,2)]
Block sbotmix # sbottom mixing matrix
   1  1    -9.99998286E-01   # Re[R_sb(1,1)]
   1  2     1.85158608E-03   # Re[R_sb(1,2)]
   2  1    -1.85158608E-03   # Re[R_sb(2,1)]
   2  2    -9.99998286E-01   # Re[R_sb(2,2)]
Block staumix # stau mixing matrix
   1  1    -8.40364050E-01   # Re[R_sta(1,1)]
   1  2     5.42022383E-01   # Re[R_sta(1,2)]
   2  1    -5.42022383E-01   # Re[R_sta(2,1)]
   2  2    -8.40364050E-01   # Re[R_sta(2,2)]
Block Nmix # neutralino mixing matrix
   1  1    -9.82270387E-01   # Re[N(1,1)]
   1  2     9.86992615E-04   # Re[N(1,2)]
   1  3     1.85053844E-01   # Re[N(1,3)]
   1  4     2.99831165E-02   # Re[N(1,4)]
   2  1    -1.52224145E-01   # Re[N(2,1)]
   2  2    -3.08176304E-02   # Re[N(2,2)]
   2  3    -6.93926984E-01   # Re[N(2,3)]
   2  4    -7.03095601E-01   # Re[N(2,4)]
   3  1     1.09415963E-01   # Re[N(3,1)]
   3  2    -2.56282170E-02   # Re[N(3,2)]
   3  3     6.95849443E-01   # Re[N(3,3)]
   3  4    -7.09341169E-01   # Re[N(3,4)]
   4  1     9.18296167E-04   # Re[N(4,1)]
   4  2    -9.99195924E-01   # Re[N(4,2)]
   4  3     3.73745681E-03   # Re[N(4,3)]
   4  4     3.99085725E-02   # Re[N(4,4)]
Block Umix # chargino mixing matrix
   1  1    -5.29108675E-03   # Re[U(1,1)]
   1  2    -9.99986002E-01   # Re[U(1,2)]
   2  1     9.99986002E-01   # Re[U(2,1)]
   2  2    -5.29108675E-03   # Re[U(2,2)]
Block Vmix # chargino mixing matrix
   1  1    -5.64595900E-02   # Re[V(1,1)]
   1  2     9.98404885E-01   # Re[V(1,2)]
   2  1     9.98404885E-01   # Re[V(2,1)]
   2  2     5.64595900E-02   # Re[V(2,2)]
DECAY        23     2.49520000E+00   # Z
DECAY        24     2.08500000E+00   # W
DECAY   2000011     5.02869072E+01   # ~e^-_R
#    BR                NDA      ID1      ID2
     9.64894751E-01    2     1000022        11   # BR(~e^-_R -> chi^0_1 e^-)
     2.31461940E-02    2     1000023        11   # BR(~e^-_R -> chi^0_2 e^-)
     1.19582148E-02    2     1000025        11   # BR(~e^-_R -> chi^0_3 e^-)
DECAY   1000011     1.34175364E+02   # ~e^-_L
#    BR                NDA      ID1      ID2
     9.01609440E-02    2     1000022        11   # BR(~e^-_L -> chi^0_1 e^-)
     4.12818638E-03    2     1000023        11   # BR(~e^-_L -> chi^0_2 e^-)
     3.53700945E-04    2     1000025        11   # BR(~e^-_L -> chi^0_3 e^-)
     3.01263611E-01    2     1000035        11   # BR(~e^-_L -> chi^0_4 e^-)
     6.04075177E-01    2    -1000037        12   # BR(~e^-_L -> chi^-_2 nu_e)
#    BR                NDA      ID1      ID2       ID3
DECAY   2000013     5.05684621E+01   # ~mu^-_R
#    BR                NDA      ID1      ID2
     9.59625477E-01    2     1000022        13   # BR(~mu^-_R -> chi^0_1 mu^-)
     2.43560725E-02    2     1000023        13   # BR(~mu^-_R -> chi^0_2 mu^-)
     1.32376991E-02    2     1000025        13   # BR(~mu^-_R -> chi^0_3 mu^-)
     2.77987322E-03    2    -1000024        14   # BR(~mu^-_R -> chi^-_1 nu_mu)
DECAY   1000013     1.34316732E+02   # ~mu^-_L
#    BR                NDA      ID1      ID2
     9.01023436E-02    2     1000022        13   # BR(~mu^-_L -> chi^0_1 mu^-)
     4.62833795E-03    2     1000023        13   # BR(~mu^-_L -> chi^0_2 mu^-)
     8.60597998E-04    2     1000025        13   # BR(~mu^-_L -> chi^0_3 mu^-)
     3.00948017E-01    2     1000035        13   # BR(~mu^-_L -> chi^0_4 mu^-)
     6.03442342E-01    2    -1000037        14   # BR(~mu^-_L -> chi^-_2 nu_mu)
#    BR                NDA      ID1      ID2       ID3
DECAY   1000015     1.61279749E+02   # ~tau^-_1
#    BR                NDA      ID1      ID2
     1.73142926E-01    2     1000022        15   # BR(~tau^-_1 -> chi^0_1 tau^-)
     1.15230654E-01    2     1000023        15   # BR(~tau^-_1 -> chi^0_2 tau^-)
     1.07086394E-01    2     1000025        15   # BR(~tau^-_1 -> chi^0_3 tau^-)
     1.76421932E-01    2     1000035        15   # BR(~tau^-_1 -> chi^0_4 tau^-)
     7.43702130E-02    2    -1000024        16   # BR(~tau^-_1 -> chi^-_1 nu_tau)
     3.53747881E-01    2    -1000037        16   # BR(~tau^-_1 -> chi^-_2 nu_tau)
#    BR                NDA      ID1      ID2       ID3
DECAY   2000015     1.43044223E+02   # ~tau^-_2
#    BR                NDA      ID1      ID2
     2.48544416E-01    2     1000022        15   # BR(~tau^-_2 -> chi^0_1 tau^-)
     1.50426317E-01    2     1000023        15   # BR(~tau^-_2 -> chi^0_2 tau^-)
     1.53606877E-01    2     1000025        15   # BR(~tau^-_2 -> chi^0_3 tau^-)
     8.40717202E-02    2     1000035        15   # BR(~tau^-_2 -> chi^0_4 tau^-)
     1.94779856E-01    2    -1000024        16   # BR(~tau^-_2 -> chi^-_1 nu_tau)
     1.68570815E-01    2    -1000037        16   # BR(~tau^-_2 -> chi^-_2 nu_tau)
#    BR                NDA      ID1      ID2       ID3
DECAY   1000012     1.34178970E+02   # ~nu_e
#    BR                NDA      ID1      ID2
     9.08324529E-02    2     1000022        12   # BR(~nu_e -> chi^0_1 nu_e)
     8.37232381E-04    2     1000023        12   # BR(~nu_e -> chi^0_2 nu_e)
     2.32050653E-03    2     1000025        12   # BR(~nu_e -> chi^0_3 nu_e)
     3.01820694E-01    2     1000035        12   # BR(~nu_e -> chi^0_4 nu_e)
     2.09278241E-03    2     1000024        11   # BR(~nu_e -> chi^+_1 e^-)
     6.02096332E-01    2     1000037        11   # BR(~nu_e -> chi^+_2 e^-)
#    BR                NDA      ID1      ID2       ID3
DECAY   1000014     1.34320322E+02   # ~nu_mu
#    BR                NDA      ID1      ID2
     9.07372412E-02    2     1000022        14   # BR(~nu_mu -> chi^0_1 nu_mu)
     8.36354791E-04    2     1000023        14   # BR(~nu_mu -> chi^0_2 nu_mu)
     2.31807417E-03    2     1000025        14   # BR(~nu_mu -> chi^0_3 nu_mu)
     3.01504537E-01    2     1000035        14   # BR(~nu_mu -> chi^0_4 nu_mu)
     3.13813004E-03    2     1000024        13   # BR(~nu_mu -> chi^+_1 mu^-)
     6.01465662E-01    2     1000037        13   # BR(~nu_mu -> chi^+_2 mu^-)
#    BR                NDA      ID1      ID2       ID3
DECAY   1000016     1.74211164E+02   # ~nu_tau
#    BR                NDA      ID1      ID2
     7.00427442E-02    2     1000022        16   # BR(~nu_tau -> chi^0_1 nu_tau)
     6.45608621E-04    2     1000023        16   # BR(~nu_tau -> chi^0_2 nu_tau)
     1.78939458E-03    2     1000025        16   # BR(~nu_tau -> chi^0_3 nu_tau)
     2.32787492E-01    2     1000035        16   # BR(~nu_tau -> chi^0_4 nu_tau)
     2.30345835E-01    2     1000024        15   # BR(~nu_tau -> chi^+_1 tau^-)
     4.64388926E-01    2     1000037        15   # BR(~nu_tau -> chi^+_2 tau^-)
DECAY   2000001     7.48579482E+02   # ~d_R
#    BR                NDA      ID1      ID2
     7.26378881E-03    2     1000022         1   # BR(~d_R -> chi^0_1 d)
     1.74319142E-04    2     1000023         1   # BR(~d_R -> chi^0_2 d)
     9.92471647E-01    2     1000021         1   # BR(~d_R -> ~g d)
DECAY   1000001     8.69265554E+02   # ~d_L
#    BR                NDA      ID1      ID2
     1.58511656E-03    2     1000022         1   # BR(~d_L -> chi^0_1 d)
     1.04196279E-04    2     1000025         1   # BR(~d_L -> chi^0_3 d)
     4.70978520E-02    2     1000035         1   # BR(~d_L -> chi^0_4 d)
     9.43141156E-02    2    -1000037         2   # BR(~d_L -> chi^-_2 u)
     8.56895089E-01    2     1000021         1   # BR(~d_L -> ~g d)
DECAY   2000003     7.48659254E+02   # ~s_R
#    BR                NDA      ID1      ID2
     7.26482175E-03    2     1000022         3   # BR(~s_R -> chi^0_1 s)
     1.99516268E-04    2     1000023         3   # BR(~s_R -> chi^0_2 s)
     1.15439587E-04    2     1000025         3   # BR(~s_R -> chi^0_3 s)
     9.92367704E-01    2     1000021         3   # BR(~s_R -> ~g s)
DECAY   1000003     8.69309381E+02   # ~s_L
#    BR                NDA      ID1      ID2
     1.58658771E-03    2     1000022         3   # BR(~s_L -> chi^0_1 s)
     1.26076686E-04    2     1000025         3   # BR(~s_L -> chi^0_3 s)
     4.70955269E-02    2     1000035         3   # BR(~s_L -> chi^0_4 s)
     9.43094711E-02    2    -1000037         4   # BR(~s_L -> chi^-_2 c)
     8.56852758E-01    2     1000021         3   # BR(~s_L -> ~g s)
DECAY   1000005     1.12937428E+02   # ~b_1
#    BR                NDA      ID1      ID2
     1.09640212E-02    2     1000022         5   # BR(~b_1 -> chi^0_1 b)
     1.09465669E-01    2     1000023         5   # BR(~b_1 -> chi^0_2 b)
     1.10213210E-01    2     1000025         5   # BR(~b_1 -> chi^0_3 b)
     9.65781602E-03    2     1000035         5   # BR(~b_1 -> chi^0_4 b)
     4.31533747E-01    2    -1000024         6   # BR(~b_1 -> chi^-_1 t)
     1.86443130E-02    2    -1000037         6   # BR(~b_1 -> chi^-_2 t)
     3.09521223E-01    2     1000021         5   # BR(~b_1 -> ~g b)
DECAY   2000005     2.82177658E+02   # ~b_2
#    BR                NDA      ID1      ID2
     1.28340232E-02    2     1000022         5   # BR(~b_2 -> chi^0_1 b)
     7.26087935E-02    2     1000023         5   # BR(~b_2 -> chi^0_2 b)
     7.29223009E-02    2     1000025         5   # BR(~b_2 -> chi^0_3 b)
     1.49846491E-01    2    -1000024         6   # BR(~b_2 -> chi^-_1 t)
     6.91475472E-01    2     1000021         5   # BR(~b_2 -> ~g b)
     1.30241395E-04    2     1000006       -24   # BR(~b_2 -> ~t_1 W^-)
     1.11258872E-04    2     1000005        25   # BR(~b_2 -> ~b_1 h^0)
DECAY   2000002     7.65764033E+02   # ~u_R
#    BR                NDA      ID1      ID2
     2.84121935E-02    2     1000022         2   # BR(~u_R -> chi^0_1 u)
     6.81573525E-04    2     1000023         2   # BR(~u_R -> chi^0_2 u)
     3.52126784E-04    2     1000025         2   # BR(~u_R -> chi^0_3 u)
     9.70554083E-01    2     1000021         2   # BR(~u_R -> ~g u)
DECAY   1000002     8.69253868E+02   # ~u_L
#    BR                NDA      ID1      ID2
     1.54970049E-03    2     1000022         2   # BR(~u_L -> chi^0_1 u)
     1.71685922E-04    2     1000023         2   # BR(~u_L -> chi^0_2 u)
     4.70656750E-02    2     1000035         2   # BR(~u_L -> chi^0_4 u)
     3.26356387E-04    2     1000024         1   # BR(~u_L -> chi^+_1 d)
     9.40133960E-02    2     1000037         1   # BR(~u_L -> chi^+_2 d)
     8.56871255E-01    2     1000021         2   # BR(~u_L -> ~g u)
DECAY   2000004     7.65771414E+02   # ~c_R
#    BR                NDA      ID1      ID2
     2.84119270E-02    2     1000022         4   # BR(~c_R -> chi^0_1 c)
     6.83918681E-04    2     1000023         4   # BR(~c_R -> chi^0_2 c)
     3.54516050E-04    2     1000025         4   # BR(~c_R -> chi^0_3 c)
     9.70544853E-01    2     1000021         4   # BR(~c_R -> ~g c)
DECAY   1000004     8.69297663E+02   # ~c_L
#    BR                NDA      ID1      ID2
     1.54962752E-03    2     1000022         4   # BR(~c_L -> chi^0_1 c)
     1.73752244E-04    2     1000023         4   # BR(~c_L -> chi^0_2 c)
     4.70633590E-02    2     1000035         4   # BR(~c_L -> chi^0_4 c)
     3.71539416E-04    2     1000024         3   # BR(~c_L -> chi^+_1 s)
     9.40087582E-02    2     1000037         3   # BR(~c_L -> chi^+_2 s)
     8.56828920E-01    2     1000021         4   # BR(~c_L -> ~g c)
DECAY   1000006     1.20961916E+02   # ~t_1
#    BR                NDA      ID1      ID2
     7.40578239E-04    2     1000022         4   # BR(~t_1 -> chi^0_1 c)
     2.94597843E-03    2     1000022         6   # BR(~t_1 -> chi^0_1 t)
     2.00460841E-01    2     1000023         6   # BR(~t_1 -> chi^0_2 t)
     2.03048099E-01    2     1000025         6   # BR(~t_1 -> chi^0_3 t)
     8.80707762E-03    2     1000035         6   # BR(~t_1 -> chi^0_4 t)
     2.12572278E-01    2     1000024         5   # BR(~t_1 -> chi^+_1 b)
     1.82400275E-02    2     1000037         5   # BR(~t_1 -> chi^+_2 b)
     7.93240367E-02    2     1000021         4   # BR(~t_1 -> ~g c)
     2.71665770E-01    2     1000021         6   # BR(~t_1 -> ~g t)
#    BR                NDA      ID1      ID2       ID3
     2.11473970E-03    3     1000022        24         5   # BR(~t_1 -> chi^0_1 W^+ b)
DECAY   2000006     3.04187435E+02   # ~t_2
#    BR                NDA      ID1      ID2
     2.53909127E-02    2     1000022         6   # BR(~t_2 -> chi^0_1 t)
     1.17078051E-01    2     1000023         6   # BR(~t_2 -> chi^0_2 t)
     1.19136943E-01    2     1000025         6   # BR(~t_2 -> chi^0_3 t)
     2.36613049E-01    2     1000024         5   # BR(~t_2 -> chi^+_1 b)
     1.84899818E-04    2     1000037         5   # BR(~t_2 -> chi^+_2 b)
     4.81906888E-01    2     1000021         6   # BR(~t_2 -> ~g t)
     7.56882945E-03    2     1000005        24   # BR(~t_2 -> ~b_1 W^+)
     3.75226379E-03    2     1000006        23   # BR(~t_2 -> ~t_1 Z)
     8.27709495E-03    2     1000006        25   # BR(~t_2 -> ~t_1 h^0)
DECAY   1000024     1.42353407E-01   # chi^+_1
#    BR                NDA      ID1      ID2
     9.99992500E-01    2     1000022        24   # BR(chi^+_1 -> chi^0_1 W^+)
#    BR                NDA      ID1      ID2       ID3
DECAY   1000037     1.86650112E+01   # chi^+_2
#    BR                NDA      ID1      ID2
     2.37219349E-01    2     1000023        24   # BR(chi^+_2 -> chi^0_2 W^+)
     2.37386923E-01    2     1000025        24   # BR(chi^+_2 -> chi^0_3 W^+)
     6.42369504E-04    2          37   1000022   # BR(chi^+_2 -> H^+ chi^0_1)
     2.36780913E-01    2     1000024        23   # BR(chi^+_2 -> chi^+_1 Z)
     2.35199893E-01    2     1000024        25   # BR(chi^+_2 -> chi^+_1 h^0)
#    BR                NDA      ID1      ID2       ID3
     1.37292394E-02    3     1000024         6        -6   # BR(chi^+_2 -> chi^+_1 t t_bar)
     9.04632632E-03    3     1000024         5        -5   # BR(chi^+_2 -> chi^+_1 b b_bar)
     9.51569957E-04    3     1000024        15       -15   # BR(chi^+_2 -> chi^+_1 tau^- tau^+)
     1.41110431E-02    3     1000023        -5         6   # BR(chi^+_2 -> chi^0_2 b_bar t)
     3.93501694E-04    3     1000023       -15        16   # BR(chi^+_2 -> chi^0_2 tau^+ nu_tau)
     1.41011404E-02    3     1000025        -5         6   # BR(chi^+_2 -> chi^0_3 b_bar t)
     3.59638336E-04    3     1000025       -15        16   # BR(chi^+_2 -> chi^0_3 tau^+ nu_tau)
DECAY   1000022     0.00000000E+00   # chi^0_1
DECAY   1000023     1.13435888E-01   # chi^0_2
#    BR                NDA      ID1      ID2
     4.98208762E-01    2     1000022        23   # BR(chi^0_2 -> chi^0_1 Z)
     5.01785359E-01    2     1000022        25   # BR(chi^0_2 -> chi^0_1 h^0)
#    BR                NDA      ID1      ID2       ID3
DECAY   1000025     1.78567531E-01   # chi^0_3
#    BR                NDA      ID1      ID2
     6.33237918E-01    2     1000022        23   # BR(chi^0_3 -> chi^0_1 Z)
     3.66728563E-01    2     1000022        25   # BR(chi^0_3 -> chi^0_1 h^0)
#    BR                NDA      ID1      ID2       ID3
DECAY   1000035     1.96581766E+01   # chi^0_4
#    BR                NDA      ID1      ID2
     2.25710301E-01    2     1000024       -24   # BR(chi^0_4 -> chi^+_1 W^-)
     2.25710301E-01    2    -1000024        24   # BR(chi^0_4 -> chi^-_1 W^+)
     9.10312623E-02    2     1000023        23   # BR(chi^0_4 -> chi^0_2 Z)
     1.34017310E-01    2     1000025        23   # BR(chi^0_4 -> chi^0_3 Z)
     2.48799208E-04    2     1000022        36   # BR(chi^0_4 -> chi^0_1 A^0)
     1.33160801E-01    2     1000023        25   # BR(chi^0_4 -> chi^0_2 h^0)
     1.46120434E-01    2     1000025        25   # BR(chi^0_4 -> chi^0_3 h^0)
     3.84801271E-04    2     1000022        35   # BR(chi^0_4 -> chi^0_1 H^0)
#    BR                NDA      ID1      ID2       ID3
     5.34093181E-03    3     1000023         6        -6   # BR(chi^0_4 -> chi^0_2 t t_bar)
     3.92792857E-03    3     1000023         5        -5   # BR(chi^0_4 -> chi^0_2 b b_bar)
     4.10784985E-04    3     1000023        15       -15   # BR(chi^0_4 -> chi^0_2 tau^- tau^+)
     5.51212822E-03    3     1000025         6        -6   # BR(chi^0_4 -> chi^0_3 t t_bar)
     3.62269100E-03    3     1000025         5        -5   # BR(chi^0_4 -> chi^0_3 b b_bar)
     3.73816881E-04    3     1000025        15       -15   # BR(chi^0_4 -> chi^0_3 tau^- tau^+)
     1.17640944E-02    3     1000024         5        -6   # BR(chi^0_4 -> chi^+_1 b t_bar)
     1.17640944E-02    3    -1000024        -5         6   # BR(chi^0_4 -> chi^-_1 b_bar t)
     4.08737627E-04    3     1000024        15       -16   # BR(chi^0_4 -> chi^+_1 tau^- nu_bar_tau)
     4.08737627E-04    3    -1000024       -15        16   # BR(chi^0_4 -> chi^-_1 tau^+ nu_tau)
DECAY   1000021     6.88245453E-02   # ~g
#    BR                NDA      ID1      ID2
     4.99756352E-03    2     1000023        21   # BR(~g -> chi^0_2 g)
     4.33490162E-03    2     1000025        21   # BR(~g -> chi^0_3 g)
#    BR                NDA      ID1      ID2       ID3
     5.26853523E-03    3     1000022         6        -6   # BR(~g -> chi^0_1 t t_bar)
     9.13170351E-03    3     1000022         5        -5   # BR(~g -> chi^0_1 b b_bar)
     1.57736187E-01    3     1000023         6        -6   # BR(~g -> chi^0_2 t t_bar)
     8.24941818E-02    3     1000023         5        -5   # BR(~g -> chi^0_2 b b_bar)
     1.57416555E-01    3     1000025         6        -6   # BR(~g -> chi^0_3 t t_bar)
     8.28732378E-02    3     1000025         5        -5   # BR(~g -> chi^0_3 b b_bar)
     2.47763603E-01    3     1000024         5        -6   # BR(~g -> chi^+_1 b t_bar)
     2.47763603E-01    3    -1000024        -5         6   # BR(~g -> chi^-_1 b_bar t)
DECAY        25     3.00650970E-03   # Gamma(h0)
     2.60394433E-03   2        22        22   # BR(h0 -> photon photon)
     1.26652093E-03   2        22        23   # BR(h0 -> photon Z)
     2.00118336E-02   2        23        23   # BR(h0 -> Z Z)
     1.80770435E-01   2       -24        24   # BR(h0 -> W W)
     8.44005521E-02   2        21        21   # BR(h0 -> gluon gluon)
     5.28776554E-09   2       -11        11   # BR(h0 -> Electron electron)
     2.35206695E-04   2       -13        13   # BR(h0 -> Muon muon)
     6.78120977E-02   2       -15        15   # BR(h0 -> Tau tau)
     1.49839312E-07   2        -2         2   # BR(h0 -> Up up)
     2.90793540E-02   2        -4         4   # BR(h0 -> Charm charm)
     6.16027124E-07   2        -1         1   # BR(h0 -> Down down)
     2.22801828E-04   2        -3         3   # BR(h0 -> Strange strange)
     5.91912642E-01   2        -5         5   # BR(h0 -> Bottom bottom)
     2.16838408E-02   2   1000022   1000022   # BR(h0 -> neutralino1 neutralino1)
DECAY        35     4.30766097E+01   # Gamma(HH)
     3.22727333E-08   2        22        22   # BR(HH -> photon photon)
     2.06363909E-08   2        22        23   # BR(HH -> photon Z)
     7.13641761E-07   2        23        23   # BR(HH -> Z Z)
     4.34457024E-07   2       -24        24   # BR(HH -> W W)
     2.50290324E-05   2        21        21   # BR(HH -> gluon gluon)
     1.06852458E-08   2       -11        11   # BR(HH -> Electron electron)
     4.75683833E-04   2       -13        13   # BR(HH -> Muon muon)
     1.37372172E-01   2       -15        15   # BR(HH -> Tau tau)
     5.30772614E-14   2        -2         2   # BR(HH -> Up up)
     1.02943767E-08   2        -4         4   # BR(HH -> Charm charm)
     7.38385710E-04   2        -6         6   # BR(HH -> Top top)
     8.40529975E-07   2        -1         1   # BR(HH -> Down down)
     3.04015630E-04   2        -3         3   # BR(HH -> Strange strange)
     8.12083784E-01   2        -5         5   # BR(HH -> Bottom bottom)
     1.10527619E-03   2  -1000024   1000024   # BR(HH -> Chargino1 chargino1)
     3.40412286E-03   2   1000022   1000022   # BR(HH -> neutralino1 neutralino1)
     2.19530804E-02   2   1000022   1000023   # BR(HH -> neutralino1 neutralino2)
     1.95512650E-02   2   1000022   1000025   # BR(HH -> neutralino1 neutralino3)
     4.03252215E-04   2   1000023   1000023   # BR(HH -> neutralino2 neutralino2)
     1.51954794E-03   2   1000023   1000025   # BR(HH -> neutralino2 neutralino3)
     1.05932003E-03   2   1000025   1000025   # BR(HH -> neutralino3 neutralino3)
     3.00266376E-06   2        25        25   # BR(HH -> h0 h0)
DECAY        36     4.11168861E+01   # Gamma(A0)
     2.02949988E-08   2        22        22   # BR(A0 -> photon photon)
     2.03588045E-08   2        22        23   # BR(A0 -> photon Z)
     4.10920838E-05   2        21        21   # BR(A0 -> gluon gluon)
     1.06576982E-08   2       -11        11   # BR(A0 -> Electron electron)
     4.74457738E-04   2       -13        13   # BR(A0 -> Muon muon)
     1.37018659E-01   2       -15        15   # BR(A0 -> Tau tau)
     5.15446938E-14   2        -2         2   # BR(A0 -> Up up)
     9.99592943E-09   2        -4         4   # BR(A0 -> Charm charm)
     7.46635418E-04   2        -6         6   # BR(A0 -> Top top)
     8.38357186E-07   2        -1         1   # BR(A0 -> Down down)
     3.03229360E-04   2        -3         3   # BR(A0 -> Strange strange)
     8.09992661E-01   2        -5         5   # BR(A0 -> Bottom bottom)
     1.22814036E-03   2  -1000024   1000024   # BR(A0 -> Chargino1 chargino1)
     3.52154974E-03   2   1000022   1000022   # BR(A0 -> neutralino1 neutralino1)
     2.12232275E-02   2   1000022   1000023   # BR(A0 -> neutralino1 neutralino2)
     2.22787042E-02   2   1000022   1000025   # BR(A0 -> neutralino1 neutralino3)
     4.13431507E-04   2   1000023   1000023   # BR(A0 -> neutralino2 neutralino2)
     1.45035474E-03   2   1000023   1000025   # BR(A0 -> neutralino2 neutralino3)
     1.30596299E-03   2   1000025   1000025   # BR(A0 -> neutralino3 neutralino3)
     9.94518333E-07   2        23        25   # BR(A0 -> Z h0)
     4.37875199E-39   2        25        25   # BR(A0 -> h0 h0)
DECAY        37     5.13547897E+01   # Gamma(Hp)
     1.16578611E-08   2       -11        12   # BR(Hp -> Electron nu_e)
     4.98409969E-04   2       -13        14   # BR(Hp -> Muon nu_mu)
     1.40978512E-01   2       -15        16   # BR(Hp -> Tau nu_tau)
     7.91654668E-07   2        -1         2   # BR(Hp -> Down up)
     1.32836319E-05   2        -3         2   # BR(Hp -> Strange up)
     8.68823508E-06   2        -5         2   # BR(Hp -> Bottom up)
     3.71952005E-08   2        -1         4   # BR(Hp -> Down charm)
     2.85310044E-04   2        -3         4   # BR(Hp -> Strange charm)
     1.21666303E-03   2        -5         4   # BR(Hp -> Bottom charm)
     4.79975163E-08   2        -1         6   # BR(Hp -> Down top)
     1.46161495E-06   2        -3         6   # BR(Hp -> Strange top)
     8.16448128E-01   2        -5         6   # BR(Hp -> Bottom top)
     3.88081574E-02   2   1000022   1000024   # BR(Hp -> neutralino1 chargino1)
     1.64293413E-03   2   1000023   1000024   # BR(Hp -> neutralino2 chargino1)
     9.67602772E-05   2   1000024   1000025   # BR(Hp -> chargino1 neutralino3)
     8.03384978E-07   2        24        25   # BR(Hp -> W h0)
     4.53301956E-11   2        24        35   # BR(Hp -> W HH)
     3.94320642E-11   2        24        36   # BR(Hp -> W A0)
DECAY         6     2.43000000E+00   # top
#    BR                NDA      ID1      ID2
     1.00000000E+00    2           5        24   # BR(t -> b W)
Block HiggsBoundsInputHiggsCouplingsFermions
# ScalarNormEffCoupSq PseudoSNormEffCoupSq NP IP1 IP2 IP2
    9.73961557E-01    0.00000000E+00        3  25   5   5  # h0-b-b eff. coupling^2, normalised to SM
    1.91156846E+03    0.00000000E+00        3  35   5   5  # H0-b-b eff. coupling^2, normalised to SM
    0.00000000E+00    1.91154242E+03        3  36   5   5  # A0-b-b eff. coupling^2, normalised to SM
#
    1.00001362E+00    0.00000000E+00        3  25   6   6  # h0-t-t eff. coupling^2, normalised to SM
    5.09516057E-04    0.00000000E+00        3  35   6   6  # H0-t-t eff. coupling^2, normalised to SM
    0.00000000E+00    5.23137750E-04        3  36   6   6  # A0-t-t eff. coupling^2, normalised to SM
#
    9.73961557E-01    0.00000000E+00        3  25  15  15  # h0-tau-tau eff. coupling^2, normalised to SM
    1.91156846E+03    0.00000000E+00        3  35  15  15  # H0-tau-tau eff. coupling^2, normalised to SM
    0.00000000E+00    1.91154242E+03        3  36  15  15  # A0-tau-tau eff. coupling^2, normalised to SM
#
Block HiggsBoundsInputHiggsCouplingsBosons
    9.99999910E-01        3  25  24  24  # h0-W-W eff. coupling^2, normalised to SM
    8.98448762E-08        3  35  24  24  # H0-W-W eff. coupling^2, normalised to SM
    0.00000000E+00        3  36  24  24  # A0-W-W eff. coupling^2, normalised to SM
#
    9.99999910E-01        3  25  23  23  # h0-Z-Z eff. coupling^2, normalised to SM
    8.98448762E-08        3  35  23  23  # H0-Z-Z eff. coupling^2, normalised to SM
    0.00000000E+00        3  36  23  23  # A0-Z-Z eff. coupling^2, normalised to SM
#
    1.26487215E+00        3  25  21  21  # h0-g-g eff. coupling^2, normalised to SM
    1.40976921E-02        3  35  21  21  # H0-g-g eff. coupling^2, normalised to SM
    1.44485662E-01        3  36  21  21  # A0-g-g eff. coupling^2, normalised to SM
#
    0.00000000E+00        3  25  25  23  # h0-h0-Z eff. coupling^2, normalised to SM
    0.00000000E+00        3  35  25  23  # H0-h0-Z eff. coupling^2, normalised to SM
    8.98448762E-08        3  36  25  23  # A0-h0-Z eff. coupling^2, normalised to SM
    0.00000000E+00        3  35  35  23  # H0-H0-Z eff. coupling^2, normalised to SM
    9.99999910E-01        3  36  35  23  # A0-H0-Z eff. coupling^2, normalised to SM
    0.00000000E+00        3  36  36  23  # A0-A0-Z eff. coupling^2, normalised to SM
#
    0.00000000E+00        4  25  21  21  23  # h0-g-g-Z eff. coupling^2, normalised to SM
    0.00000000E+00        4  35  21  21  23  # H0-g-g-Z eff. coupling^2, normalised to SM
    0.00000000E+00        4  36  21  21  23  # A0-g-g-Z eff. coupling^2, normalised to SM
Block SPhenoLowEnergy  # low energy observables
    1    3.30113284E-04   # BR(b -> s gamma)
    2    1.58861371E-06   # BR(b -> s mu+ mu-)
    3    3.52377792E-05   # BR(b -> s nu nu)
    4    3.17690703E-15   # BR(Bd -> e+ e-)
    5    1.35710792E-10   # BR(Bd -> mu+ mu-)
    6    2.82322595E-08   # BR(Bd -> tau+ tau-)
    7    1.08289221E-13   # BR(Bs -> e+ e-)
    8    4.62600298E-09   # BR(Bs -> mu+ mu-)
    9    9.74826434E-07   # BR(Bs -> tau+ tau-)
   10    9.35888438E-05   # BR(B_u -> tau nu)
   11    9.66736926E-01   # BR(B_u -> tau nu)/BR(B_u -> tau nu)_SM
   12    5.42172818E-01   # |Delta(M_Bd)| [ps^-1] 
   13    1.93566374E+01   # |Delta(M_Bs)| [ps^-1] 
   14    0.00000000E+00   # neutron EDM according to the chiral quark model
   15    0.00000000E+00   # neutron EDM according to the relativistic quark-parton model
   16    2.15826981E-03   # epsilon_K
   17    2.28167177E-15   # Delta(M_K)
   18    2.47904005E-11   # BR(K^0 -> pi^0 nu nu)
   19    8.28820901E-11   # BR(K^+ -> pi^+ nu nu)
   20   -5.02945943E-16   # Delta(g-2)_electron/2
   21   -2.15026463E-11   # Delta(g-2)_muon/2
   22   -6.09269329E-09   # Delta(g-2)_tau/2
   23    0.00000000E+00   # electric dipole moment of the electron
   24    0.00000000E+00   # electric dipole moment of the muon
   25    0.00000000E+00   # electric dipole moment of the tau
   26    0.00000000E+00   # Br(mu -> e gamma)
   27    0.00000000E+00   # Br(tau -> e gamma)
   28    0.00000000E+00   # Br(tau -> mu gamma)
   29    0.00000000E+00   # Br(mu -> 3 e)
   30    0.00000000E+00   # Br(tau -> 3 e)
   31    0.00000000E+00   # Br(tau -> 3 mu)
   39    9.07728826E-05   # Delta(rho_parameter)
   40    0.00000000E+00   # BR(Z -> e mu)
   41    0.00000000E+00   # BR(Z -> e tau)
   42    0.00000000E+00   # BR(Z -> mu tau)
Block FWCOEF Q=  1.60000000E+02  # Wilson coefficients at scale Q
#    id        order  M        value         comment
     0305 4422   00   0    -1.88819110E-01   # C7
     0305 4422   00   2    -1.98345244E-01   # C7
     0305 4322   00   2    -2.98873002E-04   # C7'
     0305 6421   00   0    -9.52278348E-02   # C8
     0305 6421   00   2    -1.09496397E-01   # C8
     0305 6321   00   2    -3.37092672E-04   # C8'
 03051111 4133   00   0     1.61669301E+00   # C9 e+e-
 03051111 4133   00   2     1.61742544E+00   # C9 e+e-
 03051111 4233   00   2     4.89391243E-04   # C9' e+e-
 03051111 4137   00   0    -4.43938512E+00   # C10 e+e-
 03051111 4137   00   2    -4.43639742E+00   # C10 e+e-
 03051111 4237   00   2    -3.67102132E-03   # C10' e+e-
 03051313 4133   00   0     1.61669301E+00   # C9 mu+mu-
 03051313 4133   00   2     1.61742531E+00   # C9 mu+mu-
 03051313 4233   00   2     4.89388343E-04   # C9' mu+mu-
 03051313 4137   00   0    -4.43938512E+00   # C10 mu+mu-
 03051313 4137   00   2    -4.43639755E+00   # C10 mu+mu-
 03051313 4237   00   2    -3.67101938E-03   # C10' mu+mu-
 03051212 4137   00   0     1.50535012E+00   # C11 nu_1 nu_1
 03051212 4137   00   2     1.50470372E+00   # C11 nu_1 nu_1
 03051212 4237   00   2     7.95599667E-04   # C11' nu_1 nu_1
 03051414 4137   00   0     1.50535012E+00   # C11 nu_2 nu_2
 03051414 4137   00   2     1.50470372E+00   # C11 nu_2 nu_2
 03051414 4237   00   2     7.95600243E-04   # C11' nu_2 nu_2
 03051616 4137   00   0     1.50535012E+00   # C11 nu_3 nu_3
 03051616 4137   00   2     1.50470373E+00   # C11 nu_3 nu_3
 03051616 4237   00   2     7.95762614E-04   # C11' nu_3 nu_3
Block IMFWCOEF Q=  1.60000000E+02  # Im(Wilson coefficients) at scale Q
#    id        order  M        value         comment
     0305 4422   00   0     3.85823735E-07   # C7
     0305 4422   00   2    -2.43738223E-05   # C7
     0305 4322   00   2    -2.00569352E-07   # C7'
     0305 6421   00   0     3.30483545E-07   # C8
     0305 6421   00   2     1.58849899E-05   # C8
     0305 6321   00   2     3.70912540E-07   # C8'
 03051111 4133   00   2     5.18384177E-07   # C9 e+e-
 03051111 4233   00   2     1.06674249E-05   # C9' e+e-
 03051111 4137   00   2    -5.46320957E-08   # C10 e+e-
 03051111 4237   00   2    -8.00407257E-05   # C10' e+e-
 03051313 4133   00   2     5.18381431E-07   # C9 mu+mu-
 03051313 4233   00   2     1.06674207E-05   # C9' mu+mu-
 03051313 4137   00   2    -5.46290637E-08   # C10 mu+mu-
 03051313 4237   00   2    -8.00407385E-05   # C10' mu+mu-
 03051212 4137   00   2     3.16041677E-08   # C11 nu_1 nu_1
 03051212 4237   00   2     1.73467762E-05   # C11' nu_1 nu_1
 03051414 4137   00   2     3.16042565E-08   # C11 nu_2 nu_2
 03051414 4237   00   2     1.73467762E-05   # C11' nu_2 nu_2
 03051616 4137   00   2     3.16289865E-08   # C11 nu_3 nu_3
 03051616 4237   00   2     1.73467762E-05   # C11' nu_3 nu_3
