BLOCK SPINFO
   1   SPheno
   2   v4.0.5be

BLOCK SPHENOINFO
   1   2
   2   2

BLOCK MODSEL
   1   0

BLOCK MINPAR
   3    36.822739
   4    1

BLOCK EXTPAR
   0    1453.9415
   1   -1241.3717
   2   -502.55917
   3    3000
   11   -1969.9255
   12   -1061.0138
   13   -100.53192
   23    441.01268
   25    35.876045
   26    3936.0321
   31    1959.3182
   32    1959.3182
   33    1893.6158
   34    1301.7979
   35    1301.7979
   36    1397.7301
   41    5000
   42    5000
   43    1194.6426
   44    5000
   45    5000
   46    1817.6853
   47    5000
   48    5000
   49    1382.0265

BLOCK SMINPUTS
   1    127.90897
   2    1.1663787e-05
   3    0.1184
   4    91.1876
   5    4.18
   6    173.2
   7    1.777
   8    0
   11    0.00051099893
   12    0
   13    0.10565837
   14    0
   21    0.005
   22    0.0025
   23    0.095
   24    1.27

BLOCK GAUGE Q=  1453.9415
   1    0.35536298
   2    0.66519887
   3    1.219778

BLOCK YU Q=  1453.9415
   1   1    8.3876286e-06
   2   2    0.0042609153
   3   3    1.0132929

BLOCK YD Q=  1453.9415
   1   1    0.00060467777
   2   2    0.011488878
   3   3    0.59965087

BLOCK YE Q=  1453.9415
   1   1    0.00010552069
   2   2    0.021818333
   3   3    0.36694846

BLOCK AU Q=  1453.9415
   1   1    0
   2   2    0
   3   3   -1969.9278

BLOCK AD Q=  1453.9415
   1   1    0
   2   2    0
   3   3   -1061.0141

BLOCK AE Q=  1453.9415
   1   1    0
   2   2    0
   3   3   -100.53188

BLOCK MSOFT Q=  1453.9415
   1   -1241.3717
   2   -502.55917
   3    3000
   21    15252721
   22   -156122.2
   31    1959.3182
   32    1959.3182
   33    1893.6158
   34    1301.7979
   35    1301.7979
   36    1397.7301
   41    5000
   42    5000
   43    1194.6426
   44    5000
   45    5000
   46    1817.6853
   47    5000
   48    5000
   49    1382.0265

BLOCK MASS
   6    173.2
   23    91.1876
   24    80.429995
   15    1.777
   25    120.80745
   35    3934.2655
   36    3936.0321
   37    3935.4494
   1000001    5025.8031
   2000001    5014.9821
   1000002    5025.3406
   2000002    5017.786
   1000003    5025.8078
   2000003    5014.9892
   1000004    5025.3449
   2000004    5017.7869
   1000005    1175.2796
   2000005    1394.184
   1000006    1164.5412
   2000006    1815.2606
   1000011    1965.806
   2000011    1301.8675
   1000012    1963.7885
   1000013    1965.8115
   2000013    1301.8886
   1000014    1963.7939
   1000015    1402.8773
   2000015    1901.7778
   1000016    1899.6391
   1000021    3183.9211
   1000022   -421.39433
   1000023    452.18595
   1000025   -563.59813
   1000035   -1245.1078
   1000024    425.21285
   1000037    564.82952

BLOCK ALPHA
      -0.027178469

BLOCK HMIX Q=  1453.9415
   1    441.01268
   2    35.876045
   3    244.06394
   4    15492348

BLOCK STOPMIX
   1   1    0.98921011
   1   2    0.1465038
   2   1   -0.1465038
   2   2    0.98921011

BLOCK SBOTMIX
   1   1    0.99777245
   1   2    0.066709406
   2   1   -0.066709406
   2   2    0.99777245

BLOCK STAUMIX
   1   1    0.017050009
   1   2    0.99985464
   2   1   -0.99985464
   2   2    0.017050009

BLOCK NMIX
   1   1   -0.032039588
   1   2    0.42686868
   1   3   -0.65972077
   1   4   -0.61767719
   2   1    0.018863316
   2   2   -0.059834784
   2   3   -0.70294926
   2   4    0.70846758
   3   1   -0.021490032
   3   2   -0.90232027
   3   3   -0.26541676
   3   4   -0.33898415
   4   1    0.99907748
   4   2   -0.0045897463
   4   3   -0.013593582
   4   4   -0.04047629

BLOCK UMIX
   1   1   -0.38597272
   1   2    0.92251019
   2   1   -0.92251019
   2   2   -0.38597272

BLOCK VMIX
   1   1    0.49310144
   1   2    0.86997182
   2   1    0.86997182
   2   2   -0.49310144

BLOCK HIGGSBOUNDSINPUTHIGGSCOUPLINGSFERMIONS
       0, 1287.0906,3,36,15,15

BLOCK HIGGSBOUNDSINPUTHIGGSCOUPLINGSBOSONS
       0,4,36,21,21,23

BLOCK SPHENOLOWENERGY
   1    0.00028856779
   2    1.5934051e-06
   3    3.5191049e-05
   4    2.4774235e-15
   5    1.0583245e-10
   6    2.2139532e-08
   7    8.3203535e-14
   8    3.5544438e-09
   9    7.5343008e-07
   10    9.6392895e-05
   11    0.9957017
   12    0.54255479
   13    19.383505
   14    0
   15    0
   16    0.0021594425
   17    2.2816803e-15
   18    2.4767087e-11
   19    8.282206e-11
   20   -6.1461018e-15
   21   -2.6277136e-10
   22   -7.9295972e-08
   23    0
   24    0
   25    0
   26    0
   27    0
   28    0
   29    0
   30    0
   31    0
   39    8.0677165e-05
   40    0
   41    0
   42    0

BLOCK FWCOEF Q=  160
   305   4422   0   0   -0.18881911
   305   4422   0   2   -0.14813644
   305   4322   0   2    0.00012552865
   305   6421   0   0   -0.095227835
   305   6421   0   2   -0.08107731
   305   6321   0   2   -4.0396013e-05
   3051111   4133   0   0    1.5910806
   3051111   4133   0   2    1.5920377
   3051111   4233   0   2    0.00020570677
   3051111   4137   0   0   -4.4137727
   3051111   4137   0   2   -4.4060887
   3051111   4237   0   2   -0.0016014286
   3051313   4133   0   0    1.5910806
   3051313   4133   0   2    1.5920363
   3051313   4233   0   2    0.0002057059
   3051313   4137   0   0   -4.4137727
   3051313   4137   0   2   -4.4060901
   3051313   4237   0   2   -0.0016014305
   3051212   4137   0   0    1.5053501
   3051212   4137   0   2    1.503688
   3051212   4237   0   2    0.00034908266
   3051414   4137   0   0    1.5053501
   3051414   4137   0   2    1.503688
   3051414   4237   0   2    0.00034908268
   3051616   4137   0   0    1.5053501
   3051616   4137   0   2    1.503688
   3051616   4237   0   2    0.00034908741

BLOCK IMFWCOEF Q=  160
   305   4422   0   0    3.8585403e-07
   305   4422   0   2   -2.3431126e-05
   305   4322   0   2    3.6280039e-06
   305   6421   0   0    3.3050949e-07
   305   6421   0   2   -1.4767346e-05
   305   6321   0   2    1.1373604e-06
   3051111   4133   0   2   -7.7802991e-07
   3051111   4233   0   2    4.0435743e-06
   3051111   4137   0   2    1.06502e-05
   3051111   4237   0   2   -3.1485781e-05
   3051313   4133   0   2   -7.7805454e-07
   3051313   4233   0   2    4.0435605e-06
   3051313   4137   0   2    1.0650242e-05
   3051313   4237   0   2   -3.1485817e-05
   3051212   4137   0   2   -2.0825917e-06
   3051212   4237   0   2    6.863335e-06
   3051414   4137   0   2   -2.0825908e-06
   3051414   4237   0   2    6.863335e-06
   3051616   4137   0   2   -2.0813979e-06
   3051616   4237   0   2    6.8633352e-06

DECAY 23  2.4952


DECAY 24  2.085


DECAY 2000011  0.056680875
    0.83809979   2    1000035    11
    0.094947675   2    1000022    11
    0.035192394   2    1000025    11
    0.031756181   2    1000023    11

DECAY 1000011  23.034651
    0.53813693   2   -1000037    12
    0.26421884   2    1000025    11
    0.10169151   2   -1000024    12
    0.057404595   2    1000022    11
    0.037713931   2    1000035    11
    0.00083419276   2    1000023    11

DECAY 2000013  0.075883422
    0.62646179   2    1000035    13
    0.12758876   2    1000022    13
    0.1103471   2   -1000024    14
    0.085808695   2    1000023    13
    0.033842936   2    1000025    13
    0.015950716   2   -1000037    14

DECAY 1000013  23.051734
    0.53774017   2   -1000037    14
    0.26407219   2    1000025    13
    0.10161649   2   -1000024    14
    0.057681973   2    1000022    13
    0.037686412   2    1000035    13
    0.0011915626   2    1000023    13

DECAY 1000015  6.4080274
    0.42219179   2   -1000024    16
    0.23201339   2    1000023    15
    0.21841842   2    1000022    15
    0.052593639   2   -1000037    16
    0.04947758   2    1000035    15
    0.025305191   2    1000025    15

DECAY 2000015  26.616082
    0.44840129   2   -1000037    16
    0.23137465   2    1000025    15
    0.12079169   2    1000022    15
    0.08525633   2    1000023    15
    0.080786651   2   -1000024    16
    0.028796102   2    1000035    15
    0.0022973418   2    1000015    23
    0.0022959531   2    1000015    25

DECAY 1000012  23.087487
    0.47682513   2    1000037    11
    0.25018379   2    1000025    12
    0.16539235   2    1000024    11
    0.06716033   2    1000022    12
    0.038797414   2    1000035    12
    0.0016409871   2    1000023    12

DECAY 1000014  23.104286
    0.47658064   2    1000037    13
    0.25000281   2    1000025    14
    0.16589544   2    1000024    13
    0.067111718   2    1000022    14
    0.038769599   2    1000035    14
    0.0016397995   2    1000023    14

DECAY 1000016  26.679854
    0.41770783   2    1000037    15
    0.28409939   2    1000024    15
    0.20685105   2    1000025    16
    0.055846799   2    1000022    16
    0.029547163   2    1000035    16
    0.0045846644   2    1000015    24
    0.0013631021   2    1000023    16

DECAY 2000001  143.5147
    0.98281783   2    1000021    1
    0.01714631   2    1000035    1

DECAY 1000001  207.60805
    0.68482654   2    1000021    1
    0.17680564   2   -1000037    2
    0.083869119   2    1000025    1
    0.031294485   2   -1000024    2
    0.019658899   2    1000022    1
    0.0031265708   2    1000035    1
    0.00041873849   2    1000023    1

DECAY 2000003  143.54129
    0.98264092   2    1000021    3
    0.01714318   2    1000035    3

DECAY 1000003  207.62334
    0.68477846   2    1000021    3
    0.17679492   2   -1000037    4
    0.083867391   2    1000025    3
    0.031298685   2   -1000024    4
    0.019684661   2    1000022    3
    0.0031263548   2    1000035    3
    0.0004495275   2    1000023    3

DECAY 1000005  31.830614
    0.41575087   2   -1000024    6
    0.28903815   2   -1000037    6
    0.11611782   2    1000022    5
    0.094220827   2    1000023    5
    0.084872326   2    1000025    5

DECAY 2000005  16.338233
    0.39639512   2   -1000024    6
    0.24411857   2    1000023    5
    0.20428116   2    1000022    5
    0.087599911   2   -1000037    6
    0.04161251   2    1000025    5
    0.011139985   2    1000006   -24
    0.0083362687   2    1000005    25
    0.0045427933   2    1000005    23
    0.0019736889   2    1000035    5

DECAY 2000002  151.21094
    0.9347253   2    1000021    2
    0.065140385   2    1000035    2

DECAY 1000002  207.60298
    0.68461123   2    1000021    2
    0.15722905   2    1000037    1
    0.085297863   2    1000025    2
    0.051073764   2    1000024    1
    0.01863404   2    1000022    2
    0.0028196964   2    1000035    2
    0.00033434706   2    1000023    2

DECAY 2000004  151.21453
    0.93470329   2    1000021    4
    0.065138848   2    1000035    4

DECAY 1000004  207.61816
    0.68456305   2    1000021    4
    0.15722688   2    1000037    3
    0.085292634   2    1000025    4
    0.051123273   2    1000024    3
    0.018636004   2    1000022    4
    0.0028195073   2    1000035    4
    0.00033864404   2    1000023    4

DECAY 1000006  30.547244
    0.25354866   2    1000023    6
    0.22048412   2    1000022    6
    0.20753601   2    1000037    5
    0.19269377   2    1000024    5
    0.11336205   2    1000025    6
    0.0098623538   2    1000022    4
    0.0023436973   3    1000022    24    5
    0.00016933609   2    1000023    4

DECAY 2000006  102.89672
    0.26751115   2    1000024    5
    0.16151653   2    1000005    24
    0.16039008   2    1000023    6
    0.1344581   2    1000022    6
    0.1132403   2    1000006    25
    0.082036418   2    1000006    23
    0.048346804   2    1000037    5
    0.02306835   2    1000025    6
    0.0091860205   2    1000035    6
    0.00024624763   2    2000005    24

DECAY 1000024  3.7818297e-09
    0.42206695   3    1000022   -1    2
    0.24782347   3    1000022   -3    4
    0.14075688   3    1000022   -11    12
    0.14022147   3    1000022   -13    14
    0.049131224   3    1000022   -15    16

DECAY 1000037  1.6814378
    0.58621734   2    1000022    24
    0.20636146   2    1000024    23
    0.12066211   2    1000023    24
    0.086758525   2    1000024    25

DECAY 1000022 -1


DECAY 1000023  0.00011427459
    0.14059191   3    1000022    12   -12
    0.10511806   3    1000022    1   -1
    0.10510705   3    1000022    3   -3
    0.086525914   3    1000022    5   -5
    0.081985211   3    1000022    2   -2
    0.080215725   3    1000022    4   -4
    0.050709724   2    1000022    22
    0.046869498   3    1000024    1   -2
    0.046869498   3   -1000024   -1    2
    0.046374892   3    1000024    3   -4
    0.046374892   3   -1000024   -3    4
    0.023720473   3    1000022    11   -11
    0.023716829   3    1000022    13   -13
    0.022711312   3    1000022    15   -15
    0.015623741   3    1000024    11   -12
    0.015623741   3   -1000024   -11    12
    0.015623698   3    1000024    13   -14
    0.015623698   3   -1000024   -13    14
    0.015307066   3    1000024    15   -16
    0.015307066   3   -1000024   -15    16

DECAY 1000025  3.0501189
    0.36825662   2    1000024   -24
    0.36825662   2   -1000024    24
    0.21840372   2    1000023    23
    0.042264235   2    1000022    25
    0.0027777424   2    1000022    23

DECAY 1000035  3.6473994
    0.17961218   2    1000023    25
    0.17478625   2    1000023    23
    0.14054275   2    1000024   -24
    0.14054275   2   -1000024    24
    0.10874671   2    1000022    25
    0.071438579   2    1000037   -24
    0.071438579   2   -1000037    24
    0.056562257   2    1000025    25
    0.032569484   2    1000022    23
    0.0094645126   2    1000025    23
    0.0031372292   3    1000024    5   -6
    0.0031372292   3   -1000024   -5    6
    0.0016924944   3    1000023    6   -6
    0.0013077884   3    1000037    5   -6
    0.0013077884   3   -1000037   -5    6
    0.0012105822   3    1000022    6   -6
    0.00088041507   2    1000005   -5
    0.00088041507   2   -1000005    5
    0.00031773173   3    1000025    6   -6

DECAY 1000021  275.76926
    0.12742995   2    1000005   -5
    0.12742995   2   -1000005    5
    0.12342984   2    1000006   -6
    0.12342984   2   -1000006    6
    0.11167766   2    2000005   -5
    0.11167766   2   -2000005    5
    0.08111444   2    2000006   -6
    0.08111444   2   -2000006    6
    0.056251073   2    1000006   -4
    0.056251073   2   -1000006    4

DECAY 25  0.003402621
    0.63438752   2   -5    5
    0.16432968   2   -24    24
    0.075208307   2    21    21
    0.072446602   2   -15    15
    0.031394348   2   -4    4
    0.018281222   2    23    23
    0.0023158752   2    22    22
    0.0011462948   2    22    23
    0.00025127663   2   -13    13
    0.00023805081   2   -3    3
    6.5818667e-07   2   -1    1
    1.6179624e-07   2   -2    2
    5.6490356e-09   2   -11    11

DECAY 35  104.87602
    0.40049956   2   -5    5
    0.096765387   2   -15    15
    0.086753803   2   -1000024    1000037
    0.086753803   2   -1000037    1000024
    0.074154317   2   -1000024    1000024
    0.054920832   2    1000023    1000025
    0.041309177   2   -1000037    1000037
    0.031742659   2    1000022    1000022
    0.022258394   2    1000022    1000025
    0.020790085   2    1000025    1000025
    0.017762449   2    1000023    1000035
    0.013457423   2    1000022    1000035
    0.013421351   2    1000022    1000023
    0.010377575   2   -2000005    1000005
    0.010377575   2   -1000005    2000005
    0.0057209384   2   -2000006    1000006
    0.0057209384   2   -1000006    2000006
    0.0036957325   2    1000025    1000035
    0.00093340781   2   -6    6
    0.00072741111   2   -1000006    1000006
    0.00067959139   2    1000023    1000023
    0.00033531123   2   -13    13
    0.00026566534   2   -2000006    2000006
    0.00019177965   2   -3    3
    0.00018184663   2   -1000005    1000005
    0.00016443622   2   -2000005    2000005
    1.3974613e-05   2   -2000015    1000015
    1.3974613e-05   2   -1000015    2000015
    8.3089669e-06   2    1000035    1000035
    1.3742529e-06   2    21    21
    5.3020392e-07   2   -1    1
    8.7112497e-08   2    22    23
    7.1852116e-08   2    23    23
    2.3924698e-08   2    22    22
    2.3302502e-08   2   -1000011    1000011
    2.3095349e-08   2   -1000013    1000013
    1.6477391e-08   2   -1000015    1000015
    1.5472798e-08   2   -24    24
    1.5265573e-08   2   -4    4
    1.3829097e-08   2    25    25
    7.5302663e-09   2   -11    11
    7.3314564e-09   2   -2000015    2000015
    4.1158907e-09   2   -2000011    2000011
    4.0912373e-09   2   -2000013    2000013
    9.1857682e-10   2   -2000013    1000013
    9.1857682e-10   2   -1000013    2000013
    7.8693986e-14   2   -2    2
    2.1485661e-14   2   -2000011    1000011
    2.1485661e-14   2   -1000011    2000011

DECAY 36  101.26344
    0.38597389   2   -5    5
    0.093268055   2   -15    15
    0.092667388   2   -1000024    1000037
    0.092667388   2   -1000037    1000024
    0.074042634   2   -1000024    1000024
    0.059063429   2    1000023    1000025
    0.040056189   2   -1000037    1000037
    0.031093344   2    1000022    1000022
    0.022421525   2    1000022    1000025
    0.020360767   2    1000025    1000025
    0.017461622   2    1000023    1000035
    0.015256129   2    1000022    1000023
    0.014691213   2    1000022    1000035
    0.010927682   2   -2000005    1000005
    0.010927682   2   -1000005    2000005
    0.0064564501   2   -2000006    1000006
    0.0064564501   2   -1000006    2000006
    0.004027559   2    1000025    1000035
    0.0008282302   2    1000023    1000023
    0.00079729619   2   -6    6
    0.00032319203   2   -13    13
    0.00018483936   2   -3    3
    1.4499972e-05   2   -2000015    1000015
    1.4499972e-05   2   -1000015    2000015
    1.0314531e-05   2    1000035    1000035
    7.0010946e-06   2    21    21
    5.1101457e-07   2   -1    1
    1.543496e-07   2    23    25
    3.9101149e-08   2    22    23
    1.3002365e-08   2   -4    4
    7.2580725e-09   2   -11    11
    2.656266e-09   2    22    22
    9.5151027e-10   2   -2000013    1000013
    9.5151027e-10   2   -1000013    2000013
    1.8667207e-13   2    23    35
    6.7028583e-14   2   -2    2
    2.2255922e-14   2   -2000011    1000011
    2.2255922e-14   2   -1000011    2000011
    2.9020303e-38   2    25    25

DECAY 37  110.48703
    0.4302   2   -5    6
    0.14306089   2    1000022    1000037
    0.132966   2    1000024    1000025
    0.10144004   2    1000023    1000037
    0.096585187   2   -15    16
    0.03411519   2    1000023    1000024
    0.024757823   2    1000024    1000035
    0.02010681   2   -2000005    1000006
    0.0075325936   2   -1000005    2000006
    0.0073864904   2    1000035    1000037
    0.00063674398   2   -5    4
    0.00061903377   2   -2000005    2000006
    0.00034146302   2   -13    14
    0.00016828722   2   -3    4
    2.8628424e-05   2    1000022    1000024
    2.6639788e-05   2   -1000015    1000016
    8.363033e-06   2   -1000005    1000006
    7.9054754e-06   2   -3    2
    4.9401778e-06   2    1000025    1000037
    4.5470084e-06   2   -5    2
    1.6863893e-06   2   -3    6
    4.6685974e-07   2   -1    2
    1.4145224e-07   2    24    25
    6.5851516e-08   2   -1    6
    2.2468822e-08   2   -1    4
    1.6772042e-08   2   -2000011    1000012
    1.6736128e-08   2   -2000013    1000014
    7.9868556e-09   2   -11    12
    6.8430761e-09   2   -2000015    1000016
    1.7249574e-09   2   -1000013    1000014
    4.0346372e-14   2   -1000011    1000012
    2.8661271e-14   2    24    35

DECAY 6  2.43
    1   2    5    24

DECAY 15 -1
