BLOCK SPINFO
   1   SPheno
   2   v4.0.5be

BLOCK SPHENOINFO
   1   2
   2   2

BLOCK MODSEL
   1   0

BLOCK MINPAR
   3    50.908967
   4    1

BLOCK EXTPAR
   0    1521.7675
   1   -89.380272
   2   -942.14009
   3    3000
   11   -2102.4303
   12    1042.4325
   13   -285.28277
   23    847.16139
   25    50.164994
   26    819.72409
   31    1720.3581
   32    1720.3581
   33    1638.9595
   34    1593.3967
   35    1593.3967
   36    1309.5997
   41    5000
   42    5000
   43    1711.6047
   44    5000
   45    5000
   46    1377.5752
   47    5000
   48    5000
   49    1888.0106

BLOCK SMINPUTS
   1    127.90897
   2    1.1663787e-05
   3    0.1184
   4    91.1876
   5    4.18
   6    173.2
   7    1.777
   8    0
   11    0.00051099893
   12    0
   13    0.10565837
   14    0
   21    0.005
   22    0.0025
   23    0.095
   24    1.27

BLOCK GAUGE Q=  1521.7675
   1    0.35536298
   2    0.66519887
   3    1.219778

BLOCK YU Q=  1521.7675
   1   1    8.3860378e-06
   2   2    0.0042601072
   3   3    1.0131007

BLOCK YD Q=  1521.7675
   1   1    0.00084535248
   2   2    0.016061697
   3   3    0.83832477

BLOCK YE Q=  1521.7675
   1   1    0.00014752019
   2   2    0.030502497
   3   3    0.51300181

BLOCK AU Q=  1521.7675
   1   1    0
   2   2    0
   3   3   -2102.4329

BLOCK AD Q=  1521.7675
   1   1    0
   2   2    0
   3   3    1042.4301

BLOCK AE Q=  1521.7675
   1   1    0
   2   2    0
   3   3   -285.28264

BLOCK MSOFT Q=  1521.7675
   1   -89.380272
   2   -942.14009
   3    3000
   21   -15711.303
   22   -698257.24
   31    1720.3581
   32    1720.3581
   33    1638.9595
   34    1593.3967
   35    1593.3967
   36    1309.5997
   41    5000
   42    5000
   43    1711.6047
   44    5000
   45    5000
   46    1377.5752
   47    5000
   48    5000
   49    1888.0106

BLOCK MASS
   6    173.2
   23    91.1876
   24    80.429995
   15    1.777
   25    120.57676
   35    819.59823
   36    819.72409
   37    825.44074
   1000001    5028.2855
   2000001    5018.5393
   1000002    5027.8306
   2000002    5019.8716
   1000003    5028.2934
   2000003    5018.545
   1000004    5027.8355
   2000004    5019.8724
   1000005    1708.359
   2000005    1908.6333
   1000006    1332.0903
   2000006    1738.4529
   1000011    1726.191
   2000011    1595.6976
   1000012    1723.9761
   1000013    1726.1889
   2000013    1595.656
   1000014    1723.9613
   1000015    1302.1681
   2000015    1642.285
   1000016    1638.2602
   1000021    3188.6818
   1000022   -89.350338
   1000023   -835.04085
   1000025    855.78486
   1000035   -1004.6269
   1000024    835.64099
   1000037    1004.8348

BLOCK ALPHA
      -0.019913146

BLOCK HMIX Q=  1521.7675
   1    847.16139
   2    50.164994
   3    244.01449
   4    671947.59

BLOCK STOPMIX
   1   1    0.25014429
   1   2    0.96820857
   2   1   -0.96820857
   2   2    0.25014429

BLOCK SBOTMIX
   1   1    0.9927127
   1   2    0.12050519
   2   1   -0.12050519
   2   2    0.9927127

BLOCK STAUMIX
   1   1    0.074313252
   1   2    0.99723495
   2   1   -0.99723495
   2   2    0.074313252

BLOCK NMIX
   1   1   -0.99858805
   1   2    0.00021155723
   1   3   -0.052934377
   1   4   -0.0044510968
   2   1    0.038497643
   2   2    0.34888133
   2   3   -0.66983057
   2   4   -0.65431396
   3   1    0.034227868
   3   2   -0.031233666
   3   3   -0.70530359
   3   4    0.70738939
   4   1   -0.012972655
   4   2    0.93664627
   4   3    0.22599072
   4   4    0.2673082

BLOCK UMIX
   1   1   -0.31298714
   1   2    0.94975737
   2   1   -0.94975737
   2   2   -0.31298714

BLOCK VMIX
   1   1    0.37160628
   1   2    0.92839042
   2   1    0.92839042
   2   2   -0.37160628

BLOCK HIGGSBOUNDSINPUTHIGGSCOUPLINGSFERMIONS
       0, 2516.5267,3,36,15,15

BLOCK HIGGSBOUNDSINPUTHIGGSCOUPLINGSBOSONS
       0,4,36,21,21,23

BLOCK SPHENOLOWENERGY
   1    0.00031797568
   2    1.5885813e-06
   3    3.5207991e-05
   4    6.1792897e-15
   5    2.6390975e-10
   6    5.163957e-08
   7    2.0372012e-13
   8    8.700961e-09
   9    1.7311415e-06
   10    8.276191e-05
   11    0.85489884
   12    0.54224529
   13    19.300481
   14    0
   15    0
   16    0.0021585275
   17    2.2816942e-15
   18    2.4778337e-11
   19    8.2847782e-11
   20   -7.6916697e-15
   21   -3.2883714e-10
   22   -9.6921057e-08
   23    0
   24    0
   25    0
   26    0
   27    0
   28    0
   29    0
   30    0
   31    0
   39    8.1804573e-05
   40    0
   41    0
   42    0

BLOCK FWCOEF Q=  160
   305   4422   0   0   -0.18881911
   305   4422   0   2   -0.17851801
   305   4322   0   2   -0.00052652354
   305   6421   0   0   -0.095227835
   305   6421   0   2   -0.11922938
   305   6321   0   2   -0.00085710431
   3051111   4133   0   0    1.5931617
   3051111   4133   0   2    1.5939781
   3051111   4233   0   2   -5.726476e-05
   3051111   4137   0   0   -4.4158538
   3051111   4137   0   2   -4.4097712
   3051111   4237   0   2    0.00045037319
   3051313   4133   0   0    1.5931617
   3051313   4133   0   2    1.5939742
   3051313   4233   0   2   -5.7331157e-05
   3051313   4137   0   0   -4.4158538
   3051313   4137   0   2   -4.4097751
   3051313   4237   0   2    0.00045043316
   3051212   4137   0   0    1.5053501
   3051212   4137   0   2    1.5040321
   3051212   4237   0   2   -9.8133789e-05
   3051414   4137   0   0    1.5053501
   3051414   4137   0   2    1.5040321
   3051414   4237   0   2   -9.8119682e-05
   3051616   4137   0   0    1.5053501
   3051616   4137   0   2    1.5040321
   3051616   4237   0   2   -9.4144355e-05

BLOCK IMFWCOEF Q=  160
   305   4422   0   0    3.8588487e-07
   305   4422   0   2   -1.7464271e-05
   305   4322   0   2    5.8335014e-06
   305   6421   0   0    3.3053591e-07
   305   6421   0   2   -1.5793654e-05
   305   6321   0   2    2.1861436e-06
   3051111   4133   0   2   -1.3687057e-06
   3051111   4233   0   2    6.2898824e-06
   3051111   4137   0   2    1.1716699e-05
   3051111   4237   0   2   -4.8869547e-05
   3051313   4133   0   2   -1.3686852e-06
   3051313   4233   0   2    6.2898535e-06
   3051313   4137   0   2    1.1716737e-05
   3051313   4237   0   2   -4.8869633e-05
   3051212   4137   0   2   -2.4173299e-06
   3051212   4237   0   2    1.0647549e-05
   3051414   4137   0   2   -2.4173298e-06
   3051414   4237   0   2    1.0647549e-05
   3051616   4137   0   2   -2.4170215e-06
   3051616   4237   0   2    1.0647548e-05

DECAY 23  2.4952


DECAY 24  2.085


DECAY 2000011  7.9566398
    0.99855153   2    1000022    11
    0.00078751088   2    1000023    11
    0.00059912468   2    1000025    11

DECAY 1000011  12.494342
    0.4795453   2   -1000037    12
    0.22985774   2    1000035    11
    0.1719958   2    1000022    11
    0.069843194   2   -1000024    12
    0.04869995   2    1000023    11

DECAY 2000013  7.9865915
    0.99479071   2    1000022    13
    0.0017569822   2   -1000024    14
    0.0016595131   2    1000023    13
    0.0015304954   2    1000025    13
    0.00013191597   2   -1000037    14
    0.00013038156   2    1000035    13

DECAY 1000013  12.512771
    0.47883725   2   -1000037    14
    0.22957615   2    1000035    13
    0.17174941   2    1000022    13
    0.069740141   2   -1000024    14
    0.04929941   2    1000023    13
    0.00078051464   2    1000025    13

DECAY 1000015  11.039566
    0.58708585   2    1000022    15
    0.20405823   2   -1000024    16
    0.10287727   2    1000023    15
    0.098403203   2    1000025    15
    0.0049183521   2   -1000037    16
    0.0026570998   2    1000035    15

DECAY 2000015  16.151599
    0.32630835   2   -1000037    16
    0.16751912   2    1000035    15
    0.15579941   2    1000023    15
    0.14195018   2    1000025    15
    0.1280596   2    1000022    15
    0.032644504   2   -1000024    16
    0.02429908   2    1000015    25
    0.023419754   2    1000015    23

DECAY 1000012  12.515197
    0.45565737   2    1000037    11
    0.23544327   2    1000035    12
    0.17175876   2    1000022    12
    0.098010289   2    1000024    11
    0.038286006   2    1000023    12
    0.00084431302   2    1000025    12

DECAY 1000014  12.53313
    0.45510059   2    1000037    13
    0.23510019   2    1000035    14
    0.17151151   2    1000022    14
    0.099214134   2    1000024    13
    0.038230491   2    1000023    14
    0.00084308816   2    1000025    14

DECAY 1000016  16.219897
    0.32868152   2    1000024    15
    0.31802949   2    1000037    15
    0.15409689   2    1000035    16
    0.12586613   2    1000022    16
    0.046494709   2    1000015    24
    0.026254902   2    1000023    16
    0.00057636594   2    1000025    16

DECAY 2000001  143.64921
    0.98050998   2    1000021    1
    0.019437189   2    1000022    1

DECAY 1000001  203.93097
    0.69564732   2    1000021    1
    0.1804666   2   -1000037    2
    0.088195689   2    1000035    1
    0.020104638   2   -1000024    2
    0.012005275   2    1000023    1
    0.0034377162   2    1000022    1
    0.00014275662   2    1000025    1

DECAY 2000003  143.69825
    0.9801795   2    1000021    3
    0.019431078   2    1000022    3
    0.00015284181   2   -1000024    4
    0.00010558923   2    1000025    3
    0.00010335032   2    1000023    3

DECAY 1000003  203.9579
    0.69555954   2    1000021    3
    0.18044432   2   -1000037    4
    0.088190176   2    1000035    3
    0.020109197   2   -1000024    4
    0.01205722   2    1000023    3
    0.0034376211   2    1000022    3
    0.00020192565   2    1000025    3

DECAY 1000005  53.723685
    0.31380495   2   -1000024    6
    0.21841215   2    1000006   -24
    0.1486173   2   -1000037    6
    0.13219116   2    1000023    5
    0.12295444   2    1000025    5
    0.05650252   2    1000035    5
    0.007517481   2    1000022    5

DECAY 2000005  36.611759
    0.40678243   2   -1000024    6
    0.23380499   2    1000025    5
    0.20015949   2    1000023    5
    0.062689374   2   -1000037    6
    0.03191949   2    1000035    5
    0.027859814   2    1000022    5
    0.01536698   2    1000006   -24
    0.010341765   2    1000005    25
    0.005949813   2    2000006   -24
    0.0051258574   2    1000005    23

DECAY 2000002  152.18949
    0.92639871   2    1000021    2
    0.073405303   2    1000022    2
    0.00010321064   2    1000023    2

DECAY 1000002  203.92382
    0.69543947   2    1000021    2
    0.17242582   2    1000037    1
    0.087323715   2    1000035    2
    0.028339062   2    1000024    1
    0.012986067   2    1000023    2
    0.0034212047   2    1000022    2

DECAY 2000004  152.19292
    0.92637793   2    1000021    4
    0.073403647   2    1000022    4
    0.00010802424   2    1000023    4

DECAY 1000004  203.95031
    0.69535132   2    1000021    4
    0.17241495   2    1000037    3
    0.087312989   2    1000035    4
    0.028443077   2    1000024    3
    0.012988037   2    1000023    4
    0.0034207632   2    1000022    4

DECAY 1000006  18.428369
    0.40085242   2    1000024    5
    0.19567461   2    1000025    6
    0.16006009   2    1000023    6
    0.1447498   2    1000022    6
    0.072883583   2    1000037    5
    0.025712241   2    1000035    6

DECAY 2000006  61.254901
    0.27434778   2    1000024    5
    0.1834608   2    1000023    6
    0.17421982   2    1000025    6
    0.1304552   2    1000006    25
    0.11132181   2    1000006    23
    0.079416825   2    1000037    5
    0.039088087   2    1000035    6
    0.0076896661   2    1000022    6

DECAY 1000024  0.49953751
    0.98165063   2    1000022    24
    0.017413223   3    1000022   -5    6
    0.000926005   3    1000022   -15    16

DECAY 1000037  3.1571667
    0.4646924   2    1000023    24
    0.20080787   2    1000024    23
    0.16166089   2    1000025    24
    0.14317687   2    1000024    25
    0.028521411   2    1000022    24
    0.00057807836   2    37    1000022
    0.00051347866   3    1000022   -5    6

DECAY 1000022 -1


DECAY 1000023  0.46122865
    0.54653919   2    1000022    25
    0.44264589   2    1000022    23
    0.0054774048   3    1000022    5   -5
    0.0042911044   3    1000022    6   -6
    0.00099545123   3    1000022    15   -15

DECAY 1000025  0.67135884
    0.50709242   2    1000022    23
    0.48362742   2    1000022    25
    0.0048937592   3    1000022    5   -5
    0.0034668561   3    1000022    6   -6
    0.00087192112   3    1000022    15   -15

DECAY 1000035  4.8093274
    0.26494915   2    1000024   -24
    0.26494915   2   -1000024    24
    0.24800874   2    1000025    23
    0.11230828   2    1000025    25
    0.089477527   2    1000023    25
    0.0098825537   2    1000022    25
    0.008162279   2    1000022    23
    0.0015547759   2    1000023    23
    0.00037689497   2    1000022    35
    0.00014709995   3    1000022    6   -6
    0.00010170653   2    1000022    36

DECAY 1000021  197.07955
    0.15257246   2    1000006   -6
    0.15257246   2   -1000006    6
    0.12662289   2    2000006   -6
    0.12662289   2   -2000006    6
    0.12161406   2    1000005   -5
    0.12161406   2   -1000005    5
    0.098706422   2    2000005   -5
    0.098706422   2   -2000005    5
    0.00038223092   2    1000006   -4
    0.00038223092   2   -1000006    4

DECAY 25  0.0034570764
    0.64364645   2   -5    5
    0.15748565   2   -24    24
    0.073374849   2    21    21
    0.073343829   2   -15    15
    0.030845099   2   -4    4
    0.017439378   2    23    23
    0.002264844   2    22    22
    0.0011036235   2    22    23
    0.00025441707   2   -13    13
    0.00024102915   2   -3    3
    6.6641739e-07   2   -1    1
    1.589663e-07   2   -2    2
    5.7196395e-09   2   -11    11

DECAY 35  22.593952
    0.83097271   2   -5    5
    0.16746083   2   -15    15
    0.00058383036   2   -13    13
    0.00040250596   2   -3    3
    0.00028533038   2   -6    6
    0.00020816577   2    1000022    1000022
    8.3484776e-05   2    21    21
    1.1127648e-06   2   -1    1
    1.0435456e-06   2    25    25
    5.6193999e-07   2   -24    24
    3.4327389e-07   2    23    23
    4.7286205e-08   2    22    22
    1.3117724e-08   2   -11    11
    1.1099882e-08   2    22    23
    1.0292787e-08   2   -4    4
    5.3102329e-14   2   -2    2

DECAY 36  21.87239
    0.83092009   2   -5    5
    0.16745046   2   -15    15
    0.00058378192   2   -13    13
    0.00040245815   2   -3    3
    0.00030681736   2   -6    6
    0.00022424666   2    1000022    1000022
    0.00011023457   2    21    21
    1.1126326e-06   2   -1    1
    5.5327883e-07   2    23    25
    1.3143719e-07   2    22    22
    8.7664954e-08   2    22    23
    1.3116633e-08   2   -11    11
    9.3677551e-09   2   -4    4
    4.8378951e-14   2   -2    2
    2.2136818e-36   2    25    25

DECAY 37  23.695074
    0.81713411   2   -5    6
    0.18055432   2   -15    16
    0.0012950083   2   -5    4
    0.00063832943   2   -13    14
    0.00034999098   2   -3    4
    1.6123473e-05   2   -3    2
    9.2477363e-06   2   -5    2
    1.2759916e-06   2   -3    6
    9.7081487e-07   2   -1    2
    5.2688803e-07   2    24    25
    4.4960993e-08   2   -1    4
    3.7018541e-08   2   -1    6
    1.4930592e-08   2   -11    12
    3.8834167e-10   2    24    35
    3.4831107e-10   2    24    36

DECAY 6  2.43
    1   2    5    24

DECAY 15 -1
