BLOCK SPINFO
   1   SPheno
   2   v4.0.5be

BLOCK SPHENOINFO
   1   2
   2   2

BLOCK MODSEL
   1   0

BLOCK MINPAR
   3    26.808518
   4   -1

BLOCK EXTPAR
   0    1754.8065
   1   -1527.2857
   2    1510.407
   3    3000
   11   -5039.0874
   12    66.659123
   13   -852.35168
   23   -418.02648
   25    25.955849
   26    4842.2716
   31    1770.7797
   32    1770.7797
   33    412.86262
   34    723.17745
   35    723.17745
   36    1836.7363
   41    5000
   42    5000
   43    1693.0563
   44    5000
   45    5000
   46    1935.8957
   47    5000
   48    5000
   49    1039.4842

BLOCK SMINPUTS
   1    127.90897
   2    1.1663787e-05
   3    0.1184
   4    91.1876
   5    4.18
   6    173.2
   7    1.777
   8    0
   11    0.00051099893
   12    0
   13    0.10565837
   14    0
   21    0.005
   22    0.0025
   23    0.095
   24    1.27

BLOCK GAUGE Q=  1754.8065
   1    0.35536298
   2    0.66519887
   3    1.219778

BLOCK YU Q=  1754.8065
   1   1    8.3905924e-06
   2   2    0.0042624209
   3   3    1.013651

BLOCK YD Q=  1754.8065
   1   1    0.00043763103
   2   2    0.0083149897
   3   3    0.43399285

BLOCK YE Q=  1754.8065
   1   1    7.6369816e-05
   2   2    0.015790856
   3   3    0.26557622

BLOCK AU Q=  1754.8065
   1   1    0
   2   2    0
   3   3   -5039.0871

BLOCK AD Q=  1754.8065
   1   1    0
   2   2    0
   3   3    66.659118

BLOCK AE Q=  1754.8065
   1   1    0
   2   2    0
   3   3   -852.35168

BLOCK MSOFT Q=  1754.8065
   1   -1527.2857
   2    1510.407
   3    3000
   21    23177483
   22   -89198.688
   31    1770.7797
   32    1770.7797
   33    412.86262
   34    723.17745
   35    723.17745
   36    1836.7363
   41    5000
   42    5000
   43    1693.0563
   44    5000
   45    5000
   46    1935.8957
   47    5000
   48    5000
   49    1039.4842

BLOCK MASS
   6    173.2
   23    91.1876
   24    80.429995
   15    1.777
   25    122.54438
   35    4840.967
   36    4842.2716
   37    4842.0219
   1000001    5038.9074
   2000001    5029.2699
   1000002    5038.4717
   2000002    5032.4707
   1000003    5038.9095
   2000003    5029.2729
   1000004    5038.4736
   2000004    5032.4712
   1000005    1096.571
   2000005    1704.0743
   1000006    1562.6914
   2000006    1970.5401
   1000011    1785.8929
   2000011    722.22678
   1000012    1783.7819
   1000013    1785.8991
   2000013    722.26356
   1000014    1783.788
   1000015    468.99249
   2000015    1840.8166
   1000016    463.32091
   1000021    3210.2601
   1000022    424.60845
   1000023   -428.81045
   1000025   -1521.201
   1000035    1563.8151
   1000024    426.70945
   1000037    1563.8679

BLOCK ALPHA
      -0.037312762

BLOCK HMIX Q=  1754.8065
   1   -418.02648
   2    25.955849
   3    243.80746
   4    23447594

BLOCK STOPMIX
   1   1    0.83157974
   1   2    0.55540538
   2   1   -0.55540538
   2   2    0.83157974

BLOCK SBOTMIX
   1   1   -0.014374116
   1   2    0.99989669
   2   1   -0.99989669
   2   2   -0.014374116

BLOCK STAUMIX
   1   1   -0.99998588
   1   2    0.005313706
   2   1   -0.005313706
   2   2   -0.99998588

BLOCK NMIX
   1   1   -0.015215468
   1   2   -0.047988037
   1   3   -0.70837442
   1   4   -0.70403929
   2   1    0.029243069
   2   2    0.029772481
   2   3   -0.70564841
   2   4    0.70733214
   3   1   -0.99945623
   3   2    0.00083998308
   3   3   -0.0098525249
   3   4    0.03145586
   4   1    0.00076248995
   4   2   -0.99840375
   4   3    0.012997065
   4   4    0.054958646

BLOCK UMIX
   1   1   -0.018445906
   1   2   -0.99982986
   2   1    0.99982986
   2   2   -0.018445906

BLOCK VMIX
   1   1   -0.07783289
   1   2    0.99696642
   2   1    0.99696642
   2   2    0.07783289

BLOCK HIGGSBOUNDSINPUTHIGGSCOUPLINGSFERMIONS
       0, 673.7061,3,36,15,15

BLOCK HIGGSBOUNDSINPUTHIGGSCOUPLINGSBOSONS
       0,4,36,21,21,23

BLOCK SPHENOLOWENERGY
   1    0.00036312619
   2    1.5904514e-06
   3    3.5310877e-05
   4    2.0106074e-15
   5    8.5891296e-11
   6    1.8009715e-08
   7    6.8023819e-14
   8    2.9059897e-09
   9    6.1737819e-07
   10    9.6594749e-05
   11    0.99778678
   12    0.54279719
   13    19.393018
   14    0
   15    0
   16    0.0021615123
   17    2.2817011e-15
   18    2.4831809e-11
   19    8.2983092e-11
   20   -2.4247407e-15
   21   -1.0366707e-10
   22   -2.6015362e-08
   23    0
   24    0
   25    0
   26    0
   27    0
   28    0
   29    0
   30    0
   31    0
   39    8.4983464e-05
   40    0
   41    0
   42    0

BLOCK FWCOEF Q=  160
   305   4422   0   0   -0.18881911
   305   4422   0   2   -0.23788938
   305   4322   0   2   -0.00039650011
   305   6421   0   0   -0.095227835
   305   6421   0   2   -0.12365005
   305   6321   0   2   -0.00021741948
   3051111   4133   0   0    1.5975371
   3051111   4133   0   2    1.5990706
   3051111   4233   0   2    0.00016316311
   3051111   4137   0   0   -4.4202292
   3051111   4137   0   2   -4.4242968
   3051111   4237   0   2   -0.0012589792
   3051313   4133   0   0    1.5975371
   3051313   4133   0   2    1.5990696
   3051313   4233   0   2    0.00016316287
   3051313   4137   0   0   -4.4202292
   3051313   4137   0   2   -4.4242979
   3051313   4237   0   2   -0.0012589797
   3051212   4137   0   0    1.5053501
   3051212   4137   0   2    1.5062433
   3051212   4237   0   2    0.00027403616
   3051414   4137   0   0    1.5053501
   3051414   4137   0   2    1.5062433
   3051414   4237   0   2    0.00027403616
   3051616   4137   0   0    1.5053501
   3051616   4137   0   2    1.5062421
   3051616   4237   0   2    0.00027403762

BLOCK IMFWCOEF Q=  160
   305   4422   0   0    3.8576768e-07
   305   4422   0   2   -2.2917077e-05
   305   4322   0   2   -6.1278708e-06
   305   6421   0   0    3.3043553e-07
   305   6421   0   2    9.2448897e-06
   305   6321   0   2   -2.561146e-06
   3051111   4133   0   2   -6.6886222e-07
   3051111   4233   0   2    3.0538303e-06
   3051111   4137   0   2    6.8548732e-06
   3051111   4237   0   2   -2.3565385e-05
   3051313   4133   0   2   -6.6888709e-07
   3051313   4233   0   2    3.0538262e-06
   3051313   4137   0   2    6.8548666e-06
   3051313   4237   0   2   -2.3565395e-05
   3051212   4137   0   2   -1.3595729e-06
   3051212   4237   0   2    5.1293662e-06
   3051414   4137   0   2   -1.3595731e-06
   3051414   4237   0   2    5.1293662e-06
   3051616   4137   0   2   -1.3818643e-06
   3051616   4237   0   2    5.1293809e-06

DECAY 23  2.4952


DECAY 24  2.085


DECAY 2000011  0.001664671
    0.78387153   2    1000023    11
    0.21610711   2    1000022    11

DECAY 1000011  1.4899388
    0.57356385   2   -1000037    12
    0.28585806   2    1000035    11
    0.11293906   2    1000025    11
    0.014788703   2    1000022    11
    0.0096576371   2    1000023    11
    0.0031926864   2   -1000024    12

DECAY 2000013  0.0047059608
    0.4368628   2    1000023    13
    0.32314079   2   -1000024    14
    0.23999641   2    1000022    13

DECAY 1000013  1.4980859
    0.57047279   2   -1000037    14
    0.28431742   2    1000035    13
    0.11232948   2    1000025    13
    0.01735012   2    1000022    13
    0.012220602   2    1000023    13
    0.0031753373   2   -1000024    14
    0.0001342563   2    2000013    25

DECAY 1000015  0.020206201
    0.54779036   2    1000022    15
    0.44960215   2    1000023    15
    0.0026070127   2   -1000024    16

DECAY 2000015  5.7606932
    0.40122411   2   -1000024    16
    0.20179925   2    1000022    15
    0.20107215   2    1000023    15
    0.16127875   2    1000025    15
    0.0169759   2    1000016   -24
    0.0091691304   2    1000015    25
    0.0084282279   2    1000015    23

DECAY 1000012  1.519099
    0.55000756   2    1000037    11
    0.27614628   2    1000035    12
    0.10994893   2    1000025    12
    0.055670857   2    1000024    11
    0.0073073444   2    1000022    12
    0.00091902506   2    1000023    12

DECAY 1000014  1.5270319
    0.54717657   2    1000037    13
    0.274725   2    1000035    14
    0.10938206   2    1000025    14
    0.0605327   2    1000024    13
    0.0072694134   2    1000022    14
    0.00091425459   2    1000023    14

DECAY 1000016  0.016204891
    0.99433796   2    1000024    15
    0.0051266769   2    1000022    16
    0.00053536519   2    1000023    16

DECAY 2000001  141.70453
    0.9836415   2    1000021    1
    0.016336998   2    1000025    1

DECAY 1000001  195.31828
    0.71876772   2    1000021    1
    0.18539835   2   -1000037    2
    0.092461395   2    1000035    1
    0.0029992213   2    1000025    1
    0.00022955374   2    1000022    1

DECAY 2000003  141.71844
    0.98354714   2    1000021    3
    0.016335412   2    1000025    3

DECAY 1000003  195.32713
    0.71873625   2    1000021    3
    0.1853901   2   -1000037    4
    0.092457261   2    1000035    3
    0.0029990897   2    1000025    3
    0.00024704928   2    1000022    3

DECAY 1000005  5.6959379
    0.47999521   2   -1000024    6
    0.26205217   2    1000022    5
    0.25795261   2    1000023    5

DECAY 2000005  40.889643
    0.72601799   2   -1000024    6
    0.12730287   2    1000006   -24
    0.069151182   2    1000022    5
    0.068376858   2    1000023    5
    0.0045524311   2    1000035    5
    0.0027052954   2    1000005    25
    0.001650497   2    1000005    23
    0.00024287542   2    1000025    5

DECAY 2000002  148.9996
    0.93771517   2    1000021    2
    0.062204014   2    1000025    2

DECAY 1000002  195.31323
    0.71855427   2    1000021    2
    0.18431996   2    1000037    1
    0.092402098   2    1000035    2
    0.0029428506   2    1000025    2
    0.0013561778   2    1000024    1
    0.00028770861   2    1000022    2
    0.00013693373   2    1000023    2

DECAY 2000004  149.00317
    0.93769262   2    1000021    4
    0.062202521   2    1000025    4

DECAY 1000004  195.32201
    0.7185227   2    1000021    4
    0.18431179   2    1000037    3
    0.092398022   2    1000035    4
    0.0029427289   2    1000025    4
    0.0013909873   2    1000024    3
    0.00029224841   2    1000022    4
    0.00014152289   2    1000023    4

DECAY 1000006  38.574694
    0.34254155   2    1000024    5
    0.32884104   2    1000022    6
    0.32567286   2    1000023    6
    0.0013381181   3    1000022    24    5
    0.0012003441   2    1000005    24
    0.00015750424   3   -1000015    16    5
    0.00010213467   2    1000022    4

DECAY 2000006  119.32326
    0.22001722   2    1000006    23
    0.21385208   2    1000024    5
    0.18682403   2    2000005    24
    0.15512574   2    1000023    6
    0.15146712   2    1000022    6
    0.056324143   2    1000006    25
    0.0084755205   2    1000037    5
    0.0040894223   2    1000035    6
    0.0029224118   2    1000025    6
    0.00090231141   2    1000005    24

DECAY 1000024  1.1885633e-11
    0.58877051   3    1000022   -1    2
    0.19626875   3    1000022   -11    12
    0.19261852   3    1000022   -13    14
    0.022342217   3    1000022   -3    4

DECAY 1000037  24.829923
    0.22949756   2   -1000015    16
    0.22931571   2    1000016   -15
    0.1333818   2    1000023    24
    0.13182201   2    1000024    23
    0.1316034   2    1000022    24
    0.1298198   2    1000024    25
    0.0049367144   3    1000024    6   -6
    0.0048759048   3    1000023   -5    6
    0.0043269214   3    1000022   -5    6
    0.00041770666   3    1000024    5   -5

DECAY 1000022 -1


DECAY 1000023  1.0964216e-08
    0.85189462   2    1000022    22
    0.039276153   3    1000022    12   -12
    0.029367124   3    1000022    1   -1
    0.029132585   3    1000022    3   -3
    0.022904244   3    1000022    2   -2
    0.0066272852   3    1000022    11   -11
    0.0065441809   3    1000022    13   -13
    0.0031721684   3    1000024    1   -2
    0.0031721684   3   -1000024   -1    2
    0.0031702899   3    1000022    4   -4
    0.0010574352   3    1000024    11   -12
    0.0010574352   3   -1000024   -11    12
    0.0010413546   3    1000024    13   -14
    0.0010413546   3   -1000024   -13    14
    0.00027022619   3    1000024    3   -4
    0.00027022619   3   -1000024   -3    4

DECAY 1000025  17.456692
    0.13121093   2    2000011   -11
    0.13121093   2   -2000011    11
    0.13120318   2    2000013   -13
    0.13120318   2   -2000013    13
    0.058464873   2    1000024   -24
    0.058464873   2   -1000024    24
    0.045943386   2    1000022    23
    0.045140917   2    1000016   -16
    0.045140917   2   -1000016    16
    0.04463579   2    1000015   -15
    0.04463579   2   -1000015    15
    0.044135492   2    1000023    25
    0.037738602   2    1000022    25
    0.016816991   2    1000005   -5
    0.016816991   2   -1000005    5
    0.012619992   2    1000023    23
    0.001586587   3    1000024    5   -6
    0.001586587   3   -1000024   -5    6
    0.00073332724   3    1000023    6   -6
    0.00068175829   3    1000022    6   -6

DECAY 1000035  26.595178
    0.12415212   2    1000024   -24
    0.12415212   2   -1000024    24
    0.10742913   2    1000016   -16
    0.10742913   2   -1000016    16
    0.10674441   2    1000015   -15
    0.10674441   2   -1000015    15
    0.10274729   2    1000023    25
    0.089956826   2    1000023    23
    0.087066073   2    1000022    25
    0.03401842   2    1000022    23
    0.0031486608   3    1000024    5   -6
    0.0031486608   3   -1000024   -5    6
    0.0016357989   3    1000023    6   -6
    0.00150058   3    1000022    6   -6

DECAY 1000021  228.40293
    0.16232068   2    1000005   -5
    0.16232068   2   -1000005    5
    0.10729508   2    2000005   -5
    0.10729508   2   -2000005    5
    0.10510155   2    1000006   -6
    0.10510155   2   -1000006    6
    0.09311846   2    2000006   -6
    0.09311846   2   -2000006    6
    0.031466295   2    1000006   -4
    0.031466295   2   -1000006    4
    0.00055867159   3    1000037    5   -6
    0.00055867159   3   -1000037   -5    6

DECAY 25  0.0035375194
    0.60771723   2   -5    5
    0.19229167   2   -24    24
    0.073980919   2    21    21
    0.069608977   2   -15    15
    0.030095471   2   -4    4
    0.022154983   2    23    23
    0.00237143   2    22    22
    0.0013090851   2    22    23
    0.00024140055   2   -13    13
    0.00022804143   2   -3    3
    6.3051222e-07   2   -1    1
    1.5509516e-07   2   -2    2
    5.4269849e-09   2   -11    11

DECAY 35  95.863557
    0.3688336   2   -5    5
    0.16323436   2   -1000024    1000037
    0.16323436   2   -1000037    1000024
    0.083254941   2    1000022    1000025
    0.080545688   2    1000023    1000025
    0.061485326   2   -15    15
    0.026966053   2    1000022    1000035
    0.020462003   2    1000023    1000035
    0.011003121   2   -1000006    1000006
    0.0090190136   2   -2000006    2000006
    0.0025899523   2   -1000024    1000024
    0.0025884115   2   -6    6
    0.0018628494   2   -2000006    1000006
    0.0018628494   2   -1000006    2000006
    0.00098693207   2   -2000015    1000015
    0.00098693207   2   -1000015    2000015
    0.00037005752   2    1000022    1000022
    0.000236242   2   -13    13
    0.00014265605   2   -3    3
    9.7462879e-05   2   -1000037    1000037
    5.9388488e-05   2    1000022    1000023
    4.8736311e-05   2    1000025    1000025
    4.5146616e-05   2    1000025    1000035
    4.2561863e-05   2    1000023    1000023
    1.30307e-05   2    25    25
    9.8564813e-06   2   -2000005    1000005
    9.8564813e-06   2   -1000005    2000005
    3.8224481e-06   2    1000035    1000035
    2.867122e-06   2    21    21
    3.9442347e-07   2   -1    1
    1.7099855e-07   2   -2000005    2000005
    1.5048311e-07   2   -2000015    2000015
    1.1826502e-07   2    23    23
    8.457058e-08   2   -1000005    1000005
    6.0873727e-08   2   -1000015    1000015
    5.4849443e-08   2   -2000011    2000011
    5.4671194e-08   2   -2000013    2000013
    4.9690754e-08   2   -1000011    1000011
    4.9461299e-08   2   -1000013    1000013
    3.520736e-08   2    22    23
    3.1847784e-08   2   -4    4
    2.0229433e-08   2   -24    24
    1.9930358e-08   2    22    22
    5.3050506e-09   2   -11    11
    1.1137408e-09   2   -2000013    1000013
    1.1137408e-09   2   -1000013    2000013
    1.6414109e-13   2   -2    2
    2.6050534e-14   2   -2000011    1000011
    2.6050534e-14   2   -1000011    2000011

DECAY 36  93.653728
    0.35685356   2   -5    5
    0.1671686   2   -1000024    1000037
    0.1671686   2   -1000037    1000024
    0.084838802   2    1000023    1000025
    0.082915667   2    1000022    1000025
    0.059488125   2   -15    15
    0.02751149   2    1000023    1000035
    0.021064719   2    1000022    1000035
    0.012344989   2   -2000006    1000006
    0.012344989   2   -1000006    2000006
    0.0026365924   2   -1000024    1000024
    0.0026100831   2   -6    6
    0.0010101371   2   -2000015    1000015
    0.0010101371   2   -1000015    2000015
    0.00033655254   2    1000022    1000022
    0.00022857381   2   -13    13
    0.00013802274   2   -3    3
    8.7767421e-05   2   -1000037    1000037
    8.1560933e-05   2    1000022    1000023
    5.2175209e-05   2    1000023    1000023
    4.3960662e-05   2    1000025    1000025
    2.804445e-05   2    1000025    1000035
    1.0603505e-05   2    1000035    1000035
    1.0137034e-05   2   -2000005    1000005
    1.0137034e-05   2   -1000005    2000005
    5.2238401e-06   2    21    21
    3.8161247e-07   2   -1    1
    3.2152818e-07   2    23    25
    3.185468e-08   2   -4    4
    1.1659262e-08   2    22    23
    5.1329424e-09   2   -11    11
    1.1396716e-09   2   -2000013    1000013
    1.1396716e-09   2   -1000013    2000013
    5.7675144e-10   2    22    22
    1.641833e-13   2   -2    2
    4.4336958e-14   2    23    35
    2.6657038e-14   2   -2000011    1000011
    2.6657038e-14   2   -1000011    2000011
    1.7981545e-37   2    25    25

DECAY 37  94.74854
    0.3610919   2   -5    6
    0.16721623   2    1000022    1000037
    0.16570535   2    1000024    1000025
    0.16534175   2    1000023    1000037
    0.073450579   2   -15    16
    0.047694816   2    1000024    1000035
    0.010726232   2   -2000005    2000006
    0.0043548927   2   -2000005    1000006
    0.0019980065   2   -2000015    1000016
    0.00085913957   2    1000023    1000024
    0.00053223341   2   -5    4
    0.00029837543   2    1000022    1000024
    0.00025967391   2   -13    14
    0.00022963383   2   -1000005    2000006
    0.00013478363   2   -3    4
    7.3403925e-05   2    1000035    1000037
    1.7475521e-05   2   -1000005    1000006
    6.3445567e-06   2   -3    2
    4.0078435e-06   2   -3    6
    3.8006947e-06   2   -5    2
    3.7400853e-07   2   -1    2
    3.1783923e-07   2    24    25
    2.1819194e-07   2   -2000011    1000012
    2.1793881e-07   2   -2000013    1000014
    1.745814e-07   2   -1    6
    3.4478961e-08   2   -1000015    1000016
    1.914736e-08   2   -1    4
    6.0737997e-09   2   -11    12
    2.2316661e-09   2   -1000013    1000014
    1.6197089e-11   2    1000025    1000037
    5.2198588e-14   2   -1000011    1000012
    1.8774794e-14   2    24    35

DECAY 6  2.43
    1   2    5    24

DECAY 15 -1
