BLOCK SPINFO
   1   SPheno
   2   v4.0.5be

BLOCK SPHENOINFO
   1   2
   2   2

BLOCK MODSEL
   1   0

BLOCK MINPAR
   3    59.808597
   4    1

BLOCK EXTPAR
   0    1519.092
   1   -1720.9535
   2    1341.8345
   3    3000
   11    2769.0262
   12   -1315.0963
   13   -471.06425
   23    540.49283
   25    58.945571
   26    2273.4337
   31    1537.0952
   32    1537.0952
   33    1693.7349
   34    1314.0146
   35    1314.0146
   36    1034.8527
   41    5000
   42    5000
   43    1724.7383
   44    5000
   45    5000
   46    1393.5801
   47    5000
   48    5000
   49    1210.9523

BLOCK SMINPUTS
   1    127.90897
   2    1.1663787e-05
   3    0.1184
   4    91.1876
   5    4.18
   6    173.2
   7    1.777
   8    0
   11    0.00051099893
   12    0
   13    0.10565837
   14    0
   21    0.005
   22    0.0025
   23    0.095
   24    1.27

BLOCK GAUGE Q=  1519.092
   1    0.35536298
   2    0.66519887
   3    1.219778

BLOCK YU Q=  1519.092
   1   1    8.3855786e-06
   2   2    0.0042598739
   3   3    1.0130453

BLOCK YD Q=  1519.092
   1   1    0.00099326347
   2   2    0.018872006
   3   3    0.98500612

BLOCK YE Q=  1519.092
   1   1    0.00017333174
   2   2    0.035839506
   3   3    0.60276153

BLOCK AU Q=  1519.092
   1   1    0
   2   2    0
   3   3    2769.0261

BLOCK AD Q=  1519.092
   1   1    0
   2   2    0
   3   3   -1315.0963

BLOCK AE Q=  1519.092
   1   1    0
   2   2    0
   3   3   -471.06425

BLOCK MSOFT Q=  1519.092
   1   -1720.9535
   2    1341.8345
   3    3000
   21    4957953.3
   22   -245368.9
   31    1537.0952
   32    1537.0952
   33    1693.7349
   34    1314.0146
   35    1314.0146
   36    1034.8527
   41    5000
   42    5000
   43    1724.7383
   44    5000
   45    5000
   46    1393.5801
   47    5000
   48    5000
   49    1210.9523

BLOCK MASS
   6    173.2
   23    91.1876
   24    80.429995
   15    1.777
   25    122.65784
   35    2271.9176
   36    2273.4337
   37    2273.9728
   1000001    5028.0287
   2000001    5019.1096
   1000002    5027.58
   2000002    5019.9803
   1000003    5028.0379
   2000003    5019.1207
   1000004    5027.5871
   2000004    5019.9811
   1000005    1203.9157
   2000005    1717.0019
   1000006    1311.1179
   2000006    1760.0556
   1000011    1548.447
   2000011    1321.4653
   1000012    1546.0233
   1000013    1548.4284
   2000013    1321.4076
   1000014    1545.9981
   1000015    1028.2887
   2000015    1697.8526
   1000016    1694.9735
   1000021    3189.4497
   1000022    544.56822
   1000023   -547.9751
   1000025    1395.3979
   1000035   -1715.3069
   1000024    545.63836
   1000037    1395.4463

BLOCK ALPHA
      -0.016814344

BLOCK HMIX Q=  1519.092
   1    540.49283
   2    58.945571
   3    243.98885
   4    5168501

BLOCK STOPMIX
   1   1   -0.31495726
   1   2    0.94910586
   2   1   -0.94910586
   2   2   -0.31495726

BLOCK SBOTMIX
   1   1    0.038518774
   1   2    0.99925788
   2   1   -0.99925788
   2   2    0.038518774

BLOCK STAUMIX
   1   1    0.032909038
   1   2    0.99945835
   2   1   -0.99945835
   2   2    0.032909038

BLOCK NMIX
   1   1   -0.014122791
   1   2   -0.066740577
   1   3    0.707313
   1   4   -0.70360114
   2   1    0.026618935
   2   2    0.028546861
   2   3    0.70632585
   2   4    0.70680995
   3   1    0.00099644314
   3   2   -0.99736165
   3   3   -0.027108383
   3   4    0.067334042
   4   1    0.99954539
   4   2   -0.00070895835
   4   3   -0.0087893921
   4   4   -0.028831541

BLOCK UMIX
   1   1   -0.038370246
   1   2    0.99926359
   2   1    0.99926359
   2   2    0.038370246

BLOCK VMIX
   1   1   -0.095289865
   1   2    0.99544957
   2   1    0.99544957
   2   2    0.095289865

BLOCK HIGGSBOUNDSINPUTHIGGSCOUPLINGSFERMIONS
       0, 3474.5804,3,36,15,15

BLOCK HIGGSBOUNDSINPUTHIGGSCOUPLINGSBOSONS
       0,4,36,21,21,23

BLOCK SPHENOLOWENERGY
   1    0.00036805231
   2    1.5854258e-06
   3    3.520338e-05
   4    2.8939167e-15
   5    1.2362439e-10
   6    2.5852767e-08
   7    9.6109966e-14
   8    4.1057939e-09
   9    8.6963099e-07
   10    9.1643267e-05
   11    0.94663986
   12    0.54389361
   13    19.411238
   14    0
   15    0
   16    0.0021694324
   17    2.2817858e-15
   18    2.477215e-11
   19    8.2835461e-11
   20    9.1485746e-15
   21    3.9112548e-10
   22    1.0643398e-07
   23    0
   24    0
   25    0
   26    0
   27    0
   28    0
   29    0
   30    0
   31    0
   39    8.6559977e-05
   40    0
   41    0
   42    0

BLOCK FWCOEF Q=  160
   305   4422   0   0   -0.18881911
   305   4422   0   2   -0.24307455
   305   4322   0   2   -0.00044275102
   305   6421   0   0   -0.095227835
   305   6421   0   2   -0.12745283
   305   6321   0   2   -0.00035207456
   3051111   4133   0   0    1.5934347
   3051111   4133   0   2    1.594766
   3051111   4233   0   2    0.00036306279
   3051111   4137   0   0   -4.4161268
   3051111   4137   0   2   -4.4097312
   3051111   4237   0   2   -0.0028157957
   3051313   4133   0   0    1.5934347
   3051313   4133   0   2    1.5947606
   3051313   4233   0   2    0.00036305503
   3051313   4137   0   0   -4.4161268
   3051313   4137   0   2   -4.4097367
   3051313   4237   0   2   -0.0028158036
   3051212   4137   0   0    1.5053501
   3051212   4137   0   2    1.5039619
   3051212   4237   0   2    0.00061346798
   3051414   4137   0   0    1.5053501
   3051414   4137   0   2    1.5039619
   3051414   4237   0   2    0.00061346876
   3051616   4137   0   0    1.5053501
   3051616   4137   0   2    1.503962
   3051616   4237   0   2    0.00061368743

BLOCK IMFWCOEF Q=  160
   305   4422   0   0    3.8568758e-07
   305   4422   0   2    2.9951196e-05
   305   4322   0   2   -4.489171e-06
   305   6421   0   0    3.3036692e-07
   305   6421   0   2   -3.9495027e-06
   305   6321   0   2   -1.9386934e-06
   3051111   4133   0   2   -6.8800339e-07
   3051111   4233   0   2    8.739374e-06
   3051111   4137   0   2    6.0584878e-06
   3051111   4237   0   2   -6.7830289e-05
   3051313   4133   0   2   -6.8798738e-07
   3051313   4233   0   2    8.7393015e-06
   3051313   4137   0   2    6.0585289e-06
   3051313   4237   0   2   -6.7830495e-05
   3051212   4137   0   2   -1.2285204e-06
   3051212   4237   0   2    1.4777946e-05
   3051414   4137   0   2   -1.2285205e-06
   3051414   4237   0   2    1.4777946e-05
   3051616   4137   0   2   -1.2283873e-06
   3051616   4237   0   2    1.4777945e-05

DECAY 23  2.4952


DECAY 24  2.085


DECAY 2000011  0.0041397228
    0.77932127   2    1000023    11
    0.22054764   2    1000022    11
    0.00013109148   2   -1000024    12

DECAY 1000011  0.77327848
    0.62115446   2   -1000037    12
    0.30925101   2    1000025    11
    0.037350483   2    1000022    11
    0.019907755   2   -1000024    12
    0.012336277   2    1000023    11

DECAY 2000013  0.050530094
    0.45912286   2   -1000024    14
    0.29240042   2    1000023    13
    0.24847673   2    1000022    13

DECAY 1000013  0.80397694
    0.59730556   2   -1000037    14
    0.2973795   2    1000025    13
    0.054828278   2    1000022    13
    0.030654666   2    1000023    13
    0.019147251   2   -1000024    14
    0.00068475023   2    2000013    25

DECAY 1000015  7.6712667
    0.50020036   2   -1000024    16
    0.25208288   2    1000022    15
    0.24771676   2    1000023    15

DECAY 2000015  13.081457
    0.37862517   2    1000022    15
    0.37687839   2    1000023    15
    0.12027811   2   -1000037    16
    0.059957429   2    1000025    15
    0.033934112   2    1000015    23
    0.030259603   2    1000015    25

DECAY 1000012  0.80999599
    0.57172461   2    1000037    11
    0.2874429   2    1000025    12
    0.11692732   2    1000024    11
    0.0225869   2    1000022    12
    0.0013182769   2    1000023    12

DECAY 1000014  0.84001129
    0.55113255   2    1000037    13
    0.27708808   2    1000025    14
    0.14872896   2    1000024    13
    0.021779268   2    1000022    14
    0.0012711396   2    1000023    14

DECAY 1000016  13.152317
    0.75549414   2    1000024    15
    0.11688829   2    1000037    15
    0.067269324   2    1000015    24
    0.058656373   2    1000025    16
    0.00159851   2    1000022    16

DECAY 2000001  143.00348
    0.98471023   2    1000021    1
    0.015271038   2    1000035    1

DECAY 1000001  198.87342
    0.71274172   2    1000021    1
    0.18931905   2   -1000037    2
    0.094334177   2    1000025    1
    0.002774657   2    1000035    1
    0.00044856693   2    1000022    1
    0.0003200028   2   -1000024    2

DECAY 2000003  143.07388
    0.98423369   2    1000021    3
    0.01526359   2    1000035    3
    0.00024236351   2   -1000024    4
    0.00013461546   2    1000023    3
    0.00012525799   2    1000022    3

DECAY 1000003  198.91098
    0.71261196   2    1000021    3
    0.18928384   2   -1000037    4
    0.094316713   2    1000025    3
    0.002774152   2    1000035    3
    0.00053575131   2    1000022    3
    0.00032876741   2   -1000024    4
    0.00014881525   2    1000023    3

DECAY 1000005  28.197808
    0.48028526   2   -1000024    6
    0.26156404   2    1000022    5
    0.25815071   2    1000023    5

DECAY 2000005  81.104449
    0.33762781   2   -1000024    6
    0.28670635   2    1000006   -24
    0.1651717   2    1000022    5
    0.16464611   2    1000023    5
    0.020446952   2   -1000037    6
    0.010768144   2    1000025    5
    0.010700466   2    1000005    25
    0.0039324699   2    1000005    23

DECAY 2000002  149.65511
    0.94154886   2    1000021    2
    0.058384661   2    1000035    2

DECAY 1000002  198.86604
    0.71253328   2    1000021    2
    0.18786122   2    1000037    1
    0.094259348   2    1000025    2
    0.0027305297   2    1000035    2
    0.0019739669   2    1000024    1
    0.00052126535   2    1000022    2
    0.00012038442   2    1000023    2

DECAY 2000004  149.65866
    0.94152663   2    1000021    4
    0.058383276   2    1000035    4

DECAY 1000004  198.90329
    0.71240329   2    1000021    4
    0.18782664   2    1000037    3
    0.094241914   2    1000025    4
    0.0027300314   2    1000035    4
    0.0021477484   2    1000024    3
    0.0005255746   2    1000022    4
    0.00012481025   2    1000023    4

DECAY 1000006  35.855751
    0.48549245   2    1000024    5
    0.26011711   2    1000023    6
    0.25426744   2    1000022    6

DECAY 2000006  85.90003
    0.33777454   2    1000024    5
    0.16187376   2    1000022    6
    0.16016465   2    1000023    6
    0.15949498   2    1000006    23
    0.14209274   2    1000006    25
    0.020207648   2    1000037    5
    0.0099759235   2    1000025    6
    0.0084157579   2    1000005    24

DECAY 1000024  1.3281591e-12
    0.67391859   2    1000022    211
    0.16694386   3    1000022   -11    12
    0.15913756   3    1000022   -13    14

DECAY 1000037  12.045997
    0.24730661   2    1000023    24
    0.24594146   2    1000024    25
    0.24297801   2    1000022    24
    0.24178243   2    1000024    23
    0.0058535303   3    1000024    6   -6
    0.0057260363   3    1000022   -5    6
    0.005672823   3    1000023   -5    6
    0.0042637771   2    1000006   -5
    0.00033540921   3    1000024    5   -5

DECAY 1000022 -1


DECAY 1000023  1.0235943e-08
    0.85546883   2    1000022    22
    0.031268515   3    1000022    12   -12
    0.023381328   3    1000022    1   -1
    0.023171103   3    1000022    3   -3
    0.018235816   3    1000022    2   -2
    0.0095407955   3    1000024    1   -2
    0.0095407955   3   -1000024   -1    2
    0.0052765075   3    1000022    11   -11
    0.0052021342   3    1000022    13   -13
    0.0031803516   3    1000024    11   -12
    0.0031803516   3   -1000024   -11    12
    0.0031482525   3    1000024    13   -14
    0.0031482525   3   -1000024   -13    14
    0.0021350403   3    1000024    3   -4
    0.0021350403   3   -1000024   -3    4
    0.0017771071   3    1000022    4   -4
    0.00010488835   3    1000024    15   -16
    0.00010488835   3   -1000024   -15    16

DECAY 1000025  13.904936
    0.21135991   2    1000024   -24
    0.21135991   2   -1000024    24
    0.1816308   2    1000023    23
    0.17936145   2    1000022    25
    0.17084198   2    1000023    25
    0.032648611   2    1000022    23
    0.0042006953   3    1000024    5   -6
    0.0042006953   3   -1000024   -5    6
    0.0019905785   3    1000022    6   -6
    0.0018736027   3    1000023    6   -6
    0.00019195282   3    1000022    5   -5
    0.00019194682   3    1000023    5   -5

DECAY 1000035  14.47242
    0.12194307   2    1000015   -15
    0.12194307   2   -1000015    15
    0.078241532   2    1000024   -24
    0.078241532   2   -1000024    24
    0.064394456   2    1000006   -6
    0.064394456   2   -1000006    6
    0.060987468   2    1000022    23
    0.059502784   2    1000022    25
    0.055848455   2    1000023    25
    0.04916899   2    2000013   -13
    0.04916899   2   -2000013    13
    0.049156452   2    2000011   -11
    0.049156452   2   -2000011    11
    0.02539983   2    1000005   -5
    0.02539983   2   -1000005    5
    0.017362205   2    1000023    23
    0.0030013348   3    1000024    5   -6
    0.0030013348   3   -1000024   -5    6
    0.0026263179   2    1000014   -14
    0.0026263179   2   -1000014    14
    0.002625577   2    1000012   -12
    0.002625577   2   -1000012    12
    0.002541738   2    1000013   -13
    0.002541738   2   -1000013    13
    0.0025411929   2    1000011   -11
    0.0025411929   2   -1000011    11
    0.0013119101   3    1000022    6   -6
    0.0012441855   3    1000023    6   -6
    0.00010344787   3    1000023    5   -5
    0.0001023178   3    1000022    5   -5

DECAY 1000021  231.1315
    0.15179555   2    1000006   -6
    0.15179555   2   -1000006    6
    0.15014197   2    1000005   -5
    0.15014197   2   -1000005    5
    0.10303688   2    2000005   -5
    0.10303688   2   -2000005    5
    0.089261592   2    2000006   -6
    0.089261592   2   -2000006    6
    0.0056205977   2    1000006   -4
    0.0056205977   2   -1000006    4

DECAY 25  0.0036021573
    0.60869121   2   -5    5
    0.19122246   2   -24    24
    0.073543186   2    21    21
    0.070286366   2   -15    15
    0.030063484   2   -4    4
    0.02208255   2    23    23
    0.0023364749   2    22    22
    0.0012996967   2    22    23
    0.00024382904   2   -13    13
    0.00022994975   2   -3    3
    6.357892e-07   2   -1    1
    1.5493181e-07   2   -2    2
    5.4815802e-09   2   -11    11

DECAY 35  84.151292
    0.67279171   2   -5    5
    0.21976853   2   -15    15
    0.034368732   2   -1000024    1000037
    0.034368732   2   -1000037    1000024
    0.025747375   2    1000023    1000025
    0.008618112   2    1000022    1000025
    0.0015183621   2   -1000024    1000024
    0.0010160219   2    1000022    1000035
    0.00077419063   2   -13    13
    0.000390104   2   -3    3
    0.000300368   2    1000022    1000022
    0.00016594143   2   -6    6
    0.00011767668   2    1000022    1000023
    2.0016088e-05   2    1000023    1000023
    1.3797932e-05   2    21    21
    8.8495208e-06   2    1000023    1000035
    5.8343602e-06   2   -1000015    1000015
    4.0372613e-06   2    25    25
    1.0786112e-06   2   -1    1
    2.9639282e-07   2    23    23
    1.3100846e-07   2   -24    24
    5.5763391e-08   2    22    23
    2.3634326e-08   2    22    22
    1.7389416e-08   2   -11    11
    2.8351377e-09   2   -4    4
    1.4609058e-14   2   -2    2

DECAY 36  79.552642
    0.66807818   2   -5    5
    0.2182569   2   -15    15
    0.036156299   2   -1000024    1000037
    0.036156299   2   -1000037    1000024
    0.027310113   2    1000022    1000025
    0.0090415809   2    1000023    1000025
    0.00213061   2   -1000024    1000024
    0.00094260631   2    1000023    1000035
    0.00076885994   2   -13    13
    0.00043763804   2    1000022    1000022
    0.00038738031   2   -3    3
    0.00018004061   2   -6    6
    8.631524e-05   2    1000022    1000023
    2.5637874e-05   2    1000023    1000023
    2.1249876e-05   2    1000022    1000035
    1.8555368e-05   2    21    21
    1.0710831e-06   2   -1    1
    4.3972065e-07   2    23    25
    1.1903025e-07   2    22    23
    8.2996489e-08   2    22    22
    1.7269661e-08   2   -11    11
    2.9554043e-09   2   -4    4
    1.1060304e-13   2    23    35
    1.5229334e-14   2   -2    2
    5.9295047e-37   2    25    25

DECAY 37  78.900643
    0.67886143   2   -5    6
    0.20617069   2   -15    16
    0.03738023   2    1000022    1000037
    0.036901405   2    1000024    1000025
    0.036614143   2    1000023    1000037
    0.0011320089   2    1000024    1000035
    0.0010081792   2   -5    4
    0.00072888738   2   -13    14
    0.00066909199   2    1000023    1000024
    0.00038284984   2   -3    4
    0.00012338626   2    1000022    1000024
    1.7873746e-05   2   -3    2
    7.1994422e-06   2   -5    2
    1.0627027e-06   2   -1    2
    1.0274096e-06   2   -3    6
    4.4415486e-07   2    24    25
    4.9664388e-08   2   -1    4
    2.1335407e-08   2   -1    6
    1.7048752e-08   2   -11    12
    6.3237413e-13   2    24    35

DECAY 6  2.43
    1   2    5    24

DECAY 15 -1
