BLOCK SPINFO
   1   SPheno
   2   v4.0.5be

BLOCK SPHENOINFO
   1   2
   2   2

BLOCK MODSEL
   1   0

BLOCK MINPAR
   3    15.597644
   4    1

BLOCK EXTPAR
   0    1360.0907
   1   -454.62638
   2   -1848.9376
   3    3000
   11   -4299.8869
   12    955.44937
   13    345.01566
   23    180.71221
   25    15.045345
   26    1482.5656
   31    488.37333
   32    488.37333
   33    1543.0349
   34    404.73606
   35    404.73606
   36    1193.7376
   41    5000
   42    5000
   43    1947.0746
   44    5000
   45    5000
   46    1093.8185
   47    5000
   48    5000
   49    1561.8536

BLOCK SMINPUTS
   1    127.90897
   2    1.1663787e-05
   3    0.1184
   4    91.1876
   5    4.18
   6    173.2
   7    1.777
   8    0
   11    0.00051099893
   12    0
   13    0.10565837
   14    0
   21    0.005
   22    0.0025
   23    0.095
   24    1.27

BLOCK GAUGE Q=  1360.0907
   1    0.35536298
   2    0.66519887
   3    1.219778

BLOCK YU Q=  1360.0907
   1   1    8.4028715e-06
   2   2    0.0042686587
   3   3    1.0151344

BLOCK YD Q=  1360.0907
   1   1    0.0002540447
   2   2    0.0048268493
   3   3    0.25193274

BLOCK YE Q=  1360.0907
   1   1    4.4332658e-05
   2   2    0.0091665875
   3   3    0.15416692

BLOCK AU Q=  1360.0907
   1   1    0
   2   2    0
   3   3   -4299.8869

BLOCK AD Q=  1360.0907
   1   1    0
   2   2    0
   3   3    955.44936

BLOCK AE Q=  1360.0907
   1   1    0
   2   2    0
   3   3    345.01565

BLOCK MSOFT Q=  1360.0907
   1   -454.62638
   2   -1848.9376
   3    3000
   21    2132586.5
   22   -24295.569
   31    488.37333
   32    488.37333
   33    1543.0349
   34    404.73606
   35    404.73606
   36    1193.7376
   41    5000
   42    5000
   43    1947.0746
   44    5000
   45    5000
   46    1093.8185
   47    5000
   48    5000
   49    1561.8536

BLOCK MASS
   6    173.2
   23    91.1876
   24    80.429995
   15    1.777
   25    120.65569
   35    1482.6033
   36    1482.5656
   37    1484.9552
   1000001    5021.89
   2000001    5014.9955
   1000002    5021.47
   2000002    5016.2125
   1000003    5021.891
   2000003    5014.9965
   1000004    5021.471
   2000004    5016.2134
   1000005    1570.5295
   2000005    1923.5327
   1000006    942.94595
   2000006    1961.7738
   1000011    508.82536
   2000011    413.20492
   1000012    502.42104
   1000013    508.82431
   2000013    413.1993
   1000014    502.41905
   1000015    1195.8537
   2000015    1555.1222
   1000016    1552.7601
   1000021    3184.7888
   1000022   -181.66624
   1000023    188.89552
   1000025   -456.07476
   1000035   -1891.7856
   1000024    186.37475
   1000037    1891.9565

BLOCK ALPHA
      -0.064679168

BLOCK HMIX Q=  1360.0907
   1    180.71221
   2    15.045345
   3    244.08278
   4    2198000.6

BLOCK STOPMIX
   1   1    0.21547469
   1   2    0.97650943
   2   1   -0.97650943
   2   2    0.21547469

BLOCK SBOTMIX
   1   1    0.0032341749
   1   2    0.99999477
   2   1   -0.99999477
   2   2    0.0032341749

BLOCK STAUMIX
   1   1    0.0042311157
   1   2    0.99999105
   2   1   -0.99999105
   2   2    0.0042311157

BLOCK NMIX
   1   1    0.10692854
   1   2   -0.029440588
   1   3    0.71198479
   1   4    0.69338099
   2   1   -0.052746041
   2   2    0.028581189
   2   3    0.7010859
   2   4   -0.71054875
   3   1   -0.99286563
   3   2   -0.0061048207
   3   3    0.039431671
   3   4    0.11236419
   4   1   -0.001406894
   4   2    0.99913918
   4   3    0.0011651082
   4   4    0.041443511

BLOCK UMIX
   1   1   -0.0016545719
   1   2    0.99999863
   2   1   -0.99999863
   2   2   -0.0016545719

BLOCK VMIX
   1   1    0.058571898
   1   2    0.99828319
   2   1    0.99828319
   2   2   -0.058571898

BLOCK HIGGSBOUNDSINPUTHIGGSCOUPLINGSFERMIONS
       0, 226.36242,3,36,15,15

BLOCK HIGGSBOUNDSINPUTHIGGSCOUPLINGSBOSONS
       0,4,36,21,21,23

BLOCK SPHENOLOWENERGY
   1    0.00031025069
   2    1.5923052e-06
   3    3.525867e-05
   4    2.7938244e-15
   5    1.1934896e-10
   6    2.4979768e-08
   7    9.4040713e-14
   8    4.0174148e-09
   9    8.5197812e-07
   10    9.6214711e-05
   11    0.99386113
   12    0.54318819
   13    19.40561
   14    0
   15    0
   16    0.0021621265
   17    2.2817078e-15
   18    2.4827369e-11
   19    8.2956652e-11
   20   -8.2483176e-15
   21   -3.5267045e-10
   22   -2.1459154e-08
   23    0
   24    0
   25    0
   26    0
   27    0
   28    0
   29    0
   30    0
   31    0
   39    6.2035535e-05
   40    0
   41    0
   42    0

BLOCK FWCOEF Q=  160
   305   4422   0   0   -0.18881911
   305   4422   0   2   -0.17354817
   305   4322   0   2   -0.00014454574
   305   6421   0   0   -0.095227835
   305   6421   0   2   -0.10029639
   305   6321   0   2   -0.00035422571
   3051111   4133   0   0    1.5883058
   3051111   4133   0   2    1.5896827
   3051111   4233   0   2    2.493019e-05
   3051111   4137   0   0   -4.4109979
   3051111   4137   0   2   -4.4099256
   3051111   4237   0   2   -0.00019459167
   3051313   4133   0   0    1.5883058
   3051313   4133   0   2    1.5896815
   3051313   4233   0   2    2.4930082e-05
   3051313   4137   0   0   -4.4109979
   3051313   4137   0   2   -4.4099269
   3051313   4237   0   2   -0.00019459166
   3051212   4137   0   0    1.5053501
   3051212   4137   0   2    1.5051195
   3051212   4237   0   2    4.243697e-05
   3051414   4137   0   0    1.5053501
   3051414   4137   0   2    1.5051195
   3051414   4237   0   2    4.2436988e-05
   3051616   4137   0   0    1.5053501
   3051616   4137   0   2    1.5051203
   3051616   4237   0   2    4.2442325e-05

BLOCK IMFWCOEF Q=  160
   305   4422   0   0    3.858375e-07
   305   4422   0   2   -4.1314737e-06
   305   4322   0   2    4.0239908e-06
   305   6421   0   0    3.3049533e-07
   305   6421   0   2   -6.3129033e-06
   305   6321   0   2    1.7934944e-06
   3051111   4133   0   2   -3.8596083e-06
   3051111   4233   0   2    7.5096141e-07
   3051111   4137   0   2    3.0551567e-05
   3051111   4237   0   2   -5.8725201e-06
   3051313   4133   0   2   -3.8595896e-06
   3051313   4233   0   2    7.5096095e-07
   3051313   4137   0   2    3.0551583e-05
   3051313   4237   0   2   -5.8725215e-06
   3051212   4137   0   2   -6.5991144e-06
   3051212   4237   0   2    1.280781e-06
   3051414   4137   0   2   -6.5991145e-06
   3051414   4237   0   2    1.280781e-06
   3051616   4137   0   2   -6.5836138e-06
   3051616   4237   0   2    1.2807873e-06

DECAY 23  2.4952


DECAY 24  2.085


DECAY 2000011  0.01906286
    0.81040173   2    1000022    11
    0.18959774   2    1000023    11

DECAY 1000011  0.026232156
    0.94982766   2    1000025    11
    0.049810613   2    1000022    11
    0.00035043729   2   -1000024    12

DECAY 2000013  0.019940345
    0.78609327   2    1000022    13
    0.1919282   2    1000023    13
    0.021978534   2   -1000024    14

DECAY 1000013  0.026870364
    0.92722941   2    1000025    13
    0.0608517   2    1000022    13
    0.011576098   2    1000023    13
    0.00034211277   2   -1000024    14

DECAY 1000015  5.4838396
    0.78886629   2    1000025    15
    0.098166914   2   -1000024    16
    0.061974575   2    1000022    15
    0.050992218   2    1000023    15

DECAY 2000015  2.3683121
    0.69552714   2    1000025    15
    0.15480909   2    1000022    15
    0.1484495   2    1000023    15
    0.00061533396   2    1000015    25
    0.00059638679   2    1000015    23

DECAY 1000012  0.047885269
    0.39316522   2    1000025    12
    0.26148212   2    1000022    12
    0.23566186   2    1000024    11
    0.10969081   2    1000023    12

DECAY 1000014  0.048509187
    0.38807815   2    1000025    14
    0.25811735   2    1000022    14
    0.24552524   2    1000024    13
    0.10827927   2    1000023    14

DECAY 1000016  2.401471
    0.65317936   2    1000025    16
    0.31599408   2    1000024    15
    0.020745967   2    1000022    16
    0.0088992323   2    1000023    16
    0.0011813539   2    1000015    24

DECAY 2000001  143.70066
    0.98083324   2    1000021    1
    0.018890402   2    1000025    1
    0.00022221062   2    1000022    1

DECAY 1000001  191.18627
    0.74097438   2    1000021    1
    0.17024853   2   -1000037    2
    0.085025708   2    1000035    1
    0.0033134341   2    1000025    1
    0.00027105651   2    1000022    1
    0.0001662634   2    1000023    1

DECAY 2000003  143.70539
    0.98080169   2    1000021    3
    0.01888981   2    1000025    3
    0.00023035858   2    1000022    3

DECAY 1000003  191.19052
    0.74095845   2    1000021    3
    0.17024482   2   -1000037    4
    0.085023848   2    1000035    3
    0.0033133799   2    1000025    3
    0.00027718871   2    1000022    3
    0.00017221063   2    1000023    3

DECAY 1000005  4.5438299
    0.41345137   2   -1000024    6
    0.21779168   2    1000022    5
    0.20868501   2    1000023    5
    0.16000017   2    1000025    5

DECAY 2000005  138.03974
    0.70606682   2    1000006   -24
    0.2747641   2   -1000024    6
    0.0088887233   2    1000022    5
    0.0085781672   2    1000023    5
    0.001620631   2    1000025    5

DECAY 2000002  152.09287
    0.92754549   2    1000021    2
    0.071410157   2    1000025    2
    0.00083991701   2    1000022    2
    0.00020433194   2    1000023    2

DECAY 1000002  191.17971
    0.74077105   2    1000021    2
    0.16964717   2    1000037    1
    0.084931583   2    1000035    2
    0.0038041921   2    1000025    2
    0.0007910828   2    1000024    1

DECAY 2000004  152.09653
    0.9275234   2    1000021    4
    0.071408581   2    1000025    4
    0.00084563254   2    1000022    4
    0.00021034751   2    1000023    4

DECAY 1000004  191.18389
    0.74075507   2    1000021    4
    0.16964352   2    1000037    3
    0.084929732   2    1000035    4
    0.0038042296   2    1000025    4
    0.00080317325   2    1000024    3

DECAY 1000006  33.443904
    0.50004772   2    1000024    5
    0.23834518   2    1000023    6
    0.2280627   2    1000022    6
    0.033540331   2    1000025    6

DECAY 2000006  156.63223
    0.38850455   2    1000006    25
    0.32567758   2    1000006    23
    0.1281711   2    1000023    6
    0.12322023   2    1000022    6
    0.030909615   2    1000024    5
    0.003011679   2    1000025    6
    0.00049104865   2    1000037    5

DECAY 1000024  7.942514e-09
    0.39382377   3    1000022   -1    2
    0.27750277   3    1000022   -3    4
    0.13129458   3    1000022   -11    12
    0.1309666   3    1000022   -13    14
    0.066412287   3    1000022   -15    16

DECAY 1000037  50.167854
    0.14291465   2    1000014   -13
    0.14291448   2    1000012   -11
    0.14284841   2   -1000013    14
    0.14284832   2   -1000011    12
    0.079951451   2    1000024    25
    0.077113065   2    1000023    24
    0.076296069   2    1000024    23
    0.073151875   2    1000022    24
    0.025722748   2    1000006   -5
    0.017626181   2    1000016   -15
    0.017465126   2   -2000015    16
    0.011969557   2    1000024    36
    0.011945948   2    1000024    35
    0.011656095   2    37    1000023
    0.010635215   2    37    1000022
    0.0047873307   3    1000024    6   -6
    0.0034844959   3    1000023   -5    6
    0.0034798215   3    1000022   -5    6
    0.0029804724   2    1000025    24
    0.00010993955   3    1000025   -5    6

DECAY 1000022 -1


DECAY 1000023  9.1454014e-08
    0.44690223   2    1000022    22
    0.14262291   3    1000022    12   -12
    0.10662903   3    1000022    1   -1
    0.10641488   3    1000022    3   -3
    0.083161132   3    1000022    2   -2
    0.05476948   3    1000022    4   -4
    0.024050235   3    1000022    11   -11
    0.023974894   3    1000022    13   -13
    0.0094544586   3    1000022    15   -15
    0.0005136719   3    1000024    1   -2
    0.0005136719   3   -1000024   -1    2
    0.00017124129   3    1000024    11   -12
    0.00017124129   3   -1000024   -11    12
    0.00016975214   3    1000024    13   -14
    0.00016975214   3   -1000024   -13    14
    0.00014493101   3    1000024    3   -4
    0.00014493101   3   -1000024   -3    4

DECAY 1000025  1.3656791
    0.20612342   2    1000024   -24
    0.20612342   2   -1000024    24
    0.17454623   2    1000023    23
    0.15609294   2    1000023    25
    0.11140074   2    1000022    25
    0.039020987   2    1000022    23
    0.02655383   2    2000013   -13
    0.02655383   2   -2000013    13
    0.026547368   2    2000011   -11
    0.026547368   2   -2000011    11
    0.00023466412   3    1000024    5   -6
    0.00023466412   3   -1000024   -5    6

DECAY 1000035  50.856084
    0.075414365   2    1000024   -24
    0.075414365   2   -1000024    24
    0.070709188   2    1000014   -14
    0.070709188   2   -1000014    14
    0.070709103   2    1000012   -12
    0.070709103   2   -1000012    12
    0.070222469   2    1000013   -13
    0.070222469   2   -1000013    13
    0.070222424   2    1000011   -11
    0.070222424   2   -1000011    11
    0.055018694   2    1000023    25
    0.040311479   2    1000023    23
    0.039889899   2    1000022    25
    0.034350788   2    1000022    23
    0.013065582   2    1000006   -6
    0.013065582   2   -1000006    6
    0.010215239   2    37   -1000024
    0.010215239   2   -37    1000024
    0.0094546101   2    1000022    35
    0.0087146164   2    1000016   -16
    0.0087146164   2   -1000016    16
    0.0085792824   2    2000015   -15
    0.0085792824   2   -2000015    15
    0.0071212064   2    1000023    35
    0.0030572739   2    1000023    36
    0.0029079045   3    1000024    5   -6
    0.0029079045   3   -1000024   -5    6
    0.0025333506   2    1000022    36
    0.0020294979   2    1000025    25
    0.0019353669   3    1000023    6   -6
    0.001803189   3    1000022    6   -6
    0.00080757351   2    1000025    23

DECAY 1000021  205.35304
    0.18138255   2    1000006   -6
    0.18138255   2   -1000006    6
    0.13146619   2    1000005   -5
    0.13146619   2   -1000005    5
    0.09431949   2    2000006   -6
    0.09431949   2   -2000006    6
    0.092617265   2    2000005   -5
    0.092617265   2   -2000005    5
    0.00010652376   3    1000035    6   -6

DECAY 25  0.0034099296
    0.64067564   2   -5    5
    0.16112894   2   -24    24
    0.073307886   2   -15    15
    0.071893492   2    21    21
    0.031186407   2   -4    4
    0.017870909   2    23    23
    0.0023139771   2    22    22
    0.0011268276   2    22    23
    0.00025422729   2   -13    13
    0.0002408668   2   -3    3
    6.6597253e-07   2   -1    1
    1.6072483e-07   2   -2    2
    5.7153727e-09   2   -11    11

DECAY 35  6.7927834
    0.64872186   2   -5    5
    0.10781458   2   -15    15
    0.10065416   2    1000022    1000025
    0.091300732   2    1000023    1000025
    0.034727027   2   -6    6
    0.0066973484   2    1000022    1000022
    0.0061528692   2   -1000024    1000024
    0.0022543652   2    1000023    1000023
    0.00043502435   2    1000025    1000025
    0.00036713439   2   -13    13
    0.00031961974   2    25    25
    0.00024420017   2   -3    3
    0.00012387486   2    1000022    1000023
    4.9135605e-05   2    23    23
    3.9909482e-05   2   -24    24
    1.4317456e-05   2    21    21
    8.2448673e-06   2   -2000011    2000011
    8.2393555e-06   2   -2000013    2000013
    5.9486127e-06   2   -1000011    1000011
    5.9361427e-06   2   -1000013    1000013
    6.7513024e-07   2   -1    1
    5.1291766e-07   2   -4    4
    8.8579902e-09   2   -2000013    1000013
    8.8579902e-09   2   -1000013    2000013
    8.247427e-09   2   -11    11
    6.9015127e-09   2    22    23
    5.9300938e-09   2    22    22
    2.6446161e-12   2   -2    2
    2.0720232e-13   2   -2000011    1000011
    2.0720232e-13   2   -1000011    2000011

DECAY 36  6.6875861
    0.64493904   2   -5    5
    0.10718406   2   -15    15
    0.10079587   2    1000023    1000025
    0.094312232   2    1000022    1000025
    0.035779112   2   -6    6
    0.0065878994   2   -1000024    1000024
    0.0056115507   2    1000022    1000022
    0.0031733722   2    1000023    1000023
    0.00050872929   2    1000022    1000023
    0.0003649873   2   -13    13
    0.00033150625   2    1000025    1000025
    0.00024277085   2   -3    3
    0.00010119579   2    21    21
    6.6381247e-05   2    23    25
    6.7117827e-07   2   -1    1
    4.9811083e-07   2   -4    4
    7.0411784e-08   2    22    22
    2.7681819e-08   2    22    23
    9.251698e-09   2   -2000013    1000013
    9.251698e-09   2   -1000013    2000013
    8.1991806e-09   2   -11    11
    2.5685927e-12   2   -2    2
    2.1639817e-13   2   -2000011    1000011
    2.1639817e-13   2   -1000011    2000011
    1.4658034e-36   2    25    25

DECAY 37  6.5850195
    0.67951671   2   -5    6
    0.20841195   2    1000024    1000025
    0.10971565   2   -15    16
    0.00096173229   2   -5    4
    0.00053952372   2    1000022    1000024
    0.00038788481   2   -13    14
    0.00022587335   2   -3    4
    6.7923721e-05   2    24    25
    5.5446529e-05   2   -3    6
    3.3265583e-05   2   -2000011    1000012
    3.3257091e-05   2   -2000013    1000014
    3.023224e-05   2    1000023    1000024
    1.0465927e-05   2   -3    2
    6.8677633e-06   2   -5    2
    2.5281747e-06   2   -1    6
    6.2529571e-07   2   -1    2
    5.2545804e-08   2   -1    4
    1.2955192e-08   2   -1000013    1000014
    9.0726661e-09   2   -11    12
    1.6084717e-11   2    24    36
    1.4853936e-11   2    24    35
    3.0299938e-13   2   -1000011    1000012

DECAY 6  2.43
    1   2    5    24

DECAY 15 -1
