BLOCK SPINFO
   1   SPheno
   2   v4.0.5be

BLOCK SPHENOINFO
   1   2
   2   2

BLOCK MODSEL
   1   0

BLOCK MINPAR
   3    44.371487
   4   -1

BLOCK EXTPAR
   0    1886.4448
   1   -1600.3486
   2   -748.77557
   3    3000
   11   -3689.0206
   12   -360.78513
   13   -1022.3058
   23   -326.78056
   25    43.732846
   26    1115.4976
   31    868.65657
   32    868.65657
   33    751.4062
   34    1240.8268
   35    1240.8268
   36    1200.2643
   41    5000
   42    5000
   43    1927.5431
   44    5000
   45    5000
   46    1855.4034
   47    5000
   48    5000
   49    923.288

BLOCK SMINPUTS
   1    127.90897
   2    1.1663787e-05
   3    0.1184
   4    91.1876
   5    4.18
   6    173.2
   7    1.777
   8    0
   11    0.00051099893
   12    0
   13    0.10565837
   14    0
   21    0.005
   22    0.0025
   23    0.095
   24    1.27

BLOCK GAUGE Q=  1886.4448
   1    0.35536298
   2    0.66519887
   3    1.219778

BLOCK YU Q=  1886.4448
   1   1    8.3865638e-06
   2   2    0.0042603744
   3   3    1.0131643

BLOCK YD Q=  1886.4448
   1   1    0.00073700772
   2   2    0.014003147
   3   3    0.73088072

BLOCK YE Q=  1886.4448
   1   1    0.00012861324
   2   2    0.026593138
   3   3    0.44725284

BLOCK AU Q=  1886.4448
   1   1    0
   2   2    0
   3   3   -3689.0206

BLOCK AD Q=  1886.4448
   1   1    0
   2   2    0
   3   3   -360.78515

BLOCK AE Q=  1886.4448
   1   1    0
   2   2    0
   3   3   -1022.3058

BLOCK MSOFT Q=  1886.4448
   1   -1600.3486
   2   -748.77557
   3    3000
   21    1200122.6
   22   -44196.381
   31    868.65657
   32    868.65657
   33    751.4062
   34    1240.8268
   35    1240.8268
   36    1200.2643
   41    5000
   42    5000
   43    1927.5431
   44    5000
   45    5000
   46    1855.4034
   47    5000
   48    5000
   49    923.288

BLOCK MASS
   6    173.2
   23    91.1876
   24    80.429995
   15    1.777
   25    124.62551
   35    1114.9573
   36    1115.4976
   37    1119.6661
   1000001    5043.7162
   2000001    5032.9264
   1000002    5043.2568
   2000002    5034.1172
   1000003    5043.7187
   2000003    5032.9298
   1000004    5043.259
   2000004    5034.1176
   1000005    959.31377
   2000005    1945.8769
   1000006    1746.8682
   2000006    2037.1736
   1000011    880.83843
   2000011    1249.4477
   1000012    876.85121
   1000013    880.81606
   2000013    1249.4166
   1000014    876.83253
   1000015    757.98484
   2000015    1198.421
   1000016    754.73631
   1000021    3217.0328
   1000022   -321.23367
   1000023    331.54388
   1000025   -791.93748
   1000035   -1586.9939
   1000024    324.2854
   1000037    792.20293

BLOCK ALPHA
      -0.023033502

BLOCK HMIX Q=  1886.4448
   1   -326.78056
   2    43.732846
   3    243.74395
   4    1244334.8

BLOCK STOPMIX
   1   1    0.57267712
   1   2    0.81978102
   2   1   -0.81978102
   2   2    0.57267712

BLOCK SBOTMIX
   1   1   -0.011872078
   1   2    0.99992952
   2   1   -0.99992952
   2   2   -0.011872078

BLOCK STAUMIX
   1   1   -0.99962057
   1   2    0.027544796
   2   1   -0.027544796
   2   2   -0.99962057

BLOCK NMIX
   1   1    0.024829478
   1   2   -0.12302439
   1   3   -0.70929124
   1   4    0.69365297
   2   1    0.015972624
   2   2   -0.049949272
   2   3    0.70291826
   2   4    0.7093348
   3   1    0.0067447499
   3   2    0.99114179
   3   3   -0.052596673
   3   4    0.12176231
   4   1   -0.99954133
   4   2    0.0028338509
   4   3   -0.006741726
   4   4    0.029387715

BLOCK UMIX
   1   1   -0.075019414
   1   2   -0.99718207
   2   1   -0.99718207
   2   2    0.075019414

BLOCK VMIX
   1   1    0.17374221
   1   2    0.98479117
   2   1    0.98479117
   2   2   -0.17374221

BLOCK HIGGSBOUNDSINPUTHIGGSCOUPLINGSFERMIONS
       0, 1912.5618,3,36,15,15

BLOCK HIGGSBOUNDSINPUTHIGGSCOUPLINGSBOSONS
       0,4,36,21,21,23

BLOCK SPHENOLOWENERGY
   1    0.00039555767
   2    1.5869694e-06
   3    3.5223516e-05
   4    1.1163643e-15
   5    4.7623013e-11
   6    6.1017896e-09
   7    3.7353759e-14
   8    1.5936229e-09
   9    2.1315849e-07
   10    8.6744626e-05
   11    0.89603878
   12    0.54256286
   13    19.304993
   14    0
   15    0
   16    0.0021616845
   17    2.2817129e-15
   18    2.4791281e-11
   19    8.2876807e-11
   20    1.2064286e-14
   21    5.1577868e-10
   22    1.5851758e-07
   23    0
   24    0
   25    0
   26    0
   27    0
   28    0
   29    0
   30    0
   31    0
   39    7.9315018e-05
   40    0
   41    0
   42    0

BLOCK FWCOEF Q=  160
   305   4422   0   0   -0.18881911
   305   4422   0   2   -0.26944974
   305   4322   0   2   -0.00095467908
   305   6421   0   0   -0.095227835
   305   6421   0   2   -0.15414229
   305   6321   0   2   -0.0008246639
   3051111   4133   0   0    1.6006207
   3051111   4133   0   2    1.6012475
   3051111   4233   0   2    0.00015883244
   3051111   4137   0   0   -4.4233128
   3051111   4137   0   2   -4.4187685
   3051111   4237   0   2   -0.0012174864
   3051313   4133   0   0    1.6006207
   3051313   4133   0   2    1.6012428
   3051313   4233   0   2    0.00015881711
   3051313   4137   0   0   -4.4233128
   3051313   4137   0   2   -4.4187732
   3051313   4237   0   2   -0.0012174766
   3051212   4137   0   0    1.5053501
   3051212   4137   0   2    1.5043782
   3051212   4237   0   2    0.0002648205
   3051414   4137   0   0    1.5053501
   3051414   4137   0   2    1.5043782
   3051414   4237   0   2    0.00026482355
   3051616   4137   0   0    1.5053501
   3051616   4137   0   2    1.5043781
   3051616   4237   0   2    0.00026568393

BLOCK IMFWCOEF Q=  160
   305   4422   0   0    3.8576982e-07
   305   4422   0   2    1.7155374e-05
   305   4322   0   2   -6.8645806e-06
   305   6421   0   0    3.3043736e-07
   305   6421   0   2    2.3533944e-05
   305   6321   0   2   -2.6004171e-06
   3051111   4133   0   2   -2.525175e-06
   3051111   4233   0   2    6.628446e-06
   3051111   4137   0   2    1.8145046e-05
   3051111   4237   0   2   -5.0920765e-05
   3051313   4133   0   2   -2.5251463e-06
   3051313   4233   0   2    6.6284236e-06
   3051313   4137   0   2    1.8145123e-05
   3051313   4237   0   2   -5.0920842e-05
   3051212   4137   0   2   -3.6378468e-06
   3051212   4237   0   2    1.1075925e-05
   3051414   4137   0   2   -3.6378472e-06
   3051414   4237   0   2    1.1075925e-05
   3051616   4137   0   2   -3.6396335e-06
   3051616   4237   0   2    1.1075927e-05

DECAY 23  2.4952


DECAY 24  2.085


DECAY 1000011  0.49521603
    0.56875788   2   -1000037    12
    0.28459782   2    1000025    11
    0.070897814   2    1000022    11
    0.065852684   2   -1000024    12
    0.0098937927   2    1000023    11

DECAY 2000011  0.0048626568
    0.69423655   2    1000022    11
    0.28466738   2    1000023    11
    0.021021397   2    1000025    11

DECAY 1000013  0.50421966
    0.55834748   2   -1000037    14
    0.27938943   2    1000025    13
    0.07892817   2    1000022    13
    0.064674109   2   -1000024    14
    0.01866081   2    1000023    13

DECAY 2000013  0.035620585
    0.42682222   2   -1000024    14
    0.31130909   2    1000022    13
    0.24954502   2    1000023    13
    0.0079721725   2    1000013    25
    0.003358421   2    1000025    13
    0.00099307443   2   -1000037    14

DECAY 1000015  2.0731429
    0.51164424   2    1000022    15
    0.46959236   2    1000023    15
    0.018763404   2   -1000024    16

DECAY 2000015  8.5052972
    0.47560423   2   -1000024    16
    0.24070006   2    1000022    15
    0.23753827   2    1000023    15
    0.021771624   2    1000016   -24
    0.010520524   2    1000015    23
    0.010293853   2    1000015    25
    0.0023853609   2   -1000037    16
    0.0011860778   2    1000025    15

DECAY 1000012  0.61767516
    0.40922366   2    1000037    11
    0.28109904   2    1000024    11
    0.20698173   2    1000025    12
    0.086998702   2    1000022    12
    0.015696866   2    1000023    12

DECAY 1000014  0.62665111
    0.40320712   2    1000037    13
    0.29163609   2    1000024    13
    0.2039357   2    1000025    14
    0.085749601   2    1000022    14
    0.01547148   2    1000023    14

DECAY 1000016  2.1651964
    0.97747396   2    1000024    15
    0.0191084   2    1000022    16
    0.0034176429   2    1000023    16

DECAY 2000001  141.23729
    0.98386094   2    1000021    1
    0.016120238   2    1000035    1

DECAY 1000001  204.0303
    0.68656118   2    1000021    1
    0.20584537   2   -1000037    2
    0.10143674   2    1000025    1
    0.002888192   2    1000035    1
    0.0017531261   2    1000022    1
    0.0012146144   2   -1000024    2
    0.00030077996   2    1000023    1

DECAY 2000003  141.27646
    0.98359058   2    1000021    3
    0.016115788   2    1000035    3
    0.00013704646   2   -1000024    4

DECAY 1000003  204.05186
    0.68648995   2    1000021    3
    0.205824   2   -1000037    4
    0.10142633   2    1000025    3
    0.0028878923   2    1000035    3
    0.0018009301   2    1000022    3
    0.0012230638   2   -1000024    4
    0.00034784849   2    1000023    3

DECAY 1000005  15.239036
    0.47773899   2   -1000024    6
    0.26614156   2    1000022    5
    0.25598126   2    1000023    5
    0.00013818752   2    1000025    5

DECAY 2000005  83.832768
    0.42684061   2   -1000024    6
    0.15462391   2   -1000037    6
    0.11867093   2    1000022    5
    0.11530931   2    1000023    5
    0.10963378   2    1000006   -24
    0.070276064   2    1000025    5
    0.0024670706   2    1000005    25
    0.0018015097   2    1000005    23
    0.00037680931   2    1000035    5

DECAY 2000002  148.20201
    0.9384595   2    1000021    2
    0.061471643   2    1000035    2

DECAY 1000002  204.02404
    0.68634816   2    1000021    2
    0.20074754   2    1000037    1
    0.10192252   2    1000025    2
    0.0065146701   2    1000024    1
    0.0027097054   2    1000035    2
    0.0015180724   2    1000022    2
    0.00023933402   2    1000023    2

DECAY 2000004  148.20559
    0.9384367   2    1000021    4
    0.061470153   2    1000035    4

DECAY 1000004  204.04549
    0.68627683   2    1000021    4
    0.20072705   2    1000037    3
    0.10191194   2    1000025    4
    0.0066088015   2    1000024    3
    0.0027094296   2    1000035    4
    0.0015221785   2    1000022    4
    0.00024376328   2    1000023    4

DECAY 1000006  61.966077
    0.38686964   2    1000024    5
    0.24466518   2    1000023    6
    0.22359747   2    1000022    6
    0.095866871   2    1000037    5
    0.046190439   2    1000025    6
    0.0017347623   3    1000022    24    5
    0.0009061765   2    1000005    24
    0.0001464621   2    1000022    4

DECAY 2000006  93.822088
    0.328347   2    1000024    5
    0.22360317   2    1000022    6
    0.22172883   2    1000023    6
    0.10713903   2    1000006    23
    0.0598683   2    1000037    5
    0.031361087   2    1000025    6
    0.020769672   2    1000006    25
    0.0029342624   2    2000005    24
    0.0027117169   2    1000005    24
    0.001536927   2    1000035    6

DECAY 1000024  8.1887247e-10
    0.46397174   3    1000022   -1    2
    0.19989213   3    1000022   -3    4
    0.15470465   3    1000022   -11    12
    0.15378624   3    1000022   -13    14
    0.027645236   3    1000022   -15    16

DECAY 1000037  6.6665038
    0.25858896   2    1000022    24
    0.24983191   2    1000023    24
    0.24628985   2    1000024    23
    0.2327857   2    1000024    25
    0.0043115253   2    1000016   -15
    0.0037024017   2   -1000015    16
    0.001907877   3    1000022   -5    6
    0.0018881826   3    1000023   -5    6
    0.0006146365   3    1000024    6   -6

DECAY 1000022 -1


DECAY 1000023  5.5106162e-07
    0.33273121   2    1000022    22
    0.14173179   3    1000022    12   -12
    0.10596523   3    1000022    1   -1
    0.10586087   3    1000022    3   -3
    0.082643876   3    1000022    2   -2
    0.067483429   3    1000022    4   -4
    0.023911036   3    1000022    11   -11
    0.023874941   3    1000022    13   -13
    0.016582461   3    1000024    1   -2
    0.016582461   3   -1000024   -1    2
    0.015643528   3    1000022    15   -15
    0.014290567   3    1000024    3   -4
    0.014290567   3   -1000024   -3    4
    0.008005462   3    1000022    5   -5
    0.005527888   3    1000024    11   -12
    0.005527888   3   -1000024   -11    12
    0.0055220543   3    1000024    13   -14
    0.0055220543   3   -1000024   -13    14
    0.0041513428   3    1000024    15   -16
    0.0041513428   3   -1000024   -15    16

DECAY 1000025  7.9613173
    0.22659635   2    1000024   -24
    0.22659635   2   -1000024    24
    0.18957907   2    1000023    23
    0.16007444   2    1000022    25
    0.15743426   2    1000023    25
    0.02873382   2    1000022    23
    0.0019884837   3    1000024    5   -6
    0.0019884837   3   -1000024   -5    6
    0.0017969432   2    1000016   -16
    0.0017969432   2   -1000016    16
    0.0015298407   2    1000015   -15
    0.0015298407   2   -1000015    15
    0.00012845866   3    1000022    6   -6
    0.00010974232   3    1000023    6   -6

DECAY 1000035  16.550075
    0.060741109   2    1000024   -24
    0.060741109   2   -1000024    24
    0.047251403   2    1000023    23
    0.044430032   2    2000015   -15
    0.044430032   2   -2000015    15
    0.041122836   2    1000022    25
    0.039981925   2    1000023    25
    0.036414722   2    1000016   -16
    0.036414722   2   -1000016    16
    0.035542396   2    1000015   -15
    0.035542396   2   -1000015    15
    0.034788448   2    2000013   -13
    0.034788448   2   -2000013    13
    0.034782784   2    2000011   -11
    0.034782784   2   -2000011    11
    0.032311994   2    1000005   -5
    0.032311994   2   -1000005    5
    0.029350943   2    1000014   -14
    0.029350943   2   -1000014    14
    0.029349844   2    1000012   -12
    0.029349844   2   -1000012    12
    0.028504932   2    1000013   -13
    0.028504932   2   -1000013    13
    0.028503636   2    1000011   -11
    0.028503636   2   -1000011    11
    0.017719011   2    1000022    23
    0.011916832   2    37   -1000024
    0.011916832   2   -37    1000024
    0.01090746   2    1000023    35
    0.010203994   2    1000022    35
    0.0035928405   2    1000037   -24
    0.0035928405   2   -1000037    24
    0.0031720293   2    1000025    25
    0.0017853211   3    1000024    5   -6
    0.0017853211   3   -1000024   -5    6
    0.0016610465   2    1000022    36
    0.0013512838   2    1000023    36
    0.00092668608   3    1000023    6   -6
    0.00090701553   3    1000022    6   -6
    0.0003678844   2    1000025    23

DECAY 1000021  201.7717
    0.19588316   2    1000005   -5
    0.19588316   2   -1000005    5
    0.10022638   2    1000006   -6
    0.10022638   2   -1000006    6
    0.098236294   2    2000006   -6
    0.098236294   2   -2000006    6
    0.094880752   2    2000005   -5
    0.094880752   2   -2000005    5
    0.010546764   2    1000006   -4
    0.010546764   2   -1000006    4
    0.00021531605   3    1000035    6   -6

DECAY 25  0.0039295314
    0.58694777   2   -5    5
    0.21681681   2   -24    24
    0.07063951   2    21    21
    0.067542412   2   -15    15
    0.027829772   2   -4    4
    0.026051896   2    23    23
    0.0022871613   2    22    22
    0.0014295921   2    22    23
    0.00023418378   2   -13    13
    0.00022013513   2   -3    3
    6.0865147e-07   2   -1    1
    1.4341425e-07   2   -2    2
    5.2647171e-09   2   -11    11

DECAY 35  39.141755
    0.82921558   2   -5    5
    0.12841767   2   -15    15
    0.012137936   2   -1000024    1000037
    0.012137936   2   -1000037    1000024
    0.0098684887   2    1000023    1000025
    0.0042143739   2   -1000024    1000024
    0.0013015339   2    1000022    1000022
    0.00082492039   2    1000022    1000025
    0.00049959128   2   -6    6
    0.00043906084   2   -13    13
    0.00037029253   2    1000022    1000023
    0.00028340096   2   -3    3
    0.00022655853   2    1000023    1000023
    4.0606926e-05   2    21    21
    1.6730711e-05   2    25    25
    2.3068995e-06   2   -24    24
    1.9512559e-06   2    23    23
    7.8357138e-07   2   -1    1
    1.6881378e-07   2    22    23
    9.0862884e-08   2    22    22
    9.8640631e-09   2   -11    11
    6.0809393e-09   2   -4    4
    3.1349338e-14   2   -2    2

DECAY 36  37.914843
    0.82495095   2   -5    5
    0.12773868   2   -15    15
    0.012011741   2    1000022    1000025
    0.011961769   2   -1000024    1000037
    0.011961769   2   -1000037    1000024
    0.0067979914   2   -1000024    1000024
    0.0021804495   2    1000022    1000022
    0.00057311434   2   -6    6
    0.0005087018   2    1000023    1000025
    0.00043675364   2   -13    13
    0.00032874877   2    1000023    1000023
    0.00028193701   2   -3    3
    0.00020282643   2    1000022    1000023
    6.0432557e-05   2    21    21
    2.8362343e-06   2    23    25
    7.7952399e-07   2   -1    1
    2.7708343e-07   2    22    23
    2.2781521e-07   2    22    22
    9.8122204e-09   2   -11    11
    6.3373123e-09   2   -4    4
    3.2661739e-14   2   -2    2
    6.3343983e-40   2    25    25

DECAY 37  34.41654
    0.82422587   2   -5    6
    0.12809218   2   -15    16
    0.016092448   2    1000022    1000037
    0.015044089   2    1000024    1000025
    0.012967352   2    1000023    1000037
    0.0014309506   2    1000023    1000024
    0.0012581136   2   -5    4
    0.00045285353   2   -13    14
    0.00029199656   2   -3    4
    0.00011616763   2    1000022    1000024
    1.3509214e-05   2   -3    2
    8.9842492e-06   2   -5    2
    3.1757676e-06   2    24    25
    1.4056197e-06   2   -3    6
    8.1036658e-07   2   -1    2
    4.5684114e-08   2   -1    6
    3.7818056e-08   2   -1    4
    1.0592291e-08   2   -11    12
    9.1220867e-11   2    24    35
    4.9611906e-11   2    24    36

DECAY 6  2.43
    1   2    5    24

DECAY 15 -1
