BLOCK SPINFO
   1   SPheno
   2   v4.0.5be

BLOCK SPHENOINFO
   1   2
   2   2

BLOCK MODSEL
   1   0

BLOCK MINPAR
   3    40.52952
   4    1

BLOCK EXTPAR
   0    1119.106
   1    604.77845
   2    1085.8186
   3    3000
   11   -3482.9999
   12   -98.340252
   13   -925.02558
   23    1435.5432
   25    39.617487
   26    3695.8433
   31    941.52794
   32    941.52794
   33    1398.4368
   34    1854.7226
   35    1854.7226
   36    1144.062
   41    5000
   42    5000
   43    1341.2721
   44    5000
   45    5000
   46    1165.2633
   47    5000
   48    5000
   49    1124.9343

BLOCK SMINPUTS
   1    127.90897
   2    1.1663787e-05
   3    0.1184
   4    91.1876
   5    4.18
   6    173.2
   7    1.777
   8    0
   11    0.00051099893
   12    0
   13    0.10565837
   14    0
   21    0.005
   22    0.0025
   23    0.095
   24    1.27

BLOCK GAUGE Q=  1119.106
   1    0.35536298
   2    0.66519887
   3    1.219778

BLOCK YU Q=  1119.106
   1   1    8.3870427e-06
   2   2    0.0042606177
   3   3    1.0132221

BLOCK YD Q=  1119.106
   1   1    0.00066769176
   2   2    0.012686144
   3   3    0.66214101

BLOCK YE Q=  1119.106
   1   1    0.00011651709
   2   2    0.02409204
   3   3    0.40518848

BLOCK AU Q=  1119.106
   1   1    0
   2   2    0
   3   3   -3482.9999

BLOCK AD Q=  1119.106
   1   1    0
   2   2    0
   3   3   -98.340248

BLOCK AE Q=  1119.106
   1   1    0
   2   2    0
   3   3   -925.02558

BLOCK MSOFT Q=  1119.106
   1    604.77845
   2    1085.8186
   3    3000
   21    11582945
   22   -2022918.6
   31    941.52794
   32    941.52794
   33    1398.4368
   34    1854.7226
   35    1854.7226
   36    1144.062
   41    5000
   42    5000
   43    1341.2721
   44    5000
   45    5000
   46    1165.2633
   47    5000
   48    5000
   49    1124.9343

BLOCK MASS
   6    173.2
   23    91.1876
   24    80.429995
   15    1.777
   25    121.42283
   35    3693.7335
   36    3695.8433
   37    3695.1651
   1000001    5012.0114
   2000001    5002.814
   1000002    5011.5812
   2000002    5005.7411
   1000003    5012.0235
   2000003    5002.8194
   1000004    5011.5874
   2000004    5005.7423
   1000005    1059.4938
   2000005    1272.7753
   1000006    905.54717
   2000006    1383.0294
   1000011    956.43692
   2000011    1853.5375
   1000012    952.84533
   1000013    956.46257
   2000013    1853.5604
   1000014    952.87748
   1000015    1148.1817
   2000015    1417.8787
   1000016    1409.7907
   1000021    3163.5393
   1000022    606.51954
   1000023    1117.6702
   1000025   -1430.5842
   1000035    1439.7284
   1000024    1117.7715
   1000037    1440.9111

BLOCK ALPHA
      -0.024748831

BLOCK HMIX Q=  1119.106
   1    1435.5432
   2    39.617487
   3    244.28356
   4    13659258

BLOCK STOPMIX
   1   1    0.52582399
   1   2    0.8505934
   2   1   -0.8505934
   2   2    0.52582399

BLOCK SBOTMIX
   1   1    0.22043941
   1   2    0.97540067
   2   1   -0.97540067
   2   2    0.22043941

BLOCK STAUMIX
   1   1    0.14902034
   1   2    0.98883413
   2   1   -0.98883413
   2   2    0.14902034

BLOCK NMIX
   1   1   -0.99906936
   1   2    0.0030720403
   1   3   -0.03917146
   1   4    0.017792427
   2   1   -0.01041536
   2   2   -0.98421629
   2   3    0.13883483
   2   4   -0.10924603
   3   1   -0.015028508
   3   2    0.021266992
   3   3    0.70630022
   3   4    0.70743329
   4   1   -0.039065015
   4   2    0.17566037
   4   3    0.69305879
   4   4   -0.69805936

BLOCK UMIX
   1   1   -0.97937715
   1   2    0.20204058
   2   1    0.20204058
   2   2    0.97937715

BLOCK VMIX
   1   1   -0.98706816
   1   2    0.1603011
   2   1    0.1603011
   2   2    0.98706816

BLOCK HIGGSBOUNDSINPUTHIGGSCOUPLINGSFERMIONS
       0, 1569.5452,3,36,15,15

BLOCK HIGGSBOUNDSINPUTHIGGSCOUPLINGSBOSONS
       0,4,36,21,21,23

BLOCK SPHENOLOWENERGY
   1    0.00026571835
   2    1.6050535e-06
   3    3.5300201e-05
   4    1.9390352e-15
   5    8.2832519e-11
   6    1.7287554e-08
   7    6.5165001e-14
   8    2.7838187e-09
   9    5.8873664e-07
   10    9.6466891e-05
   11    0.99646606
   12    0.5419804
   13    19.362678
   14    0
   15    0
   16    0.0021570583
   17    2.2816561e-15
   18    2.4824188e-11
   19    8.2963561e-11
   20    8.2288954e-15
   21    3.5183851e-10
   22    7.9967525e-08
   23    0
   24    0
   25    0
   26    0
   27    0
   28    0
   29    0
   30    0
   31    0
   39    8.469244e-05
   40    0
   41    0
   42    0

BLOCK FWCOEF Q=  160
   305   4422   0   0   -0.18881911
   305   4422   0   2   -0.12087261
   305   4322   0   2    0.00034091503
   305   6421   0   0   -0.095227835
   305   6421   0   2   -0.057481506
   305   6321   0   2    8.1627264e-05
   3051111   4133   0   0    1.5817974
   3051111   4133   0   2    1.5831859
   3051111   4233   0   2    0.0001992575
   3051111   4137   0   0   -4.4044895
   3051111   4137   0   2   -4.4074931
   3051111   4237   0   2   -0.0015756813
   3051313   4133   0   0    1.5817974
   3051313   4133   0   2    1.5831808
   3051313   4233   0   2    0.00019925689
   3051313   4137   0   0   -4.4044895
   3051313   4137   0   2   -4.4074982
   3051313   4237   0   2   -0.0015756831
   3051212   4137   0   0    1.5053501
   3051212   4137   0   2    1.5060179
   3051212   4237   0   2    0.00034419049
   3051414   4137   0   0    1.5053501
   3051414   4137   0   2    1.5060179
   3051414   4237   0   2    0.00034419052
   3051616   4137   0   0    1.5053501
   3051616   4137   0   2    1.5060182
   3051616   4237   0   2    0.00034419914

BLOCK IMFWCOEF Q=  160
   305   4422   0   0    3.8593601e-07
   305   4422   0   2    2.7174796e-05
   305   4322   0   2    7.6111626e-06
   305   6421   0   0    3.3057972e-07
   305   6421   0   2   -6.6149713e-06
   305   6321   0   2    3.4679101e-06
   3051111   4133   0   2   -1.2534185e-06
   3051111   4233   0   2    4.0464815e-06
   3051111   4137   0   2    9.6624356e-06
   3051111   4237   0   2   -3.2004612e-05
   3051313   4133   0   2   -1.2535186e-06
   3051313   4233   0   2    4.0464735e-06
   3051313   4137   0   2    9.6624138e-06
   3051313   4237   0   2   -3.2004646e-05
   3051212   4137   0   2   -1.9223975e-06
   3051212   4237   0   2    6.9910697e-06
   3051414   4137   0   2   -1.9223997e-06
   3051414   4237   0   2    6.9910697e-06
   3051616   4137   0   2   -1.9171441e-06
   3051616   4237   0   2    6.9910705e-06

DECAY 23  2.4952


DECAY 24  2.085


DECAY 1000011  0.42371872
    1   2    1000022    11

DECAY 2000011  7.4148529
    0.99959681   2    1000022    11
    0.00030160233   2    1000035    11

DECAY 1000013  0.42376744
    1   2    1000022    13

DECAY 2000013  7.4267725
    0.99801414   2    1000022    13
    0.00062736794   2    1000013    25
    0.00051907745   2    1000035    13
    0.00043280339   2   -1000037    14
    0.00028137054   2    1000025    13

DECAY 1000015  2.9636194
    0.99900266   2    1000022    15
    0.00066745735   2   -1000024    16
    0.00032988439   2    1000023    15

DECAY 2000015  5.0855366
    0.31743221   2   -1000024    16
    0.24268809   2    1000022    15
    0.16475788   2    1000023    15
    0.14052141   2    1000015    23
    0.13460039   2    1000015    25

DECAY 1000012  0.42758146
    1   2    1000022    12

DECAY 1000014  0.42763519
    1   2    1000022    14

DECAY 1000016  5.0890911
    0.33232626   2    1000024    15
    0.27319478   2    1000015    24
    0.23332209   2    1000022    16
    0.16115687   2    1000023    16

DECAY 2000001  144.93299
    0.98129512   2    1000021    1
    0.018674072   2    1000022    1

DECAY 1000001  203.46708
    0.70370394   2    1000021    1
    0.1878185   2   -1000024    2
    0.094484258   2    1000023    1
    0.0074489842   2   -1000037    2
    0.0034480043   2    1000022    1
    0.0030437744   2    1000035    1

DECAY 2000003  144.9605
    0.98111274   2    1000021    3
    0.018670712   2    1000022    3

DECAY 1000003  203.48354
    0.70365317   2    1000021    3
    0.18780398   2   -1000024    4
    0.094478241   2    1000023    3
    0.0074557799   2   -1000037    4
    0.0034478508   2    1000022    3
    0.0030753542   2    1000035    3

DECAY 1000005  0.42105023
    0.68748585   2    1000022    5
    0.31251415   2    1000006   -24

DECAY 2000005  43.661251
    0.94346209   2    1000006   -24
    0.032756759   2    1000005    25
    0.01584985   2    1000005    23
    0.0058112032   2    1000023    5
    0.0021200992   2    1000022    5

DECAY 2000002  153.3773
    0.92925781   2    1000021    2
    0.070627585   2    1000022    2

DECAY 1000002  203.4606
    0.70350592   2    1000021    2
    0.19076622   2    1000024    1
    0.095192294   2    1000023    2
    0.0046889155   2    1000037    1
    0.0032176753   2    1000022    2
    0.0025973576   2    1000035    2

DECAY 2000004  153.38041
    0.92923937   2    1000021    4
    0.070626159   2    1000022    4

DECAY 1000004  203.47631
    0.7034545   2    1000021    4
    0.19075465   2    1000024    3
    0.095185145   2    1000023    4
    0.0047520674   2    1000037    3
    0.0032174338   2    1000022    4
    0.0026008437   2    1000035    4

DECAY 1000006  0.39992562
    0.98848776   2    1000022    6
    0.011495711   2    1000022    4

DECAY 2000006  48.791497
    0.64916189   2    1000006    23
    0.2087328   2    1000006    25
    0.082979232   2    1000005    24
    0.029110678   2    2000005    24
    0.015949537   2    1000024    5
    0.010011657   2    1000022    6
    0.0040542129   2    1000023    6

DECAY 1000024  2.3716657
    0.39881718   2    1000006   -5
    0.15099541   2    1000012   -11
    0.15095106   2    1000014   -13
    0.14274158   2   -1000011    12
    0.14269972   2   -1000013    14
    0.013594628   2    1000022    24
    0.00016163911   3    1000022   -5    6

DECAY 1000037  23.642369
    0.50127004   2    1000006   -5
    0.19243349   2   -1000005    6
    0.085354751   2    1000023    24
    0.077430701   2    1000024    23
    0.072270064   2    1000024    25
    0.040166704   2    1000022    24
    0.011201669   2   -1000015    16
    0.0071322845   2    2000006   -5
    0.0034267406   2   -1000011    12
    0.003426451   2   -1000013    14
    0.0022890602   2    1000014   -13
    0.0021826832   2    1000012   -11
    0.00097661187   3    1000022   -5    6
    0.00022850313   3    1000023   -5    6
    0.0001811913   2    1000016   -15

DECAY 1000022 -1


DECAY 1000023  2.3778862
    0.15161701   2    1000006   -6
    0.15161701   2   -1000006    6
    0.073943552   2    1000012   -12
    0.073943552   2   -1000012    12
    0.073917005   2    1000014   -14
    0.073917005   2   -1000014    14
    0.072625734   2    1000011   -11
    0.072625734   2   -1000011    11
    0.072608893   2    1000013   -13
    0.072608893   2   -1000013    13
    0.044203843   2    1000006   -4
    0.044203843   2   -1000006    4
    0.010404506   2    1000022    25
    0.0054015924   2    1000005   -5
    0.0054015924   2   -1000005    5
    0.00089280349   2    1000022    23

DECAY 1000025  35.386966
    0.2956156   2    1000006   -6
    0.2956156   2   -1000006    6
    0.06037326   2    1000024   -24
    0.06037326   2   -1000024    24
    0.057168621   2    1000023    23
    0.053399789   2    1000005   -5
    0.053399789   2   -1000005    5
    0.046482169   2    1000023    25
    0.025551435   2    1000022    23
    0.020016119   2    1000022    25
    0.011460288   2    2000005   -5
    0.011460288   2   -2000005    5
    0.0041210226   2    1000015   -15
    0.0041210226   2   -1000015    15
    0.00024202004   3    1000022    6   -6
    0.00018178559   3    1000024    5   -6
    0.00018178559   3   -1000024   -5    6

DECAY 1000035  29.09582
    0.31299698   2    1000006   -6
    0.31299698   2   -1000006    6
    0.060137657   2    1000005   -5
    0.060137657   2   -1000005    5
    0.057863705   2    1000023    25
    0.056727441   2    1000024   -24
    0.056727441   2   -1000024    24
    0.025728426   2    1000022    25
    0.016307996   2    2000005   -5
    0.016307996   2   -2000005    5
    0.0046813241   2    1000015   -15
    0.0046813241   2   -1000015    15
    0.0042742048   2    1000022    23
    0.0013284258   2    1000012   -12
    0.0013284258   2   -1000012    12
    0.001328286   2    1000014   -14
    0.001328286   2   -1000014    14
    0.00096875698   2    1000023    23
    0.00085707331   2    1000013   -13
    0.00085707331   2   -1000013    13
    0.00081441323   2    1000011   -11
    0.00081441323   2   -1000011    11
    0.00028798725   3    1000022    6   -6
    0.00021162514   3    1000024    5   -6
    0.00021162514   3   -1000024   -5    6

DECAY 1000021  289.77725
    0.12719806   2    1000005   -5
    0.12719806   2   -1000005    5
    0.12162638   2    1000006   -6
    0.12162638   2   -1000006    6
    0.11825746   2    2000006   -6
    0.11825746   2   -2000006    6
    0.11365411   2    2000005   -5
    0.11365411   2   -2000005    5
    0.0169022   2    1000006   -4
    0.0169022   2   -1000006    4
    0.00078566243   3    1000037    5   -6
    0.00078566243   3   -1000037   -5    6
    0.00062950644   3    1000024    5   -6
    0.00062950644   3   -1000024   -5    6
    0.0006204827   3    1000035    6   -6
    0.00059414045   3    1000025    6   -6
    0.00022434198   3    1000025    5   -5
    0.00021576035   3    1000035    5   -5

DECAY 25  0.0033475507
    0.62057009   2   -5    5
    0.17921248   2   -24    24
    0.073170466   2    21    21
    0.071788736   2   -15    15
    0.030902141   2   -4    4
    0.020184751   2    23    23
    0.0024430398   2    22    22
    0.0012431086   2    22    23
    0.000249031   2   -13    13
    0.00023533975   2   -3    3
    6.5069042e-07   2   -1    1
    1.5925332e-07   2   -2    2
    5.5985451e-09   2   -11    11

DECAY 35  106.5785
    0.41288605   2   -5    5
    0.12773607   2   -15    15
    0.079672013   2   -1000006    1000006
    0.07693246   2   -1000024    1000037
    0.07693246   2   -1000037    1000024
    0.061683618   2   -2000006    2000006
    0.051177987   2    1000023    1000025
    0.022695791   2    1000023    1000035
    0.022235401   2   -2000006    1000006
    0.022235401   2   -1000006    2000006
    0.0164776   2    1000022    1000025
    0.01018388   2    1000022    1000035
    0.0047334119   2   -1000024    1000024
    0.0023188945   2    1000023    1000023
    0.0021609458   2   -2000015    1000015
    0.0021609458   2   -1000015    2000015
    0.0019979507   2    1000025    1000035
    0.001180258   2   -1000037    1000037
    0.0010652725   2    1000022    1000023
    0.0010104741   2    1000035    1000035
    0.00064084831   2   -6    6
    0.0004576663   2   -13    13
    0.00025101826   2   -2000005    1000005
    0.00025101826   2   -1000005    2000005
    0.0002460584   2   -1000015    1000015
    0.00020477603   2   -2000015    2000015
    0.00019699385   2   -3    3
    9.2618556e-05   2    1000022    1000022
    5.3830923e-05   2   -1000005    1000005
    4.8065294e-05   2   -2000005    2000005
    4.299402e-05   2    25    25
    3.25962e-05   2    1000025    1000025
    2.937713e-06   2    21    21
    5.4460498e-07   2   -1    1
    5.1483822e-07   2    23    23
    1.1951176e-07   2   -24    24
    4.8539972e-08   2    22    23
    3.5841984e-08   2   -1000011    1000011
    3.5328149e-08   2   -1000013    1000013
    1.864113e-08   2    22    22
    1.8113303e-08   2   -4    4
    1.1799491e-08   2   -2000013    1000013
    1.1799491e-08   2   -1000013    2000013
    1.0278246e-08   2   -11    11
    2.7599744e-13   2   -2000011    1000011
    2.7599744e-13   2   -1000011    2000011
    9.3373268e-14   2   -2    2

DECAY 36  102.77142
    0.39805803   2   -5    5
    0.12318807   2   -15    15
    0.097588254   2   -2000006    1000006
    0.097588254   2   -1000006    2000006
    0.077106253   2   -1000024    1000037
    0.077106253   2   -1000037    1000024
    0.048375185   2    1000023    1000035
    0.02606433   2    1000023    1000025
    0.016016001   2    1000022    1000035
    0.011337825   2    1000022    1000025
    0.0080269845   2   -1000024    1000024
    0.0039345392   2    1000023    1000023
    0.0036117936   2   -1000037    1000037
    0.0029966909   2    1000035    1000035
    0.002477047   2   -2000015    1000015
    0.002477047   2   -1000015    2000015
    0.0014628663   2    1000022    1000023
    0.00075629916   2    1000025    1000035
    0.00044137871   2   -13    13
    0.00036749309   2   -6    6
    0.00031438639   2   -2000005    1000005
    0.00031438639   2   -1000005    2000005
    0.00018995485   2   -3    3
    0.00011241812   2    1000022    1000022
    7.7736566e-05   2    1000025    1000025
    8.7505915e-06   2    21    21
    1.0383285e-06   2    23    25
    5.2514526e-07   2   -1    1
    1.0475166e-07   2    22    23
    5.875241e-08   2    22    22
    1.2143179e-08   2   -2000013    1000013
    1.2143179e-08   2   -1000013    2000013
    1.0214482e-08   2   -4    4
    9.9125262e-09   2   -11    11
    4.4689379e-13   2    23    35
    2.8402993e-13   2   -2000011    1000011
    2.8402993e-13   2   -1000011    2000011
    5.2655454e-14   2   -2    2
    4.8906769e-37   2    25    25

DECAY 37  113.11468
    0.52339762   2   -5    6
    0.10731319   2   -15    16
    0.084526195   2   -2000005    1000006
    0.076342668   2    1000023    1000037
    0.073939967   2    1000024    1000035
    0.073293956   2    1000024    1000025
    0.023639063   2    1000022    1000037
    0.018009549   2   -2000005    2000006
    0.0055858393   2   -1000005    1000006
    0.0044088372   2   -1000015    1000016
    0.0040309781   2   -1000005    2000006
    0.0023076387   2    1000022    1000024
    0.0016642895   2    1000025    1000037
    0.00077523555   2   -5    4
    0.00037939033   2   -13    14
    0.00017781527   2   -3    4
    9.5338165e-05   2   -2000015    1000016
    9.5089028e-05   2    1000035    1000037
    8.3474861e-06   2   -3    2
    5.5359812e-06   2   -5    2
    1.3583704e-06   2   -3    6
    9.4324767e-07   2    24    25
    4.9289457e-07   2   -1    2
    2.9346805e-07   2    1000023    1000024
    1.3241649e-07   2   -1000011    1000012
    1.3173728e-07   2   -1000013    1000014
    5.01707e-08   2   -1    6
    2.3529741e-08   2   -1    4
    2.2318424e-08   2   -2000013    1000014
    8.8739794e-09   2   -11    12
    5.2204191e-13   2   -2000011    1000012
    7.2372728e-14   2    24    35

DECAY 6  2.43
    1   2    5    24

DECAY 15 -1
