BLOCK SPINFO
   1   SPheno
   2   v4.0.5be

BLOCK SPHENOINFO
   1   2
   2   2

BLOCK MODSEL
   1   0

BLOCK MINPAR
   3    57.394812
   4    1

BLOCK EXTPAR
   0    2621.4248
   1    2844.6665
   2    3820.4616
   3    3875.3612
   11   -2761.9503
   12   -1055.3004
   13   -4621.3747
   23    310.27888
   25    57.285094
   26    2924.2487
   31    4751.8323
   32    4751.8323
   33    2679.6649
   34    287.47249
   35    287.47249
   36    1401.4548
   41    3524.5856
   42    3524.5856
   43    3124.4262
   44    1942.5475
   45    1942.5475
   46    2096.6386
   47    4054.4982
   48    4054.4982
   49    2511.8691

BLOCK SMINPUTS
   1    127.90897
   2    1.1663787e-05
   3    0.1184
   4    91.1876
   5    4.18
   6    173.2
   7    1.777
   8    0
   11    0.00051099893
   12    0
   13    0.10565837
   14    0
   21    0.005
   22    0.0025
   23    0.095
   24    1.27

BLOCK GAUGE Q=  2621.4248
   1    0.35536298
   2    0.66519887
   3    1.219778

BLOCK YU Q=  2621.4248
   1   1    8.3856495e-06
   2   2    0.00425991
   3   3    1.0130538

BLOCK YD Q=  2621.4248
   1   1    0.00096529173
   2   2    0.018340543
   3   3    0.95726692

BLOCK YE Q=  2621.4248
   1   1    0.00016845047
   2   2    0.034830214
   3   3    0.5857869

BLOCK AU Q=  2621.4248
   1   1    0
   2   2    0
   3   3   -2761.9526

BLOCK AD Q=  2621.4248
   1   1    0
   2   2    0
   3   3   -1055.2997

BLOCK AE Q=  2621.4248
   1   1    0
   2   2    0
   3   3   -4621.3728

BLOCK MSOFT Q=  2621.4248
   1    2844.6665
   2    3820.4616
   3    3875.3612
   21    8722346.1
   22    12352.791
   31    4751.8323
   32    4751.8323
   33    2679.6649
   34    287.47249
   35    287.47249
   36    1401.4548
   41    3524.5856
   42    3524.5856
   43    3124.4262
   44    1942.5475
   45    1942.5475
   46    2096.6386
   47    4054.4982
   48    4054.4982
   49    2511.8691

BLOCK MASS
   6    173.2
   23    91.1876
   24    80.429995
   15    1.777
   25    120.64127
   35    2922.9259
   36    2924.2487
   37    2924.4953
   1000001    3639.5992
   2000001    4136.5299
   1000002    3638.7022
   2000002    2041.7209
   1000003    3639.5942
   2000003    4136.5204
   1000004    3638.6973
   2000004    2041.7205
   1000005    2574.1722
   2000005    3197.9078
   1000006    2143.7398
   2000006    3205.5514
   1000011    4765.1839
   2000011    338.76016
   1000012    4764.1049
   1000013    4765.1635
   2000013    338.72357
   1000014    4764.0845
   1000015    1391.985
   2000015    2686.0281
   1000016    2684.3042
   1000021    3945.5159
   1000022    308.96768
   1000023   -311.39529
   1000025    2807.7237
   1000035    3825.7063
   1000024    310.12458
   1000037    3825.9081

BLOCK ALPHA
      -0.017467158

BLOCK HMIX Q=  2621.4248
   1    310.27888
   2    57.285094
   3    243.40965
   4    8551230.3

BLOCK STOPMIX
   1   1    0.072234095
   1   2    0.99738771
   2   1   -0.99738771
   2   2    0.072234095

BLOCK SBOTMIX
   1   1    0.012338375
   1   2    0.99992388
   2   1   -0.99992388
   2   2    0.012338375

BLOCK STAUMIX
   1   1    0.0075309988
   1   2    0.99997164
   2   1   -0.99997164
   2   2    0.0075309988

BLOCK NMIX
   1   1    0.012957242
   1   2   -0.015967852
   1   3    0.70845805
   1   4   -0.70545328
   2   1    0.010036999
   2   2   -0.01315918
   2   3   -0.7057469
   2   4   -0.70827072
   3   1    0.99986532
   3   2    0.0011833375
   3   3   -0.0020946511
   3   4    0.016234427
   4   1    0.00084438148
   4   2   -0.99978521
   4   3   -0.002028417
   4   4    0.020608472

BLOCK UMIX
   1   1   -0.0028676923
   1   2    0.99999589
   2   1    0.99999589
   2   2    0.0028676923

BLOCK VMIX
   1   1   -0.029138306
   1   2    0.99957539
   2   1    0.99957539
   2   2    0.029138306

BLOCK HIGGSBOUNDSINPUTHIGGSCOUPLINGSFERMIONS
       0, 3281.582,3,36,15,15

BLOCK HIGGSBOUNDSINPUTHIGGSCOUPLINGSBOSONS
       0,4,36,21,21,23

BLOCK SPHENOLOWENERGY
   1    0.00030511478
   2    1.5934204e-06
   3    3.5265371e-05
   4    3.4351008e-15
   5    1.4673764e-10
   6    3.0380429e-08
   7    1.1518479e-13
   8    4.9204973e-09
   9    1.0326137e-06
   10    9.499497e-05
   11    0.98126167
   12    0.54213513
   13    19.358354
   14    0
   15    0
   16    0.0021581282
   17    2.2816691e-15
   18    2.48063e-11
   19    8.2922904e-11
   20    3.8588032e-17
   21    1.4914837e-12
   22    2.0954988e-08
   23    0
   24    0
   25    0
   26    0
   27    0
   28    0
   29    0
   30    0
   31    0
   39    7.0186663e-05
   40    0
   41    0
   42    0

BLOCK FWCOEF Q=  160
   305   4422   0   0   -0.18881911
   305   4422   0   2   -0.16858209
   305   4322   0   2    0.00034899148
   305   6421   0   0   -0.095227835
   305   6421   0   2   -0.092740679
   305   6321   0   2    1.8223339e-05
   3051111   4133   0   0    1.6129243
   3051111   4133   0   2    1.6138731
   3051111   4233   0   2    0.000339523
   3051111   4137   0   0   -4.4356164
   3051111   4137   0   2   -4.4353064
   3051111   4237   0   2   -0.0025615979
   3051313   4133   0   0    1.6129243
   3051313   4133   0   2    1.6138721
   3051313   4233   0   2    0.00033951903
   3051313   4137   0   0   -4.4356164
   3051313   4137   0   2   -4.4353074
   3051313   4237   0   2   -0.0025616007
   3051212   4137   0   0    1.5053501
   3051212   4137   0   2    1.5052832
   3051212   4237   0   2    0.00055563367
   3051414   4137   0   0    1.5053501
   3051414   4137   0   2    1.5052833
   3051414   4237   0   2    0.00055563395
   3051616   4137   0   0    1.5053501
   3051616   4137   0   2    1.5052831
   3051616   4237   0   2    0.00055571425

BLOCK IMFWCOEF Q=  160
   305   4422   0   0    3.8583808e-07
   305   4422   0   2    1.0338764e-05
   305   4322   0   2    8.5935989e-06
   305   6421   0   0    3.3049583e-07
   305   6421   0   2   -1.1398915e-06
   305   6321   0   2    3.3981964e-06
   3051111   4133   0   2    6.7775267e-07
   3051111   4233   0   2    7.5614237e-06
   3051111   4137   0   2   -4.4053305e-06
   3051111   4237   0   2   -5.7062205e-05
   3051313   4133   0   2    6.7774241e-07
   3051313   4233   0   2    7.5613766e-06
   3051313   4137   0   2   -4.4053389e-06
   3051313   4237   0   2   -5.7062279e-05
   3051212   4137   0   2    9.6136963e-07
   3051212   4237   0   2    1.2377303e-05
   3051414   4137   0   2    9.6136954e-07
   3051414   4237   0   2    1.2377303e-05
   3051616   4137   0   2    9.5849906e-07
   3051616   4237   0   2    1.2377303e-05

DECAY 23  2.4952


DECAY 24  2.085


DECAY 2000011  1.2212266e-05
    0.66191213   2    1000022    11
    0.33767734   2    1000023    11
    0.00041053005   2   -1000024    12

DECAY 1000011  10.508779
    0.50410539   2   -1000037    12
    0.25181554   2    1000035    11
    0.24376402   2    1000025    11
    0.00016207245   2    1000022    11
    0.00012043361   2    1000023    11

DECAY 2000013  0.00043936666
    0.48670192   2   -1000024    14
    0.28138259   2    1000022    13
    0.23191549   2    1000023    13

DECAY 1000013  10.622736
    0.49867987   2   -1000037    14
    0.24910535   2    1000035    13
    0.24114579   2    1000025    13
    0.0055485148   2    1000022    13
    0.0054654601   2    1000023    13

DECAY 1000015  17.16675
    0.49995198   2   -1000024    16
    0.25128363   2    1000022    15
    0.24876439   2    1000023    15

DECAY 2000015  18.138433
    0.49391743   2    1000022    15
    0.49027404   2    1000023    15
    0.0080003608   2    1000015    23
    0.0077901814   2    1000015    25

DECAY 1000012  10.519886
    0.50220938   2    1000037    11
    0.2515332   2    1000035    12
    0.24118744   2    1000025    12
    0.0033564206   2    1000024    11
    0.0010356177   2    1000022    12
    0.00067793899   2    1000023    12

DECAY 1000014  10.633574
    0.49682243   2    1000037    13
    0.24883512   2    1000035    14
    0.23860559   2    1000025    14
    0.014041612   2    1000024    13
    0.001024541   2    1000022    14
    0.00067068792   2    1000023    14

DECAY 1000016  18.157912
    0.98349078   2    1000024    15
    0.015960028   2    1000015    24
    0.00033194921   2    1000022    16
    0.00021723844   2    1000023    16

DECAY 1000001  0.091276303
    0.90001515   2    1000025    1
    0.058140691   2    1000022    1
    0.038999219   2    1000023    1
    0.0028449376   2   -1000024    2

DECAY 2000001  3.3300261
    0.79813644   2    1000021    1
    0.20163379   2    1000025    1
    0.00012656589   2    1000022    1

DECAY 1000003  0.11650616
    0.70510699   2    1000025    3
    0.14868215   2    1000022    3
    0.13287725   2    1000023    3
    0.013333609   2   -1000024    4

DECAY 2000003  3.3843727
    0.78524488   2    1000021    3
    0.19839394   2    1000025    3
    0.0080874546   2   -1000024    4
    0.0041728498   2    1000022    3
    0.0040958237   2    1000023    3

DECAY 1000005  90.710958
    0.49756249   2   -1000024    6
    0.25232761   2    1000022    5
    0.25010712   2    1000023    5

DECAY 2000005  140.25953
    0.45374688   2   -1000024    6
    0.20469633   2    1000022    5
    0.20320831   2    1000023    5
    0.13691765   2    1000006   -24
    0.00075555697   2    1000005    25
    0.00050982166   2    1000005    23
    0.00016544693   2    1000025    5

DECAY 2000002  0.001169055
    0.62515466   2    1000022    2
    0.37484301   2    1000023    2

DECAY 1000002  0.11607597
    0.72556177   2    1000025    2
    0.23147758   2    1000024    1
    0.025377937   2    1000022    2
    0.017582712   2    1000023    2

DECAY 2000004  0.0025745291
    0.41982122   2    1000022    4
    0.30716415   2    1000023    4
    0.27301463   2    1000024    3

DECAY 1000004  0.14129861
    0.59603698   2    1000025    4
    0.35951759   2    1000024    3
    0.025406746   2    1000022    4
    0.019038674   2    1000023    4

DECAY 1000006  83.287759
    0.50438729   2    1000024    5
    0.2486978   2    1000023    6
    0.24698954   2    1000022    6

DECAY 2000006  143.99956
    0.39745037   2    1000024    5
    0.22231492   2    1000023    6
    0.22051844   2    1000022    6
    0.091126722   2    1000006    25
    0.067437215   2    1000006    23
    0.0010297916   2    1000005    24
    0.00012254494   2    1000025    6

DECAY 1000024  1.7559116e-12
    0.63819002   2    1000022    211
    0.18453268   3    1000022   -11    12
    0.17727729   3    1000022   -13    14

DECAY 1000037  59.211675
    0.14258168   2    1000024    25
    0.13559778   2    1000023    24
    0.13509515   2    1000024    23
    0.13451949   2    1000022    24
    0.075789262   2    2000006   -5
    0.073255953   2    1000016   -15
    0.073133964   2   -2000015    16
    0.073115077   2   -2000005    6
    0.023626887   2    37    1000023
    0.023200644   2    37    1000022
    0.023153303   2    1000024    35
    0.023093057   2    1000024    36
    0.014533995   3    1000024    6   -6
    0.008958676   3    1000022   -5    6
    0.0089175323   3    1000023   -5    6
    0.0077699866   2    1000004   -3
    0.0077695867   2    1000002   -1
    0.0077038539   2   -1000003    4
    0.0077036375   2   -1000001    2
    0.00031357027   2    1000006   -5
    0.00013224585   2    1000025    24

DECAY 1000022 -1


DECAY 1000023  2.6191056e-09
    0.91762706   2    1000022    22
    0.022503493   3    1000022    12   -12
    0.016826876   3    1000022    1   -1
    0.016530509   3    1000022    3   -3
    0.013123928   3    1000022    2   -2
    0.0037971921   3    1000022    11   -11
    0.0037000885   3    1000022    13   -13
    0.0017787892   3    1000024    1   -2
    0.0017787892   3   -1000024   -1    2
    0.00059298704   3    1000024    11   -12
    0.00059298704   3   -1000024   -11    12
    0.00057364934   3    1000024    13   -14
    0.00057364934   3   -1000024   -13    14

DECAY 1000025  55.321654
    0.1237891   2    2000013   -13
    0.1237891   2   -2000013    13
    0.12378831   2    2000011   -11
    0.12378831   2   -2000011    11
    0.072505468   2    1000015   -15
    0.072505468   2   -1000015    15
    0.037738326   2    2000002   -2
    0.037738326   2   -2000002    2
    0.037738302   2    2000004   -4
    0.037738302   2   -2000004    4
    0.035328653   2    1000024   -24
    0.035328653   2   -1000024    24
    0.027430733   2    1000006   -6
    0.027430733   2   -1000006    6
    0.022101223   2    1000023    23
    0.019787841   2    1000022    25
    0.018630953   2    1000023    25
    0.013050076   2    1000022    23
    0.0018801812   3    1000024    5   -6
    0.0018801812   3   -1000024   -5    6
    0.0013177478   3    1000022    6   -6
    0.0013009938   3    1000023    6   -6
    0.001079383   2    1000005   -5
    0.001079383   2   -1000005    5
    0.00023455548   2    1000016   -16
    0.00023455548   2   -1000016    16
    0.00023039777   2    2000015   -15
    0.00023039777   2   -2000015    15
    0.00013678136   3    1000023    5   -5
    0.00013447514   3    1000022    5   -5

DECAY 1000035  60.509089
    0.13222881   2    1000024   -24
    0.13222881   2   -1000024    24
    0.082949594   2    1000022    25
    0.079298873   2    1000023    23
    0.078068864   2    1000023    25
    0.052999629   2    1000022    23
    0.037878813   2    2000005   -5
    0.037878813   2   -2000005    5
    0.035880925   2    1000016   -16
    0.035880925   2   -1000016    16
    0.035726239   2    2000015   -15
    0.035726239   2   -2000015    15
    0.034939575   2    2000006   -6
    0.034939575   2   -2000006    6
    0.022565853   2    37   -1000024
    0.022565853   2   -37    1000024
    0.016407343   2    1000023    35
    0.015395351   2    1000022    35
    0.0088051935   3    1000024    5   -6
    0.0088051935   3   -1000024   -5    6
    0.007353768   2    1000022    36
    0.007018   3    1000022    6   -6
    0.0069848297   3    1000023    6   -6
    0.0067697122   2    1000023    36
    0.0037942564   2    1000004   -4
    0.0037942564   2   -1000004    4
    0.003794153   2    1000002   -2
    0.003794153   2   -1000002    2
    0.0037612053   2    1000003   -3
    0.0037612053   2   -1000003    3
    0.0037610075   2    1000001   -1
    0.0037610075   2   -1000001    1
    0.00015048545   2    1000006   -6
    0.00015048545   2   -1000006    6
    0.00014248117   2    1000025    25

DECAY 1000021  258.6759
    0.12102851   2    2000004   -4
    0.12102851   2   -2000004    4
    0.12102848   2    2000002   -2
    0.12102848   2   -2000002    2
    0.10986873   2    1000006   -6
    0.10986873   2   -1000006    6
    0.07445602   2    1000005   -5
    0.07445602   2   -1000005    5
    0.026571491   2    2000005   -5
    0.026571491   2   -2000005    5
    0.026438211   2    2000006   -6
    0.026438211   2   -2000006    6
    0.0050440049   2    1000004   -4
    0.0050440049   2   -1000004    4
    0.0050438882   2    1000002   -2
    0.0050438882   2   -1000002    2
    0.0050157839   2    1000003   -3
    0.0050157839   2   -1000003    3
    0.0050156255   2    1000001   -1
    0.0050156255   2   -1000001    1
    0.00045145734   2    1000006   -4
    0.00045145734   2   -1000006    4

DECAY 25  0.003391344
    0.63715725   2   -5    5
    0.16174203   2   -24    24
    0.074931026   2    21    21
    0.072847182   2   -15    15
    0.031455746   2   -4    4
    0.017933751   2    23    23
    0.0023058473   2    22    22
    0.001134339   2    22    23
    0.00025272255   2   -13    13
    0.00023927219   2   -3    3
    6.6156353e-07   2   -1    1
    1.6211339e-07   2   -2    2
    5.6815443e-09   2   -11    11

DECAY 35  122.39941
    0.83246584   2   -5    5
    0.16610022   2   -15    15
    0.00057522612   2   -13    13
    0.00031302017   2   -3    3
    0.00027704942   2   -6    6
    0.00016330393   2   -1000024    1000024
    4.658728e-05   2    1000022    1000022
    3.2591718e-05   2    1000023    1000023
    1.2103441e-05   2   -1000015    1000015
    1.1556833e-05   2    21    21
    1.1856589e-06   2    1000022    1000023
    8.6535236e-07   2   -1    1
    2.7234228e-07   2    25    25
    8.7032127e-08   2    23    23
    2.7198413e-08   2   -24    24
    1.4502115e-08   2   -1000011    1000011
    1.421487e-08   2   -1000013    1000013
    1.2919423e-08   2   -11    11
    7.8641829e-09   2    22    22
    5.835397e-09   2    22    23
    3.6953341e-09   2   -4    4
    1.9049209e-14   2   -2    2

DECAY 36  111.48703
    0.83243934   2   -5    5
    0.16610352   2   -15    15
    0.00057523723   2   -13    13
    0.000313002   2   -3    3
    0.00026816952   2   -6    6
    0.00018912328   2   -1000024    1000024
    5.7420836e-05   2    1000022    1000022
    3.4964101e-05   2    1000023    1000023
    1.7517386e-05   2    21    21
    8.6530089e-07   2   -1    1
    6.2511857e-07   2    1000022    1000023
    1.5278224e-07   2    23    25
    2.7733205e-08   2    22    22
    1.7075364e-08   2    22    23
    1.2919626e-08   2   -11    11
    3.5216042e-09   2   -4    4
    3.9910906e-14   2    23    35
    1.8153215e-14   2   -2    2
    1.8389745e-39   2    25    25

DECAY 37  125.30177
    0.84412432   2   -5    6
    0.15375675   2   -15    16
    0.001251707   2   -5    4
    0.00054358503   2   -13    14
    0.00028333556   2   -3    4
    1.3266798e-05   2   -3    2
    1.1882809e-05   2    1000023    1000024
    8.9384804e-06   2   -5    2
    4.4037302e-06   2    1000022    1000024
    8.1876305e-07   2   -3    6
    7.8609097e-07   2   -1    2
    1.3606127e-07   2    24    25
    3.6867688e-08   2   -1    4
    1.83238e-08   2   -1    6
    1.271451e-08   2   -11    12
    1.0345203e-13   2    24    35

DECAY 6  2.43
    1   2    5    24

DECAY 15 -1
