BLOCK SPINFO
   1   SPheno
   2   v4.0.5be

BLOCK SPHENOINFO
   1   2
   2   2

BLOCK MODSEL
   1   0

BLOCK MINPAR
   3    38.827157
   4    1

BLOCK EXTPAR
   0    3309.325
   1    3893.3798
   2   -1379.3813
   3    4362.1745
   11   -5610.1841
   12   -6309.8819
   13   -1675.213
   23    77.18529
   25    37.792902
   26    2407.3622
   31    3399.7106
   32    3399.7106
   33    1849.6629
   34    1767.2739
   35    1767.2739
   36    3023.1045
   41    2896.1595
   42    2896.1595
   43    3393.2557
   44    4196.4803
   45    4196.4803
   46    3143.7526
   47    868.16698
   48    868.16698
   49    4446.4196

BLOCK SMINPUTS
   1    127.90897
   2    1.1663787e-05
   3    0.1184
   4    91.1876
   5    4.18
   6    173.2
   7    1.777
   8    0
   11    0.00051099893
   12    0
   13    0.10565837
   14    0
   21    0.005
   22    0.0025
   23    0.095
   24    1.27

BLOCK GAUGE Q=  3309.325
   1    0.35536298
   2    0.66519887
   3    1.219778

BLOCK YU Q=  3309.325
   1   1    8.3873067e-06
   2   2    0.0042607518
   3   3    1.013254

BLOCK YD Q=  3309.325
   1   1    0.00063696126
   2   2    0.012102264
   3   3    0.63166597

BLOCK YE Q=  3309.325
   1   1    0.0001111544
   2   2    0.022983204
   3   3    0.38653968

BLOCK AU Q=  3309.325
   1   1    0
   2   2    0
   3   3   -5610.184

BLOCK AD Q=  3309.325
   1   1    0
   2   2    0
   3   3   -6309.8819

BLOCK AE Q=  3309.325
   1   1    0
   2   2    0
   3   3   -1675.213

BLOCK MSOFT Q=  3309.325
   1    3893.3798
   2   -1379.3813
   3    4362.1745
   21    5871460.8
   22    185146.75
   31    3399.7106
   32    3399.7106
   33    1849.6629
   34    1767.2739
   35    1767.2739
   36    3023.1045
   41    2896.1595
   42    2896.1595
   43    3393.2557
   44    4196.4803
   45    4196.4803
   46    3143.7526
   47    868.16698
   48    868.16698
   49    4446.4196

BLOCK MASS
   6    173.2
   23    91.1876
   24    80.429995
   15    1.777
   25    125.8174
   35    2406.6014
   36    2407.3622
   37    2408.3065
   1000001    3046.9674
   2000001    1072.5379
   1000002    3045.8955
   2000002    4318.2715
   1000003    3046.9639
   2000003    1072.5246
   1000004    3045.892
   2000004    4318.2708
   1000005    3459.7518
   2000005    4534.3423
   1000006    3127.5409
   2000006    3501.6751
   1000011    3410.1682
   2000011    1789.5464
   1000012    3408.8345
   1000013    3410.1488
   2000013    1789.4906
   1000014    3408.8135
   1000015    1856.7702
   2000015    3027.2274
   1000016    1854.7616
   1000021    4430.4761
   1000022   -92.546017
   1000023    96.138239
   1000025   -1431.4195
   1000035    3843.4348
   1000024    94.647017
   1000037    1431.5138

BLOCK ALPHA
      -0.02585072

BLOCK HMIX Q=  3309.325
   1    77.18529
   2    37.792902
   3    243.12878
   4    5795393

BLOCK STOPMIX
   1   1    0.33595155
   1   2    0.94187927
   2   1   -0.94187927
   2   2    0.33595155

BLOCK SBOTMIX
   1   1    0.99999802
   1   2    0.0019889567
   2   1   -0.0019889567
   2   2    0.99999802

BLOCK STAUMIX
   1   1    0.99999891
   1   2    0.0014786929
   2   1   -0.0014786929
   2   2    0.99999891

BLOCK NMIX
   1   1   -0.0076339868
   1   2   -0.040176198
   1   3    0.71374505
   1   4    0.69921069
   2   1    0.0086180726
   2   2    0.038304784
   2   3    0.70040291
   2   4   -0.71266699
   3   1   -0.00046862851
   3   2    0.9984581
   3   3    0.0018495328
   3   4    0.055477667
   4   1    0.99993361
   4   2   -0.00016892326
   4   3   -0.00058657505
   4   4    0.011506343

BLOCK UMIX
   1   1   -0.002630882
   1   2    0.99999654
   2   1   -0.99999654
   2   2   -0.002630882

BLOCK VMIX
   1   1    0.078545699
   1   2    0.99691051
   2   1    0.99691051
   2   2   -0.078545699

BLOCK HIGGSBOUNDSINPUTHIGGSCOUPLINGSFERMIONS
       0, 1428.3035,3,36,15,15

BLOCK HIGGSBOUNDSINPUTHIGGSCOUPLINGSBOSONS
       0,4,36,21,21,23

BLOCK SPHENOLOWENERGY
   1    0.0003169289
   2    1.5903323e-06
   3    3.5244987e-05
   4    3.4014686e-15
   5    1.4530471e-10
   6    3.0293792e-08
   7    1.1384455e-13
   8    4.8633668e-09
   9    1.0275558e-06
   10    9.5366735e-05
   11    0.98510187
   12    0.54192559
   13    19.352776
   14    0
   15    0
   16    0.0021572522
   17    2.2816593e-15
   18    2.4800284e-11
   19    8.2894841e-11
   20   -1.69711e-15
   21   -7.2556521e-11
   22   -3.1558301e-08
   23    0
   24    0
   25    0
   26    0
   27    0
   28    0
   29    0
   30    0
   31    0
   39    6.643852e-05
   40    0
   41    0
   42    0

BLOCK FWCOEF Q=  160
   305   4422   0   0   -0.18881911
   305   4422   0   2   -0.18306525
   305   4322   0   2    0.00014266421
   305   6421   0   0   -0.095227835
   305   6421   0   2   -0.099953967
   305   6321   0   2   -8.0633645e-05
   3051111   4133   0   0    1.6203186
   3051111   4133   0   2    1.6204603
   3051111   4233   0   2    0.00029074715
   3051111   4137   0   0   -4.4430107
   3051111   4137   0   2   -4.4406546
   3051111   4237   0   2   -0.0021722631
   3051313   4133   0   0    1.6203186
   3051313   4133   0   2    1.6204597
   3051313   4233   0   2    0.00029074616
   3051313   4137   0   0   -4.4430107
   3051313   4137   0   2   -4.4406552
   3051313   4237   0   2   -0.0021722635
   3051212   4137   0   0    1.5053501
   3051212   4137   0   2    1.5048447
   3051212   4237   0   2    0.00047039767
   3051414   4137   0   0    1.5053501
   3051414   4137   0   2    1.5048447
   3051414   4237   0   2    0.00047039779
   3051616   4137   0   0    1.5053501
   3051616   4137   0   2    1.5048448
   3051616   4237   0   2    0.00047043287

BLOCK IMFWCOEF Q=  160
   305   4422   0   0    3.8582469e-07
   305   4422   0   2   -1.1115419e-05
   305   4322   0   2    5.8483863e-06
   305   6421   0   0    3.3048436e-07
   305   6421   0   2   -1.0436218e-05
   305   6321   0   2    2.7949331e-06
   3051111   4133   0   2   -2.0037117e-06
   3051111   4233   0   2    6.1546525e-06
   3051111   4137   0   2    1.6756743e-05
   3051111   4237   0   2   -4.5984979e-05
   3051313   4133   0   2   -2.0037099e-06
   3051313   4233   0   2    6.1546452e-06
   3051313   4137   0   2    1.6756755e-05
   3051313   4237   0   2   -4.5984997e-05
   3051212   4137   0   2   -3.541766e-06
   3051212   4237   0   2    9.9579252e-06
   3051414   4137   0   2   -3.5417659e-06
   3051414   4237   0   2    9.9579252e-06
   3051616   4137   0   2   -3.5396403e-06
   3051616   4237   0   2    9.9579232e-06

DECAY 23  2.4952


DECAY 24  2.085


DECAY 2000011  0.0011863383
    0.55987241   2    1000023    11
    0.43954292   2    1000022    11
    0.00036871392   2   -1000024    12
    0.00021595879   2    1000025    11

DECAY 1000011  30.579423
    0.66620195   2   -1000037    12
    0.33192904   2    1000025    11
    0.00095990793   2    1000022    11
    0.00090231255   2    1000023    11

DECAY 2000013  0.038586801
    0.48463355   2   -1000024    14
    0.26045406   2    1000022    13
    0.2549051   2    1000023    13

DECAY 1000013  30.614887
    0.66542319   2   -1000037    14
    0.33154103   2    1000025    13
    0.0015542143   2    1000022    13
    0.0014745714   2    1000023    13

DECAY 1000015  9.5510922
    0.29463604   2    1000022    15
    0.28348182   2    1000023    15
    0.28154007   2   -1000037    16
    0.14032133   2    1000025    15

DECAY 2000015  17.98301
    0.49939529   2   -1000024    16
    0.25443694   2    1000022    15
    0.24507891   2    1000023    15
    0.00055509446   2    1000016   -24
    0.00027586357   2    1000015    23
    0.00024568954   2    1000015    25

DECAY 1000012  30.606229
    0.66103645   2    1000037    11
    0.3317302   2    1000025    12
    0.0060396018   2    1000024    11
    0.00063785836   2    1000022    12
    0.00055589064   2    1000023    12

DECAY 1000014  30.641646
    0.66026483   2    1000037    13
    0.33134297   2    1000025    14
    0.0071998364   2    1000024    13
    0.00063711714   2    1000022    14
    0.00055524468   2    1000023    14

DECAY 1000016  9.588977
    0.58243499   2    1000024    15
    0.27662891   2    1000037    15
    0.13887047   2    1000025    16
    0.0011038733   2    1000022    16
    0.00096175279   2    1000023    16

DECAY 2000001  9.5186112e-05
    0.50363719   2    1000023    1
    0.4068215   2    1000022    1
    0.089541308   2   -1000024    2

DECAY 1000001  24.447934
    0.66624672   2   -1000037    2
    0.33217946   2    1000025    1
    0.00082553489   2    1000022    1
    0.00074070116   2    1000023    1

DECAY 2000003  0.0062319004
    0.49371537   2   -1000024    4
    0.2571971   2    1000022    3
    0.24908753   2    1000023    3

DECAY 1000003  24.457805
    0.66597623   2   -1000037    4
    0.33204456   2    1000025    3
    0.0010092714   2    1000022    3
    0.00091763556   2    1000023    3

DECAY 1000005  146.72903
    0.47551974   2   -1000024    6
    0.14526297   2   -1000037    6
    0.12094398   2    1000006   -24
    0.095383076   2    1000022    5
    0.09180392   2    1000023    5
    0.071086304   2    1000025    5

DECAY 2000005  72.802062
    0.49252278   2   -1000024    6
    0.25161577   2    1000022    5
    0.24235208   2    1000023    5
    0.010072797   2    1000021    5
    0.0027556736   2    1000035    5
    0.00028819169   2    1000005    25
    0.00019920321   2    2000006   -24
    0.00012432071   2    1000005    23

DECAY 1000002  24.497575
    0.66030329   2    1000037    1
    0.33114685   2    1000025    2
    0.0067405916   2    1000024    1
    0.00094239728   2    1000022    2
    0.00086687343   2    1000023    2

DECAY 2000002  0.4177498
    0.9969391   2    1000035    2
    0.0017128022   2    1000023    2
    0.0013440695   2    1000022    2

DECAY 1000004  24.507436
    0.66003599   2    1000037    3
    0.33101247   2    1000025    4
    0.0070983286   2    1000024    3
    0.00096392911   2    1000022    4
    0.00088928377   2    1000023    4

DECAY 2000004  0.42086011
    0.98956503   2    1000035    4
    0.0036793495   2    1000024    3
    0.0035803414   2    1000023    4
    0.0031441401   2    1000022    4

DECAY 1000006  124.4502
    0.4576755   2    1000024    5
    0.2544819   2    1000023    6
    0.24470232   2    1000022    6
    0.027696621   2    1000037    5
    0.013688   2    1000025    6
    0.0017551039   3    1000022    24    5

DECAY 2000006  154.62563
    0.23723804   2    1000023    6
    0.22867903   2    1000022    6
    0.22717704   2    1000024    5
    0.11170901   2    1000037    5
    0.071387456   2    1000006    23
    0.067979212   2    1000006    25
    0.055830214   2    1000025    6

DECAY 1000024  6.8343038e-11
    0.56746109   3    1000022   -1    2
    0.1891598   3    1000022   -11    12
    0.18642481   3    1000022   -13    14
    0.05672243   3    1000022   -3    4
    0.000231875   3    1000022   -15    16

DECAY 1000037  12.447622
    0.24843996   2    1000023    24
    0.24593459   2    1000024    25
    0.24282637   2    1000024    23
    0.23922174   2    1000022    24
    0.0087522305   3    1000024    6   -6
    0.0073909484   3    1000023   -5    6
    0.0072605045   3    1000022   -5    6

DECAY 1000022 -1


DECAY 1000023  4.2295019e-09
    0.66686557   2    1000022    22
    0.094310184   3    1000022    12   -12
    0.070521815   3    1000022    1   -1
    0.069951173   3    1000022    3   -3
    0.055001964   3    1000022    2   -2
    0.015915075   3    1000022    11   -11
    0.015712561   3    1000022    13   -13
    0.0073493467   3    1000022    4   -4
    0.0012986622   3    1000024    1   -2
    0.0012986622   3   -1000024   -1    2
    0.00043289747   3    1000024    11   -12
    0.00043289747   3   -1000024   -11    12
    0.0004241114   3    1000024    13   -14
    0.0004241114   3   -1000024   -13    14

DECAY 1000025  12.919924
    0.23593557   2    1000024   -24
    0.23593557   2   -1000024    24
    0.14425735   2    1000023    25
    0.12723051   2    1000023    23
    0.12453907   2    1000022    25
    0.10724161   2    1000022    23
    0.0081404203   3    1000024    5   -6
    0.0081404203   3   -1000024   -5    6
    0.0042640312   3    1000023    6   -6
    0.0040996262   3    1000022    6   -6

DECAY 1000035  61.765041
    0.095887244   2    2000013   -13
    0.095887244   2   -2000013    13
    0.095883933   2    2000011   -11
    0.095883933   2   -2000011    11
    0.04430531   2    2000003   -3
    0.04430531   2   -2000003    3
    0.044305124   2    2000001   -1
    0.044305124   2   -2000001    1
    0.041313951   2    1000024   -24
    0.041313951   2   -1000024    24
    0.023010808   2    1000016   -16
    0.023010808   2   -1000016    16
    0.022951481   2    1000015   -15
    0.022951481   2   -1000015    15
    0.022527512   2    2000015   -15
    0.022527512   2   -2000015    15
    0.022365876   2    1000022    23
    0.021909308   2    1000023    25
    0.019063866   2    1000006   -6
    0.019063866   2   -1000006    6
    0.018984438   2    1000022    25
    0.018939846   2    1000023    23
    0.014326363   2    37   -1000024
    0.014326363   2   -37    1000024
    0.0083358559   2    1000022    35
    0.0072595631   2    1000023    35
    0.0068428737   2    1000023    36
    0.0064134184   2    1000022    36
    0.0024827348   3    1000024    5   -6
    0.0024827348   3   -1000024   -5    6
    0.0020635693   3    1000023    6   -6
    0.0019827667   3    1000022    6   -6
    0.0018013018   2    1000003   -3
    0.0018013018   2   -1000003    3
    0.0018012875   2    1000001   -1
    0.0018012875   2   -1000001    1
    0.0017987555   2    1000004   -4
    0.0017987555   2   -1000004    4
    0.0017987389   2    1000002   -2
    0.0017987389   2   -1000002    2
    0.0017803176   2    1000014   -14
    0.0017803176   2   -1000014    14
    0.0017801559   2    1000012   -12
    0.0017801559   2   -1000012    12
    0.0017678092   2    1000013   -13
    0.0017678092   2   -1000013    13
    0.0017676601   2    1000011   -11
    0.0017676601   2   -1000011    11
    0.0014295238   2    2000006   -6
    0.0014295238   2   -2000006    6
    0.00046955982   2    1000005   -5
    0.00046955982   2   -1000005    5

DECAY 1000021  449.28464
    0.12934121   2    2000003   -3
    0.12934121   2   -2000003    3
    0.12934081   2    2000001   -1
    0.12934081   2   -2000001    1
    0.040589048   2    1000004   -4
    0.040589048   2   -1000004    4
    0.040588891   2    1000002   -2
    0.040588891   2   -1000002    2
    0.040537859   2    1000003   -3
    0.040537859   2   -1000003    3
    0.040537688   2    1000001   -1
    0.040537688   2   -1000001    1
    0.032918058   2    1000006   -6
    0.032918058   2   -1000006    6
    0.022938673   2    2000006   -6
    0.022938673   2   -2000006    6
    0.022220219   2    1000005   -5
    0.022220219   2   -1000005    5
    0.00036500772   2    2000002   -2
    0.00036500772   2   -2000002    2
    0.00036498892   2    2000004   -4
    0.00036498892   2   -2000004    4
    0.00012290291   3    1000022    5   -5
    0.0001197872   3    1000024    5   -6
    0.0001197872   3   -1000024   -5    6
    0.0001183661   3    1000023    5   -5

DECAY 25  0.003993337
    0.56021948   2   -5    5
    0.24174551   2   -24    24
    0.071851744   2    21    21
    0.064523624   2   -15    15
    0.02973764   2    23    23
    0.027590394   2   -4    4
    0.0023347086   2    22    22
    0.0015620234   2    22    23
    0.00022378434   2   -13    13
    0.00021036185   2   -3    3
    5.8162831e-07   2   -1    1
    1.4217711e-07   2   -2    2
    5.0309104e-09   2   -11    11

DECAY 35  61.456227
    0.66439822   2   -5    5
    0.11875281   2   -15    15
    0.070761424   2   -1000024    1000037
    0.070761424   2   -1000037    1000024
    0.036356458   2    1000022    1000025
    0.034683482   2    1000023    1000025
    0.0021566387   2   -1000024    1000024
    0.001018807   2   -6    6
    0.00041379252   2   -13    13
    0.00024684756   2   -3    3
    0.0002457747   2    1000022    1000022
    0.00018980638   2    1000023    1000023
    9.9561117e-06   2    21    21
    2.9423082e-06   2    25    25
    6.8244626e-07   2   -1    1
    5.2623587e-07   2    23    23
    2.1448716e-07   2   -24    24
    8.9815028e-08   2    1000022    1000023
    2.128525e-08   2    22    23
    1.8320307e-08   2    22    22
    1.8055294e-08   2   -1000001    1000001
    1.7975016e-08   2   -1000003    1000003
    1.3818921e-08   2   -4    4
    9.2941515e-09   2   -11    11
    7.1238899e-14   2   -2    2

DECAY 36  59.036806
    0.65675146   2   -5    5
    0.11738868   2   -15    15
    0.073731894   2   -1000024    1000037
    0.073731894   2   -1000037    1000024
    0.038166762   2    1000022    1000025
    0.035855207   2    1000023    1000025
    0.0022480372   2   -1000024    1000024
    0.0009982556   2   -6    6
    0.00040903889   2   -13    13
    0.00024400153   2   -3    3
    0.00023241229   2    1000022    1000022
    0.00022069008   2    1000023    1000023
    1.9552392e-05   2    21    21
    7.8499884e-07   2    23    25
    6.745782e-07   2   -1    1
    6.2327266e-07   2    1000022    1000023
    1.3233782e-08   2   -4    4
    9.1874448e-09   2   -11    11
    7.3394375e-09   2    22    22
    5.6148197e-09   2    22    23
    6.8225226e-14   2   -2    2
    7.3182766e-38   2    25    25

DECAY 37  60.687893
    0.66142675   2   -5    6
    0.11963986   2   -15    16
    0.074304089   2    1000022    1000037
    0.072020118   2    1000024    1000025
    0.070295775   2    1000023    1000037
    0.00098061612   2   -5    4
    0.00042296979   2   -13    14
    0.00036139617   2    1000023    1000024
    0.00030150642   2    1000022    1000024
    0.00022601127   2   -3    4
    1.0558264e-05   2   -3    2
    7.0026125e-06   2   -5    2
    1.8403892e-06   2   -3    6
    7.6528882e-07   2    24    25
    6.2707763e-07   2   -1    2
    6.9157259e-08   2   -1    6
    2.9844639e-08   2   -1    4
    9.8933075e-09   2   -11    12
    3.2319873e-13   2    24    35

DECAY 6  2.43
    1   2    5    24

DECAY 15 -1
