BLOCK SPINFO
   1   SPheno
   2   v4.0.5be

BLOCK SPHENOINFO
   1   2
   2   2

BLOCK MODSEL
   1   0

BLOCK MINPAR
   3    18.26374
   4   -1

BLOCK EXTPAR
   0    4087.9819
   1   -390.531
   2   -115.82712
   3    4000
   11    3645.0466
   12   -401.86032
   13    1378.959
   23   -1407.8371
   25    17.416898
   26    2000
   31    536.15027
   32    536.15027
   33    2000
   34    590.6503
   35    590.6503
   36    2000
   41    4000
   42    4000
   43    4000
   44    4000
   45    4000
   46    4000
   47    4000
   48    4000
   49    4000

BLOCK SMINPUTS
   1    127.90897
   2    1.1663787e-05
   3    0.1184
   4    91.1876
   5    4.18
   6    173.2
   7    1.777
   8    0
   11    0.00051099893
   12    0
   13    0.10565837
   14    0
   21    0.005
   22    0.0025
   23    0.095
   24    1.27

BLOCK GAUGE Q=  4087.9819
   1    0.35536298
   2    0.66519887
   3    1.219778

BLOCK YU Q=  4087.9819
   1   1    8.3981805e-06
   2   2    0.0042662757
   3   3    1.0145677

BLOCK YD Q=  4087.9819
   1   1    0.00029392481
   2   2    0.0055845714
   3   3    0.29148131

BLOCK YE Q=  4087.9819
   1   1    5.1292029e-05
   2   2    0.010605565
   3   3    0.17836815

BLOCK AU Q=  4087.9819
   1   1    0
   2   2    0
   3   3    3645.046

BLOCK AD Q=  4087.9819
   1   1    0
   2   2    0
   3   3   -401.86018

BLOCK AE Q=  4087.9819
   1   1    0
   2   2    0
   3   3    1378.959

BLOCK MSOFT Q=  4087.9819
   1   -390.531
   2   -115.82712
   3    4000
   21    2004968.1
   22   -1614655.3
   31    536.15027
   32    536.15027
   33    2000
   34    590.6503
   35    590.6503
   36    2000
   41    4000
   42    4000
   43    4000
   44    4000
   45    4000
   46    4000
   47    4000
   48    4000
   49    4000

BLOCK MASS
   6    173.2
   23    91.1876
   24    80.429995
   15    1.777
   25    123.22131
   35    1999.8828
   36    2000
   37    2001.8452
   1000001    4155.0102
   2000001    4143.3248
   1000002    4154.2384
   2000002    4143.8762
   1000003    4155.0104
   2000003    4143.3213
   1000004    4154.237
   2000004    4143.8753
   1000005    4109.3176
   2000005    4139.6223
   1000006    4027.3194
   2000006    4149.5581
   1000011    536.31195
   2000011    601.04913
   1000012    530.10482
   1000013    536.22677
   2000013    601.10916
   1000014    530.09814
   1000015    1989.8268
   2000015    2013.0376
   1000016    1999.8577
   1000021    4249.2125
   1000022   -125.18106
   1000023   -382.47865
   1000025    1428.7784
   1000035   -1430.1249
   1000024    125.42163
   1000037    1430.8109
   1000039    1e-09

BLOCK ALPHA
      -0.055012953

BLOCK HMIX Q=  4087.9819
   1   -1407.8371
   2    17.416898
   3    242.9285
   4    4000000

BLOCK STOPMIX
   1   1   -0.55743225
   1   2    0.83022243
   2   1   -0.83022243
   2   2   -0.55743225

BLOCK SBOTMIX
   1   1   -0.97432445
   1   2    0.22514852
   2   1   -0.22514852
   2   2   -0.97432445

BLOCK STAUMIX
   1   1   -0.69775566
   1   2    0.71633585
   2   1   -0.71633585
   2   2   -0.69775566

BLOCK NMIX
   1   1   -0.0019497486
   1   2    0.99839867
   1   3    0.055966623
   1   4   -0.0080016264
   2   1   -0.9993601
   2   2   -0.0039351318
   2   3    0.033815098
   2   4   -0.01097434
   3   1    0.016254578
   3   2   -0.033874164
   3   3    0.7059694
   3   4    0.70724504
   4   1    0.031802035
   4   2   -0.045134756
   4   3    0.70521733
   4   4   -0.70683803

BLOCK UMIX
   1   1   -0.99687776
   1   2   -0.078960344
   2   1   -0.078960344
   2   2    0.99687776

BLOCK VMIX
   1   1    0.99993618
   1   2    0.011297525
   2   1    0.011297525
   2   2   -0.99993618

BLOCK HIGGSBOUNDSINPUTHIGGSCOUPLINGSFERMIONS
       0, 303.34832,3,36,15,15

BLOCK HIGGSBOUNDSINPUTHIGGSCOUPLINGSBOSONS
       0,4,36,21,21,23

BLOCK SPHENOLOWENERGY
   1    0.00033178479
   2    1.5888324e-06
   3    3.5252216e-05
   4    2.5091013e-15
   5    1.0718594e-10
   6    2.2437285e-08
   7    8.4805419e-14
   8    3.6228842e-09
   9    7.6841448e-07
   10    9.6328429e-05
   11    0.99503579
   12    0.54193399
   13    19.361237
   14    0
   15    0
   16    0.0021571135
   17    2.2816572e-15
   18    2.4798626e-11
   19    8.290157e-11
   20    1.7449139e-14
   21    7.460973e-10
   22    1.4787034e-08
   23    0
   24    0
   25    0
   26    0
   27    0
   28    0
   29    0
   30    0
   31    0
   39    5.4594312e-05
   40    0
   41    0
   42    0

BLOCK FWCOEF Q=  160
   305   4422   0   0   -0.18881911
   305   4422   0   2   -0.20025267
   305   4322   0   2   -0.00022706301
   305   6421   0   0   -0.095227835
   305   6421   0   2   -0.11071738
   305   6321   0   2   -0.00030625981
   3051111   4133   0   0    1.6270959
   3051111   4133   0   2    1.6272259
   3051111   4233   0   2    3.6330702e-05
   3051111   4137   0   0   -4.449788
   3051111   4137   0   2   -4.4479745
   3051111   4237   0   2   -0.00026869338
   3051313   4133   0   0    1.6270959
   3051313   4133   0   2    1.6272256
   3051313   4233   0   2    3.6330628e-05
   3051313   4137   0   0   -4.449788
   3051313   4137   0   2   -4.4479748
   3051313   4237   0   2   -0.00026869337
   3051212   4137   0   0    1.5053501
   3051212   4137   0   2    1.5049835
   3051212   4237   0   2    5.8096289e-05
   3051414   4137   0   0    1.5053501
   3051414   4137   0   2    1.5049835
   3051414   4237   0   2    5.8096301e-05
   3051616   4137   0   0    1.5053501
   3051616   4137   0   2    1.5049809
   3051616   4237   0   2    5.8099757e-05

BLOCK IMFWCOEF Q=  160
   305   4422   0   0    3.8583595e-07
   305   4422   0   2    1.4466603e-06
   305   4322   0   2    4.9716114e-07
   305   6421   0   0    3.3049401e-07
   305   6421   0   2    2.5233163e-06
   305   6321   0   2    2.5757588e-07
   3051111   4133   0   2   -4.5126017e-07
   3051111   4233   0   2    9.4110897e-07
   3051111   4137   0   2    2.1635646e-06
   3051111   4237   0   2   -6.9615118e-06
   3051313   4133   0   2   -4.5128297e-07
   3051313   4233   0   2    9.4110867e-07
   3051313   4137   0   2    2.1635875e-06
   3051313   4237   0   2   -6.9615127e-06
   3051212   4137   0   2   -6.7331863e-09
   3051212   4237   0   2    1.5052029e-06
   3051414   4137   0   2   -6.7325607e-09
   3051414   4237   0   2    1.5052029e-06
   3051616   4137   0   2   -5.3653867e-08
   3051616   4237   0   2    1.5052033e-06

DECAY 23  2.4952


DECAY 24  2.085


DECAY 1000011  6.4570682
    0.64935848   2   -1000024    12
    0.32510784   2    1000022    11
    0.02553367   2    1000023    11

DECAY 2000011  1.0680194
    0.99999008   2    1000023    11

DECAY 1000013  6.4557072
    0.64936838   2   -1000024    14
    0.32511341   2    1000022    13
    0.025518208   2    1000023    13

DECAY 2000013  1.0684289
    0.99997929   2    1000023    13

DECAY 1000015  19.441634
    0.45153005   2   -1000024    16
    0.30609547   2    1000023    15
    0.22612569   2    1000022    15
    0.0064382898   2    1000025    15
    0.005899776   2    1000035    15
    0.0039088846   2   -1000037    16

DECAY 2000015  19.274471
    0.4461553   2   -1000024    16
    0.29772288   2    1000023    15
    0.22336649   2    1000022    15
    0.013299992   2   -1000037    16
    0.010021403   2    1000035    15
    0.0094318868   2    1000025    15

DECAY 1000012  6.3871249
    0.65108235   2    1000024    11
    0.32533764   2    1000022    12
    0.023579999   2    1000023    12

DECAY 1000014  6.3870228
    0.65108343   2    1000024    13
    0.32533778   2    1000022    14
    0.023578789   2    1000023    14

DECAY 1000016  28.802847
    0.60661447   2    1000024    15
    0.30287999   2    1000022    16
    0.079663548   2    1000023    16
    0.010426462   2    1000037    15
    0.00028158945   2    1000035    16
    0.0001326668   2    1000025    16

DECAY 2000001  2.274732
    0.99836957   2    1000023    1
    0.00079921278   2    1000035    1
    0.00061513053   2    1000039    1
    0.00020978863   2    1000025    1

DECAY 1000001  55.270988
    0.65644846   2   -1000024    2
    0.3294574   2    1000022    1
    0.0098516098   2    1000023    1
    0.0032054538   2   -1000037    2
    0.00066355472   2    1000035    1
    0.00034784945   2    1000025    1

DECAY 2000003  2.2787141
    0.9966253   2    1000023    3
    0.0012319001   2    1000035    3
    0.0008696714   2   -1000037    4
    0.00064467952   2    1000025    3
    0.00061405296   2    1000039    3

DECAY 1000003  55.274157
    0.65641068   2   -1000024    4
    0.32943866   2    1000022    3
    0.0098510979   2    1000023    3
    0.0032265511   2   -1000037    4
    0.00068148266   2    1000035    3
    0.00036584554   2    1000025    3

DECAY 1000005  119.08286
    0.51520163   2   -1000037    6
    0.28967683   2   -1000024    6
    0.14604858   2    1000022    5
    0.02166337   2    1000025    5
    0.021301432   2    1000035    5
    0.0060436966   2    1000023    5

DECAY 2000005  18.946034
    0.48177882   2   -1000037    6
    0.15145801   2    1000035    5
    0.14893604   2    1000025    5
    0.11094438   2    1000023    5
    0.069621717   2   -1000024    6
    0.035096437   2    1000022    5
    0.0020910697   2    1000006   -24

DECAY 2000002  9.0959393
    0.99883508   2    1000023    2
    0.00079843257   2    1000035    2
    0.00020868981   2    1000025    2
    0.00015393554   2    1000039    2

DECAY 1000002  55.31504
    0.65983357   2    1000024    1
    0.32867614   2    1000022    2
    0.010752201   2    1000023    2
    0.00040017883   2    1000035    2
    0.00024663594   2    1000025    2

DECAY 2000004  9.0982637
    0.9985795   2    1000023    4
    0.00086204599   2    1000035    4
    0.00027274247   2    1000025    4
    0.00015389601   2    1000039    4
    0.00012792489   2    1000037    3

DECAY 1000004  55.318186
    0.6597961   2    1000024    3
    0.32865726   2    1000022    4
    0.010751586   2    1000023    4
    0.00041067783   2    1000035    4
    0.0002572228   2    1000025    4
    0.00010151952   2    1000037    3

DECAY 1000006  135.86768
    0.32793044   2    1000037    5
    0.2445475   2    1000025    6
    0.22906207   2    1000035    6
    0.085216125   2    1000024    5
    0.047342122   2    1000023    6
    0.04226943   2    1000022    6
    0.018791629   3    1000022    24    5
    0.0046788977   2    1000022    4
    0.00015291417   2    1000023    4

DECAY 2000006  128.92174
    0.25622286   2    1000035    6
    0.24104753   2    1000025    6
    0.19155286   2    1000037    5
    0.19066449   2    1000024    5
    0.094552755   2    1000022    6
    0.023616015   2    1000023    6
    0.0023326303   2    1000006    23

DECAY 1000024  8.5021574e-12
    0.998184   2    1000039    24
    0.0017394539   2    1000022    211

DECAY 1000037  10.617009
    0.29573126   2    1000024    25
    0.29044972   2    1000022    24
    0.28978744   2    1000024    23
    0.097108071   2    1000023    24
    0.010691375   3    1000024    6   -6
    0.0082443562   3    1000022   -5    6
    0.0027323735   2   -1000013    14
    0.0027320898   2   -1000011    12
    0.0021413885   3    1000023   -5    6
    0.00016785435   2    1000014   -13
    0.00010161549   2   -2000013    14

DECAY 1000022  9.0675352e-12
    0.85347227   2    1000039    22
    0.14652773   2    1000039    23

DECAY 1000023  0.0016587506
    0.33245282   2    1000024   -24
    0.33245282   2   -1000024    24
    0.22310197   2    1000022    25
    0.029633972   2    1000022    23
    0.021117534   3    1000022    12   -12
    0.01015409   3    1000024    13   -14
    0.01015409   3   -1000024   -13    14
    0.010150497   3    1000022    13   -13
    0.010149061   3    1000024    11   -12
    0.010149061   3   -1000024   -11    12
    0.010141554   3    1000022    11   -11
    0.00012120148   3    1000024    5   -6
    0.00012120148   3   -1000024   -5    6

DECAY 1000025  11.435643
    0.27012634   2    1000024   -24
    0.27012634   2   -1000024    24
    0.17335865   2    1000022    23
    0.1417967   2    1000022    25
    0.069990137   2    1000023    23
    0.050754472   2    1000023    25
    0.0079571652   3    1000024    5   -6
    0.0079571652   3   -1000024   -5    6
    0.0044992308   3    1000022    6   -6
    0.00096775051   3    1000023    6   -6
    0.00037033833   2    1000014   -14
    0.00037033833   2   -1000014    14
    0.00037033536   2    1000012   -12
    0.00037033536   2   -1000012    12
    0.00018024588   2    1000013   -13
    0.00018024588   2   -1000013    13
    0.00012878017   2    1000011   -11
    0.00012878017   2   -1000011    11
    0.00010338071   2    2000013   -13
    0.00010338071   2   -2000013    13

DECAY 1000035  10.568173
    0.29282294   2    1000024   -24
    0.29282294   2   -1000024    24
    0.19051839   2    1000022    25
    0.10541795   2    1000022    23
    0.067923335   2    1000023    25
    0.019656401   2    1000023    23
    0.0095201168   3    1000024    5   -6
    0.0095201168   3   -1000024   -5    6
    0.0052414674   3    1000022    6   -6
    0.0012359726   3    1000023    6   -6
    0.00085524945   2    1000014   -14
    0.00085524945   2   -1000014    14
    0.00085524258   2    1000012   -12
    0.00085524258   2   -1000012    12
    0.00028416388   2    2000013   -13
    0.00028416388   2   -2000013    13
    0.00023310277   2    2000011   -11
    0.00023310277   2   -2000011    11
    0.000229896   2    1000013   -13
    0.000229896   2   -1000013    13
    0.00017423055   2    1000011   -11
    0.00017423055   2   -1000011    11

DECAY 1000021  4.9928981
    0.1431775   2    1000006   -6
    0.1431775   2   -1000006    6
    0.05350692   2    1000005   -5
    0.05350692   2   -1000005    5
    0.032077286   2    2000005   -5
    0.032077286   2   -2000005    5
    0.030513352   2    2000003   -3
    0.030513352   2   -2000003    3
    0.030511366   2    2000001   -1
    0.030511366   2   -2000001    1
    0.030198414   2    2000002   -2
    0.030198414   2   -2000002    2
    0.030196738   2    2000004   -4
    0.030196738   2   -2000004    4
    0.024609893   2    1000002   -2
    0.024609893   2   -1000002    2
    0.024608434   2    1000004   -4
    0.024608434   2   -1000004    4
    0.024215965   2    1000001   -1
    0.024215965   2   -1000001    1
    0.024215892   2    1000003   -3
    0.024215892   2   -1000003    3
    0.023571853   3    1000035    6   -6
    0.022107315   3    1000025    6   -6
    0.0096303107   3    1000022    6   -6
    0.0096210578   3    1000024    5   -6
    0.0096210578   3   -1000024   -5    6
    0.0075741231   3    1000037    5   -6
    0.0075741231   3   -1000037   -5    6
    0.004700409   2    1000006   -4
    0.004700409   2   -1000006    4
    0.0021841467   3    1000023    6   -6
    0.0014191039   2    1000025    21
    0.0013076458   2    1000035    21
    0.00031793783   2    1000039    21

DECAY 25  0.0036780137
    0.60154193   2   -5    5
    0.19921175   2   -24    24
    0.07338957   2    21    21
    0.068957345   2   -15    15
    0.029483582   2   -4    4
    0.023269441   2    23    23
    0.0023320911   2    22    22
    0.0013484957   2    22    23
    0.00023918964   2   -13    13
    0.00022582228   2   -3    3
    6.2437504e-07   2   -1    1
    1.5194126e-07   2   -2    2
    5.3772697e-09   2   -11    11

DECAY 35  17.504288
    0.5229063   2   -5    5
    0.11565673   2   -1000024    1000037
    0.11565673   2   -1000037    1000024
    0.079681658   2   -15    15
    0.073390073   2    1000022    1000025
    0.041944867   2    1000022    1000035
    0.020104559   2    1000023    1000025
    0.015232427   2   -6    6
    0.0059444886   2   -1000024    1000024
    0.0040635407   2    1000023    1000035
    0.0029829192   2    1000022    1000022
    0.0016645685   2    1000022    1000023
    0.00027544615   2   -13    13
    0.00022014101   2    1000023    1000023
    0.00019258712   2   -3    3
    4.0933159e-05   2    25    25
    1.0783411e-05   2    23    23
    5.7172815e-06   2   -24    24
    5.2752597e-06   2    21    21
    1.9408151e-06   2   -1000011    1000011
    1.8356363e-06   2   -1000013    1000013
    1.2791089e-06   2   -2000013    2000013
    1.2006668e-06   2   -2000011    2000011
    5.3241678e-07   2   -1    1
    2.0983713e-07   2   -4    4
    1.7551041e-07   2   -2000013    1000013
    1.7551041e-07   2   -1000013    2000013
    1.4780868e-07   2    22    23
    6.3485249e-08   2    22    22
    6.1871484e-09   2   -11    11
    4.1378111e-12   2   -2000011    1000011
    4.1378111e-12   2   -1000011    2000011
    1.0818105e-12   2   -2    2

DECAY 36  17.244822
    0.5181201   2   -5    5
    0.11730679   2   -1000024    1000037
    0.11730679   2   -1000037    1000024
    0.07895237   2   -15    15
    0.07380875   2    1000022    1000035
    0.043056387   2    1000022    1000025
    0.020188085   2    1000023    1000035
    0.014932758   2   -6    6
    0.0063000872   2   -1000024    1000024
    0.0041986166   2    1000023    1000025
    0.00316154   2    1000022    1000022
    0.0018646241   2    1000022    1000023
    0.00028318407   2    1000023    1000023
    0.00027292201   2   -13    13
    0.00019082196   2   -3    3
    3.979356e-05   2    21    21
    1.4771828e-05   2    23    25
    5.2753692e-07   2   -1    1
    3.4412436e-07   2    22    23
    2.0307037e-07   2    22    22
    1.9925015e-07   2   -4    4
    1.6752157e-07   2   -2000013    1000013
    1.6752157e-07   2   -1000013    2000013
    6.1304475e-09   2   -11    11
    3.9183417e-12   2   -2000011    1000011
    3.9183417e-12   2   -1000011    2000011
    1.0272756e-12   2   -2    2
    1.8635641e-42   2    25    25

DECAY 37  17.104835
    0.5330669   2   -5    6
    0.11984405   2    1000022    1000037
    0.11979979   2    1000024    1000025
    0.11911261   2    1000024    1000035
    0.078070305   2   -15    16
    0.025198835   2    1000023    1000037
    0.0036175945   2    1000023    1000024
    0.00077207519   2   -5    4
    0.00027600664   2   -13    14
    0.0001751789   2   -3    4
    2.0667775e-05   2   -3    6
    1.4955484e-05   2    24    25
    8.1572604e-06   2   -3    2
    7.7785575e-06   2   -1000011    1000012
    7.6141648e-06   2   -1000013    1000014
    5.5134142e-06   2   -5    2
    9.3619197e-07   2   -1    6
    4.9520821e-07   2   -2000013    1000014
    4.8552989e-07   2   -1    2
    3.1195348e-08   2   -1    4
    1.0304358e-08   2    1000022    1000024
    6.4558241e-09   2   -11    12
    1.1615571e-11   2   -2000011    1000012
    2.3145182e-12   2    24    35
    1.7013905e-12   2    24    36

DECAY 6  2.43
    1   2    5    24

DECAY 15 -1


DECAY 1000039 -1
