BLOCK SPINFO
   1   SPheno
   2   v4.0.5be

BLOCK SPHENOINFO
   1   2
   2   2

BLOCK MODSEL
   1   0

BLOCK MINPAR
   3    15.992589
   4    1

BLOCK EXTPAR
   0    3854.1729
   1   -356.31232
   2    723.8148
   3    3667.9379
   11   -1747.7612
   12   -7174.3719
   13    4914.695
   23    940.61906
   25    15.239209
   26    1381.8754
   31    1542.294
   32    1542.294
   33    4239.8774
   34    2968.8387
   35    2968.8387
   36    4992.8475
   41    4527.2287
   42    4527.2287
   43    2839.74
   44    2903.1058
   45    2903.1058
   46    4928.9196
   47    2478.8894
   48    2478.8894
   49    17.229585

BLOCK SMINPUTS
   1    127.90897
   2    1.1663787e-05
   3    0.1184
   4    91.1876
   5    4.18
   6    173.2
   7    1.777
   8    0
   11    0.00051099893
   12    0
   13    0.10565837
   14    0
   21    0.005
   22    0.0025
   23    0.095
   24    1.27

BLOCK GAUGE Q=  3854.1729
   1    0.35536298
   2    0.66519887
   3    1.219778

BLOCK YU Q=  3854.1729
   1   1    8.4024043e-06
   2   2    0.0042684214
   3   3    1.0150779

BLOCK YD Q=  3854.1729
   1   1    0.00025730382
   2   2    0.0048887727
   3   3    0.25516477

BLOCK YE Q=  3854.1729
   1   1    4.4901399e-05
   2   2    0.0092841852
   3   3    0.15614472

BLOCK AU Q=  3854.1729
   1   1    0
   2   2    0
   3   3   -1747.7612

BLOCK AD Q=  3854.1729
   1   1    0
   2   2    0
   3   3   -7174.3714

BLOCK AE Q=  3854.1729
   1   1    0
   2   2    0
   3   3    4914.695

BLOCK MSOFT Q=  3854.1729
   1   -356.31232
   2    723.8148
   3    3667.9379
   21    1030398.1
   22   -616460.04
   31    1542.294
   32    1542.294
   33    4239.8774
   34    2968.8387
   35    2968.8387
   36    4992.8475
   41    4527.2287
   42    4527.2287
   43    2839.74
   44    2903.1058
   45    2903.1058
   46    4928.9196
   47    2478.8894
   48    2478.8894
   49    17.229585

BLOCK MASS
   6    173.2
   23    91.1876
   24    80.429995
   15    1.777
   25    121.28676
   35    1382.0394
   36    1381.8754
   37    1384.7382
   1000001    4646.5447
   2000001    2651.5308
   1000002    4645.842
   2000002    3063.2557
   1000003    4646.5438
   2000003    2651.5296
   1000004    4645.8412
   2000004    3063.2549
   1000005    699.00935
   2000005    2981.5873
   1000006    2983.1713
   2000006    4979.4824
   1000011    1548.8292
   2000011    2972.8463
   1000012    1546.3948
   1000013    1548.8247
   2000013    2972.84
   1000014    1546.3915
   1000015    4247.6616
   2000015    4995.176
   1000016    4246.4552
   1000021    3873.6859
   1000022   -351.7215
   1000023    747.02541
   1000025   -954.54576
   1000035    969.81918
   1000024    747.11176
   1000037    970.45789

BLOCK ALPHA
      -0.063194506

BLOCK HMIX Q=  3854.1729
   1    940.61906
   2    15.239209
   3    243.00024
   4    1909579.6

BLOCK STOPMIX
   1   1    0.99985633
   1   2    0.016950343
   2   1   -0.016950343
   2   2    0.99985633

BLOCK SBOTMIX
   1   1    0.0053914053
   1   2    0.99998547
   2   1   -0.99998547
   2   2    0.0053914053

BLOCK STAUMIX
   1   1    0.99999709
   1   2    0.0024107514
   2   1   -0.0024107514
   2   2    0.99999709

BLOCK NMIX
   1   1    0.99852795
   1   2    0.00094403698
   1   3    0.051774456
   1   4    0.016138278
   2   1    0.0073903125
   2   2    0.96178503
   2   3   -0.21346546
   2   4    0.17131094
   3   1   -0.047997955
   3   2    0.030804163
   3   3    0.70468926
   3   4    0.70722015
   4   1   -0.024155935
   4   2    0.27206575
   4   3    0.67465913
   4   4   -0.68573448

BLOCK UMIX
   1   1   -0.95292212
   1   2    0.30321517
   2   1    0.30321517
   2   2    0.95292212

BLOCK VMIX
   1   1   -0.96974693
   1   2    0.24411244
   2   1    0.24411244
   2   2    0.96974693

BLOCK HIGGSBOUNDSINPUTHIGGSCOUPLINGSFERMIONS
       0, 232.23348,3,36,15,15

BLOCK HIGGSBOUNDSINPUTHIGGSCOUPLINGSBOSONS
       0,4,36,21,21,23

BLOCK SPHENOLOWENERGY
   1    0.00034039322
   2    1.5884697e-06
   3    3.5259364e-05
   4    2.5767678e-15
   5    1.1007658e-10
   6    2.3042769e-08
   7    8.6529157e-14
   8    3.6965225e-09
   9    7.8405184e-07
   10    9.6008532e-05
   11    0.99173137
   12    0.54199236
   13    19.361776
   14    0
   15    0
   16    0.0021573857
   17    2.28166e-15
   18    2.4803177e-11
   19    8.2912694e-11
   20    1.6985066e-15
   21    7.2616423e-11
   22    6.4319118e-09
   23    0
   24    0
   25    0
   26    0
   27    0
   28    0
   29    0
   30    0
   31    0
   39    3.9114897e-05
   40    0
   41    0
   42    0

BLOCK FWCOEF Q=  160
   305   4422   0   0   -0.18881911
   305   4422   0   2   -0.20841275
   305   4322   0   2   -0.00040248969
   305   6421   0   0   -0.095227835
   305   6421   0   2   -0.12197297
   305   6321   0   2   -0.00053447329
   3051111   4133   0   0    1.6250012
   3051111   4133   0   2    1.6252285
   3051111   4233   0   2    3.9934566e-05
   3051111   4137   0   0   -4.4476933
   3051111   4137   0   2   -4.4466364
   3051111   4237   0   2   -0.0002955986
   3051313   4133   0   0    1.6250012
   3051313   4133   0   2    1.6252283
   3051313   4233   0   2    3.9934436e-05
   3051313   4137   0   0   -4.4476933
   3051313   4137   0   2   -4.4466365
   3051313   4237   0   2   -0.00029559852
   3051212   4137   0   0    1.5053501
   3051212   4137   0   2    1.5051359
   3051212   4237   0   2    6.3940693e-05
   3051414   4137   0   0    1.5053501
   3051414   4137   0   2    1.5051359
   3051414   4237   0   2    6.3940719e-05
   3051616   4137   0   0    1.5053501
   3051616   4137   0   2    1.5051345
   3051616   4237   0   2    6.3948562e-05

BLOCK IMFWCOEF Q=  160
   305   4422   0   0    3.8582696e-07
   305   4422   0   2    9.6871732e-06
   305   4322   0   2    7.8827975e-07
   305   6421   0   0    3.3048631e-07
   305   6421   0   2   -5.2216137e-06
   305   6321   0   2    1.5131038e-07
   3051111   4133   0   2    2.0071937e-08
   3051111   4233   0   2    1.1002624e-06
   3051111   4137   0   2    7.5623976e-07
   3051111   4237   0   2   -8.1521739e-06
   3051313   4133   0   2    2.0066038e-08
   3051313   4233   0   2    1.1002622e-06
   3051313   4137   0   2    7.5624497e-07
   3051313   4237   0   2   -8.1521747e-06
   3051212   4137   0   2    9.565958e-08
   3051212   4237   0   2    1.7634204e-06
   3051414   4137   0   2    9.565978e-08
   3051414   4237   0   2    1.7634204e-06
   3051616   4137   0   2    7.0551824e-08
   3051616   4237   0   2    1.7634299e-06

DECAY 23  2.4952


DECAY 24  2.085


DECAY 1000011  13.416412
    0.54333177   2   -1000024    12
    0.27905859   2    1000023    11
    0.13052063   2    1000022    11
    0.034471234   2   -1000037    12
    0.01261256   2    1000035    11

DECAY 2000011  14.514852
    0.99756395   2    1000022    11
    0.0019072205   2    1000025    11
    0.00047948875   2    1000035    11

DECAY 1000013  13.417359
    0.5432899   2   -1000024    14
    0.27904218   2    1000023    13
    0.13051145   2    1000022    13
    0.034468439   2   -1000037    14
    0.012645016   2    1000035    13

DECAY 2000013  14.523218
    0.996988   2    1000022    13
    0.0020463596   2    1000025    13
    0.00060679383   2    1000035    13
    0.00025442992   2   -1000037    14

DECAY 1000015  59.603185
    0.53516381   2   -1000024    16
    0.27629945   2    1000023    15
    0.088456746   2    1000022    15
    0.051629995   2   -1000037    16
    0.032984653   2    1000035    15
    0.015465348   2    1000025    15

DECAY 2000015  29.366603
    0.84391376   2    1000022    15
    0.069824678   2   -1000037    16
    0.039907865   2    1000025    15
    0.035452348   2    1000035    15
    0.0067894211   2   -1000024    16
    0.0034076768   2    1000023    15
    0.00035169073   2    1000016   -24
    0.00017839141   2    1000015    25
    0.00017417173   2    1000015    23

DECAY 1000012  13.438425
    0.55981125   2    1000024    11
    0.27311096   2    1000023    12
    0.12914002   2    1000022    12
    0.022180375   2    1000037    11
    0.01513912   2    1000035    12
    0.00061827743   2    1000025    12

DECAY 1000014  13.43939
    0.55977862   2    1000024    13
    0.27309005   2    1000023    14
    0.12913041   2    1000022    14
    0.022244785   2    1000037    13
    0.015137916   2    1000035    14
    0.00061822843   2    1000025    14

DECAY 1000016  59.618042
    0.55668682   2    1000024    15
    0.27010356   2    1000023    16
    0.087679068   2    1000022    16
    0.061757102   2    1000037    15
    0.022872962   2    1000035    16
    0.0009004852   2    1000025    16

DECAY 2000001  1.4277966
    0.99768478   2    1000022    1
    0.0018105005   2    1000025    1
    0.00045477602   2    1000035    1

DECAY 1000001  92.798971
    0.37982533   2   -1000024    2
    0.36764606   2    1000021    1
    0.19293506   2    1000023    1
    0.037066556   2   -1000037    2
    0.015398434   2    1000035    1
    0.0068154491   2    1000022    1
    0.00031311116   2    1000025    1

DECAY 2000003  1.4297045
    0.99635513   2    1000022    3
    0.0021390267   2    1000025    3
    0.00075455413   2    1000035    3
    0.00060058567   2   -1000037    4

DECAY 1000003  92.802506
    0.37981161   2   -1000024    4
    0.36763133   2    1000021    3
    0.19292868   2    1000023    3
    0.03708094   2   -1000037    4
    0.015407746   2    1000035    3
    0.0068152508   2    1000022    3
    0.00032391691   2    1000025    3

DECAY 1000005  0.21831839
    1   2    1000022    5

DECAY 2000005  102.54843
    0.47090432   2   -1000037    6
    0.22832344   2   -1000024    6
    0.10504982   2    1000023    5
    0.074440329   2    1000005    35
    0.074385152   2    1000005    36
    0.021658889   2    1000035    5
    0.015251592   2    1000025    5
    0.0039706738   2    1000022    5
    0.0038657356   2    1000005    25
    0.0021500465   2    1000005    23

DECAY 2000002  6.6584036
    0.99753547   2    1000022    2
    0.0019295598   2    1000025    2
    0.00048533566   2    1000035    2

DECAY 1000002  92.786828
    0.39334182   2    1000024    1
    0.3671319   2    1000021    2
    0.19398687   2    1000023    2
    0.024023728   2    1000037    1
    0.014453958   2    1000035    2
    0.0069615705   2    1000022    2
    0.00010014996   2    1000025    2

DECAY 2000004  6.6602067
    0.99726481   2    1000022    4
    0.0019967801   2    1000025    4
    0.00054878178   2    1000035    4
    0.00012688451   2    1000037    3

DECAY 1000004  92.790268
    0.3933292   2    1000024    3
    0.36711689   2    1000021    4
    0.19398004   2    1000023    4
    0.024042579   2    1000037    3
    0.014461311   2    1000035    4
    0.006961314   2    1000022    4
    0.00010846534   2    1000025    4

DECAY 1000006  105.46464
    0.23143969   2    1000025    6
    0.22490071   2    1000035    6
    0.21125868   2    1000024    5
    0.1442507   2    1000005    37
    0.11436114   2    1000023    6
    0.036174909   2    1000037    5
    0.027346872   2    1000023    4
    0.0041906525   2    1000005    24
    0.0039145432   2    1000022    6
    0.0011193737   3    1000022    24    5
    0.0010427322   2    1000022    4

DECAY 2000006  276.47873
    0.32303016   2    1000037    5
    0.21714156   2    1000021    6
    0.17073149   2    1000025    6
    0.16146301   2    1000035    6
    0.039756661   2    1000022    6
    0.022982978   2    2000005    24
    0.019201663   2    1000024    5
    0.01547306   2    1000006    25
    0.011459535   2    1000006    23
    0.0094483215   2    1000023    6
    0.004597941   2    2000005    37
    0.0023249998   2    1000006    35
    0.0023041091   2    1000006    36

DECAY 1000024  0.016406988
    0.99180432   2    1000022    24
    0.0076773734   3    1000022   -5    6
    0.0002558682   3    1000022   -13    14
    0.0002558542   3    1000022   -11    12

DECAY 1000037  4.1869851
    0.29311869   2    1000023    24
    0.26898562   2    1000024    23
    0.223516   2    1000024    25
    0.13328124   2    1000022    24
    0.078994362   2   -1000005    6
    0.0020313761   3    1000022   -5    6

DECAY 1000022 -1


DECAY 1000023  0.034929072
    0.54671767   2    1000022    25
    0.38939082   2    1000022    23
    0.031792012   2    1000005   -5
    0.031792012   2   -1000005    5
    0.00012001268   3    1000022    12   -12

DECAY 1000025  6.4700507
    0.24340451   2    1000023    23
    0.23988057   2    1000024   -24
    0.23988057   2   -1000024    24
    0.13346411   2    1000023    25
    0.062746155   2    1000022    25
    0.030576919   2    1000005   -5
    0.030576919   2   -1000005    5
    0.019041268   2    1000022    23
    0.00025777142   3    1000022    6   -6
    0.0001354193   2    1000023    22

DECAY 1000035  4.6425834
    0.2521555   2    1000024   -24
    0.2521555   2   -1000024    24
    0.20216134   2    1000023    25
    0.10960519   2    1000022    25
    0.094926736   2    1000022    23
    0.042288254   2    1000005   -5
    0.042288254   2   -1000005    5
    0.0038417998   2    1000023    23
    0.00044663741   3    1000022    6   -6

DECAY 1000021  247.31468
    0.21695597   2    1000005   -5
    0.21695597   2   -1000005    5
    0.065475951   2    2000003   -3
    0.065475951   2   -2000003    3
    0.065475844   2    2000001   -1
    0.065475844   2   -2000001    1
    0.038506587   2    2000005   -5
    0.038506587   2   -2000005    5
    0.037545332   2    1000006   -6
    0.037545332   2   -1000006    6
    0.032539153   2    2000004   -4
    0.032539153   2   -2000004    4
    0.032539129   2    2000002   -2
    0.032539129   2   -2000002    2
    0.010346877   2    1000006   -4
    0.010346877   2   -1000006    4
    0.0001086061   3    1000037    5   -6
    0.0001086061   3   -1000037   -5    6
    0.00010440214   3    1000024    3   -4
    0.00010440214   3   -1000024   -3    4
    0.00010440167   3    1000024    1   -2
    0.00010440167   3   -1000024   -1    2

DECAY 25  0.003503145
    0.63202762   2   -5    5
    0.1686235   2   -24    24
    0.07356931   2    21    21
    0.072276893   2   -15    15
    0.030609988   2   -4    4
    0.018940139   2    23    23
    0.0022935943   2    22    22
    0.0011702966   2    22    23
    0.00025080731   2   -13    13
    0.00023703687   2   -3    3
    6.5538253e-07   2   -1    1
    1.5775253e-07   2   -2    2
    5.6384782e-09   2   -11    11

DECAY 35  5.6877313
    0.78970205   2   -5    5
    0.13161236   2   -15    15
    0.033764375   2   -6    6
    0.023871601   2    1000022    1000035
    0.01323923   2    1000022    1000023
    0.005576639   2    1000022    1000025
    0.00099623867   2    1000022    1000022
    0.00046974191   2   -13    13
    0.00035104467   2    25    25
    0.00027981093   2   -3    3
    6.1040165e-05   2    23    23
    5.4621353e-05   2   -24    24
    1.9291409e-05   2    21    21
    7.735862e-07   2   -1    1
    4.9852896e-07   2    22    23
    4.7289012e-07   2   -4    4
    1.9727824e-07   2    22    22
    1.0552658e-08   2   -11    11
    2.438274e-12   2   -2    2

DECAY 36  5.5936186
    0.79023144   2   -5    5
    0.13169392   2   -15    15
    0.034497779   2   -6    6
    0.031026593   2    1000022    1000025
    0.0065045412   2    1000022    1000023
    0.0038146058   2    1000022    1000035
    0.0012704825   2    1000022    1000022
    0.00047006991   2   -13    13
    0.0002799886   2   -3    3
    0.00012362789   2    21    21
    8.3246426e-05   2    23    25
    2.0547962e-06   2    22    23
    7.7407759e-07   2   -1    1
    4.5067213e-07   2   -4    4
    4.1236495e-07   2    22    22
    1.056002e-08   2   -11    11
    2.3237293e-12   2   -2    2
    1.2481816e-37   2    25    25

DECAY 37  5.3924421
    0.81602691   2   -5    6
    0.13134508   2   -15    16
    0.029745084   2    1000022    1000037
    0.020821346   2    1000022    1000024
    0.0011653449   2   -5    4
    0.00046435295   2   -13    14
    0.00026047647   2   -3    4
    8.7162511e-05   2    24    25
    6.0322383e-05   2   -3    6
    1.205974e-05   2   -3    2
    8.3217706e-06   2   -5    2
    2.7496128e-06   2   -1    6
    7.2120084e-07   2   -1    2
    5.9129119e-08   2   -1    4
    1.0861264e-08   2   -11    12
    4.8455117e-11   2    24    36
    3.6082833e-11   2    24    35

DECAY 6  2.43
    1   2    5    24

DECAY 15 -1
