BLOCK SPINFO
   1   SPheno
   2   v4.0.5be

BLOCK SPHENOINFO
   1   2
   2   2

BLOCK MODSEL
   1   0

BLOCK MINPAR
   3    23.484353
   4    1

BLOCK EXTPAR
   0    1294.6662
   1    1185.6327
   2    891.82436
   3    3000
   11   -3075.7608
   12    1277.255
   13   -1626.6978
   23    528.08079
   25    22.735066
   26    339.56974
   31    1528.444
   32    1528.444
   33    1260.9883
   34    1733.2197
   35    1733.2197
   36    1138.8134
   41    5000
   42    5000
   43    1416.888
   44    5000
   45    5000
   46    1347.4107
   47    5000
   48    5000
   49    1088.7834

BLOCK SMINPUTS
   1    127.90897
   2    1.1663787e-05
   3    0.1184
   4    91.1876
   5    4.18
   6    173.2
   7    1.777
   8    0
   11    0.00051099893
   12    0
   13    0.10565837
   14    0
   21    0.005
   22    0.0025
   23    0.095
   24    1.27

BLOCK GAUGE Q=  1294.6662
   1    0.35536298
   2    0.66519887
   3    1.219778

BLOCK YU Q=  1294.6662
   1   1    8.3924787e-06
   2   2    0.0042633792
   3   3    1.0138788

BLOCK YD Q=  1294.6662
   1   1    0.00038341289
   2   2    0.0072848449
   3   3    0.38022544

BLOCK YE Q=  1294.6662
   1   1    6.6908353e-05
   2   2    0.013834525
   3   3    0.23267396

BLOCK AU Q=  1294.6662
   1   1    0
   2   2    0
   3   3   -3075.7608

BLOCK AD Q=  1294.6662
   1   1    0
   2   2    0
   3   3    1277.255

BLOCK AE Q=  1294.6662
   1   1    0
   2   2    0
   3   3   -1626.6978

BLOCK MSOFT Q=  1294.6662
   1    1185.6327
   2    891.82436
   3    3000
   21   -166812.76
   22   -259789.73
   31    1528.444
   32    1528.444
   33    1260.9883
   34    1733.2197
   35    1733.2197
   36    1138.8134
   41    5000
   42    5000
   43    1416.888
   44    5000
   45    5000
   46    1347.4107
   47    5000
   48    5000
   49    1088.7834

BLOCK MASS
   6    173.2
   23    91.1876
   24    80.429995
   15    1.777
   25    123.12551
   35    339.68434
   36    339.56974
   37    349.95522
   1000001    5020.5294
   2000001    5010.8261
   1000002    5020.0936
   2000002    5011.9558
   1000003    5020.5316
   2000003    5010.8285
   1000004    5020.0956
   2000004    5011.9568
   1000005    1043.2111
   2000005    1362.8705
   1000006    1133.0721
   2000006    1479.3063
   1000011    1534.6524
   2000011    1736.7992
   1000012    1532.257
   1000013    1534.6491
   2000013    1736.7949
   1000014    1532.2545
   1000015    1141.1912
   2000015    1267.9799
   1000016    1264.3923
   1000021    3175.4556
   1000022    523.58123
   1000023   -537.14534
   1000025    937.67065
   1000035    1187.4758
   1000024    527.9641
   1000037    938.05611

BLOCK ALPHA
      -0.052837249

BLOCK HMIX Q=  1294.6662
   1    528.08079
   2    22.735066
   3    244.13728
   4    115307.61

BLOCK STOPMIX
   1   1    0.59511773
   1   2    0.80363853
   2   1   -0.80363853
   2   2    0.59511773

BLOCK SBOTMIX
   1   1    0.031890269
   1   2    0.99949138
   2   1   -0.99949138
   2   2    0.031890269

BLOCK STAUMIX
   1   1    0.08013479
   1   2    0.99678404
   2   1   -0.99678404
   2   2    0.08013479

BLOCK NMIX
   1   1   -0.049261814
   1   2    0.14349134
   1   3   -0.705286
   1   4    0.69249922
   2   1   -0.01756142
   2   2    0.037135093
   2   3    0.70447503
   2   4    0.708539
   3   1    0.022695732
   3   2    0.98884467
   3   3    0.075528485
   3   4   -0.12635889
   4   1   -0.99837356
   4   2    0.014745748
   4   3    0.024125499
   4   4   -0.049505042

BLOCK UMIX
   1   1   -0.10887124
   1   2    0.99405586
   2   1    0.99405586
   2   2    0.10887124

BLOCK VMIX
   1   1   -0.18217085
   1   2    0.98326689
   2   1    0.98326689
   2   2    0.18217085

BLOCK HIGGSBOUNDSINPUTHIGGSCOUPLINGSFERMIONS
       0, 516.88321,3,36,15,15

BLOCK HIGGSBOUNDSINPUTHIGGSCOUPLINGSBOSONS
       0,4,36,21,21,23

BLOCK SPHENOLOWENERGY
   1    0.00040420898
   2    1.5900095e-06
   3    3.5281274e-05
   4    3.0440885e-15
   5    1.3003743e-10
   6    2.7071362e-08
   7    1.0226989e-13
   8    4.3688847e-09
   9    9.2184419e-07
   10    7.6862481e-05
   11    0.79396
   12    0.54281005
   13    19.335482
   14    0
   15    0
   16    0.0021608698
   17    2.281723e-15
   18    2.4808943e-11
   19    8.2928227e-11
   20    4.2758492e-15
   21    1.828049e-10
   22    6.2214414e-08
   23    0
   24    0
   25    0
   26    0
   27    0
   28    0
   29    0
   30    0
   31    0
   39    7.3542323e-05
   40    0
   41    0
   42    0

BLOCK FWCOEF Q=  160
   305   4422   0   0   -0.18881911
   305   4422   0   2   -0.26667536
   305   4322   0   2   -0.0021341972
   305   6421   0   0   -0.095227835
   305   6421   0   2   -0.19697508
   305   6321   0   2   -0.0022967856
   3051111   4133   0   0    1.5866558
   3051111   4133   0   2    1.5885211
   3051111   4233   0   2   -0.00014930478
   3051111   4137   0   0   -4.4093478
   3051111   4137   0   2   -4.4103938
   3051111   4237   0   2    0.001176184
   3051313   4133   0   0    1.5866558
   3051313   4133   0   2    1.58852
   3051313   4233   0   2   -0.00014935084
   3051313   4137   0   0   -4.4093478
   3051313   4137   0   2   -4.4103949
   3051313   4237   0   2    0.0011762298
   3051212   4137   0   0    1.5053501
   3051212   4137   0   2    1.5055902
   3051212   4237   0   2   -0.00025664504
   3051414   4137   0   0    1.5053501
   3051414   4137   0   2    1.5055902
   3051414   4237   0   2   -0.000256635
   3051616   4137   0   0    1.5053501
   3051616   4137   0   2    1.5055902
   3051616   4237   0   2   -0.00025380373

BLOCK IMFWCOEF Q=  160
   305   4422   0   0    3.8586414e-07
   305   4422   0   2    1.7906088e-05
   305   4322   0   2    4.7141165e-06
   305   6421   0   0    3.3051816e-07
   305   6421   0   2   -4.1151294e-07
   305   6321   0   2    1.7909715e-06
   3051111   4133   0   2   -5.511605e-07
   3051111   4233   0   2    1.6014503e-06
   3051111   4137   0   2    5.5681953e-06
   3051111   4237   0   2   -1.2547449e-05
   3051313   4133   0   2   -5.5117508e-07
   3051313   4233   0   2    1.6014488e-06
   3051313   4137   0   2    5.5681872e-06
   3051313   4237   0   2   -1.2547455e-05
   3051212   4137   0   2   -1.0202858e-06
   3051212   4237   0   2    2.7378537e-06
   3051414   4137   0   2   -1.0202858e-06
   3051414   4237   0   2    2.7378537e-06
   3051616   4137   0   2   -1.020947e-06
   3051616   4237   0   2    2.7378548e-06

DECAY 23  2.4952


DECAY 24  2.085


DECAY 1000011  8.3889524
    0.62434385   2   -1000037    12
    0.31683948   2    1000025    11
    0.034870523   2    1000035    11
    0.014837088   2   -1000024    12
    0.008631492   2    1000022    11
    0.00047756301   2    1000023    11

DECAY 2000011  2.4887642
    0.99117587   2    1000035    11
    0.0070329097   2    1000022    11
    0.00090671145   2    1000025    11
    0.00088445389   2    1000023    11

DECAY 1000013  8.3934074
    0.62400802   2   -1000037    14
    0.3166708   2    1000025    13
    0.034851542   2    1000035    13
    0.014829165   2   -1000024    14
    0.0088970927   2    1000022    13
    0.00074338076   2    1000023    13

DECAY 2000013  2.4996345
    0.98685509   2    1000035    13
    0.0080897378   2    1000022    13
    0.002153442   2   -1000024    14
    0.0019544882   2    1000023    13
    0.00091032331   2    1000025    13

DECAY 1000015  1.5687322
    0.49940792   2   -1000024    16
    0.26727265   2    1000022    15
    0.23126857   2    1000023    15
    0.0011712777   2   -1000037    16
    0.00087958483   2    1000025    15

DECAY 2000015  4.4513202
    0.50763828   2   -1000037    16
    0.25823182   2    1000025    15
    0.10854882   2    1000022    15
    0.10539496   2    1000023    15
    0.011147325   2   -1000024    16
    0.0051836947   2    1000035    15
    0.0022815686   2    1000015    23
    0.0015735343   2    1000015    25

DECAY 1000012  8.4485855
    0.60334784   2    1000037    11
    0.29796342   2    1000025    12
    0.041149131   2    1000024    11
    0.03825425   2    1000035    12
    0.017956503   2    1000022    12
    0.0013288527   2    1000023    12

DECAY 1000014  8.4530411
    0.60303   2    1000037    13
    0.2978047   2    1000025    14
    0.041656509   2    1000024    13
    0.038233645   2    1000035    14
    0.017946993   2    1000022    14
    0.0013281489   2    1000023    14

DECAY 1000016  4.5879787
    0.47495142   2    1000037    15
    0.25451865   2    1000024    15
    0.23436446   2    1000025    16
    0.024009864   2    1000022    16
    0.0053218935   2    1000015    24
    0.0050708988   2    1000035    16
    0.001762811   2    1000023    16

DECAY 2000001  144.12223
    0.9827031   2    1000021    1
    0.017235457   2    1000035    1

DECAY 1000001  205.05722
    0.69561129   2    1000021    1
    0.1983646   2   -1000037    2
    0.097350299   2    1000025    1
    0.0035601544   2    1000035    1
    0.0024984739   2   -1000024    2
    0.002444428   2    1000022    1
    0.00017075115   2    1000023    1

DECAY 2000003  144.1328
    0.98263281   2    1000021    3
    0.017234223   2    1000035    3

DECAY 1000003  205.06442
    0.69558798   2    1000021    3
    0.19835803   2   -1000037    4
    0.097347072   2    1000025    3
    0.003560045   2    1000035    3
    0.0025067407   2   -1000024    4
    0.0024568846   2    1000022    3
    0.00018324748   2    1000023    3

DECAY 1000005  3.0982401
    0.46699796   2   -1000024    6
    0.27478908   2    1000022    5
    0.25816079   2    1000023    5

DECAY 2000005  41.467127
    0.44332647   2   -1000024    6
    0.3551408   2    1000006   -24
    0.088926471   2   -1000037    6
    0.039211227   2    1000025    5
    0.03590464   2    1000022    5
    0.033831225   2    1000023    5
    0.0020201568   2    1000005    25
    0.0013161563   2    1000005    23
    0.00032285076   2    1000035    5

DECAY 2000002  151.72115
    0.93426008   2    1000021    2
    0.065507169   2    1000035    2
    0.0001751349   2    1000022    2

DECAY 1000002  205.0532
    0.69540353   2    1000021    2
    0.1940666   2    1000037    1
    0.098947022   2    1000025    2
    0.0069948708   2    1000024    1
    0.0025527835   2    1000035    2
    0.0019134041   2    1000022    2
    0.00012178832   2    1000023    2

DECAY 2000004  151.72474
    0.93423829   2    1000021    4
    0.065505663   2    1000035    4
    0.000180731   2    1000022    4

DECAY 1000004  205.0603
    0.69538011   2    1000021    4
    0.19406026   2    1000037    3
    0.098943777   2    1000025    4
    0.0070195323   2    1000024    3
    0.0025527132   2    1000035    4
    0.0019174811   2    1000022    4
    0.00012612436   2    1000023    4

DECAY 1000006  22.650898
    0.49490448   2    1000024    5
    0.25740472   2    1000022    6
    0.23920554   2    1000023    6
    0.0057936513   2    1000037    5
    0.0026268859   2    1000025    6

DECAY 2000006  57.251545
    0.27841756   2    1000006    23
    0.20484986   2    1000023    6
    0.18251938   2    1000022    6
    0.13265068   2    1000024    5
    0.074472985   2    1000037    5
    0.040115644   2    1000025    6
    0.038860137   2    1000006    25
    0.032413795   2    2000005    24
    0.0085561825   2    1000005    37
    0.0030428632   2    1000005    24
    0.0025065445   2    1000035    6
    0.0014877057   2    1000006    36
    0.00010666569   2    1000006    35

DECAY 1000024  1.9468154e-09
    0.40242322   3    1000022   -1    2
    0.26870084   3    1000022   -3    4
    0.13415752   3    1000022   -11    12
    0.13376972   3    1000022   -13    14
    0.060948699   3    1000022   -15    16

DECAY 1000037  10.686773
    0.18895498   2    1000023    24
    0.17246503   2    1000024    23
    0.17186957   2    1000022    24
    0.16390705   2    1000024    25
    0.077632542   2    1000024    36
    0.077361621   2    37    1000023
    0.075095759   2    37    1000022
    0.070560134   2    1000024    35
    0.0011010514   3    1000022   -5    6
    0.00095005073   3    1000023   -5    6

DECAY 1000022 -1


DECAY 1000023  2.4028923e-06
    0.23198094   2    1000022    22
    0.12959927   3    1000022    12   -12
    0.096906018   3    1000022    1   -1
    0.096851118   3    1000022    3   -3
    0.075578402   3    1000022    2   -2
    0.067264238   3    1000022    4   -4
    0.03718669   3    1000024    1   -2
    0.03718669   3   -1000024   -1    2
    0.03387786   3    1000024    3   -4
    0.03387786   3   -1000024   -3    4
    0.028604053   3    1000022    5   -5
    0.021868438   3    1000022    11   -11
    0.021849004   3    1000022    13   -13
    0.017069709   3    1000022    15   -15
    0.012395772   3    1000024    11   -12
    0.012395772   3   -1000024   -11    12
    0.012387648   3    1000024    13   -14
    0.012387648   3   -1000024   -13    14
    0.010366434   3    1000024    15   -16
    0.010366434   3   -1000024   -15    16

DECAY 1000025  12.039134
    0.1626643   2    1000024   -24
    0.1626643   2   -1000024    24
    0.15380114   2    1000023    23
    0.1287325   2    1000022    25
    0.11288205   2    1000023    25
    0.073487007   2    1000023    35
    0.064570349   2    37   -1000024
    0.064570349   2   -37    1000024
    0.061842403   2    1000022    35
    0.0094675068   2    1000022    23
    0.0020797834   2    1000022    36
    0.0013313333   2    1000023    36
    0.00092451965   3    1000024    5   -6
    0.00092451965   3   -1000024   -5    6

DECAY 1000035  5.9331027
    0.13424198   2    1000023    23
    0.12140516   2    1000024   -24
    0.12140516   2   -1000024    24
    0.10972548   2    1000022    25
    0.098414603   2    1000023    35
    0.095960991   2    1000023    25
    0.079492626   2    37   -1000024
    0.079492626   2   -37    1000024
    0.078238925   2    1000022    35
    0.015317684   2    1000022    23
    0.010948052   2    1000022    36
    0.0087444509   2    1000023    36
    0.0086509563   2    1000005   -5
    0.0086509563   2   -1000005    5
    0.006718033   2    1000025    25
    0.0061741622   2    1000037   -24
    0.0061741622   2   -1000037    24
    0.0028979617   2    1000015   -15
    0.0028979617   2   -1000015    15
    0.0016634194   3    1000024    5   -6
    0.0016634194   3   -1000024   -5    6
    0.00050995734   3    1000023    6   -6
    0.00044288338   3    1000022    6   -6
    0.0001183984   2    1000025    23

DECAY 1000021  265.63522
    0.14076687   2    1000005   -5
    0.14076687   2   -1000005    5
    0.12259963   2    2000006   -6
    0.12259963   2   -2000006    6
    0.11856226   2    1000006   -6
    0.11856226   2   -1000006    6
    0.1177701   2    2000005   -5
    0.1177701   2   -2000005    5
    0.00015539042   2    1000006   -4
    0.00015539042   2   -1000006    4

DECAY 25  0.005023108
    0.68414456   2   -5    5
    0.14433509   2   -24    24
    0.078443857   2   -15    15
    0.051494814   2    21    21
    0.021543317   2   -4    4
    0.016826746   2    23    23
    0.0017116065   2    22    22
    0.00097485449   2    22    23
    0.00027151329   2   -13    13
    0.00025281894   2   -3    3
    6.990037e-07   2   -1    1
    1.1102187e-07   2   -2    2
    6.1039483e-09   2   -11    11

DECAY 35  3.3806502
    0.8732749   2   -5    5
    0.12389351   2   -15    15
    0.0013250522   2    25    25
    0.00042504661   2   -13    13
    0.00034003382   2    21    21
    0.00031819208   2   -3    3
    0.00029002769   2   -24    24
    0.0001317431   2    23    23
    8.796867e-07   2   -1    1
    3.0909453e-07   2    22    22
    1.8984279e-07   2   -4    4
    1.0832504e-07   2    22    23
    9.5526488e-09   2   -11    11
    9.7936333e-13   2   -2    2

DECAY 36  3.356439
    0.87474652   2   -5    5
    0.12406787   2   -15    15
    0.00042559631   2   -13    13
    0.0003186263   2   -3    3
    0.0002538658   2    21    21
    0.00018635281   2    23    25
    8.808871e-07   2   -1    1
    1.4489487e-07   2    22    22
    1.1446717e-07   2   -4    4
    2.2979643e-08   2    22    23
    9.5649997e-09   2   -11    11
    5.8945872e-13   2   -2    2
    3.6452269e-35   2    25    25

DECAY 37  2.0667331
    0.8096809   2   -5    6
    0.18674905   2   -15    16
    0.0020143554   2   -5    4
    0.00066025805   2   -13    14
    0.00046588258   2   -3    4
    0.00037865811   2    24    25
    2.1165943e-05   2   -3    2
    1.4384949e-05   2   -5    2
    1.322914e-05   2   -3    6
    1.291815e-06   2   -1    2
    5.8920887e-07   2   -1    6
    7.6856286e-08   2    24    36
    7.2721711e-08   2    24    35
    6.7924038e-08   2   -1    4
    1.5443507e-08   2   -11    12

DECAY 6  2.43
    1   2    5    24

DECAY 15 -1
