BLOCK SPINFO
   1   SPheno
   2   v4.0.5be

BLOCK SPHENOINFO
   1   2
   2   2

BLOCK MODSEL
   1   0

BLOCK MINPAR
   3    56.285313
   4   -1

BLOCK EXTPAR
   0    1330.2744
   1    183.15544
   2   -779.16135
   3    3000
   11   -4168.9652
   12   -419.12556
   13   -1571.5062
   23   -189.12832
   25    56.313682
   26    2019.3139
   31    1071.1736
   32    1071.1736
   33    1807.1388
   34    1035.5372
   35    1035.5372
   36    1273.0726
   41    5000
   42    5000
   43    1272.014
   44    5000
   45    5000
   46    1653.6378
   47    5000
   48    5000
   49    1338.8312

BLOCK SMINPUTS
   1    127.90897
   2    1.1663787e-05
   3    0.1184
   4    91.1876
   5    4.18
   6    173.2
   7    1.777
   8    0
   11    0.00051099893
   12    0
   13    0.10565837
   14    0
   21    0.005
   22    0.0025
   23    0.095
   24    1.27

BLOCK GAUGE Q=  1330.2744
   1    0.35536298
   2    0.66519887
   3    1.219778

BLOCK YU Q=  1330.2744
   1   1    8.385694e-06
   2   2    0.0042599325
   3   3    1.0130592

BLOCK YD Q=  1330.2744
   1   1    0.00094892783
   2   2    0.018029629
   3   3    0.94103906

BLOCK YE Q=  1330.2744
   1   1    0.00016559485
   2   2    0.034239762
   3   3    0.57585647

BLOCK AU Q=  1330.2744
   1   1    0
   2   2    0
   3   3   -4168.9652

BLOCK AD Q=  1330.2744
   1   1    0
   2   2    0
   3   3   -419.12556

BLOCK AE Q=  1330.2744
   1   1    0
   2   2    0
   3   3   -1571.5062

BLOCK MSOFT Q=  1330.2744
   1    183.15544
   2   -779.16135
   3    3000
   21    4149986.3
   22   -5050.7673
   31    1071.1736
   32    1071.1736
   33    1807.1388
   34    1035.5372
   35    1035.5372
   36    1273.0726
   41    5000
   42    5000
   43    1272.014
   44    5000
   45    5000
   46    1653.6378
   47    5000
   48    5000
   49    1338.8312

BLOCK MASS
   6    173.2
   23    91.1876
   24    80.429995
   15    1.777
   25    122.15076
   35    2016.9906
   36    2019.3139
   37    2019.9771
   1000001    5024.4609
   2000001    5014.4577
   1000002    5024.0341
   2000002    5015.8368
   1000003    5024.4697
   2000003    5014.4733
   1000004    5024.0427
   2000004    5015.8377
   1000005    1206.3289
   2000005    1311.3394
   1000006    1091.765
   2000006    1620.8891
   1000011    1078.3088
   2000011    1037.7891
   1000012    1075.0859
   1000013    1078.2936
   2000013    1037.7362
   1000014    1075.0632
   1000015    1265.5355
   2000015    1806.932
   1000016    1804.9502
   1000021    3181.5018
   1000022    157.16412
   1000023   -185.36356
   1000025    218.53788
   1000035   -824.67467
   1000024    185.22432
   1000037    824.82696

BLOCK ALPHA
      -0.017856603

BLOCK HMIX Q=  1330.2744
   1   -189.12832
   2    56.313682
   3    244.08523
   4    4077628.5

BLOCK STOPMIX
   1   1    0.90209097
   1   2    0.43154592
   2   1   -0.43154592
   2   2    0.90209097

BLOCK SBOTMIX
   1   1   -0.99521755
   1   2    0.097683295
   2   1   -0.097683295
   2   2   -0.99521755

BLOCK STAUMIX
   1   1   -0.0097358137
   1   2    0.99995261
   2   1   -0.99995261
   2   2   -0.0097358137

BLOCK NMIX
   1   1    0.72895964
   1   2    0.035536709
   1   3   -0.52522744
   1   4   -0.43759698
   2   1    0.084759394
   2   2    0.090730732
   2   3    0.70528844
   2   4   -0.69796275
   3   1    0.67927285
   3   2   -0.04257828
   3   3    0.47546614
   3   4    0.55741137
   4   1    0.0046994852
   4   2   -0.99433001
   4   3    0.025224977
   4   4   -0.10319617

BLOCK UMIX
   1   1   -0.03569631
   1   2   -0.99936268
   2   1   -0.99936268
   2   2    0.03569631

BLOCK VMIX
   1   1    0.14607047
   1   2    0.98927419
   2   1    0.98927419
   2   2   -0.14607047

BLOCK HIGGSBOUNDSINPUTHIGGSCOUPLINGSFERMIONS
       0, 3171.2308,3,36,15,15

BLOCK HIGGSBOUNDSINPUTHIGGSCOUPLINGSBOSONS
       0,4,36,21,21,23

BLOCK SPHENOLOWENERGY
   1    0.00044103269
   2    1.593138e-06
   3    3.5238179e-05
   4    3.0694851e-15
   5    1.3091852e-10
   6    1.5544969e-08
   7    1.0203167e-13
   8    4.3521102e-09
   9    5.3420659e-07
   10    9.1569799e-05
   11    0.94588097
   12    0.54272993
   13    19.293425
   14    0
   15    0
   16    0.0021639974
   17    2.2817311e-15
   18    2.4815391e-11
   19    8.2930896e-11
   20    1.1038838e-14
   21    4.7190373e-10
   22    9.5258963e-08
   23    0
   24    0
   25    0
   26    0
   27    0
   28    0
   29    0
   30    0
   31    0
   39    9.2985515e-05
   40    0
   41    0
   42    0

BLOCK FWCOEF Q=  160
   305   4422   0   0   -0.18881911
   305   4422   0   2   -0.31861635
   305   4322   0   2   -0.00085061564
   305   6421   0   0   -0.095227835
   305   6421   0   2   -0.17126066
   305   6321   0   2   -0.00053695945
   3051111   4133   0   0    1.5885452
   3051111   4133   0   2    1.5896084
   3051111   4233   0   2    0.00047691432
   3051111   4137   0   0   -4.4112373
   3051111   4137   0   2   -4.4082347
   3051111   4237   0   2   -0.0037306835
   3051313   4133   0   0    1.5885452
   3051313   4133   0   2    1.5896009
   3051313   4233   0   2    0.00047690536
   3051313   4137   0   0   -4.4112373
   3051313   4137   0   2   -4.4082422
   3051313   4237   0   2   -0.0037306925
   3051212   4137   0   0    1.5053501
   3051212   4137   0   2    1.5047131
   3051212   4237   0   2    0.00081367904
   3051414   4137   0   0    1.5053501
   3051414   4137   0   2    1.5047131
   3051414   4237   0   2    0.00081368004
   3051616   4137   0   0    1.5053501
   3051616   4137   0   2    1.5047127
   3051616   4237   0   2    0.00081396259

BLOCK IMFWCOEF Q=  160
   305   4422   0   0    3.8573989e-07
   305   4422   0   2    3.5774153e-05
   305   4322   0   2   -1.1127187e-05
   305   6421   0   0    3.3041173e-07
   305   6421   0   2    3.552198e-05
   305   6321   0   2   -4.4616917e-06
   3051111   4133   0   2   -3.7995884e-06
   3051111   4233   0   2    1.098973e-05
   3051111   4137   0   2    3.0162854e-05
   3051111   4237   0   2   -8.6005157e-05
   3051313   4133   0   2   -3.7995296e-06
   3051313   4233   0   2    1.0989654e-05
   3051313   4137   0   2    3.0163021e-05
   3051313   4237   0   2   -8.6005402e-05
   3051212   4137   0   2   -6.2330305e-06
   3051212   4237   0   2    1.8758173e-05
   3051414   4137   0   2   -6.2330298e-06
   3051414   4237   0   2    1.8758173e-05
   3051616   4137   0   2   -6.2414738e-06
   3051616   4237   0   2    1.8758189e-05

DECAY 23  2.4952


DECAY 24  2.085


DECAY 2000011  4.8777646
    0.54230944   2    1000022    11
    0.45048928   2    1000025    11
    0.0071979621   2    1000023    11

DECAY 1000011  3.7992922
    0.42951714   2   -1000037    12
    0.21611925   2    1000022    11
    0.21174914   2    1000035    11
    0.11785194   2    1000025    11
    0.021764006   2    1000023    11
    0.0029985135   2   -1000024    12

DECAY 2000013  4.9227964
    0.53861507   2    1000022    13
    0.44735455   2    1000025    13
    0.0094234572   2    1000023    13
    0.0046024691   2   -1000024    14

DECAY 1000013  3.822702
    0.42684695   2   -1000037    14
    0.21652991   2    1000022    13
    0.21043319   2    1000035    13
    0.11849694   2    1000025    13
    0.02471291   2    1000023    13
    0.0029801039   2   -1000024    14

DECAY 1000015  22.06289
    0.36217293   2   -1000024    16
    0.25082153   2    1000022    15
    0.20449217   2    1000025    15
    0.18239902   2    1000023    15

DECAY 2000015  28.938144
    0.34420066   2   -1000037    16
    0.20540355   2    1000023    15
    0.16969804   2    1000035    15
    0.15959636   2    1000022    15
    0.11905957   2    1000025    15
    0.00083143945   2    1000015    23
    0.00081010633   2    1000015    25
    0.0004002729   2   -1000024    16

DECAY 1000012  3.8458552
    0.40755909   2    1000037    11
    0.20712734   2    1000035    12
    0.18590705   2    1000025    12
    0.14757842   2    1000022    12
    0.049435241   2    1000024    11
    0.0023928649   2    1000023    12

DECAY 1000014  3.8690641
    0.40505874   2    1000037    13
    0.20585568   2    1000035    14
    0.18478731   2    1000025    14
    0.14668979   2    1000022    14
    0.055230038   2    1000024    13
    0.0023784547   2    1000023    14

DECAY 1000016  28.972657
    0.41329828   2    1000024    15
    0.33630617   2    1000037    15
    0.17059037   2    1000035    16
    0.043767159   2    1000025    16
    0.033822255   2    1000022    16
    0.0016612054   2    1000015    24
    0.00055455959   2    1000023    16

DECAY 2000001  144.07556
    0.98062244   2    1000021    1
    0.010305194   2    1000022    1
    0.0089318134   2    1000025    1
    0.00013952349   2    1000023    1

DECAY 1000001  205.85655
    0.69138158   2    1000021    1
    0.2031773   2   -1000037    2
    0.10073946   2    1000035    1
    0.0028624623   2    1000025    1
    0.00095300558   2    1000022    1
    0.000613156   2    1000023    1
    0.00027303821   2   -1000024    2

DECAY 2000003  144.14169
    0.98018382   2    1000021    3
    0.010362273   2    1000022    3
    0.0089782649   2    1000025    3
    0.00025075533   2    1000023    3
    0.00022407824   2   -1000024    4

DECAY 1000003  205.89171
    0.69126797   2    1000021    3
    0.20314317   2   -1000037    4
    0.10072254   2    1000035    3
    0.0028974201   2    1000025    3
    0.00099617626   2    1000022    3
    0.00069112684   2    1000023    3
    0.0002815888   2   -1000024    4

DECAY 1000005  48.955376
    0.4462339   2   -1000024    6
    0.20780865   2    1000023    5
    0.12433383   2    1000022    5
    0.086920819   2    1000025    5
    0.062792774   2   -1000037    6
    0.041978005   2    1000006   -24
    0.029932023   2    1000035    5

DECAY 2000005  44.666905
    0.48036864   2   -1000024    6
    0.24561288   2    1000023    5
    0.13795653   2    1000022    5
    0.12670161   2    1000025    5
    0.0061980496   2    1000006   -24
    0.0020626368   2   -1000037    6
    0.0010278378   2    1000035    5

DECAY 2000002  152.59702
    0.92680262   2    1000021    2
    0.038928986   2    1000022    2
    0.033740958   2    1000025    2
    0.0005259058   2    1000023    2

DECAY 1000002  205.85539
    0.69116951   2    1000021    2
    0.19907822   2    1000037    1
    0.10039198   2    1000035    2
    0.0045720216   2    1000024    1
    0.0029310684   2    1000022    2
    0.0011997197   2    1000023    2
    0.00065748205   2    1000025    2

DECAY 2000004  152.60067
    0.92678071   2    1000021    4
    0.038930315   2    1000022    4
    0.033743844   2    1000025    4
    0.00053165596   2    1000023    4

DECAY 1000004  205.89045
    0.69105584   2    1000021    4
    0.19904488   2    1000037    3
    0.10037513   2    1000035    4
    0.0047279856   2    1000024    3
    0.0029322599   2    1000022    4
    0.0012038001   2    1000023    4
    0.00066009586   2    1000025    4

DECAY 1000006  38.277666
    0.44928528   2    1000024    5
    0.238806   2    1000023    6
    0.13627448   2    1000022    6
    0.11390672   2    1000025    6
    0.045338114   2    1000037    5
    0.013000256   2    1000035    6
    0.0016521711   3    1000022    24    5
    0.0012381525   2    1000022    4
    0.00049881924   2    1000023    4

DECAY 2000006  171.42532
    0.26100047   2    1000005    24
    0.19926698   2    1000006    23
    0.19406336   2    1000024    5
    0.13249821   2    1000006    25
    0.093423697   2    1000023    6
    0.081143043   2    1000025    6
    0.033935283   2    1000022    6
    0.0023629241   2    1000037    5
    0.0011920256   2    1000035    6
    0.0011140038   2    2000005    24

DECAY 1000024  9.9024727e-06
    0.33503887   3    1000022   -1    2
    0.33178435   3    1000022   -3    4
    0.11162957   3    1000022   -13    14
    0.11162806   3    1000022   -11    12
    0.10991915   3    1000022   -15    16

DECAY 1000037  7.2324861
    0.25562447   2    1000023    24
    0.24811254   2    1000024    23
    0.23593196   2    1000024    25
    0.13513613   2    1000025    24
    0.11657939   2    1000022    24
    0.0030378376   3    1000023   -5    6
    0.0020434886   3    1000024    6   -6
    0.0016158265   3    1000025   -5    6
    0.0015145992   3    1000022   -5    6
    0.00036170996   3    1000024    5   -5

DECAY 1000022 -1


DECAY 1000023  2.4526028e-05
    0.20275983   3    1000022    12   -12
    0.15165193   3    1000022    1   -1
    0.15163285   3    1000022    3   -3
    0.12120719   3    1000022    5   -5
    0.11827736   3    1000022    2   -2
    0.11521696   3    1000022    4   -4
    0.038304515   2    1000022    22
    0.034151562   3    1000022    11   -11
    0.034147047   3    1000022    13   -13
    0.032650746   3    1000022    15   -15

DECAY 1000025  0.00012205051
    0.10976675   3    1000023    12   -12
    0.082063274   3    1000023    1   -1
    0.082055944   3    1000023    3   -3
    0.076026302   3    1000024    1   -2
    0.076026302   3   -1000024   -1    2
    0.075511253   3    1000024    3   -4
    0.075511253   3   -1000024   -3    4
    0.070151752   3    1000023    5   -5
    0.064001387   3    1000023    2   -2
    0.062816911   3    1000023    4   -4
    0.025357881   3    1000024    13   -14
    0.025357881   3   -1000024   -13    14
    0.025357753   3    1000024    11   -12
    0.025357753   3   -1000024   -11    12
    0.025050255   3    1000024    15   -16
    0.025050255   3   -1000024   -15    16
    0.018549896   3    1000023    11   -11
    0.01854829   3    1000023    13   -13
    0.017956524   3    1000023    15   -15
    0.017380499   2    1000023    22
    0.00091058867   2    1000022    22
    0.00040527934   3    1000022    5   -5
    0.0002171649   3    1000022    12   -12
    0.00013789386   3    1000022    3   -3
    0.00013789206   3    1000022    1   -1
    0.00010879322   3    1000022    2   -2
    0.00010829198   3    1000022    4   -4

DECAY 1000035  8.0165202
    0.23163493   2    1000024   -24
    0.23163493   2   -1000024    24
    0.15321716   2    1000023    25
    0.094442209   2    1000025    23
    0.08244308   2    1000025    25
    0.073707362   2    1000022    23
    0.063797381   2    1000022    25
    0.060975873   2    1000023    23
    0.0033516204   3    1000024    5   -6
    0.0033516204   3   -1000024   -5    6
    0.00056276544   3    1000023    6   -6
    0.00030477859   3    1000022    6   -6
    0.00025249362   3    1000025    6   -6
    0.00010750748   3    1000023    5   -5

DECAY 1000021  285.12893
    0.12114142   2    1000005   -5
    0.12114142   2   -1000005    5
    0.11612101   2    1000006   -6
    0.11612101   2   -1000006    6
    0.11372526   2    2000005   -5
    0.11372526   2   -2000005    5
    0.10057457   2    2000006   -6
    0.10057457   2   -2000006    6
    0.048352811   2    1000006   -4
    0.048352811   2   -1000006    4

DECAY 25  0.0035438986
    0.61837515   2   -5    5
    0.18373407   2   -24    24
    0.071745735   2    21    21
    0.070733861   2   -15    15
    0.030313477   2   -4    4
    0.021000767   2    23    23
    0.0023574715   2    22    22
    0.0012614036   2    22    23
    0.00024549892   2   -13    13
    0.00023176474   2   -3    3
    6.4080657e-07   2   -1    1
    1.5622135e-07   2   -2    2
    5.519127e-09   2   -11    11

DECAY 35  114.55164
    0.70779337   2   -5    5
    0.11841573   2   -15    15
    0.049468573   2   -1000024    1000037
    0.049468573   2   -1000037    1000024
    0.022009948   2    1000023    1000035
    0.014190895   2    1000022    1000035
    0.014011022   2    1000025    1000035
    0.0054885181   2    1000022    1000023
    0.0052908688   2    1000025    1000025
    0.0049314125   2    1000022    1000022
    0.0045057794   2    1000023    1000025
    0.0031911479   2   -1000024    1000024
    0.00042408244   2   -13    13
    0.00025763263   2   -3    3
    0.00023232398   2   -6    6
    0.00017687068   2    1000023    1000023
    6.0454517e-05   2    1000022    1000025
    4.5861237e-05   2   -1000037    1000037
    2.3258741e-05   2    1000035    1000035
    1.2486827e-05   2    21    21
    7.1231786e-07   2   -1    1
    2.1424804e-07   2    25    25
    1.4416225e-07   2    23    23
    7.5505627e-08   2   -24    24
    3.0363173e-08   2    22    23
    9.5258031e-09   2   -11    11
    5.8355945e-09   2    22    22
    2.6731028e-09   2   -4    4
    1.3780584e-14   2   -2    2

DECAY 36  106.94323
    0.69695158   2   -5    5
    0.11660699   2   -15    15
    0.052938015   2   -1000024    1000037
    0.052938015   2   -1000037    1000024
    0.030087409   2    1000023    1000035
    0.012315026   2    1000022    1000035
    0.011382476   2    1000025    1000035
    0.006056224   2    1000022    1000023
    0.0054810028   2    1000025    1000025
    0.005109972   2    1000022    1000022
    0.0050506577   2    1000023    1000025
    0.0036083744   2   -1000024    1000024
    0.00041760425   2   -13    13
    0.0002536616   2   -3    3
    0.00024480935   2   -6    6
    0.00021064042   2    1000023    1000023
    0.00016760526   2   -1000037    1000037
    8.4709575e-05   2    1000035    1000035
    7.2505233e-05   2    1000022    1000025
    2.1617154e-05   2    21    21
    7.0133904e-07   2   -1    1
    2.095156e-07   2    23    25
    1.0500965e-07   2    22    23
    7.7067251e-08   2    22    22
    9.3803278e-09   2   -11    11
    2.7536661e-09   2   -4    4
    6.946754e-13   2    23    35
    1.4197379e-14   2   -2    2
    2.3280678e-38   2    25    25

DECAY 37  104.69236
    0.68707461   2   -5    6
    0.12224087   2   -15    16
    0.056074629   2    1000023    1000037
    0.054689944   2    1000024    1000035
    0.028091129   2    1000022    1000037
    0.026884485   2    1000025    1000037
    0.016337379   2    1000022    1000024
    0.0061034756   2    1000024    1000025
    0.0010222244   2   -5    4
    0.00077415034   2    1000023    1000024
    0.00043216548   2   -13    14
    0.00025408094   2   -3    4
    1.1845045e-05   2   -3    2
    7.2997406e-06   2   -5    2
    7.26503e-07   2   -3    6
    7.052028e-07   2   -1    2
    2.1452943e-07   2    24    25
    3.2930007e-08   2   -1    4
    1.6285342e-08   2   -1    6
    1.0108396e-08   2   -11    12
    1.8113673e-09   2    1000035    1000037
    3.0861168e-12   2    24    35

DECAY 6  2.43
    1   2    5    24

DECAY 15 -1
