BLOCK SPINFO
   1   SPheno
   2   v4.0.5be

BLOCK SPHENOINFO
   1   2
   2   2

BLOCK MODSEL
   1   0

BLOCK MINPAR
   3    17.417554
   4    1

BLOCK EXTPAR
   0    1409.5144
   1    59.681394
   2   -746.61096
   3    3000
   11   -3323.4706
   12   -516.25688
   13   -1475.8542
   23    132.94189
   25    16.803329
   26    4874.1458
   31    903.35801
   32    903.35801
   33    1212.3303
   34    1230.0248
   35    1230.0248
   36    1146.9187
   41    5000
   42    5000
   43    1804.2736
   44    5000
   45    5000
   46    1195.0544
   47    5000
   48    5000
   49    1420.4886

BLOCK SMINPUTS
   1    127.90897
   2    1.1663787e-05
   3    0.1184
   4    91.1876
   5    4.18
   6    173.2
   7    1.777
   8    0
   11    0.00051099893
   12    0
   13    0.10565837
   14    0
   21    0.005
   22    0.0025
   23    0.095
   24    1.27

BLOCK GAUGE Q=  1409.5144
   1    0.35536298
   2    0.66519887
   3    1.219778

BLOCK YU Q=  1409.5144
   1   1    8.3992064e-06
   2   2    0.0042667968
   3   3    1.0146916

BLOCK YD Q=  1409.5144
   1   1    0.00028360497
   2   2    0.0053884944
   3   3    0.28124726

BLOCK YE Q=  1409.5144
   1   1    4.9491141e-05
   2   2    0.010233198
   3   3    0.17210556

BLOCK AU Q=  1409.5144
   1   1    0
   2   2    0
   3   3   -3323.471

BLOCK AD Q=  1409.5144
   1   1    0
   2   2    0
   3   3   -516.25684

BLOCK AE Q=  1409.5144
   1   1    0
   2   2    0
   3   3   -1475.8542

BLOCK MSOFT Q=  1409.5144
   1    59.681394
   2   -746.61096
   3    3000
   21    23552823
   22    99397.542
   31    903.35801
   32    903.35801
   33    1212.3303
   34    1230.0248
   35    1230.0248
   36    1146.9187
   41    5000
   42    5000
   43    1804.2736
   44    5000
   45    5000
   46    1195.0544
   47    5000
   48    5000
   49    1420.4886

BLOCK MASS
   6    173.2
   23    91.1876
   24    80.429995
   15    1.777
   25    123.90288
   35    4873.3145
   36    4874.1458
   37    4874.2378
   1000001    5024.898
   2000001    5014.2427
   1000002    5024.4582
   2000002    5019.0062
   1000003    5024.8996
   2000003    5014.245
   1000004    5024.4598
   2000004    5019.0071
   1000005    1427.7522
   2000005    1784.8183
   1000006    1091.2343
   2000006    1820.6272
   1000011    919.68155
   2000011    1220.1687
   1000012    915.88098
   1000013    919.69154
   2000013    1220.1834
   1000014    915.8912
   1000015    1141.0785
   2000015    1226.7158
   1000016    1223.682
   1000021    3183.6133
   1000022    51.561893
   1000023   -138.46566
   1000025    153.80941
   1000035   -793.76721
   1000024    137.73649
   1000037    793.92109

BLOCK ALPHA
      -0.057403607

BLOCK HMIX Q=  1409.5144
   1    132.94189
   2    16.803329
   3    244.05429
   4    23757297

BLOCK STOPMIX
   1   1    0.2315447
   1   2    0.97282427
   2   1   -0.97282427
   2   2    0.2315447

BLOCK SBOTMIX
   1   1    0.0054468766
   1   2    0.99998517
   2   1   -0.99998517
   2   2    0.0054468766

BLOCK STAUMIX
   1   1    0.032265225
   1   2    0.99947934
   2   1   -0.99947934
   2   2    0.032265225

BLOCK NMIX
   1   1   -0.92630296
   1   2   -0.016234417
   1   3   -0.34668645
   1   4    0.14665532
   2   1    0.14834887
   2   2    0.080779023
   2   3   -0.69555971
   2   4   -0.69832947
   3   1    0.3463023
   3   2   -0.062253814
   3   3   -0.62918525
   3   4    0.6930549
   4   1    0.0054921894
   4   2   -0.99465354
   4   3   -0.011450419
   4   4   -0.10248448

BLOCK UMIX
   1   1   -0.016278881
   1   2    0.99986749
   2   1   -0.99986749
   2   2   -0.016278881

BLOCK VMIX
   1   1    0.14503874
   1   2    0.98942598
   2   1    0.98942598
   2   2   -0.14503874

BLOCK HIGGSBOUNDSINPUTHIGGSCOUPLINGSFERMIONS
       0, 282.35187,3,36,15,15

BLOCK HIGGSBOUNDSINPUTHIGGSCOUPLINGSBOSONS
       0,4,36,21,21,23

BLOCK SPHENOLOWENERGY
   1    0.00029604885
   2    1.5922074e-06
   3    3.5201902e-05
   4    2.7044576e-15
   5    1.1553135e-10
   6    2.4184271e-08
   7    9.1062584e-14
   8    3.8901905e-09
   9    8.251097e-07
   10    9.6738664e-05
   11    0.99927336
   12    0.5431498
   13    19.406848
   14    0
   15    0
   16    0.00216199
   17    2.2817058e-15
   18    2.4784715e-11
   19    8.2857812e-11
   20   -4.763136e-15
   21   -2.0364338e-10
   22   -4.8299121e-08
   23    0
   24    0
   25    0
   26    0
   27    0
   28    0
   29    0
   30    0
   31    0
   39    4.5634476e-05
   40    0
   41    0
   42    0

BLOCK FWCOEF Q=  160
   305   4422   0   0   -0.18881911
   305   4422   0   2   -0.15854223
   305   4322   0   2    0.0001440299
   305   6421   0   0   -0.095227835
   305   6421   0   2   -0.082919617
   305   6321   0   2    5.8453549e-06
   3051111   4133   0   0    1.589596
   3051111   4133   0   2    1.5906244
   3051111   4233   0   2    4.6145715e-05
   3051111   4137   0   0   -4.4122882
   3051111   4137   0   2   -4.4056139
   3051111   4237   0   2   -0.00035975963
   3051313   4133   0   0    1.589596
   3051313   4133   0   2    1.5906234
   3051313   4233   0   2    4.6145679e-05
   3051313   4137   0   0   -4.4122882
   3051313   4137   0   2   -4.4056149
   3051313   4237   0   2   -0.00035975974
   3051212   4137   0   0    1.5053501
   3051212   4137   0   2    1.5039091
   3051212   4237   0   2    7.8434044e-05
   3051414   4137   0   0    1.5053501
   3051414   4137   0   2    1.5039091
   3051414   4237   0   2    7.8434044e-05
   3051616   4137   0   0    1.5053501
   3051616   4137   0   2    1.503909
   3051616   4237   0   2    7.8434762e-05

BLOCK IMFWCOEF Q=  160
   305   4422   0   0    3.8583241e-07
   305   4422   0   2   -8.03162e-06
   305   4322   0   2    3.5152775e-06
   305   6421   0   0    3.3049098e-07
   305   6421   0   2   -6.3880304e-06
   305   6321   0   2    1.4062662e-06
   3051111   4133   0   2   -3.4895644e-06
   3051111   4233   0   2    8.8232417e-07
   3051111   4137   0   2    2.6619045e-05
   3051111   4237   0   2   -6.8801962e-06
   3051313   4133   0   2   -3.4895697e-06
   3051313   4233   0   2    8.8232358e-07
   3051313   4137   0   2    2.6619081e-05
   3051313   4237   0   2   -6.8801983e-06
   3051212   4137   0   2   -5.5286076e-06
   3051212   4237   0   2    1.5000234e-06
   3051414   4137   0   2   -5.5286074e-06
   3051414   4237   0   2    1.5000234e-06
   3051616   4137   0   2   -5.5307419e-06
   3051616   4237   0   2    1.5000342e-06

DECAY 23  2.4952


DECAY 24  2.085


DECAY 1000011  1.9938959
    0.52697402   2    1000022    11
    0.26351881   2   -1000037    12
    0.12991479   2    1000035    11
    0.049662177   2    1000023    11
    0.028901923   2    1000025    11
    0.0010282845   2   -1000024    12

DECAY 2000011  6.085374
    0.86137196   2    1000022    11
    0.11701326   2    1000025    11
    0.021604659   2    1000023    11

DECAY 1000013  1.9958476
    0.52657933   2    1000022    13
    0.26329743   2   -1000037    14
    0.12980564   2    1000035    13
    0.050057489   2    1000023    13
    0.029232821   2    1000025    13
    0.0010272911   2   -1000024    14

DECAY 2000013  6.0904101
    0.86072005   2    1000022    13
    0.11707821   2    1000025    13
    0.021783909   2    1000023    13
    0.00040670308   2   -1000024    14

DECAY 1000015  6.9935456
    0.7143222   2    1000022    15
    0.12888968   2    1000025    15
    0.093623448   2   -1000024    16
    0.062709882   2    1000023    15
    0.00030082301   2   -1000037    16
    0.00015396956   2    1000035    15

DECAY 2000015  7.7632564
    0.46929763   2   -1000037    16
    0.23097745   2    1000035    15
    0.18999492   2    1000022    15
    0.061234227   2    1000023    15
    0.04840951   2    1000025    15

DECAY 1000012  2.0486544
    0.4479094   2    1000022    12
    0.23808916   2    1000037    11
    0.12130038   2    1000035    12
    0.11361025   2    1000025    12
    0.079086419   2    1000024    11

DECAY 1000014  2.0506002
    0.44748944   2    1000022    14
    0.2378978   2    1000037    13
    0.12120296   2    1000035    14
    0.11350386   2    1000025    14
    0.079901561   2    1000024    13

DECAY 1000016  7.8066403
    0.45294504   2    1000037    15
    0.23035906   2    1000035    16
    0.15748456   2    1000022    16
    0.1183483   2    1000024    15
    0.040857111   2    1000025    16

DECAY 2000001  143.80686
    0.980542   2    1000021    1
    0.016699449   2    1000022    1
    0.0023301556   2    1000025    1
    0.00042778049   2    1000023    1

DECAY 1000001  205.90938
    0.6901973   2    1000021    1
    0.20417906   2   -1000037    2
    0.10122837   2    1000035    1
    0.002375073   2    1000022    1
    0.0016463973   2    1000025    1
    0.00031696506   2    1000023    1

DECAY 2000003  143.81287
    0.98050269   2    1000021    3
    0.016701173   2    1000022    3
    0.0023379963   2    1000025    3
    0.00043746543   2    1000023    3

DECAY 1000003  205.91427
    0.6901817   2    1000021    3
    0.20417446   2   -1000037    4
    0.101226   2    1000035    3
    0.0023767064   2    1000022    3
    0.0016519137   2    1000025    3
    0.00032374803   2    1000023    3

DECAY 1000005  5.1372433
    0.41627043   2   -1000024    6
    0.21101511   2    1000023    5
    0.1864916   2    1000022    5
    0.18617612   2    1000025    5

DECAY 2000005  103.40122
    0.48203051   2    1000006   -24
    0.33544047   2   -1000024    6
    0.10411537   2   -1000037    6
    0.048472597   2    1000035    5
    0.013203681   2    1000023    5
    0.011822079   2    1000025    5
    0.0048543   2    1000022    5

DECAY 2000002  152.70792
    0.92663541   2    1000021    2
    0.062964037   2    1000022    2
    0.0087856275   2    1000025    2
    0.0016128177   2    1000023    2

DECAY 1000002  205.90589
    0.68998653   2    1000021    2
    0.19992098   2    1000037    1
    0.10082299   2    1000035    2
    0.004512035   2    1000024    1
    0.0035251217   2    1000022    2
    0.0012323133   2    1000023    2

DECAY 2000004  152.71158
    0.92661341   2    1000021    4
    0.062962785   2    1000022    4
    0.0087911318   2    1000025    4
    0.0016185722   2    1000023    4

DECAY 1000004  205.91071
    0.68997086   2    1000021    4
    0.19991637   2    1000037    3
    0.10082072   2    1000035    4
    0.0045259634   2    1000024    3
    0.0035252299   2    1000022    4
    0.0012365902   2    1000023    4

DECAY 1000006  41.466003
    0.46382615   2    1000024    5
    0.23663618   2    1000023    6
    0.22280579   2    1000025    6
    0.063118395   2    1000022    6
    0.010130198   2    1000037    5
    0.0034579967   2    1000035    6

DECAY 2000006  115.00155
    0.27282866   2    1000006    25
    0.23238288   2    1000006    23
    0.16333777   2    1000025    6
    0.15560402   2    1000023    6
    0.07590742   2    1000037    5
    0.056476358   2    1000024    5
    0.037486332   2    1000035    6
    0.0059229486   2    1000022    6

DECAY 1000024  0.012019025
    0.99999814   2    1000022    24

DECAY 1000037  6.5191967
    0.25588095   2    1000023    24
    0.24754684   2    1000024    23
    0.2389221   2    1000024    25
    0.22816706   2    1000025    24
    0.021146117   2    1000022    24
    0.0033972185   3    1000023   -5    6
    0.0026406159   3    1000025   -5    6
    0.001896307   3    1000024    6   -6
    0.00025632179   3    1000022   -5    6

DECAY 1000022 -1


DECAY 1000023  0.0037934915
    0.20374179   3    1000022    12   -12
    0.15235638   3    1000022    1   -1
    0.15235544   3    1000022    3   -3
    0.15052939   3    1000022    5   -5
    0.11882719   3    1000022    2   -2
    0.11865402   3    1000022    4   -4
    0.034298834   3    1000022    11   -11
    0.034298558   3    1000022    13   -13
    0.034225859   3    1000022    15   -15
    0.00071253598   2    1000022    22

DECAY 1000025  0.0099088435
    0.99950477   2    1000022    23

DECAY 1000035  7.1958678
    0.23048569   2    1000024   -24
    0.23048569   2   -1000024    24
    0.1564796   2    1000025    25
    0.13338213   2    1000023    25
    0.13104176   2    1000025    23
    0.088394573   2    1000023    23
    0.012045273   2    1000022    25
    0.0084664691   2    1000022    23
    0.003841554   3    1000024    5   -6
    0.003841554   3   -1000024   -5    6
    0.00067454802   3    1000023    6   -6
    0.00062438992   3    1000025    6   -6

DECAY 1000021  219.6869
    0.15764859   2    1000006   -6
    0.15764859   2   -1000006    6
    0.13687371   2    1000005   -5
    0.13687371   2   -1000005    5
    0.10372228   2    2000006   -6
    0.10372228   2   -2000006    6
    0.10084643   2    2000005   -5
    0.10084643   2   -2000005    5
    0.0008038285   2    1000006   -4
    0.0008038285   2   -1000006    4

DECAY 25  0.0048668786
    0.45131023   2   -5    5
    0.23430302   2    1000022    1000022
    0.16207005   2   -24    24
    0.055687408   2    21    21
    0.051845904   2   -15    15
    0.022367998   2   -4    4
    0.01919354   2    23    23
    0.0017951158   2    22    22
    0.0010768003   2    22    23
    0.00017980887   2   -13    13
    0.00016954274   2   -3    3
    4.6876838e-07   2   -1    1
    1.1527005e-07   2   -2    2
    4.0423139e-09   2   -11    11

DECAY 35  80.901525
    0.22848196   2   -1000024    1000037
    0.22848196   2   -1000037    1000024
    0.17901482   2   -5    5
    0.12537041   2    1000023    1000035
    0.081869682   2    1000025    1000035
    0.035164502   2   -15    15
    0.030983461   2    1000022    1000023
    0.025380789   2    1000022    1000035
    0.012901366   2    1000022    1000022
    0.011680149   2   -1000024    1000024
    0.010739856   2    1000025    1000025
    0.0092674082   2    1000022    1000025
    0.0081677743   2    1000023    1000025
    0.0074043167   2   -6    6
    0.0014401697   2   -2000015    1000015
    0.0014401697   2   -1000015    2000015
    0.00070666637   2   -2000005    1000005
    0.00070666637   2   -1000005    2000005
    0.00030993693   2   -1000037    1000037
    0.00015454021   2    1000035    1000035
    0.00012076524   2   -13    13
    7.0045128e-05   2   -3    3
    3.9331938e-05   2   -1000006    1000006
    2.8963951e-05   2   -2000006    1000006
    2.8963951e-05   2   -1000006    2000006
    1.3725031e-05   2    1000023    1000023
    1.2833989e-05   2   -1000015    1000015
    8.6492417e-06   2   -2000015    2000015
    4.430122e-06   2    25    25
    1.5265626e-06   2   -2000006    2000006
    4.95238e-07   2    23    23
    2.726071e-07   2   -2000005    2000005
    2.6315608e-07   2    21    21
    2.076438e-07   2   -1000011    1000011
    2.0733008e-07   2   -1000013    1000013
    1.9365003e-07   2   -1    1
    1.2487907e-07   2   -2000011    2000011
    1.2465616e-07   2   -2000013    2000013
    1.0215486e-07   2   -4    4
    8.4123583e-08   2   -24    24
    7.4023442e-08   2   -1000005    1000005
    2.7734311e-08   2    22    23
    4.8622675e-09   2    22    22
    2.7118636e-09   2   -11    11
    1.4312414e-10   2   -2000013    1000013
    1.4312414e-10   2   -1000013    2000013
    5.2654801e-13   2   -2    2
    3.3476901e-15   2   -2000011    1000011
    3.3476901e-15   2   -1000011    2000011

DECAY 36  79.930209
    0.23158407   2   -1000024    1000037
    0.23158407   2   -1000037    1000024
    0.1716141   2   -5    5
    0.1037043   2    1000025    1000035
    0.10269979   2    1000023    1000035
    0.033711347   2   -15    15
    0.029272189   2    1000022    1000035
    0.02497204   2    1000022    1000023
    0.014445274   2    1000022    1000022
    0.014083219   2    1000025    1000025
    0.01293126   2    1000022    1000025
    0.011539166   2   -1000024    1000024
    0.0066895285   2   -6    6
    0.0064701384   2    1000023    1000025
    0.0014682787   2   -2000015    1000015
    0.0014682787   2   -1000015    2000015
    0.00071508651   2   -2000005    1000005
    0.00071508651   2   -1000005    2000005
    0.0001157743   2   -13    13
    6.714958e-05   2   -3    3
    4.2334604e-05   2   -1000037    1000037
    3.4092069e-05   2   -2000006    1000006
    3.4092069e-05   2   -1000006    2000006
    2.1442773e-05   2    1000035    1000035
    1.108055e-05   2    1000023    1000023
    5.1769833e-06   2    21    21
    1.3427039e-06   2    23    25
    1.8564634e-07   2   -1    1
    9.2063055e-08   2   -4    4
    2.0832851e-08   2    22    23
    2.5998363e-09   2   -11    11
    1.9560587e-10   2    22    22
    1.4383371e-10   2   -2000013    1000013
    1.4383371e-10   2   -1000013    2000013
    4.7454047e-13   2   -2    2
    3.3642854e-15   2   -2000011    1000011
    3.3642854e-15   2   -1000011    2000011
    2.6435459e-39   2    25    25

DECAY 37  81.687135
    0.2279434   2    1000024    1000035
    0.22738839   2    1000023    1000037
    0.19273248   2   -5    6
    0.18262735   2    1000025    1000037
    0.066316482   2    1000022    1000024
    0.053933098   2    1000022    1000037
    0.036201184   2   -15    16
    0.0051663904   2    1000023    1000024
    0.0028727553   2   -1000015    1000016
    0.0027780955   2    1000024    1000025
    0.0015016975   2   -1000005    2000006
    0.00027525531   2   -5    4
    0.00012798406   2   -13    14
    6.4646686e-05   2   -3    4
    3.9644931e-05   2   -2000005    1000006
    1.0617393e-05   2   -3    6
    6.1049418e-06   2   -1000005    1000006
    3.5226575e-06   2   -2000005    2000006
    3.0396367e-06   2   -3    2
    2.2916686e-06   2   -2000015    1000016
    1.9656055e-06   2   -5    2
    1.3142078e-06   2    24    25
    8.0804019e-07   2   -1000011    1000012
    8.0760447e-07   2   -1000013    1000014
    4.8253701e-07   2   -1    6
    1.7911354e-07   2   -1    2
    1.2801561e-08   2   -1    4
    2.9935603e-09   2   -11    12
    5.81584e-10   2    1000035    1000037
    2.9208249e-10   2   -2000013    1000014
    6.831906e-15   2   -2000011    1000012

DECAY 6  2.43
    1   2    5    24

DECAY 15 -1
