BLOCK SPINFO
   1   SPheno
   2   v4.0.5be

BLOCK SPHENOINFO
   1   2
   2   2

BLOCK MODSEL
   1   0

BLOCK MINPAR
   3    30.917927
   4   -1

BLOCK EXTPAR
   0    1313.7837
   1    1400.0104
   2    1510.8006
   3    3000
   11    3434.6351
   12    582.91934
   13   -1762.8329
   23   -521.58014
   25    30.11718
   26    4194.196
   31    1617.3387
   32    1617.3387
   33    859.53234
   34    941.87787
   35    941.87787
   36    561.73813
   41    5000
   42    5000
   43    1546.1775
   44    5000
   45    5000
   46    1275.509
   47    5000
   48    5000
   49    1716.5382

BLOCK SMINPUTS
   1    127.90897
   2    1.1663787e-05
   3    0.1184
   4    91.1876
   5    4.18
   6    173.2
   7    1.777
   8    0
   11    0.00051099893
   12    0
   13    0.10565837
   14    0
   21    0.005
   22    0.0025
   23    0.095
   24    1.27

BLOCK GAUGE Q=  1313.7837
   1    0.35536298
   2    0.66519887
   3    1.219778

BLOCK YU Q=  1313.7837
   1   1    8.3889927e-06
   2   2    0.0042616083
   3   3    1.0134577

BLOCK YD Q=  1313.7837
   1   1    0.00050769673
   2   2    0.0096462379
   3   3    0.50347607

BLOCK YE Q=  1313.7837
   1   1    8.8596792e-05
   2   2    0.018319007
   3   3    0.30809556

BLOCK AU Q=  1313.7837
   1   1    0
   2   2    0
   3   3    3434.6351

BLOCK AD Q=  1313.7837
   1   1    0
   2   2    0
   3   3    582.91936

BLOCK AE Q=  1313.7837
   1   1    0
   2   2    0
   3   3   -1762.8329

BLOCK MSOFT Q=  1313.7837
   1    1400.0104
   2    1510.8006
   3    3000
   21    17252342
   22   -188202.76
   31    1617.3387
   32    1617.3387
   33    859.53234
   34    941.87787
   35    941.87787
   36    561.73813
   41    5000
   42    5000
   43    1546.1775
   44    5000
   45    5000
   46    1275.509
   47    5000
   48    5000
   49    1716.5382

BLOCK MASS
   6    173.2
   23    91.1876
   24    80.429995
   15    1.777
   25    124.3965
   35    4192.4824
   36    4194.196
   37    4193.6406
   1000001    5019.5676
   2000001    5011.3221
   1000002    5019.1352
   2000002    5014.343
   1000003    5019.5722
   2000003    5011.3284
   1000004    5019.1392
   2000004    5014.344
   1000005    1504.5285
   2000005    1738.7
   1000006    1086.5257
   2000006    1588.5751
   1000011    1630.9174
   2000011    940.26537
   1000012    1628.6287
   1000013    1630.9269
   2000013    940.30148
   1000014    1628.6374
   1000015    579.38793
   2000015    889.05971
   1000016    884.12346
   1000021    3176.7054
   1000022    527.6616
   1000023   -532.69466
   1000025    1396.6735
   1000035    1561.615
   1000024    529.89589
   1000037    1561.7589

BLOCK ALPHA
      -0.032376482

BLOCK HMIX Q=  1313.7837
   1   -521.58014
   2    30.11718
   3    244.11416
   4    17591280

BLOCK STOPMIX
   1   1   -0.42641253
   1   2    0.9045288
   2   1   -0.9045288
   2   2   -0.42641253

BLOCK SBOTMIX
   1   1   -0.99814362
   1   2    0.060904115
   2   1   -0.060904115
   2   2   -0.99814362

BLOCK STAUMIX
   1   1   -0.054289902
   1   2    0.99852522
   2   1   -0.99852522
   2   2   -0.054289902

BLOCK NMIX
   1   1   -0.034639671
   1   2    0.05162102
   1   3    0.7080887
   1   4    0.70338166
   2   1   -0.01681917
   2   2    0.027774981
   2   3   -0.70580503
   2   4    0.70766159
   3   1   -0.99907306
   3   2   -0.021479017
   3   3   -0.012336482
   3   4   -0.035206306
   4   1    0.019241354
   4   2   -0.99804933
   4   3    0.017247158
   4   4    0.056831622

BLOCK UMIX
   1   1   -0.024171288
   1   2   -0.99970783
   2   1    0.99970783
   2   2   -0.024171288

BLOCK VMIX
   1   1   -0.079553843
   1   2    0.99683057
   2   1    0.99683057
   2   2    0.079553843

BLOCK HIGGSBOUNDSINPUTHIGGSCOUPLINGSFERMIONS
       0, 907.04454,3,36,15,15

BLOCK HIGGSBOUNDSINPUTHIGGSCOUPLINGSBOSONS
       0,4,36,21,21,23

BLOCK SPHENOLOWENERGY
   1    0.00028951431
   2    1.5941701e-06
   3    3.5208696e-05
   4    2.4121376e-15
   5    1.0304349e-10
   6    2.1557642e-08
   7    8.1658816e-14
   8    3.4884522e-09
   9    7.3946135e-07
   10    9.6574955e-05
   11    0.99758231
   12    0.54276383
   13    19.392366
   14    0
   15    0
   16    0.0021597973
   17    2.2816837e-15
   18    2.4781475e-11
   19    8.2854993e-11
   20   -4.2620486e-15
   21   -1.8221572e-10
   22   -8.4723746e-08
   23    0
   24    0
   25    0
   26    0
   27    0
   28    0
   29    0
   30    0
   31    0
   39    7.2462535e-05
   40    0
   41    0
   42    0

BLOCK FWCOEF Q=  160
   305   4422   0   0   -0.18881911
   305   4422   0   2   -0.14980911
   305   4322   0   2    0.00014736298
   305   6421   0   0   -0.095227835
   305   6421   0   2   -0.08019197
   305   6321   0   2   -4.1810009e-06
   3051111   4133   0   0    1.5873198
   3051111   4133   0   2    1.5888334
   3051111   4233   0   2    0.00013414201
   3051111   4137   0   0   -4.4100119
   3051111   4137   0   2   -4.4040803
   3051111   4237   0   2   -0.0010503827
   3051313   4133   0   0    1.5873198
   3051313   4133   0   2    1.5888318
   3051313   4233   0   2    0.00013414156
   3051313   4137   0   0   -4.4100119
   3051313   4137   0   2   -4.4040819
   3051313   4237   0   2   -0.0010503836
   3051212   4137   0   0    1.5053501
   3051212   4137   0   2    1.5040604
   3051212   4237   0   2    0.00022916047
   3051414   4137   0   0    1.5053501
   3051414   4137   0   2    1.5040604
   3051414   4237   0   2    0.00022916048
   3051616   4137   0   0    1.5053501
   3051616   4137   0   2    1.5040599
   3051616   4237   0   2    0.00022916261

BLOCK IMFWCOEF Q=  160
   305   4422   0   0    3.8587782e-07
   305   4422   0   2   -1.6183399e-05
   305   4322   0   2    3.8634939e-06
   305   6421   0   0    3.3052988e-07
   305   6421   0   2    6.3075507e-07
   305   6321   0   2    1.5874064e-06
   3051111   4133   0   2   -1.4063267e-06
   3051111   4233   0   2    2.631417e-06
   3051111   4137   0   2    1.1681432e-05
   3051111   4237   0   2   -2.0609188e-05
   3051313   4133   0   2   -1.4063214e-06
   3051313   4233   0   2    2.6314097e-06
   3051313   4137   0   2    1.168145e-05
   3051313   4237   0   2   -2.0609206e-05
   3051212   4137   0   2   -2.4693437e-06
   3051212   4237   0   2    4.4962759e-06
   3051414   4137   0   2   -2.4693442e-06
   3051414   4237   0   2    4.4962759e-06
   3051616   4137   0   2   -2.4804265e-06
   3051616   4237   0   2    4.4962803e-06

DECAY 23  2.4952


DECAY 24  2.085


DECAY 2000011  0.0032769548
    0.81191612   2    1000022    11
    0.18806303   2    1000023    11

DECAY 1000011  0.3196842
    0.49206549   2    1000025    11
    0.30928782   2   -1000037    12
    0.1515881   2    1000035    11
    0.020991416   2   -1000024    12
    0.019740209   2    1000022    11
    0.0063269341   2    1000023    11

DECAY 2000013  0.0091188109
    0.45389012   2    1000022    13
    0.32041912   2   -1000024    14
    0.22569076   2    1000023    13

DECAY 1000013  0.32880386
    0.47845168   2    1000025    13
    0.30078852   2   -1000037    14
    0.14742194   2    1000035    13
    0.032503754   2    1000022    13
    0.020409375   2   -1000024    14
    0.019315137   2    1000023    13
    0.0011095908   2    2000013    25

DECAY 1000015  0.058737678
    0.49929578   2   -1000024    16
    0.2801684   2    1000022    15
    0.22053582   2    1000023    15

DECAY 2000015  0.93052432
    0.37532805   2    1000022    15
    0.37283294   2    1000023    15
    0.12708297   2    1000015    25
    0.12475252   2    1000015    23

DECAY 1000012  0.37967526
    0.34675948   2    1000025    12
    0.24274169   2    1000037    11
    0.19106289   2    1000024    11
    0.12471081   2    1000035    12
    0.074378763   2    1000022    12
    0.020346372   2    1000023    12

DECAY 1000014  0.38840935
    0.33898395   2    1000025    14
    0.23734188   2    1000037    13
    0.20914147   2    1000024    13
    0.12193689   2    1000035    14
    0.072706793   2    1000022    14
    0.019889004   2    1000023    14

DECAY 1000016  0.94624985
    0.74636065   2    1000024    15
    0.24300183   2    1000015    24
    0.0083826839   2    1000022    16
    0.002254839   2    1000023    16

DECAY 2000001  143.91196
    0.98345817   2    1000021    1
    0.016507421   2    1000025    1

DECAY 1000001  197.07087
    0.72253294   2    1000021    1
    0.18280446   2   -1000037    2
    0.091729409   2    1000035    1
    0.0023350252   2    1000025    1
    0.00036624202   2    1000022    1
    0.00012809809   2   -1000024    2
    0.00010383198   2    1000023    1

DECAY 2000003  143.9307
    0.98333462   2    1000021    3
    0.016505306   2    1000025    3

DECAY 1000003  197.08225
    0.72249364   2    1000021    3
    0.18279419   2   -1000037    4
    0.091724242   2    1000035    3
    0.0023348991   2    1000025    3
    0.00038927901   2    1000022    3
    0.00013702809   2   -1000024    4
    0.00012672286   2    1000023    3

DECAY 1000005  71.650007
    0.60556138   2    1000006   -24
    0.31265261   2   -1000024    6
    0.041556894   2    1000022    5
    0.040186233   2    1000023    5

DECAY 2000005  15.255157
    0.47232172   2   -1000024    6
    0.23644778   2    1000023    5
    0.23490256   2    1000022    5
    0.034943623   2    1000006   -24
    0.0080188923   2    1000025    5
    0.0059023106   2    1000005    25
    0.0053606646   2    1000005    23
    0.0019304695   2    2000006   -24
    0.00011886758   2    1000035    5

DECAY 2000002  151.37573
    0.93704581   2    1000021    2
    0.062824592   2    1000025    2

DECAY 1000002  197.06644
    0.72232063   2    1000021    2
    0.18173543   2    1000037    1
    0.090469259   2    1000035    2
    0.0037932381   2    1000025    2
    0.0013876373   2    1000024    1
    0.00022650809   2    1000022    2

DECAY 2000004  151.37931
    0.93702391   2    1000021    4
    0.062823133   2    1000025    4

DECAY 1000004  197.07769
    0.72228121   2    1000021    4
    0.18172528   2    1000037    3
    0.090464225   2    1000035    4
    0.0037930326   2    1000025    4
    0.0014335097   2    1000024    3
    0.00023094394   2    1000022    4

DECAY 1000006  23.769233
    0.44286356   2    1000024    5
    0.2812916   2    1000023    6
    0.27582206   2    1000022    6

DECAY 2000006  79.878476
    0.36344437   2    1000006    23
    0.20120773   2    1000006    25
    0.14946362   2    1000022    6
    0.14801093   2    1000023    6
    0.1366445   2    1000024    5
    0.00074285304   2    1000005    24
    0.00034694321   2    1000025    6
    0.0001390446   2    1000037    5

DECAY 1000024  4.8717214e-11
    0.53759622   3    1000022   -1    2
    0.17920721   3    1000022   -11    12
    0.17722795   3    1000022   -13    14
    0.10234558   3    1000022   -3    4
    0.0036230393   3    1000022   -15    16

DECAY 1000037  20.639788
    0.15408023   2    1000024    25
    0.15284409   2    1000016   -15
    0.15181443   2   -2000015    16
    0.15076772   2    1000023    24
    0.14874932   2    1000024    23
    0.14799988   2    1000022    24
    0.076092505   2    1000006   -5
    0.0060422805   3    1000024    6   -6
    0.0053350712   3    1000023   -5    6
    0.0048050402   3    1000022   -5    6
    0.00055869654   2    1000025    24
    0.00046000204   2   -1000015    16
    0.00044697549   3    1000024    5   -5

DECAY 1000022 -1


DECAY 1000023  3.6927275e-08
    0.74970068   2    1000022    22
    0.060868179   3    1000022    12   -12
    0.045514679   3    1000022    1   -1
    0.045326133   3    1000022    3   -3
    0.035497385   3    1000022    2   -2
    0.014431546   3    1000022    4   -4
    0.010271214   3    1000022    11   -11
    0.010204564   3    1000022    13   -13
    0.0065250767   3    1000024    1   -2
    0.0065250767   3   -1000024   -1    2
    0.0023769895   3    1000024    3   -4
    0.0023769895   3   -1000024   -3    4
    0.0021750628   3    1000024    11   -12
    0.0021750628   3   -1000024   -11    12
    0.0021597155   3    1000024    13   -14
    0.0021597155   3   -1000024   -13    14
    0.0011752258   3    1000022    15   -15
    0.00026835429   3    1000024    15   -16
    0.00026835429   3   -1000024   -15    16

DECAY 1000025  15.365563
    0.15588286   2    1000015   -15
    0.15588286   2   -1000015    15
    0.068145511   2    2000011   -11
    0.068145511   2   -2000011    11
    0.068136863   2    2000013   -13
    0.068136863   2   -2000013    13
    0.059325744   2    1000024   -24
    0.059325744   2   -1000024    24
    0.044567561   2    1000023    25
    0.043108977   2    1000023    23
    0.038315356   2    1000022    25
    0.037857476   2    1000006   -6
    0.037857476   2   -1000006    6
    0.022002966   2    2000015   -15
    0.022002966   2   -2000015    15
    0.018851403   2    1000016   -16
    0.018851403   2   -1000016    16
    0.0098896568   2    1000022    23
    0.0013475671   3    1000024    5   -6
    0.0013475671   3   -1000024   -5    6
    0.00052458283   3    1000023    6   -6
    0.00048068911   3    1000022    6   -6

DECAY 1000035  22.662829
    0.13335496   2    1000024   -24
    0.13335496   2   -1000024    24
    0.12826651   2    1000023    25
    0.11037609   2    1000022    25
    0.10921891   2    1000023    23
    0.071181793   2    1000016   -16
    0.071181793   2   -1000016    16
    0.06748989   2    2000015   -15
    0.06748989   2   -2000015    15
    0.030892513   2    1000022    23
    0.030093534   2    1000006   -6
    0.030093534   2   -1000006    6
    0.0040851627   3    1000024    5   -6
    0.0040851627   3   -1000024   -5    6
    0.002337668   2    1000005   -5
    0.002337668   2   -1000005    5
    0.0017089713   3    1000023    6   -6
    0.0015493468   3    1000022    6   -6
    0.00029108949   2    1000025    25
    0.00024643542   2    1000015   -15
    0.00024643542   2   -1000015    15

DECAY 1000021  235.36496
    0.17038433   2    1000006   -6
    0.17038433   2   -1000006    6
    0.12024105   2    1000005   -5
    0.12024105   2   -1000005    5
    0.099522043   2    2000006   -6
    0.099522043   2   -2000006    6
    0.097955637   2    2000005   -5
    0.097955637   2   -2000005    5
    0.011496862   2    1000006   -4
    0.011496862   2   -1000006    4
    0.00018229342   3    1000035    5   -5
    0.00015799539   3    1000035    6   -6
    0.00014905445   3    1000037    5   -6
    0.00014905445   3   -1000037   -5    6

DECAY 25  0.0037916585
    0.5829536   2   -5    5
    0.21930301   2   -24    24
    0.07121981   2    21    21
    0.067112659   2   -15    15
    0.02891054   2   -4    4
    0.026230298   2    23    23
    0.0023651978   2    22    22
    0.001452001   2    22    23
    0.00023276906   2   -13    13
    0.00021935422   2   -3    3
    6.0649181e-07   2   -1    1
    1.4898498e-07   2   -2    2
    5.2329141e-09   2   -11    11

DECAY 35  109.34625
    0.5274017   2   -5    5
    0.11215115   2   -1000024    1000037
    0.11215115   2   -1000037    1000024
    0.064771844   2   -15    15
    0.059758327   2    1000023    1000035
    0.055281406   2    1000022    1000035
    0.015852477   2    1000023    1000025
    0.014945177   2    1000022    1000025
    0.00610666   2   -2000015    1000015
    0.00610666   2   -1000015    2000015
    0.0046750411   2   -1000006    1000006
    0.0039671478   2   -2000006    2000006
    0.0032306508   2   -2000006    1000006
    0.0032306508   2   -1000006    2000006
    0.0021804829   2   -2000005    1000005
    0.0021804829   2   -1000005    2000005
    0.0020851711   2   -6    6
    0.0020539599   2   -1000024    1000024
    0.00080730726   2    1000022    1000022
    0.00023406194   2   -13    13
    0.00018753607   2    1000023    1000023
    0.00014890626   2   -3    3
    9.0338731e-05   2   -1000015    1000015
    8.7809347e-05   2   -1000037    1000037
    8.7654711e-05   2   -2000015    2000015
    7.4348775e-05   2    1000022    1000023
    4.5909043e-05   2    1000035    1000035
    3.4218143e-05   2   -1000005    1000005
    3.1838738e-05   2    1000025    1000035
    3.1475895e-05   2   -2000005    2000005
    5.3687311e-06   2    1000025    1000025
    1.5133123e-06   2    21    21
    4.1164856e-07   2   -1    1
    2.7341407e-07   2    25    25
    1.9241698e-07   2    23    23
    3.8995995e-08   2   -2000011    2000011
    3.8843905e-08   2   -2000013    2000013
    3.8506095e-08   2   -24    24
    3.5446031e-08   2   -1000011    1000011
    3.5366075e-08   2    22    23
    3.5210127e-08   2   -1000013    1000013
    2.3956807e-08   2   -4    4
    1.1002355e-08   2    22    22
    5.2564064e-09   2   -11    11
    1.6403189e-09   2   -2000013    1000013
    1.6403189e-09   2   -1000013    2000013
    1.2347713e-13   2   -2    2
    3.8367378e-14   2   -2000011    1000011
    3.8367378e-14   2   -1000011    2000011

DECAY 36  105.08061
    0.51254103   2   -5    5
    0.11674478   2   -1000024    1000037
    0.11674478   2   -1000037    1000024
    0.062940317   2   -15    15
    0.062472028   2    1000022    1000035
    0.057282295   2    1000023    1000035
    0.016552463   2    1000022    1000025
    0.015506717   2    1000023    1000025
    0.0079597626   2   -2000006    1000006
    0.0079597626   2   -1000006    2000006
    0.0064448314   2   -2000015    1000015
    0.0064448314   2   -1000015    2000015
    0.0023046432   2   -2000005    1000005
    0.0023046432   2   -1000005    2000005
    0.0021877226   2   -1000024    1000024
    0.0018511788   2   -6    6
    0.00078712739   2    1000022    1000022
    0.00023715072   2    1000023    1000023
    0.00022744884   2   -13    13
    0.00014469696   2   -3    3
    0.00012675072   2   -1000037    1000037
    0.00010952653   2    1000022    1000023
    6.6352168e-05   2    1000035    1000035
    4.3347915e-05   2    1000025    1000035
    8.0003431e-06   2    21    21
    6.9308075e-06   2    1000025    1000025
    4.4544487e-07   2    23    25
    4.0001079e-07   2   -1    1
    2.1000829e-08   2   -4    4
    1.303878e-08   2    22    23
    5.1078024e-09   2   -11    11
    1.7055572e-09   2   -2000013    1000013
    1.7055572e-09   2   -1000013    2000013
    1.1578908e-09   2    22    22
    1.544971e-13   2    23    35
    1.0824008e-13   2   -2    2
    3.9893159e-14   2   -2000011    1000011
    3.9893159e-14   2   -1000011    2000011
    2.1544176e-37   2    25    25

DECAY 37  111.84251
    0.53583306   2   -5    6
    0.11118615   2    1000022    1000037
    0.10971573   2    1000023    1000037
    0.10752434   2    1000024    1000035
    0.071680394   2   -15    16
    0.036128797   2    1000024    1000025
    0.012069603   2   -1000015    1000016
    0.0082638983   2   -1000005    1000006
    0.0043477752   2   -2000005    2000006
    0.0013687948   2   -1000005    2000006
    0.00079291564   2   -5    4
    0.00031146844   2    1000023    1000024
    0.0002534157   2   -13    14
    0.00023310202   2   -2000005    1000006
    0.00013445912   2   -3    4
    7.6722406e-05   2    1000025    1000037
    4.7006451e-05   2   -2000015    1000016
    1.6810482e-05   2    1000022    1000024
    6.3202998e-06   2   -3    2
    5.6622349e-06   2   -5    2
    2.330494e-06   2   -3    6
    4.1847967e-07   2    24    25
    3.7293398e-07   2   -1    2
    1.4987235e-07   2   -2000011    1000012
    1.4966345e-07   2   -2000013    1000014
    9.7693609e-08   2   -1    6
    2.8187208e-08   2    1000035    1000037
    1.8371009e-08   2   -1    4
    5.9274195e-09   2   -11    12
    3.1591068e-09   2   -1000013    1000014
    7.3890975e-14   2   -1000011    1000012
    2.5372215e-14   2    24    35

DECAY 6  2.43
    1   2    5    24

DECAY 15 -1
