BLOCK DCINFO
   1   SDECAY/HDECAY
   2   1.3b /3.4

BLOCK SPINFO
   1   SOFTSUSY
   2   3.4.0

BLOCK MODSEL
   1   0

BLOCK SMINPUTS
   1    127.90897
   2    1.1663787e-05
   3    0.1184
   4    91.1876
   5    4.18
   6    173.2
   7    1.777

BLOCK MINPAR
   3    20.97

BLOCK EXTPAR
   0   -1
   1    600.93
   2    592.26
   3    3645.79
   11   -3092.77
   12    3861.39
   13   -66.11
   23    2236.82
   26    2475
   31    3965.6
   32    3965.6
   33    2334.27
   34    2306.95
   35    2306.95
   36    3517.3
   41    532.84
   42    532.84
   43    3854.57
   44    1899.55
   45    1899.55
   46    3371.98
   47    3918.33
   48    3918.33
   49    3006.29

BLOCK MASS
   24    80.375533
   25    124.52767
   35    2475.0087
   36    2475
   37    2476.3919
   5    4.8187603
   1000001    882.07393
   2000001    4030.7195
   1000002    878.47903
   2000002    2066.7016
   1000003    882.07393
   2000003    4030.7195
   1000004    878.47903
   2000004    2066.7016
   1000005    3139.8249
   2000005    3943.3578
   1000006    3450.2687
   2000006    3953.0335
   1000011    3972.9681
   2000011    2313.1436
   1000012    3971.8569
   1000013    3972.9681
   2000013    2313.1436
   1000014    3971.8569
   1000015    2337.1094
   2000015    3519.4763
   1000016    2335.6776
   1000021    3762.3125
   1000022    593.26435
   1000023    608.81531
   1000025   -2287.923
   1000035    2289.1931
   1000024    608.7138
   1000037    2289.8904

BLOCK NMIX
   1   1    0.99906892
   1   2   -0.036178498
   1   3    0.022456231
   1   4   -0.0069370398
   2   1    0.037039612
   2   2    0.99861748
   2   3   -0.035643514
   2   4    0.010988185
   3   1   -0.010329708
   3   2    0.017827454
   3   3    0.70674112
   3   4    0.70717216
   4   1   -0.019561514
   4   2    0.033710997
   4   3    0.70621685
   4   4   -0.70692197

BLOCK UMIX
   1   1    0.9986715
   1   2   -0.05152901
   2   1    0.05152901
   2   2    0.9986715

BLOCK VMIX
   1   1    0.99987369
   1   2   -0.015893661
   2   1    0.015893661
   2   2    0.99987369

BLOCK STOPMIX
   1   1    0.12689474
   1   2    0.99191619
   2   1   -0.99191619
   2   2    0.12689474

BLOCK SBOTMIX
   1   1    0.015735182
   1   2    0.99987619
   2   1   -0.99987619
   2   2    0.015735182

BLOCK STAUMIX
   1   1    0.99992891
   1   2    0.011923714
   2   1   -0.011923714
   2   2    0.99992891

BLOCK ALPHA
      -0.049957884

BLOCK HMIX Q=  3606.588
   1    2271.7006
   2    20.063211
   3    242.51686
   4    6527276.8

BLOCK GAUGE Q=  3606.588
   1    0.36527675
   2    0.6389129
   3    1.0044199

BLOCK AU Q=  3606.588
   1   1    0
   2   2    0
   3   3   -3092.77

BLOCK AD Q=  3606.588
   1   1    0
   2   2    0
   3   3    3861.39

BLOCK AE Q=  3606.588
   1   1    0
   2   2    0
   3   3   -66.109999

BLOCK YU Q=  3606.588
   1   1    0
   2   2    0
   3   3    0.81122379

BLOCK YD Q=  3606.588
   1   1    0
   2   2    0
   3   3    0.25080963

BLOCK YE Q=  3606.588
   1   1    0
   2   2    0
   3   3    0.20831881

BLOCK MSOFT Q=  3606.588
   1    600.93
   2    592.26
   3    3645.79
   21    901996.37
   22   -4907825.1
   31    3965.6
   32    3965.6
   33    2334.27
   34    2306.95
   35    2306.95
   36    3517.3
   41    532.8399
   42    532.8399
   43    3854.57
   44    1899.55
   45    1899.55
   46    3371.9799
   47    3918.33
   48    3918.33
   49    3006.29

BLOCK HIGGSBOUNDSINPUTHIGGSCOUPLINGSFERMIONS
       0, 402.53242,3,36,15,15

BLOCK HIGGSBOUNDSINPUTHIGGSCOUPLINGSBOSONS
       0,4,36,21,21,23

DECAY 6  1.4382957
    1   2    5    24

DECAY 1000021  347.92698
    0.095888409   2    1000002   -2
    0.095888409   2   -1000002    2
    0.095888407   2    1000004   -4
    0.095888407   2   -1000004    4
    0.095797738   2    1000001   -1
    0.095797738   2   -1000001    1
    0.095797738   2    1000003   -3
    0.095797738   2   -1000003    3
    0.052297902   2    2000002   -2
    0.052297902   2   -2000002    2
    0.05229789   2    2000004   -4
    0.05229789   2   -2000004    4
    0.010013827   2    1000005   -5
    0.010013827   2   -1000005    5
    0.0020180882   2    1000006   -6
    0.0020180882   2   -1000006    6

DECAY 1000006  36.209392
    0.3834307   2    1000037    5
    0.20777888   2    1000022    6
    0.1996902   2    1000025    6
    0.18529735   2    1000035    6
    0.015679093   2    1000024    5
    0.0081107685   2    1000023    6
    1.2999114e-05   2    1000005    24

DECAY 2000006  79.701802
    0.37583486   2    1000024    5
    0.1892722   2    1000023    6
    0.14669789   2    1000035    6
    0.13924628   2    1000025    6
    0.051117102   2    1000006    23
    0.046120908   2    1000006    25
    0.032504059   2    1000037    5
    0.0074550317   2    1000021    6
    0.0058797738   2    1000005    24
    0.0058718903   2    1000022    6

DECAY 1000005  3.4489775
    0.49966026   2    1000022    5
    0.23736777   2   -1000037    6
    0.12496321   2    1000025    5
    0.12428222   2    1000035    5
    0.008784352   2   -1000024    6
    0.0049421988   2    1000023    5

DECAY 2000005  80.775439
    0.37487487   2   -1000024    6
    0.28069415   2   -1000037    6
    0.18562888   2    1000023    5
    0.095053047   2    1000006   -24
    0.021005371   2    1000021    5
    0.013570518   2    1000035    5
    0.01348474   2    1000025    5
    0.0097092488   2    1000022    5
    0.0030522675   2    1000005    25
    0.0029269088   2    1000005    23

DECAY 1000002  3.097631
    0.65844887   2    1000024    1
    0.33298448   2    1000023    2
    0.0085666515   2    1000022    2

DECAY 2000002  4.1457837
    0.99864029   2    1000022    2
    0.0013597076   2    1000023    2

DECAY 1000001  3.1531936
    0.6575008   2   -1000024    2
    0.32401508   2    1000023    1
    0.018484117   2    1000022    1

DECAY 2000001  7.2103836
    0.69868583   2    1000021    1
    0.30083022   2    1000022    1
    0.00041254984   2    1000023    1
    5.5821788e-05   2    1000035    1
    1.5582173e-05   2    1000025    1

DECAY 1000004  2.9274713
    0.65844991   2    1000024    3
    0.33297667   2    1000023    4
    0.0085734204   2    1000022    4

DECAY 2000004  4.103791
    0.99864038   2    1000022    4
    0.0013596154   2    1000023    4

DECAY 1000003  2.9809213
    0.65748762   2   -1000024    4
    0.32401369   2    1000023    3
    0.018498691   2    1000022    3

DECAY 2000003  5.8510171
    0.61115431   2    1000021    3
    0.38822205   2    1000022    3
    0.00053235874   2    1000023    3
    7.1362459e-05   2    1000035    3
    1.9920471e-05   2    1000025    3

DECAY 1000011  51.141704
    0.60002016   2   -1000024    12
    0.31283306   2    1000023    11
    0.086308265   2    1000022    11
    0.00074705085   2   -1000037    12
    7.1433256e-05   2    1000035    11
    2.0028188e-05   2    1000025    11

DECAY 2000011  10.712445
    0.99863734   2    1000022    11
    0.0013624147   2    1000023    11
    1.8616514e-07   2    1000035    11
    5.753262e-08   2    1000025    11

DECAY 1000013  51.141704
    0.60002016   2   -1000024    14
    0.31283306   2    1000023    13
    0.086308265   2    1000022    13
    0.00074705085   2   -1000037    14
    7.1433256e-05   2    1000035    13
    2.0028188e-05   2    1000025    13

DECAY 2000013  10.712445
    0.99863734   2    1000022    13
    0.0013624147   2    1000023    13
    1.8616331e-07   2    1000035    13
    5.753211e-08   2    1000025    13

DECAY 1000015  27.41661
    0.60009504   2   -1000024    16
    0.31293497   2    1000023    15
    0.086843134   2    1000022    15
    6.358422e-05   2    1000025    15
    6.0758792e-05   2    1000035    15
    2.5141392e-06   2   -1000037    16

DECAY 2000015  21.032045
    0.8369293   2    1000022    15
    0.048091448   2   -1000037    16
    0.032222469   2    1000016   -24
    0.024179783   2    1000035    15
    0.024128848   2    1000025    15
    0.016725012   2    1000015    25
    0.016523361   2    1000015    23
    0.0011691679   2    1000023    15
    3.0606642e-05   2   -1000024    16

DECAY 1000012  51.152651
    0.60115254   2    1000024    11
    0.28723896   2    1000023    12
    0.1111748   2    1000022    12
    0.00028340816   2    1000035    12
    7.9288863e-05   2    1000025    12
    7.0996704e-05   2    1000037    11

DECAY 1000014  51.152651
    0.60115254   2    1000024    13
    0.28723896   2    1000023    14
    0.1111748   2    1000022    14
    0.00028340816   2    1000035    14
    7.9288863e-05   2    1000025    14
    7.0996704e-05   2    1000037    13

DECAY 1000016  27.415924
    0.60108452   2    1000024    15
    0.28712655   2    1000023    16
    0.11167637   2    1000022    16
    0.00011115552   2    1000037    15
    1.0827944e-06   2    1000035    16
    3.1918584e-07   2    1000025    16

DECAY 1000024  5.6431369e-09
    0.33799721   3    1000022    2   -1
    0.33799721   3    1000022    4   -3
    0.11029322   3    1000022   -11    12
    0.11029322   3    1000022   -13    14
    0.10341914   3    1000022   -15    16

DECAY 1000037  15.335961
    0.31337805   2    1000024    25
    0.29849288   2    1000023    24
    0.29479187   2    1000024    23
    0.085617662   2    1000022    24
    0.0035236036   2   -1000001    2
    0.0035236029   2   -1000003    4
    0.00033616576   2    1000002   -1
    0.00033616576   2    1000004   -3

DECAY 1000022 -1


DECAY 1000023  2.760836e-11
    0.31747268   3    1000022   -1    1
    0.31747268   3    1000022   -3    3
    0.1644623   3    1000022   -2    2
    0.1644623   3    1000022   -4    4
    0.026957343   2    1000022    22
    0.0029887559   3    1000022   -5    5
    0.0016128255   3    1000022   -12    12
    0.0016128255   3    1000022   -14    14
    0.0014531821   3    1000022   -15    15
    0.00075239083   3    1000022   -11    11
    0.00075239083   3    1000022   -13    13
    3.2007661e-07   3    1000022   -16    16
    1.1787509e-09   3    1000024   -12    11
    1.1787509e-09   3   -1000024    12   -11

DECAY 1000025  14.91221
    0.29422341   2    1000024   -24
    0.29422341   2   -1000024    24
    0.22612781   2    1000023    23
    0.090887866   2    1000022    23
    0.066512382   2    1000023    25
    0.026261314   2    1000022    25
    0.00026703302   2    1000001   -1
    0.00026703302   2   -1000001    1
    0.00026703302   2    1000003   -3
    0.00026703302   2   -1000003    3
    0.00017186227   2    1000002   -2
    0.00017186227   2   -1000002    2
    0.00017186223   2    1000004   -4
    0.00017186223   2   -1000004    4
    2.0538819e-06   2    2000002   -2
    2.0538819e-06   2   -2000002    2
    2.0538356e-06   2    2000004   -4
    2.0538356e-06   2   -2000004    4

DECAY 1000035  15.195759
    0.28898397   2    1000024   -24
    0.28898397   2   -1000024    24
    0.23744752   2    1000023    25
    0.091050595   2    1000022    25
    0.062352484   2    1000023    23
    0.024986079   2    1000022    23
    0.00093814636   2    1000001   -1
    0.00093814636   2   -1000001    1
    0.00093814636   2    1000003   -3
    0.00093814636   2   -1000003    3
    0.00060339498   2    1000002   -2
    0.00060339498   2   -1000002    2
    0.00060339486   2    1000004   -4
    0.00060339486   2   -1000004    4
    7.3019756e-06   2    2000002   -2
    7.3019756e-06   2   -2000002    2
    7.3018131e-06   2    2000004   -4
    7.3018131e-06   2   -2000004    4

DECAY 25  0.0042347565
    0.62748451   2    5   -5
    0.18885694   2    24   -24
    0.074589578   2    21    21
    0.061247185   2   -15    15
    0.02334557   2    23    23
    0.020417969   2    4   -4
    0.0021919556   2    22    22
    0.0014128686   2    22    23
    0.00023662433   2    3   -3
    0.00021680129   2   -13    13

DECAY 35  13.017059
    0.81988403   2    5   -5
    0.15453735   2   -15    15
    0.019567094   2    6   -6
    0.0027316551   2    1000024   -1000024
    0.0012523343   2    1000023    1000023
    0.00093390594   2    1000022    1000023
    0.0005519173   2   -13    13
    0.00026411566   2    3   -3
    0.00017357322   2    1000022    1000022
    4.3300765e-05   2    25    25
    1.0812103e-05   2    21    21
    1.0651819e-05   2    1000001   -1000001
    1.0651819e-05   2    1000003   -1000003
    9.1614071e-06   2    24   -24
    7.2855466e-06   2    1000002   -1000002
    7.2855466e-06   2    1000004   -1000004
    4.5677764e-06   2    23    23
    2.0017772e-07   2    4   -4
    9.5951998e-08   2    22    22
    1.076146e-08   2    23    22

DECAY 36  13.0462
    0.81812968   2    5   -5
    0.15419438   2   -15    15
    0.019657886   2    6   -6
    0.0038236931   2    1000024   -1000024
    0.0017531217   2    1000023    1000023
    0.001296929   2    1000022    1000023
    0.00055069123   2   -13    13
    0.00026357583   2    3   -3
    0.00023917785   2    1000022    1000022
    8.1119528e-05   2    21    21
    9.2462699e-06   2    23    25
    2.288823e-07   2    22    22
    2.003133e-07   2    4   -4
    6.6793151e-08   2    23    22

DECAY 37  11.714173
    0.82355533   2    6   -5
    0.17182451   2   -15    16
    0.0022849876   2    1000024    1000022
    0.0013513502   2    4   -5
    0.00061365564   2   -13    14
    0.00028911149   2    4   -3
    1.9697842e-05   2    1000002   -1000001
    1.9697842e-05   2    1000004   -1000003
    1.4677494e-05   2    2   -3
    1.3513475e-05   2    2   -5
    1.0324637e-05   2    24    25
    3.1482959e-06   2    1000024    1000023
    5.8663925e-13   2    24    36

DECAY 5 -1


DECAY 15 -1


DECAY 23  2.4952


DECAY 24  2.085
