BLOCK DCINFO
   1   SDECAY/HDECAY
   2   1.3b /3.4

BLOCK SPINFO
   1   SOFTSUSY
   2   3.4.0

BLOCK MODSEL
   1   0

BLOCK SMINPUTS
   1    127.90897
   2    1.1663787e-05
   3    0.1184
   4    91.1876
   5    4.18
   6    173.2
   7    1.777

BLOCK MINPAR
   3    46.52

BLOCK EXTPAR
   0   -1
   1   -285.05
   2   -1382.31
   3    2323.8
   11   -3569.74
   12    1735.41
   13    2461.95
   23    3302.84
   26    3153.89
   31    3025.8
   32    3025.8
   33    1328.51
   34    1768.64
   35    1768.64
   36    406.06
   41    3278.2
   42    3278.2
   43    2226.14
   44    3066.25
   45    3066.25
   46    1245.04
   47    2340.98
   48    2340.98
   49    3658.4

BLOCK MASS
   24    80.388573
   25    124.38203
   35    3154.3117
   36    3153.8899
   37    3154.4797
   5    4.8187603
   1000001    3316.7386
   2000001    2394.6636
   1000002    3315.9355
   2000002    3103.8493
   1000003    3316.7386
   2000003    2394.6636
   1000004    3315.9355
   2000004    3103.8493
   1000005    2264.7737
   2000005    3683.5117
   1000006    1265.5473
   2000006    2287.9169
   1000011    3032.4587
   2000011    1769.3318
   1000012    3031.1043
   1000013    3032.4587
   2000013    1769.3318
   1000014    3031.1043
   1000015    292.24788
   2000015    1342.5187
   1000016    1326.3922
   1000021    2471.7501
   1000022   -284.55721
   1000023   -1432.1517
   1000025    3311.225
   1000035   -3311.9424
   1000024    1432.3165
   1000037    3312.6964

BLOCK NMIX
   1   1    0.99990509
   1   2    4.0719893e-05
   1   3    0.0137579
   1   4    0.00072928808
   2   1    0.00035346111
   2   2    0.99954424
   2   3   -0.02805723
   2   4   -0.011134585
   3   1    0.009211975
   3   2   -0.011970879
   3   3   -0.70696014
   3   4    0.70709207
   4   1   -0.010238551
   4   2    0.027712966
   4   3    0.70656271
   4   4    0.70703345

BLOCK UMIX
   1   1    0.99922283
   1   2   -0.039417595
   2   1    0.039417595
   2   2    0.99922283

BLOCK VMIX
   1   1   -0.99988032
   1   2   -0.015470784
   2   1   -0.015470784
   2   2    0.99988032

BLOCK STOPMIX
   1   1    0.14860348
   1   2    0.98889686
   2   1   -0.98889686
   2   2    0.14860348

BLOCK SBOTMIX
   1   1    0.99950326
   1   2    0.031515445
   2   1   -0.031515445
   2   2    0.99950326

BLOCK STAUMIX
   1   1    0.14627053
   1   2    0.98924463
   2   1   -0.98924463
   2   2    0.14627053

BLOCK ALPHA
      -0.021945417

BLOCK HMIX Q=  1656.81
   1    3330.2
   2    45.481085
   3    243.34806
   4    11226807

BLOCK GAUGE Q=  1656.81
   1    0.36295783
   2    0.63484254
   3    1.0263269

BLOCK AU Q=  1656.81
   1   1    0
   2   2    0
   3   3   -3569.74

BLOCK AD Q=  1656.81
   1   1    0
   2   2    0
   3   3    1735.41

BLOCK AE Q=  1656.81
   1   1    0
   2   2    0
   3   3    2461.95

BLOCK YU Q=  1656.81
   1   1    0
   2   2    0
   3   3    0.82597128

BLOCK YD Q=  1656.81
   1   1    0
   2   2    0
   3   3    0.48353067

BLOCK YE Q=  1656.81
   1   1    0
   2   2    0
   3   3    0.43449524

BLOCK MSOFT Q=  1656.81
   1   -285.05
   2   -1382.31
   3    2323.8
   21   -343123.07
   22   -11046501
   31    3025.8
   32    3025.8
   33    1328.51
   34    1768.64
   35    1768.64
   36    406.06
   41    3278.2
   42    3278.2
   43    2226.14
   44    3066.25
   45    3066.25
   46    1245.04
   47    2340.98
   48    2340.98
   49    3658.4

BLOCK HIGGSBOUNDSINPUTHIGGSCOUPLINGSFERMIONS
       0, 2068.5291,3,36,15,15

BLOCK HIGGSBOUNDSINPUTHIGGSCOUPLINGSBOSONS
       0,4,36,21,21,23

DECAY 6  1.4194531
    1   2    5    24

DECAY 1000021  26.982927
    0.46192382   2    1000006   -6
    0.46192382   2   -1000006    6
    0.023912591   2    1000005   -5
    0.023912591   2   -1000005    5
    0.0080838538   2    2000006   -6
    0.0080838538   2   -2000006    6
    0.0030398675   2    2000001   -1
    0.0030398675   2   -2000001    1
    0.0030398675   2    2000003   -3
    0.0030398675   2   -2000003    3

DECAY 1000006  2.4811177
    1   2    1000022    6

DECAY 2000006  62.410889
    0.43740777   2    1000006    23
    0.39713568   2    1000006    25
    0.1070228   2    1000024    5
    0.051477673   2    1000023    6
    0.0069560779   2    1000022    6

DECAY 1000005  61.058021
    0.83814495   2    1000006   -24
    0.10289304   2   -1000024    6
    0.05360884   2    1000023    5
    0.0053531693   2    1000022    5

DECAY 2000005  80.932774
    0.76841319   2    1000021    5
    0.085765277   2    2000006   -24
    0.052204147   2    1000005    25
    0.046848659   2    1000005    23
    0.02611104   2    1000022    5
    0.007112431   2   -1000037    6
    0.005752585   2    1000006   -24
    0.0039059533   2    1000025    5
    0.0038856789   2    1000035    5
    6.5879822e-07   2   -1000024    6
    3.7537753e-07   2    1000023    5

DECAY 1000002  72.58371
    0.6446945   2    1000021    2
    0.23273545   2    1000024    1
    0.11631731   2    1000023    2
    0.0062527418   2    1000022    2
    8.5936893e-10   2    1000035    2
    4.1165709e-10   2    1000037    1
    1.8665601e-10   2    1000025    2

DECAY 2000002  36.455766
    0.81435041   2    1000021    2
    0.18564958   2    1000022    2
    1.473328e-08   2    1000023    2

DECAY 1000001  72.638826
    0.64514182   2    1000021    1
    0.23236181   2   -1000024    2
    0.11625211   2    1000023    1
    0.0062442597   2    1000022    1
    4.1169842e-09   2   -1000037    2
    1.6287963e-09   2    1000035    1
    4.5799957e-10   2    1000025    1

DECAY 2000001  1.3115787
    0.99999995   2    1000022    1
    5.3578217e-08   2    1000023    1

DECAY 1000004  63.440473
    0.57672687   2    1000021    4
    0.2772217   2    1000024    3
    0.13855089   2    1000023    4
    0.0075005384   2    1000022    4
    7.3812341e-10   2    1000035    4
    3.7955259e-10   2    1000037    3
    1.6576563e-10   2    1000025    4

DECAY 2000004  30.320911
    0.76555851   2    1000021    4
    0.23444147   2    1000022    4
    1.8458253e-08   2    1000023    4

DECAY 1000003  63.480204
    0.57720514   2    1000021    3
    0.27681233   2   -1000024    4
    0.13849122   2    1000023    3
    0.0074913107   2    1000022    3
    3.5469389e-09   2   -1000037    4
    1.5394604e-09   2    1000035    3
    4.3552007e-10   2    1000025    3

DECAY 2000003  1.3553134
    0.99999995   2    1000022    3
    5.3042884e-08   2    1000023    3

DECAY 1000011  25.891696
    0.56592391   2   -1000024    12
    0.28329594   2    1000023    11
    0.15078015   2    1000022    11

DECAY 2000011  8.7990788
    0.99999998   2    1000022    11
    1.5657307e-08   2    1000023    11

DECAY 1000013  25.891696
    0.56592391   2   -1000024    14
    0.28329594   2    1000023    13
    0.15078015   2    1000022    13

DECAY 2000013  8.7990787
    0.99999998   2    1000022    13
    1.5657306e-08   2    1000023    13

DECAY 1000015  0.0038479041
    1   2    1000022    15

DECAY 2000015  28.450201
    0.48455911   2    1000015    23
    0.45575056   2    1000015    25
    0.059690336   2    1000022    15

DECAY 1000012  25.881026
    0.5663585   2    1000024    11
    0.28291191   2    1000023    12
    0.15072959   2    1000022    12

DECAY 1000014  25.881026
    0.5663585   2    1000024    13
    0.28291191   2    1000023    14
    0.15072959   2    1000022    14

DECAY 1000016  27.919039
    0.94336127   2   -1000015   -24
    0.056638733   2    1000022    16

DECAY 1000024  0.36999069
    0.42585043   2   -1000015    16
    0.31468376   2    1000016   -15
    0.22191528   2   -2000015    16
    0.037032452   2    1000006   -5
    0.00051807285   2    1000022    24

DECAY 1000037  103.63619
    0.46960157   2    1000006   -5
    0.18186007   2   -1000005    6
    0.06273764   2    2000006   -5
    0.059473564   2    1000024    25
    0.056761221   2   -1000015    16
    0.053882309   2    1000024    23
    0.051487397   2    1000023    24
    0.042280743   2    1000016   -15
    0.02017337   2    1000022    24
    0.0017300347   2   -2000015    16
    5.2274949e-06   2   -1000011    12
    5.2274949e-06   2   -1000013    14
    8.1271888e-07   2    1000012   -11
    8.1271888e-07   2    1000014   -13

DECAY 1000022 -1


DECAY 1000023  0.35620328
    0.22185682   2    1000015   -15
    0.22185682   2   -1000015    15
    0.16284122   2    1000016   -16
    0.16284122   2   -1000016    16
    0.11490683   2    2000015   -15
    0.11490683   2   -2000015    15
    0.00045474917   2    1000022    25
    0.00033551448   2    1000022    23

DECAY 1000025  103.40148
    0.24470929   2    1000006   -6
    0.24470929   2   -1000006    6
    0.083063734   2    2000006   -6
    0.083063734   2   -2000006    6
    0.052359048   2    1000024   -24
    0.052359048   2   -1000024    24
    0.046184134   2    1000023    23
    0.031596018   2    1000005   -5
    0.031596018   2   -1000005    5
    0.029388439   2    1000015   -15
    0.029388439   2   -1000015    15
    0.021132942   2    2000015   -15
    0.021132942   2   -2000015    15
    0.011516886   2    1000022    23
    0.0090507609   2    1000022    25
    0.0087028664   2    1000023    25
    1.3443186e-05   2    1000016   -16
    1.3443186e-05   2   -1000016    16
    3.635686e-06   2    2000011   -11
    3.635686e-06   2   -2000011    11
    3.635686e-06   2    2000013   -13
    3.635686e-06   2   -2000013    13
    5.2608116e-07   2    2000001   -1
    5.2608116e-07   2   -2000001    1
    5.2608116e-07   2    2000003   -3
    5.2608116e-07   2   -2000003    3
    5.0078625e-07   2    1000012   -12
    5.0078625e-07   2   -1000012    12
    5.0078625e-07   2    1000014   -14
    5.0078625e-07   2   -1000014    14
    1.4328603e-07   2    2000002   -2
    1.4328603e-07   2   -2000002    2
    1.4328213e-07   2    2000004   -4
    1.4328213e-07   2   -2000004    4
    7.5051138e-08   2    1000011   -11
    7.5051138e-08   2   -1000011    11
    7.5051138e-08   2    1000013   -13
    7.5051138e-08   2   -1000013    13

DECAY 1000035  103.18935
    0.2308663   2    1000006   -6
    0.2308663   2   -1000006    6
    0.092254831   2    2000006   -6
    0.092254831   2   -2000006    6
    0.054242075   2    1000024   -24
    0.054242075   2   -1000024    24
    0.051012769   2    1000023    25
    0.031649179   2    1000005   -5
    0.031649179   2   -1000005    5
    0.02920327   2    1000015   -15
    0.02920327   2   -1000015    15
    0.021342987   2    2000015   -15
    0.021342987   2   -2000015    15
    0.011729823   2    1000022    25
    0.0093359137   2    1000022    23
    0.0086698057   2    1000023    23
    5.1099968e-05   2    1000016   -16
    5.1099968e-05   2   -1000016    16
    4.5029187e-06   2    2000011   -11
    4.5029187e-06   2   -2000011    11
    4.5029187e-06   2    2000013   -13
    4.5029187e-06   2   -2000013    13
    1.9118004e-06   2    1000012   -12
    1.9118004e-06   2   -1000012    12
    1.9118004e-06   2    1000014   -14
    1.9118004e-06   2   -1000014    14
    8.0331397e-07   2    1000011   -11
    8.0331397e-07   2   -1000011    11
    8.0331397e-07   2    1000013   -13
    8.0331397e-07   2   -1000013    13
    6.5195549e-07   2    2000001   -1
    6.5195549e-07   2   -2000001    1
    6.5195549e-07   2    2000003   -3
    6.5195549e-07   2   -2000003    3
    1.7849435e-07   2    2000002   -2
    1.7849435e-07   2   -2000002    2
    1.7848953e-07   2    2000004   -4
    1.7848953e-07   2   -2000004    4

DECAY 25  0.0050949989
    0.69489677   2    5   -5
    0.15418811   2    24   -24
    0.061155318   2    21    21
    0.050329108   2   -15    15
    0.0190501   2    23    23
    0.016954948   2    4   -4
    0.0018930106   2    22    22
    0.0011594378   2    22    23
    0.00019498542   2    3   -3
    0.00017821222   2   -13    13

DECAY 35  105.64064
    0.72408424   2    5   -5
    0.17212565   2   -15    15
    0.036104243   2    1000006   -1000006
    0.030547018   2    1000015   -2000015
    0.030547018   2    2000015   -1000015
    0.0034168129   2    1000015   -1000015
    0.0018118997   2    2000015   -2000015
    0.0005768964   2    6   -6
    0.00050573033   2   -13    13
    0.00013932215   2    3   -3
    5.8211881e-05   2    1000022    1000023
    2.9346833e-05   2    1000024   -1000024
    2.465754e-05   2    21    21
    1.4880118e-05   2    1000023    1000023
    1.309958e-05   2    1000022    1000022
    4.6523447e-07   2    25    25
    2.1695444e-07   2    22    22
    1.393781e-07   2    24   -24
    7.1045797e-08   2    1000016   -1000016
    6.9543277e-08   2    23    23
    6.8451357e-09   2    23    22
    5.8640299e-09   2    4   -4
    1.3620362e-16   2    23    36

DECAY 36  101.8786
    0.7507522   2    5   -5
    0.17845778   2   -15    15
    0.034578047   2    1000015   -2000015
    0.034578047   2   -1000015    2000015
    0.00060492294   2    6   -6
    0.00052433432   2   -13    13
    0.00016764108   2    1000024   -1000024
    0.00014445465   2    3   -3
    8.4874938e-05   2    1000023    1000023
    7.288934e-05   2    1000022    1000023
    2.0653997e-05   2    21    21
    1.3973156e-05   2    1000022    1000022
    1.4642341e-07   2    23    25
    2.1264262e-08   2    22    22
    1.4692052e-08   2    23    22
    6.157586e-09   2    4   -4

DECAY 37  72.418199
    0.64956786   2    6   -5
    0.25110302   2   -15    16
    0.095703312   2   -1000015    1000016
    0.0013885481   2   -2000015    1000016
    0.0010918817   2    4   -5
    0.00073777637   2   -13    14
    0.00020010396   2    4   -3
    0.00018620478   2    1000024    1000022
    1.0918806e-05   2    2   -5
    1.0165894e-05   2    2   -3
    2.0622176e-07   2    24    25
    2.5474831e-09   2    1000024    1000023
    1.297189e-15   2    24    36

DECAY 5 -1


DECAY 15 -1


DECAY 23  2.4952


DECAY 24  2.085
