BLOCK SPINFO
   1   SPheno
   2   v4.0.5be

BLOCK SPHENOINFO
   1   2
   2   2

BLOCK MODSEL
   1   0

BLOCK MINPAR
   3    55.540176
   4   -1

BLOCK EXTPAR
   0    1360.0579
   1   -73.417471
   2    1688.014
   3    3000
   11    4650.1368
   12    1888.8193
   13    232.46513
   23   -288.9503
   25    56.322665
   26    3755.4448
   31    954.88948
   32    954.88948
   33    599.72255
   34    309.59193
   35    309.59193
   36    1876.922
   41    5000
   42    5000
   43    1868.5135
   44    5000
   45    5000
   46    1171.2048
   47    5000
   48    5000
   49    1604.5666

BLOCK SMINPUTS
   1    127.90897
   2    1.1663787e-05
   3    0.1184
   4    91.1876
   5    4.18
   6    173.2
   7    1.777
   8    0
   11    0.00051099893
   12    0
   13    0.10565837
   14    0
   21    0.005
   22    0.0025
   23    0.095
   24    1.27

BLOCK GAUGE Q=  1360.0579
   1    0.35536298
   2    0.66519887
   3    1.219778

BLOCK YU Q=  1360.0579
   1   1    8.3856935e-06
   2   2    0.0042599323
   3   3    1.0130591

BLOCK YD Q=  1360.0579
   1   1    0.00094907914
   2   2    0.018032504
   3   3    0.94118911

BLOCK YE Q=  1360.0579
   1   1    0.00016562125
   2   2    0.034245222
   3   3    0.57594829

BLOCK AU Q=  1360.0579
   1   1    0
   2   2    0
   3   3    4650.1369

BLOCK AD Q=  1360.0579
   1   1    0
   2   2    0
   3   3    1888.8193

BLOCK AE Q=  1360.0579
   1   1    0
   2   2    0
   3   3    232.46513

BLOCK MSOFT Q=  1360.0579
   1   -73.417471
   2    1688.014
   3    3000
   21    14209449
   22   -19997.565
   31    954.88948
   32    954.88948
   33    599.72255
   34    309.59193
   35    309.59193
   36    1876.922
   41    5000
   42    5000
   43    1868.5135
   44    5000
   45    5000
   46    1171.2048
   47    5000
   48    5000
   49    1604.5666

BLOCK MASS
   6    173.2
   23    91.1876
   24    80.429995
   15    1.777
   25    122.04135
   35    3745.9983
   36    3755.4448
   37    3744.5564
   1000001    5023.254
   2000001    5015.5261
   1000002    5022.8375
   2000002    5018.0615
   1000003    5023.2651
   2000003    5015.5447
   1000004    5022.8478
   2000004    5018.0624
   1000005    1657.1889
   2000005    1839.5528
   1000006    975.13317
   2000006    1896.9282
   1000011    973.08629
   2000011    298.29271
   1000012    969.56843
   1000013    973.12102
   2000013    298.52287
   1000014    969.60087
   1000015    637.14241
   2000015    1882.4957
   1000016    633.50064
   1000021    3185.1568
   1000022   -71.000903
   1000023    292.2032
   1000025   -296.50842
   1000035    1734.917
   1000024    290.38696
   1000037    1735.0633

BLOCK ALPHA
      -0.018046128

BLOCK HMIX Q=  1360.0579
   1   -288.9503
   2    56.322665
   3    244.07956
   4    14103365

BLOCK STOPMIX
   1   1   -0.28016588
   1   2    0.9599516
   2   1   -0.9599516
   2   2   -0.28016588

BLOCK SBOTMIX
   1   1   -0.088629349
   1   2    0.99606468
   2   1   -0.99606468
   2   2   -0.088629349

BLOCK STAUMIX
   1   1   -0.99996113
   1   2    0.0088174495
   2   1   -0.0088174495
   2   2   -0.99996113

BLOCK NMIX
   1   1    0.98581674
   1   2    0.0020849576
   1   3   -0.16232336
   1   4    0.0425691
   2   1   -0.085127303
   2   2   -0.0375832
   2   3   -0.70250862
   2   4   -0.70556536
   3   1    0.14462766
   3   2   -0.027782054
   3   3    0.69288255
   3   4   -0.70585039
   4   1    0.0012380449
   4   2   -0.99890506
   4   3    0.0068218543
   4   4    0.046266792

BLOCK UMIX
   1   1   -0.0096629626
   1   2   -0.99995331
   2   1    0.99995331
   2   2   -0.0096629626

BLOCK VMIX
   1   1   -0.065477412
   1   2    0.99785405
   2   1    0.99785405
   2   2    0.065477412

BLOCK HIGGSBOUNDSINPUTHIGGSCOUPLINGSFERMIONS
       0, 3172.2425,3,36,15,15

BLOCK HIGGSBOUNDSINPUTHIGGSCOUPLINGSBOSONS
       0,4,36,21,21,23

BLOCK SPHENOLOWENERGY
   1    0.00024762067
   2    1.60861e-06
   3    3.5228875e-05
   4    5.3279092e-15
   5    2.2757962e-10
   6    4.6357334e-08
   7    1.831215e-13
   8    7.8221678e-09
   9    1.6144252e-06
   10    9.5987255e-05
   11    0.9915116
   12    0.54252017
   13    19.38964
   14    0
   15    0
   16    0.0021590117
   17    2.2816767e-15
   18    2.4801218e-11
   19    8.2898656e-11
   20   -5.5301243e-15
   21   -2.3540467e-10
   22   -9.5811463e-08
   23    0
   24    0
   25    0
   26    0
   27    0
   28    0
   29    0
   30    0
   31    0
   39    7.9535077e-05
   40    0
   41    0
   42    0

BLOCK FWCOEF Q=  160
   305   4422   0   0   -0.18881911
   305   4422   0   2   -0.094385895
   305   4322   0   2    0.0005194242
   305   6421   0   0   -0.095227835
   305   6421   0   2   -0.050433837
   305   6321   0   2    0.0001622909
   3051111   4133   0   0    1.5893434
   3051111   4133   0   2    1.5907404
   3051111   4233   0   2    0.0004716556
   3051111   4137   0   0   -4.4120355
   3051111   4137   0   2   -4.40818
   3051111   4237   0   2   -0.0036857636
   3051313   4133   0   0    1.5893434
   3051313   4133   0   2    1.5907302
   3051313   4233   0   2    0.00047164981
   3051313   4137   0   0   -4.4120355
   3051313   4137   0   2   -4.4081902
   3051313   4237   0   2   -0.0036857767
   3051212   4137   0   0    1.5053501
   3051212   4137   0   2    1.5045141
   3051212   4237   0   2    0.00080372468
   3051414   4137   0   0    1.5053501
   3051414   4137   0   2    1.5045141
   3051414   4237   0   2    0.00080372479
   3051616   4137   0   0    1.5053501
   3051616   4137   0   2    1.5045137
   3051616   4237   0   2    0.00080375435

BLOCK IMFWCOEF Q=  160
   305   4422   0   0    3.8589205e-07
   305   4422   0   2   -3.0653207e-05
   305   4322   0   2    1.0771508e-05
   305   6421   0   0    3.3054206e-07
   305   6421   0   2    5.3299092e-06
   305   6321   0   2    4.8892222e-06
   3051111   4133   0   2   -2.383533e-06
   3051111   4233   0   2    9.3611499e-06
   3051111   4137   0   2    1.9431353e-05
   3051111   4237   0   2   -7.3163547e-05
   3051313   4133   0   2   -2.3833776e-06
   3051313   4233   0   2    9.3610576e-06
   3051313   4137   0   2    1.9431524e-05
   3051313   4237   0   2   -7.3163791e-05
   3051212   4137   0   2   -4.1495042e-06
   3051212   4237   0   2    1.5954228e-05
   3051414   4137   0   2   -4.1495066e-06
   3051414   4237   0   2    1.5954228e-05
   3051616   4137   0   2   -4.1565491e-06
   3051616   4237   0   2    1.5954205e-05

DECAY 23  2.4952


DECAY 24  2.085


DECAY 2000011  1.2962463
    0.99998287   2    1000022    11

DECAY 1000011  1.2183862
    0.97229625   2    1000022    11
    0.020075962   2    1000023    11
    0.0070830106   2    1000025    11
    0.00054476072   2   -1000024    12

DECAY 2000013  1.2976836
    0.99996073   2    1000022    13

DECAY 1000013  1.2381574
    0.95728255   2    1000022    13
    0.027249112   2    1000023    13
    0.014215602   2    1000025    13
    0.00071664512   2    2000013    25
    0.00053608845   2   -1000024    14

DECAY 1000015  3.4262213
    0.38138061   2    1000023    15
    0.36219936   2    1000025    15
    0.25611261   2    1000022    15
    0.00030742077   2   -1000024    16

DECAY 2000015  33.586731
    0.3523592   2   -1000024    16
    0.28217164   2    1000022    15
    0.17581284   2    1000023    15
    0.17482422   2    1000025    15
    0.0072697991   2    1000016   -24
    0.0039469385   2    1000015    25
    0.0036104046   2    1000015    23

DECAY 1000012  1.2309515
    0.94375334   2    1000022    12
    0.03143449   2    1000025    12
    0.024633612   2    1000024    11
    0.0001785584   2    1000023    12

DECAY 1000014  1.2497412
    0.92959591   2    1000022    14
    0.039264867   2    1000024    13
    0.03096334   2    1000025    14
    0.00017588204   2    1000023    14

DECAY 1000016  3.3912387
    0.77383775   2    1000024    15
    0.22059739   2    1000022    16
    0.005533114   2    1000025    16

DECAY 2000001  143.75627
    0.98053182   2    1000021    1
    0.018922146   2    1000022    1
    0.00040488637   2    1000025    1
    0.00014050263   2    1000023    1

DECAY 1000001  193.91989
    0.73103438   2    1000021    1
    0.17685037   2   -1000037    2
    0.088282878   2    1000035    1
    0.0034293144   2    1000022    1
    0.00032473482   2    1000025    1

DECAY 2000003  143.82248
    0.98009379   2    1000021    3
    0.01891943   2    1000022    3
    0.00051195166   2    1000025    3
    0.00025071264   2    1000023    3
    0.00022406624   2   -1000024    4

DECAY 1000003  193.95521
    0.73090721   2    1000021    3
    0.1768188   2   -1000037    4
    0.088267107   2    1000035    3
    0.0034330984   2    1000022    3
    0.0004043291   2    1000025    3
    0.00013906296   2    1000023    3

DECAY 1000005  55.575233
    0.47990898   2   -1000024    6
    0.24336835   2    1000023    5
    0.2335761   2    1000025    5
    0.033760122   2    1000022    5
    0.0093864446   2    1000006   -24

DECAY 2000005  187.14819
    0.64582895   2    1000006   -24
    0.18695071   2   -1000024    6
    0.081321425   2    1000023    5
    0.080054332   2    1000025    5
    0.004583183   2    1000022    5
    0.00052377824   2    1000035    5
    0.00038289027   2    1000005    23
    0.00035473295   2    1000005    25

DECAY 2000002  152.42114
    0.92652173   2    1000021    2
    0.071421869   2    1000022    2
    0.0015271353   2    1000025    2
    0.00052917622   2    1000023    2

DECAY 1000002  193.91472
    0.73083022   2    1000021    2
    0.17609078   2    1000037    1
    0.088196049   2    1000035    2
    0.0035959569   2    1000022    2
    0.00097152213   2    1000024    1
    0.00031500116   2    1000023    2

DECAY 2000004  152.42477
    0.92649989   2    1000021    4
    0.071420194   2    1000022    4
    0.0015329731   2    1000025    4
    0.00053504408   2    1000023    4

DECAY 1000004  193.94988
    0.73070294   2    1000021    4
    0.17605943   2    1000037    3
    0.088180354   2    1000035    4
    0.0035953286   2    1000022    4
    0.0011372916   2    1000024    3
    0.00031956516   2    1000023    4

DECAY 1000006  33.728487
    0.47107057   2    1000024    5
    0.24267815   2    1000023    6
    0.22796329   2    1000025    6
    0.058118652   2    1000022    6
    0.00016944   2    1000022    4

DECAY 2000006  196.86038
    0.33433055   2    1000006    23
    0.3075048   2    1000006    25
    0.16861205   2    1000024    5
    0.093607344   2    1000025    6
    0.08998997   2    1000023    6
    0.0021048382   2    1000022    6
    0.0019563417   2    1000037    5
    0.0018940982   2    1000005    24

DECAY 1000024  0.20183916
    0.99991909   2    1000022    24

DECAY 1000037  42.214175
    0.13536528   2   -1000015    16
    0.13532224   2    1000016   -15
    0.087987851   2    1000024    25
    0.085198865   2    1000012   -11
    0.085193724   2    1000014   -13
    0.084993829   2   -1000011    12
    0.084988261   2   -1000013    14
    0.084737402   2    1000023    24
    0.084238971   2    1000024    23
    0.083384449   2    1000025    24
    0.035785399   2    1000006   -5
    0.0043343622   3    1000024    6   -6
    0.0035712728   3    1000025   -5    6
    0.0035104781   3    1000023   -5    6
    0.00085550594   2    1000022    24
    0.00047691959   3    1000024    5   -5

DECAY 1000022 -1


DECAY 1000023  0.24871858
    0.65334356   2    1000022    23
    0.34659151   2    1000022    25

DECAY 1000025  0.1480062
    0.62347132   2    1000022    25
    0.37622906   2    1000022    23
    0.00013702138   3    1000022    13   -13
    0.00012684538   3    1000022    11   -11

DECAY 1000035  43.321409
    0.082531223   2    1000024   -24
    0.082531223   2   -1000024    24
    0.066142019   2    1000016   -16
    0.066142019   2   -1000016    16
    0.065725603   2    1000015   -15
    0.065725603   2   -1000015    15
    0.059111597   2    1000025    25
    0.055614873   2    1000023    25
    0.052591059   2    1000025    23
    0.041643352   2    1000012   -12
    0.041643352   2   -1000012    12
    0.041640821   2    1000014   -14
    0.041640821   2   -1000014    14
    0.041259404   2    1000011   -11
    0.041259404   2   -1000011    11
    0.041256718   2    1000013   -13
    0.041256718   2   -1000013    13
    0.029265267   2    1000023    23
    0.016538268   2    1000006   -6
    0.016538268   2   -1000006    6
    0.0027281238   3    1000024    5   -6
    0.0027281238   3   -1000024   -5    6
    0.0014645143   3    1000023    6   -6
    0.0014642657   3    1000025    6   -6
    0.00045838694   2    1000022    25
    0.00038653878   2    1000022    23
    0.00032418336   3    1000023    5   -5
    0.00031723152   3    1000025    5   -5

DECAY 1000021  213.42766
    0.19294759   2    1000006   -6
    0.19294759   2   -1000006    6
    0.117553   2    1000005   -5
    0.117553   2   -1000005    5
    0.098032886   2    2000005   -5
    0.098032886   2   -2000005    5
    0.083250844   2    2000006   -6
    0.083250844   2   -2000006    6
    0.0077370905   2    1000006   -4
    0.0077370905   2   -1000006    4
    0.00044507641   3    1000035    6   -6
    0.00019924241   3    1000037    5   -6
    0.00019924241   3   -1000037   -5    6

DECAY 25  0.0034939204
    0.61713256   2   -5    5
    0.18409824   2   -24    24
    0.071561374   2   -15    15
    0.071213035   2    21    21
    0.030871177   2   -4    4
    0.020995812   2    23    23
    0.0023807082   2    22    22
    0.0012634893   2    22    23
    0.00024803332   2   -13    13
    0.00023476524   2   -3    3
    6.4910412e-07   2   -1    1
    1.5909645e-07   2   -2    2
    5.5761036e-09   2   -11    11

DECAY 35  252.23954
    0.74917854   2   -5    5
    0.078574985   2   -15    15
    0.037488778   2   -1000024    1000037
    0.037488778   2   -1000037    1000024
    0.019275058   2   -2000005    1000005
    0.019275058   2   -1000005    2000005
    0.019054021   2    1000025    1000035
    0.017664783   2    1000023    1000035
    0.0085328852   2    1000022    1000023
    0.0069840237   2    1000022    1000025
    0.00090101749   2    1000022    1000035
    0.00081710666   2    1000022    1000022
    0.00074883915   2   -1000005    1000005
    0.00058512802   2    1000025    1000025
    0.00056078241   2   -1000024    1000024
    0.00055806689   2   -2000006    1000006
    0.00055806689   2   -1000006    2000006
    0.00039824483   2   -6    6
    0.00035942626   2    1000023    1000025
    0.00028873299   2   -13    13
    0.00026916562   2   -1000006    1000006
    0.0001946593   2   -3    3
    0.00011878694   2   -2000015    1000015
    0.00011878694   2   -1000015    2000015
    1.667766e-06   2    25    25
    1.3340183e-06   2   -1000037    1000037
    1.0785432e-06   2    1000023    1000023
    7.7830916e-07   2    21    21
    6.6806922e-07   2    1000035    1000035
    5.3811424e-07   2   -1    1
    6.4174582e-08   2    23    23
    1.6151148e-08   2   -1000015    1000015
    1.4647197e-08   2   -24    24
    7.949598e-09   2   -2000011    2000011
    7.8434005e-09   2   -2000013    2000013
    6.4843573e-09   2   -11    11
    5.8978162e-09   2   -1000011    1000011
    5.7777423e-09   2   -1000013    1000013
    4.0953802e-09   2   -4    4
    2.5796832e-09   2    22    22
    1.2548011e-09   2    22    23
    2.896384e-10   2   -2000013    1000013
    2.896384e-10   2   -1000013    2000013
    2.1106224e-14   2   -2    2
    6.7747889e-15   2   -2000011    1000011
    6.7747889e-15   2   -1000011    2000011

DECAY 36  223.28923
    0.72672645   2   -5    5
    0.076168183   2   -15    15
    0.042566402   2   -1000024    1000037
    0.042566402   2   -1000037    1000024
    0.023103188   2   -2000005    1000005
    0.023103188   2   -1000005    2000005
    0.022264948   2    1000023    1000035
    0.019440985   2    1000025    1000035
    0.008936732   2    1000022    1000023
    0.0085873342   2    1000022    1000025
    0.0010113138   2    1000022    1000035
    0.00094455677   2    1000022    1000022
    0.00087560326   2   -2000006    1000006
    0.00087560326   2   -1000006    2000006
    0.00073145025   2    1000025    1000025
    0.0006434189   2   -1000024    1000024
    0.00037164919   2    1000023    1000025
    0.00032524406   2   -6    6
    0.00027991423   2   -13    13
    0.00018870272   2   -3    3
    0.00013421991   2   -2000015    1000015
    0.00013421991   2   -1000015    2000015
    1.0688245e-05   2    21    21
    5.169755e-06   2   -1000037    1000037
    2.5915089e-06   2    1000035    1000035
    1.1642275e-06   2    1000023    1000023
    5.2164788e-07   2   -1    1
    1.4380697e-07   2    23    25
    6.2862508e-09   2   -11    11
    3.6607478e-09   2    22    23
    3.2355855e-09   2   -4    4
    2.5517274e-09   2    22    22
    3.7115632e-10   2    23    35
    3.263855e-10   2   -2000013    1000013
    3.263855e-10   2   -1000013    2000013
    1.6674778e-14   2   -2    2
    7.6341906e-15   2   -2000011    1000011
    7.6341906e-15   2   -1000011    2000011
    3.0684316e-40   2    25    25

DECAY 37  260.66611
    0.73497055   2   -5    6
    0.088618752   2   -15    16
    0.044857387   2   -1000005    2000006
    0.036291617   2    1000024    1000035
    0.036144538   2    1000023    1000037
    0.034960017   2    1000025    1000037
    0.016481567   2    1000022    1000024
    0.0025925974   2   -1000005    1000006
    0.0017334582   2    1000022    1000037
    0.001151424   2   -2000005    1000006
    0.0010899712   2   -5    4
    0.00031329885   2   -13    14
    0.00030739231   2    1000023    1000024
    0.0002302311   2   -2000015    1000016
    0.00016841453   2   -3    4
    7.185211e-05   2    1000024    1000025
    7.9076512e-06   2   -3    2
    7.7835186e-06   2   -5    2
    5.0692281e-07   2   -3    6
    4.6711184e-07   2   -1    2
    1.2216322e-07   2    24    25
    4.2321169e-08   2   -1000015    1000016
    3.0203645e-08   2   -2000011    1000012
    3.0059131e-08   2   -2000013    1000014
    2.1975723e-08   2   -1    4
    1.1757202e-08   2   -1    6
    7.3280927e-09   2   -11    12
    5.4325502e-10   2   -1000013    1000014
    1.9718109e-12   2    1000035    1000037
    1.2705751e-14   2   -1000011    1000012

DECAY 6  2.43
    1   2    5    24

DECAY 15 -1
