BLOCK SPINFO
   1   SPheno
   2   v4.0.5be

BLOCK SPHENOINFO
   1   2
   2   2

BLOCK MODSEL
   1   0

BLOCK MINPAR
   3    32.572499
   4   -1

BLOCK EXTPAR
   0    4037.1779
   1   -3765.9523
   2    1980.1689
   3    1512.7006
   11   -7405.858
   12   -2906.9231
   13    2723.7719
   23   -1219.767
   25    31.421192
   26    2380.5554
   31    4485.7283
   32    4485.7283
   33    4381.6057
   34    4261.9963
   35    4261.9963
   36    3633.09
   41    3478.2579
   42    3478.2579
   43    4097.0967
   44    4891.5347
   45    4891.5347
   46    4119.7425
   47    2300.4779
   48    2300.4779
   49    2902.3807

BLOCK SMINPUTS
   1    127.90897
   2    1.1663787e-05
   3    0.1184
   4    91.1876
   5    4.18
   6    173.2
   7    1.777
   8    0
   11    0.00051099893
   12    0
   13    0.10565837
   14    0
   21    0.005
   22    0.0025
   23    0.095
   24    1.27

BLOCK GAUGE Q=  4037.1779
   1    0.35536298
   2    0.66519887
   3    1.219778

BLOCK YU Q=  4037.1779
   1   1    8.3886172e-06
   2   2    0.0042614175
   3   3    1.0134123

BLOCK YD Q=  4037.1779
   1   1    0.00052965525
   2   2    0.01006345
   3   3    0.52525203

BLOCK YE Q=  4037.1779
   1   1    9.2428714e-05
   2   2    0.019111327
   3   3    0.32142107

BLOCK AU Q=  4037.1779
   1   1    0
   2   2    0
   3   3   -7405.8632

BLOCK AD Q=  4037.1779
   1   1    0
   2   2    0
   3   3   -2906.9214

BLOCK AE Q=  4037.1779
   1   1    0
   2   2    0
   3   3    2723.7712

BLOCK MSOFT Q=  4037.1779
   1   -3765.9523
   2    1980.1689
   3    1512.7006
   21    4217161.9
   22   -1206009.5
   31    4485.7283
   32    4485.7283
   33    4381.6057
   34    4261.9963
   35    4261.9963
   36    3633.09
   41    3478.2579
   42    3478.2579
   43    4097.0967
   44    4891.5347
   45    4891.5347
   46    4119.7425
   47    2300.4779
   48    2300.4779
   49    2902.3807

BLOCK MASS
   6    173.2
   23    91.1876
   24    80.429995
   15    1.777
   25    126.76707
   35    2380.5231
   36    2380.5554
   37    2382.3155
   1000001    3550.9631
   2000001    2374.0405
   1000002    3550.1138
   2000002    4951.2794
   1000003    3550.9588
   2000003    2374.0321
   1000004    3550.1095
   2000004    4951.2786
   1000005    2944.8222
   2000005    4068.1568
   1000006    3915.5036
   2000006    4162.6333
   1000011    4499.8251
   2000011    4276.3213
   1000012    4498.7135
   1000013    4499.8094
   2000013    4276.2877
   1000014    4498.6967
   1000015    3639.5951
   2000015    4390.5985
   1000016    4389.3368
   1000021    1804.6799
   1000022    1236.2224
   1000023   -1240.3163
   1000025    2045.1563
   1000035   -3729.4336
   1000024    1237.0139
   1000037    2045.0614

BLOCK ALPHA
      -0.030812216

BLOCK HMIX Q=  4037.1779
   1   -1219.767
   2    31.421192
   3    242.89053
   4    5667044.1

BLOCK STOPMIX
   1   1    0.63303308
   1   2    0.77412474
   2   1   -0.77412474
   2   2    0.63303308

BLOCK SBOTMIX
   1   1   -0.0093122101
   1   2    0.99995664
   2   1   -0.99995664
   2   2   -0.0093122101

BLOCK STAUMIX
   1   1   -0.011871342
   1   2    0.99992953
   2   1   -0.99992953
   2   2   -0.011871342

BLOCK NMIX
   1   1   -0.0060040284
   1   2   -0.067023797
   1   3   -0.70656359
   1   4   -0.7044428
   2   1   -0.012719393
   2   2   -0.017591215
   2   3    0.7067673
   2   4   -0.70711297
   3   1    0.00044777358
   3   2   -0.99759628
   3   3    0.035006977
   3   4    0.059799527
   4   1   -0.99990098
   4   2    0.00017948288
   4   3   -0.0047322169
   4   4    0.013251631

BLOCK UMIX
   1   1   -0.049565751
   1   2   -0.99877086
   2   1    0.99877086
   2   2   -0.049565751

BLOCK VMIX
   1   1   -0.084662111
   1   2    0.99640972
   2   1    0.99640972
   2   2    0.084662111

BLOCK HIGGSBOUNDSINPUTHIGGSCOUPLINGSFERMIONS
       0, 987.29129,3,36,15,15

BLOCK HIGGSBOUNDSINPUTHIGGSCOUPLINGSBOSONS
       0,4,36,21,21,23

BLOCK SPHENOLOWENERGY
   1    0.00034198413
   2    1.5891022e-06
   3    3.5271355e-05
   4    1.970187e-15
   5    8.4164524e-11
   6    1.7640922e-08
   7    6.7583018e-14
   8    2.8871576e-09
   9    6.1318233e-07
   10    9.5486434e-05
   11    0.98633831
   12    0.54208391
   13    19.357439
   14    0
   15    0
   16    0.0021578993
   17    2.2816662e-15
   18    2.481289e-11
   19    8.2934984e-11
   20   -8.3487007e-16
   21   -3.5693167e-11
   22   -1.0398865e-08
   23    0
   24    0
   25    0
   26    0
   27    0
   28    0
   29    0
   30    0
   31    0
   39    6.227314e-05
   40    0
   41    0
   42    0

BLOCK FWCOEF Q=  160
   305   4422   0   0   -0.18881911
   305   4422   0   2   -0.21415855
   305   4322   0   2   -0.00055902982
   305   6421   0   0   -0.095227835
   305   6421   0   2   -0.11031289
   305   6321   0   2   -0.00032701111
   3051111   4133   0   0    1.6270598
   3051111   4133   0   2    1.6274598
   3051111   4233   0   2    0.00032325377
   3051111   4137   0   0   -4.4497519
   3051111   4137   0   2   -4.450008
   3051111   4237   0   2   -0.0023925276
   3051313   4133   0   0    1.6270598
   3051313   4133   0   2    1.6274594
   3051313   4233   0   2    0.00032325333
   3051313   4137   0   0   -4.4497519
   3051313   4137   0   2   -4.4500083
   3051313   4237   0   2   -0.0023925277
   3051212   4137   0   0    1.5053501
   3051212   4137   0   2    1.5054094
   3051212   4237   0   2    0.00051731122
   3051414   4137   0   0    1.5053501
   3051414   4137   0   2    1.5054094
   3051414   4237   0   2    0.00051731128
   3051616   4137   0   0    1.5053501
   3051616   4137   0   2    1.5054094
   3051616   4237   0   2    0.00051732965

BLOCK IMFWCOEF Q=  160
   305   4422   0   0    3.8576903e-07
   305   4422   0   2   -3.5898472e-05
   305   4322   0   2   -6.5823237e-06
   305   6421   0   0    3.3043669e-07
   305   6421   0   2    8.8228158e-05
   305   6321   0   2   -1.4791322e-06
   3051111   4133   0   2    7.6229447e-07
   3051111   4233   0   2    6.4699189e-06
   3051111   4137   0   2   -9.5592456e-07
   3051111   4237   0   2   -4.7885826e-05
   3051313   4133   0   2    7.6228521e-07
   3051313   4233   0   2    6.4699164e-06
   3051313   4137   0   2   -9.5592434e-07
   3051313   4237   0   2   -4.7885833e-05
   3051212   4137   0   2    2.7665285e-07
   3051212   4237   0   2    1.0353852e-05
   3051414   4137   0   2    2.7665289e-07
   3051414   4237   0   2    1.0353852e-05
   3051616   4137   0   2    2.7672984e-07
   3051616   4237   0   2    1.0353852e-05

DECAY 23  2.4952


DECAY 24  2.085


DECAY 2000011  1.2349965
    0.9971091   2    1000035    11
    0.002361347   2    1000023    11
    0.00052698247   2    1000022    11

DECAY 1000011  38.01038
    0.65448453   2   -1000037    12
    0.32630072   2    1000025    11
    0.014565382   2    1000035    11
    0.0021968321   2    1000022    11
    0.0021879462   2   -1000024    12
    0.00026458492   2    1000023    11

DECAY 2000013  1.2870042
    0.95671277   2    1000035    13
    0.020222087   2   -1000024    14
    0.012382143   2    1000023    13
    0.010628118   2    1000022    13

DECAY 1000013  38.038112
    0.65400271   2   -1000037    14
    0.32606114   2    1000025    13
    0.014554269   2    1000035    13
    0.0025620344   2    1000022    13
    0.0021863409   2   -1000024    14
    0.00063098521   2    1000023    13

DECAY 1000015  11.70666
    0.49981305   2   -1000024    16
    0.25047469   2    1000022    15
    0.24943138   2    1000023    15
    0.00018736034   2   -1000037    16

DECAY 2000015  43.900354
    0.53874406   2   -1000037    16
    0.26874435   2    1000025    15
    0.088568355   2    1000022    15
    0.087211018   2    1000023    15
    0.0097428644   2    1000035    15
    0.0027888398   2    1000015    25
    0.0027668164   2    1000015    23
    0.0014336933   2   -1000024    16

DECAY 1000012  38.022182
    0.65086313   2    1000037    11
    0.32634779   2    1000025    12
    0.014545246   2    1000035    12
    0.0063793346   2    1000024    11
    0.0018126771   2    1000022    12

DECAY 1000014  38.049792
    0.65038718   2    1000037    13
    0.3261085   2    1000025    14
    0.014534162   2    1000035    14
    0.0071070173   2    1000024    13
    0.0018113528   2    1000022    14

DECAY 1000016  43.918774
    0.53571745   2    1000037    15
    0.26846328   2    1000025    16
    0.17901072   2    1000024    15
    0.0097127969   2    1000035    16
    0.0055337831   2    1000015    24
    0.0015185553   2    1000022    16

DECAY 2000001  33.393313
    0.99999543   2    1000021    1

DECAY 1000001  175.18679
    0.8801835   2    1000021    1
    0.0795019   2   -1000037    2
    0.039660197   2    1000025    1
    0.00033842972   2   -1000024    2
    0.00029976627   2    1000022    1

DECAY 2000003  33.397597
    0.99984419   2    1000021    3

DECAY 1000003  175.19298
    0.88014984   2    1000021    3
    0.07949883   2   -1000037    4
    0.039658667   2    1000025    3
    0.00034400219   2   -1000024    4
    0.00031546321   2    1000022    3

DECAY 1000005  112.40052
    0.80630824   2    1000021    5
    0.096223661   2   -1000024    6
    0.048790563   2    1000022    5
    0.048597084   2    1000023    5

DECAY 2000005  328.75697
    0.63015643   2    1000021    5
    0.20564708   2   -1000024    6
    0.06222822   2   -1000037    6
    0.030335713   2    1000025    5
    0.028090131   2    1000022    5
    0.027928968   2    1000023    5
    0.013687862   2    1000006   -24
    0.0012364706   2    1000005    25
    0.00064499288   2    1000005    23

DECAY 1000002  175.13466
    0.87994156   2    1000021    2
    0.079093489   2    1000037    1
    0.039631   2    1000025    2
    0.00098739246   2    1000024    1
    0.00031944858   2    1000022    2

DECAY 2000002  295.94793
    0.99300133   2    1000021    2
    0.0069921699   2    1000035    2

DECAY 1000004  175.14054
    0.87990899   2    1000021    4
    0.079090581   2    1000037    3
    0.039629542   2    1000025    4
    0.0010187353   2    1000024    3
    0.00032222441   2    1000022    4

DECAY 2000004  295.95092
    0.9929908   2    1000021    4
    0.0069920836   2    1000035    4

DECAY 1000006  321.99914
    0.62170158   2    1000021    6
    0.15266174   2    1000024    5
    0.10049802   2    1000022    6
    0.097689699   2    1000023    6
    0.015988399   2    1000037    5
    0.0082832256   2    1000025    6
    0.0027490828   3    1000022    24    5
    0.00035743301   2    1000005    24

DECAY 2000006  343.90309
    0.59933019   2    1000021    6
    0.10424994   2    1000023    6
    0.10395102   2    1000024    5
    0.10010423   2    1000022    6
    0.044671074   2    1000037    5
    0.022799397   2    1000025    6
    0.021035523   2    1000006    23
    0.0015285743   2    1000006    25
    0.0011159275   2    2000005    24
    0.00091813187   2    1000005    24
    0.00029598402   2    1000035    6

DECAY 1000024  4.5486789e-13
    0.79262199   2    1000022    211
    0.10819206   3    1000022   -11    12
    0.099185955   3    1000022   -13    14

DECAY 1000037  14.412599
    0.24861878   2    1000023    24
    0.24736235   2    1000024    25
    0.24308587   2    1000022    24
    0.24239939   2    1000024    23
    0.0068295351   3    1000023   -5    6
    0.0059092359   3    1000024    6   -6
    0.0057741188   3    1000022   -5    6

DECAY 1000022 -1


DECAY 1000023  2.4960931e-08
    0.78650471   2    1000022    22
    0.032325485   3    1000022    12   -12
    0.02417203   3    1000022    1   -1
    0.024021217   3    1000022    3   -3
    0.022116308   3    1000024    1   -2
    0.022116308   3   -1000024   -1    2
    0.018852333   3    1000022    2   -2
    0.010815329   3    1000024    3   -4
    0.010815329   3   -1000024   -3    4
    0.0073721544   3    1000024    11   -12
    0.0073721544   3   -1000024   -11    12
    0.0073346829   3    1000024    13   -14
    0.0073346829   3   -1000024   -13    14
    0.0054550221   3    1000022    11   -11
    0.0054014584   3    1000022    13   -13
    0.0044394804   3    1000022    4   -4
    0.0017415966   3    1000024    15   -16
    0.0017415966   3   -1000024   -15    16

DECAY 1000025  18.013783
    0.21190764   2    1000023    25
    0.19558059   2    1000024   -24
    0.19558059   2   -1000024    24
    0.18666954   2    1000023    23
    0.18442854   2    1000022    25
    0.012709062   2    1000022    23
    0.0045497372   3    1000024    5   -6
    0.0045497372   3   -1000024   -5    6
    0.0021110642   3    1000023    6   -6
    0.0018829091   3    1000022    6   -6

DECAY 1000035  18.507484
    0.13260085   2    1000024   -24
    0.13260085   2   -1000024    24
    0.10825867   2    1000022    23
    0.1059858   2    1000023    25
    0.09325732   2    1000022    25
    0.059687064   2    2000003   -3
    0.059687064   2   -2000003    3
    0.059686482   2    2000001   -1
    0.059686482   2   -2000001    1
    0.024394217   2    1000023    23
    0.023913399   2    1000005   -5
    0.023913399   2   -1000005    5
    0.021521464   2    37   -1000024
    0.021521464   2   -37    1000024
    0.021241939   2    1000022    35
    0.018528969   2    1000023    35
    0.0071487256   3    1000024    5   -6
    0.0071487256   3   -1000024   -5    6
    0.0054089315   3    1000023    6   -6
    0.0050409283   3    1000022    6   -6
    0.0011467612   2    1000015   -15
    0.0011467612   2   -1000015    15
    0.0006572663   3    1000021    6   -6
    0.00058332161   2    1000023    36
    0.00054164635   2    1000022    36
    0.00037078849   2    1000004   -4
    0.00037078849   2   -1000004    4
    0.00037078366   2    1000002   -2
    0.00037078366   2   -1000002    2
    0.00036886699   2    1000003   -3
    0.00036886699   2   -1000003    3
    0.00036884943   2    1000001   -1
    0.00036884943   2   -1000001    1
    0.00032477518   2    1000037   -24
    0.00032477518   2   -1000037    24
    0.00030048818   2    1000025    23
    0.00024003664   2    1000025    25
    0.00013551161   3    1000021    4   -4
    0.00013551147   3    1000021    2   -2

DECAY 1000021  0.00026160159
    0.21628924   3    1000024    5   -6
    0.21628924   3   -1000024   -5    6
    0.15272737   3    1000022    5   -5
    0.14763768   3    1000023    5   -5
    0.083662342   3    1000022    6   -6
    0.08296652   3    1000023    6   -6
    0.052429719   2    1000022    21
    0.042558412   2    1000023    21
    0.00094891212   3    1000024    3   -4
    0.00094891212   3   -1000024   -3    4
    0.00076528611   3    1000024    1   -2
    0.00076528611   3   -1000024   -1    2
    0.00054827657   3    1000022    3   -3
    0.000390397   3    1000022    4   -4
    0.00038713239   3    1000022    2   -2
    0.00036673892   3    1000022    1   -1
    0.00021236004   3    1000023    3   -3

DECAY 25  0.0041285642
    0.54476217   2   -5    5
    0.25785334   2   -24    24
    0.070992281   2    21    21
    0.062847396   2   -15    15
    0.032301113   2    23    23
    0.026840148   2   -4    4
    0.0023374651   2    22    22
    0.0016426297   2    22    23
    0.00021795817   2   -13    13
    0.00020479287   2   -3    3
    5.6623169e-07   2   -1    1
    1.3830826e-07   2   -2    2
    4.8999207e-09   2   -11    11

DECAY 35  33.698904
    0.85059019   2   -5    5
    0.14588958   2   -15    15
    0.0026171493   2   -6    6
    0.00050536206   2   -13    13
    0.00037057585   2   -3    3
    1.4215693e-05   2    25    25
    9.9607807e-06   2    21    21
    1.3349933e-06   2    23    23
    1.0247158e-06   2   -1    1
    5.5249976e-07   2   -24    24
    3.5531837e-08   2   -4    4
    1.1350972e-08   2   -11    11
    1.3099295e-09   2    22    23
    7.6926405e-11   2    22    22
    1.8318207e-13   2   -2    2

DECAY 36  32.39587
    0.8504957   2   -5    5
    0.1458729   2   -15    15
    0.0027258555   2   -6    6
    0.00050530304   2   -13    13
    0.00037053311   2   -3    3
    2.6425861e-05   2    21    21
    1.9786445e-06   2    23    25
    1.0245991e-06   2   -1    1
    1.1954197e-07   2    22    23
    1.1635386e-07   2    22    22
    3.6135491e-08   2   -4    4
    1.1349645e-08   2   -11    11
    1.863284e-13   2   -2    2
    1.0488012e-38   2    25    25

DECAY 37  30.908619
    0.83425445   2   -5    6
    0.16353732   2   -15    16
    0.0012346079   2   -5    4
    0.00057816303   2   -13    14
    0.00036171499   2   -3    4
    1.689484e-05   2   -3    2
    8.816376e-06   2   -5    2
    4.696375e-06   2   -3    6
    2.0805531e-06   2    24    25
    1.0038386e-06   2   -1    2
    1.9099846e-07   2   -1    6
    4.8506889e-08   2   -1    4
    1.3523294e-08   2   -11    12
    8.1450352e-13   2    24    35
    7.4371699e-13   2    24    36

DECAY 6  2.43
    1   2    5    24

DECAY 15 -1
