BLOCK SPINFO
   1   SPheno
   2   v4.0.5be

BLOCK SPHENOINFO
   1   2
   2   2

BLOCK MODSEL
   1   0

BLOCK MINPAR
   3    36.284157
   4    1

BLOCK EXTPAR
   0    2270.5499
   1   -39.269927
   2   -1091.3699
   3    2237.1948
   11    2796.4537
   12    2474.226
   13    1025.4185
   23    3314.7106
   25    34.928343
   26    4179.7136
   31    4529.9531
   32    4529.9531
   33    2342.1911
   34    4559.7415
   35    4559.7415
   36    2492.6779
   41    3009.6042
   42    3009.6042
   43    1541.0254
   44    2923.3339
   45    2923.3339
   46    3044.0311
   47    1975.676
   48    1975.676
   49    2632.1583

BLOCK SMINPUTS
   1    127.90897
   2    1.1663787e-05
   3    0.1184
   4    91.1876
   5    4.18
   6    173.2
   7    1.777
   8    0
   11    0.00051099893
   12    0
   13    0.10565837
   14    0
   21    0.005
   22    0.0025
   23    0.095
   24    1.27

BLOCK GAUGE Q=  2270.5499
   1    0.35536298
   2    0.66519887
   3    1.219778

BLOCK YU Q=  2270.5499
   1   1    8.3878077e-06
   2   2    0.0042610063
   3   3    1.0133145

BLOCK YD Q=  2270.5499
   1   1    0.00058871716
   2   2    0.011185626
   3   3    0.58382295

BLOCK YE Q=  2270.5499
   1   1    0.00010273545
   2   2    0.021242433
   3   3    0.35726277

BLOCK AU Q=  2270.5499
   1   1    0
   2   2    0
   3   3    2796.4537

BLOCK AD Q=  2270.5499
   1   1    0
   2   2    0
   3   3    2474.226

BLOCK AE Q=  2270.5499
   1   1    0
   2   2    0
   3   3    1025.4185

BLOCK MSOFT Q=  2270.5499
   1   -39.269927
   2   -1091.3699
   3    2237.1948
   21    6541291.6
   22   -10912136
   31    4529.9531
   32    4529.9531
   33    2342.1911
   34    4559.7415
   35    4559.7415
   36    2492.6779
   41    3009.6042
   42    3009.6042
   43    1541.0254
   44    2923.3339
   45    2923.3339
   46    3044.0311
   47    1975.676
   48    1975.676
   49    2632.1583

BLOCK MASS
   6    173.2
   23    91.1876
   24    80.429995
   15    1.777
   25    120.86898
   35    4179.6436
   36    4179.7136
   37    4180.8388
   1000001    3075.5159
   2000001    2065.7026
   1000002    3074.5649
   2000002    2984.6734
   1000003    3075.5156
   2000003    2065.702
   1000004    3074.5642
   2000004    2984.6737
   1000005    1666.0751
   2000005    2697.5754
   1000006    1666.4018
   2000006    3093.7298
   1000011    4539.4567
   2000011    4562.9419
   1000012    4538.3474
   1000013    4539.383
   2000013    4563.0151
   1000014    4538.3476
   1000015    2337.3202
   2000015    2499.2096
   1000016    2346.9475
   1000021    2415.1238
   1000022   -39.591929
   1000023   -1140.4371
   1000025    3300.3827
   1000035   -3300.9909
   1000024    1140.4974
   1000037    3301.7072

BLOCK ALPHA
      -0.027600067

BLOCK HMIX Q=  2270.5499
   1    3314.7106
   2    34.928343
   3    243.5992
   4    17470005

BLOCK STOPMIX
   1   1   -0.99853808
   1   2    0.054052802
   2   1   -0.054052802
   2   2   -0.99853808

BLOCK SBOTMIX
   1   1    0.99937137
   1   2    0.035452417
   2   1   -0.035452417
   2   2    0.99937137

BLOCK STAUMIX
   1   1    0.96617031
   1   2    0.25790488
   2   1   -0.25790488
   2   2    0.96617031

BLOCK NMIX
   1   1   -0.99991095
   1   2   -1.8916485e-05
   1   3   -0.013344561
   1   4    0.00013613286
   2   1    0.00033565167
   2   2    0.99960901
   2   3   -0.026653588
   2   4   -0.0084445199
   3   1    0.0095305923
   3   2   -0.012878174
   3   3   -0.70689741
   3   4    0.70713462
   4   1    0.0093354888
   4   2   -0.024819118
   4   3   -0.70668774
   4   4   -0.7070285

BLOCK UMIX
   1   1   -0.99928338
   1   2    0.03785139
   2   1   -0.03785139
   2   2   -0.99928338

BLOCK VMIX
   1   1    0.99992666
   1   2    0.012111131
   2   1    0.012111131
   2   2   -0.99992666

BLOCK HIGGSBOUNDSINPUTHIGGSCOUPLINGSFERMIONS
       0, 1219.9892,3,36,15,15

BLOCK HIGGSBOUNDSINPUTHIGGSCOUPLINGSBOSONS
       0,4,36,21,21,23

BLOCK SPHENOLOWENERGY
   1    0.0003297734
   2    1.5894183e-06
   3    3.5258742e-05
   4    3.4750886e-15
   5    1.4845185e-10
   6    3.1079162e-08
   7    1.171706e-13
   8    5.0055247e-09
   9    1.0617945e-06
   10    9.623885e-05
   11    0.99411047
   12    0.54215916
   13    19.368932
   14    0
   15    0
   16    0.0021582901
   17    2.2816686e-15
   18    2.4801798e-11
   19    8.2910235e-11
   20   -1.0098722e-15
   21   -4.3175297e-11
   22   -2.5206998e-08
   23    0
   24    0
   25    0
   26    0
   27    0
   28    0
   29    0
   30    0
   31    0
   39    8.9263543e-05
   40    0
   41    0
   42    0

BLOCK FWCOEF Q=  160
   305   4422   0   0   -0.18881911
   305   4422   0   2   -0.1988768
   305   4322   0   2   -0.00016290839
   305   6421   0   0   -0.095227835
   305   6421   0   2   -0.10630541
   305   6321   0   2   -0.00018442069
   3051111   4133   0   0    1.6069125
   3051111   4133   0   2    1.6070989
   3051111   4233   0   2    9.5213193e-05
   3051111   4137   0   0   -4.4296046
   3051111   4137   0   2   -4.4285612
   3051111   4237   0   2   -0.00072615754
   3051313   4133   0   0    1.6069125
   3051313   4133   0   2    1.6070984
   3051313   4233   0   2    9.5213085e-05
   3051313   4137   0   0   -4.4296046
   3051313   4137   0   2   -4.4285616
   3051313   4237   0   2   -0.00072615762
   3051212   4137   0   0    1.5053501
   3051212   4137   0   2    1.5051258
   3051212   4237   0   2    0.00015772449
   3051414   4137   0   0    1.5053501
   3051414   4137   0   2    1.5051258
   3051414   4237   0   2    0.00015772451
   3051616   4137   0   0    1.5053501
   3051616   4137   0   2    1.5051261
   3051616   4237   0   2    0.00015772823

BLOCK IMFWCOEF Q=  160
   305   4422   0   0    3.857297e-07
   305   4422   0   2    1.1967309e-06
   305   4322   0   2   -1.6722751e-06
   305   6421   0   0    3.30403e-07
   305   6421   0   2   -3.086975e-05
   305   6321   0   2   -1.6005372e-06
   3051111   4133   0   2    7.4300626e-07
   3051111   4233   0   2    2.0298354e-06
   3051111   4137   0   2   -1.6220384e-06
   3051111   4237   0   2   -1.5479579e-05
   3051313   4133   0   2    7.4300104e-07
   3051313   4233   0   2    2.0298345e-06
   3051313   4137   0   2   -1.6220354e-06
   3051313   4237   0   2   -1.5479582e-05
   3051212   4137   0   2    3.963811e-07
   3051212   4237   0   2    3.3622272e-06
   3051414   4137   0   2    3.9638121e-07
   3051414   4237   0   2    3.3622272e-06
   3051616   4137   0   2    4.0051437e-07
   3051616   4237   0   2    3.362231e-06

DECAY 23  2.4952


DECAY 24  2.085


DECAY 1000011  58.271242
    0.60107152   2   -1000024    12
    0.30084384   2    1000023    11
    0.097832113   2    1000022    11
    0.00021795031   2   -1000037    12

DECAY 2000011  22.920512
    0.99995942   2    1000022    11

DECAY 1000013  58.279141
    0.60097767   2   -1000024    14
    0.3007973   2    1000023    13
    0.097817389   2    1000022    13
    0.00021790134   2   -1000037    14
    0.00010747644   2    1000035    13

DECAY 2000013  22.939551
    0.99914582   2    1000022    13
    0.00040474769   2   -1000037    14
    0.0002235538   2    1000025    13
    0.00022241673   2    1000035    13

DECAY 1000015  20.438455
    0.55067145   2   -1000024    16
    0.27571779   2    1000023    15
    0.17361076   2    1000022    15

DECAY 2000015  14.491397
    0.82079342   2    1000022    15
    0.053944071   2   -1000024    16
    0.049184852   2    1000016   -24
    0.027035259   2    1000023    15
    0.02527199   2    1000015    23
    0.023770407   2    1000015    25

DECAY 1000012  58.277214
    0.60159728   2    1000024    11
    0.300504   2    1000023    12
    0.097784324   2    1000022    12

DECAY 1000014  58.286284
    0.6015046   2    1000024    13
    0.30045726   2    1000023    14
    0.097769113   2    1000022    14
    0.00017693035   2    1000037    13

DECAY 1000016  21.024963
    0.57352605   2    1000024    15
    0.28636775   2    1000023    16
    0.14010618   2    1000022    16

DECAY 2000001  1.1522145
    0.99999993   2    1000022    1

DECAY 1000001  66.275292
    0.53827524   2    1000021    1
    0.30344437   2   -1000024    2
    0.15180804   2    1000023    1
    0.0064722417   2    1000022    1

DECAY 2000003  1.1522203
    0.99999532   2    1000022    3

DECAY 1000003  66.277664
    0.53825554   2    1000021    3
    0.30343328   2   -1000024    4
    0.15180263   2    1000023    3
    0.0064720298   2    1000022    3

DECAY 1000005  6.0969487
    0.62070996   2   -1000024    6
    0.33998332   2    1000023    5
    0.039306721   2    1000022    5

DECAY 2000005  23.852334
    0.35115235   2    1000021    5
    0.33947348   2    1000005    25
    0.16435482   2    1000006   -24
    0.082147293   2    1000005    23
    0.06286616   2    1000022    5

DECAY 2000002  34.741157
    0.80824604   2    1000021    2
    0.19175394   2    1000022    2

DECAY 1000002  66.206364
    0.53759733   2    1000021    2
    0.30399748   2    1000024    1
    0.15192547   2    1000023    2
    0.0064797283   2    1000022    2

DECAY 2000004  34.741077
    0.80824566   2    1000021    4
    0.19175432   2    1000022    4

DECAY 1000004  66.206197
    0.53759627   2    1000021    4
    0.30399827   2    1000024    3
    0.15192572   2    1000023    4
    0.0064797405   2    1000022    4

DECAY 1000006  7.4305594
    0.55811291   2    1000024    5
    0.25977344   2    1000023    6
    0.13258321   2    1000023    4
    0.031851843   2    1000022    6
    0.014868662   2    1000022    4
    0.0028099327   3    1000022    24    5

DECAY 2000006  91.67857
    0.39901563   2    1000021    6
    0.2283087   2    1000005    24
    0.18385187   2    1000006    25
    0.11373984   2    1000006    23
    0.074649131   2    1000022    6
    0.00028227671   2    1000024    5
    0.00014212318   2    1000023    6

DECAY 1000024  0.00018097022
    0.63800718   2    1000022    24
    0.20451084   3    1000022   -5    6
    0.11889571   3    1000022   -15    16
    0.012121625   3    1000022   -3    4
    0.01212135   3    1000022   -1    2
    0.0071718294   3    1000022   -13    14
    0.0071714649   3    1000022   -11    12

DECAY 1000037  104.77405
    0.53368373   2   -1000005    6
    0.17829939   2    1000006   -5
    0.065687939   2    1000024    25
    0.063726906   2    1000023    24
    0.062882873   2    1000024    23
    0.033034159   2   -2000005    6
    0.020778191   2    1000022    24
    0.01437316   2    2000006   -5
    0.0097841933   2    1000016   -15
    0.0070594675   2   -2000015    16
    0.0052725223   3    1000024    6   -6
    0.0037872896   3    1000023   -5    6
    0.0011520714   3    1000022   -5    6
    0.0003580307   2   -1000015    16

DECAY 1000022 -1


DECAY 1000023  0.000161745
    0.39627277   2    1000022    23
    0.21179937   2    1000022    25
    0.12912715   3    1000022    5   -5
    0.08371293   3    1000022    12   -12
    0.076012494   3    1000022    15   -15
    0.063051068   3    1000022    6   -6
    0.007723509   3    1000022    2   -2
    0.007723343   3    1000022    4   -4
    0.0077085623   3    1000022    3   -3
    0.0077082648   3    1000022    1   -1
    0.0045795693   3    1000022    13   -13
    0.0045791392   3    1000022    11   -11

DECAY 1000025  107.84159
    0.25551197   2    1000006   -6
    0.25551197   2   -1000006    6
    0.08628247   2    1000005   -5
    0.08628247   2   -1000005    5
    0.061131812   2    1000024   -24
    0.061131812   2   -1000024    24
    0.056461476   2    1000023    25
    0.047775948   2    1000023    23
    0.017153346   2    2000005   -5
    0.017153346   2   -2000005    5
    0.010354443   2    1000022    25
    0.0098830574   2    1000022    23
    0.0047496496   2    1000015   -15
    0.0047496496   2   -1000015    15
    0.0041656859   2    2000006   -6
    0.0041656859   2   -2000006    6
    0.003588487   2    2000015   -15
    0.003588487   2   -2000015    15
    0.0033638733   3    1000024    5   -6
    0.0033638733   3   -1000024   -5    6
    0.0026457909   3    1000023    6   -6
    0.00087546442   3    1000022    6   -6

DECAY 1000035  103.4421
    0.26725815   2    1000006   -6
    0.26725815   2   -1000006    6
    0.089900738   2    1000005   -5
    0.089900738   2   -1000005    5
    0.062535769   2    1000024   -24
    0.062535769   2   -1000024    24
    0.052645945   2    1000023    25
    0.017919248   2    2000005   -5
    0.017919248   2   -2000005    5
    0.013399509   2    1000023    23
    0.010732285   2    1000022    23
    0.0096664919   2    1000022    25
    0.0049029507   2    1000015   -15
    0.0049029507   2   -1000015    15
    0.004468893   2    2000006   -6
    0.004468893   2   -2000006    6
    0.0041517486   3    1000024    5   -6
    0.0041517486   3   -1000024   -5    6
    0.0037840204   2    2000015   -15
    0.0037840204   2   -2000015    15
    0.0026121421   3    1000023    6   -6
    0.00095260933   3    1000022    6   -6

DECAY 1000021  59.115396
    0.16767364   2    1000006   -6
    0.16767364   2   -1000006    6
    0.16600869   2    1000005   -5
    0.16600869   2   -1000005    5
    0.078925369   2    1000006   -4
    0.078925369   2   -1000006    4
    0.043567157   2    2000003   -3
    0.043567157   2   -2000003    3
    0.043567007   2    2000001   -1
    0.043567007   2   -2000001    1

DECAY 25  0.0034070172
    0.63335496   2   -5    5
    0.1652845   2   -24    24
    0.074982742   2    21    21
    0.072581751   2   -15    15
    0.031407749   2   -4    4
    0.018410084   2    23    23
    0.0023228125   2    22    22
    0.001153162   2    22    23
    0.00025176718   2   -13    13
    0.0002381178   2   -3    3
    1.1532556e-05   2    1000022    1000022
    6.5837346e-07   2   -1    1
    1.6186552e-07   2   -2    2
    5.660063e-09   2   -11    11

DECAY 35  31.995419
    0.66552955   2   -5    5
    0.29550759   2   -15    15
    0.014336214   2   -1000006    1000006
    0.010602822   2    1000022    1000035
    0.010316339   2    1000022    1000025
    0.0010724347   2   -13    13
    0.00097701086   2   -1000024    1000024
    0.00048819785   2    1000023    1000023
    0.00034900588   2    1000022    1000023
    0.00032576142   2   -1000005    1000005
    0.00030149289   2   -3    3
    6.5143342e-05   2   -6    6
    6.0828489e-05   2    25    25
    5.152859e-05   2    1000022    1000022
    1.3901704e-05   2    21    21
    8.3348252e-07   2   -1    1
    7.3788416e-07   2    23    23
    3.4629257e-07   2    22    23
    1.4817904e-07   2   -24    24
    6.1685343e-08   2    22    22
    2.4083569e-08   2   -11    11
    1.0735932e-08   2   -1000001    1000001
    1.0675346e-08   2   -1000003    1000003
    3.7343358e-09   2   -4    4
    1.9345009e-14   2   -2    2

DECAY 36  31.025702
    0.67485569   2   -5    5
    0.29971964   2   -15    15
    0.010963364   2    1000022    1000025
    0.010613286   2    1000022    1000035
    0.001339152   2   -1000024    1000024
    0.0010877237   2   -13    13
    0.00066913835   2    1000023    1000023
    0.00035765573   2    1000022    1000023
    0.00030578118   2   -3    3
    5.325118e-05   2    1000022    1000022
    2.177333e-05   2   -6    6
    1.0862704e-05   2    21    21
    1.6852012e-06   2    23    25
    8.4533622e-07   2   -1    1
    9.9398321e-08   2    22    23
    2.442691e-08   2   -11    11
    2.3908757e-08   2    22    22
    4.9651985e-09   2   -4    4
    2.5706835e-14   2   -2    2
    8.9844865e-37   2    25    25

DECAY 37  31.98591
    0.62983625   2   -5    6
    0.3441392   2   -15    16
    0.020913243   2    1000022    1000037
    0.00193958   2   -1000005    1000006
    0.0012166545   2   -13    14
    0.0009290026   2   -5    4
    0.00069615688   2    1000022    1000024
    0.00030053105   2   -3    4
    1.4125841e-05   2   -3    2
    6.6340358e-06   2   -5    2
    5.8407809e-06   2   -3    6
    1.636458e-06   2    24    25
    8.3403307e-07   2   -1    2
    2.4733797e-07   2   -1    6
    4.1346746e-08   2   -1    4
    2.8457675e-08   2   -11    12
    6.8790706e-11   2   -1000003    1000006
    5.8875632e-11   2    1000023    1000024
    1.0384048e-13   2    24    35
    7.680304e-14   2    24    36
    8.7424434e-15   2   -1000001    1000006

DECAY 6  2.43
    1   2    5    24

DECAY 15 -1
