BLOCK SPINFO
   1   SPheno
   2   v4.0.5be

BLOCK SPHENOINFO
   1   2
   2   2

BLOCK MODSEL
   1   0

BLOCK MINPAR
   3    7.4825384
   4   -1

BLOCK EXTPAR
   0    3654.1598
   1    149.36698
   2   -1670.7812
   3    4109.6282
   11   -7264.5463
   12    1916.101
   13    5907.6254
   23   -4435.9877
   25    7.119151
   26    2726.3841
   31    3534.3439
   32    3534.3439
   33    3693.8886
   34    1858.6452
   35    1858.6452
   36    4340.8455
   41    1852.9733
   42    1852.9733
   43    3089.7595
   44    3582.3104
   45    3582.3104
   46    4153.1401
   47    2777.3742
   48    2777.3742
   49    4335.504

BLOCK SMINPUTS
   1    127.90897
   2    1.1663787e-05
   3    0.1184
   4    91.1876
   5    4.18
   6    173.2
   7    1.777
   8    0
   11    0.00051099893
   12    0
   13    0.10565837
   14    0
   21    0.005
   22    0.0025
   23    0.095
   24    1.27

BLOCK GAUGE Q=  3654.1598
   1    0.35536298
   2    0.66519887
   3    1.219778

BLOCK YU Q=  3654.1598
   1   1    8.4666831e-06
   2   2    0.004301075
   3   3    1.0228433

BLOCK YD Q=  3654.1598
   1   1    0.00012112164
   2   2    0.0023013112
   3   3    0.12011472

BLOCK YE Q=  3654.1598
   1   1    2.1136613e-05
   2   2    0.0043703811
   3   3    0.073502621

BLOCK AU Q=  3654.1598
   1   1    0
   2   2    0
   3   3   -7264.5462

BLOCK AD Q=  3654.1598
   1   1    0
   2   2    0
   3   3    1916.101

BLOCK AE Q=  3654.1598
   1   1    0
   2   2    0
   3   3    5907.6255

BLOCK MSOFT Q=  3654.1598
   1    149.36698
   2   -1670.7812
   3    4109.6282
   21   -12544744
   22   -19371754
   31    3534.3439
   32    3534.3439
   33    3693.8886
   34    1858.6452
   35    1858.6452
   36    4340.8455
   41    1852.9733
   42    1852.9733
   43    3089.7595
   44    3582.3104
   45    3582.3104
   46    4153.1401
   47    2777.3742
   48    2777.3742
   49    4335.504

BLOCK MASS
   6    173.2
   23    91.1876
   24    80.429995
   15    1.777
   25    123.39024
   35    2726.3873
   36    2726.3841
   37    2727.729
   1000001    2060.6238
   2000001    2938.7027
   1000002    2059.166
   2000002    3724.396
   1000003    2060.6234
   2000003    2938.7023
   1000004    2059.1659
   2000004    3724.3956
   1000005    3226.6131
   2000005    4457.7586
   1000006    3209.8033
   2000006    4160.0318
   1000011    3543.7593
   2000011    1868.5288
   1000012    3542.5208
   1000013    3543.7586
   2000013    1868.5269
   1000014    3542.5198
   1000015    3702.922
   2000015    4347.4516
   1000016    3701.836
   1000021    4193.9541
   1000022    149.0428
   1000023   -1708.9758
   1000025    4414.3046
   1000035   -4415.5186
   1000024    1709.1229
   1000037    4415.8277

BLOCK ALPHA
      -0.13328178

BLOCK HMIX Q=  3654.1598
   1   -4435.9877
   2    7.119151
   3    243.03895
   4    7433170

BLOCK STOPMIX
   1   1    0.9913584
   1   2    0.13118125
   2   1   -0.13118125
   2   2    0.9913584

BLOCK SBOTMIX
   1   1   -0.99996735
   1   2    0.0080805293
   2   1   -0.0080805293
   2   2   -0.99996735

BLOCK STAUMIX
   1   1   -0.99991761
   1   2    0.012836492
   2   1   -0.012836492
   2   2   -0.99991761

BLOCK NMIX
   1   1    0.99995062
   1   2   -8.1096079e-05
   1   3   -0.0098868404
   1   4    0.00099700523
   2   1    0.00030024018
   2   2    0.99972391
   2   3    0.021130099
   2   4   -0.01027251
   3   1    0.006284938
   3   2   -0.007679654
   3   3    0.70702577
   3   4    0.70711816
   4   1    0.0076915291
   4   2   -0.022206126
   4   3    0.7068029
   4   4   -0.70702008

BLOCK UMIX
   1   1   -0.99955377
   1   2   -0.029870563
   2   1   -0.029870563
   2   2    0.99955377

BLOCK VMIX
   1   1    0.99989426
   1   2    0.014542241
   2   1    0.014542241
   2   2   -0.99989426

BLOCK HIGGSBOUNDSINPUTHIGGSCOUPLINGSFERMIONS
       0, 50.682311,3,36,15,15

BLOCK HIGGSBOUNDSINPUTHIGGSCOUPLINGSBOSONS
       0,4,36,21,21,23

BLOCK SPHENOLOWENERGY
   1    0.00032925848
   2    1.5897626e-06
   3    3.5266288e-05
   4    2.6000555e-15
   5    1.1107143e-10
   6    2.3252359e-08
   7    8.7897382e-14
   8    3.7549737e-09
   9    7.9648393e-07
   10    9.6757754e-05
   11    0.99947055
   12    0.54210852
   13    19.369754
   14    0
   15    0
   16    0.0021578222
   17    2.2816636e-15
   18    2.4813267e-11
   19    8.29274e-11
   20    1.5172862e-16
   21    6.4868491e-12
   22    2.0094484e-09
   23    0
   24    0
   25    0
   26    0
   27    0
   28    0
   29    0
   30    0
   31    0
   39   -0.00013544681
   40    0
   41    0
   42    0

BLOCK FWCOEF Q=  160
   305   4422   0   0   -0.18881911
   305   4422   0   2   -0.19822621
   305   4322   0   2   -0.00019153491
   305   6421   0   0   -0.095227835
   305   6421   0   2   -0.10612066
   305   6321   0   2   -0.00021890878
   3051111   4133   0   0    1.6230549
   3051111   4133   0   2    1.6231038
   3051111   4233   0   2    1.0205804e-05
   3051111   4137   0   0   -4.445747
   3051111   4137   0   2   -4.445406
   3051111   4237   0   2   -7.6156935e-05
   3051313   4133   0   0    1.6230549
   3051313   4133   0   2    1.6231038
   3051313   4233   0   2    1.0205804e-05
   3051313   4137   0   0   -4.445747
   3051313   4137   0   2   -4.445406
   3051313   4237   0   2   -7.6156935e-05
   3051212   4137   0   0    1.5053501
   3051212   4137   0   2    1.5052813
   3051212   4237   0   2    1.6483486e-05
   3051414   4137   0   0    1.5053501
   3051414   4137   0   2    1.5052813
   3051414   4237   0   2    1.6483486e-05
   3051616   4137   0   0    1.5053501
   3051616   4137   0   2    1.5052813
   3051616   4237   0   2    1.6483507e-05

BLOCK IMFWCOEF Q=  160
   305   4422   0   0    3.8579866e-07
   305   4422   0   2    8.9300262e-07
   305   4322   0   2   -6.8514581e-07
   305   6421   0   0    3.3046207e-07
   305   6421   0   2    5.466546e-06
   305   6321   0   2   -3.7979479e-07
   3051111   4133   0   2   -1.4413131e-06
   3051111   4233   0   2    2.1240072e-07
   3051111   4137   0   2    1.3329514e-05
   3051111   4237   0   2   -1.5844023e-06
   3051313   4133   0   2   -1.4413129e-06
   3051313   4233   0   2    2.1240072e-07
   3051313   4137   0   2    1.3329514e-05
   3051313   4237   0   2   -1.5844023e-06
   3051212   4137   0   2   -2.7935164e-06
   3051212   4237   0   2    3.4292366e-07
   3051414   4137   0   2   -2.7935164e-06
   3051414   4237   0   2    3.4292366e-07
   3051616   4137   0   2   -2.793735e-06
   3051616   4237   0   2    3.4292346e-07

DECAY 23  2.4952


DECAY 24  2.085


DECAY 2000011  9.2686701
    1   2    1000022    11

DECAY 1000011  31.973139
    0.57406739   2   -1000024    12
    0.28725355   2    1000023    11
    0.13867906   2    1000022    11

DECAY 2000013  9.2686602
    1   2    1000022    13

DECAY 1000013  31.973872
    0.57405396   2   -1000024    14
    0.28724684   2    1000023    13
    0.13867586   2    1000022    13

DECAY 1000015  34.896932
    0.57793018   2   -1000024    16
    0.2891872   2    1000023    15
    0.13288262   2    1000022    15

DECAY 2000015  22.160406
    0.9831876   2    1000022    15
    0.0084395175   2    1000016   -24
    0.0041705897   2    1000015    23
    0.0040339874   2    1000015    25
    0.0001121211   2   -1000024    16

DECAY 1000012  31.959586
    0.57425776   2    1000024    11
    0.28696895   2    1000023    12
    0.13877329   2    1000022    12

DECAY 1000014  31.959568
    0.57425774   2    1000024    13
    0.28696893   2    1000023    14
    0.13877333   2    1000022    14

DECAY 1000016  34.886903
    0.57818678   2    1000024    15
    0.28892727   2    1000023    16
    0.13288595   2    1000022    16

DECAY 1000001  2.9331026
    0.60172656   2   -1000024    2
    0.30116207   2    1000023    1
    0.097111377   2    1000022    1

DECAY 2000001  1.6320663
    0.99999966   2    1000022    1

DECAY 1000003  2.9330798
    0.60172402   2   -1000024    4
    0.30116386   2    1000023    3
    0.097112121   2    1000022    3

DECAY 2000003  1.6322401
    0.99989304   2    1000022    3
    0.00010681315   2    1000003    25

DECAY 1000005  22.276681
    0.65001855   2   -1000024    6
    0.32981323   2    1000023    5
    0.020168226   2    1000022    5

DECAY 2000005  8.0953842
    0.57344475   2    1000021    5
    0.30665633   2    1000022    5
    0.053003762   2    1000006   -24
    0.040777351   2    1000005    25
    0.026006331   2    1000005    23

DECAY 1000002  2.91539
    0.60159184   2    1000024    1
    0.30095504   2    1000023    2
    0.097453117   2    1000022    2

DECAY 2000002  8.2897771
    0.99999994   2    1000022    2

DECAY 1000004  2.9153797
    0.60159341   2    1000024    3
    0.30095323   2    1000023    4
    0.097453364   2    1000022    4

DECAY 2000004  8.289786
    0.99999848   2    1000022    4

DECAY 1000006  21.902191
    0.64687891   2    1000024    5
    0.32105617   2    1000023    6
    0.025367721   2    1000022    6
    0.0066972042   3    1000022    24    5

DECAY 2000006  130.60491
    0.40352623   2    1000005    24
    0.31284954   2    1000006    25
    0.20721599   2    1000006    23
    0.069584333   2    1000022    6
    0.0045548667   2    1000024    5
    0.0022690472   2    1000023    6

DECAY 1000024  0.00070026644
    0.43825615   2    1000022    24
    0.20759738   3    1000022   -3    4
    0.20759717   3    1000022   -1    2
    0.038395522   3    1000022   -13    14
    0.038395308   3    1000022   -11    12
    0.038188049   3    1000022   -5    6
    0.031570412   3    1000022   -15    16

DECAY 1000037  69.410349
    0.42555488   2   -1000005    6
    0.16055963   2    1000024    25
    0.14317991   2    1000023    24
    0.1428693   2    1000024    23
    0.04146498   2    1000022    24
    0.024653634   2    2000006   -5
    0.01837928   3    1000024    6   -6
    0.015660921   2    37    1000022
    0.014651475   2    1000006   -5
    0.0083588473   3    1000023   -5    6
    0.0026726123   3    1000022   -5    6
    0.00047999055   2   -1000003    4
    0.00045865061   2   -1000001    2
    0.00033205529   3    1000024    5   -5
    0.00030680664   2    1000016   -15
    0.00011494157   2    1000004   -3
    0.00010880971   2    1000002   -1

DECAY 1000022 -1


DECAY 1000023  0.00093236589
    0.40014657   2    1000022    25
    0.098125467   3    1000022    4   -4
    0.098125422   3    1000022    2   -2
    0.097848139   3    1000022    3   -3
    0.097847999   3    1000022    1   -1
    0.07035764   2    1000022    23
    0.054601664   3    1000022    12   -12
    0.019309048   3    1000022    13   -13
    0.019308906   3    1000022    11   -11
    0.018327599   3    1000022    6   -6
    0.015910753   3    1000022    15   -15
    0.0098446363   3    1000022    5   -5
    0.0002461591   2    1000022    22

DECAY 1000025  73.639897
    0.21452587   2    1000006   -6
    0.21452587   2   -1000006    6
    0.13472815   2    1000024   -24
    0.13472815   2   -1000024    24
    0.12052666   2    1000023    23
    0.079319062   2    1000023    25
    0.023453503   2    1000022    23
    0.01478537   2    1000022    25
    0.010562192   3    1000024    5   -6
    0.010562192   3   -1000024   -5    6
    0.010062935   2    1000022    35
    0.007109623   2    2000006   -6
    0.007109623   2   -2000006    6
    0.0048093156   3    1000023    6   -6
    0.0046353335   2    1000022    36
    0.0028030184   2    1000005   -5
    0.0028030184   2   -1000005    5
    0.0021503764   3    1000022    6   -6
    0.00025269813   3    1000023    5   -5
    0.00014128945   2    1000015   -15
    0.00014128945   2   -1000015    15

DECAY 1000035  70.413322
    0.22729139   2    1000006   -6
    0.22729139   2   -1000006    6
    0.14207199   2    1000023    25
    0.1411175   2    1000024   -24
    0.1411175   2   -1000024    24
    0.026507396   2    1000022    25
    0.016365663   2    1000022    23
    0.015065977   2    1000023    23
    0.0088486254   3    1000023    6   -6
    0.0085342976   2    1000022    36
    0.0075647764   2    2000006   -6
    0.0075647764   2   -2000006    6
    0.0072483614   3    1000024    5   -6
    0.0072483614   3   -1000024   -5    6
    0.006129913   2    1000022    35
    0.0029750731   2    1000005   -5
    0.0029750731   2   -1000005    5
    0.0023543232   3    1000022    6   -6
    0.00016385356   3    1000023    5   -5
    0.00015142296   2    1000015   -15
    0.00015142296   2   -1000015    15
    0.00014383158   2    1000003   -3
    0.00014383158   2   -1000003    3
    0.00014080836   2    1000001   -1
    0.00014080836   2   -1000001    1
    0.00012071441   2    1000004   -4
    0.00012071441   2   -1000004    4
    0.00011006788   2    1000002   -2
    0.00011006788   2   -1000002    2

DECAY 1000021  402.00309
    0.088933294   2    1000004   -4
    0.088933294   2   -1000004    4
    0.088933293   2    1000002   -2
    0.088933293   2   -1000002    2
    0.088853311   2    1000003   -3
    0.088853311   2   -1000003    3
    0.08885329   2    1000001   -1
    0.08885329   2   -1000001    1
    0.040006045   2    2000003   -3
    0.040006045   2   -2000003    3
    0.040006021   2    2000001   -1
    0.040006021   2   -2000001    1
    0.025717329   2    1000005   -5
    0.025717329   2   -1000005    5
    0.024830932   2    1000006   -6
    0.024830932   2   -1000006    6
    0.0068993686   2    2000002   -2
    0.0068993686   2   -2000002    2
    0.0068993573   2    2000004   -4
    0.0068993573   2   -2000004    4
    0.00010372597   3    1000022    6   -6

DECAY 25  0.0036786118
    0.59754171   2   -5    5
    0.20287299   2   -24    24
    0.073586611   2    21    21
    0.068581042   2   -15    15
    0.029468902   2   -4    4
    0.023778283   2    23    23
    0.0023434616   2    22    22
    0.0013637015   2    22    23
    0.00023786043   2   -13    13
    0.00022466007   2   -3    3
    6.211629e-07   2   -1    1
    1.5186512e-07   2   -2    2
    5.3473873e-09   2   -11    11

DECAY 35  4.2600685
    0.46709729   2   -6    6
    0.45484748   2   -5    5
    0.074931995   2   -15    15
    0.00170608   2    25    25
    0.00045868209   2    1000022    1000023
    0.00025972797   2   -13    13
    0.00021411866   2   -3    3
    0.00018251523   2    23    23
    0.0001297242   2    1000022    1000022
    0.00010152285   2    21    21
    6.2626421e-05   2   -24    24
    6.9109461e-06   2   -4    4
    5.9837994e-07   2    22    22
    5.9205027e-07   2   -1    1
    1.3418638e-07   2    22    23
    5.8335154e-09   2   -11    11
    3.5630507e-11   2   -2    2

DECAY 36  4.2051144
    0.47530322   2   -6    6
    0.44912713   2   -5    5
    0.073989938   2   -15    15
    0.00044240277   2    1000022    1000023
    0.00028233557   2    23    25
    0.00025646224   2   -13    13
    0.00023821155   2    21    21
    0.00021142859   2   -3    3
    0.00014038176   2    1000022    1000022
    6.9096269e-06   2   -4    4
    8.193532e-07   2    22    22
    5.8461004e-07   2   -1    1
    1.7606574e-07   2    22    23
    5.7601668e-09   2   -11    11
    3.5624836e-11   2   -2    2
    3.5044734e-34   2    25    25

DECAY 37  4.0863832
    0.92218177   2   -5    6
    0.074740361   2   -15    16
    0.00093484843   2    1000022    1000024
    0.00067503832   2   -3    6
    0.00066215145   2   -5    4
    0.00029119095   2    24    25
    0.0002642339   2   -13    14
    0.00020458104   2   -3    4
    3.0946911e-05   2   -1    6
    9.2880522e-06   2   -3    2
    4.7283781e-06   2   -5    2
    5.5096865e-07   2   -1    2
    3.0896741e-07   2   -1    4
    6.1804583e-09   2   -11    12
    1.4662181e-12   2    24    36
    1.4487974e-12   2    24    35

DECAY 6  2.43
    1   2    5    24

DECAY 15 -1
