# SUSY Les Houches Accord 2 - MSSM spectrum + Decays
# SPheno v4.0.5be
# W. Porod, Comput. Phys. Commun. 153 (2003) 275-315, hep-ph/0301101;
# W. Porod, F.~Staub, Comput. Phys. Commun. 183 (2012) 2458
#                     arXiv:1104.1573 [hep-ph] 
# in case of problems send email to porod@physik.uni-wuerzburg.de
# Created: 07.09.2021,  18:11
Block SPINFO         # Program information
     1   SPheno      # spectrum calculator
     2   v4.0.5be    # version number
#
Block SPhenoINFO     # SPheno specific information
    1      2         # using 2-loop RGEs
    2      2         # using pole masses for boundary conditions at mZ
Block MODSEL  # Model selection
    1    0    # general MSSM
Block MINPAR  # Input parameters
    3    3.48409998E+01  # tanb at m_Z    
    4   -1.00000000E+00  # Sign(mu)
Block EXTPAR  # non-universal input parameters
    0    3.47185896E+03  # scale for input parameters
    1   -1.95744901E+02  # M_1
    2    3.34617358E+02  # M_2
    3    1.28381785E+03  # M_3
   11    4.04135470E+03  # A_t
   12   -1.46728491E+02  # A_b
   13   -1.25944664E+03  # A_tau
   23   -1.99854968E+02  # mu
   25    3.37202403E+01  # tan(beta)
   26    1.52975799E+03  # m_A, pole mass
   31    1.00000000E+04  # M_L11
   32    1.00000000E+04  # M_L22
   33    1.00000000E+04  # M_L33
   34    1.00000000E+04  # M_E11
   35    1.00000000E+04  # M_E22
   36    1.00000000E+04  # M_E33
   41    1.00000000E+04  # M_Q11
   42    1.00000000E+04  # M_Q22
   43    4.54849602E+03  # M_Q33
   44    1.00000000E+04  # M_U11
   45    1.00000000E+04  # M_U22
   46    2.66098851E+03  # M_U33
   47    1.00000000E+04  # M_D11
   48    1.00000000E+04  # M_D22
   49    4.05639130E+03  # M_D33
Block SMINPUTS  # SM parameters
         1     1.27908970E+02  # alpha_em^-1(MZ)^MSbar
         2     1.16637870E-05  # G_mu [GeV^-2]
         3     1.18400000E-01  # alpha_s(MZ)^MSbar
         4     9.11876000E+01  # m_Z(pole)
         5     4.18000000E+00  # m_b(m_b), MSbar
         6     1.73200000E+02  # m_t(pole)
         7     1.77700000E+00  # m_tau(pole)
         8     0.00000000E+00  # m_nu_3
        11     5.10998930E-04  # m_e(pole)
        12     0.00000000E+00  # m_nu_1
        13     1.05658372E-01  # m_muon(pole)
        14     0.00000000E+00  # m_nu_2
        21     5.00000000E-03  # m_d(2 GeV), MSbar
        22     2.50000000E-03  # m_u(2 GeV), MSbar
        23     9.50000000E-02  # m_s(2 GeV), MSbar
        24     1.27000000E+00  # m_c(m_c), MSbar
Block gauge Q=  3.47185896E+03  # (SUSY scale)
   1    3.55362975E-01  # g'(Q)^DRbar
   2    6.65198874E-01  # g(Q)^DRbar
   3    1.21977796E+00  # g3(Q)^DRbar
Block Yu Q=  3.47185896E+03  # (SUSY scale)
  1  1     8.38805821E-06   # Y_u(Q)^DRbar
  2  2     4.26113357E-03   # Y_c(Q)^DRbar
  3  3     1.01334481E+00   # Y_t(Q)^DRbar
Block Yd Q=  3.47185896E+03  # (SUSY scale)
  1  1     5.68371567E-04   # Y_d(Q)^DRbar
  2  2     1.07990598E-02   # Y_s(Q)^DRbar
  3  3     5.63646492E-01   # Y_b(Q)^DRbar
Block Ye Q=  3.47185896E+03  # (SUSY scale)
  1  1     9.91849946E-05   # Y_e(Q)^DRbar
  2  2     2.05083112E-02   # Y_mu(Q)^DRbar
  3  3     3.44916056E-01   # Y_tau(Q)^DRbar
Block Au Q=  3.47185896E+03  # (SUSY scale)
  1  1     0.00000000E+00   # A_u(Q)^DRbar
  2  2     0.00000000E+00   # A_c(Q)^DRbar
  3  3     4.04135472E+03   # A_t(Q)^DRbar
Block Ad Q=  3.47185896E+03  # (SUSY scale)
  1  1     0.00000000E+00   # A_d(Q)^DRbar
  2  2     0.00000000E+00   # A_s(Q)^DRbar
  3  3    -1.46728490E+02   # A_b(Q)^DRbar
Block Ae Q=  3.47185896E+03  # (SUSY scale)
  1  1     0.00000000E+00   # A_e(Q)^DRbar
  2  2     0.00000000E+00   # A_mu(Q)^DRbar
  3  3    -1.25944663E+03   # A_tau(Q)^DRbar
Block MSOFT Q=  3.47185896E+03  # soft SUSY breaking masses at Q
   1   -1.95744901E+02  # M_1
   2    3.34617358E+02  # M_2
   3    1.28381785E+03  # M_3
  21    2.24907680E+06  # M^2_(H,d)
  22    1.72774094E+05  # M^2_(H,u)
  31    1.00000000E+04  # M_(L,11)
  32    1.00000000E+04  # M_(L,22)
  33    1.00000000E+04  # M_(L,33)
  34    1.00000000E+04  # M_(E,11)
  35    1.00000000E+04  # M_(E,22)
  36    1.00000000E+04  # M_(E,33)
  41    1.00000000E+04  # M_(Q,11)
  42    1.00000000E+04  # M_(Q,22)
  43    4.54849602E+03  # M_(Q,33)
  44    1.00000000E+04  # M_(U,11)
  45    1.00000000E+04  # M_(U,22)
  46    2.66098851E+03  # M_(U,33)
  47    1.00000000E+04  # M_(D,11)
  48    1.00000000E+04  # M_(D,22)
  49    4.05639130E+03  # M_(D,33)
Block MASS  # Mass spectrum
#   PDG code      mass          particle
         6     1.73200000E+02  # m_t(pole)
        23     9.11876000E+01  # m_Z(pole)
        24     8.04299946E+01  # W+
        15     1.77700000E+00  # m_tau(pole)
        25     1.25879515E+02  # h0
        35     1.52931060E+03  # H0
        36     1.52975799E+03  # A0
        37     1.53357691E+03  # H+
   1000001     1.01224547E+04  # ~d_L
   2000001     1.00970233E+04  # ~d_R
   1000002     1.01220919E+04  # ~u_L
   2000002     1.01002775E+04  # ~u_R
   1000003     1.01224582E+04  # ~s_L
   2000003     1.00970292E+04  # ~s_R
   1000004     1.01220954E+04  # ~c_L
   2000004     1.01002785E+04  # ~c_R
   1000005     4.08915899E+03  # ~b_1
   2000005     4.56039555E+03  # ~b_2
   1000006     2.64070323E+03  # ~t_1
   2000006     4.56461919E+03  # ~t_2
   1000011     1.00215079E+04  # ~e_L-
   2000011     1.00088939E+04  # ~e_R-
   1000012     1.00207372E+04  # ~nu_eL
   1000013     1.00215237E+04  # ~mu_L-
   2000013     1.00089244E+04  # ~mu_R-
   1000014     1.00207529E+04  # ~nu_muL
   1000015     1.00176061E+04  # ~tau_1-
   2000015     1.00260186E+04  # ~tau_2-
   1000016     1.00252153E+04  # ~nu_tauL
   1000021     1.61963233E+03  # ~g
   1000022     1.75248044E+02  # ~chi_10
   1000023     1.99627060E+02  # ~chi_20
   1000025     2.43933996E+02  # ~chi_30
   1000035     3.93209030E+02  # ~chi_40
   1000024     2.02830529E+02  # ~chi_1+
   1000037     3.93112086E+02  # ~chi_2+
# Higgs mixing
Block alpha # Effective Higgs mixing angle
          -2.89520584E-02   # alpha
Block Hmix Q=  3.47185896E+03  # Higgs mixing parameters
   1   -1.99854968E+02  # mu
   2    3.37202403E+01  # tan[beta](Q)
   3    2.43066742E+02  # v(Q)
   4    2.34015951E+06  # m^2_A(Q)
Block stopmix # stop mixing matrix
   1  1    -3.95057708E-02   # Re[R_st(1,1)]
   1  2     9.99219342E-01   # Re[R_st(1,2)]
   2  1    -9.99219342E-01   # Re[R_st(2,1)]
   2  2    -3.95057708E-02   # Re[R_st(2,2)]
Block sbotmix # sbottom mixing matrix
   1  1    -3.27492738E-03   # Re[R_sb(1,1)]
   1  2     9.99994637E-01   # Re[R_sb(1,2)]
   2  1    -9.99994637E-01   # Re[R_sb(2,1)]
   2  2    -3.27492738E-03   # Re[R_sb(2,2)]
Block staumix # stau mixing matrix
   1  1    -5.69593831E-02   # Re[R_sta(1,1)]
   1  2     9.98376496E-01   # Re[R_sta(1,2)]
   2  1    -9.98376496E-01   # Re[R_sta(2,1)]
   2  2    -5.69593831E-02   # Re[R_sta(2,2)]
Block Nmix # neutralino mixing matrix
   1  1    -8.03936844E-01   # Re[N(1,1)]
   1  2    -5.80413234E-02   # Re[N(1,2)]
   1  3     4.55980340E-01   # Re[N(1,3)]
   1  4    -3.77357504E-01   # Re[N(1,4)]
   2  1    -7.08395560E-02   # Re[N(2,1)]
   2  2    -2.96458590E-01   # Re[N(2,2)]
   2  3    -6.98471400E-01   # Re[N(2,3)]
   2  4    -6.47481092E-01   # Re[N(2,4)]
   3  1    -5.90111993E-01   # Re[N(3,1)]
   3  2     8.10847617E-02   # Re[N(3,2)]
   3  3    -5.32240339E-01   # Re[N(3,3)]
   3  4     6.01592319E-01   # Re[N(3,4)]
   4  1     2.08601050E-02   # Re[N(4,1)]
   4  2    -9.49825653E-01   # Re[N(4,2)]
   4  3     1.44706097E-01   # Re[N(4,3)]
   4  4     2.76507199E-01   # Re[N(4,4)]
Block Umix # chargino mixing matrix
   1  1    -2.08221187E-01   # Re[U(1,1)]
   1  2    -9.78081764E-01   # Re[U(1,2)]
   2  1     9.78081764E-01   # Re[U(2,1)]
   2  2    -2.08221187E-01   # Re[U(2,2)]
Block Vmix # chargino mixing matrix
   1  1    -3.97079300E-01   # Re[V(1,1)]
   1  2     9.17784305E-01   # Re[V(1,2)]
   2  1     9.17784305E-01   # Re[V(2,1)]
   2  2     3.97079300E-01   # Re[V(2,2)]
DECAY        23     2.49520000E+00   # Z
DECAY        24     2.08500000E+00   # W
DECAY   2000011     5.02500464E+01   # ~e^-_R
#    BR                NDA      ID1      ID2
     6.46445114E-01    2     1000022        11   # BR(~e^-_R -> chi^0_1 e^-)
     5.01836013E-03    2     1000023        11   # BR(~e^-_R -> chi^0_2 e^-)
     3.48102330E-01    2     1000025        11   # BR(~e^-_R -> chi^0_3 e^-)
     4.34156496E-04    2     1000035        11   # BR(~e^-_R -> chi^0_4 e^-)
DECAY   1000011     1.44522932E+02   # ~e^-_L
#    BR                NDA      ID1      ID2
     7.24970713E-02    2     1000022        11   # BR(~e^-_L -> chi^0_1 e^-)
     3.40827156E-02    2     1000023        11   # BR(~e^-_L -> chi^0_2 e^-)
     1.67158970E-02    2     1000025        11   # BR(~e^-_L -> chi^0_3 e^-)
     2.68100730E-01    2     1000035        11   # BR(~e^-_L -> chi^0_4 e^-)
     2.64437730E-02    2    -1000024        12   # BR(~e^-_L -> chi^-_1 nu_e)
     5.82159813E-01    2    -1000037        12   # BR(~e^-_L -> chi^-_2 nu_e)
#    BR                NDA      ID1      ID2       ID3
DECAY   2000013     5.04175390E+01   # ~mu^-_R
#    BR                NDA      ID1      ID2
     6.44644682E-01    2     1000022        13   # BR(~mu^-_R -> chi^0_1 mu^-)
     5.81142653E-03    2     1000023        13   # BR(~mu^-_R -> chi^0_2 mu^-)
     3.47416929E-01    2     1000025        13   # BR(~mu^-_R -> chi^0_3 mu^-)
     4.67390395E-04    2     1000035        13   # BR(~mu^-_R -> chi^0_4 mu^-)
     1.58777608E-03    2    -1000024        14   # BR(~mu^-_R -> chi^-_1 nu_mu)
DECAY   1000013     1.44606936E+02   # ~mu^-_L
#    BR                NDA      ID1      ID2
     7.25755588E-02    2     1000022        13   # BR(~mu^-_L -> chi^0_1 mu^-)
     3.43456411E-02    2     1000023        13   # BR(~mu^-_L -> chi^0_2 mu^-)
     1.68702831E-02    2     1000025        13   # BR(~mu^-_L -> chi^0_3 mu^-)
     2.67957513E-01    2     1000035        13   # BR(~mu^-_L -> chi^0_4 mu^-)
     2.64284532E-02    2    -1000024        14   # BR(~mu^-_L -> chi^-_1 nu_mu)
     5.81822551E-01    2    -1000037        14   # BR(~mu^-_L -> chi^-_2 nu_mu)
#    BR                NDA      ID1      ID2       ID3
DECAY   1000015     9.79018380E+01   # ~tau^-_1
#    BR                NDA      ID1      ID2
     3.88040655E-01    2     1000022        15   # BR(~tau^-_1 -> chi^0_1 tau^-)
     1.27566621E-01    2     1000023        15   # BR(~tau^-_1 -> chi^0_2 tau^-)
     2.38932234E-01    2     1000025        15   # BR(~tau^-_1 -> chi^0_3 tau^-)
     1.35418007E-03    2     1000035        15   # BR(~tau^-_1 -> chi^0_4 tau^-)
     2.41670714E-01    2    -1000024        16   # BR(~tau^-_1 -> chi^-_1 nu_tau)
     2.43559573E-03    2    -1000037        16   # BR(~tau^-_1 -> chi^-_2 nu_tau)
DECAY   2000015     1.68063103E+02   # ~tau^-_2
#    BR                NDA      ID1      ID2
     8.84279007E-02    2     1000022        15   # BR(~tau^-_2 -> chi^0_1 tau^-)
     9.41078866E-02    2     1000023        15   # BR(~tau^-_2 -> chi^0_2 tau^-)
     5.92368460E-02    2     1000025        15   # BR(~tau^-_2 -> chi^0_3 tau^-)
     2.35887656E-01    2     1000035        15   # BR(~tau^-_2 -> chi^0_4 tau^-)
     1.68120659E-02    2    -1000024        16   # BR(~tau^-_2 -> chi^-_1 nu_tau)
     5.05527645E-01    2    -1000037        16   # BR(~tau^-_2 -> chi^-_2 nu_tau)
#    BR                NDA      ID1      ID2       ID3
DECAY   1000012     1.44527681E+02   # ~nu_e
#    BR                NDA      ID1      ID2
     4.20784332E-02    2     1000022        12   # BR(~nu_e -> chi^0_1 nu_e)
     2.03945074E-02    2     1000023        12   # BR(~nu_e -> chi^0_2 nu_e)
     4.78807888E-02    2     1000025        12   # BR(~nu_e -> chi^0_3 nu_e)
     2.80952318E-01    2     1000035        12   # BR(~nu_e -> chi^0_4 nu_e)
     9.61568908E-02    2     1000024        11   # BR(~nu_e -> chi^+_1 e^-)
     5.12537062E-01    2     1000037        11   # BR(~nu_e -> chi^+_2 e^-)
#    BR                NDA      ID1      ID2       ID3
DECAY   1000014     1.44611678E+02   # ~nu_mu
#    BR                NDA      ID1      ID2
     4.20540583E-02    2     1000022        14   # BR(~nu_mu -> chi^0_1 nu_mu)
     2.03826934E-02    2     1000023        14   # BR(~nu_mu -> chi^0_2 nu_mu)
     4.78530529E-02    2     1000025        14   # BR(~nu_mu -> chi^0_3 nu_mu)
     2.80789572E-01    2     1000035        14   # BR(~nu_mu -> chi^0_4 nu_mu)
     9.66554019E-02    2     1000024        13   # BR(~nu_mu -> chi^+_1 mu^-)
     5.12265221E-01    2     1000037        13   # BR(~nu_mu -> chi^+_2 mu^-)
#    BR                NDA      ID1      ID2       ID3
DECAY   1000016     1.68298299E+02   # ~nu_tau
#    BR                NDA      ID1      ID2
     3.61514018E-02    2     1000022        16   # BR(~nu_tau -> chi^0_1 nu_tau)
     1.75218062E-02    2     1000023        16   # BR(~nu_tau -> chi^0_2 nu_tau)
     4.11364776E-02    2     1000025        16   # BR(~nu_tau -> chi^0_3 nu_tau)
     2.41378821E-01    2     1000035        16   # BR(~nu_tau -> chi^0_4 nu_tau)
     2.17375492E-01    2     1000024        15   # BR(~nu_tau -> chi^+_1 tau^-)
     4.46436001E-01    2     1000037        15   # BR(~nu_tau -> chi^+_2 tau^-)
#    BR                NDA      ID1      ID2       ID3
DECAY   2000001     7.62138270E+02   # ~d_R
#    BR                NDA      ID1      ID2
     4.77755121E-03    2     1000022         1   # BR(~d_R -> chi^0_1 d)
     2.57268974E-03    2     1000025         1   # BR(~d_R -> chi^0_3 d)
     9.92609334E-01    2     1000021         1   # BR(~d_R -> ~g d)
DECAY   1000001     8.93300633E+02   # ~d_L
#    BR                NDA      ID1      ID2
     3.61158432E-04    2     1000022         1   # BR(~d_L -> chi^0_1 d)
     4.01528677E-03    2     1000023         1   # BR(~d_L -> chi^0_2 d)
     1.72664283E-03    2     1000025         1   # BR(~d_L -> chi^0_3 d)
     4.52124268E-02    2     1000035         1   # BR(~d_L -> chi^0_4 d)
     4.32137920E-03    2    -1000024         2   # BR(~d_L -> chi^-_1 u)
     9.51394591E-02    2    -1000037         2   # BR(~d_L -> chi^-_2 u)
     8.49223647E-01    2     1000021         1   # BR(~d_L -> ~g d)
DECAY   2000003     7.62185442E+02   # ~s_R
#    BR                NDA      ID1      ID2
     4.78362744E-03    2     1000022         3   # BR(~s_R -> chi^0_1 s)
     2.58120409E-03    2     1000025         3   # BR(~s_R -> chi^0_3 s)
     9.92548542E-01    2     1000021         3   # BR(~s_R -> ~g s)
DECAY   1000003     8.93328020E+02   # ~s_L
#    BR                NDA      ID1      ID2
     3.66595141E-04    2     1000022         3   # BR(~s_L -> chi^0_1 s)
     4.02794549E-03    2     1000023         3   # BR(~s_L -> chi^0_2 s)
     1.73400819E-03    2     1000025         3   # BR(~s_L -> chi^0_3 s)
     4.52116032E-02    2     1000035         3   # BR(~s_L -> chi^0_4 s)
     4.32469166E-03    2    -1000024         4   # BR(~s_L -> chi^-_1 c)
     9.51372206E-02    2    -1000037         4   # BR(~s_L -> chi^-_2 c)
     8.49197936E-01    2     1000021         3   # BR(~s_L -> ~g s)
DECAY   1000005     2.83026435E+02   # ~b_1
#    BR                NDA      ID1      ID2
     2.41968355E-02    2     1000022         5   # BR(~b_1 -> chi^0_1 b)
     4.44676595E-02    2     1000023         5   # BR(~b_1 -> chi^0_2 b)
     2.83666527E-02    2     1000025         5   # BR(~b_1 -> chi^0_3 b)
     1.81285274E-03    2     1000035         5   # BR(~b_1 -> chi^0_4 b)
     8.67549370E-02    2    -1000024         6   # BR(~b_1 -> chi^-_1 t)
     3.73250420E-03    2    -1000037         6   # BR(~b_1 -> chi^-_2 t)
     8.10668016E-01    2     1000021         5   # BR(~b_1 -> ~g b)
DECAY   2000005     4.85574455E+02   # ~b_2
#    BR                NDA      ID1      ID2
     1.25496053E-02    2     1000022         5   # BR(~b_2 -> chi^0_1 b)
     3.21092808E-02    2     1000023         5   # BR(~b_2 -> chi^0_2 b)
     1.82108172E-02    2     1000025         5   # BR(~b_2 -> chi^0_3 b)
     3.82957107E-02    2     1000035         5   # BR(~b_2 -> chi^0_4 b)
     1.63812167E-01    2    -1000024         6   # BR(~b_2 -> chi^-_1 t)
     1.08134731E-01    2    -1000037         6   # BR(~b_2 -> chi^-_2 t)
     5.66107914E-01    2     1000021         5   # BR(~b_2 -> ~g b)
     6.07414997E-02    2     1000006       -24   # BR(~b_2 -> ~t_1 W^-)
DECAY   2000002     7.79312722E+02   # ~u_R
#    BR                NDA      ID1      ID2
     1.86950165E-02    2     1000022         2   # BR(~u_R -> chi^0_1 u)
     1.45129544E-04    2     1000023         2   # BR(~u_R -> chi^0_2 u)
     1.00671287E-02    2     1000025         2   # BR(~u_R -> chi^0_3 u)
     9.71080169E-01    2     1000021         2   # BR(~u_R -> ~g u)
DECAY   1000002     8.93290510E+02   # ~u_L
#    BR                NDA      ID1      ID2
     2.01781569E-03    2     1000022         2   # BR(~u_L -> chi^0_1 u)
     4.76064308E-03    2     1000023         2   # BR(~u_L -> chi^0_2 u)
     4.45095471E-02    2     1000035         2   # BR(~u_L -> chi^0_4 u)
     1.57151413E-02    2     1000024         1   # BR(~u_L -> chi^+_1 d)
     8.37685282E-02    2     1000037         1   # BR(~u_L -> chi^+_2 d)
     8.49199634E-01    2     1000021         2   # BR(~u_L -> ~g u)
DECAY   2000004     7.79320064E+02   # ~c_R
#    BR                NDA      ID1      ID2
     1.86955089E-02    2     1000022         4   # BR(~c_R -> chi^0_1 c)
     1.47089523E-04    2     1000023         4   # BR(~c_R -> chi^0_2 c)
     1.00687250E-02    2     1000025         4   # BR(~c_R -> chi^0_3 c)
     9.71071087E-01    2     1000021         4   # BR(~c_R -> ~g c)
DECAY   1000004     8.93317866E+02   # ~c_L
#    BR                NDA      ID1      ID2
     2.01833668E-03    2     1000022         4   # BR(~c_L -> chi^0_1 c)
     4.76221236E-03    2     1000023         4   # BR(~c_L -> chi^0_2 c)
     4.45085124E-02    2     1000035         4   # BR(~c_L -> chi^0_4 c)
     1.57397256E-02    2     1000024         3   # BR(~c_L -> chi^+_1 s)
     8.37671242E-02    2     1000037         3   # BR(~c_L -> chi^+_2 s)
     8.49173919E-01    2     1000021         4   # BR(~c_L -> ~g c)
DECAY   1000006     1.89916590E+02   # ~t_1
#    BR                NDA      ID1      ID2
     6.13860791E-02    2     1000022         6   # BR(~t_1 -> chi^0_1 t)
     1.15331894E-01    2     1000023         6   # BR(~t_1 -> chi^0_2 t)
     1.07573179E-01    2     1000025         6   # BR(~t_1 -> chi^0_3 t)
     2.33498243E-02    2     1000035         6   # BR(~t_1 -> chi^0_4 t)
     2.30936577E-01    2     1000024         5   # BR(~t_1 -> chi^+_1 b)
     4.80460143E-02    2     1000037         5   # BR(~t_1 -> chi^+_2 b)
     4.13369800E-01    2     1000021         6   # BR(~t_1 -> ~g t)
#    BR                NDA      ID1      ID2       ID3
DECAY   2000006     4.95263010E+02   # ~t_2
#    BR                NDA      ID1      ID2
     2.73009555E-02    2     1000022         6   # BR(~t_2 -> chi^0_1 t)
     8.32604233E-02    2     1000023         6   # BR(~t_2 -> chi^0_2 t)
     6.92109689E-02    2     1000025         6   # BR(~t_2 -> chi^0_3 t)
     4.82437689E-02    2     1000035         6   # BR(~t_2 -> chi^0_4 t)
     7.19359294E-02    2     1000024         5   # BR(~t_2 -> chi^+_1 b)
     6.62483885E-02    2     1000037         5   # BR(~t_2 -> chi^+_2 b)
     5.55096010E-01    2     1000021         6   # BR(~t_2 -> ~g t)
     2.98730386E-02    2     1000006        23   # BR(~t_2 -> ~t_1 Z)
     4.87966852E-02    2     1000006        25   # BR(~t_2 -> ~t_1 h^0)
DECAY   1000024     1.99861982E-05   # chi^+_1
#    BR                NDA      ID1      ID2       ID3
     3.35150568E-01    3     1000022        -1         2   # BR(chi^+_1 -> chi^0_1 d_bar u)
     3.31832036E-01    3     1000022        -3         4   # BR(chi^+_1 -> chi^0_1 s_bar c)
     1.11712794E-01    3     1000022       -11        12   # BR(chi^+_1 -> chi^0_1 e^+ nu_e)
     1.11707496E-01    3     1000022       -13        14   # BR(chi^+_1 -> chi^0_1 mu^+ nu_mu)
     1.09577013E-01    3     1000022       -15        16   # BR(chi^+_1 -> chi^0_1 tau^+ nu_tau)
DECAY   1000037     2.30765097E+00   # chi^+_2
#    BR                NDA      ID1      ID2
     1.84155258E-01    2     1000022        24   # BR(chi^+_2 -> chi^0_1 W^+)
     2.58562392E-01    2     1000023        24   # BR(chi^+_2 -> chi^0_2 W^+)
     1.77273294E-01    2     1000025        24   # BR(chi^+_2 -> chi^0_3 W^+)
     2.27954280E-01    2     1000024        23   # BR(chi^+_2 -> chi^+_1 Z)
     1.52028156E-01    2     1000024        25   # BR(chi^+_2 -> chi^+_1 h^0)
#    BR                NDA      ID1      ID2       ID3
DECAY   1000022     0.00000000E+00   # chi^0_1
DECAY   1000023     8.38595446E-06   # chi^0_2
#    BR                NDA      ID1      ID2
     4.84444911E-02    2     1000022        22   # BR(chi^0_2 -> chi^0_1 photon)
#    BR                NDA      ID1      ID2       ID3
     1.18813997E-01    3     1000022         2        -2   # BR(chi^0_2 -> chi^0_1 u u_bar)
     1.14672807E-01    3     1000022         4        -4   # BR(chi^0_2 -> chi^0_1 c c_bar)
     1.52341258E-01    3     1000022         1        -1   # BR(chi^0_2 -> chi^0_1 d d_bar)
     1.52315151E-01    3     1000022         3        -3   # BR(chi^0_2 -> chi^0_1 s s_bar)
     1.09088070E-01    3     1000022         5        -5   # BR(chi^0_2 -> chi^0_1 b b_bar)
     3.43771059E-02    3     1000022        11       -11   # BR(chi^0_2 -> chi^0_1 e^- e^+)
     3.43677834E-02    3     1000022        13       -13   # BR(chi^0_2 -> chi^0_1 mu^- mu^+)
     3.18608265E-02    3     1000022        15       -15   # BR(chi^0_2 -> chi^0_1 tau^- tau^+)
     2.03718511E-01    3     1000022        12       -12   # BR(chi^0_2 -> chi^0_1 nu_e nu_bar_e)
DECAY   1000025     9.41719365E-04   # chi^0_3
#    BR                NDA      ID1      ID2
     1.85510092E-04    2     1000022        22   # BR(chi^0_3 -> chi^0_1 photon)
     9.92130045E-03    2     1000023        22   # BR(chi^0_3 -> chi^0_2 photon)
#    BR                NDA      ID1      ID2       ID3
     2.19675750E-04    3     1000022         2        -2   # BR(chi^0_3 -> chi^0_1 u u_bar)
     2.19056092E-04    3     1000022         4        -4   # BR(chi^0_3 -> chi^0_1 c c_bar)
     2.81428239E-04    3     1000022         1        -1   # BR(chi^0_3 -> chi^0_1 d d_bar)
     2.81425229E-04    3     1000022         3        -3   # BR(chi^0_3 -> chi^0_1 s s_bar)
     2.78702614E-04    3     1000022         5        -5   # BR(chi^0_3 -> chi^0_1 b b_bar)
     3.76714958E-04    3     1000022        12       -12   # BR(chi^0_3 -> chi^0_1 nu_e nu_bar_e)
     4.16523892E-02    3     1000023         2        -2   # BR(chi^0_3 -> chi^0_2 u u_bar)
     4.12416287E-02    3     1000023         4        -4   # BR(chi^0_3 -> chi^0_2 c c_bar)
     5.34064054E-02    3     1000023         1        -1   # BR(chi^0_3 -> chi^0_2 d d_bar)
     5.34038817E-02    3     1000023         3        -3   # BR(chi^0_3 -> chi^0_2 s s_bar)
     4.87661031E-02    3     1000023         5        -5   # BR(chi^0_3 -> chi^0_2 b b_bar)
     1.20526422E-02    3     1000023        11       -11   # BR(chi^0_3 -> chi^0_2 e^- e^+)
     1.20517340E-02    3     1000023        13       -13   # BR(chi^0_3 -> chi^0_2 mu^- mu^+)
     1.17993733E-02    3     1000023        15       -15   # BR(chi^0_3 -> chi^0_2 tau^- tau^+)
     7.14213981E-02    3     1000023        12       -12   # BR(chi^0_3 -> chi^0_2 nu_e nu_bar_e)
     1.07279106E-01    3     1000024         1        -2   # BR(chi^0_3 -> chi^+_1 d u_bar)
     1.07279106E-01    3    -1000024        -1         2   # BR(chi^0_3 -> chi^-_1 d_bar u)
     1.06844235E-01    3     1000024         3        -4   # BR(chi^0_3 -> chi^+_1 s c_bar)
     1.06844235E-01    3    -1000024        -3         4   # BR(chi^0_3 -> chi^-_1 s_bar c)
     3.57603593E-02    3     1000024        11       -12   # BR(chi^0_3 -> chi^+_1 e^- nu_bar_e)
     3.57603593E-02    3    -1000024       -11        12   # BR(chi^0_3 -> chi^-_1 e^+ nu_e)
     3.57596659E-02    3     1000024        13       -14   # BR(chi^0_3 -> chi^+_1 mu^- nu_bar_mu)
     3.57596659E-02    3    -1000024       -13        14   # BR(chi^0_3 -> chi^-_1 mu^+ nu_mu)
     3.54820863E-02    3     1000024        15       -16   # BR(chi^0_3 -> chi^+_1 tau^- nu_bar_tau)
     3.54820863E-02    3    -1000024       -15        16   # BR(chi^0_3 -> chi^-_1 tau^+ nu_tau)
DECAY   1000035     2.80470096E+00   # chi^0_4
#    BR                NDA      ID1      ID2
     2.29409918E-01    2     1000024       -24   # BR(chi^0_4 -> chi^+_1 W^-)
     2.29409918E-01    2    -1000024        24   # BR(chi^0_4 -> chi^-_1 W^+)
     1.29824647E-01    2     1000022        23   # BR(chi^0_4 -> chi^0_1 Z)
     2.25189362E-02    2     1000023        23   # BR(chi^0_4 -> chi^0_2 Z)
     1.36264243E-01    2     1000025        23   # BR(chi^0_4 -> chi^0_3 Z)
     8.87406922E-02    2     1000022        25   # BR(chi^0_4 -> chi^0_1 h^0)
     1.04496629E-01    2     1000023        25   # BR(chi^0_4 -> chi^0_2 h^0)
     5.93001148E-02    2     1000025        25   # BR(chi^0_4 -> chi^0_3 h^0)
#    BR                NDA      ID1      ID2       ID3
DECAY   1000021     1.31750438E-02   # ~g
#    BR                NDA      ID1      ID2
     3.43619808E-03    2     1000022        21   # BR(~g -> chi^0_1 g)
     8.10973286E-03    2     1000023        21   # BR(~g -> chi^0_2 g)
     5.38619061E-03    2     1000025        21   # BR(~g -> chi^0_3 g)
     1.33815097E-03    2     1000035        21   # BR(~g -> chi^0_4 g)
#    BR                NDA      ID1      ID2       ID3
     1.14403556E-04    3     1000022         2        -2   # BR(~g -> chi^0_1 u u_bar)
     1.14412650E-04    3     1000022         4        -4   # BR(~g -> chi^0_1 c c_bar)
     1.09476903E-01    3     1000022         6        -6   # BR(~g -> chi^0_1 t t_bar)
     9.11322905E-03    3     1000022         5        -5   # BR(~g -> chi^0_1 b b_bar)
     1.72119647E-01    3     1000023         6        -6   # BR(~g -> chi^0_2 t t_bar)
     1.88454581E-02    3     1000023         5        -5   # BR(~g -> chi^0_2 b b_bar)
     1.28484397E-01    3     1000025         6        -6   # BR(~g -> chi^0_3 t t_bar)
     1.07022600E-02    3     1000025         5        -5   # BR(~g -> chi^0_3 b b_bar)
     2.19596008E-04    3     1000035         2        -2   # BR(~g -> chi^0_4 u u_bar)
     2.19602983E-04    3     1000035         4        -4   # BR(~g -> chi^0_4 c c_bar)
     4.12866089E-02    3     1000035         6        -6   # BR(~g -> chi^0_4 t t_bar)
     2.22984147E-04    3     1000035         1        -1   # BR(~g -> chi^0_4 d d_bar)
     2.22989967E-04    3     1000035         3        -3   # BR(~g -> chi^0_4 s s_bar)
     6.45594085E-03    3     1000035         5        -5   # BR(~g -> chi^0_4 b b_bar)
     1.91189012E-01    3     1000024         5        -6   # BR(~g -> chi^+_1 b t_bar)
     1.91189012E-01    3    -1000024        -5         6   # BR(~g -> chi^-_1 b_bar t)
     4.41043414E-04    3     1000037         1        -2   # BR(~g -> chi^+_2 d u_bar)
     4.41043414E-04    3    -1000037        -1         2   # BR(~g -> chi^-_2 d_bar u)
     4.41056413E-04    3     1000037         3        -4   # BR(~g -> chi^+_2 s c_bar)
     4.41056413E-04    3    -1000037        -3         4   # BR(~g -> chi^-_2 s_bar c)
     4.97161167E-02    3     1000037         5        -6   # BR(~g -> chi^+_2 b t_bar)
     4.97161167E-02    3    -1000037        -5         6   # BR(~g -> chi^-_2 b_bar t)
DECAY        25     3.77538488E-03   # Gamma(h0)
     2.47164482E-03   2        22        22   # BR(h0 -> photon photon)
     1.65878164E-03   2        22        23   # BR(h0 -> photon Z)
     3.16958746E-02   2        23        23   # BR(h0 -> Z Z)
     2.57354036E-01   2       -24        24   # BR(h0 -> W W)
     7.61154315E-02   2        21        21   # BR(h0 -> gluon gluon)
     4.86438299E-09   2       -11        11   # BR(h0 -> Electron electron)
     2.16376919E-04   2       -13        13   # BR(h0 -> Muon muon)
     6.23902842E-02   2       -15        15   # BR(h0 -> Tau tau)
     1.36017742E-07   2        -2         2   # BR(h0 -> Up up)
     2.63978731E-02   2        -4         4   # BR(h0 -> Charm charm)
     5.62370897E-07   2        -1         1   # BR(h0 -> Down down)
     2.03396764E-04   2        -3         3   # BR(h0 -> Strange strange)
     5.41495598E-01   2        -5         5   # BR(h0 -> Bottom bottom)
DECAY        35     4.27979151E+01   # Gamma(HH)
     1.62295086E-07   2        22        22   # BR(HH -> photon photon)
     4.04999585E-07   2        22        23   # BR(HH -> photon Z)
     1.33704331E-06   2        23        23   # BR(HH -> Z Z)
     1.03987337E-06   2       -24        24   # BR(HH -> W W)
     1.58655552E-05   2        21        21   # BR(HH -> gluon gluon)
     6.32755133E-09   2       -11        11   # BR(HH -> Electron electron)
     2.81674155E-04   2       -13        13   # BR(HH -> Muon muon)
     8.13420734E-02   2       -15        15   # BR(HH -> Tau tau)
     7.71157908E-14   2        -2         2   # BR(HH -> Up up)
     1.49568586E-08   2        -4         4   # BR(HH -> Charm charm)
     1.07608838E-03   2        -6         6   # BR(HH -> Top top)
     5.07607348E-07   2        -1         1   # BR(HH -> Down down)
     1.83606652E-04   2        -3         3   # BR(HH -> Strange strange)
     4.97510860E-01   2        -5         5   # BR(HH -> Bottom bottom)
     4.92219176E-02   2  -1000024   1000024   # BR(HH -> Chargino1 chargino1)
     9.76505922E-02   2  -1000024   1000037   # BR(HH -> Chargino1 chargino2)
     9.76505922E-02   2  -1000037   1000024   # BR(HH -> Chargino2 chargino1)
     9.89658879E-03   2  -1000037   1000037   # BR(HH -> Chargino2 chargino2)
     7.02027374E-03   2   1000022   1000022   # BR(HH -> neutralino1 neutralino1)
     2.02210959E-02   2   1000022   1000023   # BR(HH -> neutralino1 neutralino2)
     3.88223607E-04   2   1000022   1000025   # BR(HH -> neutralino1 neutralino3)
     2.20900454E-02   2   1000022   1000035   # BR(HH -> neutralino1 neutralino4)
     1.13849216E-02   2   1000023   1000023   # BR(HH -> neutralino2 neutralino2)
     4.26416725E-03   2   1000023   1000025   # BR(HH -> neutralino2 neutralino3)
     4.73184221E-02   2   1000023   1000035   # BR(HH -> neutralino2 neutralino4)
     1.06290114E-02   2   1000025   1000025   # BR(HH -> neutralino3 neutralino3)
     3.65740730E-02   2   1000025   1000035   # BR(HH -> neutralino3 neutralino4)
     5.26835458E-03   2   1000035   1000035   # BR(HH -> neutralino4 neutralino4)
     8.07959185E-06   2        25        25   # BR(HH -> h0 h0)
DECAY        36     4.17291434E+01   # Gamma(A0)
     1.97873085E-08   2        22        22   # BR(A0 -> photon photon)
     1.93379901E-07   2        22        23   # BR(A0 -> photon Z)
     3.07658506E-05   2        21        21   # BR(A0 -> gluon gluon)
     6.20815972E-09   2       -11        11   # BR(A0 -> Electron electron)
     2.76358971E-04   2       -13        13   # BR(A0 -> Muon muon)
     7.98076147E-02   2       -15        15   # BR(A0 -> Tau tau)
     7.29130341E-14   2        -2         2   # BR(A0 -> Up up)
     1.41396123E-08   2        -4         4   # BR(A0 -> Charm charm)
     1.07750385E-03   2        -6         6   # BR(A0 -> Top top)
     4.98010267E-07   2        -1         1   # BR(A0 -> Down down)
     1.80135163E-04   2        -3         3   # BR(A0 -> Strange strange)
     4.88115645E-01   2        -5         5   # BR(A0 -> Bottom bottom)
     5.07085428E-02   2  -1000024   1000024   # BR(A0 -> Chargino1 chargino1)
     9.99986866E-02   2  -1000024   1000037   # BR(A0 -> Chargino1 chargino2)
     9.99986866E-02   2  -1000037   1000024   # BR(A0 -> Chargino2 chargino1)
     1.03461169E-02   2  -1000037   1000037   # BR(A0 -> Chargino2 chargino2)
     8.36877585E-03   2   1000022   1000022   # BR(A0 -> neutralino1 neutralino1)
     1.91235669E-02   2   1000022   1000023   # BR(A0 -> neutralino1 neutralino2)
     4.25830674E-04   2   1000022   1000025   # BR(A0 -> neutralino1 neutralino3)
     2.32771984E-02   2   1000022   1000035   # BR(A0 -> neutralino1 neutralino4)
     1.11542793E-02   2   1000023   1000023   # BR(A0 -> neutralino2 neutralino2)
     2.96190804E-03   2   1000023   1000025   # BR(A0 -> neutralino2 neutralino3)
     4.97560627E-02   2   1000023   1000035   # BR(A0 -> neutralino2 neutralino4)
     1.37521110E-02   2   1000025   1000025   # BR(A0 -> neutralino3 neutralino3)
     3.50402131E-02   2   1000025   1000035   # BR(A0 -> neutralino3 neutralino4)
     5.59744852E-03   2   1000035   1000035   # BR(A0 -> neutralino4 neutralino4)
     1.81789083E-06   2        23        25   # BR(A0 -> Z h0)
     3.88581593E-39   2        25        25   # BR(A0 -> h0 h0)
DECAY        37     4.39187963E+01   # Gamma(Hp)
     7.00966100E-09   2       -11        12   # BR(Hp -> Electron nu_e)
     2.99684899E-04   2       -13        14   # BR(Hp -> Muon nu_mu)
     8.47677632E-02   2       -15        16   # BR(Hp -> Tau nu_tau)
     4.87647055E-07   2        -1         2   # BR(Hp -> Down up)
     8.16507361E-06   2        -3         2   # BR(Hp -> Strange up)
     5.40324516E-06   2        -5         2   # BR(Hp -> Bottom up)
     2.33189192E-08   2        -1         4   # BR(Hp -> Down charm)
     1.75762814E-04   2        -3         4   # BR(Hp -> Strange charm)
     7.56646897E-04   2        -5         4   # BR(Hp -> Bottom charm)
     7.83304853E-08   2        -1         6   # BR(Hp -> Down top)
     1.96110473E-06   2        -3         6   # BR(Hp -> Strange top)
     5.05792424E-01   2        -5         6   # BR(Hp -> Bottom top)
     5.25721001E-02   2   1000022   1000024   # BR(Hp -> neutralino1 chargino1)
     4.09208747E-02   2   1000022   1000037   # BR(Hp -> neutralino1 chargino2)
     2.04358221E-03   2   1000023   1000024   # BR(Hp -> neutralino2 chargino1)
     1.33991590E-01   2   1000023   1000037   # BR(Hp -> neutralino2 chargino2)
     1.40048792E-03   2   1000024   1000025   # BR(Hp -> chargino1 neutralino3)
     6.52266895E-02   2   1000025   1000037   # BR(Hp -> neutralino3 chargino2)
     1.12030461E-01   2   1000024   1000035   # BR(Hp -> chargino1 neutralino4)
     4.06198993E-06   2   1000035   1000037   # BR(Hp -> neutralino4 chargino2)
     1.74471620E-06   2        24        25   # BR(Hp -> W h0)
     4.37198343E-11   2        24        35   # BR(Hp -> W HH)
     2.51287910E-11   2        24        36   # BR(Hp -> W A0)
DECAY         6     2.43000000E+00   # top
#    BR                NDA      ID1      ID2
     1.00000000E+00    2           5        24   # BR(t -> b W)
Block HiggsBoundsInputHiggsCouplingsFermions
# ScalarNormEffCoupSq PseudoSNormEffCoupSq NP IP1 IP2 IP2
    9.53675542E-01    0.00000000E+00        3  25   5   5  # h0-b-b eff. coupling^2, normalised to SM
    1.13710093E+03    0.00000000E+00        3  35   5   5  # H0-b-b eff. coupling^2, normalised to SM
    0.00000000E+00    1.13705461E+03        3  36   5   5  # A0-b-b eff. coupling^2, normalised to SM
#
    1.00004074E+00    0.00000000E+00        3  25   6   6  # h0-t-t eff. coupling^2, normalised to SM
    8.38724487E-04    0.00000000E+00        3  35   6   6  # H0-t-t eff. coupling^2, normalised to SM
    0.00000000E+00    8.79465238E-04        3  36   6   6  # A0-t-t eff. coupling^2, normalised to SM
#
    9.53675542E-01    0.00000000E+00        3  25  15  15  # h0-tau-tau eff. coupling^2, normalised to SM
    1.13710093E+03    0.00000000E+00        3  35  15  15  # H0-tau-tau eff. coupling^2, normalised to SM
    0.00000000E+00    1.13705461E+03        3  36  15  15  # A0-tau-tau eff. coupling^2, normalised to SM
#
Block HiggsBoundsInputHiggsCouplingsBosons
    9.99999517E-01        3  25  24  24  # h0-W-W eff. coupling^2, normalised to SM
    4.83068869E-07        3  35  24  24  # H0-W-W eff. coupling^2, normalised to SM
    0.00000000E+00        3  36  24  24  # A0-W-W eff. coupling^2, normalised to SM
#
    9.99999517E-01        3  25  23  23  # h0-Z-Z eff. coupling^2, normalised to SM
    4.83068869E-07        3  35  23  23  # H0-Z-Z eff. coupling^2, normalised to SM
    0.00000000E+00        3  36  23  23  # A0-Z-Z eff. coupling^2, normalised to SM
#
    1.26577763E+00        3  25  21  21  # h0-g-g eff. coupling^2, normalised to SM
    8.69386324E-03        3  35  21  21  # H0-g-g eff. coupling^2, normalised to SM
    1.25793115E-01        3  36  21  21  # A0-g-g eff. coupling^2, normalised to SM
#
    0.00000000E+00        3  25  25  23  # h0-h0-Z eff. coupling^2, normalised to SM
    0.00000000E+00        3  35  25  23  # H0-h0-Z eff. coupling^2, normalised to SM
    4.83068869E-07        3  36  25  23  # A0-h0-Z eff. coupling^2, normalised to SM
    0.00000000E+00        3  35  35  23  # H0-H0-Z eff. coupling^2, normalised to SM
    9.99999517E-01        3  36  35  23  # A0-H0-Z eff. coupling^2, normalised to SM
    0.00000000E+00        3  36  36  23  # A0-A0-Z eff. coupling^2, normalised to SM
#
    0.00000000E+00        4  25  21  21  23  # h0-g-g-Z eff. coupling^2, normalised to SM
    0.00000000E+00        4  35  21  21  23  # H0-g-g-Z eff. coupling^2, normalised to SM
    0.00000000E+00        4  36  21  21  23  # A0-g-g-Z eff. coupling^2, normalised to SM
Block SPhenoLowEnergy  # low energy observables
    1    3.27099036E-04   # BR(b -> s gamma)
    2    1.58803606E-06   # BR(b -> s mu+ mu-)
    3    3.52226843E-05   # BR(b -> s nu nu)
    4    3.66785119E-15   # BR(Bd -> e+ e-)
    5    1.56682647E-10   # BR(Bd -> mu+ mu-)
    6    3.25792023E-08   # BR(Bd -> tau+ tau-)
    7    1.24622555E-13   # BR(Bs -> e+ e-)
    8    5.32374266E-09   # BR(Bs -> mu+ mu-)
    9    1.12160727E-06   # BR(Bs -> tau+ tau-)
   10    9.39312204E-05   # BR(B_u -> tau nu)
   11    9.70273546E-01   # BR(B_u -> tau nu)/BR(B_u -> tau nu)_SM
   12    5.42469798E-01   # |Delta(M_Bd)| [ps^-1] 
   13    1.93692130E+01   # |Delta(M_Bs)| [ps^-1] 
   14    0.00000000E+00   # neutron EDM according to the chiral quark model
   15    0.00000000E+00   # neutron EDM according to the relativistic quark-parton model
   16    2.15944072E-03   # epsilon_K
   17    2.28168320E-15   # Delta(M_K)
   18    2.47803018E-11   # BR(K^0 -> pi^0 nu nu)
   19    8.28572409E-11   # BR(K^+ -> pi^+ nu nu)
   20   -2.65408566E-16   # Delta(g-2)_electron/2
   21   -1.13471265E-11   # Delta(g-2)_muon/2
   22   -3.21623174E-09   # Delta(g-2)_tau/2
   23    0.00000000E+00   # electric dipole moment of the electron
   24    0.00000000E+00   # electric dipole moment of the muon
   25    0.00000000E+00   # electric dipole moment of the tau
   26    0.00000000E+00   # Br(mu -> e gamma)
   27    0.00000000E+00   # Br(tau -> e gamma)
   28    0.00000000E+00   # Br(tau -> mu gamma)
   29    0.00000000E+00   # Br(mu -> 3 e)
   30    0.00000000E+00   # Br(tau -> 3 e)
   31    0.00000000E+00   # Br(tau -> 3 mu)
   39    6.98679204E-05   # Delta(rho_parameter)
   40    0.00000000E+00   # BR(Z -> e mu)
   41    0.00000000E+00   # BR(Z -> e tau)
   42    0.00000000E+00   # BR(Z -> mu tau)
Block FWCOEF Q=  1.60000000E+02  # Wilson coefficients at scale Q
#    id        order  M        value         comment
     0305 4422   00   0    -1.88819110E-01   # C7
     0305 4422   00   2    -1.93961758E-01   # C7
     0305 4322   00   2    -3.03475753E-04   # C7'
     0305 6421   00   0    -9.52278348E-02   # C8
     0305 6421   00   2    -1.10300339E-01   # C8
     0305 6321   00   2    -4.10422316E-04   # C8'
 03051111 4133   00   0     1.62185197E+00   # C9 e+e-
 03051111 4133   00   2     1.62209517E+00   # C9 e+e-
 03051111 4233   00   2     1.75993941E-04   # C9' e+e-
 03051111 4137   00   0    -4.44454407E+00   # C10 e+e-
 03051111 4137   00   2    -4.43996872E+00   # C10 e+e-
 03051111 4237   00   2    -1.31048975E-03   # C10' e+e-
 03051313 4133   00   0     1.62185197E+00   # C9 mu+mu-
 03051313 4133   00   2     1.62209499E+00   # C9 mu+mu-
 03051313 4233   00   2     1.75992046E-04   # C9' mu+mu-
 03051313 4137   00   0    -4.44454407E+00   # C10 mu+mu-
 03051313 4137   00   2    -4.43996890E+00   # C10 mu+mu-
 03051313 4237   00   2    -1.31048807E-03   # C10' mu+mu-
 03051212 4137   00   0     1.50535012E+00   # C11 nu_1 nu_1
 03051212 4137   00   2     1.50436112E+00   # C11 nu_1 nu_1
 03051212 4237   00   2     2.83684842E-04   # C11' nu_1 nu_1
 03051414 4137   00   0     1.50535012E+00   # C11 nu_2 nu_2
 03051414 4137   00   2     1.50436112E+00   # C11 nu_2 nu_2
 03051414 4237   00   2     2.83685240E-04   # C11' nu_2 nu_2
 03051616 4137   00   0     1.50535012E+00   # C11 nu_3 nu_3
 03051616 4137   00   2     1.50436112E+00   # C11 nu_3 nu_3
 03051616 4237   00   2     2.83797560E-04   # C11' nu_3 nu_3
Block IMFWCOEF Q=  1.60000000E+02  # Im(Wilson coefficients) at scale Q
#    id        order  M        value         comment
     0305 4422   00   0     3.85826990E-07   # C7
     0305 4422   00   2    -7.50010595E-06   # C7
     0305 4322   00   2     1.33966137E-06   # C7'
     0305 6421   00   0     3.30486333E-07   # C8
     0305 6421   00   2     1.56919604E-05   # C8
     0305 6321   00   2     9.64233112E-07   # C8'
 03051111 4133   00   2     3.50265183E-07   # C9 e+e-
 03051111 4233   00   2     4.69427872E-06   # C9' e+e-
 03051111 4137   00   2     2.76781392E-06   # C10 e+e-
 03051111 4237   00   2    -3.49707425E-05   # C10' e+e-
 03051313 4133   00   2     3.50262976E-07   # C9 mu+mu-
 03051313 4233   00   2     4.69427776E-06   # C9' mu+mu-
 03051313 4137   00   2     2.76781649E-06   # C10 mu+mu-
 03051313 4237   00   2    -3.49707454E-05   # C10' mu+mu-
 03051212 4137   00   2    -5.73425397E-07   # C11 nu_1 nu_1
 03051212 4237   00   2     7.57020693E-06   # C11' nu_1 nu_1
 03051414 4137   00   2    -5.73425274E-07   # C11 nu_2 nu_2
 03051414 4237   00   2     7.57020693E-06   # C11' nu_2 nu_2
 03051616 4137   00   2    -5.73390456E-07   # C11 nu_3 nu_3
 03051616 4237   00   2     7.57020691E-06   # C11' nu_3 nu_3
