BLOCK SPINFO
   1   SPheno
   2   v4.0.5be

BLOCK SPHENOINFO
   1   2
   2   2

BLOCK MODSEL
   1   0

BLOCK MINPAR
   3    56.792881
   4    1

BLOCK EXTPAR
   0    4009.4436
   1    1160.866
   2    786.64499
   3    4000
   11    7180.0454
   12    1944.2304
   13   -739.19826
   23    402.9673
   25    56.264305
   26    2000
   31    1694.3704
   32    1694.3704
   33    1951.1409
   34    1455.8825
   35    1455.8825
   36    1394.264
   41    4000
   42    4000
   43    4000
   44    4000
   45    4000
   46    4000
   47    4000
   48    4000
   49    4000

BLOCK SMINPUTS
   1    127.90897
   2    1.1663787e-05
   3    0.1184
   4    91.1876
   5    4.18
   6    173.2
   7    1.777
   8    0
   11    0.00051099893
   12    0
   13    0.10565837
   14    0
   21    0.005
   22    0.0025
   23    0.095
   24    1.27

BLOCK GAUGE Q=  4009.4436
   1    0.35536298
   2    0.66519887
   3    1.219778

BLOCK YU Q=  4009.4436
   1   1    8.3856963e-06
   2   2    0.0042599337
   3   3    1.0130595

BLOCK YD Q=  4009.4436
   1   1    0.00094809604
   2   2    0.018013825
   3   3    0.94021418

BLOCK YE Q=  4009.4436
   1   1    0.00016544969
   2   2    0.034209749
   3   3    0.5753517

BLOCK AU Q=  4009.4436
   1   1    0
   2   2    0
   3   3    7180.0454

BLOCK AD Q=  4009.4436
   1   1    0
   2   2    0
   3   3    1944.2304

BLOCK AE Q=  4009.4436
   1   1    0
   2   2    0
   3   3   -739.19826

BLOCK MSOFT Q=  4009.4436
   1    1160.866
   2    786.64499
   3    4000
   21    4289280.1
   22    177511.65
   31    1694.3704
   32    1694.3704
   33    1951.1409
   34    1455.8825
   35    1455.8825
   36    1394.264
   41    4000
   42    4000
   43    4000
   44    4000
   45    4000
   46    4000
   47    4000
   48    4000
   49    4000

BLOCK MASS
   6    173.2
   23    91.1876
   24    80.429995
   15    1.777
   25    128.25349
   35    1998.194
   36    2000
   37    2000.4151
   1000001    4155.6389
   2000001    4143.6782
   1000002    4154.879
   2000002    4143.5466
   1000003    4155.6307
   2000003    4143.6596
   1000004    4154.8698
   2000004    4143.5457
   1000005    4045.2877
   2000005    4099.1486
   1000006    3894.7747
   2000006    4127.4886
   1000011    1701.3763
   2000011    1468.1752
   1000012    1699.1552
   1000013    1701.317
   2000013    1468.0373
   1000014    1699.0925
   1000015    1364.2666
   2000015    1940.9308
   1000016    1937.9991
   1000021    4249.4148
   1000022    404.11284
   1000023   -415.89969
   1000025    836.54518
   1000035    1144.9639
   1000024    408.03383
   1000037    836.86383
   1000039    1e-09

BLOCK ALPHA
      -0.01772948

BLOCK HMIX Q=  4009.4436
   1    402.9673
   2    56.264305
   3    242.91118
   4    4000000

BLOCK STOPMIX
   1   1   -0.60823083
   1   2    0.79376021
   2   1   -0.79376021
   2   2   -0.60823083

BLOCK SBOTMIX
   1   1    0.99610045
   1   2    0.088226387
   2   1   -0.088226387
   2   2    0.99610045

BLOCK STAUMIX
   1   1    0.02217709
   1   2    0.99975406
   2   1   -0.99975406
   2   2    0.02217709

BLOCK NMIX
   1   1   -0.042117053
   1   2    0.13268213
   1   3   -0.70749246
   1   4    0.69287519
   2   1   -0.019678315
   2   2    0.04478833
   2   3    0.70371902
   2   4    0.70879215
   3   1    0.017753462
   3   2    0.99008372
   3   3    0.062785789
   3   4   -0.12440656
   4   1   -0.9987611
   4   2    0.011121653
   4   3    0.017085325
   4   4   -0.045394582

BLOCK UMIX
   1   1   -0.090195422
   1   2    0.99592409
   2   1    0.99592409
   2   2    0.090195422

BLOCK VMIX
   1   1   -0.17869054
   1   2    0.98390533
   2   1    0.98390533
   2   2    0.17869054

BLOCK HIGGSBOUNDSINPUTHIGGSCOUPLINGSFERMIONS
       0, 3165.672,3,36,15,15

BLOCK HIGGSBOUNDSINPUTHIGGSCOUPLINGSBOSONS
       0,4,36,21,21,23

BLOCK SPHENOLOWENERGY
   1    0.00034129062
   2    1.5880183e-06
   3    3.5249201e-05
   4    2.4296979e-15
   5    1.0379469e-10
   6    2.1771545e-08
   7    8.0854997e-14
   8    3.4541482e-09
   9    7.3412025e-07
   10    9.213628e-05
   11    0.95173249
   12    0.54191141
   13    19.338794
   14    0
   15    0
   16    0.0021572989
   17    2.2816635e-15
   18    2.4799544e-11
   19    8.2900761e-11
   20    6.3150596e-15
   21    2.6998849e-10
   22    6.5149869e-08
   23    0
   24    0
   25    0
   26    0
   27    0
   28    0
   29    0
   30    0
   31    0
   39    7.2859778e-05
   40    0
   41    0
   42    0

BLOCK FWCOEF Q=  160
   305   4422   0   0   -0.18881911
   305   4422   0   2   -0.21132412
   305   4322   0   2   -0.00046371099
   305   6421   0   0   -0.095227835
   305   6421   0   2   -0.11649209
   305   6321   0   2   -0.00043633369
   3051111   4133   0   0    1.6279649
   3051111   4133   0   2    1.6280819
   3051111   4233   0   2    0.00057915892
   3051111   4137   0   0   -4.450657
   3051111   4137   0   2   -4.4487601
   3051111   4237   0   2   -0.0042785555
   3051313   4133   0   0    1.6279649
   3051313   4133   0   2    1.6280799
   3051313   4233   0   2    0.00057915239
   3051313   4137   0   0   -4.450657
   3051313   4137   0   2   -4.4487622
   3051313   4237   0   2   -0.0042785557
   3051212   4137   0   0    1.5053501
   3051212   4137   0   2    1.5049527
   3051212   4237   0   2    0.00092491976
   3051414   4137   0   0    1.5053501
   3051414   4137   0   2    1.5049527
   3051414   4237   0   2    0.00092492079
   3051616   4137   0   0    1.5053501
   3051616   4137   0   2    1.5049526
   3051616   4237   0   2    0.00092521265

BLOCK IMFWCOEF Q=  160
   305   4422   0   0    3.8578236e-07
   305   4422   0   2    2.1765611e-05
   305   4322   0   2   -3.7877749e-06
   305   6421   0   0    3.304481e-07
   305   6421   0   2   -6.8713298e-06
   305   6321   0   2   -2.1435787e-06
   3051111   4133   0   2   -7.0782506e-07
   3051111   4233   0   2    1.3033e-05
   3051111   4137   0   2    5.8388988e-06
   3051111   4237   0   2   -9.629099e-05
   3051313   4133   0   2   -7.0784452e-07
   3051313   4233   0   2    1.303297e-05
   3051313   4137   0   2    5.8389412e-06
   3051313   4237   0   2   -9.629108e-05
   3051212   4137   0   2   -1.0342328e-06
   3051212   4237   0   2    2.0815772e-05
   3051414   4137   0   2   -1.0342322e-06
   3051414   4237   0   2    2.0815772e-05
   3051616   4137   0   2   -1.0359736e-06
   3051616   4237   0   2    2.0815772e-05

DECAY 23  2.4952


DECAY 24  2.085


DECAY 2000011  1.1444404
    0.9871865   2    1000035    11
    0.0097675666   2    1000022    11
    0.0021118784   2    1000023    11
    0.00092663009   2    1000025    11

DECAY 1000011  13.647311
    0.62552591   2   -1000037    12
    0.31520897   2    1000025    11
    0.044832221   2    1000035    11
    0.007930545   2   -1000024    12
    0.0059312112   2    1000022    11
    0.00056994802   2    1000023    11

DECAY 2000013  1.2016597
    0.9395448   2    1000035    13
    0.024021648   2   -1000024    14
    0.021461512   2    1000022    13
    0.013926753   2    1000023    13
    0.00093334218   2    1000025    13
    0.00010544068   2   -1000037    14

DECAY 1000013  13.681518
    0.62391249   2   -1000037    14
    0.31440275   2    1000025    13
    0.044713636   2    1000035    13
    0.0079103742   2   -1000024    14
    0.0072061971   2    1000022    13
    0.0018360509   2    1000023    13

DECAY 1000015  15.473996
    0.47946024   2   -1000024    16
    0.24441225   2    1000022    15
    0.23604247   2    1000023    15
    0.038626638   2    1000035    15
    0.00094371712   2   -1000037    16
    0.00051434663   2    1000025    15

DECAY 2000015  30.03716
    0.37504382   2   -1000037    16
    0.19653075   2    1000022    15
    0.19269179   2    1000023    15
    0.19007672   2    1000025    15
    0.033157443   2    1000035    15
    0.0050700507   2    1000015    23
    0.0048036091   2    1000015    25
    0.0026247781   2   -1000024    16

DECAY 1000012  13.70087
    0.60632512   2    1000037    11
    0.30127564   2    1000025    12
    0.04826746   2    1000035    12
    0.03095501   2    1000024    11
    0.011700255   2    1000022    12
    0.0014753317   2    1000023    12

DECAY 1000014  13.734714
    0.60479402   2    1000037    13
    0.30050796   2    1000025    14
    0.048140833   2    1000035    14
    0.033413485   2    1000024    13
    0.01167089   2    1000022    14
    0.0014716282   2    1000023    14

DECAY 1000016  30.076015
    0.40089128   2    1000024    15
    0.365772   2    1000037    15
    0.18055995   2    1000025    16
    0.035655566   2    1000035    16
    0.010081917   2    1000015    24
    0.0062489354   2    1000022    16
    0.00078931077   2    1000023    16

DECAY 2000001  1.9758477
    0.99639659   2    1000035    1
    0.0020559704   2    1000022    1
    0.00070848269   2    1000039    1
    0.00046250067   2    1000023    1
    0.00033969662   2    1000025    1

DECAY 1000001  51.048259
    0.65430998   2   -1000037    2
    0.32128834   2    1000025    1
    0.010926824   2    1000035    1
    0.0069093453   2    1000022    1
    0.0057180037   2   -1000024    2
    0.00081969183   2    1000023    1

DECAY 2000003  2.028133
    0.97070709   2    1000035    3
    0.012829758   2   -1000024    4
    0.0084619164   2    1000022    3
    0.0068336711   2    1000023    3
    0.00069020251   2    1000039    3
    0.00037864112   2    1000025    3

DECAY 1000003  51.075838
    0.65395608   2   -1000037    4
    0.32111605   2    1000025    3
    0.010921028   2    1000035    3
    0.0071628182   2    1000022    3
    0.0057427393   2   -1000024    4
    0.0010734799   2    1000023    3

DECAY 1000005  203.09045
    0.38817908   2   -1000024    6
    0.17683642   2    1000022    5
    0.16884986   2    1000023    5
    0.16726352   2   -1000037    6
    0.077174297   2    1000025    5
    0.019144892   2    1000006   -24
    0.002545818   2    1000035    5

DECAY 2000005  143.55308
    0.48231085   2   -1000024    6
    0.24529987   2    1000023    5
    0.24180432   2    1000022    5
    0.013918791   2    1000035    5
    0.010790707   2   -1000037    6
    0.0051949845   2    1000025    5
    0.00067124068   2    1000006   -24

DECAY 2000002  7.8982765
    0.99699964   2    1000035    2
    0.0020388089   2    1000022    2
    0.00044457276   2    1000023    2
    0.00033976805   2    1000025    2
    0.00017720722   2    1000039    2

DECAY 1000002  51.094376
    0.63790012   2    1000037    1
    0.32505505   2    1000025    2
    0.022419774   2    1000024    1
    0.0084961777   2    1000035    2
    0.0055032297   2    1000022    2
    0.00059787171   2    1000023    2

DECAY 2000004  7.9012024
    0.99663047   2    1000035    4
    0.0021271665   2    1000022    4
    0.00053758837   2    1000023    4
    0.0003423296   2    1000025    4
    0.00017974523   2    1000024    3
    0.00017714135   2    1000039    4

DECAY 1000004  51.121933
    0.63755861   2    1000037    3
    0.32487944   2    1000025    4
    0.022916569   2    1000024    3
    0.0084916138   2    1000035    4
    0.0055140336   2    1000022    4
    0.00061198207   2    1000023    4

DECAY 1000006  177.3303
    0.35960493   2    1000024    5
    0.21366172   2    1000023    6
    0.19107904   2    1000022    6
    0.11775117   2    1000037    5
    0.060915718   2    1000025    6
    0.031260684   2    1000035    6
    0.025410718   3    1000022    24    5
    0.0002798718   2    1000022    4

DECAY 2000006  199.25121
    0.42150045   2    1000024    5
    0.21749737   2    1000022    6
    0.2130099   2    1000023    6
    0.065238858   2    1000037    5
    0.03713494   2    1000025    6
    0.02867317   2    1000006    23
    0.012867967   2    1000035    6
    0.0039895092   2    1000006    25

DECAY 1000024  6.8623184e-09
    0.84476582   2    1000039    24
    0.064884845   3    1000022   -1    2
    0.039159822   3    1000022   -3    4
    0.021629893   3    1000022   -11    12
    0.02155193   3    1000022   -13    14
    0.0080076875   3    1000022   -15    16

DECAY 1000037  6.6305445
    0.26851819   2    1000023    24
    0.24699427   2    1000024    23
    0.24623099   2    1000022    24
    0.23458131   2    1000024    25
    0.0016833356   3    1000022   -5    6
    0.001649592   3    1000023   -5    6
    0.00033301847   3    1000024    6   -6

DECAY 1000022  4.5568214e-09
    0.58819389   2    1000039    23
    0.41006157   2    1000039    25
    0.0017445419   2    1000039    22

DECAY 1000023  1.1987817e-06
    0.27003666   2    1000022    22
    0.12781171   3    1000022    12   -12
    0.095571218   3    1000022    1   -1
    0.095499394   3    1000022    3   -3
    0.07453768   3    1000022    2   -2
    0.063855671   3    1000022    4   -4
    0.034342547   3    1000024    1   -2
    0.034342547   3   -1000024   -1    2
    0.03025735   3    1000024    3   -4
    0.03025735   3   -1000024   -3    4
    0.021567293   3    1000022    11   -11
    0.021542371   3    1000022    13   -13
    0.016571316   3    1000022    5   -5
    0.0155837   3    1000022    15   -15
    0.011447689   3    1000024    11   -12
    0.011447689   3   -1000024   -11    12
    0.011437527   3    1000024    13   -14
    0.011437527   3   -1000024   -13    14
    0.0089942623   3    1000024    15   -16
    0.0089942623   3   -1000024   -15    16
    0.0023901282   2    1000039    23
    0.0020739354   2    1000039    25

DECAY 1000025  7.8765887
    0.21976524   2    1000024   -24
    0.21976524   2   -1000024    24
    0.20025311   2    1000023    23
    0.16884433   2    1000023    25
    0.16733283   2    1000022    25
    0.020995535   2    1000022    23
    0.0014566964   3    1000024    5   -6
    0.0014566964   3   -1000024   -5    6

DECAY 1000035  3.414065
    0.19671615   2    1000024   -24
    0.19671615   2   -1000024    24
    0.19454836   2    1000023    23
    0.16462589   2    1000023    25
    0.1639266   2    1000022    25
    0.038275917   2    1000022    23
    0.011925842   2    1000025    25
    0.011675768   2    1000037   -24
    0.011675768   2   -1000037    24
    0.0032556138   3    1000024    5   -6
    0.0032556138   3   -1000024   -5    6
    0.0012807387   3    1000022    6   -6
    0.0012338232   3    1000023    6   -6
    0.00035477284   2    1000025    23
    0.00010950234   3    1000022    15   -15
    0.00010685747   3    1000024    15   -16
    0.00010685747   3   -1000024   -15    16
    0.00010343741   3    1000023    15   -15

DECAY 1000021  9.5907028
    0.21990718   2    1000006   -6
    0.21990718   2   -1000006    6
    0.057429608   2    1000005   -5
    0.057429608   2   -1000005    5
    0.031795368   2    2000005   -5
    0.031795368   2   -2000005    5
    0.031671305   2    1000006   -4
    0.031671305   2   -1000006    4
    0.021721821   3    1000022    6   -6
    0.021219316   3    1000023    6   -6
    0.018255627   3    1000024    5   -6
    0.018255627   3   -1000024   -5    6
    0.015877626   2    2000002   -2
    0.015877626   2   -2000002    2
    0.01587677   2    2000004   -4
    0.01587677   2   -2000004    4
    0.015844173   2    2000003   -3
    0.015844173   2   -2000003    3
    0.015838671   2    2000001   -1
    0.015838671   2   -2000001    1
    0.012695913   2    1000004   -4
    0.012695913   2   -1000004    4
    0.01269459   2    1000002   -2
    0.01269459   2   -1000002    2
    0.012495743   2    1000003   -3
    0.012495743   2   -1000003    3
    0.012493593   2    1000001   -1
    0.012493593   2   -1000001    1
    0.0030289651   3    1000025    6   -6
    0.0026564082   3    1000037    5   -6
    0.0026564082   3   -1000037   -5    6
    0.00101689   2    1000023    21
    0.0009474078   3    1000035    6   -6
    0.00079665559   2    1000022    21
    0.0001655571   2    1000039    21

DECAY 25  0.0043755817
    0.52109331   2   -5    5
    0.28281415   2   -24    24
    0.069307594   2    21    21
    0.060355179   2   -15    15
    0.036402474   2    23    23
    0.025544422   2   -4    4
    0.0023196578   2    22    22
    0.001757354   2    22    23
    0.00020934651   2   -13    13
    0.00019583229   2   -3    3
    5.4145602e-07   2   -1    1
    1.316269e-07   2   -2    2
    4.706306e-09   2   -11    11

DECAY 35  97.159955
    0.68332215   2   -5    5
    0.14580336   2   -15    15
    0.051323152   2   -1000024    1000037
    0.051323152   2   -1000037    1000024
    0.031502228   2    1000023    1000025
    0.019153743   2    1000022    1000025
    0.006298156   2    1000023    1000035
    0.0046601005   2   -1000024    1000024
    0.0027083331   2    1000022    1000035
    0.001716619   2    1000022    1000022
    0.0005096233   2   -13    13
    0.00047238715   2    1000022    1000023
    0.00032575862   2   -1000037    1000037
    0.00027511326   2   -3    3
    0.00021513126   2    1000023    1000023
    0.00021251729   2   -6    6
    0.00015812966   2    1000025    1000025
    1.4964435e-05   2    21    21
    2.4849357e-06   2    25    25
    1.5600146e-06   2    1000025    1000035
    7.6067697e-07   2   -1    1
    2.9909183e-07   2    23    23
    1.5876849e-07   2   -24    24
    8.0036911e-08   2    22    23
    2.2159068e-08   2    22    22
    1.14473e-08   2   -11    11
    3.0075987e-09   2   -4    4
    1.5506309e-14   2   -2    2

DECAY 36  91.49088
    0.67446368   2   -5    5
    0.14392769   2   -15    15
    0.053623498   2   -1000024    1000037
    0.053623498   2   -1000037    1000024
    0.032431296   2    1000022    1000025
    0.020714791   2    1000023    1000025
    0.00668205   2    1000022    1000035
    0.0060997049   2   -1000024    1000024
    0.0028053551   2    1000023    1000035
    0.0023140617   2    1000022    1000022
    0.0010991054   2   -1000037    1000037
    0.00053208213   2    1000025    1000025
    0.00050306547   2   -13    13
    0.00036446981   2    1000022    1000023
    0.00027153554   2   -3    3
    0.0002551461   2    1000023    1000023
    0.00021434619   2   -6    6
    5.0951263e-05   2    1000025    1000035
    2.219655e-05   2    21    21
    7.5078597e-07   2   -1    1
    4.2926596e-07   2    23    25
    1.7175362e-07   2    22    23
    1.0724232e-07   2    22    22
    1.1299988e-08   2   -11    11
    2.9376931e-09   2   -4    4
    2.3055805e-13   2    23    35
    1.514861e-14   2   -2    2
    3.8724943e-36   2    25    25

DECAY 37  91.292108
    0.67656783   2   -5    6
    0.14134144   2   -15    16
    0.05784907   2    1000022    1000037
    0.057094947   2    1000024    1000025
    0.054996715   2    1000023    1000037
    0.0088764668   2    1000024    1000035
    0.0013896762   2    1000023    1000024
    0.0010067178   2   -5    4
    0.00049969289   2   -13    14
    0.00026545683   2   -3    4
    5.1980702e-05   2    1000035    1000037
    3.8320273e-05   2    1000022    1000024
    1.2373896e-05   2   -3    2
    7.1890075e-06   2   -5    2
    7.842202e-07   2   -3    6
    7.366934e-07   2   -1    2
    4.3107903e-07   2    24    25
    1.009467e-07   2    1000025    1000037
    3.4407191e-08   2   -1    4
    1.8177119e-08   2   -1    6
    1.1687869e-08   2   -11    12
    8.0547505e-13   2    24    35

DECAY 6  2.43
    1   2    5    24

DECAY 15 -1


DECAY 1000039 -1
