BLOCK DCINFO
   1   SDECAY/HDECAY
   2   1.3b /3.4

BLOCK SPINFO
   1   SOFTSUSY
   2   3.4.0

BLOCK MODSEL
   1   0

BLOCK SMINPUTS
   1    127.90897
   2    1.1663787e-05
   3    0.1184
   4    91.1876
   5    4.18
   6    173.2
   7    1.777

BLOCK MINPAR
   3    31.93

BLOCK EXTPAR
   0   -1
   1   -1303.4
   2    1439.31
   3    1094.09
   11    4636.82
   12   -229.42
   13   -2787.43
   23   -3013.62
   26    1700.14
   31    3150.52
   32    3150.52
   33    1647.09
   34    1904.53
   35    1904.53
   36    3403.25
   41    3398.03
   42    3398.03
   43    3987.61
   44    2638.87
   45    2638.87
   46    3240.37
   47    2986.27
   48    2986.27
   49    3267.22

BLOCK MASS
   24    80.398757
   25    127.45584
   35    1700.1229
   36    1700.1402
   37    1702.4167
   5    4.8187603
   1000001    3445.1534
   2000001    3024.2757
   1000002    3444.3711
   2000002    2677.9637
   1000003    3445.1534
   2000003    3024.2757
   1000004    3444.3711
   2000004    2677.9637
   1000005    3292.9707
   2000005    3984.9373
   1000006    3223.2677
   2000006    3994.6602
   1000011    3160.846
   2000011    1911.6769
   1000012    3159.5294
   1000013    3160.846
   2000013    1911.6769
   1000014    3159.5294
   1000015    1662.9225
   2000015    3398.7933
   1000016    1661.5739
   1000021    1324.1363
   1000022   -1288.1786
   1000023    1491.0911
   1000025   -3092.1125
   1000035    3093.0487
   1000024    1491.2563
   1000037    3093.6593

BLOCK NMIX
   1   1    0.99981189
   1   2    0.00024616992
   1   3   -0.01771088
   1   4    0.0079024697
   2   1    0.00020223534
   2   2    0.99940126
   2   3    0.031597124
   2   4    0.014095979
   3   1   -0.018112239
   3   2    0.012377545
   3   3   -0.70681122
   3   4    0.70706198
   4   1    0.0069347537
   4   2   -0.032308692
   4   3    0.70647423
   4   4    0.70696691

BLOCK UMIX
   1   1    0.99900045
   1   2    0.044700052
   2   1   -0.044700052
   2   2    0.99900045

BLOCK VMIX
   1   1    0.99980043
   1   2   -0.01997735
   2   1   -0.01997735
   2   2   -0.99980043

BLOCK STOPMIX
   1   1   -0.11580364
   1   2    0.99327213
   2   1   -0.99327213
   2   2   -0.11580364

BLOCK SBOTMIX
   1   1   -0.051865002
   1   2    0.9986541
   2   1   -0.9986541
   2   2   -0.051865002

BLOCK STAUMIX
   1   1    0.99984866
   1   2   -0.0173971
   2   1    0.0173971
   2   2    0.99984866

BLOCK ALPHA
      -0.032410224

BLOCK HMIX Q=  3594.793
   1   -3098.5793
   2    30.990027
   3    242.4043
   4    2687786.8

BLOCK GAUGE Q=  3594.793
   1    0.36530122
   2    0.63596903
   3    1.0193961

BLOCK AU Q=  3594.793
   1   1    0
   2   2    0
   3   3    4636.82

BLOCK AD Q=  3594.793
   1   1    0
   2   2    0
   3   3   -229.42

BLOCK AE Q=  3594.793
   1   1    0
   2   2    0
   3   3   -2787.43

BLOCK YU Q=  3594.793
   1   1    0
   2   2    0
   3   3    0.82574078

BLOCK YD Q=  3594.793
   1   1    0
   2   2    0
   3   3    0.49929005

BLOCK YE Q=  3594.793
   1   1    0
   2   2    0
   3   3    0.29550381

BLOCK MSOFT Q=  3594.793
   1   -1303.4
   2    1439.31
   3    1094.09
   21   -6702810.6
   22   -9414887.9
   31    3150.52
   32    3150.52
   33    1647.09
   34    1904.53
   35    1904.53
   36    3403.25
   41    3398.03
   42    3398.03
   43    3987.61
   44    2638.87
   45    2638.87
   46    3240.37
   47    2986.27
   48    2986.27
   49    3267.22

BLOCK HIGGSBOUNDSINPUTHIGGSCOUPLINGSFERMIONS
       0, 960.38178,3,36,15,15

BLOCK HIGGSBOUNDSINPUTHIGGSCOUPLINGSBOSONS
       0,4,36,21,21,23

DECAY 6  1.4240447
    1   2    5    24

DECAY 1000021  3.5097504e-10
    0.8889049   2    1000022    21
    0.046400327   3    1000022    2   -2
    0.046400327   3    1000022    4   -4
    0.0069692458   3    1000022    1   -1
    0.0069692458   3    1000022    3   -3
    0.0043559493   3    1000022    5   -5

DECAY 1000006  126.00919
    0.95440509   2    1000021    6
    0.041922795   2    1000022    6
    0.0021307614   2    1000037    5
    0.0010324811   2    1000024    5
    0.00050887175   2    1000023    6

DECAY 2000006  249.70645
    0.70063603   2    1000021    6
    0.094719855   2    1000024    5
    0.049719199   2    1000006    25
    0.046967652   2    1000023    6
    0.045186159   2    1000006    23
    0.017788841   2    1000025    6
    0.016361834   2    1000035    6
    0.013601766   2    1000005    24
    0.012883702   2    1000037    5
    0.0021349646   2    1000022    6

DECAY 1000005  129.47129
    0.98523574   2    1000021    5
    0.010850047   2    1000022    5
    0.00096554548   2   -1000024    6
    0.00087688217   2    1000025    5
    0.00087024737   2    1000035    5
    0.00071335048   2   -1000037    6
    0.00048818429   2    1000023    5

DECAY 2000005  246.06919
    0.70658498   2    1000021    5
    0.094953215   2   -1000024    6
    0.086981584   2    1000006   -24
    0.047882821   2    1000023    5
    0.034641634   2   -1000037    6
    0.007426888   2    1000005    25
    0.0068947608   2    1000005    23
    0.0063785791   2    1000025    5
    0.0063712185   2    1000035    5
    0.0018843163   2    1000022    5

DECAY 1000002  204.60845
    0.86816841   2    1000021    2
    0.086712541   2    1000024    1
    0.043329426   2    1000023    2
    0.0017849421   2    1000022    2
    2.44559e-06   2    1000035    2
    2.0271994e-06   2    1000037    1
    2.0326605e-07   2    1000025    2

DECAY 2000002  112.1622
    0.96775725   2    1000021    2
    0.032242748   2    1000022    2
    1.0647503e-09   2    1000023    2

DECAY 1000001  204.65875
    0.86828891   2    1000021    1
    0.086590364   2   -1000024    2
    0.043330982   2    1000023    1
    0.0017760147   2    1000022    1
    1.018694e-05   2   -1000037    2
    2.8934743e-06   2    1000035    1
    6.4528409e-07   2    1000025    1

DECAY 2000001  141.46902
    0.99181225   2    1000021    1
    0.0081877538   2    1000022    1
    2.8666894e-10   2    1000023    1

DECAY 1000004  165.71596
    0.83219144   2    1000021    4
    0.11037605   2    1000024    3
    0.055153841   2    1000023    4
    0.002272918   2    1000022    4
    3.0080559e-06   2    1000035    4
    2.4933205e-06   2    1000037    3
    2.5003788e-07   2    1000025    4

DECAY 2000004  88.001915
    0.95759258   2    1000021    4
    0.042407423   2    1000022    4
    1.3982047e-09   2    1000023    4

DECAY 1000003  165.75043
    0.8323389   2    1000021    3
    0.11022464   2   -1000024    4
    0.055157935   2    1000023    3
    0.0022616351   2    1000022    3
    1.2530466e-05   2   -1000037    4
    3.5593677e-06   2    1000035    3
    7.9385786e-07   2    1000025    3

DECAY 2000003  110.12596
    0.98914825   2    1000021    3
    0.010851747   2    1000022    3
    3.7962523e-10   2    1000023    3

DECAY 1000011  25.938997
    0.59140947   2   -1000024    12
    0.29604841   2    1000023    11
    0.11253794   2    1000022    11
    3.4658289e-06   2   -1000037    12
    7.0841076e-07   2    1000035    11
    3.5346636e-09   2    1000025    11

DECAY 2000011  3.0240354
    0.99999998   2    1000022    11
    2.1053291e-08   2    1000023    11

DECAY 1000013  25.938997
    0.59140947   2   -1000024    14
    0.29604841   2    1000023    13
    0.11253794   2    1000022    13
    3.4658289e-06   2   -1000037    14
    7.0840989e-07   2    1000035    13
    3.5346593e-09   2    1000025    13

DECAY 2000013  3.0240354
    0.99999998   2    1000022    13
    2.1053291e-08   2    1000023    13

DECAY 1000015  1.123316
    0.45597447   2   -1000024    16
    0.3152092   2    1000022    15
    0.22881633   2    1000023    15

DECAY 2000015  21.468826
    0.61599995   2    1000022    15
    0.15128417   2    1000016   -24
    0.081505408   2    1000015    25
    0.077978518   2    1000015    23
    0.028294593   2    1000016   -37
    0.014337126   2    1000015    36
    0.014327814   2    1000015    35
    0.0080970481   2   -1000037    16
    0.0040979147   2    1000025    15
    0.0040630626   2    1000035    15
    9.5289091e-06   2   -1000024    16
    4.8655482e-06   2    1000023    15

DECAY 1000012  25.932187
    0.59198314   2    1000024    11
    0.29572407   2    1000023    12
    0.11229055   2    1000022    12
    1.1194323e-06   2    1000035    12
    6.6611907e-07   2    1000037    11
    4.5346763e-07   2    1000025    12

DECAY 1000014  25.932187
    0.59198314   2    1000024    13
    0.29572407   2    1000023    14
    0.11229055   2    1000022    14
    1.1194323e-06   2    1000035    14
    6.661182e-07   2    1000037    13
    4.5346763e-07   2    1000025    14

DECAY 1000016  1.1095713
    0.4560092   2    1000024    15
    0.31598121   2    1000022    16
    0.22800959   2    1000023    16

DECAY 1000024  5.9410038e-06
    1   2    1000022    24

DECAY 1000037  19.412018
    0.28539633   2    1000024    25
    0.26476398   2    1000024    23
    0.25692875   2    1000023    24
    0.10059865   2    1000022    24
    0.07008334   2    1000016   -15
    0.021794257   2    1000022    37
    0.00043468779   2   -1000015    16

DECAY 1000022 -1


DECAY 1000023  5.6025086e-06
    0.99889462   2    1000022    23
    0.0011053798   2    1000022    25

DECAY 1000025  18.935971
    0.26268318   2    1000024   -24
    0.26268318   2   -1000024    24
    0.23587998   2    1000023    23
    0.095112367   2    1000022    25
    0.035739779   2    1000015   -15
    0.035739779   2   -1000015    15
    0.035598851   2    1000023    25
    0.021906135   2    1000022    35
    0.013663137   2    1000022    23
    0.00055647686   2    1000022    36
    8.6238923e-05   2    1000016   -16
    8.6238923e-05   2   -1000016    16
    5.4275752e-05   2    2000011   -11
    5.4275752e-05   2   -2000011    11
    5.4275752e-05   2    2000013   -13
    5.4275752e-05   2   -2000013    13
    1.1793285e-05   2    2000002   -2
    1.1793285e-05   2   -2000002    2
    1.1793209e-05   2    2000004   -4
    1.1793209e-05   2   -2000004    4
    9.5296644e-08   2    2000001   -1
    9.5296644e-08   2   -2000001    1
    9.5296644e-08   2    2000003   -3
    9.5296644e-08   2   -2000003    3

DECAY 1000035  19.263297
    0.25743058   2    1000024   -24
    0.25743058   2   -1000024    24
    0.25275712   2    1000023    25
    0.091130776   2    1000022    23
    0.035225017   2    1000015   -15
    0.035225017   2   -1000015    15
    0.034278157   2    1000023    23
    0.021586388   2    1000022    36
    0.013914048   2    1000022    25
    0.00055347988   2    1000022    35
    0.00021531439   2    1000016   -16
    0.00021531439   2   -1000016    16
    7.8295592e-06   2    2000011   -11
    7.8295592e-06   2   -2000011    11
    7.8295592e-06   2    2000013   -13
    7.8295592e-06   2   -2000013    13
    1.7060469e-06   2    2000002   -2
    1.7060469e-06   2   -2000002    2
    1.7060359e-06   2    2000004   -4
    1.7060359e-06   2   -2000004    4
    1.4097518e-08   2    2000001   -1
    1.4097518e-08   2   -2000001    1
    1.4097518e-08   2    2000003   -3
    1.4097518e-08   2   -2000003    3

DECAY 25  0.0041445353
    0.53043566   2    5   -5
    0.26360914   2    24   -24
    0.081429578   2    21    21
    0.0642977   2   -15    15
    0.034162949   2    23    23
    0.021255652   2    4   -4
    0.0024677658   2    22    22
    0.0018662566   2    22    23
    0.00024776309   2    3   -3
    0.00022754246   2   -13    13

DECAY 35  32.452154
    0.88106972   2    5   -5
    0.11581033   2   -15    15
    0.002340285   2    6   -6
    0.00039607583   2   -13    13
    0.00035148757   2    3   -3
    2.3261376e-05   2    21    21
    7.1057146e-06   2    25    25
    1.1278098e-06   2    24   -24
    5.611214e-07   2    23    23
    2.4437225e-08   2    4   -4
    1.0909847e-08   2    23    22
    3.3468659e-09   2    22    22

DECAY 36  32.455826
    0.88101105   2    5   -5
    0.11580001   2   -15    15
    0.002387697   2    6   -6
    0.00039603886   2   -13    13
    0.00035147971   2    3   -3
    5.2494377e-05   2    21    21
    1.1331958e-06   2    23    25
    3.8241669e-08   2    22    22
    3.0354304e-08   2    23    22
    2.4427032e-08   2    4   -4

DECAY 37  34.501458
    0.88869058   2    6   -5
    0.10907995   2   -15    16
    0.0014985669   2    4   -5
    0.00037305609   2   -13    14
    0.00032526983   2    4   -3
    1.6524278e-05   2    2   -3
    1.4985617e-05   2    2   -5
    1.0724626e-06   2    24    25
    2.3286431e-12   2    24    36

DECAY 5 -1


DECAY 15 -1


DECAY 23  2.4952


DECAY 24  2.085
