BLOCK SPINFO
   1   SPheno
   2   v4.0.5be

BLOCK SPHENOINFO
   1   2
   2   2

BLOCK MODSEL
   1   0

BLOCK MINPAR
   3    34.697198
   4    1

BLOCK EXTPAR
   0    4249.4229
   1   -62.388803
   2    779.61761
   3    4676.7623
   11   -3619.2006
   12   -211.0503
   13   -7173.2004
   23    100.9648
   25    33.55445
   26    2745.7099
   31    2037.067
   32    2037.067
   33    3826.9216
   34    4753.3426
   35    4753.3426
   36    4535.1016
   41    1859.906
   42    1859.906
   43    3874.5439
   44    2687.1428
   45    2687.1428
   46    4426.2552
   47    4721.3981
   48    4721.3981
   49    2901.8745

BLOCK SMINPUTS
   1    127.90897
   2    1.1663787e-05
   3    0.1184
   4    91.1876
   5    4.18
   6    173.2
   7    1.777
   8    0
   11    0.00051099893
   12    0
   13    0.10565837
   14    0
   21    0.005
   22    0.0025
   23    0.095
   24    1.27

BLOCK GAUGE Q=  4249.4229
   1    0.35536298
   2    0.66519887
   3    1.219778

BLOCK YU Q=  4249.4229
   1   1    8.3880947e-06
   2   2    0.0042611521
   3   3    1.0133492

BLOCK YD Q=  4249.4229
   1   1    0.00056557956
   2   2    0.010746012
   3   3    0.56087769

BLOCK YE Q=  4249.4229
   1   1    9.8697768e-05
   2   2    0.020407568
   3   3    0.34322172

BLOCK AU Q=  4249.4229
   1   1    0
   2   2    0
   3   3   -3619.2025

BLOCK AD Q=  4249.4229
   1   1    0
   2   2    0
   3   3   -211.05025

BLOCK AE Q=  4249.4229
   1   1    0
   2   2    0
   3   3   -7173.1992

BLOCK MSOFT Q=  4249.4229
   1   -62.388803
   2    779.61761
   3    4676.7623
   21    7736324.4
   22    382220.74
   31    2037.067
   32    2037.067
   33    3826.9216
   34    4753.3426
   35    4753.3426
   36    4535.1016
   41    1859.906
   42    1859.906
   43    3874.5439
   44    2687.1428
   45    2687.1428
   46    4426.2552
   47    4721.3981
   48    4721.3981
   49    2901.8745

BLOCK MASS
   6    173.2
   23    91.1876
   24    80.429995
   15    1.777
   25    123.78809
   35    2744.6316
   36    2745.7099
   37    2746.0165
   1000001    2095.2676
   2000001    4868.4888
   1000002    2093.6888
   2000002    2881.5768
   1000003    2095.2622
   2000003    4868.4827
   1000004    2093.6835
   2000004    2881.5761
   1000005    3069.3987
   2000005    4009.1399
   1000006    4002.8998
   2000006    4511.1284
   1000011    2043.7588
   2000011    4758.2392
   1000012    2041.8144
   1000013    2043.73
   2000013    4758.2034
   1000014    2041.7902
   1000015    3827.1146
   2000015    4521.7815
   1000016    3826.0015
   1000021    4769.6988
   1000022   -54.655502
   1000023    124.74557
   1000025   -139.86789
   1000035    818.75308
   1000024    122.60281
   1000037    818.99207

BLOCK ALPHA
      -0.028903748

BLOCK HMIX Q=  4249.4229
   1    100.9648
   2    33.55445
   3    242.89112
   4    7538922.8

BLOCK STOPMIX
   1   1    0.99265294
   1   2    0.12099645
   2   1   -0.12099645
   2   2    0.99265294

BLOCK SBOTMIX
   1   1    0.00098685268
   1   2    0.99999951
   2   1   -0.99999951
   2   2    0.00098685268

BLOCK STAUMIX
   1   1    0.99999485
   1   2    0.0032089071
   2   1   -0.0032089071
   2   2    0.99999485

BLOCK NMIX
   1   1   -0.90895052
   1   2   -0.013912081
   1   3   -0.38465151
   1   4   -0.16018308
   2   1   -0.16918702
   2   2   -0.082249714
   2   3    0.69271434
   2   4   -0.69624535
   3   1    0.3809979
   3   2   -0.056577979
   3   3   -0.60983105
   3   4   -0.69263672
   4   1    0.0050305053
   4   2   -0.99490722
   4   3   -0.017208886
   4   4    0.099187586

BLOCK UMIX
   1   1   -0.024361546
   1   2    0.99970321
   2   1    0.99970321
   2   2    0.024361546

BLOCK VMIX
   1   1   -0.14053113
   1   2    0.99007626
   2   1    0.99007626
   2   2    0.14053113

BLOCK HIGGSBOUNDSINPUTHIGGSCOUPLINGSFERMIONS
       0, 1125.9011,3,36,15,15

BLOCK HIGGSBOUNDSINPUTHIGGSCOUPLINGSBOSONS
       0,4,36,21,21,23

BLOCK SPHENOLOWENERGY
   1    0.00032209343
   2    1.5902228e-06
   3    3.525756e-05
   4    2.8406822e-15
   5    1.2135034e-10
   6    2.5380853e-08
   7    9.5275992e-14
   8    4.0701755e-09
   9    8.625998e-07
   10    9.5887542e-05
   11    0.9904816
   12    0.5418408
   13    19.354926
   14    0
   15    0
   16    0.00215679
   17    2.2816539e-15
   18    2.4802902e-11
   19    8.2911685e-11
   20    2.5771519e-15
   21    1.1018629e-10
   22    1.5130665e-08
   23    0
   24    0
   25    0
   26    0
   27    0
   28    0
   29    0
   30    0
   31    0
   39    6.4645087e-05
   40    0
   41    0
   42    0

BLOCK FWCOEF Q=  160
   305   4422   0   0   -0.18881911
   305   4422   0   2   -0.18950363
   305   4322   0   2    3.5607919e-05
   305   6421   0   0   -0.095227835
   305   6421   0   2   -0.10240569
   305   6321   0   2   -0.00011453785
   3051111   4133   0   0    1.6289316
   3051111   4133   0   2    1.6291265
   3051111   4233   0   2    0.00020480551
   3051111   4137   0   0   -4.4516237
   3051111   4137   0   2   -4.4504549
   3051111   4237   0   2   -0.0015107483
   3051313   4133   0   0    1.6289316
   3051313   4133   0   2    1.6291259
   3051313   4233   0   2    0.00020480516
   3051313   4137   0   0   -4.4516237
   3051313   4137   0   2   -4.4504554
   3051313   4237   0   2   -0.0015107486
   3051212   4137   0   0    1.5053501
   3051212   4137   0   2    1.5051076
   3051212   4237   0   2    0.00032651479
   3051414   4137   0   0    1.5053501
   3051414   4137   0   2    1.5051076
   3051414   4237   0   2    0.00032651485
   3051616   4137   0   0    1.5053501
   3051616   4137   0   2    1.5051069
   3051616   4237   0   2    0.00032652928

BLOCK IMFWCOEF Q=  160
   305   4422   0   0    3.8582256e-07
   305   4422   0   2    1.3267643e-05
   305   4322   0   2    3.3766733e-06
   305   6421   0   0    3.3048254e-07
   305   6421   0   2   -1.3239761e-06
   305   6321   0   2    1.4926052e-06
   3051111   4133   0   2    1.7663209e-07
   3051111   4233   0   2    4.2959877e-06
   3051111   4137   0   2    1.9533528e-07
   3051111   4237   0   2   -3.169197e-05
   3051313   4133   0   2    1.7659079e-07
   3051313   4233   0   2    4.2959858e-06
   3051313   4137   0   2    1.9536881e-07
   3051313   4237   0   2   -3.1691979e-05
   3051212   4137   0   2    1.403608e-07
   3051212   4237   0   2    6.8495215e-06
   3051414   4137   0   2    1.4036216e-07
   3051414   4237   0   2    6.8495215e-06
   3051616   4137   0   2    1.2796006e-07
   3051616   4237   0   2    6.849525e-06

DECAY 23  2.4952


DECAY 24  2.085


DECAY 1000011  21.621493
    0.58596893   2   -1000037    12
    0.28867898   2    1000035    11
    0.10365331   2    1000022    11
    0.012307011   2    1000023    11
    0.0089014746   2    1000025    11
    0.00049029267   2   -1000024    12

DECAY 2000011  23.896233
    0.82639409   2    1000022    11
    0.14498253   2    1000025    11
    0.028599502   2    1000023    11

DECAY 1000013  21.637794
    0.58551297   2   -1000037    14
    0.28845454   2    1000035    13
    0.1036894   2    1000022    13
    0.012670254   2    1000023    13
    0.0091829251   2    1000025    13
    0.00048991632   2   -1000024    14

DECAY 2000013  23.974799
    0.82392299   2    1000022    13
    0.14511682   2    1000025    13
    0.029293532   2    1000023    13
    0.001641217   2   -1000024    14

DECAY 1000015  59.792994
    0.51267308   2   -1000037    16
    0.25256879   2    1000035    15
    0.092686676   2    1000022    15
    0.080195905   2    1000023    15
    0.061494954   2    1000025    15
    0.00038059613   2   -1000024    16

DECAY 2000015  43.898608
    0.46279669   2    1000022    15
    0.24082734   2   -1000024    16
    0.16492862   2    1000025    15
    0.13046664   2    1000023    15
    0.00033144172   2    1000016   -24
    0.00021115749   2   -1000037    16
    0.00016401504   2    1000015    23
    0.00015656148   2    1000015    25
    0.00011754045   2    1000035    15

DECAY 1000012  21.656579
    0.57284284   2    1000037    11
    0.29085302   2    1000035    12
    0.09218917   2    1000022    12
    0.027814718   2    1000025    12
    0.016273005   2    1000024    11

DECAY 1000014  21.672943
    0.57239867   2    1000037    13
    0.29062731   2    1000035    14
    0.092118466   2    1000022    14
    0.02779338   2    1000025    14
    0.017034941   2    1000024    13

DECAY 1000016  59.812376
    0.50263866   2    1000037    15
    0.25512266   2    1000035    16
    0.16060997   2    1000024    15
    0.062611326   2    1000022    16
    0.018998801   2    1000025    16

DECAY 1000001  20.175655
    0.65580477   2   -1000037    2
    0.32541733   2    1000035    1
    0.0099918527   2    1000022    1
    0.0070138532   2    1000025    1
    0.0012333414   2    1000023    1
    0.00053885975   2   -1000024    2

DECAY 2000001  3.3369261
    0.67279301   2    1000022    1
    0.18584325   2    1000021    1
    0.11804571   2    1000025    1
    0.023289287   2    1000023    1

DECAY 1000003  20.181078
    0.65562605   2   -1000037    4
    0.3253285   2    1000035    3
    0.010024279   2    1000022    3
    0.0070996431   2    1000025    3
    0.0013463252   2    1000023    3
    0.00057520277   2   -1000024    4

DECAY 2000003  3.3591278
    0.66883654   2    1000022    3
    0.18459257   2    1000021    3
    0.11849821   2    1000025    3
    0.024726561   2    1000023    3
    0.0033234025   2   -1000024    4

DECAY 1000005  39.883307
    0.4767812   2   -1000024    6
    0.23158105   2    1000023    5
    0.18447125   2    1000025    5
    0.10683232   2    1000022    5
    0.0002216977   2   -1000037    6
    0.00011248954   2    1000035    5

DECAY 2000005  155.66568
    0.51294691   2   -1000024    6
    0.21837365   2   -1000037    6
    0.10327953   2    1000035    5
    0.077503517   2    1000023    5
    0.061592231   2    1000025    5
    0.026271052   2    1000022    5

DECAY 1000002  20.25683
    0.63982635   2    1000037    1
    0.32252927   2    1000035    2
    0.017846422   2    1000024    1
    0.01403627   2    1000022    2
    0.0057044419   2    1000023    2

DECAY 2000002  6.4261177
    0.82674475   2    1000022    2
    0.14467712   2    1000025    2
    0.028556714   2    1000023    2

DECAY 1000004  20.262252
    0.63965249   2    1000037    3
    0.32244179   2    1000035    4
    0.018076513   2    1000024    3
    0.014033414   2    1000022    4
    0.0057208098   2    1000023    4

DECAY 2000004  6.4281814
    0.82648296   2    1000022    4
    0.14470757   2    1000025    4
    0.028625855   2    1000023    4
    0.00015815746   2    1000024    3

DECAY 1000006  158.04073
    0.25699131   2    1000025    6
    0.2502216   2    1000023    6
    0.18751352   2    1000037    5
    0.1788748   2    1000024    5
    0.099443559   2    1000035    6
    0.014009679   3    1000022    24    5
    0.012927157   2    1000022    6

DECAY 2000006  211.25872
    0.41318782   2    1000024    5
    0.21232775   2    1000023    6
    0.20626963   2    1000025    6
    0.0535958   2    1000022    6
    0.038644083   2    2000005    24
    0.027263829   2    1000006    25
    0.01951634   2    1000006    23
    0.019412952   2    1000037    5
    0.0097811545   2    1000035    6

DECAY 1000024  0.00095184023
    0.33356065   3    1000022   -1    2
    0.3331821   3    1000022   -3    4
    0.11116413   3    1000022   -11    12
    0.11116344   3    1000022   -13    14
    0.11092968   3    1000022   -15    16

DECAY 1000037  7.0289909
    0.25145337   2    1000023    24
    0.24671442   2    1000024    23
    0.24302398   2    1000024    25
    0.22763747   2    1000025    24
    0.0223757   2    1000022    24
    0.0033198669   3    1000023   -5    6
    0.0028417875   3    1000025   -5    6
    0.0023374127   3    1000024    6   -6
    0.00028883755   3    1000022   -5    6

DECAY 1000022 -1


DECAY 1000023  0.00061032876
    0.20421099   3    1000022    12   -12
    0.15270935   3    1000022    1   -1
    0.15270722   3    1000022    3   -3
    0.14824092   3    1000022    5   -5
    0.11912189   3    1000022    2   -2
    0.11871922   3    1000022    4   -4
    0.034437853   3    1000022    11   -11
    0.034437034   3    1000022    13   -13
    0.034204267   3    1000022    15   -15
    0.0012111387   2    1000022    22

DECAY 1000025  0.00038834528
    0.19762093   3    1000022    12   -12
    0.14761714   3    1000022    1   -1
    0.14761631   3    1000022    3   -3
    0.14606153   3    1000022    5   -5
    0.11520252   3    1000022    2   -2
    0.11503613   3    1000022    4   -4
    0.033274355   3    1000022    11   -11
    0.033274201   3    1000022    13   -13
    0.033218402   3    1000022    15   -15
    0.0041025298   3    1000024    1   -2
    0.0041025298   3   -1000024   -1    2
    0.0039962756   3    1000024    3   -4
    0.0039962756   3   -1000024   -3    4
    0.0016611307   2    1000022    22
    0.0013676119   3    1000024    11   -12
    0.0013676119   3   -1000024   -11    12
    0.0013674398   3    1000024    13   -14
    0.0013674398   3   -1000024   -13    14
    0.0012999401   3    1000024    15   -16
    0.0012999401   3   -1000024   -15    16
    0.0010223059   3    1000023    12   -12
    0.0007644493   3    1000023    1   -1
    0.00076410179   3    1000023    3   -3
    0.00067749178   2    1000023    22
    0.00059619493   3    1000023    2   -2
    0.00054290907   3    1000023    4   -4
    0.00029615614   3    1000023    5   -5
    0.0001725417   3    1000023    11   -11
    0.00017241842   3    1000023    13   -13
    0.00014118408   3    1000023    15   -15

DECAY 1000035  7.5426266
    0.23504865   2    1000024   -24
    0.23504865   2   -1000024    24
    0.15189204   2    1000023    25
    0.14388186   2    1000025    23
    0.12766874   2    1000025    25
    0.076167543   2    1000023    23
    0.012429557   2    1000022    23
    0.0099154945   2    1000022    25
    0.003080567   3    1000024    5   -6
    0.003080567   3   -1000024   -5    6
    0.00091237643   3    1000023    6   -6
    0.00076393164   3    1000025    6   -6

DECAY 1000021  555.19416
    0.082870034   2    1000004   -4
    0.082870034   2   -1000004    4
    0.082869836   2    1000002   -2
    0.082869836   2   -1000002    2
    0.082810373   2    1000003   -3
    0.082810373   2   -1000003    3
    0.082810168   2    1000001   -1
    0.082810168   2   -1000001    1
    0.05127102   2    2000004   -4
    0.05127102   2   -2000004    4
    0.051270997   2    2000002   -2
    0.051270997   2   -2000002    2
    0.043643934   2    1000005   -5
    0.043643934   2   -1000005    5
    0.010951749   2    2000005   -5
    0.010951749   2   -2000005    5
    0.010236468   2    1000006   -6
    0.010236468   2   -1000006    6
    0.0012370997   2    2000006   -6
    0.0012370997   2   -2000006    6

DECAY 25  0.0052212149
    0.42276739   2   -5    5
    0.2855444   2    1000022    1000022
    0.14921732   2   -24    24
    0.052411911   2    21    21
    0.048564968   2   -15    15
    0.020856436   2   -4    4
    0.017630577   2    23    23
    0.00168098   2    22    22
    0.00099816863   2    22    23
    0.00016845656   2   -13    13
    0.00015883304   2   -3    3
    4.391571e-07   2   -1    1
    1.074807e-07   2   -2    2
    3.7871015e-09   2   -11    11

DECAY 35  75.57056
    0.48942465   2   -5    5
    0.12220737   2   -1000024    1000037
    0.12220737   2   -1000037    1000024
    0.090633594   2   -15    15
    0.054201782   2    1000023    1000035
    0.042757349   2    1000025    1000035
    0.02721436   2    1000022    1000035
    0.012591691   2    1000022    1000022
    0.012067964   2    1000022    1000023
    0.0097811139   2    1000025    1000025
    0.0072341383   2    1000023    1000025
    0.0063159916   2   -1000024    1000024
    0.001548515   2    1000022    1000025
    0.0011856242   2   -6    6
    0.00031613533   2   -13    13
    0.00018758564   2   -3    3
    5.5505714e-05   2   -1000037    1000037
    3.1805619e-05   2    1000023    1000023
    2.8350624e-05   2    1000035    1000035
    5.366919e-06   2    21    21
    2.5203602e-06   2    25    25
    5.1860821e-07   2   -1    1
    4.799169e-07   2    23    23
    1.6319134e-07   2   -24    24
    2.1671546e-08   2    22    23
    1.573779e-08   2   -4    4
    7.1003986e-09   2   -11    11
    6.8563296e-09   2    22    22
    8.112754e-14   2   -2    2

DECAY 36  73.0451
    0.47708719   2   -5    5
    0.12636117   2   -1000024    1000037
    0.12636117   2   -1000037    1000024
    0.088351748   2   -15    15
    0.066056138   2    1000023    1000035
    0.036700927   2    1000025    1000035
    0.025682615   2    1000022    1000035
    0.014053896   2    1000022    1000023
    0.01233324   2    1000022    1000022
    0.0088695892   2    1000025    1000025
    0.0082761504   2    1000023    1000025
    0.0066896715   2   -1000024    1000024
    0.0012294971   2    1000022    1000025
    0.0011296065   2   -6    6
    0.0003081752   2   -13    13
    0.00018285286   2   -3    3
    0.00018275223   2   -1000037    1000037
    9.2439948e-05   2    1000035    1000035
    3.7190967e-05   2    1000023    1000023
    1.2555969e-05   2    21    21
    7.6205725e-07   2    23    25
    5.0552513e-07   2   -1    1
    7.248244e-08   2    22    23
    5.7834237e-08   2    22    22
    1.4733455e-08   2   -4    4
    6.9216351e-09   2   -11    11
    7.5954644e-14   2   -2    2
    2.1927273e-14   2    23    35
    1.2027711e-39   2    25    25

DECAY 37  74.215102
    0.4842396   2   -5    6
    0.12522491   2    1000024    1000035
    0.12182925   2    1000023    1000037
    0.089082993   2   -15    16
    0.079536428   2    1000025    1000037
    0.053117186   2    1000022    1000037
    0.03680104   2    1000022    1000024
    0.004970274   2    1000024    1000025
    0.0039799613   2    1000023    1000024
    0.00071664016   2   -5    4
    0.00031494023   2   -13    14
    0.0001703596   2   -3    4
    7.9704441e-06   2   -3    2
    5.1175506e-06   2   -5    2
    1.9906329e-06   2   -3    6
    7.5085368e-07   2    24    25
    4.7266594e-07   2   -1    2
    7.9758567e-08   2   -1    6
    2.2781283e-08   2   -1    4
    7.3664847e-09   2   -11    12
    3.0841587e-09   2    1000035    1000037
    9.3441895e-14   2    24    35

DECAY 6  2.43
    1   2    5    24

DECAY 15 -1
