BLOCK SPINFO
   1   SPheno
   2   v4.0.5be

BLOCK SPHENOINFO
   1   2
   2   2

BLOCK MODSEL
   1   0

BLOCK MINPAR
   3    12.52514
   4   -1

BLOCK EXTPAR
   0    2897.9472
   1   -1300.3344
   2   -3376.8519
   3    1093.0944
   11   -4105.5323
   12   -5631.2091
   13    5206.829
   23   -2763.1995
   25    11.954031
   26    4481.2795
   31    3117.9516
   32    3117.9516
   33    1834.4441
   34    2239.8677
   35    2239.8677
   36    4219.0977
   41    3006.4688
   42    3006.4688
   43    2441.8731
   44    4866.1147
   45    4866.1147
   46    3370.4679
   47    2170.4686
   48    2170.4686
   49    3685.9068

BLOCK SMINPUTS
   1    127.90897
   2    1.1663787e-05
   3    0.1184
   4    91.1876
   5    4.18
   6    173.2
   7    1.777
   8    0
   11    0.00051099893
   12    0
   13    0.10565837
   14    0
   21    0.005
   22    0.0025
   23    0.095
   24    1.27

BLOCK GAUGE Q=  2897.9472
   1    0.35536298
   2    0.66519887
   3    1.219778

BLOCK YU Q=  2897.9472
   1   1    8.4136577e-06
   2   2    0.0042741381
   3   3    1.0164374

BLOCK YD Q=  2897.9472
   1   1    0.00020210612
   2   2    0.0038400163
   3   3    0.20042594

BLOCK YE Q=  2897.9472
   1   1    3.5268996e-05
   2   2    0.0072925097
   3   3    0.12264802

BLOCK AU Q=  2897.9472
   1   1    0
   2   2    0
   3   3   -4105.5323

BLOCK AD Q=  2897.9472
   1   1    0
   2   2    0
   3   3   -5631.2089

BLOCK AE Q=  2897.9472
   1   1    0
   2   2    0
   3   3    5206.829

BLOCK MSOFT Q=  2897.9472
   1   -1300.3344
   2   -3376.8519
   3    1093.0944
   21    12158499
   22   -7354537.7
   31    3117.9516
   32    3117.9516
   33    1834.4441
   34    2239.8677
   35    2239.8677
   36    4219.0977
   41    3006.4688
   42    3006.4688
   43    2441.8731
   44    4866.1147
   45    4866.1147
   46    3370.4679
   47    2170.4686
   48    2170.4686
   49    3685.9068

BLOCK MASS
   6    173.2
   23    91.1876
   24    80.429995
   15    1.777
   25    121.63362
   35    4481.1555
   36    4481.2795
   37    4482.3174
   1000001    3072.5999
   2000001    2211.2989
   1000002    3071.6678
   2000002    4920.5261
   1000003    3072.5999
   2000003    2211.2985
   1000004    3071.6676
   2000004    4920.5258
   1000005    2504.6475
   2000005    3726.3509
   1000006    2495.5893
   2000006    3365.1763
   1000011    3144.0885
   2000011    2238.9161
   1000012    3142.6792
   1000013    3144.0875
   2000013    2238.9145
   1000014    3142.6777
   1000015    1868.9541
   2000015    4219.2027
   1000016    1866.9757
   1000021    1325.4843
   1000022   -1294.9786
   1000023   -2764.4397
   1000025    2769.4984
   1000035   -3362.28
   1000024    2764.2602
   1000037    3362.3725

BLOCK ALPHA
      -0.079773493

BLOCK HMIX Q=  2897.9472
   1   -2763.1995
   2    11.954031
   3    243.28005
   4    20081866

BLOCK STOPMIX
   1   1    0.99437109
   1   2    0.1059535
   2   1   -0.1059535
   2   2    0.99437109

BLOCK SBOTMIX
   1   1   -0.99996792
   1   2    0.0080099884
   2   1   -0.0080099884
   2   2   -0.99996792

BLOCK STAUMIX
   1   1   -0.99998896
   1   2    0.0046991601
   2   1   -0.0046991601
   2   2   -0.99998896

BLOCK NMIX
   1   1    0.99971341
   1   2   -0.00045961474
   1   3   -0.021159531
   1   4    0.011188005
   2   1    0.022818117
   2   2    0.095554282
   2   3    0.70420239
   2   4   -0.70316976
   3   1    0.0070463244
   3   2   -0.0082120588
   3   3    0.7069899
   3   4    0.70714085
   4   1   -0.0016707226
   4   2    0.99539024
   4   3   -0.061778219
   4   4    0.073341191

BLOCK UMIX
   1   1   -0.088556678
   1   2   -0.99607114
   2   1   -0.99607114
   2   2    0.088556678

BLOCK VMIX
   1   1    0.10511132
   1   2    0.99446046
   2   1    0.99446046
   2   2   -0.10511132

BLOCK HIGGSBOUNDSINPUTHIGGSCOUPLINGSFERMIONS
       0, 142.89885,3,36,15,15

BLOCK HIGGSBOUNDSINPUTHIGGSCOUPLINGSBOSONS
       0,4,36,21,21,23

BLOCK SPHENOLOWENERGY
   1    0.00032726639
   2    1.5895796e-06
   3    3.5256247e-05
   4    2.5750617e-15
   5    1.1000375e-10
   6    2.3030403e-08
   7    8.7001366e-14
   8    3.7166967e-09
   9    7.8841725e-07
   10    9.6756547e-05
   11    0.99945809
   12    0.54212557
   13    19.370653
   14    0
   15    0
   16    0.0021579257
   17    2.2816647e-15
   18    2.4806174e-11
   19    8.2913429e-11
   20    3.7070403e-16
   21    1.5848692e-11
   22    6.4187593e-09
   23    0
   24    0
   25    0
   26    0
   27    0
   28    0
   29    0
   30    0
   31    0
   39   -2.681189e-06
   40    0
   41    0
   42    0

BLOCK FWCOEF Q=  160
   305   4422   0   0   -0.18881911
   305   4422   0   2   -0.19703245
   305   4322   0   2   -0.00015355084
   305   6421   0   0   -0.095227835
   305   6421   0   2   -0.10114923
   305   6321   0   2   -9.3936734e-05
   3051111   4133   0   0    1.614984
   3051111   4133   0   2    1.6151977
   3051111   4233   0   2    2.6847404e-05
   3051111   4137   0   0   -4.4376761
   3051111   4137   0   2   -4.4363742
   3051111   4237   0   2   -0.00020366605
   3051313   4133   0   0    1.614984
   3051313   4133   0   2    1.6151976
   3051313   4233   0   2    2.6847401e-05
   3051313   4137   0   0   -4.4376761
   3051313   4137   0   2   -4.4363743
   3051313   4237   0   2   -0.00020366606
   3051212   4137   0   0    1.5053501
   3051212   4137   0   2    1.5050683
   3051212   4237   0   2    4.4156911e-05
   3051414   4137   0   0    1.5053501
   3051414   4137   0   2    1.5050683
   3051414   4237   0   2    4.4156911e-05
   3051616   4137   0   0    1.5053501
   3051616   4137   0   2    1.5050678
   3051616   4237   0   2    4.4156933e-05

BLOCK IMFWCOEF Q=  160
   305   4422   0   0    3.8579552e-07
   305   4422   0   2   -1.6325708e-06
   305   4322   0   2   -1.6192779e-06
   305   6421   0   0    3.3045938e-07
   305   6421   0   2    2.8378253e-05
   305   6321   0   2   -1.3608349e-07
   3051111   4133   0   2   -8.1401083e-07
   3051111   4233   0   2    5.1615683e-07
   3051111   4137   0   2    1.0486659e-05
   3051111   4237   0   2   -3.9135734e-06
   3051313   4133   0   2   -8.1401026e-07
   3051313   4233   0   2    5.1615678e-07
   3051313   4137   0   2    1.048666e-05
   3051313   4237   0   2   -3.9135735e-06
   3051212   4137   0   2   -2.2650374e-06
   3051212   4237   0   2    8.4850261e-07
   3051414   4137   0   2   -2.2650374e-06
   3051414   4237   0   2    8.4850261e-07
   3051616   4137   0   2   -2.2742799e-06
   3051616   4237   0   2    8.4850226e-07

DECAY 23  2.4952


DECAY 24  2.085


DECAY 2000011  4.978927
    1   2    1000022    11

DECAY 1000011  2.7363643
    0.99288372   2    1000022    11
    0.0040881292   2   -1000024    12
    0.0030231213   2    1000023    11

DECAY 2000013  4.9789167
    1   2    1000022    13

DECAY 1000013  2.7371556
    0.9925964   2    1000022    13
    0.0040869274   2   -1000024    14
    0.0030534236   2    1000023    13
    0.00022772829   2    2000013    25

DECAY 1000015  0.63323391
    1   2    1000022    15

DECAY 2000015  19.368635
    0.8975202   2    1000022    15
    0.03024219   2    1000016   -24
    0.020974666   2   -1000024    16
    0.015088606   2    1000015    23
    0.014761035   2    1000015    25
    0.010667385   2    1000023    15
    0.010577639   2    1000025    15
    0.00011270368   2   -1000037    16

DECAY 1000012  2.744715
    0.99246711   2    1000022    12
    0.0057043444   2    1000024    11
    0.0017924698   2    1000023    12

DECAY 1000014  2.7448806
    0.99240637   2    1000022    14
    0.0057652102   2    1000024    13
    0.0017923491   2    1000023    14

DECAY 1000016  0.63215782
    1   2    1000022    16

DECAY 2000001  72.183391
    0.99262061   2    1000021    1
    0.0073793912   2    1000022    1

DECAY 1000001  160.96508
    0.99811621   2    1000021    1
    0.0018101013   2    1000022    1

DECAY 2000003  72.183348
    0.99262061   2    1000021    3
    0.0073793944   2    1000022    3

DECAY 1000003  160.96531
    0.99811472   2    1000021    3
    0.0018101006   2    1000022    3

DECAY 1000005  102.65401
    0.99815343   2    1000021    5
    0.0018465657   2    1000022    5

DECAY 2000005  228.07647
    0.98393897   2    1000021    5
    0.0070474216   2    1000022    5
    0.0025876831   2   -1000024    6
    0.0016315433   2    1000006   -24
    0.0013644069   2    1000005    25
    0.0013084008   2    1000025    5
    0.0013038546   2    1000023    5
    0.00080878426   2    1000005    23

DECAY 1000002  160.8724
    0.99811108   2    1000021    2
    0.0017915227   2    1000022    2

DECAY 2000002  343.58766
    0.97230284   2    1000021    2
    0.027688589   2    1000022    2

DECAY 1000004  160.87236
    0.99811062   2    1000021    4
    0.0017915215   2    1000022    4

DECAY 2000004  343.58923
    0.97229812   2    1000021    4
    0.027688457   2    1000022    4

DECAY 1000006  102.02122
    0.99780095   2    1000021    6
    0.0020638389   2    1000022    6
    0.0001345474   3    1000022    24    5

DECAY 2000006  264.05379
    0.70546162   2    1000021    6
    0.096513303   2    1000005    24
    0.073751774   2    1000006    25
    0.048841627   2    1000006    23
    0.0275013   2    1000024    5
    0.0204246   2    1000022    6
    0.013802873   2    1000023    6
    0.013702906   2    1000025    6

DECAY 1000024  4.567579
    0.4883891   2   -1000005    6
    0.42926271   2    1000022    24
    0.035348706   2    1000016   -15
    0.025061473   2    1000006   -5
    0.013248374   3    1000022   -5    6
    0.0062768977   2   -1000015    16
    0.0022556381   3    1000021   -5    6

DECAY 1000037  53.492399
    0.16946227   2    1000006   -5
    0.15285826   2   -1000005    6
    0.13105828   2   -1000015    16
    0.13093381   2    1000016   -15
    0.081828568   2    1000024    25
    0.074915243   2    1000023    24
    0.074394346   2    1000024    23
    0.073872084   2    1000025    24
    0.022466836   2    1000004   -3
    0.022466821   2    1000002   -1
    0.022401825   2   -1000001    2
    0.022401511   2   -1000003    4
    0.0043720941   2    1000014   -13
    0.0043720366   2    1000012   -11
    0.0043320311   2   -1000013    14
    0.0043319908   2   -1000011    12
    0.0012750545   3    1000025   -5    6
    0.0010625186   3    1000023   -5    6
    0.000911285   3    1000024    6   -6
    0.00026685696   2    1000022    24

DECAY 1000022 -1


DECAY 1000023  4.5648971
    0.36751575   2    1000022    25
    0.25824977   2    1000006   -6
    0.25824977   2   -1000006    6
    0.037227333   2    1000022    23
    0.017825782   2    1000015   -15
    0.017825782   2   -1000015    15
    0.012552007   2    1000005   -5
    0.012552007   2   -1000005    5
    0.0099630704   3    1000022    6   -6
    0.0027399545   2    1000016   -16
    0.0027399545   2   -1000016    16
    0.001807774   3    1000021    6   -6
    0.00011260102   2    2000013   -13
    0.00011260102   2   -2000013    13

DECAY 1000025  6.0129681
    0.30139278   2    1000022    23
    0.22415973   2    1000006   -6
    0.22415973   2   -1000006    6
    0.20421823   2    1000022    25
    0.010217358   2    1000015   -15
    0.010217358   2   -1000015    15
    0.0091624358   2    1000005   -5
    0.0091624358   2   -1000005    5
    0.0056948716   3    1000022    6   -6
    0.0013876695   3    1000021    6   -6

DECAY 1000035  58.77762
    0.08328768   2    1000006   -6
    0.08328768   2   -1000006    6
    0.074210797   2    1000005   -5
    0.074210797   2   -1000005    5
    0.074094057   2    1000023    25
    0.073879387   2    1000024   -24
    0.073879387   2   -1000024    24
    0.069050619   2    1000025    23
    0.059781072   2    1000016   -16
    0.059781072   2   -1000016    16
    0.059462624   2    1000015   -15
    0.059462624   2   -1000015    15
    0.054816989   2    1000025    25
    0.010230355   2    1000002   -2
    0.010230355   2   -1000002    2
    0.010230341   2    1000004   -4
    0.010230341   2   -1000004    4
    0.010179949   2    1000003   -3
    0.010179949   2   -1000003    3
    0.010179938   2    1000001   -1
    0.010179938   2   -1000001    1
    0.0019952051   2    1000014   -14
    0.0019952051   2   -1000014    14
    0.0019951786   2    1000012   -12
    0.0019951786   2   -1000012    12
    0.0019634716   2    1000013   -13
    0.0019634716   2   -1000013    13
    0.0019634498   2    1000011   -11
    0.0019634498   2   -1000011    11
    0.0010335268   3    1000024    5   -6
    0.0010335268   3   -1000024   -5    6
    0.00050347297   2    1000023    23
    0.00030057542   3    1000023    6   -6
    0.00021922643   3    1000025    6   -6
    0.00017156057   2    1000022    25

DECAY 1000021  5.3411612e-11
    0.41602823   3    1000022    1   -1
    0.41600153   3    1000022    3   -3
    0.071809753   3    1000022    5   -5
    0.048538284   3    1000022    2   -2
    0.047320944   3    1000022    4   -4
    0.00030125673   2    1000022    21

DECAY 25  0.0034797047
    0.62252807   2   -5    5
    0.17657059   2   -24    24
    0.074735843   2    21    21
    0.071318276   2   -15    15
    0.030840325   2   -4    4
    0.019971946   2    23    23
    0.0023343563   2    22    22
    0.0012183921   2    22    23
    0.00024735956   2   -13    13
    0.0002340312   2   -3    3
    6.4707375e-07   2   -1    1
    1.589385e-07   2   -2    2
    5.5609635e-09   2   -11    11

DECAY 35  11.924112
    0.67829082   2   -5    5
    0.12381857   2   -15    15
    0.092396503   2   -6    6
    0.090933595   2    1000022    1000025
    0.01344249   2    1000022    1000023
    0.00042273642   2   -13    13
    0.00028737762   2   -3    3
    0.00018649654   2    1000022    1000022
    0.00018216644   2    25    25
    1.0898684e-05   2    23    23
    1.0299949e-05   2   -1000015    1000015
    7.6657165e-06   2    21    21
    2.0250051e-06   2   -24    24
    1.1305461e-06   2   -4    4
    7.9458591e-07   2   -1    1
    1.6965471e-07   2   -1000001    1000001
    1.6939342e-07   2   -1000003    1000003
    6.3255703e-08   2    22    22
    3.3678644e-08   2   -1000011    1000011
    3.3629864e-08   2   -1000013    1000013
    1.2670034e-08   2    22    23
    9.4932885e-09   2   -11    11
    5.827117e-12   2   -2    2

DECAY 36  11.672104
    0.67487441   2   -5    5
    0.12319677   2   -15    15
    0.093830048   2    1000022    1000023
    0.093567007   2   -6    6
    0.013414185   2    1000022    1000025
    0.00042060786   2   -13    13
    0.00034025148   2    1000022    1000022
    0.00028592681   2   -3    3
    4.1967183e-05   2    21    21
    2.6780079e-05   2    23    25
    1.1378316e-06   2   -4    4
    7.9057249e-07   2   -1    1
    8.5548996e-08   2    22    22
    2.2727715e-08   2    22    23
    9.4454856e-09   2   -11    11
    5.8646826e-12   2   -2    2
    1.7116337e-37   2    25    25

DECAY 37  11.628241
    0.76924817   2   -5    6
    0.12093419   2   -15    16
    0.10790967   2    1000022    1000024
    0.0010038503   2   -5    4
    0.00042754537   2   -13    14
    0.00027348192   2   -3    4
    0.00013292814   2   -3    6
    2.6907284e-05   2    24    25
    1.6337948e-05   2   -1000015    1000016
    1.281068e-05   2   -3    2
    7.1685125e-06   2   -5    2
    6.0780528e-06   2   -1    6
    7.5570817e-07   2   -1    2
    9.0799891e-08   2   -1    4
    1.0000331e-08   2   -11    12
    2.4792207e-13   2    24    35
    1.4102485e-13   2    24    36

DECAY 6  2.43
    1   2    5    24

DECAY 15 -1
