BLOCK SPINFO
   1   SPheno
   2   v4.0.5be

BLOCK SPHENOINFO
   1   2
   2   2

BLOCK MODSEL
   1   0

BLOCK MINPAR
   3    46.449149
   4    1

BLOCK EXTPAR
   0    2191.6467
   1    339.13148
   2    4298.1525
   3    4559.3774
   11   -7438.0316
   12    4637.3298
   13    5387.8105
   23    2389.2681
   25    45.714287
   26    4613.7079
   31    649.83058
   32    649.83058
   33    2020.6834
   34    2858.6127
   35    2858.6127
   36    3614.5671
   41    2249.8548
   42    2249.8548
   43    4127.5372
   44    4961.2172
   45    4961.2172
   46    1127.9189
   47    3857.7457
   48    3857.7457
   49    1717.7307

BLOCK SMINPUTS
   1    127.90897
   2    1.1663787e-05
   3    0.1184
   4    91.1876
   5    4.18
   6    173.2
   7    1.777
   8    0
   11    0.00051099893
   12    0
   13    0.10565837
   14    0
   21    0.005
   22    0.0025
   23    0.095
   24    1.27

BLOCK GAUGE Q=  2191.6467
   1    0.35536298
   2    0.66519887
   3    1.219778

BLOCK YU Q=  2191.6467
   1   1    8.3863779e-06
   2   2    0.00426028
   3   3    1.0131418

BLOCK YD Q=  2191.6467
   1   1    0.00077038288
   2   2    0.014637275
   3   3    0.76397841

BLOCK YE Q=  2191.6467
   1   1    0.00013443745
   2   2    0.0277974
   3   3    0.46750654

BLOCK AU Q=  2191.6467
   1   1    0
   2   2    0
   3   3   -7438.0308

BLOCK AD Q=  2191.6467
   1   1    0
   2   2    0
   3   3    4637.3317

BLOCK AE Q=  2191.6467
   1   1    0
   2   2    0
   3   3    5387.8107

BLOCK MSOFT Q=  2191.6467
   1    339.13148
   2    4298.1525
   3    4559.3774
   21    15560483
   22   -5993860.2
   31    649.83058
   32    649.83058
   33    2020.6834
   34    2858.6127
   35    2858.6127
   36    3614.5671
   41    2249.8548
   42    2249.8548
   43    4127.5372
   44    4961.2172
   45    4961.2172
   46    1127.9189
   47    3857.7457
   48    3857.7457
   49    1717.7307

BLOCK MASS
   6    173.2
   23    91.1876
   24    80.429995
   15    1.777
   25    123.40748
   35    4612.5594
   36    4613.7079
   37    4612.7981
   1000001    2248.1547
   2000001    3900.6815
   1000002    2246.9376
   2000002    5007.7109
   1000003    2248.1581
   2000003    3900.6799
   1000004    2246.9414
   2000004    5007.7108
   1000005    1748.6786
   2000005    4148.6392
   1000006    1154.9483
   2000006    4158.9004
   1000011    642.28978
   2000011    2850.3025
   1000012    637.40806
   1000013    642.3339
   2000013    2850.3058
   1000014    637.47704
   1000015    2050.8602
   2000015    3614.3406
   1000016    2048.1656
   1000021    4525.7178
   1000022    338.24744
   1000023    2391.3541
   1000025   -2393.8415
   1000035    4262.107
   1000024    2391.687
   1000037    4262.164

BLOCK ALPHA
      -0.021557583

BLOCK HMIX Q=  2191.6467
   1    2389.2681
   2    45.714287
   3    243.59583
   4    21286301

BLOCK STOPMIX
   1   1    0.068425859
   1   2    0.9976562
   2   1   -0.9976562
   2   2    0.068425859

BLOCK SBOTMIX
   1   1    0.016099189
   1   2    0.9998704
   2   1   -0.9998704
   2   2    0.016099189

BLOCK STAUMIX
   1   1    0.99977243
   1   2    0.021332828
   2   1   -0.021332828
   2   2    0.99977243

BLOCK NMIX
   1   1    0.99980081
   1   2   -9.2157037e-05
   1   3    0.019669734
   1   4   -0.0033810195
   2   1    0.016298963
   2   2    0.030396965
   2   3   -0.70688678
   2   4    0.70648528
   3   1   -0.011514563
   3   2    0.0080103851
   3   3    0.70687584
   3   4    0.70719855
   4   1    0.00031121805
   4   2   -0.9995058
   4   3   -0.015834503
   4   4    0.027153672

BLOCK UMIX
   1   1   -0.022587561
   1   2    0.99974487
   2   1    0.99974487
   2   2    0.022587561

BLOCK VMIX
   1   1   -0.038639298
   1   2    0.99925322
   2   1    0.99925322
   2   2    0.038639298

BLOCK HIGGSBOUNDSINPUTHIGGSCOUPLINGSFERMIONS
       0, 2089.796,3,36,15,15

BLOCK HIGGSBOUNDSINPUTHIGGSCOUPLINGSBOSONS
       0,4,36,21,21,23

BLOCK SPHENOLOWENERGY
   1    0.00030199804
   2    1.5946658e-06
   3    3.5283075e-05
   4    2.0360082e-15
   5    8.69743e-11
   6    1.8108713e-08
   7    6.8153778e-14
   8    2.9114732e-09
   9    6.1429457e-07
   10    9.6531596e-05
   11    0.99713443
   12    0.54160353
   13    19.348811
   14    0
   15    0
   16    0.0021562247
   17    2.2816475e-15
   18    2.4823338e-11
   19    8.2955942e-11
   20    2.0138328e-15
   21    8.6115952e-11
   22    1.5046057e-08
   23    0
   24    0
   25    0
   26    0
   27    0
   28    0
   29    0
   30    0
   31    0
   39    7.1369248e-05
   40    0
   41    0
   42    0

BLOCK FWCOEF Q=  160
   305   4422   0   0   -0.18881911
   305   4422   0   2   -0.16687444
   305   4322   0   2    0.00064673809
   305   6421   0   0   -0.095227835
   305   6421   0   2   -0.083829686
   305   6321   0   2    0.00039839616
   3051111   4133   0   0    1.6060361
   3051111   4133   0   2    1.6064698
   3051111   4233   0   2    0.00033432966
   3051111   4137   0   0   -4.4287282
   3051111   4137   0   2   -4.4301579
   3051111   4237   0   2   -0.0025509335
   3051313   4133   0   0    1.6060361
   3051313   4133   0   2    1.6064659
   3051313   4233   0   2    0.00033432924
   3051313   4137   0   0   -4.4287282
   3051313   4137   0   2   -4.4301617
   3051313   4237   0   2   -0.0025509347
   3051212   4137   0   0    1.5053501
   3051212   4137   0   2    1.5056608
   3051212   4237   0   2    0.00055417735
   3051414   4137   0   0    1.5053501
   3051414   4137   0   2    1.5056608
   3051414   4237   0   2    0.00055417737
   3051616   4137   0   0    1.5053501
   3051616   4137   0   2    1.5056611
   3051616   4237   0   2    0.00055418443

BLOCK IMFWCOEF Q=  160
   305   4422   0   0    3.8594118e-07
   305   4422   0   2    1.2618261e-05
   305   4322   0   2    1.2581248e-05
   305   6421   0   0    3.3058415e-07
   305   6421   0   2   -6.9140664e-06
   305   6321   0   2    8.5319866e-06
   3051111   4133   0   2   -6.154372e-08
   3051111   4233   0   2    6.4415838e-06
   3051111   4137   0   2    1.3627728e-06
   3051111   4237   0   2   -4.9150357e-05
   3051313   4133   0   2   -6.1610678e-08
   3051313   4233   0   2    6.4415784e-06
   3051313   4137   0   2    1.3627011e-06
   3051313   4237   0   2   -4.9150382e-05
   3051212   4137   0   2   -2.9501527e-07
   3051212   4237   0   2    1.067767e-05
   3051414   4137   0   2   -2.950173e-07
   3051414   4237   0   2    1.067767e-05
   3051616   4137   0   2   -2.892034e-07
   3051616   4237   0   2    1.0677675e-05

DECAY 23  2.4952


DECAY 24  2.085


DECAY 1000011  0.42104146
    0.99999999   2    1000022    11

DECAY 2000011  13.916144
    0.99996414   2    1000022    11

DECAY 1000013  0.42111718
    0.99999999   2    1000022    13

DECAY 2000013  13.938406
    0.99836943   2    1000022    13
    0.0010455519   2    1000013    25
    0.00027512236   2   -1000024    14
    0.00016168575   2    1000023    13
    0.00014820826   2    1000025    13

DECAY 1000015  2.4466531
    1   2    1000022    15

DECAY 2000015  36.658386
    0.48637536   2    1000022    15
    0.13514847   2   -1000024    16
    0.12425061   2    1000016   -24
    0.067679235   2    1000023    15
    0.067582922   2    1000025    15
    0.061788887   2    1000015    23
    0.057174508   2    1000015    25

DECAY 1000012  0.41320972
    1   2    1000022    12

DECAY 1000014  0.41332454
    1   2    1000022    14

DECAY 1000016  2.4344142
    0.99993906   2    1000022    16

DECAY 1000001  0.29992768
    1   2    1000022    1

DECAY 2000001  2.1446193
    0.9998232   2    1000022    1
    0.00010927303   2    1000023    1

DECAY 1000003  0.29993164
    1   2    1000022    3

DECAY 2000003  2.1595955
    0.99289218   2    1000022    3
    0.0029966621   2   -1000024    4
    0.0016031209   2    1000023    3
    0.0015468866   2    1000025    3
    0.00096115522   2    1000003    25

DECAY 1000005  0.91582846
    0.99916074   2    1000022    5
    0.00083925882   2    1000006   -24

DECAY 2000005  247.19126
    0.72119842   2    1000006   -24
    0.15125089   2   -1000024    6
    0.043416167   2    1000023    5
    0.043352087   2    1000025    5
    0.024309381   2    1000005    25
    0.014124121   2    1000005    23
    0.0023489281   2    1000022    5

DECAY 1000002  0.29913025
    1   2    1000022    2

DECAY 2000002  24.351081
    0.54500978   2    1000021    2
    0.45488127   2    1000022    2

DECAY 1000004  0.2991306
    1   2    1000022    4

DECAY 2000004  24.35316
    0.54496032   2    1000021    4
    0.45484235   2    1000022    4

DECAY 1000006  2.0361829
    0.99999264   2    1000022    6

DECAY 2000006  281.21349
    0.44297647   2    1000006    25
    0.31818656   2    1000006    23
    0.076790447   2    1000024    5
    0.067549547   2    1000025    6
    0.067365918   2    1000023    6
    0.024998746   2    1000005    24
    0.0021323156   2    1000022    6

DECAY 1000024  54.234247
    0.79459967   2    1000006   -5
    0.16407376   2   -1000005    6
    0.032157215   2    1000022    24
    0.0068372842   2    1000016   -15
    0.0013090734   3    1000022   -5    6
    0.0005424881   2    1000014   -13
    0.00025009784   2    1000012   -11

DECAY 1000037  246.64533
    0.11881379   2   -1000001    2
    0.11881346   2   -1000003    4
    0.11879603   2    1000002   -1
    0.11879574   2    1000004   -3
    0.072608322   2   -1000011    12
    0.072607859   2   -1000013    14
    0.072587984   2    1000012   -11
    0.072587323   2    1000014   -13
    0.0449308   2    1000016   -15
    0.044843328   2   -1000015    16
    0.035290368   2    1000024    25
    0.034370856   2    1000025    24
    0.034257723   2    1000024    23
    0.033413683   2    1000023    24
    0.0029755601   3    1000024    6   -6
    0.001894075   3    1000023   -5    6
    0.0018106057   3    1000025   -5    6
    0.00052266793   2    2000006   -5

DECAY 1000022 -1


DECAY 1000023  54.928978
    0.399292   2    1000006   -6
    0.399292   2   -1000006    6
    0.082088404   2    1000005   -5
    0.082088404   2   -1000005    5
    0.018095801   2    1000022    25
    0.010584388   2    1000022    23
    0.0033261418   2    1000015   -15
    0.0033261418   2   -1000015    15
    0.00091091352   3    1000022    6   -6
    0.00027010397   2    1000013   -13
    0.00027010397   2   -1000013    13
    0.00012613607   2    1000011   -11
    0.00012613607   2   -1000011    11

DECAY 1000025  55.814911
    0.39623656   2    1000006   -6
    0.39623656   2   -1000006    6
    0.081172604   2    1000005   -5
    0.081172604   2   -1000005    5
    0.020924929   2    1000022    23
    0.016381212   2    1000022    25
    0.0032950851   2    1000015   -15
    0.0032950851   2   -1000015    15
    0.00091775979   3    1000022    6   -6
    0.00014213195   2    1000013   -13
    0.00014213195   2   -1000013    13

DECAY 1000035  253.69407
    0.05776851   2    1000002   -2
    0.05776851   2   -1000002    2
    0.057768331   2    1000004   -4
    0.057768331   2   -1000004    4
    0.057733131   2    1000001   -1
    0.057733131   2   -1000001    1
    0.057733006   2    1000003   -3
    0.057733006   2   -1000003    3
    0.035314657   2    1000012   -12
    0.035314657   2   -1000012    12
    0.035314307   2    1000014   -14
    0.035314307   2   -1000014    14
    0.035266343   2    1000011   -11
    0.035266343   2   -1000011    11
    0.035266145   2    1000013   -13
    0.035266145   2   -1000013    13
    0.033795338   2    1000024   -24
    0.033795338   2   -1000024    24
    0.031982924   2    1000023    25
    0.030871533   2    1000025    23
    0.029408169   2    1000025    25
    0.021854123   2    1000016   -16
    0.021854123   2   -1000016    16
    0.021785152   2    1000015   -15
    0.021785152   2   -1000015    15
    0.0021394902   2    1000023    23
    0.0018268458   3    1000024    5   -6
    0.0018268458   3   -1000024   -5    6
    0.0010727796   3    1000023    6   -6
    0.00098327457   3    1000025    6   -6
    0.0003054621   2    2000005   -5
    0.0003054621   2   -2000005    5

DECAY 1000021  541.20039
    0.10693686   2    1000006   -6
    0.10693686   2   -1000006    6
    0.089560935   2    1000005   -5
    0.089560935   2   -1000005    5
    0.070269046   2    1000002   -2
    0.070269046   2   -1000002    2
    0.070268883   2    1000004   -4
    0.070268883   2   -1000004    4
    0.070219234   2    1000001   -1
    0.070219234   2   -1000001    1
    0.070219094   2    1000003   -3
    0.070219094   2   -1000003    3
    0.0081834781   2    2000003   -3
    0.0081834781   2   -2000003    3
    0.0081834391   2    2000001   -1
    0.0081834391   2   -2000001    1
    0.0031573078   2    2000005   -5
    0.0031573078   2   -2000005    5
    0.0028407886   2    2000006   -6
    0.0028407886   2   -2000006    6

DECAY 25  0.0036588162
    0.59627392   2   -5    5
    0.2043527   2   -24    24
    0.073008705   2    21    21
    0.068629194   2   -15    15
    0.029577495   2   -4    4
    0.023960073   2    23    23
    0.0023630085   2    22    22
    0.0013717857   2    22    23
    0.00023801055   2   -13    13
    0.00022433286   2   -3    3
    6.2026289e-07   2   -1    1
    1.5242449e-07   2   -2    2
    5.3507634e-09   2   -11    11

DECAY 35  113.38783
    0.75272326   2   -5    5
    0.21682841   2   -15    15
    0.014399175   2    1000022    1000025
    0.010754206   2    1000022    1000023
    0.0034293021   2   -1000006    1000006
    0.00080482089   2   -13    13
    0.00038585096   2   -1000005    1000005
    0.00029695408   2   -6    6
    0.00022287175   2   -3    3
    0.00010362577   2   -1000015    1000015
    3.1188447e-05   2    1000022    1000022
    1.1632531e-05   2    25    25
    7.4977355e-06   2    21    21
    6.1563965e-07   2   -1    1
    1.161883e-07   2    23    23
    3.6870159e-08   2   -1000001    1000001
    3.6828671e-08   2   -1000003    1000003
    2.5441054e-08   2   -1000002    1000002
    2.5422819e-08   2   -1000004    1000004
    2.2879628e-08   2   -1000011    1000011
    2.2466041e-08   2   -1000013    1000013
    2.2051943e-08   2   -2000013    1000013
    2.2051943e-08   2   -1000013    2000013
    2.0921167e-08   2   -24    24
    1.9482305e-08   2    22    23
    1.8073456e-08   2   -11    11
    9.7598171e-09   2   -4    4
    2.2789135e-09   2    22    22
    5.1580101e-13   2   -2000011    1000011
    5.1580101e-13   2   -1000011    2000011
    5.0315715e-14   2   -2    2

DECAY 36  103.9458
    0.75404699   2   -5    5
    0.21722612   2   -15    15
    0.015785858   2    1000022    1000023
    0.01168124   2    1000022    1000025
    0.00080630856   2   -13    13
    0.00022326162   2   -3    3
    0.00018235088   2   -6    6
    3.5273379e-05   2    1000022    1000022
    1.1586392e-05   2    21    21
    6.1670902e-07   2   -1    1
    3.162162e-07   2    23    25
    2.3976822e-08   2   -2000013    1000013
    2.3976822e-08   2   -1000013    2000013
    1.8106827e-08   2   -11    11
    7.2698054e-09   2   -4    4
    5.6378763e-09   2    22    22
    1.742916e-09   2    22    23
    5.6081932e-13   2   -2000011    1000011
    5.6081932e-13   2   -1000011    2000011
    3.747721e-14   2   -2    2
    2.1133267e-14   2    23    35
    1.6863473e-37   2    25    25

DECAY 37  145.6963
    0.83638806   2   -5    6
    0.13660507   2   -15    16
    0.019621034   2    1000022    1000024
    0.004599372   2   -1000005    1000006
    0.0012408342   2   -5    4
    0.00055855838   2   -1000005    1000004
    0.00048294751   2   -13    14
    0.00026441614   2   -1000003    1000006
    0.00016601015   2   -3    4
    3.8847161e-05   2   -1000015    1000016
    1.2127323e-05   2   -1000001    1000006
    8.8608351e-06   2   -5    2
    7.8120851e-06   2   -3    2
    3.9886834e-06   2   -1000005    1000002
    1.0378034e-06   2   -3    6
    4.6025616e-07   2   -1    2
    2.2552712e-07   2    24    25
    6.9934273e-08   2   -1000011    1000012
    6.9481994e-08   2   -1000013    1000014
    4.5646235e-08   2   -1000001    1000002
    4.5538585e-08   2   -1000003    1000004
    3.6228102e-08   2   -1    6
    3.4365078e-08   2   -2000013    1000014
    2.1925945e-08   2   -1    4
    1.1296193e-08   2   -11    12
    2.4394005e-09   2   -1000003    1000002
    2.4377952e-09   2   -1000001    1000004
    8.0381089e-13   2   -2000011    1000012

DECAY 6  2.43
    1   2    5    24

DECAY 15 -1
