BLOCK SPINFO
   1   SPheno
   2   v4.0.5be

BLOCK SPHENOINFO
   1   2
   2   2

BLOCK MODSEL
   1   0

BLOCK MINPAR
   3    52.762097
   4    1

BLOCK EXTPAR
   0    1467.1653
   1   -1368.7612
   2    523.53574
   3    3000
   11    3786.8531
   12   -1056.0651
   13   -101.06482
   23    227.66955
   25    51.908487
   26    2187.3571
   31    1645.9639
   32    1645.9639
   33    1986.2589
   34    670.01511
   35    670.01511
   36    1786.9969
   41    5000
   42    5000
   43    1811.0149
   44    5000
   45    5000
   46    1312.9082
   47    5000
   48    5000
   49    1212.3493

BLOCK SMINPUTS
   1    127.90897
   2    1.1663787e-05
   3    0.1184
   4    91.1876
   5    4.18
   6    173.2
   7    1.777
   8    0
   11    0.00051099893
   12    0
   13    0.10565837
   14    0
   21    0.005
   22    0.0025
   23    0.095
   24    1.27

BLOCK GAUGE Q=  1467.1653
   1    0.35536298
   2    0.66519887
   3    1.219778

BLOCK YU Q=  1467.1653
   1   1    8.3859278e-06
   2   2    0.0042600513
   3   3    1.0130874

BLOCK YD Q=  1467.1653
   1   1    0.00087472137
   2   2    0.016619706
   3   3    0.8674495

BLOCK YE Q=  1467.1653
   1   1    0.00015264528
   2   2    0.031562202
   3   3    0.53082431

BLOCK AU Q=  1467.1653
   1   1    0
   2   2    0
   3   3    3786.8531

BLOCK AD Q=  1467.1653
   1   1    0
   2   2    0
   3   3   -1056.0651

BLOCK AE Q=  1467.1653
   1   1    0
   2   2    0
   3   3   -101.06482

BLOCK MSOFT Q=  1467.1653
   1   -1368.7612
   2    523.53574
   3    3000
   21    4812529.2
   22    12134.712
   31    1645.9639
   32    1645.9639
   33    1986.2589
   34    670.01511
   35    670.01511
   36    1786.9969
   41    5000
   42    5000
   43    1811.0149
   44    5000
   45    5000
   46    1312.9082
   47    5000
   48    5000
   49    1212.3493

BLOCK MASS
   6    173.2
   23    91.1876
   24    80.429995
   15    1.777
   25    126.16196
   35    2185.6246
   36    2187.3571
   37    2187.7357
   1000001    5029.3947
   2000001    5018.8336
   1000002    5028.9542
   2000002    5019.6991
   1000003    5029.401
   2000003    5018.8442
   1000004    5028.9601
   2000004    5019.6999
   1000005    1202.3346
   2000005    1775.6768
   1000006    1176.0707
   2000006    1830.3102
   1000011    1650.4205
   2000011    681.60163
   1000012    1648.163
   1000013    1650.4052
   2000013    681.54916
   1000014    1648.1474
   1000015    1782.7427
   2000015    1986.4222
   1000016    1984.3397
   1000021    3189.6131
   1000022    220.39485
   1000023   -231.3446
   1000025    570.45398
   1000035   -1366.0809
   1000024    222.96308
   1000037    570.72528

BLOCK ALPHA
      -0.019048386

BLOCK HMIX Q=  1467.1653
   1    227.66955
   2    51.908487
   3    243.98735
   4    4784531.2

BLOCK STOPMIX
   1   1   -0.30447895
   1   2    0.95251907
   2   1   -0.95251907
   2   2   -0.30447895

BLOCK SBOTMIX
   1   1    0.015262307
   1   2    0.99988352
   2   1   -0.99988352
   2   2    0.015262307

BLOCK STAUMIX
   1   1    0.027910705
   1   2    0.99961042
   2   1   -0.99961042
   2   2    0.027910705

BLOCK NMIX
   1   1    0.019549741
   1   2    0.16709094
   1   3   -0.70971352
   1   4    0.68410901
   2   1    0.027283883
   2   2    0.071223803
   2   3    0.70100502
   2   4    0.70906609
   3   1    0.0039644753
   3   2   -0.98336466
   3   3   -0.069813296
   3   4    0.16764344
   4   1   -0.99942868
   4   2    0.0013120713
   4   3    0.0049774946
   4   4    0.033403933

BLOCK UMIX
   1   1   -0.099371349
   1   2    0.99505042
   2   1    0.99505042
   2   2    0.099371349

BLOCK VMIX
   1   1   -0.23881477
   1   2    0.97106514
   2   1    0.97106514
   2   2    0.23881477

BLOCK HIGGSBOUNDSINPUTHIGGSCOUPLINGSFERMIONS
       0, 2694.491,3,36,15,15

BLOCK HIGGSBOUNDSINPUTHIGGSCOUPLINGSBOSONS
       0,4,36,21,21,23

BLOCK SPHENOLOWENERGY
   1    0.000386562
   2    1.5848482e-06
   3    3.518321e-05
   4    2.4257168e-15
   5    1.0362354e-10
   6    2.1671006e-08
   7    8.0773038e-14
   8    3.4506074e-09
   9    7.3099377e-07
   10    9.3032528e-05
   11    0.9609904
   12    0.54356535
   13    19.405673
   14    0
   15    0
   16    0.0021658295
   17    2.2817485e-15
   18    2.4761615e-11
   19    8.2808289e-11
   20    1.100686e-14
   21    4.7059101e-10
   22    9.9344492e-08
   23    0
   24    0
   25    0
   26    0
   27    0
   28    0
   29    0
   30    0
   31    0
   39    8.5447894e-05
   40    0
   41    0
   42    0

BLOCK FWCOEF Q=  160
   305   4422   0   0   -0.18881911
   305   4422   0   2   -0.26307955
   305   4322   0   2   -0.00058588347
   305   6421   0   0   -0.095227835
   305   6421   0   2   -0.13864478
   305   6321   0   2   -0.00042893296
   3051111   4133   0   0    1.5919127
   3051111   4133   0   2    1.592885
   3051111   4233   0   2    0.00031937722
   3051111   4137   0   0   -4.4146047
   3051111   4137   0   2   -4.4061848
   3051111   4237   0   2   -0.0024833929
   3051313   4133   0   0    1.5919127
   3051313   4133   0   2    1.5928804
   3051313   4233   0   2    0.00031937118
   3051313   4137   0   0   -4.4146047
   3051313   4137   0   2   -4.4061894
   3051313   4237   0   2   -0.0024833984
   3051212   4137   0   0    1.5053501
   3051212   4137   0   2    1.5035283
   3051212   4237   0   2    0.00054123523
   3051414   4137   0   0    1.5053501
   3051414   4137   0   2    1.5035283
   3051414   4237   0   2    0.00054123579
   3051616   4137   0   0    1.5053501
   3051616   4137   0   2    1.503528
   3051616   4237   0   2    0.00054139321

BLOCK IMFWCOEF Q=  160
   305   4422   0   0    3.8575212e-07
   305   4422   0   2    3.5767211e-05
   305   4322   0   2   -6.8430874e-06
   305   6421   0   0    3.3042221e-07
   305   6421   0   2   -6.4900324e-06
   305   6321   0   2   -3.0610507e-06
   3051111   4133   0   2   -1.3450181e-06
   3051111   4233   0   2    7.5997744e-06
   3051111   4137   0   2    1.3099927e-05
   3051111   4237   0   2   -5.9133348e-05
   3051313   4133   0   2   -1.3450188e-06
   3051313   4233   0   2    7.5997137e-06
   3051313   4137   0   2    1.3099993e-05
   3051313   4237   0   2   -5.9133494e-05
   3051212   4137   0   2   -2.6095437e-06
   3051212   4237   0   2    1.288762e-05
   3051414   4137   0   2   -2.6095426e-06
   3051414   4237   0   2    1.288762e-05
   3051616   4137   0   2   -2.614716e-06
   3051616   4237   0   2    1.288762e-05

DECAY 23  2.4952


DECAY 24  2.085


DECAY 2000011  0.0030507499
    0.65426883   2    1000023    11
    0.3440661   2    1000022    11
    0.0015832069   2    1000025    11

DECAY 1000011  17.188464
    0.64872239   2   -1000037    12
    0.31550578   2    1000025    11
    0.012849895   2    1000022    11
    0.011886987   2    1000035    11
    0.0080447833   2   -1000024    12
    0.0029901711   2    1000023    11

DECAY 2000013  0.024382852
    0.43737047   2   -1000024    14
    0.29491903   2    1000023    13
    0.26678183   2    1000022    13
    0.00048828872   2   -1000037    14
    0.00044038842   2    1000025    13

DECAY 1000013  17.219925
    0.64752792   2   -1000037    14
    0.31493218   2    1000025    13
    0.013749062   2    1000022    13
    0.011864203   2    1000035    13
    0.0080300056   2   -1000024    14
    0.0038817939   2    1000023    13

DECAY 1000015  20.8935
    0.46173946   2   -1000024    16
    0.23632988   2    1000022    15
    0.22658996   2    1000023    15
    0.072936573   2    1000035    15
    0.0016043805   2   -1000037    16
    0.00079975145   2    1000025    15

DECAY 2000015  33.690089
    0.43416094   2   -1000037    16
    0.21252036   2    1000025    15
    0.16859657   2    1000022    15
    0.16054333   2    1000023    15
    0.020506042   2    1000035    15
    0.0030136347   2   -1000024    16
    0.00033501816   2    1000015    25
    0.00032411512   2    1000015    23

DECAY 1000012  17.250623
    0.61429903   2    1000037    11
    0.31641967   2    1000025    12
    0.046228341   2    1000024    11
    0.011802732   2    1000035    12
    0.0099533875   2    1000022    12
    0.0012968403   2    1000023    12

DECAY 1000014  17.281776
    0.61319745   2    1000037    13
    0.31584466   2    1000025    14
    0.047947686   2    1000024    13
    0.011780368   2    1000035    14
    0.0099353441   2    1000022    14
    0.0012944893   2    1000023    14

DECAY 1000016  33.750495
    0.41342116   2    1000037    15
    0.34688082   2    1000024    15
    0.21150135   2    1000025    16
    0.020515926   2    1000035    16
    0.0061944411   2    1000022    16
    0.00080802385   2    1000023    16
    0.0006782845   2    1000015    24

DECAY 2000001  143.17148
    0.98321755   2    1000021    1
    0.016759127   2    1000035    1

DECAY 1000001  207.20584
    0.6846721   2    1000021    1
    0.20614813   2   -1000037    2
    0.1008144   2    1000025    1
    0.0029459845   2    1000035    1
    0.0028490064   2    1000022    1
    0.0021016507   2   -1000024    2
    0.00046873393   2    1000023    1

DECAY 2000003  143.22736
    0.98284161   2    1000021    3
    0.01675264   2    1000035    3
    0.00018990163   2   -1000024    4
    0.00010872224   2    1000023    3
    0.00010406321   2    1000022    3

DECAY 1000003  207.23582
    0.68457616   2    1000021    3
    0.20611906   2   -1000037    4
    0.10080058   2    1000025    3
    0.002945566   2    1000035    3
    0.0029153241   2    1000022    3
    0.0021095723   2   -1000024    4
    0.00053374492   2    1000023    3

DECAY 1000005  32.695895
    0.48600227   2   -1000024    6
    0.25989824   2    1000022    5
    0.25051176   2    1000023    5
    0.0023310307   2   -1000037    6
    0.0012566936   2    1000025    5

DECAY 2000005  139.89088
    0.43393348   2    1000006   -24
    0.23210461   2   -1000024    6
    0.10328619   2   -1000037    6
    0.093881116   2    1000022    5
    0.090597988   2    1000023    5
    0.044440383   2    1000025    5
    0.00097043402   2    1000005    25
    0.00048385409   2    1000005    23
    0.00030194153   2    1000035    5

DECAY 2000002  150.47143
    0.93611644   2    1000021    2
    0.06379883   2    1000035    2

DECAY 1000002  207.20335
    0.68445894   2    1000021    2
    0.19631394   2    1000037    1
    0.10051725   2    1000025    2
    0.012137812   2    1000024    1
    0.0030962135   2    1000022    2
    0.00286008   2    1000035    2
    0.00061576036   2    1000023    2

DECAY 2000004  150.47506
    0.93609402   2    1000021    4
    0.063797297   2    1000035    4

DECAY 1000004  207.23324
    0.68436292   2    1000021    4
    0.19628716   2    1000037    3
    0.10050312   2    1000025    4
    0.012267216   2    1000024    3
    0.0030998493   2    1000022    4
    0.0028596815   2    1000035    4
    0.00062005592   2    1000023    4

DECAY 1000006  42.994881
    0.43470844   2    1000024    5
    0.25126423   2    1000023    6
    0.22593258   2    1000022    6
    0.058276211   2    1000037    5
    0.029623292   2    1000025    6
    0.00011760838   2    1000022    4

DECAY 2000006  146.29565
    0.23537279   2    1000006    23
    0.21228782   2    1000024    5
    0.20904176   2    1000006    25
    0.12297432   2    1000023    6
    0.12029666   2    1000022    6
    0.060901812   2    1000037    5
    0.036771055   2    1000025    6
    0.001274816   2    1000035    6
    0.001078969   2    1000005    24

DECAY 1000024  1.0818417e-10
    0.50384311   3    1000022   -1    2
    0.16796703   3    1000022   -11    12
    0.16656455   3    1000022   -13    14
    0.14952153   3    1000022   -3    4
    0.012103766   3    1000022   -15    16

DECAY 1000037  4.636453
    0.28275889   2    1000023    24
    0.25252909   2    1000022    24
    0.24753867   2    1000024    23
    0.2156745   2    1000024    25
    0.00076163551   3    1000022   -5    6
    0.00072562607   3    1000023   -5    6

DECAY 1000022 -1


DECAY 1000023  9.1160807e-07
    0.20277752   2    1000022    22
    0.11122889   3    1000022    12   -12
    0.083171256   3    1000022    1   -1
    0.083098711   3    1000022    3   -3
    0.064866979   3    1000022    2   -2
    0.0601735   3    1000024    1   -2
    0.0601735   3   -1000024   -1    2
    0.054210331   3    1000022    4   -4
    0.053815394   3    1000024    3   -4
    0.053815394   3   -1000024   -3    4
    0.020058025   3    1000024    11   -12
    0.020058025   3   -1000024   -11    12
    0.020042923   3    1000024    13   -14
    0.020042923   3   -1000024   -13    14
    0.018767657   3    1000022    11   -11
    0.018743508   3    1000022    13   -13
    0.016196546   3    1000024    15   -16
    0.016196546   3   -1000024   -15    16
    0.012793392   3    1000022    15   -15
    0.0097689852   3    1000022    5   -5

DECAY 1000025  5.4036935
    0.22639723   2    1000024   -24
    0.22639723   2   -1000024    24
    0.20754654   2    1000023    23
    0.15662479   2    1000023    25
    0.14891028   2    1000022    25
    0.032814174   2    1000022    23
    0.00064219621   3    1000024    5   -6
    0.00064219621   3   -1000024   -5    6

DECAY 1000035  12.087009
    0.16000006   2    2000013   -13
    0.16000006   2   -2000013    13
    0.15998374   2    2000011   -11
    0.15998374   2   -2000011    11
    0.073115481   2    1000024   -24
    0.073115481   2   -1000024    24
    0.046357167   2    1000022    23
    0.046092642   2    1000022    25
    0.045537861   2    1000023    25
    0.026947683   2    1000023    23
    0.012931321   2    1000006   -6
    0.012931321   2   -1000006    6
    0.0047921493   2    1000005   -5
    0.0047921493   2   -1000005    5
    0.0022764557   3    1000024    5   -6
    0.0022764557   3   -1000024   -5    6
    0.0017749507   2    1000037   -24
    0.0017749507   2   -1000037    24
    0.0014514402   2    1000025    23
    0.0013433945   2    1000025    25
    0.0010404214   3    1000023    6   -6
    0.0010227364   3    1000022    6   -6

DECAY 1000021  230.91504
    0.16353389   2    1000006   -6
    0.16353389   2   -1000006    6
    0.15044802   2    1000005   -5
    0.15044802   2   -1000005    5
    0.097362953   2    2000005   -5
    0.097362953   2   -2000005    5
    0.082999821   2    2000006   -6
    0.082999821   2   -2000006    6
    0.0055039784   2    1000006   -4
    0.0055039784   2   -1000006    4

DECAY 25  0.0040467282
    0.55610683   2   -5    5
    0.24721457   2   -24    24
    0.070055759   2    21    21
    0.064247982   2   -15    15
    0.030613637   2    23    23
    0.027383792   2   -4    4
    0.002352374   2    22    22
    0.0015922755   2    22    23
    0.00022281797   2   -13    13
    0.00020924449   2   -3    3
    5.7853941e-07   2   -1    1
    1.4111184e-07   2   -2    2
    5.0091817e-09   2   -11    11

DECAY 35  91.821734
    0.59588057   2   -5    5
    0.13991295   2   -15    15
    0.078063198   2   -1000024    1000037
    0.078063198   2   -1000037    1000024
    0.043990975   2    1000023    1000025
    0.035951495   2    1000022    1000025
    0.011765124   2   -1000024    1000024
    0.0057187167   2    1000022    1000035
    0.0038438875   2    1000023    1000035
    0.0026363258   2    1000022    1000022
    0.0013868819   2   -1000037    1000037
    0.00070613547   2    1000025    1000025
    0.00062104165   2    1000022    1000023
    0.00048514464   2   -13    13
    0.00033412599   2    1000023    1000023
    0.00028310646   2   -3    3
    0.00026531889   2   -6    6
    7.8703254e-05   2    1000025    1000035
    1.0600981e-05   2    21    21
    1.2072264e-06   2    25    25
    7.8274669e-07   2   -1    1
    2.5383306e-07   2    23    23
    1.185342e-07   2   -24    24
    6.3136273e-08   2    22    23
    2.4689081e-08   2   -1000011    1000011
    2.426833e-08   2   -1000013    1000013
    1.3785881e-08   2    22    22
    1.0897137e-08   2   -11    11
    4.239361e-09   2   -4    4
    2.1854658e-14   2   -2    2

DECAY 36  87.132838
    0.58416259   2   -5    5
    0.13717212   2   -15    15
    0.081445865   2   -1000024    1000037
    0.081445865   2   -1000037    1000024
    0.045237458   2    1000022    1000025
    0.038464834   2    1000023    1000025
    0.013362393   2   -1000024    1000024
    0.0059085765   2    1000023    1000035
    0.0042618561   2    1000022    1000035
    0.0031137274   2    1000022    1000022
    0.0023104724   2   -1000037    1000037
    0.0011701315   2    1000025    1000025
    0.00053486373   2    1000022    1000023
    0.00047563863   2   -13    13
    0.00034148748   2    1000023    1000023
    0.00027752963   2   -3    3
    0.00026969579   2   -6    6
    2.5796901e-05   2    1000025    1000035
    1.769735e-05   2    21    21
    7.6732674e-07   2   -1    1
    3.701921e-07   2    23    25
    1.5182269e-07   2    22    23
    9.7754274e-08   2    22    22
    1.0683632e-08   2   -11    11
    4.1371816e-09   2   -4    4
    1.9670631e-13   2    23    35
    2.1330497e-14   2   -2    2
    7.1118968e-38   2    25    25

DECAY 37  88.260803
    0.58700622   2   -5    6
    0.13799585   2   -15    16
    0.091165169   2    1000022    1000037
    0.084974176   2    1000024    1000025
    0.082800603   2    1000023    1000037
    0.0098561468   2    1000024    1000035
    0.0038576085   2    1000023    1000024
    0.00087206152   2   -5    4
    0.00058892892   2    1000022    1000024
    0.00048786489   2   -13    14
    0.00026586997   2   -3    4
    0.00010875586   2    1000035    1000037
    1.2406579e-05   2   -3    2
    6.2274213e-06   2   -5    2
    9.050626e-07   2   -3    6
    7.3789367e-07   2   -1    2
    3.660828e-07   2    24    25
    3.7892196e-08   2    1000025    1000037
    3.4549979e-08   2   -1    4
    2.3628308e-08   2   -1    6
    1.141121e-08   2   -11    12
    6.4637695e-13   2    24    35

DECAY 6  2.43
    1   2    5    24

DECAY 15 -1
