BLOCK SPINFO
   1   SPheno
   2   v4.0.5be

BLOCK SPHENOINFO
   1   2
   2   2

BLOCK MODSEL
   1   0

BLOCK MINPAR
   3    31.897151
   4    1

BLOCK EXTPAR
   0    1394.3864
   1   -267.87338
   2    1493.8429
   3    3000
   11   -3542.1809
   12    616.34818
   13    498.89731
   23    307.8062
   25    31.049342
   26    390.26141
   31    475.39693
   32    475.39693
   33    1621.149
   34    1217.9589
   35    1217.9589
   36    1303.489
   41    5000
   42    5000
   43    1259.3164
   44    5000
   45    5000
   46    1713.9399
   47    5000
   48    5000
   49    1202.9605

BLOCK SMINPUTS
   1    127.90897
   2    1.1663787e-05
   3    0.1184
   4    91.1876
   5    4.18
   6    173.2
   7    1.777
   8    0
   11    0.00051099893
   12    0
   13    0.10565837
   14    0
   21    0.005
   22    0.0025
   23    0.095
   24    1.27

BLOCK GAUGE Q=  1394.3864
   1    0.35536298
   2    0.66519887
   3    1.219778

BLOCK YU Q=  1394.3864
   1   1    8.3887195e-06
   2   2    0.0042614695
   3   3    1.0134247

BLOCK YD Q=  1394.3864
   1   1    0.00052339349
   2   2    0.0099444763
   3   3    0.51904233

BLOCK YE Q=  1394.3864
   1   1    9.1335991e-05
   2   2    0.018885386
   3   3    0.31762113

BLOCK AU Q=  1394.3864
   1   1    0
   2   2    0
   3   3   -3542.1808

BLOCK AD Q=  1394.3864
   1   1    0
   2   2    0
   3   3    616.34818

BLOCK AE Q=  1394.3864
   1   1    0
   2   2    0
   3   3    498.89731

BLOCK MSOFT Q=  1394.3864
   1   -267.87338
   2    1493.8429
   3    3000
   21    58243.147
   22   -76185.112
   31    475.39693
   32    475.39693
   33    1621.149
   34    1217.9589
   35    1217.9589
   36    1303.489
   41    5000
   42    5000
   43    1259.3164
   44    5000
   45    5000
   46    1713.9399
   47    5000
   48    5000
   49    1202.9605

BLOCK MASS
   6    173.2
   23    91.1876
   24    80.429995
   15    1.777
   25    123.38248
   35    390.307
   36    390.26141
   37    400.44636
   1000001    5023.5065
   2000001    5015.2866
   1000002    5023.0769
   2000002    5016.9855
   1000003    5023.5094
   2000003    5015.2909
   1000004    5023.0797
   2000004    5016.9864
   1000005    1182.3869
   2000005    1228.1758
   1000006    1152.2107
   2000006    1687.4634
   1000011    500.08949
   2000011    1219.0512
   1000012    493.50343
   1000013    500.08086
   2000013    1219.0421
   1000014    493.49872
   1000015    1301.1926
   2000015    1630.7095
   1000016    1628.3396
   1000021    3183.5078
   1000022   -253.91862
   1000023    311.59905
   1000025   -329.94362
   1000035    1528.9581
   1000024    312.09704
   1000037    1529.1752

BLOCK ALPHA
      -0.036961022

BLOCK HMIX Q=  1394.3864
   1    307.8062
   2    31.049342
   3    244.05896
   4    152303.97

BLOCK STOPMIX
   1   1    0.93824798
   1   2    0.34596347
   2   1   -0.34596347
   2   2    0.93824798

BLOCK SBOTMIX
   1   1    0.19551682
   1   2    0.98070035
   2   1   -0.98070035
   2   2    0.19551682

BLOCK STAUMIX
   1   1    0.016940373
   1   2    0.9998565
   2   1   -0.9998565
   2   2    0.016940373

BLOCK NMIX
   1   1    0.89400813
   1   2    0.012165558
   1   3    0.34962527
   1   4    0.27993505
   2   1   -0.055357936
   2   2   -0.048121604
   2   3    0.70667816
   2   4   -0.7037228
   3   1   -0.4446157
   3   2    0.027406524
   3   3    0.61498067
   3   4    0.65066468
   4   1    0.0013568321
   4   2   -0.9983913
   4   3   -0.012919401
   4   4    0.055191079

BLOCK UMIX
   1   1   -0.018271802
   1   2    0.99983306
   2   1    0.99983306
   2   2    0.018271802

BLOCK VMIX
   1   1   -0.078109603
   1   2    0.99694478
   2   1    0.99694478
   2   2    0.078109603

BLOCK HIGGSBOUNDSINPUTHIGGSCOUPLINGSFERMIONS
       0, 964.06163,3,36,15,15

BLOCK HIGGSBOUNDSINPUTHIGGSCOUPLINGSBOSONS
       0,4,36,21,21,23

BLOCK SPHENOLOWENERGY
   1    0.00037212823
   2    1.5897487e-06
   3    3.5304299e-05
   4    4.1370261e-15
   5    1.7671761e-10
   6    3.6317614e-08
   7    1.3869332e-13
   8    5.9246087e-09
   9    1.2347785e-06
   10    6.9222087e-05
   11    0.71503765
   12    0.54238654
   13    19.284197
   14    0
   15    0
   16    0.0021596651
   17    2.2817223e-15
   18    2.4822994e-11
   19    8.2962646e-11
   20    2.4173959e-15
   21    1.0332956e-10
   22    4.4706043e-08
   23    0
   24    0
   25    0
   26    0
   27    0
   28    0
   29    0
   30    0
   31    0
   39    8.6684115e-05
   40    0
   41    0
   42    0

BLOCK FWCOEF Q=  160
   305   4422   0   0   -0.18881911
   305   4422   0   2   -0.2335108
   305   4322   0   2   -0.0017153276
   305   6421   0   0   -0.095227835
   305   6421   0   2   -0.17478575
   305   6321   0   2   -0.0019886223
   3051111   4133   0   0    1.5894671
   3051111   4133   0   2    1.5914268
   3051111   4233   0   2   -0.00019253992
   3051111   4137   0   0   -4.4121592
   3051111   4137   0   2   -4.4154587
   3051111   4237   0   2    0.0015103742
   3051313   4133   0   0    1.5894671
   3051313   4133   0   2    1.5914233
   3051313   4233   0   2   -0.00019264452
   3051313   4137   0   0   -4.4121592
   3051313   4137   0   2   -4.4154622
   3051313   4237   0   2    0.0015104769
   3051212   4137   0   0    1.5053501
   3051212   4137   0   2    1.5060783
   3051212   4237   0   2   -0.00032936619
   3051414   4137   0   0    1.5053501
   3051414   4137   0   2    1.5060783
   3051414   4237   0   2   -0.00032934344
   3051616   4137   0   0    1.5053501
   3051616   4137   0   2    1.506079
   3051616   4237   0   2   -0.00032293259

BLOCK IMFWCOEF Q=  160
   305   4422   0   0    3.8585988e-07
   305   4422   0   2    2.3936039e-05
   305   4322   0   2    6.3639724e-06
   305   6421   0   0    3.305145e-07
   305   6421   0   2   -1.6035416e-06
   305   6321   0   2    2.3760914e-06
   3051111   4133   0   2   -2.3064055e-07
   3051111   4233   0   2    3.4512058e-06
   3051111   4137   0   2    2.5414851e-06
   3051111   4237   0   2   -2.6955835e-05
   3051313   4133   0   2   -2.3068947e-07
   3051313   4233   0   2    3.4511984e-06
   3051313   4137   0   2    2.5414297e-06
   3051313   4237   0   2   -2.6955864e-05
   3051212   4137   0   2   -4.2709649e-07
   3051212   4237   0   2    5.8778408e-06
   3051414   4137   0   2   -4.270969e-07
   3051414   4237   0   2    5.8778408e-06
   3051616   4137   0   2   -4.14169e-07
   3051616   4237   0   2    5.8778637e-06

DECAY 23  2.4952


DECAY 24  2.085


DECAY 1000011  0.32735242
    0.88846848   2    1000022    11
    0.094666856   2    1000025    11
    0.015191089   2    1000023    11
    0.0016735147   2   -1000024    12

DECAY 2000011  5.5364129
    0.80919794   2    1000022    11
    0.18784012   2    1000025    11
    0.0029619089   2    1000023    11

DECAY 1000013  0.32866746
    0.88561852   2    1000022    13
    0.095572426   2    1000025    13
    0.017142274   2    1000023    13
    0.0016667165   2   -1000024    14

DECAY 2000013  5.5516908
    0.80713732   2    1000022    13
    0.1878284   2    1000025    13
    0.0036335669   2    1000023    13
    0.0013600246   2   -1000024    14

DECAY 1000015  10.626333
    0.48444588   2    1000022    15
    0.2184416   2   -1000024    16
    0.18622018   2    1000025    15
    0.11089235   2    1000023    15

DECAY 2000015  5.3561733
    0.37274679   2    1000022    15
    0.29037285   2    1000023    15
    0.27154015   2    1000025    15
    0.03900097   2   -1000037    16
    0.019500642   2    1000035    15
    0.0033575583   2    1000015    23
    0.0032231734   2    1000015    25
    0.00025786388   2   -1000024    16

DECAY 1000012  0.31082619
    0.81842328   2    1000022    12
    0.15000299   2    1000025    12
    0.030704343   2    1000024    11
    0.00086937996   2    1000023    12

DECAY 1000014  0.31207524
    0.81512865   2    1000022    14
    0.14939658   2    1000025    14
    0.0346089   2    1000024    13
    0.00086587018   2    1000023    14

DECAY 1000016  5.390101
    0.57737037   2    1000024    15
    0.27420907   2    1000022    16
    0.085821671   2    1000025    16
    0.036866884   2    1000037    15
    0.018588546   2    1000035    16
    0.0067188898   2    1000015    24
    0.00042457424   2    1000023    16

DECAY 2000001  143.9137
    0.98065684   2    1000021    1
    0.015470697   2    1000022    1
    0.003812992   2    1000025    1

DECAY 1000001  197.30606
    0.71962213   2    1000021    1
    0.18445614   2   -1000037    2
    0.09201213   2    1000035    1
    0.0024103726   2    1000022    1
    0.001262091   2    1000025    1
    0.00016288509   2    1000023    1

DECAY 2000003  143.93367
    0.98052384   2    1000021    3
    0.015476874   2    1000022    3
    0.0038381017   2    1000025    3

DECAY 1000003  197.31799
    0.71958017   2    1000021    3
    0.18444519   2   -1000037    4
    0.09200665   2    1000035    3
    0.0024163017   2    1000022    3
    0.0012807456   2    1000025    3
    0.00018762745   2    1000023    3

DECAY 1000005  11.584808
    0.47334853   2   -1000024    6
    0.2387054   2    1000023    5
    0.15898061   2    1000025    5
    0.12896546   2    1000022    5

DECAY 2000005  26.391258
    0.77643445   2   -1000024    6
    0.10835884   2    1000023    5
    0.095576488   2    1000025    5
    0.019630223   2    1000022    5

DECAY 2000002  152.4454
    0.92693394   2    1000021    2
    0.058439387   2    1000022    2
    0.014403075   2    1000025    2
    0.00022348751   2    1000023    2

DECAY 1000002  197.30202
    0.71941011   2    1000021    2
    0.18337364   2    1000037    1
    0.091913911   2    1000035    2
    0.003273875   2    1000022    2
    0.0013569526   2    1000024    1
    0.00037380044   2    1000023    2
    0.00029771773   2    1000025    2

DECAY 2000004  152.44902
    0.9269121   2    1000021    4
    0.058438939   2    1000022    4
    0.014407703   2    1000025    4
    0.00022932741   2    1000023    4

DECAY 1000004  197.31387
    0.71936806   2    1000021    4
    0.18336279   2    1000037    3
    0.091908487   2    1000035    4
    0.0032743941   2    1000022    4
    0.0014064136   2    1000024    3
    0.00037829502   2    1000023    4
    0.00030156276   2    1000025    4

DECAY 1000006  26.290419
    0.34141576   2    1000023    6
    0.32341584   2    1000025    6
    0.29560343   2    1000024    5
    0.039452623   2    1000022    6

DECAY 2000006  150.12757
    0.24854556   2    2000005    24
    0.18717551   2    1000024    5
    0.16668334   2    1000006    23
    0.15195258   2    1000006    25
    0.10580081   2    1000023    6
    0.08202249   2    1000025    6
    0.043105821   2    1000022    6
    0.012630979   2    1000005    24
    0.00065959597   2    1000037    5
    0.00060935945   2    2000005    37
    0.00054704871   2    1000006    36
    0.00026528127   2    1000006    35

DECAY 1000024  0.00082039527
    0.33383379   3    1000022   -1    2
    0.33326635   3    1000022   -3    4
    0.11097326   3    1000022   -11    12
    0.11097221   3    1000022   -13    14
    0.1109544   3    1000022   -15    16

DECAY 1000037  51.78937
    0.10366521   2    1000014   -13
    0.10366474   2    1000012   -11
    0.10361673   2   -1000013    14
    0.10361587   2   -1000011    12
    0.06618465   2    1000023    24
    0.065991948   2    1000024    23
    0.065341887   2    1000024    25
    0.058240574   2    1000006   -5
    0.054483068   2    1000024    36
    0.054424771   2    37    1000023
    0.054147122   2    1000024    35
    0.053992626   2    1000025    24
    0.043795219   2    37    1000025
    0.034859413   2   -2000005    6
    0.01346988   2    37    1000022
    0.012513381   2    1000022    24
    0.0023742975   3    1000024    6   -6
    0.0020043267   3    1000023   -5    6
    0.0016241538   2   -1000005    6
    0.001512991   3    1000025   -5    6
    0.00036613429   3    1000022   -5    6

DECAY 1000022 -1


DECAY 1000023  0.00052090253
    0.20362183   3    1000022    12   -12
    0.15239182   3    1000022    1   -1
    0.15238808   3    1000022    3   -3
    0.14628501   3    1000022    5   -5
    0.1188539   3    1000022    2   -2
    0.11821553   3    1000022    4   -4
    0.034170858   3    1000022    13   -13
    0.034170404   3    1000022    11   -11
    0.034072371   3    1000022    15   -15
    0.0058301899   2    1000022    22

DECAY 1000025  3.7148926e-05
    0.11649086   3    1000022    12   -12
    0.080576053   3    1000022    5   -5
    0.077486166   3    1000022    1   -1
    0.077485735   3    1000022    3   -3
    0.060507142   3    1000022    2   -2
    0.060403538   3    1000022    4   -4
    0.053362001   3    1000024    1   -2
    0.053362001   3   -1000024   -1    2
    0.052069765   3    1000024    3   -4
    0.052069765   3   -1000024   -3    4
    0.030104479   3    1000023    12   -12
    0.0252437   2    1000023    22
    0.022503895   3    1000023    1   -1
    0.022496989   3    1000023    3   -3
    0.017809283   3    1000024    11   -12
    0.017809283   3   -1000024   -11    12
    0.017807141   3    1000024    13   -14
    0.017807141   3   -1000024   -13    14
    0.017550937   3    1000023    2   -2
    0.016974627   3    1000024    15   -16
    0.016974627   3   -1000024   -15    16
    0.016822765   3    1000022    15   -15
    0.016474147   3    1000023    4   -4
    0.013981503   3    1000022    13   -13
    0.013971609   3    1000022    11   -11
    0.012233477   3    1000023    5   -5
    0.005088589   3    1000023    11   -11
    0.0050864575   3    1000023    13   -13
    0.004998194   2    1000022    22
    0.0044481323   3    1000023    15   -15

DECAY 1000035  53.100244
    0.064790629   2    1000024   -24
    0.064790629   2   -1000024    24
    0.052761654   2    37   -1000024
    0.052761654   2   -37    1000024
    0.050762907   2    1000014   -14
    0.050762907   2   -1000014    14
    0.050762682   2    1000012   -12
    0.050762682   2   -1000012    12
    0.050300067   2    1000013   -13
    0.050300067   2   -1000013    13
    0.050299645   2    1000011   -11
    0.050299645   2   -1000011    11
    0.046053258   2    1000023    25
    0.038363803   2    1000025    23
    0.035914053   2    1000023    35
    0.033073916   2    1000025    25
    0.03241879   2    1000025    35
    0.023081966   2    1000006   -6
    0.023081966   2   -1000006    6
    0.023070036   2    2000005   -5
    0.023070036   2   -2000005    5
    0.017880023   2    1000023    23
    0.016950436   2    1000023    36
    0.010948424   2    1000025    36
    0.0093044505   2    1000022    35
    0.0084257508   2    1000022    23
    0.0070827496   2    1000022    25
    0.0040077237   2    1000022    36
    0.0018629073   3    1000024    5   -6
    0.0018629073   3   -1000024   -5    6
    0.001091546   3    1000023    6   -6
    0.0010090326   2    1000005   -5
    0.0010090326   2   -1000005    5
    0.00084289408   3    1000025    6   -6
    0.00018563463   3    1000022    6   -6

DECAY 1000021  257.41423
    0.13586158   2    1000005   -5
    0.13586158   2   -1000005    5
    0.13276218   2    2000005   -5
    0.13276218   2   -2000005    5
    0.12689242   2    1000006   -6
    0.12689242   2   -1000006    6
    0.10354996   2    2000006   -6
    0.10354996   2   -2000006    6
    0.00056596894   2    1000006   -4
    0.00056596894   2   -1000006    4
    0.00020808291   3    1000035    6   -6
    0.00014068129   3    1000037    5   -6
    0.00014068129   3   -1000037   -5    6

DECAY 25  0.0046766079
    0.66358563   2   -5    5
    0.15944006   2   -24    24
    0.075764369   2   -15    15
    0.05590872   2    21    21
    0.023181441   2   -4    4
    0.018684672   2    23    23
    0.001850552   2    22    22
    0.0010723048   2    22    23
    0.00026581356   2   -13    13
    0.00024563677   2   -3    3
    6.7914938e-07   2   -1    1
    1.1946322e-07   2   -2    2
    5.9758084e-09   2   -11    11

DECAY 35  7.1015878
    0.87532925   2   -5    5
    0.12272249   2   -15    15
    0.00045949546   2   -6    6
    0.00045590417   2   -13    13
    0.00037068617   2    25    25
    0.00031440271   2   -3    3
    0.00024629206   2    21    21
    6.8719239e-05   2   -24    24
    3.154946e-05   2    23    23
    8.6921267e-07   2   -1    1
    2.0539514e-07   2    22    22
    7.3684723e-08   2    22    23
    5.0077887e-08   2   -4    4
    1.0245724e-08   2   -11    11
    2.5831996e-13   2   -2    2

DECAY 36  7.0398287
    0.87480659   2   -5    5
    0.12263039   2   -15    15
    0.0014995225   2   -6    6
    0.00045552382   2   -13    13
    0.00031414813   2   -3    3
    0.00024227623   2    21    21
    5.0489408e-05   2    23    25
    8.6850875e-07   2   -1    1
    1.2690514e-07   2    22    22
    3.4559477e-08   2   -4    4
    2.4312413e-08   2    22    23
    1.0237174e-08   2   -11    11
    1.7816854e-13   2   -2    2
    5.8675979e-36   2    25    25

DECAY 37  4.8781624
    0.83005896   2   -5    6
    0.1670207   2   -15    16
    0.001796365   2   -5    4
    0.00059050055   2   -13    14
    0.00041070932   2   -3    4
    8.5555117e-05   2    24    25
    1.8707713e-05   2   -3    2
    1.2828154e-05   2   -5    2
    4.2357208e-06   2   -3    6
    1.1392008e-06   2   -1    2
    1.7625297e-07   2   -1    6
    5.4164335e-08   2   -1    4
    2.9718136e-08   2    24    36
    2.9060677e-08   2    24    35
    1.3811871e-08   2   -11    12

DECAY 6  2.43
    1   2    5    24

DECAY 15 -1
