BLOCK SPINFO
   1   SPheno
   2   v4.0.5be

BLOCK SPHENOINFO
   1   2
   2   2

BLOCK MODSEL
   1   0

BLOCK MINPAR
   3    46.695382
   4   -1

BLOCK EXTPAR
   0    1409.8581
   1   -1897.8399
   2    779.72713
   3    3000
   11   -2982.9385
   12   -335.3562
   13   -728.13603
   23   -193.79623
   25    46.070987
   26    2757.1816
   31    1519.9149
   32    1519.9149
   33    393.44441
   34    1673.5342
   35    1673.5342
   36    1354.6642
   41    5000
   42    5000
   43    1453.1539
   44    5000
   45    5000
   46    1485.9638
   47    5000
   48    5000
   49    1395.1056

BLOCK SMINPUTS
   1    127.90897
   2    1.1663787e-05
   3    0.1184
   4    91.1876
   5    4.18
   6    173.2
   7    1.777
   8    0
   11    0.00051099893
   12    0
   13    0.10565837
   14    0
   21    0.005
   22    0.0025
   23    0.095
   24    1.27

BLOCK GAUGE Q=  1409.8581
   1    0.35536298
   2    0.66519887
   3    1.219778

BLOCK YU Q=  1409.8581
   1   1    8.386347e-06
   2   2    0.0042602643
   3   3    1.0131381

BLOCK YD Q=  1409.8581
   1   1    0.00077639118
   2   2    0.014751432
   3   3    0.76993676

BLOCK YE Q=  1409.8581
   1   1    0.00013548594
   2   2    0.028014195
   3   3    0.47115267

BLOCK AU Q=  1409.8581
   1   1    0
   2   2    0
   3   3   -2982.9385

BLOCK AD Q=  1409.8581
   1   1    0
   2   2    0
   3   3   -335.35622

BLOCK AE Q=  1409.8581
   1   1    0
   2   2    0
   3   3   -728.13603

BLOCK MSOFT Q=  1409.8581
   1   -1897.8399
   2    779.72713
   3    3000
   21    7618148.9
   22   -4222.7914
   31    1519.9149
   32    1519.9149
   33    393.44441
   34    1673.5342
   35    1673.5342
   36    1354.6642
   41    5000
   42    5000
   43    1453.1539
   44    5000
   45    5000
   46    1485.9638
   47    5000
   48    5000
   49    1395.1056

BLOCK MASS
   6    173.2
   23    91.1876
   24    80.429995
   15    1.777
   25    123.68844
   35    2755.1645
   36    2757.1816
   37    2757.0703
   1000001    5025.2997
   2000001    5015.0525
   1000002    5024.8537
   2000002    5016.3148
   1000003    5025.3058
   2000003    5015.0629
   1000004    5024.8596
   2000004    5016.3156
   1000005    1386.4633
   2000005    1421.6647
   1000006    1271.5928
   2000006    1563.1575
   1000011    1526.8142
   2000011    1678.3886
   1000012    1524.3685
   1000013    1526.8061
   2000013    1678.3742
   1000014    1524.3608
   1000015    414.72044
   2000015    1357.5144
   1000016    409.19598
   1000021    3182.0378
   1000022    188.68569
   1000023   -196.29342
   1000025    825.05115
   1000035   -1895.2987
   1000024    191.70516
   1000037    825.2532

BLOCK ALPHA
      -0.021475416

BLOCK HMIX Q=  1409.8581
   1   -193.79623
   2    46.070987
   3    244.05624
   4    7602050.4

BLOCK STOPMIX
   1   1    0.71443729
   1   2    0.69969947
   2   1   -0.69969947
   2   2    0.71443729

BLOCK SBOTMIX
   1   1   -0.2145107
   1   2    0.97672164
   2   1   -0.97672164
   2   2   -0.2145107

BLOCK STAUMIX
   1   1   -0.9999661
   1   2    0.0082337606
   2   1   -0.0082337606
   2   2   -0.9999661

BLOCK NMIX
   1   1    0.014178501
   1   2    0.087801062
   1   3    0.71320576
   1   4    0.6952895
   2   1    0.018514229
   2   2    0.057927239
   2   3   -0.70059876
   2   4    0.71095924
   3   1   -0.0016431487
   3   2    0.99445208
   3   3   -0.02215747
   3   4   -0.10281734
   4   1   -0.99972671
   4   2    0.00068351975
   4   3   -0.0028232202
   4   4    0.023196308

BLOCK UMIX
   1   1   -0.031526985
   1   2   -0.9995029
   2   1    0.9995029
   2   2   -0.031526985

BLOCK VMIX
   1   1   -0.14613649
   1   2    0.98926444
   2   1    0.98926444
   2   2    0.14613649

BLOCK HIGGSBOUNDSINPUTHIGGSCOUPLINGSFERMIONS
       0, 2122.5359,3,36,15,15

BLOCK HIGGSBOUNDSINPUTHIGGSCOUPLINGSBOSONS
       0,4,36,21,21,23

BLOCK SPHENOLOWENERGY
   1    0.00039957327
   2    1.589232e-06
   3    3.525472e-05
   4    1.2345981e-15
   5    5.2734296e-11
   6    1.068538e-08
   7    4.1616668e-14
   8    1.7776558e-09
   9    3.6534674e-07
   10    9.5016108e-05
   11    0.98148002
   12    0.54316791
   13    19.394586
   14    0
   15    0
   16    0.002163466
   17    2.2817226e-15
   18    2.4790669e-11
   19    8.2885381e-11
   20   -8.7584905e-15
   21   -3.7446315e-10
   22   -1.8769262e-07
   23    0
   24    0
   25    0
   26    0
   27    0
   28    0
   29    0
   30    0
   31    0
   39    8.067798e-05
   40    0
   41    0
   42    0

BLOCK FWCOEF Q=  160
   305   4422   0   0   -0.18881911
   305   4422   0   2   -0.27817755
   305   4322   0   2   -0.00063243352
   305   6421   0   0   -0.095227835
   305   6421   0   2   -0.14193258
   305   6321   0   2   -0.00035358079
   3051111   4133   0   0    1.5902808
   3051111   4133   0   2    1.5920005
   3051111   4233   0   2    0.00030595318
   3051111   4137   0   0   -4.4129729
   3051111   4137   0   2   -4.4115559
   3051111   4237   0   2   -0.0023855505
   3051313   4133   0   0    1.5902808
   3051313   4133   0   2    1.5919968
   3051313   4233   0   2    0.00030595089
   3051313   4137   0   0   -4.4129729
   3051313   4137   0   2   -4.4115596
   3051313   4237   0   2   -0.0023855548
   3051212   4137   0   0    1.5053501
   3051212   4137   0   2    1.5050546
   3051212   4237   0   2    0.0005201033
   3051414   4137   0   0    1.5053501
   3051414   4137   0   2    1.5050546
   3051414   4237   0   2    0.00052010345
   3051616   4137   0   0    1.5053501
   3051616   4137   0   2    1.5050542
   3051616   4237   0   2    0.00052014829

BLOCK IMFWCOEF Q=  160
   305   4422   0   0    3.8577739e-07
   305   4422   0   2   -3.634557e-05
   305   4322   0   2   -8.8433059e-06
   305   6421   0   0    3.3044385e-07
   305   6421   0   2    3.3512545e-06
   305   6321   0   2   -3.096508e-06
   3051111   4133   0   2   -2.0083475e-07
   3051111   4233   0   2    6.5155916e-06
   3051111   4137   0   2    3.3030733e-06
   3051111   4237   0   2   -5.0821983e-05
   3051313   4133   0   2   -2.0091502e-07
   3051313   4233   0   2    6.5155645e-06
   3051313   4137   0   2    3.3030671e-06
   3051313   4237   0   2   -5.0822073e-05
   3051212   4137   0   2   -4.9372023e-07
   3051212   4237   0   2    1.1080322e-05
   3051414   4137   0   2   -4.9371952e-07
   3051414   4237   0   2    1.1080322e-05
   3051616   4137   0   2   -5.0207803e-07
   3051616   4237   0   2    1.1080334e-05

DECAY 23  2.4952


DECAY 24  2.085


DECAY 1000011  10.155371
    0.66248688   2   -1000037    12
    0.32745781   2    1000025    11
    0.0058371598   2    1000022    11
    0.0029438096   2    1000023    11
    0.001274342   2   -1000024    12

DECAY 2000011  0.004479246
    0.62789334   2    1000023    11
    0.36904987   2    1000022    11
    0.0029234617   2    1000025    11
    0.00013315822   2   -1000024    12

DECAY 1000013  10.178309
    0.66098462   2   -1000037    14
    0.32671574   2    1000025    13
    0.0069792336   2    1000022    13
    0.0040489441   2    1000023    13
    0.001271463   2   -1000024    14

DECAY 2000013  0.055524752
    0.45925111   2   -1000024    14
    0.27600392   2    1000023    13
    0.26379302   2    1000022    13
    0.00036905325   2    1000025    13
    0.00031320995   2    1000013    25
    0.00026968636   2   -1000037    14

DECAY 1000015  1.1465207
    0.52171443   2    1000022    15
    0.47553828   2    1000023    15
    0.0027472885   2   -1000024    16

DECAY 2000015  11.683701
    0.4919724   2   -1000024    16
    0.25065925   2    1000022    15
    0.24190339   2    1000023    15
    0.0073190365   2    1000016   -24
    0.0039633953   2    1000015    25
    0.003614554   2    1000015    23
    0.00037963425   2   -1000037    16
    0.00018834156   2    1000025    15

DECAY 1000012  10.220165
    0.64213098   2    1000037    11
    0.3251466   2    1000025    12
    0.027160406   2    1000024    11
    0.0040969546   2    1000022    12
    0.0014650601   2    1000023    12

DECAY 1000014  10.243073
    0.64068727   2    1000037    13
    0.32441509   2    1000025    14
    0.029348095   2    1000024    13
    0.00408777   2    1000022    14
    0.0014617756   2    1000023    14

DECAY 1000016  1.158615
    0.99167097   2    1000024    15
    0.006202904   2    1000022    16
    0.0021261236   2    1000023    16

DECAY 2000001  143.33922
    0.9856444   2    1000021    1
    0.014344122   2    1000035    1

DECAY 1000001  205.70401
    0.69200695   2    1000021    1
    0.20341109   2   -1000037    2
    0.10074223   2    1000025    1
    0.0025266245   2    1000035    1
    0.00077989459   2    1000022    1
    0.00032007997   2    1000023    1
    0.00021313382   2   -1000024    2

DECAY 2000003  143.38349
    0.98534769   2    1000021    3
    0.014339743   2    1000035    3
    0.00015082512   2   -1000024    4

DECAY 1000003  205.72816
    0.69192877   2    1000021    3
    0.20338766   2   -1000037    4
    0.10073058   2    1000025    3
    0.0025263334   2    1000035    3
    0.00083329466   2    1000022    3
    0.00037164488   2    1000023    3
    0.00022171376   2   -1000024    4

DECAY 1000005  31.718289
    0.49094697   2   -1000024    6
    0.26002472   2    1000022    5
    0.23884732   2    1000023    5
    0.0056805283   2   -1000037    6
    0.0025447112   2    1000025    5
    0.001955748   2    1000006   -24

DECAY 2000005  55.147162
    0.47390034   2   -1000024    6
    0.14635942   2    1000023    5
    0.14567258   2    1000022    5
    0.10319052   2   -1000037    6
    0.082964553   2    1000006   -24
    0.04791259   2    1000025    5

DECAY 2000002  149.64678
    0.94497808   2    1000021    2
    0.054981141   2    1000035    2

DECAY 1000002  205.7007
    0.69179222   2    1000021    2
    0.19924869   2    1000037    1
    0.10061543   2    1000025    2
    0.0045793161   2    1000024    1
    0.0024877899   2    1000035    2
    0.00087476135   2    1000022    2
    0.0004017997   2    1000023    2

DECAY 2000004  149.65041
    0.94495531   2    1000021    4
    0.054979806   2    1000035    4

DECAY 1000004  205.72477
    0.69171396   2    1000021    4
    0.19922573   2    1000037    3
    0.10060388   2    1000025    4
    0.0046838255   2    1000024    3
    0.0024875081   2    1000035    4
    0.00087890884   2    1000022    4
    0.00040619553   2    1000023    4

DECAY 1000006  47.089459
    0.46032117   2    1000024    5
    0.25198618   2    1000023    6
    0.24784355   2    1000022    6
    0.024216504   2    1000037    5
    0.013755501   2    1000025    6
    0.0015600028   3    1000022    24    5
    0.00021752513   2    1000022    4

DECAY 2000006  73.382832
    0.29165037   2    1000024    5
    0.20704011   2    1000023    6
    0.19394611   2    1000022    6
    0.14652263   2    1000006    23
    0.070727425   2    1000037    5
    0.047509389   2    2000005    24
    0.037070513   2    1000025    6
    0.0054589802   2    1000005    24

DECAY 1000024  2.5108033e-10
    0.46637404   3    1000022   -1    2
    0.19713545   3    1000022   -3    4
    0.15546374   3    1000022   -11    12
    0.15451905   3    1000022   -13    14
    0.026507718   3    1000022   -15    16

DECAY 1000037  11.086141
    0.1827934   2   -1000015    16
    0.18250292   2    1000016   -15
    0.16509143   2    1000023    24
    0.15851488   2    1000024    23
    0.15727036   2    1000022    24
    0.14863408   2    1000024    25
    0.0020657953   3    1000023   -5    6
    0.0018653876   3    1000022   -5    6
    0.0012178065   3    1000024    6   -6

DECAY 1000022 -1


DECAY 1000023  1.3398938e-07
    0.40453042   2    1000022    22
    0.12616317   3    1000022    12   -12
    0.094328935   3    1000022    1   -1
    0.094157932   3    1000022    3   -3
    0.073568466   3    1000022    2   -2
    0.050511719   3    1000022    4   -4
    0.021286538   3    1000022    11   -11
    0.021226171   3    1000022    13   -13
    0.02075246   3    1000024    1   -2
    0.02075246   3   -1000024   -1    2
    0.01435498   3    1000024    3   -4
    0.01435498   3   -1000024   -3    4
    0.0096190543   3    1000022    15   -15
    0.0069175976   3    1000024    11   -12
    0.0069175976   3   -1000024   -11    12
    0.0068993779   3    1000024    13   -14
    0.0068993779   3   -1000024   -13    14
    0.0033793803   3    1000024    15   -16
    0.0033793803   3   -1000024   -15    16

DECAY 1000025  11.925614
    0.15188087   2    1000024   -24
    0.15188087   2   -1000024    24
    0.1086779   2    1000023    25
    0.10763008   2    1000023    23
    0.093349337   2    1000022    25
    0.085757547   2    1000016   -16
    0.085757547   2   -1000016    16
    0.083972873   2    1000015   -15
    0.083972873   2   -1000015    15
    0.043039402   2    1000022    23
    0.0016213609   3    1000024    5   -6
    0.0016213609   3   -1000024   -5    6
    0.00040277735   3    1000023    6   -6
    0.00038762262   3    1000022    6   -6

DECAY 1000035  17.414831
    0.069768322   2    1000024   -24
    0.069768322   2   -1000024    24
    0.064804207   2    2000015   -15
    0.064804207   2   -2000015    15
    0.062256521   2    1000016   -16
    0.062256521   2   -1000016    16
    0.061785747   2    1000015   -15
    0.061785747   2   -1000015    15
    0.055311593   2    1000006   -6
    0.055311593   2   -1000006    6
    0.043381327   2    1000023    25
    0.042543395   2    1000022    23
    0.037978467   2    1000022    25
    0.027163422   2    1000023    23
    0.021482292   2    2000006   -6
    0.021482292   2   -2000006    6
    0.018814766   2    1000005   -5
    0.018814766   2   -1000005    5
    0.012727163   2    2000013   -13
    0.012727163   2   -2000013    13
    0.012725579   2    2000011   -11
    0.012725579   2   -2000011    11
    0.008540905   2    1000014   -14
    0.008540905   2   -1000014    14
    0.0085405914   2    1000012   -12
    0.0085405914   2   -1000012    12
    0.0083976279   2    1000013   -13
    0.0083976279   2   -1000013    13
    0.0083973004   2    1000011   -11
    0.0083973004   2   -1000011    11
    0.0051735724   2    2000005   -5
    0.0051735724   2   -2000005    5
    0.0029143833   3    1000024    5   -6
    0.0029143833   3   -1000024   -5    6
    0.0018085441   3    1000023    6   -6
    0.0017334794   3    1000022    6   -6
    0.00050062402   2    1000037   -24
    0.00050062402   2   -1000037    24
    0.0004280716   2    1000025    23
    0.00039475151   2    1000025    25

DECAY 1000021  257.46281
    0.12021949   2    1000005   -5
    0.12021949   2   -1000005    5
    0.12002723   2    2000006   -6
    0.12002723   2   -2000006    6
    0.11701915   2    2000005   -5
    0.11701915   2   -2000005    5
    0.1123367   2    1000006   -6
    0.1123367   2   -1000006    6
    0.030291848   2    1000006   -4
    0.030291848   2   -1000006    4

DECAY 25  0.0037106926
    0.59313899   2   -5    5
    0.20771629   2   -24    24
    0.073019221   2    21    21
    0.068136011   2   -15    15
    0.029305513   2   -4    4
    0.024493142   2    23    23
    0.0023431333   2    22    22
    0.0013873981   2    22    23
    0.00023645035   2   -13    13
    0.0002230736   2   -3    3
    6.1677624e-07   2   -1    1
    1.5102214e-07   2   -2    2
    5.3156833e-09   2   -11    11

DECAY 35  107.32516
    0.62523638   2   -5    5
    0.095095141   2   -15    15
    0.085241093   2   -1000024    1000037
    0.085241093   2   -1000037    1000024
    0.043662262   2    1000022    1000025
    0.042644113   2    1000023    1000025
    0.0050267794   2    1000022    1000035
    0.0047848748   2   -1000024    1000024
    0.0030531061   2    1000023    1000035
    0.0028603012   2   -2000015    1000015
    0.0028603012   2   -1000015    2000015
    0.0018709096   2   -1000006    1000006
    0.00078068903   2    1000022    1000022
    0.00048339272   2   -6    6
    0.00037401644   2   -13    13
    0.00024090231   2   -3    3
    0.0002381878   2    1000023    1000023
    0.00016125939   2   -1000037    1000037
    8.0664305e-05   2    1000025    1000025
    4.9883824e-05   2    1000022    1000023
    6.4503983e-06   2    21    21
    4.8650519e-06   2    1000025    1000035
    1.396578e-06   2   -1000015    1000015
    6.6604337e-07   2   -1    1
    6.3155135e-07   2    25    25
    1.6684302e-07   2   -2000015    2000015
    1.6517536e-07   2    23    23
    6.7410982e-08   2    22    23
    5.5875871e-08   2   -24    24
    4.0823699e-08   2    22    22
    8.4004629e-09   2   -11    11
    5.3742706e-09   2   -4    4
    2.7704579e-14   2   -2    2

DECAY 36  101.46335
    0.61271015   2   -5    5
    0.093187452   2   -15    15
    0.090256356   2   -1000024    1000037
    0.090256356   2   -1000037    1000024
    0.046380992   2    1000022    1000025
    0.045006851   2    1000023    1000025
    0.0051853812   2    1000023    1000035
    0.0050674484   2   -1000024    1000024
    0.0033985787   2    1000022    1000035
    0.0030259499   2   -2000015    1000015
    0.0030259499   2   -1000015    2000015
    0.00077471661   2    1000022    1000022
    0.0004934106   2   -6    6
    0.00036652816   2   -13    13
    0.0002807903   2    1000023    1000023
    0.0002360637   2   -3    3
    0.00017273525   2   -1000037    1000037
    8.6742025e-05   2    1000025    1000025
    7.2839363e-05   2    1000022    1000023
    1.3502732e-05   2    21    21
    6.5266578e-07   2   -1    1
    2.6906232e-07   2    23    25
    2.5888195e-07   2    1000025    1000035
    1.5622408e-08   2    22    23
    8.2322264e-09   2   -11    11
    5.3698541e-09   2   -4    4
    6.1949225e-10   2    22    22
    3.6148371e-13   2    23    35
    2.7682241e-14   2   -2    2
    4.6004783e-37   2    25    25

DECAY 37  104.94474
    0.60116564   2   -5    6
    0.11455925   2   -15    16
    0.091503058   2    1000022    1000037
    0.088299289   2    1000024    1000025
    0.087238929   2    1000023    1000037
    0.008246702   2    1000024    1000035
    0.0058622865   2   -2000015    1000016
    0.0011317247   2    1000023    1000024
    0.00089120509   2   -5    4
    0.00044804355   2    1000022    1000024
    0.00040500792   2   -13    14
    0.00022435305   2   -3    4
    1.0497745e-05   2   -3    2
    6.3641246e-06   2   -5    2
    5.3307114e-06   2    1000035    1000037
    1.0135722e-06   2   -3    6
    6.2265288e-07   2   -1    2
    3.4524839e-07   2   -1000015    1000016
    2.6029655e-07   2    24    25
    3.1285497e-08   2   -1    6
    2.9336325e-08   2   -1    4
    9.4731774e-09   2   -11    12
    1.6336707e-10   2    1000025    1000037
    3.2612559e-13   2    24    35

DECAY 6  2.43
    1   2    5    24

DECAY 15 -1
