BLOCK DCINFO
   1   SDECAY/HDECAY
   2   1.3b /3.4

BLOCK SPINFO
   1   SOFTSUSY
   2   3.4.0

BLOCK MODSEL
   1   0

BLOCK SMINPUTS
   1    127.90897
   2    1.1663787e-05
   3    0.1184
   4    91.1876
   5    4.18
   6    173.2
   7    1.777

BLOCK MINPAR
   3    50.93

BLOCK EXTPAR
   0   -1
   1    642.52
   2    529.62
   3    3268.97
   11   -2427.66
   12    1611.89
   13   -354.95
   23    537.72
   26    2329.34
   31    2367.86
   32    2367.86
   33    2024.94
   34    3789.2
   35    3789.2
   36    2393.99
   41    3952.64
   42    3952.64
   43    2170.7
   44    2217.35
   45    2217.35
   46    3619.63
   47    790.1
   48    790.1
   49    3631.85

BLOCK MASS
   24    80.36949
   25    124.86212
   35    2329.3427
   36    2329.34
   37    2330.8927
   5    4.8187603
   1000001    4033.6964
   2000001    972.26287
   1000002    4033.0479
   2000002    2329.0199
   1000003    4033.6964
   2000003    972.26287
   1000004    4033.0479
   2000004    2329.0199
   1000005    2255.7948
   2000005    3688.1634
   1000006    2255.8562
   2000006    3661.6172
   1000011    2371.278
   2000011    3795.3223
   1000012    2369.608
   1000013    2371.278
   2000013    3795.3223
   1000014    2369.608
   1000015    2016.0352
   2000015    2380.6708
   1000016    2014.5455
   1000021    3390.1698
   1000022    501.411
   1000023   -564.09762
   1000025    604.79757
   1000035    655.40579
   1000024    506.50644
   1000037    620.6323

BLOCK NMIX
   1   1    0.15955984
   1   2   -0.66707214
   1   3    0.54160612
   1   4   -0.48602287
   2   1   -0.025085964
   2   2    0.049366355
   2   3    0.70377119
   2   4    0.70826532
   3   1    0.50692447
   3   2    0.68692873
   3   3    0.35411059
   3   4   -0.38178815
   4   1    0.84672247
   4   2   -0.28408914
   4   3   -0.29321429
   4   4    0.34114484

BLOCK UMIX
   1   1   -0.67364362
   1   2    0.73905634
   2   1   -0.73905634
   2   2   -0.67364362

BLOCK VMIX
   1   1   -0.74310243
   1   2    0.66917769
   2   1   -0.66917769
   2   2   -0.74310243

BLOCK STOPMIX
   1   1    0.99909662
   1   2    0.042496516
   2   1   -0.042496516
   2   2    0.99909662

BLOCK SBOTMIX
   1   1    0.99997619
   1   2    0.0069009733
   2   1   -0.0069009733
   2   2    0.99997619

BLOCK STAUMIX
   1   1    0.99949198
   1   2    0.031871302
   2   1   -0.031871302
   2   2    0.99949198

BLOCK ALPHA
      -0.01990935

BLOCK HMIX Q=  2805.23
   1    551.50209
   2    50.435266
   3    241.90579
   4    5993328.9

BLOCK GAUGE Q=  2805.23
   1    0.36474065
   2    0.63976746
   3    1.0100773

BLOCK AU Q=  2805.23
   1   1    0
   2   2    0
   3   3   -2427.66

BLOCK AD Q=  2805.23
   1   1    0
   2   2    0
   3   3    1611.89

BLOCK AE Q=  2805.23
   1   1    0
   2   2    0
   3   3   -354.94999

BLOCK YU Q=  2805.23
   1   1    0
   2   2    0
   3   3    0.81826535

BLOCK YD Q=  2805.23
   1   1    0
   2   2    0
   3   3    0.66101927

BLOCK YE Q=  2805.23
   1   1    0
   2   2    0
   3   3    0.52984297

BLOCK MSOFT Q=  2805.23
   1    642.52
   2    529.62
   3    3268.97
   21    5397424.9
   22   -165179.4
   31    2367.86
   32    2367.86
   33    2024.94
   34    3789.2
   35    3789.2
   36    2393.99
   41    3952.64
   42    3952.64
   43    2170.7
   44    2217.35
   45    2217.35
   46    3619.63
   47    790.09996
   48    790.09996
   49    3631.85

BLOCK HIGGSBOUNDSINPUTHIGGSCOUPLINGSFERMIONS
       0, 2543.7161,3,36,15,15

BLOCK HIGGSBOUNDSINPUTHIGGSCOUPLINGSBOSONS
       0,4,36,21,21,23

DECAY 6  1.4424164
    1   2    5    24

DECAY 1000021  182.17023
    0.14781685   2    2000001   -1
    0.14781685   2   -2000001    1
    0.14781685   2    2000003   -3
    0.14781685   2   -2000003    3
    0.053826832   2    1000005   -5
    0.053826832   2   -1000005    5
    0.052671704   2    1000006   -6
    0.052671704   2   -1000006    6
    0.048933898   2    2000002   -2
    0.048933898   2   -2000002    2
    0.048933858   2    2000004   -4
    0.048933858   2   -2000004    4

DECAY 1000006  67.88784
    0.28969871   2    1000024    5
    0.20326282   2    1000037    5
    0.19480096   2    1000023    6
    0.14372866   2    1000022    6
    0.12802095   2    1000025    6
    0.040487912   2    1000035    6

DECAY 2000006  130.36245
    0.2065713   2    1000037    5
    0.17718502   2    1000023    6
    0.14947065   2    1000024    5
    0.10186165   2    1000005    24
    0.090542773   2    1000035    6
    0.07998189   2    1000022    6
    0.069059387   2    1000025    6
    0.052246941   2    1000006    23
    0.05084306   2    1000006    25
    0.022237333   2    1000021    6

DECAY 1000005  67.743859
    0.34419867   2   -1000037    6
    0.27773079   2   -1000024    6
    0.13718297   2    1000022    5
    0.12622484   2    1000023    5
    0.071753507   2    1000025    5
    0.042909217   2    1000035    5

DECAY 2000005  68.646448
    0.24152685   2   -1000024    6
    0.22082793   2    1000023    5
    0.2021716   2   -1000037    6
    0.13100961   2    1000022    5
    0.069900631   2    1000021    5
    0.063719197   2    1000025    5
    0.05986232   2    1000035    5
    0.005342259   2    1000006   -24
    0.0028890959   2    1000005    25
    0.002750508   2    1000005    23

DECAY 1000002  71.15188
    0.35767414   2    1000021    2
    0.23535062   2    1000024    1
    0.18790765   2    1000037    1
    0.12902505   2    1000025    2
    0.086455497   2    1000022    2
    0.0031663081   2    1000035    2
    0.00042074186   2    1000023    2

DECAY 2000002  4.6764969
    0.71096637   2    1000035    2
    0.26132057   2    1000025    2
    0.027061131   2    1000022    2
    0.0006519262   2    1000023    2

DECAY 1000001  71.153056
    0.35827991   2    1000021    1
    0.22923815   2   -1000037    2
    0.19344004   2   -1000024    2
    0.10372422   2    1000022    1
    0.073367819   2    1000025    1
    0.041329894   2    1000035    1
    0.00061996592   2    1000023    1

DECAY 2000001  0.19410579
    0.65921366   2    1000035    1
    0.29774402   2    1000025    1
    0.042189522   2    1000022    1
    0.00085279916   2    1000023    1

DECAY 1000004  66.722193
    0.28162926   2    1000021    4
    0.26328478   2    1000024    3
    0.21008923   2    1000037    3
    0.14426715   2    1000025    4
    0.09671957   2    1000022    4
    0.0035394663   2    1000035    4
    0.00047054159   2    1000023    4

DECAY 2000004  4.6851776
    0.71090963   2    1000035    4
    0.26136008   2    1000025    4
    0.027078142   2    1000022    4
    0.00065214617   2    1000023    4

DECAY 1000003  66.708066
    0.28217167   2    1000021    3
    0.25635658   2   -1000037    4
    0.21644871   2   -1000024    4
    0.11606475   2    1000022    3
    0.082053572   2    1000025    3
    0.046211212   2    1000035    3
    0.00069350332   2    1000023    3

DECAY 2000003  0.18526216
    0.65870226   2    1000035    3
    0.29810139   2    1000025    3
    0.042341542   2    1000022    3
    0.00085480693   2    1000023    3

DECAY 1000011  28.429696
    0.3218871   2   -1000037    12
    0.28272942   2    1000025    11
    0.28072625   2   -1000024    12
    0.10285524   2    1000022    11
    0.011430369   2    1000035    11
    0.00037161236   2    1000023    11

DECAY 2000011  18.966529
    0.71478451   2    1000035    11
    0.25854395   2    1000025    11
    0.026034089   2    1000022    11
    0.00063745265   2    1000023    11

DECAY 1000013  28.429696
    0.3218871   2   -1000037    14
    0.28272942   2    1000025    13
    0.28072625   2   -1000024    14
    0.10285524   2    1000022    13
    0.011430369   2    1000035    13
    0.00037161236   2    1000023    13

DECAY 2000013  18.966529
    0.71478451   2    1000035    13
    0.25854395   2    1000025    13
    0.026034089   2    1000022    13
    0.00063745265   2    1000023    13

DECAY 1000015  32.650415
    0.23187112   2    1000025    15
    0.2141171   2   -1000037    16
    0.21182531   2   -1000024    16
    0.16909595   2    1000022    15
    0.1446522   2    1000023    15
    0.028438325   2    1000035    15

DECAY 2000015  34.917365
    0.25280371   2    1000035    15
    0.17633148   2   -1000024    16
    0.16903875   2    1000023    15
    0.162894   2   -1000037    16
    0.12559785   2    1000025    15
    0.10269403   2    1000022    15
    0.0052560849   2    1000016   -24
    0.0027725613   2    1000015    25
    0.0026115368   2    1000015    23

DECAY 1000012  28.465567
    0.34088494   2    1000024    11
    0.26332235   2    1000037    11
    0.1777036   2    1000022    12
    0.16996453   2    1000035    12
    0.046902002   2    1000025    12
    0.0012225696   2    1000023    12

DECAY 1000014  28.465567
    0.34088494   2    1000024    13
    0.26332235   2    1000037    13
    0.1777036   2    1000022    14
    0.16996453   2    1000035    14
    0.046902002   2    1000025    14
    0.0012225697   2    1000023    14

DECAY 1000016  32.648885
    0.40847235   2    1000024    15
    0.31260212   2    1000037    15
    0.12702519   2    1000022    16
    0.11810387   2    1000035    16
    0.032931563   2    1000025    16
    0.00086492223   2    1000023    16

DECAY 1000024  8.328302e-09
    0.35044296   3    1000022    2   -1
    0.35044296   3    1000022    4   -3
    0.11687532   3    1000022   -11    12
    0.11687532   3    1000022   -13    14
    0.065363433   3    1000022   -15    16

DECAY 1000037  0.39812541
    0.60566448   2    1000022    24
    0.39433552   2    1000024    23

DECAY 1000022 -1


DECAY 1000023  0.0015820634
    0.10193654   3    1000024   -2    1
    0.10193654   3   -1000024   -1    2
    0.10193654   3    1000024   -4    3
    0.10193654   3   -1000024   -3    4
    0.059301924   3    1000022   -1    1
    0.059301924   3    1000022   -3    3
    0.056103289   3    1000022   -5    5
    0.045704261   3    1000022   -2    2
    0.045704261   3    1000022   -4    4
    0.033980427   3    1000024   -12    11
    0.033980427   3   -1000024    12   -11
    0.033980427   3    1000024   -14    13
    0.033980427   3   -1000024    14   -13
    0.033839657   3    1000024   -16    15
    0.033839657   3   -1000024    16   -15
    0.027218173   3    1000022   -16    16
    0.0272167   3    1000022   -12    12
    0.0272167   3    1000022   -14    14
    0.013610542   3    1000022   -11    11
    0.013610542   3    1000022   -13    13
    0.013552063   3    1000022   -15    15
    0.00011245171   2    1000022    22

DECAY 1000025  0.27707899
    0.4998168   2    1000024   -24
    0.4998168   2   -1000024    24
    0.00036639304   2    1000022    23

DECAY 1000035  0.070035808
    0.39819964   2    1000024   -24
    0.39819964   2   -1000024    24
    0.19679199   2    1000022    25
    0.0061855562   2    1000022    23
    0.00062317755   2    1000023    23

DECAY 25  0.0042207284
    0.61691433   2    5   -5
    0.19671825   2    24   -24
    0.075519507   2    21    21
    0.061748541   2   -15    15
    0.02442935   2    23    23
    0.020530237   2    4   -4
    0.0022220746   2    22    22
    0.00146066   2    22    23
    0.00023848082   2    3   -3
    0.00021857499   2   -13    13

DECAY 35  103.12246
    0.64052945   2    5   -5
    0.11432902   2   -15    15
    0.042992502   2    1000024   -1000037
    0.042992502   2    1000037   -1000024
    0.040794337   2    1000024   -1000024
    0.024412428   2    1000023    1000035
    0.022559611   2    1000022    1000022
    0.022441444   2    1000037   -1000037
    0.021844007   2    1000022    1000023
    0.0084653275   2    1000023    1000025
    0.0079895309   2    1000025    1000035
    0.0048311414   2    1000035    1000035
    0.0024732693   2    1000025    1000025
    0.0019561605   2    1000022    1000035
    0.00040745098   2   -13    13
    0.0003709124   2    6   -6
    0.00026066216   2    1000023    1000023
    0.00022613134   2    3   -3
    0.00010388823   2    1000022    1000025
    1.8799845e-05   2    21    21
    9.471926e-07   2    25    25
    2.8070045e-07   2    24   -24
    1.3991979e-07   2    23    23
    2.5903209e-08   2    22    22
    9.9928156e-09   2    23    22
    5.4508028e-09   2    2000001   -2000001
    5.4508028e-09   2    2000003   -2000003
    3.8030734e-09   2    4   -4

DECAY 36  103.12083
    0.64055152   2    5   -5
    0.11433136   2   -15    15
    0.053702279   2    1000024   -1000024
    0.034529138   2    1000037   -1000037
    0.03048459   2    1000024   -1000037
    0.03048459   2    1000037   -1000024
    0.029740267   2    1000022    1000022
    0.016481307   2    1000023    1000035
    0.015792308   2    1000022    1000023
    0.012327516   2    1000025    1000035
    0.0077553022   2    1000035    1000035
    0.0059175503   2    1000023    1000025
    0.0036895655   2    1000025    1000025
    0.0027049578   2    1000022    1000035
    0.00040745835   2   -13    13
    0.00037332369   2    6   -6
    0.00031437529   2    1000023    1000023
    0.00022614179   2    3   -3
    0.00015764669   2    1000022    1000025
    2.8430218e-05   2    21    21
    2.8373884e-07   2    23    25
    7.1235772e-08   2    22    22
    1.7353155e-08   2    23    22
    3.8056892e-09   2    4   -4

DECAY 37  96.969087
    0.61740284   2    6   -5
    0.12166561   2   -15    16
    0.087114224   2    1000024    1000025
    0.072590952   2    1000037    1000022
    0.039502228   2    1000024    1000023
    0.038870887   2    1000037    1000023
    0.01293265   2    1000037    1000035
    0.0057245784   2    1000037    1000025
    0.001840661   2    1000024    1000035
    0.0010399166   2    4   -5
    0.00062244728   2    1000024    1000022
    0.00043359644   2   -13    14
    0.00023668129   2    4   -3
    1.2024438e-05   2    2   -3
    1.0399146e-05   2    2   -5
    3.0266159e-07   2    24    25
    1.2239751e-13   2    24    36

DECAY 5 -1


DECAY 15 -1


DECAY 23  2.4952


DECAY 24  2.085
