BLOCK SPINFO
   1   SPheno
   2   v4.0.5be

BLOCK SPHENOINFO
   1   2
   2   2

BLOCK MODSEL
   1   0

BLOCK MINPAR
   3    26.210674
   4   -1

BLOCK EXTPAR
   0    1540.3723
   1    42.91296
   2    544.66392
   3    3000
   11   -4306.3888
   12    1722.2315
   13   -1896.0186
   23   -364.63503
   25    25.393137
   26    2602.0387
   31    854.92979
   32    854.92979
   33    213.15281
   34    1130.5486
   35    1130.5486
   36    985.88427
   41    5000
   42    5000
   43    1898.1375
   44    5000
   45    5000
   46    1358.5278
   47    5000
   48    5000
   49    1467.0208

BLOCK SMINPUTS
   1    127.90897
   2    1.1663787e-05
   3    0.1184
   4    91.1876
   5    4.18
   6    173.2
   7    1.777
   8    0
   11    0.00051099893
   12    0
   13    0.10565837
   14    0
   21    0.005
   22    0.0025
   23    0.095
   24    1.27

BLOCK GAUGE Q=  1540.3723
   1    0.35536298
   2    0.66519887
   3    1.219778

BLOCK YU Q=  1540.3723
   1   1    8.390871e-06
   2   2    0.0042625625
   3   3    1.0136846

BLOCK YD Q=  1540.3723
   1   1    0.00042815759
   2   2    0.0081349942
   3   3    0.42459816

BLOCK YE Q=  1540.3723
   1   1    7.471663e-05
   2   2    0.015449029
   3   3    0.25982726

BLOCK AU Q=  1540.3723
   1   1    0
   2   2    0
   3   3   -4306.3886

BLOCK AD Q=  1540.3723
   1   1    0
   2   2    0
   3   3    1722.2315

BLOCK AE Q=  1540.3723
   1   1    0
   2   2    0
   3   3   -1896.0187

BLOCK MSOFT Q=  1540.3723
   1    42.91296
   2    544.66392
   3    3000
   21    6643628.1
   22   -86388.473
   31    854.92979
   32    854.92979
   33    213.15281
   34    1130.5486
   35    1130.5486
   36    985.88427
   41    5000
   42    5000
   43    1898.1375
   44    5000
   45    5000
   46    1358.5278
   47    5000
   48    5000
   49    1467.0208

BLOCK MASS
   6    173.2
   23    91.1876
   24    80.429995
   15    1.777
   25    123.72841
   35    2601.2993
   36    2602.0387
   37    2602.8453
   1000001    5032.2263
   2000001    5021.5859
   1000002    5031.7927
   2000002    5023.3404
   1000003    5032.2281
   2000003    5021.5882
   1000004    5031.7944
   2000004    5023.3412
   1000005    1491.7106
   2000005    1873.7252
   1000006    1231.7229
   2000006    1926.3641
   1000011    861.67459
   2000011    1131.2823
   1000012    857.71861
   1000013    861.66958
   2000013    1131.276
   1000014    857.71502
   1000015    236.53541
   2000015    985.12322
   1000016    224.59588
   1000021    3195.0585
   1000022    42.642335
   1000023    359.86041
   1000025   -377.87732
   1000035    590.92943
   1000024    361.14882
   1000037    591.26506

BLOCK ALPHA
      -0.038238312

BLOCK HMIX Q=  1540.3723
   1   -364.63503
   2    25.393137
   3    243.94573
   4    6770605.5

BLOCK STOPMIX
   1   1    0.29182664
   1   2    0.95647123
   2   1   -0.95647123
   2   2    0.29182664

BLOCK SBOTMIX
   1   1   -0.019638036
   1   2    0.99980715
   2   1   -0.99980715
   2   2   -0.019638036

BLOCK STAUMIX
   1   1   -0.99990322
   1   2    0.013912033
   2   1   -0.013912033
   2   2   -0.99990322

BLOCK NMIX
   1   1   -0.99260442
   1   2    0.00075167591
   1   3    0.12100315
   1   4    0.0097025779
   2   1   -0.091359577
   2   2   -0.24235117
   2   3   -0.6940685
   2   4   -0.67170549
   3   1    0.078090567
   3   2   -0.06220139
   3   3    0.69784479
   3   4   -0.70925701
   4   1    0.017080947
   4   2   -0.9681923
   4   3    0.12899539
   4   4    0.2137103

BLOCK UMIX
   1   1   -0.18397707
   1   2   -0.98293054
   2   1    0.98293054
   2   2   -0.18397707

BLOCK VMIX
   1   1   -0.30440477
   1   2    0.95254277
   2   1    0.95254277
   2   2    0.30440477

BLOCK HIGGSBOUNDSINPUTHIGGSCOUPLINGSFERMIONS
       0, 644.8114,3,36,15,15

BLOCK HIGGSBOUNDSINPUTHIGGSCOUPLINGSBOSONS
       0,4,36,21,21,23

BLOCK SPHENOLOWENERGY
   1    0.00037086936
   2    1.588509e-06
   3    3.5271755e-05
   4    1.9842889e-15
   5    8.4766625e-11
   6    1.7752531e-08
   7    6.6911255e-14
   8    2.8584486e-09
   9    6.0655974e-07
   10    9.6117855e-05
   11    0.99286064
   12    0.54321212
   13    19.405535
   14    0
   15    0
   16    0.0021635842
   17    2.2817227e-15
   18    2.4808867e-11
   19    8.2926013e-11
   20   -7.8912618e-15
   21   -3.3738599e-10
   22   -4.5131153e-07
   23    0
   24    0
   25    0
   26    0
   27    0
   28    0
   29    0
   30    0
   31    0
   39    8.2848423e-05
   40    0
   41    0
   42    0

BLOCK FWCOEF Q=  160
   305   4422   0   0   -0.18881911
   305   4422   0   2   -0.2455976
   305   4322   0   2   -0.00051537203
   305   6421   0   0   -0.095227835
   305   6421   0   2   -0.13095907
   305   6321   0   2   -0.00035209769
   3051111   4133   0   0    1.5928942
   3051111   4133   0   2    1.59421
   3051111   4233   0   2    0.00010777394
   3051111   4137   0   0   -4.4155863
   3051111   4137   0   2   -4.4157132
   3051111   4237   0   2   -0.00083730312
   3051313   4133   0   0    1.5928942
   3051313   4133   0   2    1.5942077
   3051313   4233   0   2    0.00010777369
   3051313   4137   0   0   -4.4155863
   3051313   4137   0   2   -4.4157155
   3051313   4237   0   2   -0.00083730356
   3051212   4137   0   0    1.5053501
   3051212   4137   0   2    1.5054047
   3051212   4237   0   2    0.00018242766
   3051414   4137   0   0    1.5053501
   3051414   4137   0   2    1.5054047
   3051414   4237   0   2    0.00018242768
   3051616   4137   0   0    1.5053501
   3051616   4137   0   2    1.5054044
   3051616   4237   0   2    0.00018242889

BLOCK IMFWCOEF Q=  160
   305   4422   0   0    3.8577308e-07
   305   4422   0   2   -2.0313925e-05
   305   4322   0   2   -6.4715801e-06
   305   6421   0   0    3.3044016e-07
   305   6421   0   2    6.175933e-06
   305   6321   0   2   -2.7339552e-06
   3051111   4133   0   2   -2.1508719e-06
   3051111   4233   0   2    2.2928685e-06
   3051111   4137   0   2    1.5981848e-05
   3051111   4237   0   2   -1.7819391e-05
   3051313   4133   0   2   -2.1509415e-06
   3051313   4233   0   2    2.2928657e-06
   3051313   4137   0   2    1.598185e-05
   3051313   4237   0   2   -1.78194e-05
   3051212   4137   0   2   -3.0172682e-06
   3051212   4237   0   2    3.8824551e-06
   3051414   4137   0   2   -3.0172675e-06
   3051414   4237   0   2    3.8824551e-06
   3051616   4137   0   2   -3.023517e-06
   3051616   4237   0   2    3.8823785e-06

DECAY 23  2.4952


DECAY 24  2.085


DECAY 1000011  4.4837082
    0.45766822   2   -1000037    12
    0.23601571   2    1000022    11
    0.21829814   2    1000035    11
    0.048875272   2    1000023    11
    0.038911122   2   -1000024    12
    0.0002315399   2    1000025    11

DECAY 2000011  5.6511765
    0.98822093   2    1000022    11
    0.006782405   2    1000023    11
    0.0048414775   2    1000025    11
    0.00015516906   2    1000035    11

DECAY 1000013  4.48634
    0.4573876   2   -1000037    14
    0.23588911   2    1000022    13
    0.21816792   2    1000035    13
    0.049146454   2    1000023    13
    0.038887876   2   -1000024    14
    0.00052104637   2    1000025    13

DECAY 2000013  5.6598087
    0.98672206   2    1000022    13
    0.0071411404   2    1000023    13
    0.0051986612   2    1000025    13
    0.00073957216   2   -1000024    14
    0.00016327041   2    1000035    13

DECAY 1000015  0.27845859
    0.9999985   2    1000022    15

DECAY 2000015  7.0632579
    0.68992021   2    1000022    15
    0.13377447   2   -1000024    16
    0.071154065   2    1000023    15
    0.069908484   2    1000025    15
    0.014833946   2    1000016   -24
    0.0076117616   2    1000015    25
    0.0072303104   2    1000015    23
    0.0036761352   2   -1000037    16
    0.0018906268   2    1000035    15

DECAY 1000012  4.5373952
    0.41584458   2    1000037    11
    0.23346189   2    1000022    12
    0.21932868   2    1000035    12
    0.10436828   2    1000024    11
    0.021160775   2    1000023    12
    0.0058357947   2    1000025    12

DECAY 1000014  4.5400348
    0.41560188   2    1000037    13
    0.23332517   2    1000022    14
    0.21919693   2    1000035    14
    0.10489536   2    1000024    13
    0.021148308   2    1000023    14
    0.0058323539   2    1000025    14

DECAY 1000016  0.25902406
    1   2    1000022    16

DECAY 2000001  143.20658
    0.98042899   2    1000021    1
    0.019285447   2    1000022    1
    0.00016178548   2    1000023    1
    0.00011809485   2    1000025    1

DECAY 1000001  206.88763
    0.68400006   2    1000021    1
    0.20120085   2   -1000037    2
    0.098223567   2    1000035    1
    0.007173002   2   -1000024    2
    0.0054164237   2    1000023    1
    0.0033729023   2    1000022    1
    0.0006131963   2    1000025    1

DECAY 2000003  143.21986
    0.98033973   2    1000021    3
    0.019284342   2    1000022    3
    0.00018371854   2    1000023    3
    0.00014024801   2    1000025    3

DECAY 1000003  206.89617
    0.68397271   2    1000021    3
    0.20119344   2   -1000037    4
    0.098220061   2    1000035    3
    0.0071805834   2   -1000024    4
    0.0054314323   2    1000023    3
    0.0033732318   2    1000022    3
    0.00062854626   2    1000025    3

DECAY 1000005  10.111401
    0.44270731   2   -1000024    6
    0.22942906   2    1000023    5
    0.22462611   2    1000025    5
    0.090212271   2    1000022    5
    0.0084428489   2   -1000037    6
    0.0043794255   2    1000035    5
    0.00020298036   2    1000006   -24

DECAY 2000005  129.45077
    0.52585618   2    1000006   -24
    0.24548578   2   -1000024    6
    0.12593637   2   -1000037    6
    0.049629721   2    1000035    5
    0.025950195   2    1000023    5
    0.023750594   2    1000025    5
    0.0026222327   2    1000022    5
    0.0004695572   2    1000005    25
    0.00029937188   2    1000005    23

DECAY 2000002  151.80099
    0.92612324   2    1000021    2
    0.072799737   2    1000022    2
    0.00061049082   2    1000023    2
    0.00044556199   2    1000025    2

DECAY 1000002  206.88568
    0.68378834   2    1000021    2
    0.18893731   2    1000037    1
    0.096989061   2    1000035    2
    0.019635602   2    1000024    1
    0.007087047   2    1000023    2
    0.0033157569   2    1000022    2
    0.00024688621   2    1000025    2

DECAY 2000004  151.80459
    0.92610135   2    1000021    4
    0.07279801   2    1000022    4
    0.00061582249   2    1000023    4
    0.00045149621   2    1000025    4

DECAY 1000004  206.89415
    0.6837609   2    1000021    4
    0.18893069   2    1000037    3
    0.096985528   2    1000035    4
    0.019665349   2    1000024    3
    0.0070906709   2    1000023    4
    0.0033156227   2    1000022    4
    0.00025124597   2    1000025    4

DECAY 1000006  41.834784
    0.48002282   2    1000024    5
    0.23132747   2    1000025    6
    0.22369164   2    1000023    6
    0.058002928   2    1000022    6
    0.0044026485   2    1000037    5
    0.0023869578   2    1000035    6
    0.00010536193   2    1000023    4

DECAY 2000006  141.96905
    0.27597123   2    1000006    25
    0.26829254   2    1000006    23
    0.12439603   2    1000025    6
    0.11030956   2    1000023    6
    0.10851816   2    1000037    5
    0.065988464   2    1000035    6
    0.041979357   2    1000024    5
    0.0038091036   2    1000022    6
    0.000735554   2    1000005    24

DECAY 1000024  0.37664827
    0.57508594   2    1000022    24
    0.37505922   2    1000016   -15
    0.049315742   2   -1000015    16
    0.00053615201   3    1000022   -5    6

DECAY 1000037  6.9690041
    0.25398596   2   -1000015    16
    0.24977934   2    1000016   -15
    0.15373947   2    1000025    24
    0.12608248   2    1000023    24
    0.1168888   2    1000024    23
    0.094913046   2    1000024    25
    0.004498065   2    1000022    24

DECAY 1000022 -1


DECAY 1000023  0.32495986
    0.28939688   2    1000022    23
    0.28112977   2    1000022    25
    0.18071032   2    1000015   -15
    0.18071032   2   -1000015    15
    0.034023348   2    1000016   -16
    0.034023348   2   -1000016    16

DECAY 1000025  0.37618795
    0.4024519   2    1000022    23
    0.33535171   2    1000022    25
    0.12107854   2    1000015   -15
    0.12107854   2   -1000015    15
    0.0099852789   2    1000016   -16
    0.0099852789   2   -1000016    16

DECAY 1000035  7.8334215
    0.13163027   2    1000025    23
    0.11606847   2    1000016   -16
    0.11606847   2   -1000016    16
    0.11465253   2    1000024   -24
    0.11465253   2   -1000024    24
    0.10815276   2    1000015   -15
    0.10815276   2   -1000015    15
    0.10178991   2    1000025    25
    0.077401098   2    1000023    25
    0.0077397099   2    1000023    23
    0.0019540499   2    1000022    25
    0.0016299855   2    1000022    23

DECAY 1000021  204.93531
    0.1552135   2    1000006   -6
    0.1552135   2   -1000006    6
    0.14112984   2    1000005   -5
    0.14112984   2   -1000005    5
    0.1017764   2    2000006   -6
    0.1017764   2   -2000006    6
    0.099305106   2    2000005   -5
    0.099305106   2   -2000005    5
    0.0024302648   2    1000006   -4
    0.0024302648   2   -1000006    4

DECAY 25  0.0037123267
    0.5925115   2   -5    5
    0.20852207   2   -24    24
    0.072219611   2    21    21
    0.068017542   2   -15    15
    0.029238678   2   -4    4
    0.024608006   2    23    23
    0.0023421712   2    22    22
    0.0013898822   2    22    23
    0.00069165321   2    1000022    1000022
    0.00023567012   2   -13    13
    0.00022244722   2   -3    3
    6.1504421e-07   2   -1    1
    1.5067742e-07   2   -2    2
    5.298142e-09   2   -11    11

DECAY 35  55.617991
    0.35583043   2   -5    5
    0.14204368   2   -1000024    1000037
    0.14204368   2   -1000037    1000024
    0.07895218   2    1000025    1000035
    0.068579875   2    1000023    1000035
    0.055198248   2   -15    15
    0.037378403   2   -1000024    1000024
    0.030457666   2    1000022    1000023
    0.021891793   2    1000022    1000025
    0.014652201   2   -2000015    1000015
    0.014652201   2   -1000015    2000015
    0.012044963   2   -1000037    1000037
    0.0084104836   2    1000023    1000023
    0.0062555432   2    1000035    1000035
    0.0041453692   2   -1000006    1000006
    0.0027384496   2   -6    6
    0.0016863991   2    1000025    1000025
    0.0015269681   2    1000022    1000022
    0.00093577669   2    1000023    1000025
    0.00021173803   2   -13    13
    0.00019272068   2    1000022    1000035
    0.00014080283   2   -3    3
    1.272379e-05   2   -1000015    1000015
    1.0637928e-05   2   -2000015    2000015
    1.6620177e-06   2    21    21
    9.5605731e-07   2    25    25
    7.5347972e-07   2    23    23
    3.8929538e-07   2   -1    1
    2.7567521e-07   2   -24    24
    2.0367086e-07   2   -1000011    1000011
    2.0282838e-07   2   -1000013    1000013
    1.6638592e-07   2    22    23
    8.6368328e-08   2   -2000011    2000011
    8.6098222e-08   2   -2000013    2000013
    5.2058795e-08   2    22    22
    3.1363191e-08   2   -4    4
    4.7557349e-09   2   -11    11
    2.1091954e-09   2   -2000013    1000013
    2.1091954e-09   2   -1000013    2000013
    1.6167218e-13   2   -2    2
    4.9334967e-14   2   -2000011    1000011
    4.9334967e-14   2   -1000011    2000011

DECAY 36  54.333172
    0.34727244   2   -5    5
    0.14603467   2   -1000024    1000037
    0.14603467   2   -1000037    1000024
    0.081978291   2    1000025    1000035
    0.069062055   2    1000023    1000035
    0.05386489   2   -15    15
    0.037684494   2   -1000024    1000024
    0.027405454   2    1000022    1000023
    0.02608619   2    1000022    1000025
    0.015008134   2   -2000015    1000015
    0.015008134   2   -1000015    2000015
    0.011782266   2   -1000037    1000037
    0.0080209633   2    1000023    1000023
    0.0061723016   2    1000035    1000035
    0.0028035292   2   -6    6
    0.002195538   2    1000025    1000025
    0.0015463647   2    1000022    1000022
    0.0013628655   2    1000023    1000025
    0.0003188818   2    1000022    1000035
    0.00020662953   2   -13    13
    0.00013740341   2   -3    3
    1.2156924e-05   2    21    21
    1.1479104e-06   2    23    25
    3.7989742e-07   2   -1    1
    9.3360419e-08   2    22    23
    3.1846863e-08   2   -4    4
    7.747257e-09   2    22    22
    4.640985e-09   2   -11    11
    2.1335307e-09   2   -2000013    1000013
    2.1335307e-09   2   -1000013    2000013
    1.6417604e-13   2   -2    2
    4.9903499e-14   2   -2000011    1000011
    4.9903499e-14   2   -1000011    2000011
    2.6387271e-37   2    25    25

DECAY 37  54.503661
    0.34044756   2   -5    6
    0.17696445   2    1000023    1000037
    0.16067539   2    1000024    1000035
    0.15587449   2    1000025    1000037
    0.065610627   2   -15    16
    0.057758513   2    1000022    1000024
    0.029957811   2   -2000015    1000016
    0.0092847174   2    1000024    1000025
    0.002015064   2    1000023    1000024
    0.0005255367   2    1000022    1000037
    0.00050112919   2   -5    4
    0.00023195704   2   -13    14
    0.00012964428   2   -3    4
    6.0606552e-06   2   -3    2
    4.1429541e-06   2   -3    6
    3.5785797e-06   2   -5    2
    3.5507737e-06   2   -1000015    1000016
    2.4376485e-06   2    1000035    1000037
    1.1463396e-06   2    24    25
    8.1628964e-07   2   -1000011    1000012
    8.1508153e-07   2   -1000013    1000014
    3.5972454e-07   2   -1    2
    1.8124733e-07   2   -1    6
    1.8432126e-08   2   -1    4
    5.4254994e-09   2   -11    12
    4.4683992e-09   2   -2000013    1000014
    2.2052117e-13   2    24    35
    1.0451962e-13   2   -2000011    1000012

DECAY 6  2.43
    1   2    5    24

DECAY 15 -1
