# SUSY Les Houches Accord 2 - MSSM spectrum + Decays
# SPheno v4.0.5be
# W. Porod, Comput. Phys. Commun. 153 (2003) 275-315, hep-ph/0301101;
# W. Porod, F.~Staub, Comput. Phys. Commun. 183 (2012) 2458
#                     arXiv:1104.1573 [hep-ph] 
# in case of problems send email to porod@physik.uni-wuerzburg.de
# Created: 15.05.2022,  07:15
Block SPINFO         # Program information
     1   SPheno      # spectrum calculator
     2   v4.0.5be    # version number
#
Block SPhenoINFO     # SPheno specific information
    1      2         # using 2-loop RGEs
    2      2         # using pole masses for boundary conditions at mZ
Block MODSEL  # Model selection
    1    0    # general MSSM
Block MINPAR  # Input parameters
    3    3.67676676E+01  # tanb at m_Z    
    4   -1.00000000E+00  # Sign(mu)
Block EXTPAR  # non-universal input parameters
    0    2.87766499E+03  # scale for input parameters
    1   -2.55195137E+02  # M_1
    2    1.06646265E+03  # M_2
    3    4.85695347E+03  # M_3
   11   -7.20719002E+03  # A_t
   12    9.11278297E+02  # A_b
   13   -3.78511827E+02  # A_tau
   23   -1.06516516E+03  # mu
   25    3.57578231E+01  # tan(beta)
   26    3.46291576E+03  # m_A, pole mass
   31    2.07479140E+02  # M_L11
   32    2.07479140E+02  # M_L22
   33    2.63844450E+02  # M_L33
   34    8.35984440E+02  # M_E11
   35    8.35984440E+02  # M_E22
   36    7.79893488E+02  # M_E33
   41    1.00000000E+04  # M_Q11
   42    1.00000000E+04  # M_Q22
   43    3.77677145E+03  # M_Q33
   44    1.00000000E+04  # M_U11
   45    1.00000000E+04  # M_U22
   46    2.21868046E+03  # M_U33
   47    1.00000000E+04  # M_D11
   48    1.00000000E+04  # M_D22
   49    2.61391321E+03  # M_D33
Block SMINPUTS  # SM parameters
         1     1.27908970E+02  # alpha_em^-1(MZ)^MSbar
         2     1.16637870E-05  # G_mu [GeV^-2]
         3     1.18400000E-01  # alpha_s(MZ)^MSbar
         4     9.11876000E+01  # m_Z(pole)
         5     4.18000000E+00  # m_b(m_b), MSbar
         6     1.73200000E+02  # m_t(pole)
         7     1.77700000E+00  # m_tau(pole)
         8     0.00000000E+00  # m_nu_3
        11     5.10998930E-04  # m_e(pole)
        12     0.00000000E+00  # m_nu_1
        13     1.05658372E-01  # m_muon(pole)
        14     0.00000000E+00  # m_nu_2
        21     5.00000000E-03  # m_d(2 GeV), MSbar
        22     2.50000000E-03  # m_u(2 GeV), MSbar
        23     9.50000000E-02  # m_s(2 GeV), MSbar
        24     1.27000000E+00  # m_c(m_c), MSbar
Block gauge Q=  2.87766499E+03  # (SUSY scale)
   1    3.55362975E-01  # g'(Q)^DRbar
   2    6.65198874E-01  # g(Q)^DRbar
   3    1.21977796E+00  # g3(Q)^DRbar
Block Yu Q=  2.87766499E+03  # (SUSY scale)
  1  1     8.38765017E-06   # Y_u(Q)^DRbar
  2  2     4.26092629E-03   # Y_c(Q)^DRbar
  3  3     1.01329551E+00   # Y_t(Q)^DRbar
Block Yd Q=  2.87766499E+03  # (SUSY scale)
  1  1     6.02686728E-04   # Y_d(Q)^DRbar
  2  2     1.14510478E-02   # Y_s(Q)^DRbar
  3  3     5.97676379E-01   # Y_b(Q)^DRbar
Block Ye Q=  2.87766499E+03  # (SUSY scale)
  1  1     1.05173241E-04   # Y_e(Q)^DRbar
  2  2     2.17464906E-02   # Y_mu(Q)^DRbar
  3  3     3.65740198E-01   # Y_tau(Q)^DRbar
Block Au Q=  2.87766499E+03  # (SUSY scale)
  1  1     0.00000000E+00   # A_u(Q)^DRbar
  2  2     0.00000000E+00   # A_c(Q)^DRbar
  3  3    -7.20719178E+03   # A_t(Q)^DRbar
Block Ad Q=  2.87766499E+03  # (SUSY scale)
  1  1     0.00000000E+00   # A_d(Q)^DRbar
  2  2     0.00000000E+00   # A_s(Q)^DRbar
  3  3     9.11278975E+02   # A_b(Q)^DRbar
Block Ae Q=  2.87766499E+03  # (SUSY scale)
  1  1     0.00000000E+00   # A_e(Q)^DRbar
  2  2     0.00000000E+00   # A_mu(Q)^DRbar
  3  3    -3.78511816E+02   # A_tau(Q)^DRbar
Block MSOFT Q=  2.87766499E+03  # soft SUSY breaking masses at Q
   1   -2.55195137E+02  # M_1
   2    1.06646265E+03  # M_2
   3    4.85695347E+03  # M_3
  21    1.09534905E+07  # M^2_(H,d)
  22   -1.07179377E+06  # M^2_(H,u)
  31    2.07479140E+02  # M_(L,11)
  32    2.07479140E+02  # M_(L,22)
  33    2.63844450E+02  # M_(L,33)
  34    8.35984440E+02  # M_(E,11)
  35    8.35984440E+02  # M_(E,22)
  36    7.79893488E+02  # M_(E,33)
  41    1.00000000E+04  # M_(Q,11)
  42    1.00000000E+04  # M_(Q,22)
  43    3.77677145E+03  # M_(Q,33)
  44    1.00000000E+04  # M_(U,11)
  45    1.00000000E+04  # M_(U,22)
  46    2.21868046E+03  # M_(U,33)
  47    1.00000000E+04  # M_(D,11)
  48    1.00000000E+04  # M_(D,22)
  49    2.61391321E+03  # M_(D,33)
Block MASS  # Mass spectrum
#   PDG code      mass          particle
         6     1.73200000E+02  # m_t(pole)
        23     9.11876000E+01  # m_Z(pole)
        24     8.04299946E+01  # W+
        15     1.77700000E+00  # m_tau(pole)
        25     1.26705006E+02  # h0
        35     3.46192568E+03  # H0
        36     3.46291576E+03  # A0
        37     3.46364736E+03  # H+
   1000001     1.00694230E+04  # ~d_L
   2000001     1.00468046E+04  # ~d_R
   1000002     1.00692154E+04  # ~u_L
   2000002     1.00501141E+04  # ~u_R
   1000003     1.00694303E+04  # ~s_L
   2000003     1.00468157E+04  # ~s_R
   1000004     1.00692223E+04  # ~c_L
   2000004     1.00501157E+04  # ~c_R
   1000005     2.68264742E+03  # ~b_1
   2000005     3.79097904E+03  # ~b_2
   1000006     2.17523460E+03  # ~t_1
   2000006     3.80692537E+03  # ~t_2
   1000011     2.68834504E+02  # ~e_L-
   2000011     8.39046424E+02  # ~e_R-
   1000012     2.56727458E+02  # ~nu_eL
   1000013     2.68762920E+02  # ~mu_L-
   2000013     8.39034524E+02  # ~mu_R-
   1000014     2.56702280E+02  # ~nu_muL
   1000015     2.95271596E+02  # ~tau_1-
   2000015     7.80090784E+02  # ~tau_2-
   1000016     2.98154712E+02  # ~nu_tauL
   1000021     5.24898127E+03  # ~g
   1000022     2.51254700E+02  # ~chi_10
   1000023     1.04211971E+03  # ~chi_20
   1000025     1.08186446E+03  # ~chi_30
   1000035     1.15823258E+03  # ~chi_40
   1000024     1.04308378E+03  # ~chi_1+
   1000037     1.15870896E+03  # ~chi_2+
# Higgs mixing
Block alpha # Effective Higgs mixing angle
          -2.72321361E-02   # alpha
Block Hmix Q=  2.87766499E+03  # Higgs mixing parameters
   1   -1.06516516E+03  # mu
   2    3.57578231E+01  # tan[beta](Q)
   3    2.43257374E+02  # v(Q)
   4    1.19917856E+07  # m^2_A(Q)
Block stopmix # stop mixing matrix
   1  1     1.04907656E-01   # Re[R_st(1,1)]
   1  2     9.94481968E-01   # Re[R_st(1,2)]
   2  1    -9.94481968E-01   # Re[R_st(2,1)]
   2  2     1.04907656E-01   # Re[R_st(2,2)]
Block sbotmix # sbottom mixing matrix
   1  1    -1.20684151E-02   # Re[R_sb(1,1)]
   1  2     9.99927174E-01   # Re[R_sb(1,2)]
   2  1    -9.99927174E-01   # Re[R_sb(2,1)]
   2  2    -1.20684151E-02   # Re[R_sb(2,2)]
Block staumix # stau mixing matrix
   1  1    -9.93485713E-01   # Re[R_sta(1,1)]
   1  2     1.13956740E-01   # Re[R_sta(1,2)]
   2  1    -1.13956740E-01   # Re[R_sta(2,1)]
   2  2    -9.93485713E-01   # Re[R_sta(2,2)]
Block Nmix # neutralino mixing matrix
   1  1    -9.98963711E-01   # Re[N(1,1)]
   1  2    -6.65417856E-04   # Re[N(1,2)]
   1  3     4.40816587E-02   # Re[N(1,3)]
   1  4    -1.13078752E-02   # Re[N(1,4)]
   2  1    -1.84080563E-02   # Re[N(2,1)]
   2  2    -6.21022944E-01   # Re[N(2,2)]
   2  3    -5.65633718E-01   # Re[N(2,3)]
   2  4    -5.42263906E-01   # Re[N(2,4)]
   3  1     3.91512365E-02   # Re[N(3,1)]
   3  2    -2.61293437E-02   # Re[N(3,2)]
   3  3     7.05419479E-01   # Re[N(3,3)]
   3  4    -7.07225421E-01   # Re[N(3,4)]
   4  1     1.41360393E-02   # Re[N(4,1)]
   4  2    -7.83356444E-01   # Re[N(4,2)]
   4  3     4.24851342E-01   # Re[N(4,3)]
   4  4     4.53491116E-01   # Re[N(4,4)]
Block Umix # chargino mixing matrix
   1  1    -5.53146529E-01   # Re[U(1,1)]
   1  2    -8.33083980E-01   # Re[U(1,2)]
   2  1     8.33083980E-01   # Re[U(2,1)]
   2  2    -5.53146529E-01   # Re[U(2,2)]
Block Vmix # chargino mixing matrix
   1  1    -5.95790895E-01   # Re[V(1,1)]
   1  2     8.03139595E-01   # Re[V(1,2)]
   2  1     8.03139595E-01   # Re[V(2,1)]
   2  2     5.95790895E-01   # Re[V(2,2)]
DECAY        23     2.49520000E+00   # Z
DECAY        24     2.08500000E+00   # W
DECAY   1000011     5.40743480E-03   # ~e^-_L
#    BR                NDA      ID1      ID2
     9.99916411E-01    2     1000022        11   # BR(~e^-_L -> chi^0_1 e^-)
#    BR                NDA      ID1      ID2       ID3
DECAY   2000011     3.48646907E+00   # ~e^-_R
#    BR                NDA      ID1      ID2
     9.99999963E-01    2     1000022        11   # BR(~e^-_R -> chi^0_1 e^-)
#    BR                NDA      ID1      ID2       ID3
DECAY   1000013     5.36602595E-03   # ~mu^-_L
#    BR                NDA      ID1      ID2
     9.99917372E-01    2     1000022        13   # BR(~mu^-_L -> chi^0_1 mu^-)
#    BR                NDA      ID1      ID2       ID3
DECAY   2000013     3.49193879E+00   # ~mu^-_R
#    BR                NDA      ID1      ID2
     9.98417755E-01    2     1000022        13   # BR(~mu^-_R -> chi^0_1 mu^-)
     1.58224472E-03    2     1000013        25   # BR(~mu^-_R -> ~mu^-_L h^0)
#    BR                NDA      ID1      ID2       ID3
DECAY   1000015     2.92421910E-02   # ~tau^-_1
#    BR                NDA      ID1      ID2
     9.99999993E-01    2     1000022        15   # BR(~tau^-_1 -> chi^0_1 tau^-)
#    BR                NDA      ID1      ID2       ID3
DECAY   2000015     8.28914007E+00   # ~tau^-_2
#    BR                NDA      ID1      ID2
     3.74491432E-01    2     1000022        15   # BR(~tau^-_2 -> chi^0_1 tau^-)
     2.99493321E-01    2     1000016       -24   # BR(~tau^-_2 -> ~nu_tau W^-)
     1.47175371E-01    2     1000015        23   # BR(~tau^-_2 -> ~tau^-_1 Z)
     1.78839876E-01    2     1000015        25   # BR(~tau^-_2 -> ~tau^-_1 h^0)
DECAY   1000012     5.71153275E-04   # ~nu_e
#    BR                NDA      ID1      ID2
     1.00000000E+00    2     1000022        12   # BR(~nu_e -> chi^0_1 nu_e)
DECAY   1000014     5.66020483E-04   # ~nu_mu
#    BR                NDA      ID1      ID2
     1.00000000E+00    2     1000022        14   # BR(~nu_mu -> chi^0_1 nu_mu)
DECAY   1000016     3.13237195E-02   # ~nu_tau
#    BR                NDA      ID1      ID2
     9.99999925E-01    2     1000022        16   # BR(~nu_tau -> chi^0_1 nu_tau)
#    BR                NDA      ID1      ID2       ID3
DECAY   2000001     4.24789766E+02   # ~d_R
#    BR                NDA      ID1      ID2
     1.31604860E-02    2     1000022         1   # BR(~d_R -> chi^0_1 d)
     9.86812460E-01    2     1000021         1   # BR(~d_R -> ~g d)
DECAY   1000001     5.52636170E+02   # ~d_L
#    BR                NDA      ID1      ID2
     2.51576813E-03    2     1000022         1   # BR(~d_L -> chi^0_1 d)
     2.99525569E-02    2     1000023         1   # BR(~d_L -> chi^0_2 d)
     4.82286854E-02    2     1000035         1   # BR(~d_L -> chi^0_4 d)
     4.80294769E-02    2    -1000024         2   # BR(~d_L -> chi^-_1 u)
     1.08392115E-01    2    -1000037         2   # BR(~d_L -> chi^-_2 u)
     7.62795478E-01    2     1000021         1   # BR(~d_L -> ~g d)
DECAY   2000003     4.24841999E+02   # ~s_R
#    BR                NDA      ID1      ID2
     1.31590020E-02    2     1000022         3   # BR(~s_R -> chi^0_1 s)
     9.86693860E-01    2     1000021         3   # BR(~s_R -> ~g s)
DECAY   1000003     5.52666176E+02   # ~s_L
#    BR                NDA      ID1      ID2
     2.51572539E-03    2     1000022         3   # BR(~s_L -> chi^0_1 s)
     2.99658010E-02    2     1000023         3   # BR(~s_L -> chi^0_2 s)
     1.08959288E-04    2     1000025         3   # BR(~s_L -> chi^0_3 s)
     4.82344274E-02    2     1000035         3   # BR(~s_L -> chi^0_4 s)
     4.80310316E-02    2    -1000024         4   # BR(~s_L -> chi^-_1 c)
     1.08388615E-01    2    -1000037         4   # BR(~s_L -> chi^-_2 c)
     7.62755440E-01    2     1000021         3   # BR(~s_L -> ~g s)
DECAY   1000005     2.80657497E+01   # ~b_1
#    BR                NDA      ID1      ID2
     5.39173073E-02    2     1000022         5   # BR(~b_1 -> chi^0_1 b)
     1.59932168E-01    2     1000023         5   # BR(~b_1 -> chi^0_2 b)
     2.36765778E-01    2     1000025         5   # BR(~b_1 -> chi^0_3 b)
     7.83214878E-02    2     1000035         5   # BR(~b_1 -> chi^0_4 b)
     3.41038567E-01    2    -1000024         6   # BR(~b_1 -> chi^-_1 t)
     1.29995686E-01    2    -1000037         6   # BR(~b_1 -> chi^-_2 t)
DECAY   2000005     2.53456336E+02   # ~b_2
#    BR                NDA      ID1      ID2
     2.20840585E-03    2     1000022         5   # BR(~b_2 -> chi^0_1 b)
     4.99654992E-02    2     1000023         5   # BR(~b_2 -> chi^0_2 b)
     4.47434048E-02    2     1000025         5   # BR(~b_2 -> chi^0_3 b)
     4.97111451E-02    2     1000035         5   # BR(~b_2 -> chi^0_4 b)
     1.96586856E-01    2    -1000024         6   # BR(~b_2 -> chi^-_1 t)
     1.69528371E-01    2    -1000037         6   # BR(~b_2 -> chi^-_2 t)
     4.83771928E-01    2     1000006       -24   # BR(~b_2 -> ~t_1 W^-)
     1.31133948E-03    2     1000005        23   # BR(~b_2 -> ~b_1 Z)
     2.17305055E-03    2     1000005        25   # BR(~b_2 -> ~b_1 h^0)
DECAY   2000002     4.41947837E+02   # ~u_R
#    BR                NDA      ID1      ID2
     5.06148944E-02    2     1000022         2   # BR(~u_R -> chi^0_1 u)
     9.49282337E-01    2     1000021         2   # BR(~u_R -> ~g u)
DECAY   1000002     5.52635434E+02   # ~u_L
#    BR                NDA      ID1      ID2
     2.55364397E-03    2     1000022         2   # BR(~u_L -> chi^0_1 u)
     3.05910292E-02    2     1000023         2   # BR(~u_L -> chi^0_2 u)
     4.76117405E-02    2     1000035         2   # BR(~u_L -> chi^0_4 u)
     5.57194901E-02    2     1000024         1   # BR(~u_L -> chi^+_1 d)
     1.00738043E-01    2     1000037         1   # BR(~u_L -> chi^+_2 d)
     7.62757296E-01    2     1000021         2   # BR(~u_L -> ~g u)
DECAY   2000004     4.41955067E+02   # ~c_R
#    BR                NDA      ID1      ID2
     5.06140736E-02    2     1000022         4   # BR(~c_R -> chi^0_1 c)
     9.49267115E-01    2     1000021         4   # BR(~c_R -> ~g c)
DECAY   1000004     5.52665365E+02   # ~c_L
#    BR                NDA      ID1      ID2
     2.55350815E-03    2     1000022         4   # BR(~c_L -> chi^0_1 c)
     3.05912728E-02    2     1000023         4   # BR(~c_L -> chi^0_2 c)
     4.76105285E-02    2     1000035         4   # BR(~c_L -> chi^0_4 c)
     5.57487175E-02    2     1000024         3   # BR(~c_L -> chi^+_1 s)
     1.00746768E-01    2     1000037         3   # BR(~c_L -> chi^+_2 s)
     7.62717234E-01    2     1000021         4   # BR(~c_L -> ~g c)
DECAY   1000006     5.39738844E+01   # ~t_1
#    BR                NDA      ID1      ID2
     8.52396544E-02    2     1000022         6   # BR(~t_1 -> chi^0_1 t)
     1.53681940E-01    2     1000023         6   # BR(~t_1 -> chi^0_2 t)
     2.23635280E-01    2     1000025         6   # BR(~t_1 -> chi^0_3 t)
     6.93049396E-02    2     1000035         6   # BR(~t_1 -> chi^0_4 t)
     3.45632861E-01    2     1000024         5   # BR(~t_1 -> chi^+_1 b)
     1.22413227E-01    2     1000037         5   # BR(~t_1 -> chi^+_2 b)
#    BR                NDA      ID1      ID2       ID3
DECAY   2000006     2.82429659E+02   # ~t_2
#    BR                NDA      ID1      ID2
     2.35420200E-03    2     1000022         6   # BR(~t_2 -> chi^0_1 t)
     7.93151297E-02    2     1000023         6   # BR(~t_2 -> chi^0_2 t)
     1.15671035E-01    2     1000025         6   # BR(~t_2 -> chi^0_3 t)
     8.60832626E-02    2     1000035         6   # BR(~t_2 -> chi^0_4 t)
     7.81651508E-02    2     1000024         5   # BR(~t_2 -> chi^+_1 b)
     1.01863083E-01    2     1000037         5   # BR(~t_2 -> chi^+_2 b)
     2.42356558E-03    2     1000005        24   # BR(~t_2 -> ~b_1 W^+)
     2.19892487E-01    2     1000006        23   # BR(~t_2 -> ~t_1 Z)
     3.14232084E-01    2     1000006        25   # BR(~t_2 -> ~t_1 h^0)
DECAY   1000024     9.51317714E+00   # chi^+_1
#    BR                NDA      ID1      ID2
     1.28699117E-01    2    -1000011        12   # BR(chi^+_1 -> ~e^+_L nu_e)
     1.28708869E-01    2    -1000013        14   # BR(chi^+_1 -> ~mu^+_L nu_mu)
     1.47865465E-01    2    -1000015        16   # BR(chi^+_1 -> ~tau^+_1 nu_tau)
     1.44045506E-02    2    -2000015        16   # BR(chi^+_1 -> ~tau^+_2 nu_tau)
     1.51184436E-01    2     1000012       -11   # BR(chi^+_1 -> ~nu_e e^+)
     1.51501197E-01    2     1000014       -13   # BR(chi^+_1 -> ~nu_mu mu^+)
     2.29021414E-01    2     1000016       -15   # BR(chi^+_1 -> ~nu_tau tau^+)
     4.78370122E-02    2     1000022        24   # BR(chi^+_1 -> chi^0_1 W^+)
#    BR                NDA      ID1      ID2       ID3
     7.33312661E-04    3     1000022        -5         6   # BR(chi^+_1 -> chi^0_1 b_bar t)
DECAY   1000037     1.96002362E+01   # chi^+_2
#    BR                NDA      ID1      ID2
     1.61671135E-01    2    -1000011        12   # BR(chi^+_2 -> ~e^+_L nu_e)
     1.61680931E-01    2    -1000013        14   # BR(chi^+_2 -> ~mu^+_L nu_mu)
     1.43068206E-01    2    -1000015        16   # BR(chi^+_2 -> ~tau^+_1 nu_tau)
     1.22646833E-02    2    -2000015        16   # BR(chi^+_2 -> ~tau^+_2 nu_tau)
     1.51766820E-01    2     1000012       -11   # BR(chi^+_2 -> ~nu_e e^+)
     1.51848143E-01    2     1000014       -13   # BR(chi^+_2 -> ~nu_mu mu^+)
     1.67701135E-01    2     1000016       -15   # BR(chi^+_2 -> ~nu_tau tau^+)
     1.56855109E-02    2     1000022        24   # BR(chi^+_2 -> chi^0_1 W^+)
     2.31695730E-02    2     1000023        24   # BR(chi^+_2 -> chi^0_2 W^+)
     9.48256717E-03    2     1000024        23   # BR(chi^+_2 -> chi^+_1 Z)
#    BR                NDA      ID1      ID2       ID3
     2.96207320E-04    3     1000022        -5         6   # BR(chi^+_2 -> chi^0_1 b_bar t)
     4.48759878E-04    3     1000025        -1         2   # BR(chi^+_2 -> chi^0_3 d_bar u)
     4.48505608E-04    3     1000025        -3         4   # BR(chi^+_2 -> chi^0_3 s_bar c)
     1.49600542E-04    3     1000025       -11        12   # BR(chi^+_2 -> chi^0_3 e^+ nu_e)
     1.49599540E-04    3     1000025       -13        14   # BR(chi^+_2 -> chi^0_3 mu^+ nu_mu)
     1.49305953E-04    3     1000025       -15        16   # BR(chi^+_2 -> chi^0_3 tau^+ nu_tau)
DECAY   1000022     0.00000000E+00   # chi^0_1
DECAY   1000023     1.08359687E+01   # chi^0_2
#    BR                NDA      ID1      ID2
     7.33953910E-02    2     1000011       -11   # BR(chi^0_2 -> ~e^-_L e^+)
     7.33953910E-02    2    -1000011        11   # BR(chi^0_2 -> ~e^+_L e^-)
     7.35257679E-02    2     1000013       -13   # BR(chi^0_2 -> ~mu^-_L mu^+)
     7.35257679E-02    2    -1000013        13   # BR(chi^0_2 -> ~mu^+_L mu^-)
     1.15465798E-01    2     1000015       -15   # BR(chi^0_2 -> ~tau^-_1 tau^+)
     1.15465798E-01    2    -1000015        15   # BR(chi^0_2 -> ~tau^+_1 tau^-)
     5.66685908E-03    2     2000015       -15   # BR(chi^0_2 -> ~tau^-_2 tau^+)
     5.66685908E-03    2    -2000015        15   # BR(chi^0_2 -> ~tau^+_2 tau^-)
     6.97578286E-02    2     1000012       -12   # BR(chi^0_2 -> ~nu_e nu_bar_e)
     6.97578286E-02    2    -1000012        12   # BR(chi^0_2 -> ~nu^*_e nu_e)
     6.97595966E-02    2     1000014       -14   # BR(chi^0_2 -> ~nu_mu nu_bar_mu)
     6.97595966E-02    2    -1000014        14   # BR(chi^0_2 -> ~nu^*_mu nu_mu)
     6.66493764E-02    2     1000016       -16   # BR(chi^0_2 -> ~nu_tau nu_bar_tau)
     6.66493764E-02    2    -1000016        16   # BR(chi^0_2 -> ~nu^*_tau nu_tau)
     2.90007359E-02    2     1000022        23   # BR(chi^0_2 -> chi^0_1 Z)
     2.22763592E-02    2     1000022        25   # BR(chi^0_2 -> chi^0_1 h^0)
#    BR                NDA      ID1      ID2       ID3
     2.03619900E-04    3     1000022         6        -6   # BR(chi^0_2 -> chi^0_1 t t_bar)
DECAY   1000025     2.27872546E+00   # chi^0_3
#    BR                NDA      ID1      ID2
     2.90360409E-04    2     2000011       -11   # BR(chi^0_3 -> ~e^-_R e^+)
     2.90360409E-04    2    -2000011        11   # BR(chi^0_3 -> ~e^+_R e^-)
     1.00348772E-03    2     1000013       -13   # BR(chi^0_3 -> ~mu^-_L mu^+)
     1.00348772E-03    2    -1000013        13   # BR(chi^0_3 -> ~mu^+_L mu^-)
     4.67115885E-04    2     2000013       -13   # BR(chi^0_3 -> ~mu^-_R mu^+)
     4.67115885E-04    2    -2000013        13   # BR(chi^0_3 -> ~mu^+_R mu^-)
     2.63885471E-01    2     1000015       -15   # BR(chi^0_3 -> ~tau^-_1 tau^+)
     2.63885471E-01    2    -1000015        15   # BR(chi^0_3 -> ~tau^+_1 tau^-)
     7.44579231E-02    2     2000015       -15   # BR(chi^0_3 -> ~tau^-_2 tau^+)
     7.44579231E-02    2    -2000015        15   # BR(chi^0_3 -> ~tau^+_2 tau^-)
     2.05936495E-03    2     1000012       -12   # BR(chi^0_3 -> ~nu_e nu_bar_e)
     2.05936495E-03    2    -1000012        12   # BR(chi^0_3 -> ~nu^*_e nu_e)
     2.05941315E-03    2     1000014       -14   # BR(chi^0_3 -> ~nu_mu nu_bar_mu)
     2.05941315E-03    2    -1000014        14   # BR(chi^0_3 -> ~nu^*_mu nu_mu)
     1.97453816E-03    2     1000016       -16   # BR(chi^0_3 -> ~nu_tau nu_bar_tau)
     1.97453816E-03    2    -1000016        16   # BR(chi^0_3 -> ~nu^*_tau nu_tau)
     8.63299168E-02    2     1000022        23   # BR(chi^0_3 -> chi^0_1 Z)
     2.18552632E-01    2     1000022        25   # BR(chi^0_3 -> chi^0_1 h^0)
#    BR                NDA      ID1      ID2       ID3
     2.28432265E-03    3     1000022         6        -6   # BR(chi^0_3 -> chi^0_1 t t_bar)
DECAY   1000035     1.80856912E+01   # chi^0_4
#    BR                NDA      ID1      ID2
     7.59340680E-02    2     1000011       -11   # BR(chi^0_4 -> ~e^-_L e^+)
     7.59340680E-02    2    -1000011        11   # BR(chi^0_4 -> ~e^+_L e^-)
     7.59880915E-02    2     1000013       -13   # BR(chi^0_4 -> ~mu^-_L mu^+)
     7.59880915E-02    2    -1000013        13   # BR(chi^0_4 -> ~mu^+_L mu^-)
     7.95480655E-02    2     1000015       -15   # BR(chi^0_4 -> ~tau^-_1 tau^+)
     7.95480655E-02    2    -1000015        15   # BR(chi^0_4 -> ~tau^+_1 tau^-)
     7.42928741E-03    2     2000015       -15   # BR(chi^0_4 -> ~tau^-_2 tau^+)
     7.42928741E-03    2    -2000015        15   # BR(chi^0_4 -> ~tau^+_2 tau^-)
     7.97127207E-02    2     1000012       -12   # BR(chi^0_4 -> ~nu_e nu_bar_e)
     7.97127207E-02    2    -1000012        12   # BR(chi^0_4 -> ~nu^*_e nu_e)
     7.97143363E-02    2     1000014       -14   # BR(chi^0_4 -> ~nu_mu nu_bar_mu)
     7.97143363E-02    2    -1000014        14   # BR(chi^0_4 -> ~nu^*_mu nu_mu)
     7.68656302E-02    2     1000016       -16   # BR(chi^0_4 -> ~nu_tau nu_bar_tau)
     7.68656302E-02    2    -1000016        16   # BR(chi^0_4 -> ~nu^*_tau nu_tau)
     1.13281605E-02    2     1000024       -24   # BR(chi^0_4 -> chi^+_1 W^-)
     1.13281605E-02    2    -1000024        24   # BR(chi^0_4 -> chi^-_1 W^+)
     1.45192318E-02    2     1000022        23   # BR(chi^0_4 -> chi^0_1 Z)
     1.17117472E-02    2     1000022        25   # BR(chi^0_4 -> chi^0_1 h^0)
#    BR                NDA      ID1      ID2       ID3
     1.50204605E-04    3     1000022         6        -6   # BR(chi^0_4 -> chi^0_1 t t_bar)
     1.04685427E-04    3     1000025        12       -12   # BR(chi^0_4 -> chi^0_3 nu_e nu_bar_e)
DECAY   1000021     2.61103136E+02   # ~g
#    BR                NDA      ID1      ID2
     4.01955976E-04    2     1000006        -4   # BR(~g -> ~t_1 c_bar)
     4.01955976E-04    2    -1000006         4   # BR(~g -> ~t^*_1 c)
     2.00609881E-01    2     1000006        -6   # BR(~g -> ~t_1 t_bar)
     2.00609881E-01    2    -1000006         6   # BR(~g -> ~t^*_1 t)
     6.84263720E-02    2     2000006        -6   # BR(~g -> ~t_2 t_bar)
     6.84263720E-02    2    -2000006         6   # BR(~g -> ~t^*_2 t)
     1.62404457E-01    2     1000005        -5   # BR(~g -> ~b_1 b_bar)
     1.62404457E-01    2    -1000005         5   # BR(~g -> ~b^*_1 b)
     6.80828658E-02    2     2000005        -5   # BR(~g -> ~b_2 b_bar)
     6.80828658E-02    2    -2000005         5   # BR(~g -> ~b^*_2 b)
#    BR                NDA      ID1      ID2       ID3
DECAY        25     3.76258120E-03   # Gamma(h0)
     2.55519239E-03   2        22        22   # BR(h0 -> photon photon)
     1.78989851E-03   2        22        23   # BR(h0 -> photon Z)
     3.51774670E-02   2        23        23   # BR(h0 -> Z Z)
     2.81143629E-01   2       -24        24   # BR(h0 -> W W)
     7.75191078E-02   2        21        21   # BR(h0 -> gluon gluon)
     4.64614614E-09   2       -11        11   # BR(h0 -> Electron electron)
     2.06672831E-04   2       -13        13   # BR(h0 -> Muon muon)
     5.98019997E-02   2       -15        15   # BR(h0 -> Tau tau)
     1.31934128E-07   2        -2         2   # BR(h0 -> Up up)
     2.56066646E-02   2        -4         4   # BR(h0 -> Charm charm)
     5.36918963E-07   2        -1         1   # BR(h0 -> Down down)
     1.94190704E-04   2        -3         3   # BR(h0 -> Strange strange)
     5.16004504E-01   2        -5         5   # BR(h0 -> Bottom bottom)
DECAY        35     7.93244522E+01   # Gamma(HH)
     2.82888284E-08   2        22        22   # BR(HH -> photon photon)
     9.42088754E-08   2        22        23   # BR(HH -> photon Z)
     1.57326259E-07   2        23        23   # BR(HH -> Z Z)
     3.95417829E-08   2       -24        24   # BR(HH -> W W)
     4.07963296E-06   2        21        21   # BR(HH -> gluon gluon)
     5.41705514E-09   2       -11        11   # BR(HH -> Electron electron)
     2.41202245E-04   2       -13        13   # BR(HH -> Muon muon)
     7.08085432E-02   2       -15        15   # BR(HH -> Tau tau)
     6.05388437E-14   2        -2         2   # BR(HH -> Up up)
     1.17440106E-08   2        -4         4   # BR(HH -> Charm charm)
     1.12436630E-03   2        -6         6   # BR(HH -> Top top)
     6.03250978E-07   2        -1         1   # BR(HH -> Down down)
     2.18122964E-04   2        -3         3   # BR(HH -> Strange strange)
     5.46880375E-01   2        -5         5   # BR(HH -> Bottom bottom)
     5.56035145E-02   2  -1000024   1000024   # BR(HH -> Chargino1 chargino1)
     6.61790743E-02   2  -1000024   1000037   # BR(HH -> Chargino1 chargino2)
     6.61790743E-02   2  -1000037   1000024   # BR(HH -> Chargino2 chargino1)
     3.73262919E-02   2  -1000037   1000037   # BR(HH -> Chargino2 chargino2)
     1.79906841E-04   2   1000022   1000022   # BR(HH -> neutralino1 neutralino1)
     1.51919454E-02   2   1000022   1000023   # BR(HH -> neutralino1 neutralino2)
     1.81960976E-02   2   1000022   1000025   # BR(HH -> neutralino1 neutralino3)
     8.10910208E-03   2   1000022   1000035   # BR(HH -> neutralino1 neutralino4)
     2.57688984E-02   2   1000023   1000023   # BR(HH -> neutralino2 neutralino2)
     2.87055377E-02   2   1000023   1000025   # BR(HH -> neutralino2 neutralino3)
     1.54875303E-04   2   1000023   1000035   # BR(HH -> neutralino2 neutralino4)
     1.88294460E-04   2   1000025   1000025   # BR(HH -> neutralino3 neutralino3)
     3.72604576E-02   2   1000025   1000035   # BR(HH -> neutralino3 neutralino4)
     2.01370866E-02   2   1000035   1000035   # BR(HH -> neutralino4 neutralino4)
     4.97490293E-07   2        25        25   # BR(HH -> h0 h0)
     7.19082791E-08   2  -1000011   1000011   # BR(HH -> Selectron1 selectron1)
     3.22923697E-13   2  -2000011   1000011   # BR(HH -> Selectron2 selectron1)
     3.22923697E-13   2  -1000011   2000011   # BR(HH -> Selectron1 selectron2)
     4.10365062E-08   2  -2000011   2000011   # BR(HH -> Selectron2 selectron2)
     7.06257768E-08   2  -1000013   1000013   # BR(HH -> Smuon1 smuon1)
     1.38037993E-08   2  -2000013   1000013   # BR(HH -> Smuon2 smuon1)
     1.38037993E-08   2  -1000013   2000013   # BR(HH -> Smuon1 smuon2)
     4.12825773E-08   2  -2000013   2000013   # BR(HH -> Smuon2 smuon2)
     4.95279460E-05   2  -1000015   1000015   # BR(HH -> Stau1 stau1)
     7.23403025E-04   2  -2000015   1000015   # BR(HH -> Stau2 stau1)
     7.23403025E-04   2  -1000015   2000015   # BR(HH -> Stau1 stau2)
     4.44278206E-05   2  -2000015   2000015   # BR(HH -> Stau2 stau2)
DECAY        36     7.67233395E+01   # Gamma(A0)
     4.98979305E-09   2        22        22   # BR(A0 -> photon photon)
     4.45121685E-08   2        22        23   # BR(A0 -> photon Z)
     1.07067737E-05   2        21        21   # BR(A0 -> gluon gluon)
     5.30096391E-09   2       -11        11   # BR(A0 -> Electron electron)
     2.36033661E-04   2       -13        13   # BR(A0 -> Muon muon)
     6.92918205E-02   2       -15        15   # BR(A0 -> Tau tau)
     6.43872062E-14   2        -2         2   # BR(A0 -> Up up)
     1.24896420E-08   2        -4         4   # BR(A0 -> Charm charm)
     1.19760384E-03   2        -6         6   # BR(A0 -> Top top)
     5.90384408E-07   2        -1         1   # BR(A0 -> Down down)
     2.13471387E-04   2        -3         3   # BR(A0 -> Strange strange)
     5.35225399E-01   2        -5         5   # BR(A0 -> Bottom bottom)
     7.92669250E-02   2  -1000024   1000024   # BR(A0 -> Chargino1 chargino1)
     4.73743592E-02   2  -1000024   1000037   # BR(A0 -> Chargino1 chargino2)
     4.73743592E-02   2  -1000037   1000024   # BR(A0 -> Chargino2 chargino1)
     5.90223735E-02   2  -1000037   1000037   # BR(A0 -> Chargino2 chargino2)
     1.95734403E-04   2   1000022   1000022   # BR(A0 -> neutralino1 neutralino1)
     1.30600621E-02   2   1000022   1000023   # BR(A0 -> neutralino1 neutralino2)
     2.32325663E-02   2   1000022   1000025   # BR(A0 -> neutralino1 neutralino3)
     6.58373149E-03   2   1000022   1000035   # BR(A0 -> neutralino1 neutralino4)
     3.65157692E-02   2   1000023   1000023   # BR(A0 -> neutralino2 neutralino2)
     2.14221521E-02   2   1000023   1000025   # BR(A0 -> neutralino2 neutralino3)
     2.55829215E-04   2   1000023   1000035   # BR(A0 -> neutralino2 neutralino4)
     3.50755632E-04   2   1000025   1000025   # BR(A0 -> neutralino3 neutralino3)
     2.55491125E-02   2   1000025   1000035   # BR(A0 -> neutralino3 neutralino4)
     3.20277520E-02   2   1000035   1000035   # BR(A0 -> neutralino4 neutralino4)
     2.97194809E-07   2        23        25   # BR(A0 -> Z h0)
     1.34920030E-39   2        25        25   # BR(A0 -> h0 h0)
     3.30963479E-13   2  -2000011   1000011   # BR(A0 -> Selectron2 selectron1)
     3.30963479E-13   2  -1000011   2000011   # BR(A0 -> Selectron1 selectron2)
     1.41497263E-08   2  -2000013   1000013   # BR(A0 -> Smuon2 smuon1)
     1.41497263E-08   2  -1000013   2000013   # BR(A0 -> Smuon1 smuon2)
     7.96250172E-04   2  -2000015   1000015   # BR(A0 -> Stau2 stau1)
     7.96250172E-04   2  -1000015   2000015   # BR(A0 -> Stau1 stau2)
DECAY        37     8.60031009E+01   # Gamma(Hp)
     9.00352107E-09   2       -11        12   # BR(Hp -> Electron nu_e)
     3.84928647E-04   2       -13        14   # BR(Hp -> Muon nu_mu)
     1.08879729E-01   2       -15        16   # BR(Hp -> Tau nu_tau)
     5.85025694E-07   2        -1         2   # BR(Hp -> Down up)
     9.88706582E-06   2        -3         2   # BR(Hp -> Strange up)
     5.69304926E-06   2        -5         2   # BR(Hp -> Bottom up)
     2.80552904E-08   2        -1         4   # BR(Hp -> Down charm)
     2.10764808E-04   2        -3         4   # BR(Hp -> Strange charm)
     7.97230677E-04   2        -5         4   # BR(Hp -> Bottom charm)
     7.56214051E-08   2        -1         6   # BR(Hp -> Down top)
     1.96186771E-06   2        -3         6   # BR(Hp -> Strange top)
     5.38672666E-01   2        -5         6   # BR(Hp -> Bottom top)
     2.55421878E-02   2   1000022   1000024   # BR(Hp -> neutralino1 chargino1)
     1.35258981E-02   2   1000022   1000037   # BR(Hp -> neutralino1 chargino2)
     2.90708913E-05   2   1000023   1000024   # BR(Hp -> neutralino2 chargino1)
     1.07823738E-01   2   1000023   1000037   # BR(Hp -> neutralino2 chargino2)
     5.02665753E-02   2   1000024   1000025   # BR(Hp -> chargino1 neutralino3)
     5.27965878E-02   2   1000025   1000037   # BR(Hp -> neutralino3 chargino2)
     9.96085238E-02   2   1000024   1000035   # BR(Hp -> chargino1 neutralino4)
     2.18885703E-05   2   1000035   1000037   # BR(Hp -> neutralino4 chargino2)
     2.65419714E-07   2        24        25   # BR(Hp -> W h0)
     2.39450495E-13   2        24        35   # BR(Hp -> W HH)
     2.60427711E-07   2  -1000011   1000012   # BR(Hp -> Selectron1 snu_e1)
     6.14289680E-13   2  -2000011   1000012   # BR(Hp -> Selectron2 snu_e1)
     2.58758242E-07   2  -1000013   1000014   # BR(Hp -> Smuon1 snu_mu1)
     2.62604677E-08   2  -2000013   1000014   # BR(Hp -> Smuon2 snu_mu1)
     2.01557008E-05   2  -1000015   1000016   # BR(Hp -> Stau1 snu_tau1)
     1.40100445E-03   2  -2000015   1000016   # BR(Hp -> Stau2 snu_tau1)
DECAY         6     2.43000000E+00   # top
#    BR                NDA      ID1      ID2
     1.00000000E+00    2           5        24   # BR(t -> b W)
Block HiggsBoundsInputHiggsCouplingsFermions
# ScalarNormEffCoupSq PseudoSNormEffCoupSq NP IP1 IP2 IP2
    9.48719283E-01    0.00000000E+00        3  25   5   5  # h0-b-b eff. coupling^2, normalised to SM
    1.27867319E+03    0.00000000E+00        3  35   5   5  # H0-b-b eff. coupling^2, normalised to SM
    0.00000000E+00    1.27862191E+03        3  36   5   5  # A0-b-b eff. coupling^2, normalised to SM
#
    1.00004011E+00    0.00000000E+00        3  25   6   6  # h0-t-t eff. coupling^2, normalised to SM
    7.41985784E-04    0.00000000E+00        3  35   6   6  # H0-t-t eff. coupling^2, normalised to SM
    0.00000000E+00    7.82092024E-04        3  36   6   6  # A0-t-t eff. coupling^2, normalised to SM
#
    9.48719283E-01    0.00000000E+00        3  25  15  15  # h0-tau-tau eff. coupling^2, normalised to SM
    1.27867319E+03    0.00000000E+00        3  35  15  15  # H0-tau-tau eff. coupling^2, normalised to SM
    0.00000000E+00    1.27862191E+03        3  36  15  15  # A0-tau-tau eff. coupling^2, normalised to SM
#
Block HiggsBoundsInputHiggsCouplingsBosons
    9.99999472E-01        3  25  24  24  # h0-W-W eff. coupling^2, normalised to SM
    5.27780261E-07        3  35  24  24  # H0-W-W eff. coupling^2, normalised to SM
    0.00000000E+00        3  36  24  24  # A0-W-W eff. coupling^2, normalised to SM
#
    9.99999472E-01        3  25  23  23  # h0-Z-Z eff. coupling^2, normalised to SM
    5.27780261E-07        3  35  23  23  # H0-Z-Z eff. coupling^2, normalised to SM
    0.00000000E+00        3  36  23  23  # A0-Z-Z eff. coupling^2, normalised to SM
#
    1.25291873E+00        3  25  21  21  # h0-g-g eff. coupling^2, normalised to SM
    3.68921676E-03        3  35  21  21  # H0-g-g eff. coupling^2, normalised to SM
    1.11922624E-01        3  36  21  21  # A0-g-g eff. coupling^2, normalised to SM
#
    0.00000000E+00        3  25  25  23  # h0-h0-Z eff. coupling^2, normalised to SM
    0.00000000E+00        3  35  25  23  # H0-h0-Z eff. coupling^2, normalised to SM
    5.27780261E-07        3  36  25  23  # A0-h0-Z eff. coupling^2, normalised to SM
    0.00000000E+00        3  35  35  23  # H0-H0-Z eff. coupling^2, normalised to SM
    9.99999472E-01        3  36  35  23  # A0-H0-Z eff. coupling^2, normalised to SM
    0.00000000E+00        3  36  36  23  # A0-A0-Z eff. coupling^2, normalised to SM
#
    0.00000000E+00        4  25  21  21  23  # h0-g-g-Z eff. coupling^2, normalised to SM
    0.00000000E+00        4  35  21  21  23  # H0-g-g-Z eff. coupling^2, normalised to SM
    0.00000000E+00        4  36  21  21  23  # A0-g-g-Z eff. coupling^2, normalised to SM
Block SPhenoLowEnergy  # low energy observables
    1    3.41133025E-04   # BR(b -> s gamma)
    2    1.58893274E-06   # BR(b -> s mu+ mu-)
    3    3.52676502E-05   # BR(b -> s nu nu)
    4    1.87325060E-15   # BR(Bd -> e+ e-)
    5    8.00238207E-11   # BR(Bd -> mu+ mu-)
    6    1.67923612E-08   # BR(Bd -> tau+ tau-)
    7    6.34484061E-14   # BR(Bs -> e+ e-)
    8    2.71053761E-09   # BR(Bs -> mu+ mu-)
    9    5.76343430E-07   # BR(Bs -> tau+ tau-)
   10    9.59015008E-05   # BR(B_u -> tau nu)
   11    9.90625788E-01   # BR(B_u -> tau nu)/BR(B_u -> tau nu)_SM
   12    5.42287932E-01   # |Delta(M_Bd)| [ps^-1] 
   13    1.93683859E+01   # |Delta(M_Bs)| [ps^-1] 
   14    0.00000000E+00   # neutron EDM according to the chiral quark model
   15    0.00000000E+00   # neutron EDM according to the relativistic quark-parton model
   16    2.15917042E-03   # epsilon_K
   17    2.28167766E-15   # Delta(M_K)
   18    2.48088218E-11   # BR(K^0 -> pi^0 nu nu)
   19    8.29263436E-11   # BR(K^+ -> pi^+ nu nu)
   20    3.93167119E-14   # Delta(g-2)_electron/2
   21    1.68930125E-09   # Delta(g-2)_muon/2
   22    4.26549610E-07   # Delta(g-2)_tau/2
   23    0.00000000E+00   # electric dipole moment of the electron
   24    0.00000000E+00   # electric dipole moment of the muon
   25    0.00000000E+00   # electric dipole moment of the tau
   26    0.00000000E+00   # Br(mu -> e gamma)
   27    0.00000000E+00   # Br(tau -> e gamma)
   28    0.00000000E+00   # Br(tau -> mu gamma)
   29    0.00000000E+00   # Br(mu -> 3 e)
   30    0.00000000E+00   # Br(tau -> 3 e)
   31    0.00000000E+00   # Br(tau -> 3 mu)
   39    4.03822856E-03   # Delta(rho_parameter)
   40    0.00000000E+00   # BR(Z -> e mu)
   41    0.00000000E+00   # BR(Z -> e tau)
   42    0.00000000E+00   # BR(Z -> mu tau)
Block FWCOEF Q=  1.60000000E+02  # Wilson coefficients at scale Q
#    id        order  M        value         comment
     0305 4422   00   0    -1.88819110E-01   # C7
     0305 4422   00   2    -2.12496732E-01   # C7
     0305 4322   00   2    -2.37429988E-04   # C7'
     0305 6421   00   0    -9.52278348E-02   # C8
     0305 6421   00   2    -1.12020836E-01   # C8
     0305 6321   00   2    -1.91276494E-04   # C8'
 03051111 4133   00   0     1.61531768E+00   # C9 e+e-
 03051111 4133   00   2     1.61563517E+00   # C9 e+e-
 03051111 4233   00   2     2.82412865E-04   # C9' e+e-
 03051111 4137   00   0    -4.43800978E+00   # C10 e+e-
 03051111 4137   00   2    -4.43786318E+00   # C10 e+e-
 03051111 4237   00   2    -2.12524457E-03   # C10' e+e-
 03051313 4133   00   0     1.61531768E+00   # C9 mu+mu-
 03051313 4133   00   2     1.61563264E+00   # C9 mu+mu-
 03051313 4233   00   2     2.82412492E-04   # C9' mu+mu-
 03051313 4137   00   0    -4.43800978E+00   # C10 mu+mu-
 03051313 4137   00   2    -4.43786572E+00   # C10 mu+mu-
 03051313 4237   00   2    -2.12524519E-03   # C10' mu+mu-
 03051212 4137   00   0     1.50535012E+00   # C11 nu_1 nu_1
 03051212 4137   00   2     1.50532798E+00   # C11 nu_1 nu_1
 03051212 4237   00   2     4.60726399E-04   # C11' nu_1 nu_1
 03051414 4137   00   0     1.50535012E+00   # C11 nu_2 nu_2
 03051414 4137   00   2     1.50532798E+00   # C11 nu_2 nu_2
 03051414 4237   00   2     4.60726426E-04   # C11' nu_2 nu_2
 03051616 4137   00   0     1.50535012E+00   # C11 nu_3 nu_3
 03051616 4137   00   2     1.50532831E+00   # C11 nu_3 nu_3
 03051616 4237   00   2     4.60734166E-04   # C11' nu_3 nu_3
Block IMFWCOEF Q=  1.60000000E+02  # Im(Wilson coefficients) at scale Q
#    id        order  M        value         comment
     0305 4422   00   0     3.85717830E-07   # C7
     0305 4422   00   2    -8.32674698E-06   # C7
     0305 4322   00   2    -2.40129489E-06   # C7'
     0305 6421   00   0     3.30392830E-07   # C8
     0305 6421   00   2     4.96397192E-06   # C8
     0305 6321   00   2    -1.01860076E-06   # C8'
 03051111 4133   00   2    -6.99153218E-07   # C9 e+e-
 03051111 4233   00   2     5.51679126E-06   # C9' e+e-
 03051111 4137   00   2     4.04410667E-06   # C10 e+e-
 03051111 4237   00   2    -4.15169189E-05   # C10' e+e-
 03051313 4133   00   2    -6.99120779E-07   # C9 mu+mu-
 03051313 4233   00   2     5.51678688E-06   # C9' mu+mu-
 03051313 4137   00   2     4.04405036E-06   # C10 mu+mu-
 03051313 4237   00   2    -4.15169323E-05   # C10' mu+mu-
 03051212 4137   00   2    -7.08009519E-07   # C11 nu_1 nu_1
 03051212 4237   00   2     9.00036327E-06   # C11' nu_1 nu_1
 03051414 4137   00   2    -7.08002502E-07   # C11 nu_2 nu_2
 03051414 4237   00   2     9.00036327E-06   # C11' nu_2 nu_2
 03051616 4137   00   2    -7.07945034E-07   # C11 nu_3 nu_3
 03051616 4237   00   2     9.00036421E-06   # C11' nu_3 nu_3
