# SUSY Les Houches Accord 2 - MSSM spectrum + Decays
# SPheno v4.0.5be
# W. Porod, Comput. Phys. Commun. 153 (2003) 275-315, hep-ph/0301101;
# W. Porod, F.~Staub, Comput. Phys. Commun. 183 (2012) 2458
#                     arXiv:1104.1573 [hep-ph] 
# in case of problems send email to porod@physik.uni-wuerzburg.de
# Created: 20.12.2022,  12:53
Block SPINFO         # Program information
     1   SPheno      # spectrum calculator
     2   v4.0.5be    # version number
#
Block SPhenoINFO     # SPheno specific information
    1      2         # using 2-loop RGEs
    2      2         # using pole masses for boundary conditions at mZ
Block MODSEL  # Model selection
    1    0    # general MSSM
Block MINPAR  # Input parameters
    3    1.29982159E+01  # tanb at m_Z    
    4    1.00000000E+00  # Sign(mu)
Block EXTPAR  # non-universal input parameters
    0    2.97723811E+03  # scale for input parameters
    1   -2.09837137E+02  # M_1
    2    1.59290876E+03  # M_2
    3    4.72374569E+03  # M_3
   11   -5.77233982E+03  # A_t
   12    6.52995303E+02  # A_b
   13    1.64411192E+03  # A_tau
   23    2.34490540E+02  # mu
   25    1.24227262E+01  # tan(beta)
   26    4.87570050E+03  # m_A, pole mass
   31    1.00000000E+04  # M_L11
   32    1.00000000E+04  # M_L22
   33    1.00000000E+04  # M_L33
   34    1.00000000E+04  # M_E11
   35    1.00000000E+04  # M_E22
   36    1.00000000E+04  # M_E33
   41    1.00000000E+04  # M_Q11
   42    1.00000000E+04  # M_Q22
   43    3.24912976E+03  # M_Q33
   44    1.00000000E+04  # M_U11
   45    1.00000000E+04  # M_U22
   46    2.71729458E+03  # M_U33
   47    1.00000000E+04  # M_D11
   48    1.00000000E+04  # M_D22
   49    2.77135039E+03  # M_D33
Block SMINPUTS  # SM parameters
         1     1.27908970E+02  # alpha_em^-1(MZ)^MSbar
         2     1.16637870E-05  # G_mu [GeV^-2]
         3     1.18400000E-01  # alpha_s(MZ)^MSbar
         4     9.11876000E+01  # m_Z(pole)
         5     4.18000000E+00  # m_b(m_b), MSbar
         6     1.73200000E+02  # m_t(pole)
         7     1.77700000E+00  # m_tau(pole)
         8     0.00000000E+00  # m_nu_3
        11     5.10998930E-04  # m_e(pole)
        12     0.00000000E+00  # m_nu_1
        13     1.05658372E-01  # m_muon(pole)
        14     0.00000000E+00  # m_nu_2
        21     5.00000000E-03  # m_d(2 GeV), MSbar
        22     2.50000000E-03  # m_u(2 GeV), MSbar
        23     9.50000000E-02  # m_s(2 GeV), MSbar
        24     1.27000000E+00  # m_c(m_c), MSbar
Block gauge Q=  2.97723811E+03  # (SUSY scale)
   1    3.55362975E-01  # g'(Q)^DRbar
   2    6.65198874E-01  # g(Q)^DRbar
   3    1.21977796E+00  # g3(Q)^DRbar
Block Yu Q=  2.97723811E+03  # (SUSY scale)
  1  1     8.41149308E-06   # Y_u(Q)^DRbar
  2  2     4.27303849E-03   # Y_c(Q)^DRbar
  3  3     1.01617593E+00   # Y_t(Q)^DRbar
Block Yd Q=  2.97723811E+03  # (SUSY scale)
  1  1     2.09976288E-04   # Y_d(Q)^DRbar
  2  2     3.98954946E-03   # Y_s(Q)^DRbar
  3  3     2.08230680E-01   # Y_b(Q)^DRbar
Block Ye Q=  2.97723811E+03  # (SUSY scale)
  1  1     3.66423976E-05   # Y_e(Q)^DRbar
  2  2     7.57648569E-03   # Y_mu(Q)^DRbar
  3  3     1.27424025E-01   # Y_tau(Q)^DRbar
Block Au Q=  2.97723811E+03  # (SUSY scale)
  1  1     0.00000000E+00   # A_u(Q)^DRbar
  2  2     0.00000000E+00   # A_c(Q)^DRbar
  3  3    -5.77233978E+03   # A_t(Q)^DRbar
Block Ad Q=  2.97723811E+03  # (SUSY scale)
  1  1     0.00000000E+00   # A_d(Q)^DRbar
  2  2     0.00000000E+00   # A_s(Q)^DRbar
  3  3     6.52995306E+02   # A_b(Q)^DRbar
Block Ae Q=  2.97723811E+03  # (SUSY scale)
  1  1     0.00000000E+00   # A_e(Q)^DRbar
  2  2     0.00000000E+00   # A_mu(Q)^DRbar
  3  3     1.64411193E+03   # A_tau(Q)^DRbar
Block MSOFT Q=  2.97723811E+03  # soft SUSY breaking masses at Q
   1   -2.09837137E+02  # M_1
   2    1.59290876E+03  # M_2
   3    4.72374569E+03  # M_3
  21    2.34726126E+07  # M^2_(H,d)
  22    2.44625752E+05  # M^2_(H,u)
  31    1.00000000E+04  # M_(L,11)
  32    1.00000000E+04  # M_(L,22)
  33    1.00000000E+04  # M_(L,33)
  34    1.00000000E+04  # M_(E,11)
  35    1.00000000E+04  # M_(E,22)
  36    1.00000000E+04  # M_(E,33)
  41    1.00000000E+04  # M_(Q,11)
  42    1.00000000E+04  # M_(Q,22)
  43    3.24912976E+03  # M_(Q,33)
  44    1.00000000E+04  # M_(U,11)
  45    1.00000000E+04  # M_(U,22)
  46    2.71729458E+03  # M_(U,33)
  47    1.00000000E+04  # M_(D,11)
  48    1.00000000E+04  # M_(D,22)
  49    2.77135039E+03  # M_(D,33)
Block MASS  # Mass spectrum
#   PDG code      mass          particle
         6     1.73200000E+02  # m_t(pole)
        23     9.11876000E+01  # m_Z(pole)
        24     8.04299946E+01  # W+
        15     1.77700000E+00  # m_tau(pole)
        25     1.25814730E+02  # h0
        35     4.87522071E+03  # H0
        36     4.87570050E+03  # A0
        37     4.87667321E+03  # H+
   1000001     1.00731760E+04  # ~d_L
   2000001     1.00512214E+04  # ~d_R
   1000002     1.00729348E+04  # ~u_L
   2000002     1.00546019E+04  # ~u_R
   1000003     1.00731776E+04  # ~s_L
   2000003     1.00512228E+04  # ~s_R
   1000004     1.00729364E+04  # ~c_L
   2000004     1.00546035E+04  # ~c_R
   1000005     2.86975478E+03  # ~b_1
   2000005     3.28668603E+03  # ~b_2
   1000006     2.67258039E+03  # ~t_1
   2000006     3.31662493E+03  # ~t_2
   1000011     1.00200930E+04  # ~e_L-
   2000011     1.00085393E+04  # ~e_R-
   1000012     1.00193380E+04  # ~nu_eL
   1000013     1.00200966E+04  # ~mu_L-
   2000013     1.00085461E+04  # ~mu_R-
   1000014     1.00193415E+04  # ~nu_muL
   1000015     1.00105071E+04  # ~tau_1-
   2000015     1.00211028E+04  # ~tau_2-
   1000016     1.00203451E+04  # ~nu_tauL
   1000021     5.11706085E+03  # ~g
   1000022     1.97134649E+02  # ~chi_10
   1000023     2.43653699E+02  # ~chi_20
   1000025     2.62778162E+02  # ~chi_30
   1000035     1.70022359E+03  # ~chi_40
   1000024     2.42805246E+02  # ~chi_1+
   1000037     1.70019182E+03  # ~chi_2+
# Higgs mixing
Block alpha # Effective Higgs mixing angle
          -7.68576104E-02   # alpha
Block Hmix Q=  2.97723811E+03  # Higgs mixing parameters
   1    2.34490540E+02  # mu
   2    1.24227262E+01  # tan[beta](Q)
   3    2.43229030E+02  # v(Q)
   4    2.37724554E+07  # m^2_A(Q)
Block stopmix # stop mixing matrix
   1  1     2.18321179E-01   # Re[R_st(1,1)]
   1  2     9.75876971E-01   # Re[R_st(1,2)]
   2  1    -9.75876971E-01   # Re[R_st(2,1)]
   2  2     2.18321179E-01   # Re[R_st(2,2)]
Block sbotmix # sbottom mixing matrix
   1  1     1.90894042E-03   # Re[R_sb(1,1)]
   1  2     9.99998178E-01   # Re[R_sb(1,2)]
   2  1    -9.99998178E-01   # Re[R_sb(2,1)]
   2  2     1.90894042E-03   # Re[R_sb(2,2)]
Block staumix # stau mixing matrix
   1  1     1.03002291E-02   # Re[R_sta(1,1)]
   1  2     9.99946951E-01   # Re[R_sta(1,2)]
   2  1    -9.99946951E-01   # Re[R_sta(2,1)]
   2  2     1.03002291E-02   # Re[R_sta(2,2)]
Block Nmix # neutralino mixing matrix
   1  1     8.53334653E-01   # Re[N(1,1)]
   1  2     1.22603303E-02   # Re[N(1,2)]
   1  3     4.10999351E-01   # Re[N(1,3)]
   1  4     3.20545141E-01   # Re[N(1,4)]
   2  1    -7.42357453E-02   # Re[N(2,1)]
   2  2    -4.19874288E-02   # Re[N(2,2)]
   2  3     7.04714864E-01   # Re[N(2,3)]
   2  4    -7.04345846E-01   # Re[N(2,4)]
   3  1    -5.16050033E-01   # Re[N(3,1)]
   3  2     2.40338316E-02   # Re[N(3,2)]
   3  3     5.78223761E-01   # Re[N(3,3)]
   3  4     6.31483982E-01   # Re[N(3,4)]
   4  1     1.17794115E-03   # Re[N(4,1)]
   4  2    -9.98753781E-01   # Re[N(4,2)]
   4  3    -1.06665377E-02   # Re[N(4,3)]
   4  4     4.87413825E-02   # Re[N(4,4)]
Block Umix # chargino mixing matrix
   1  1    -1.50803763E-02   # Re[U(1,1)]
   1  2     9.99886285E-01   # Re[U(1,2)]
   2  1     9.99886285E-01   # Re[U(2,1)]
   2  2     1.50803763E-02   # Re[U(2,2)]
Block Vmix # chargino mixing matrix
   1  1    -6.89588741E-02   # Re[V(1,1)]
   1  2     9.97619503E-01   # Re[V(1,2)]
   2  1     9.97619503E-01   # Re[V(2,1)]
   2  2     6.89588741E-02   # Re[V(2,2)]
DECAY        23     2.49520000E+00   # Z
DECAY        24     2.08500000E+00   # W
DECAY   2000011     5.02420564E+01   # ~e^-_R
#    BR                NDA      ID1      ID2
     7.28298661E-01    2     1000022        11   # BR(~e^-_R -> chi^0_1 e^-)
     5.50958912E-03    2     1000023        11   # BR(~e^-_R -> chi^0_2 e^-)
     2.66190435E-01    2     1000025        11   # BR(~e^-_R -> chi^0_3 e^-)
DECAY   1000011     1.37387642E+02   # ~e^-_L
#    BR                NDA      ID1      ID2
     7.02947148E-02    2     1000022        11   # BR(~e^-_L -> chi^0_1 e^-)
     2.13737290E-03    2     1000023        11   # BR(~e^-_L -> chi^0_2 e^-)
     2.03014071E-02    2     1000025        11   # BR(~e^-_L -> chi^0_3 e^-)
     3.01662531E-01    2     1000035        11   # BR(~e^-_L -> chi^0_4 e^-)
     1.45838244E-04    2    -1000024        12   # BR(~e^-_L -> chi^-_1 nu_e)
     6.05458136E-01    2    -1000037        12   # BR(~e^-_L -> chi^-_2 nu_e)
#    BR                NDA      ID1      ID2       ID3
DECAY   2000013     5.02649224E+01   # ~mu^-_R
#    BR                NDA      ID1      ID2
     7.28006220E-01    2     1000022        13   # BR(~mu^-_R -> chi^0_1 mu^-)
     5.61987806E-03    2     1000023        13   # BR(~mu^-_R -> chi^0_2 mu^-)
     2.66145448E-01    2     1000025        13   # BR(~mu^-_R -> chi^0_3 mu^-)
     2.27070968E-04    2    -1000024        14   # BR(~mu^-_R -> chi^-_1 nu_mu)
DECAY   1000013     1.37399126E+02   # ~mu^-_L
#    BR                NDA      ID1      ID2
     7.03029226E-02    2     1000022        13   # BR(~mu^-_L -> chi^0_1 mu^-)
     2.17850486E-03    2     1000023        13   # BR(~mu^-_L -> chi^0_2 mu^-)
     2.03275228E-02    2     1000025        13   # BR(~mu^-_L -> chi^0_3 mu^-)
     3.01637449E-01    2     1000035        13   # BR(~mu^-_L -> chi^0_4 mu^-)
     1.45826107E-04    2    -1000024        14   # BR(~mu^-_L -> chi^-_1 nu_mu)
     6.05407775E-01    2    -1000037        14   # BR(~mu^-_L -> chi^-_2 nu_mu)
#    BR                NDA      ID1      ID2       ID3
DECAY   1000015     5.67208809E+01   # ~tau^-_1
#    BR                NDA      ID1      ID2
     6.55598111E-01    2     1000022        15   # BR(~tau^-_1 -> chi^0_1 tau^-)
     3.31671703E-02    2     1000023        15   # BR(~tau^-_1 -> chi^0_2 tau^-)
     2.54097474E-01    2     1000025        15   # BR(~tau^-_1 -> chi^0_3 tau^-)
     5.70156462E-02    2    -1000024        16   # BR(~tau^-_1 -> chi^-_1 nu_tau)
DECAY   2000015     1.40626823E+02   # ~tau^-_2
#    BR                NDA      ID1      ID2
     7.22694821E-02    2     1000022        15   # BR(~tau^-_2 -> chi^0_1 tau^-)
     1.35034728E-02    2     1000023        15   # BR(~tau^-_2 -> chi^0_2 tau^-)
     2.78320154E-02    2     1000025        15   # BR(~tau^-_2 -> chi^0_3 tau^-)
     2.94736182E-01    2     1000035        15   # BR(~tau^-_2 -> chi^0_4 tau^-)
     1.07636093E-04    2    -1000024        16   # BR(~tau^-_2 -> chi^-_1 nu_tau)
     5.91551212E-01    2    -1000037        16   # BR(~tau^-_2 -> chi^-_2 nu_tau)
#    BR                NDA      ID1      ID2       ID3
DECAY   1000012     1.37391584E+02   # ~nu_e
#    BR                NDA      ID1      ID2
     6.31169174E-02    2     1000022        12   # BR(~nu_e -> chi^0_1 nu_e)
     2.87946127E-02    2     1000025        12   # BR(~nu_e -> chi^0_3 nu_e)
     3.02389593E-01    2     1000035        12   # BR(~nu_e -> chi^0_4 nu_e)
     3.04917541E-03    2     1000024        11   # BR(~nu_e -> chi^+_1 e^-)
     6.02647962E-01    2     1000037        11   # BR(~nu_e -> chi^+_2 e^-)
#    BR                NDA      ID1      ID2       ID3
DECAY   1000014     1.37403065E+02   # ~nu_mu
#    BR                NDA      ID1      ID2
     6.31116654E-02    2     1000022        14   # BR(~nu_mu -> chi^0_1 nu_mu)
     2.87922167E-02    2     1000025        14   # BR(~nu_mu -> chi^0_3 nu_mu)
     3.02364444E-01    2     1000035        14   # BR(~nu_mu -> chi^0_4 nu_mu)
     3.13207635E-03    2     1000024        13   # BR(~nu_mu -> chi^+_1 mu^-)
     6.02597859E-01    2     1000037        13   # BR(~nu_mu -> chi^+_2 mu^-)
#    BR                NDA      ID1      ID2       ID3
DECAY   1000016     1.40639839E+02   # ~nu_tau
#    BR                NDA      ID1      ID2
     6.16653598E-02    2     1000022        16   # BR(~nu_tau -> chi^0_1 nu_tau)
     2.81324000E-02    2     1000025        16   # BR(~nu_tau -> chi^0_3 nu_tau)
     2.95438738E-01    2     1000035        16   # BR(~nu_tau -> chi^0_4 nu_tau)
     2.59614536E-02    2     1000024        15   # BR(~nu_tau -> chi^+_1 tau^-)
     5.88800349E-01    2     1000037        15   # BR(~nu_tau -> chi^+_2 tau^-)
#    BR                NDA      ID1      ID2       ID3
DECAY   2000001     4.41021214E+02   # ~d_R
#    BR                NDA      ID1      ID2
     9.25818986E-03    2     1000022         1   # BR(~d_R -> chi^0_1 d)
     3.38385648E-03    2     1000025         1   # BR(~d_R -> chi^0_3 d)
     9.87287869E-01    2     1000021         1   # BR(~d_R -> ~g d)
DECAY   1000001     5.64648527E+02   # ~d_L
#    BR                NDA      ID1      ID2
     1.53118388E-03    2     1000022         1   # BR(~d_L -> chi^0_1 d)
     1.05386290E-03    2     1000025         1   # BR(~d_L -> chi^0_3 d)
     7.39581407E-02    2     1000035         1   # BR(~d_L -> chi^0_4 d)
     1.48189993E-01    2    -1000037         2   # BR(~d_L -> chi^-_2 u)
     7.75166230E-01    2     1000021         1   # BR(~d_L -> ~g d)
DECAY   2000003     4.41027700E+02   # ~s_R
#    BR                NDA      ID1      ID2
     9.25926951E-03    2     1000022         3   # BR(~s_R -> chi^0_1 s)
     3.38621024E-03    2     1000025         3   # BR(~s_R -> chi^0_3 s)
     9.87273678E-01    2     1000021         3   # BR(~s_R -> ~g s)
DECAY   1000003     5.64655547E+02   # ~s_L
#    BR                NDA      ID1      ID2
     1.53211586E-03    2     1000022         3   # BR(~s_L -> chi^0_1 s)
     1.05573093E-03    2     1000025         3   # BR(~s_L -> chi^0_3 s)
     7.39572351E-02    2     1000035         3   # BR(~s_L -> chi^0_4 s)
     1.48188207E-01    2    -1000037         4   # BR(~s_L -> chi^-_2 c)
     7.75156887E-01    2     1000021         3   # BR(~s_L -> ~g s)
DECAY   1000005     6.44597039E+00   # ~b_1
#    BR                NDA      ID1      ID2
     2.44100161E-01    2     1000022         5   # BR(~b_1 -> chi^0_1 b)
     1.89345714E-01    2     1000023         5   # BR(~b_1 -> chi^0_2 b)
     1.90827619E-01    2     1000025         5   # BR(~b_1 -> chi^0_3 b)
     3.75706362E-01    2    -1000024         6   # BR(~b_1 -> chi^-_1 t)
DECAY   2000005     1.36502181E+02   # ~b_2
#    BR                NDA      ID1      ID2
     5.50336927E-03    2     1000022         5   # BR(~b_2 -> chi^0_1 b)
     1.02878950E-02    2     1000023         5   # BR(~b_2 -> chi^0_2 b)
     8.29393078E-03    2     1000025         5   # BR(~b_2 -> chi^0_3 b)
     5.67324531E-02    2     1000035         5   # BR(~b_2 -> chi^0_4 b)
     4.84160987E-01    2    -1000024         6   # BR(~b_2 -> chi^-_1 t)
     1.15517582E-01    2    -1000037         6   # BR(~b_2 -> chi^-_2 t)
     3.19492445E-01    2     1000006       -24   # BR(~b_2 -> ~t_1 W^-)
DECAY   2000002     4.58199026E+02   # ~u_R
#    BR                NDA      ID1      ID2
     3.56564006E-02    2     1000022         2   # BR(~u_R -> chi^0_1 u)
     2.69742045E-04    2     1000023         2   # BR(~u_R -> chi^0_2 u)
     1.30323528E-02    2     1000025         2   # BR(~u_R -> chi^0_3 u)
     9.51041440E-01    2     1000021         2   # BR(~u_R -> ~g u)
DECAY   1000002     5.64644410E+02   # ~u_L
#    BR                NDA      ID1      ID2
     2.11585471E-03    2     1000022         2   # BR(~u_L -> chi^0_1 u)
     2.39035149E-04    2     1000023         2   # BR(~u_L -> chi^0_2 u)
     3.61105186E-04    2     1000025         2   # BR(~u_L -> chi^0_3 u)
     7.38945973E-02    2     1000035         2   # BR(~u_L -> chi^0_4 u)
     7.45931136E-04    2     1000024         1   # BR(~u_L -> chi^+_1 d)
     1.47515979E-01    2     1000037         1   # BR(~u_L -> chi^+_2 d)
     7.75127498E-01    2     1000021         2   # BR(~u_L -> ~g u)
DECAY   2000004     4.58206458E+02   # ~c_R
#    BR                NDA      ID1      ID2
     3.56566468E-02    2     1000022         4   # BR(~c_R -> chi^0_1 c)
     2.73687877E-04    2     1000023         4   # BR(~c_R -> chi^0_2 c)
     1.30353142E-02    2     1000025         4   # BR(~c_R -> chi^0_3 c)
     9.51026310E-01    2     1000021         4   # BR(~c_R -> ~g c)
DECAY   1000004     5.64651399E+02   # ~c_L
#    BR                NDA      ID1      ID2
     2.11649367E-03    2     1000022         4   # BR(~c_L -> chi^0_1 c)
     2.42242851E-04    2     1000023         4   # BR(~c_L -> chi^0_2 c)
     3.63681749E-04    2     1000025         4   # BR(~c_L -> chi^0_3 c)
     7.38937105E-02    2     1000035         4   # BR(~c_L -> chi^0_4 c)
     7.51547174E-04    2     1000024         3   # BR(~c_L -> chi^+_1 s)
     1.47514180E-01    2     1000037         3   # BR(~c_L -> chi^+_2 s)
     7.75118144E-01    2     1000021         4   # BR(~c_L -> ~g c)
DECAY   1000006     1.11660301E+02   # ~t_1
#    BR                NDA      ID1      ID2
     7.31382532E-02    2     1000022         6   # BR(~t_1 -> chi^0_1 t)
     2.37257685E-01    2     1000023         6   # BR(~t_1 -> chi^0_2 t)
     2.19418466E-01    2     1000025         6   # BR(~t_1 -> chi^0_3 t)
     5.27952688E-04    2     1000035         6   # BR(~t_1 -> chi^0_4 t)
     4.68654938E-01    2     1000024         5   # BR(~t_1 -> chi^+_1 b)
     9.87598770E-04    2     1000037         5   # BR(~t_1 -> chi^+_2 b)
#    BR                NDA      ID1      ID2       ID3
DECAY   2000006     1.48396965E+02   # ~t_2
#    BR                NDA      ID1      ID2
     6.34980109E-02    2     1000022         6   # BR(~t_2 -> chi^0_1 t)
     2.24854848E-01    2     1000023         6   # BR(~t_2 -> chi^0_2 t)
     1.64748972E-01    2     1000025         6   # BR(~t_2 -> chi^0_3 t)
     5.40094251E-02    2     1000035         6   # BR(~t_2 -> chi^0_4 t)
     3.18784134E-02    2     1000024         5   # BR(~t_2 -> chi^+_1 b)
     1.06195302E-01    2     1000037         5   # BR(~t_2 -> chi^+_2 b)
     1.58751307E-01    2     1000006        23   # BR(~t_2 -> ~t_1 Z)
     1.96054954E-01    2     1000006        25   # BR(~t_2 -> ~t_1 h^0)
DECAY   1000024     2.40150200E-04   # chi^+_1
#    BR                NDA      ID1      ID2       ID3
     3.33924381E-01    3     1000022        -1         2   # BR(chi^+_1 -> chi^0_1 d_bar u)
     3.32850985E-01    3     1000022        -3         4   # BR(chi^+_1 -> chi^0_1 s_bar c)
     1.11307558E-01    3     1000022       -11        12   # BR(chi^+_1 -> chi^0_1 e^+ nu_e)
     1.11305780E-01    3     1000022       -13        14   # BR(chi^+_1 -> chi^0_1 mu^+ nu_mu)
     1.10611296E-01    3     1000022       -15        16   # BR(chi^+_1 -> chi^0_1 tau^+ nu_tau)
DECAY   1000037     1.59762022E+01   # chi^+_2
#    BR                NDA      ID1      ID2
     5.80173305E-02    2     1000022        24   # BR(chi^+_2 -> chi^0_1 W^+)
     2.44639358E-01    2     1000023        24   # BR(chi^+_2 -> chi^0_2 W^+)
     1.86718650E-01    2     1000025        24   # BR(chi^+_2 -> chi^0_3 W^+)
     2.43720470E-01    2     1000024        23   # BR(chi^+_2 -> chi^+_1 Z)
     2.40059303E-01    2     1000024        25   # BR(chi^+_2 -> chi^+_1 h^0)
#    BR                NDA      ID1      ID2       ID3
     1.09838924E-02    3     1000024         6        -6   # BR(chi^+_2 -> chi^+_1 t t_bar)
     1.78053426E-03    3     1000022        -5         6   # BR(chi^+_2 -> chi^0_1 b_bar t)
     8.35890028E-03    3     1000023        -5         6   # BR(chi^+_2 -> chi^0_2 b_bar t)
     5.71739446E-03    3     1000025        -5         6   # BR(chi^+_2 -> chi^0_3 b_bar t)
DECAY   1000022     0.00000000E+00   # chi^0_1
DECAY   1000023     1.95232849E-04   # chi^0_2
#    BR                NDA      ID1      ID2
     9.88974526E-03    2     1000022        22   # BR(chi^0_2 -> chi^0_1 photon)
#    BR                NDA      ID1      ID2       ID3
     1.19095857E-01    3     1000022         2        -2   # BR(chi^0_2 -> chi^0_1 u u_bar)
     1.18035610E-01    3     1000022         4        -4   # BR(chi^0_2 -> chi^0_1 c c_bar)
     1.52703965E-01    3     1000022         1        -1   # BR(chi^0_2 -> chi^0_1 d d_bar)
     1.52697463E-01    3     1000022         3        -3   # BR(chi^0_2 -> chi^0_1 s s_bar)
     1.40649967E-01    3     1000022         5        -5   # BR(chi^0_2 -> chi^0_1 b b_bar)
     3.44601380E-02    3     1000022        11       -11   # BR(chi^0_2 -> chi^0_1 e^- e^+)
     3.44577756E-02    3     1000022        13       -13   # BR(chi^0_2 -> chi^0_1 mu^- mu^+)
     3.38006209E-02    3     1000022        15       -15   # BR(chi^0_2 -> chi^0_1 tau^- tau^+)
     2.04208854E-01    3     1000022        12       -12   # BR(chi^0_2 -> chi^0_1 nu_e nu_bar_e)
DECAY   1000025     3.17958204E-05   # chi^0_3
#    BR                NDA      ID1      ID2
     5.08913592E-03    2     1000022        22   # BR(chi^0_3 -> chi^0_1 photon)
     2.64549195E-02    2     1000023        22   # BR(chi^0_3 -> chi^0_2 photon)
#    BR                NDA      ID1      ID2       ID3
     2.53226410E-02    3     1000022         2        -2   # BR(chi^0_3 -> chi^0_1 u u_bar)
     2.52416931E-02    3     1000022         4        -4   # BR(chi^0_3 -> chi^0_1 c c_bar)
     3.24557419E-02    3     1000022         1        -1   # BR(chi^0_3 -> chi^0_1 d d_bar)
     3.24553120E-02    3     1000022         3        -3   # BR(chi^0_3 -> chi^0_1 s s_bar)
     3.15878789E-02    3     1000022         5        -5   # BR(chi^0_3 -> chi^0_1 b b_bar)
     7.31413325E-03    3     1000022        11       -11   # BR(chi^0_3 -> chi^0_1 e^- e^+)
     7.31399387E-03    3     1000022        13       -13   # BR(chi^0_3 -> chi^0_1 mu^- mu^+)
     7.27472400E-03    3     1000022        15       -15   # BR(chi^0_3 -> chi^0_1 tau^- tau^+)
     4.34207525E-02    3     1000022        12       -12   # BR(chi^0_3 -> chi^0_1 nu_e nu_bar_e)
     2.24903729E-02    3     1000023         2        -2   # BR(chi^0_3 -> chi^0_2 u u_bar)
     2.12190935E-02    3     1000023         4        -4   # BR(chi^0_3 -> chi^0_2 c c_bar)
     2.88372152E-02    3     1000023         1        -1   # BR(chi^0_3 -> chi^0_2 d d_bar)
     2.88290823E-02    3     1000023         3        -3   # BR(chi^0_3 -> chi^0_2 s s_bar)
     1.64323933E-02    3     1000023         5        -5   # BR(chi^0_3 -> chi^0_2 b b_bar)
     6.50780187E-03    3     1000023        11       -11   # BR(chi^0_3 -> chi^0_2 e^- e^+)
     6.50490402E-03    3     1000023        13       -13   # BR(chi^0_3 -> chi^0_2 mu^- mu^+)
     5.74518138E-03    3     1000023        15       -15   # BR(chi^0_3 -> chi^0_2 tau^- tau^+)
     3.85636535E-02    3     1000023        12       -12   # BR(chi^0_3 -> chi^0_2 nu_e nu_bar_e)
     9.78548248E-02    3     1000024         1        -2   # BR(chi^0_3 -> chi^+_1 d u_bar)
     9.78548248E-02    3    -1000024        -1         2   # BR(chi^0_3 -> chi^-_1 d_bar u)
     9.59687972E-02    3     1000024         3        -4   # BR(chi^0_3 -> chi^+_1 s c_bar)
     9.59687972E-02    3    -1000024        -3         4   # BR(chi^0_3 -> chi^-_1 s_bar c)
     3.26183491E-02    3     1000024        11       -12   # BR(chi^0_3 -> chi^+_1 e^- nu_bar_e)
     3.26183491E-02    3    -1000024       -11        12   # BR(chi^0_3 -> chi^-_1 e^+ nu_e)
     3.26153191E-02    3     1000024        13       -14   # BR(chi^0_3 -> chi^+_1 mu^- nu_bar_mu)
     3.26153191E-02    3    -1000024       -13        14   # BR(chi^0_3 -> chi^-_1 mu^+ nu_mu)
     3.14123977E-02    3     1000024        15       -16   # BR(chi^0_3 -> chi^+_1 tau^- nu_bar_tau)
     3.14123977E-02    3    -1000024       -15        16   # BR(chi^0_3 -> chi^-_1 tau^+ nu_tau)
DECAY   1000035     1.68513934E+01   # chi^0_4
#    BR                NDA      ID1      ID2
     2.32264945E-01    2     1000024       -24   # BR(chi^0_4 -> chi^+_1 W^-)
     2.32264945E-01    2    -1000024        24   # BR(chi^0_4 -> chi^-_1 W^+)
     3.82172863E-02    2     1000022        23   # BR(chi^0_4 -> chi^0_1 Z)
     6.72059177E-02    2     1000023        23   # BR(chi^0_4 -> chi^0_2 Z)
     1.26321529E-01    2     1000025        23   # BR(chi^0_4 -> chi^0_3 Z)
     2.59164970E-02    2     1000022        25   # BR(chi^0_4 -> chi^0_1 h^0)
     1.60769359E-01    2     1000023        25   # BR(chi^0_4 -> chi^0_2 h^0)
     9.29496728E-02    2     1000025        25   # BR(chi^0_4 -> chi^0_3 h^0)
#    BR                NDA      ID1      ID2       ID3
     1.03407891E-03    3     1000022         6        -6   # BR(chi^0_4 -> chi^0_1 t t_bar)
     4.65540961E-03    3     1000023         6        -6   # BR(chi^0_4 -> chi^0_2 t t_bar)
     3.24595512E-03    3     1000025         6        -6   # BR(chi^0_4 -> chi^0_3 t t_bar)
     7.57290275E-03    3     1000024         5        -6   # BR(chi^0_4 -> chi^+_1 b t_bar)
     7.57290275E-03    3    -1000024        -5         6   # BR(chi^0_4 -> chi^-_1 b_bar t)
DECAY   1000021     2.53621528E+02   # ~g
#    BR                NDA      ID1      ID2
     1.51480229E-01    2     1000006        -6   # BR(~g -> ~t_1 t_bar)
     1.51480229E-01    2    -1000006         6   # BR(~g -> ~t^*_1 t)
     1.05097584E-01    2     2000006        -6   # BR(~g -> ~t_2 t_bar)
     1.05097584E-01    2    -2000006         6   # BR(~g -> ~t^*_2 t)
     1.40307629E-01    2     1000005        -5   # BR(~g -> ~b_1 b_bar)
     1.40307629E-01    2    -1000005         5   # BR(~g -> ~b^*_1 b)
     1.03048996E-01    2     2000005        -5   # BR(~g -> ~b_2 b_bar)
     1.03048996E-01    2    -2000005         5   # BR(~g -> ~b^*_2 b)
#    BR                NDA      ID1      ID2       ID3
DECAY        25     3.97736698E-03   # Gamma(h0)
     2.35600436E-03   2        22        22   # BR(h0 -> photon photon)
     1.57124000E-03   2        22        23   # BR(h0 -> photon Z)
     2.98472432E-02   2        23        23   # BR(h0 -> Z Z)
     2.42649068E-01   2       -24        24   # BR(h0 -> W W)
     7.20270547E-02   2        21        21   # BR(h0 -> gluon gluon)
     5.02119314E-09   2       -11        11   # BR(h0 -> Electron electron)
     2.23352098E-04   2       -13        13   # BR(h0 -> Muon muon)
     6.44016259E-02   2       -15        15   # BR(h0 -> Tau tau)
     1.42755537E-07   2        -2         2   # BR(h0 -> Up up)
     2.77026508E-02   2        -4         4   # BR(h0 -> Charm charm)
     5.80572361E-07   2        -1         1   # BR(h0 -> Down down)
     2.09979833E-04   2        -3         3   # BR(h0 -> Strange strange)
     5.59011052E-01   2        -5         5   # BR(h0 -> Bottom bottom)
DECAY        35     6.44947200E+01   # Gamma(HH)
     3.60456126E-08   2        22        22   # BR(HH -> photon photon)
     3.74115092E-08   2        22        23   # BR(HH -> photon Z)
     1.24171671E-06   2        23        23   # BR(HH -> Z Z)
     2.10838125E-07   2       -24        24   # BR(HH -> W W)
     7.14208718E-07   2        21        21   # BR(HH -> gluon gluon)
     1.98880315E-09   2       -11        11   # BR(HH -> Electron electron)
     8.85643114E-05   2       -13        13   # BR(HH -> Muon muon)
     2.55804152E-02   2       -15        15   # BR(HH -> Tau tau)
     1.14431256E-12   2        -2         2   # BR(HH -> Up up)
     2.22010495E-07   2        -4         4   # BR(HH -> Charm charm)
     1.64641607E-02   2        -6         6   # BR(HH -> Top top)
     1.37838540E-07   2        -1         1   # BR(HH -> Down down)
     4.98574248E-05   2        -3         3   # BR(HH -> Strange strange)
     1.29953969E-01   2        -5         5   # BR(HH -> Bottom bottom)
     3.15206935E-03   2  -1000024   1000024   # BR(HH -> Chargino1 chargino1)
     2.45132924E-01   2  -1000024   1000037   # BR(HH -> Chargino1 chargino2)
     2.45132924E-01   2  -1000037   1000024   # BR(HH -> Chargino2 chargino1)
     2.93573246E-05   2  -1000037   1000037   # BR(HH -> Chargino2 chargino2)
     2.40321378E-02   2   1000022   1000022   # BR(HH -> neutralino1 neutralino1)
     2.45447418E-02   2   1000022   1000023   # BR(HH -> neutralino1 neutralino2)
     4.01263885E-03   2   1000022   1000025   # BR(HH -> neutralino1 neutralino3)
     5.24843145E-02   2   1000022   1000035   # BR(HH -> neutralino1 neutralino4)
     7.67410488E-06   2   1000023   1000023   # BR(HH -> neutralino2 neutralino2)
     1.28431205E-02   2   1000023   1000025   # BR(HH -> neutralino2 neutralino3)
     9.93542451E-02   2   1000023   1000035   # BR(HH -> neutralino2 neutralino4)
     2.29343431E-02   2   1000025   1000025   # BR(HH -> neutralino3 neutralino3)
     9.41760472E-02   2   1000025   1000035   # BR(HH -> neutralino3 neutralino4)
     1.47984244E-05   2   1000035   1000035   # BR(HH -> neutralino4 neutralino4)
     9.09432089E-06   2        25        25   # BR(HH -> h0 h0)
DECAY        36     6.39994177E+01   # Gamma(A0)
     6.01782424E-08   2        22        22   # BR(A0 -> photon photon)
     5.85828706E-08   2        22        23   # BR(A0 -> photon Z)
     7.01566243E-06   2        21        21   # BR(A0 -> gluon gluon)
     1.92306673E-09   2       -11        11   # BR(A0 -> Electron electron)
     8.56370408E-05   2       -13        13   # BR(A0 -> Muon muon)
     2.47349339E-02   2       -15        15   # BR(A0 -> Tau tau)
     1.04535297E-12   2        -2         2   # BR(A0 -> Up up)
     2.02809221E-07   2        -4         4   # BR(A0 -> Charm charm)
     1.50892869E-02   2        -6         6   # BR(A0 -> Top top)
     1.33281099E-07   2        -1         1   # BR(A0 -> Down down)
     4.82088237E-05   2        -3         3   # BR(A0 -> Strange strange)
     1.25656160E-01   2        -5         5   # BR(A0 -> Bottom bottom)
     3.43141693E-03   2  -1000024   1000024   # BR(A0 -> Chargino1 chargino1)
     2.46844286E-01   2  -1000024   1000037   # BR(A0 -> Chargino1 chargino2)
     2.46844286E-01   2  -1000037   1000024   # BR(A0 -> Chargino2 chargino1)
     2.22777975E-04   2  -1000037   1000037   # BR(A0 -> Chargino2 chargino2)
     1.90492706E-02   2   1000022   1000022   # BR(A0 -> neutralino1 neutralino1)
     3.32639371E-02   2   1000022   1000023   # BR(A0 -> neutralino1 neutralino2)
     2.55933956E-03   2   1000022   1000025   # BR(A0 -> neutralino1 neutralino3)
     3.82629009E-02   2   1000022   1000035   # BR(A0 -> neutralino1 neutralino4)
     1.06235245E-05   2   1000023   1000023   # BR(A0 -> neutralino2 neutralino2)
     1.75954407E-02   2   1000023   1000025   # BR(A0 -> neutralino2 neutralino3)
     1.46247706E-01   2   1000023   1000035   # BR(A0 -> neutralino2 neutralino4)
     1.66388814E-02   2   1000025   1000025   # BR(A0 -> neutralino3 neutralino3)
     6.32923905E-02   2   1000025   1000035   # BR(A0 -> neutralino3 neutralino4)
     1.11689833E-04   2   1000035   1000035   # BR(A0 -> neutralino4 neutralino4)
     3.35271505E-06   2        23        25   # BR(A0 -> Z h0)
     1.27154362E-38   2        25        25   # BR(A0 -> h0 h0)
DECAY        37     6.46384367E+01   # Gamma(Hp)
     2.10795307E-09   2       -11        12   # BR(Hp -> Electron nu_e)
     9.01215776E-05   2       -13        14   # BR(Hp -> Muon nu_mu)
     2.54915179E-02   2       -15        16   # BR(Hp -> Tau nu_tau)
     1.26928932E-07   2        -1         2   # BR(Hp -> Down up)
     2.15400964E-06   2        -3         2   # BR(Hp -> Strange up)
     1.39428869E-06   2        -5         2   # BR(Hp -> Bottom up)
     1.59305276E-08   2        -1         4   # BR(Hp -> Down charm)
     4.59568561E-05   2        -3         4   # BR(Hp -> Strange charm)
     1.95250675E-04   2        -5         4   # BR(Hp -> Bottom charm)
     1.09543895E-06   2        -1         6   # BR(Hp -> Down top)
     2.39525728E-05   2        -3         6   # BR(Hp -> Strange top)
     1.48223046E-01   2        -5         6   # BR(Hp -> Bottom top)
     6.73310715E-02   2   1000022   1000024   # BR(Hp -> neutralino1 chargino1)
     9.02589547E-02   2   1000022   1000037   # BR(Hp -> neutralino1 chargino2)
     1.39908622E-03   2   1000023   1000024   # BR(Hp -> neutralino2 chargino1)
     2.45059777E-01   2   1000023   1000037   # BR(Hp -> neutralino2 chargino2)
     2.02881621E-02   2   1000024   1000025   # BR(Hp -> chargino1 neutralino3)
     1.56559794E-01   2   1000025   1000037   # BR(Hp -> neutralino3 chargino2)
     2.45025197E-01   2   1000024   1000035   # BR(Hp -> chargino1 neutralino4)
     2.21125445E-10   2   1000035   1000037   # BR(Hp -> neutralino4 chargino2)
     3.32233963E-06   2        24        25   # BR(Hp -> W h0)
     1.36194288E-13   2        24        35   # BR(Hp -> W HH)
DECAY         6     2.43000000E+00   # top
#    BR                NDA      ID1      ID2
     1.00000000E+00    2           5        24   # BR(t -> b W)
Block HiggsBoundsInputHiggsCouplingsFermions
# ScalarNormEffCoupSq PseudoSNormEffCoupSq NP IP1 IP2 IP2
    9.15708756E-01    0.00000000E+00        3  25   5   5  # h0-b-b eff. coupling^2, normalised to SM
    1.54408417E+02    0.00000000E+00        3  35   5   5  # H0-b-b eff. coupling^2, normalised to SM
    0.00000000E+00    1.54324126E+02        3  36   5   5  # A0-b-b eff. coupling^2, normalised to SM
#
    1.00054620E+00    0.00000000E+00        3  25   6   6  # h0-t-t eff. coupling^2, normalised to SM
    5.93367206E-03    0.00000000E+00        3  35   6   6  # H0-t-t eff. coupling^2, normalised to SM
    0.00000000E+00    6.47986821E-03        3  36   6   6  # A0-t-t eff. coupling^2, normalised to SM
#
    9.15708756E-01    0.00000000E+00        3  25  15  15  # h0-tau-tau eff. coupling^2, normalised to SM
    1.54408417E+02    0.00000000E+00        3  35  15  15  # H0-tau-tau eff. coupling^2, normalised to SM
    0.00000000E+00    1.54324126E+02        3  36  15  15  # A0-tau-tau eff. coupling^2, normalised to SM
#
Block HiggsBoundsInputHiggsCouplingsBosons
    9.99987981E-01        3  25  24  24  # h0-W-W eff. coupling^2, normalised to SM
    1.20187911E-05        3  35  24  24  # H0-W-W eff. coupling^2, normalised to SM
    0.00000000E+00        3  36  24  24  # A0-W-W eff. coupling^2, normalised to SM
#
    9.99987981E-01        3  25  23  23  # h0-Z-Z eff. coupling^2, normalised to SM
    1.20187911E-05        3  35  23  23  # H0-Z-Z eff. coupling^2, normalised to SM
    0.00000000E+00        3  36  23  23  # A0-Z-Z eff. coupling^2, normalised to SM
#
    1.26046146E+00        3  25  21  21  # h0-g-g eff. coupling^2, normalised to SM
    2.87523618E-03        3  35  21  21  # H0-g-g eff. coupling^2, normalised to SM
    1.06143928E-01        3  36  21  21  # A0-g-g eff. coupling^2, normalised to SM
#
    0.00000000E+00        3  25  25  23  # h0-h0-Z eff. coupling^2, normalised to SM
    0.00000000E+00        3  35  25  23  # H0-h0-Z eff. coupling^2, normalised to SM
    1.20187911E-05        3  36  25  23  # A0-h0-Z eff. coupling^2, normalised to SM
    0.00000000E+00        3  35  35  23  # H0-H0-Z eff. coupling^2, normalised to SM
    9.99987981E-01        3  36  35  23  # A0-H0-Z eff. coupling^2, normalised to SM
    0.00000000E+00        3  36  36  23  # A0-A0-Z eff. coupling^2, normalised to SM
#
    0.00000000E+00        4  25  21  21  23  # h0-g-g-Z eff. coupling^2, normalised to SM
    0.00000000E+00        4  35  21  21  23  # H0-g-g-Z eff. coupling^2, normalised to SM
    0.00000000E+00        4  36  21  21  23  # A0-g-g-Z eff. coupling^2, normalised to SM
Block SPhenoLowEnergy  # low energy observables
    1    3.17365818E-04   # BR(b -> s gamma)
    2    1.59139816E-06   # BR(b -> s mu+ mu-)
    3    3.52678441E-05   # BR(b -> s nu nu)
    4    2.72932162E-15   # BR(Bd -> e+ e-)
    5    1.16593487E-10   # BR(Bd -> mu+ mu-)
    6    2.44056681E-08   # BR(Bd -> tau+ tau-)
    7    9.19067061E-14   # BR(Bs -> e+ e-)
    8    3.92625042E-09   # BR(Bs -> mu+ mu-)
    9    8.32723992E-07   # BR(Bs -> tau+ tau-)
   10    9.67668705E-05   # BR(B_u -> tau nu)
   11    9.99564725E-01   # BR(B_u -> tau nu)/BR(B_u -> tau nu)_SM
   12    5.42042412E-01   # |Delta(M_Bd)| [ps^-1] 
   13    1.93673854E+01   # |Delta(M_Bs)| [ps^-1] 
   14    0.00000000E+00   # neutron EDM according to the chiral quark model
   15    0.00000000E+00   # neutron EDM according to the relativistic quark-parton model
   16    2.15754388E-03   # epsilon_K
   17    2.28166037E-15   # Delta(M_K)
   18    2.48076939E-11   # BR(K^0 -> pi^0 nu nu)
   19    8.29238989E-11   # BR(K^+ -> pi^+ nu nu)
   20    1.13920660E-16   # Delta(g-2)_electron/2
   21    4.87046666E-12   # Delta(g-2)_muon/2
   22    1.37795157E-09   # Delta(g-2)_tau/2
   23    0.00000000E+00   # electric dipole moment of the electron
   24    0.00000000E+00   # electric dipole moment of the muon
   25    0.00000000E+00   # electric dipole moment of the tau
   26    0.00000000E+00   # Br(mu -> e gamma)
   27    0.00000000E+00   # Br(tau -> e gamma)
   28    0.00000000E+00   # Br(tau -> mu gamma)
   29    0.00000000E+00   # Br(mu -> 3 e)
   30    0.00000000E+00   # Br(tau -> 3 e)
   31    0.00000000E+00   # Br(tau -> 3 mu)
   39   -6.11875874E-06   # Delta(rho_parameter)
   40    0.00000000E+00   # BR(Z -> e mu)
   41    0.00000000E+00   # BR(Z -> e tau)
   42    0.00000000E+00   # BR(Z -> mu tau)
Block FWCOEF Q=  1.60000000E+02  # Wilson coefficients at scale Q
#    id        order  M        value         comment
     0305 4422   00   0    -1.88819110E-01   # C7
     0305 4422   00   2    -1.84958798E-01   # C7
     0305 4322   00   2    -1.67808474E-05   # C7'
     0305 6421   00   0    -9.52278348E-02   # C8
     0305 6421   00   2    -9.58246898E-02   # C8
     0305 6321   00   2    -6.25579234E-05   # C8'
 03051111 4133   00   0     1.61593515E+00   # C9 e+e-
 03051111 4133   00   2     1.61638103E+00   # C9 e+e-
 03051111 4233   00   2     4.02783461E-05   # C9' e+e-
 03051111 4137   00   0    -4.43862725E+00   # C10 e+e-
 03051111 4137   00   2    -4.43846666E+00   # C10 e+e-
 03051111 4237   00   2    -3.02342994E-04   # C10' e+e-
 03051313 4133   00   0     1.61593515E+00   # C9 mu+mu-
 03051313 4133   00   2     1.61638101E+00   # C9 mu+mu-
 03051313 4233   00   2     4.02783444E-05   # C9' mu+mu-
 03051313 4137   00   0    -4.43862725E+00   # C10 mu+mu-
 03051313 4137   00   2    -4.43846668E+00   # C10 mu+mu-
 03051313 4237   00   2    -3.02342997E-04   # C10' mu+mu-
 03051212 4137   00   0     1.50535012E+00   # C11 nu_1 nu_1
 03051212 4137   00   2     1.50531649E+00   # C11 nu_1 nu_1
 03051212 4237   00   2     6.55355540E-05   # C11' nu_1 nu_1
 03051414 4137   00   0     1.50535012E+00   # C11 nu_2 nu_2
 03051414 4137   00   2     1.50531649E+00   # C11 nu_2 nu_2
 03051414 4237   00   2     6.55355541E-05   # C11' nu_2 nu_2
 03051616 4137   00   0     1.50535012E+00   # C11 nu_3 nu_3
 03051616 4137   00   2     1.50531649E+00   # C11 nu_3 nu_3
 03051616 4237   00   2     6.55355895E-05   # C11' nu_3 nu_3
Block IMFWCOEF Q=  1.60000000E+02  # Im(Wilson coefficients) at scale Q
#    id        order  M        value         comment
     0305 4422   00   0     3.85828217E-07   # C7
     0305 4422   00   2     3.66573540E-06   # C7
     0305 4322   00   2     7.45524702E-07   # C7'
     0305 6421   00   0     3.30487384E-07   # C8
     0305 6421   00   2    -6.99170187E-07   # C8
     0305 6321   00   2     2.74913989E-07   # C8'
 03051111 4133   00   2     3.02145917E-08   # C9 e+e-
 03051111 4233   00   2     7.53719493E-07   # C9' e+e-
 03051111 4137   00   2     1.64182169E-06   # C10 e+e-
 03051111 4237   00   2    -5.65818974E-06   # C10' e+e-
 03051313 4133   00   2     3.02143014E-08   # C9 mu+mu-
 03051313 4233   00   2     7.53719474E-07   # C9' mu+mu-
 03051313 4137   00   2     1.64182194E-06   # C10 mu+mu-
 03051313 4237   00   2    -5.65818980E-06   # C10' mu+mu-
 03051212 4137   00   2    -3.35106707E-07   # C11 nu_1 nu_1
 03051212 4237   00   2     1.22646402E-06   # C11' nu_1 nu_1
 03051414 4137   00   2    -3.35106695E-07   # C11 nu_2 nu_2
 03051414 4237   00   2     1.22646402E-06   # C11' nu_2 nu_2
 03051616 4137   00   2    -3.35103493E-07   # C11 nu_3 nu_3
 03051616 4237   00   2     1.22646402E-06   # C11' nu_3 nu_3
