BLOCK SPINFO
   1   SPheno
   2   v4.0.5be

BLOCK SPHENOINFO
   1   2
   2   2

BLOCK MODSEL
   1   0

BLOCK MINPAR
   3    10.880338
   4    1

BLOCK EXTPAR
   0    4746.5789
   1    1060.3799
   2    1641.267
   3    2248.6531
   11    2674.4196
   12   -7889.6327
   13    5505.3729
   23    3799.137
   25    10.313136
   26    1856.4093
   31    1016.931
   32    1016.931
   33    3963.4343
   34    4606.6329
   35    4606.6329
   36    2102.5616
   41    3176.5488
   42    3176.5488
   43    4773.8451
   44    1561.8321
   45    1561.8321
   46    4631.7872
   47    797.6178
   48    797.6178
   49    3631.3989

BLOCK SMINPUTS
   1    127.90897
   2    1.1663787e-05
   3    0.1184
   4    91.1876
   5    4.18
   6    173.2
   7    1.777
   8    0
   11    0.00051099893
   12    0
   13    0.10565837
   14    0
   21    0.005
   22    0.0025
   23    0.095
   24    1.27

BLOCK GAUGE Q=  4746.5789
   1    0.35536298
   2    0.66519887
   3    1.219778

BLOCK YU Q=  4746.5789
   1   1    8.4236947e-06
   2   2    0.0042792369
   3   3    1.01765

BLOCK YD Q=  4746.5789
   1   1    0.00017457161
   2   2    0.0033168606
   3   3    0.17312033

BLOCK YE Q=  4746.5789
   1   1    3.0464022e-05
   2   2    0.0062989936
   3   3    0.10593871

BLOCK AU Q=  4746.5789
   1   1    0
   2   2    0
   3   3    2674.4197

BLOCK AD Q=  4746.5789
   1   1    0
   2   2    0
   3   3   -7889.6249

BLOCK AE Q=  4746.5789
   1   1    0
   2   2    0
   3   3    5505.3728

BLOCK MSOFT Q=  4746.5789
   1    1060.3799
   2    1641.267
   3    2248.6531
   21   -11266770
   22   -14024330
   31    1016.931
   32    1016.931
   33    3963.4343
   34    4606.6329
   35    4606.6329
   36    2102.5616
   41    3176.5488
   42    3176.5488
   43    4773.8451
   44    1561.8321
   45    1561.8321
   46    4631.7872
   47    797.6178
   48    797.6178
   49    3631.3989

BLOCK MASS
   6    173.2
   23    91.1876
   24    80.429995
   15    1.777
   25    120.42508
   35    1856.4789
   36    1856.4093
   37    1858.3227
   1000001    3288.7329
   2000001    1066.6386
   1000002    3287.7829
   2000002    1748.5222
   1000003    3288.7324
   2000003    1066.6381
   1000004    3287.7824
   2000004    1748.5223
   1000005    3713.4481
   2000005    4830.7504
   1000006    4657.5569
   2000006    4837.3024
   1000011    1063.2126
   2000011    4608.7333
   1000012    1059.9524
   1000013    1063.2115
   2000013    4608.731
   1000014    1059.9538
   1000015    2100.4246
   2000015    3976.2541
   1000016    3975.0078
   1000021    2518.1816
   1000022    1039.9129
   1000023    1686.1829
   1000025   -3806.7931
   1000035    3808.4236
   1000024    1686.278
   1000037    3808.7224

BLOCK ALPHA
      -0.092258586

BLOCK HMIX Q=  4746.5789
   1    3799.137
   2    10.313136
   3    242.77701
   4    3446255.3

BLOCK STOPMIX
   1   1   -0.1668948
   1   2    0.98597471
   2   1   -0.98597471
   2   2   -0.1668948

BLOCK SBOTMIX
   1   1    0.010109697
   1   2    0.9999489
   2   1   -0.9999489
   2   2    0.010109697

BLOCK STAUMIX
   1   1    0.0052578115
   1   2    0.99998618
   2   1   -0.99998618
   2   2    0.0052578115

BLOCK NMIX
   1   1    0.99990548
   1   2   -0.00070477707
   1   3    0.012914258
   1   4   -0.0046640173
   2   1   -0.0011000163
   2   2   -0.99957816
   2   3    0.025866953
   2   4   -0.013160329
   3   1    0.0058265361
   3   2   -0.0089920872
   3   3   -0.70700111
   3   4   -0.70713126
   4   1   -0.012404406
   4   2    0.02760705
   4   3    0.70662122
   4   4   -0.70694444

BLOCK UMIX
   1   1   -0.99932927
   1   2    0.036619722
   2   1    0.036619722
   2   2    0.99932927

BLOCK VMIX
   1   1   -0.99982525
   1   2    0.018694097
   2   1    0.018694097
   2   2    0.99982525

BLOCK HIGGSBOUNDSINPUTHIGGSCOUPLINGSFERMIONS
       0, 106.36078,3,36,15,15

BLOCK HIGGSBOUNDSINPUTHIGGSCOUPLINGSBOSONS
       0,4,36,21,21,23

BLOCK SPHENOLOWENERGY
   1    0.00033514217
   2    1.5891967e-06
   3    3.5266042e-05
   4    2.6046338e-15
   5    1.1126701e-10
   6    2.3293038e-08
   7    8.7667209e-14
   8    3.7451406e-09
   9    7.9439185e-07
   10    9.6587535e-05
   11    0.99771226
   12    0.54206416
   13    19.367246
   14    0
   15    0
   16    0.002157594
   17    2.2816614e-15
   18    2.480852e-11
   19    8.2924755e-11
   20    7.5617653e-16
   21    3.2329029e-11
   22    3.3905981e-09
   23    0
   24    0
   25    0
   26    0
   27    0
   28    0
   29    0
   30    0
   31    0
   39   -9.376891e-06
   40    0
   41    0
   42    0

BLOCK FWCOEF Q=  160
   305   4422   0   0   -0.18881911
   305   4422   0   2   -0.20375922
   305   4322   0   2   -0.00029615714
   305   6421   0   0   -0.095227835
   305   6421   0   2   -0.1141321
   305   6321   0   2   -0.00037390531
   3051111   4133   0   0    1.6321759
   3051111   4133   0   2    1.6322689
   3051111   4233   0   2    2.9010059e-06
   3051111   4137   0   0   -4.454868
   3051111   4137   0   2   -4.4545106
   3051111   4237   0   2   -2.4070608e-05
   3051313   4133   0   0    1.6321759
   3051313   4133   0   2    1.6322688
   3051313   4233   0   2    2.9009962e-06
   3051313   4137   0   0   -4.454868
   3051313   4137   0   2   -4.4545107
   3051313   4237   0   2   -2.40706e-05
   3051212   4137   0   0    1.5053501
   3051212   4137   0   2    1.5052756
   3051212   4237   0   2    5.1994495e-06
   3051414   4137   0   0    1.5053501
   3051414   4137   0   2    1.5052756
   3051414   4237   0   2    5.1994515e-06
   3051616   4137   0   0    1.5053501
   3051616   4137   0   2    1.5052757
   3051616   4237   0   2    5.2001494e-06

BLOCK IMFWCOEF Q=  160
   305   4422   0   0    3.8581477e-07
   305   4422   0   2    2.9267891e-06
   305   4322   0   2   -1.3103915e-07
   305   6421   0   0    3.3047587e-07
   305   6421   0   2   -4.8090149e-06
   305   6321   0   2   -2.2517418e-07
   3051111   4133   0   2   -1.2856688e-07
   3051111   4233   0   2    1.6971115e-07
   3051111   4137   0   2    1.1115771e-06
   3051111   4237   0   2   -1.2960291e-06
   3051313   4133   0   2   -1.2856709e-07
   3051313   4233   0   2    1.6971114e-07
   3051313   4137   0   2    1.1115778e-06
   3051313   4237   0   2   -1.2960291e-06
   3051212   4137   0   2   -1.9140274e-07
   3051212   4237   0   2    2.7992097e-07
   3051414   4137   0   2   -1.9140279e-07
   3051414   4237   0   2    2.7992096e-07
   3051616   4137   0   2   -1.8817289e-07
   3051616   4237   0   2    2.7992328e-07

DECAY 23  2.4952


DECAY 24  2.085


DECAY 1000011  0.0025025648
    0.9999998   2    1000022    11

DECAY 2000011  20.855728
    0.999978   2    1000022    11

DECAY 1000013  0.0025023149
    0.9999998   2    1000022    13

DECAY 2000013  20.857646
    0.99988544   2    1000022    13

DECAY 1000015  6.0133315
    0.9999281   2    1000022    15

DECAY 2000015  40.242441
    0.58423592   2   -1000024    16
    0.29262994   2    1000023    15
    0.10742088   2    1000022    15
    0.0054842766   2    1000015    23
    0.0053838387   2    1000015    25
    0.0023494891   2    1000015    36
    0.0023334759   2    1000015    35

DECAY 1000012  0.0018724247
    1   2    1000022    12

DECAY 1000014  0.0018726869
    1   2    1000022    14

DECAY 1000016  40.229762
    0.58472454   2    1000024    15
    0.29188057   2    1000023    16
    0.10797387   2    1000022    16
    0.010963443   2    1000015    24
    0.004303474   2    1000015    37
    0.00015022968   2    1000037    15

DECAY 2000001  0.0014578844
    1   2    1000022    1

DECAY 1000001  68.367557
    0.64985811   2    1000021    1
    0.22975989   2   -1000024    2
    0.11490138   2    1000023    1
    0.0054806081   2    1000022    1

DECAY 2000003  0.0014577892
    1   2    1000022    3

DECAY 1000003  68.367914
    0.649854   2    1000021    3
    0.22975841   2   -1000024    4
    0.11490073   2    1000023    3
    0.0054805793   2    1000022    3

DECAY 1000005  87.29608
    0.97968841   2    1000021    5
    0.020175947   2    1000022    5

DECAY 2000005  267.63566
    0.75561032   2    1000021    5
    0.12182119   2   -1000024    6
    0.061177493   2    1000023    5
    0.052692958   2   -1000037    6
    0.0023075183   2    1000022    5
    0.0019359298   2    1000006   -24
    0.0019047378   2    1000005    25
    0.0009923832   2    1000005    23
    0.00078259635   2    1000035    5
    0.000774867   2    1000025    5

DECAY 2000002  1.6306518
    0.99999999   2    1000022    2

DECAY 1000002  68.281171
    0.6494271   2    1000021    2
    0.23011755   2    1000024    1
    0.11505626   2    1000023    2
    0.0053990897   2    1000022    2

DECAY 2000004  1.6306468
    0.99999998   2    1000022    4

DECAY 1000004  68.281025
    0.64942645   2    1000021    4
    0.23011795   2    1000024    3
    0.11505637   2    1000023    4
    0.0053990987   2    1000022    4

DECAY 1000006  211.06602
    0.85122748   2    1000021    6
    0.048742261   2    1000037    5
    0.042953628   2    1000022    6
    0.026030649   2    1000035    6
    0.025809498   2    1000025    6
    0.0028205255   2    1000024    5
    0.0014060849   2    1000023    6
    0.00085617846   2    1000021    4

DECAY 2000006  270.10635
    0.76023697   2    1000021    6
    0.11939102   2    1000024    5
    0.059437573   2    1000023    6
    0.025006767   2    1000025    6
    0.024832627   2    1000035    6
    0.0033827381   2    1000022    6
    0.0027645532   2    1000037    5
    0.0020423183   2    1000006    25
    0.0019470204   2    1000005    24
    0.00095840598   2    1000006    23

DECAY 1000024  10.811544
    0.25110214   2    1000012   -11
    0.25110132   2    1000014   -13
    0.24883881   2   -1000013    14
    0.24883813   2   -1000011    12
    0.00011714812   2    1000022    24

DECAY 1000037  38.488707
    0.23657829   2    1000024    25
    0.21484238   2    1000023    24
    0.21386159   2    1000024    23
    0.072416808   2    1000022    24
    0.063392584   2    1000024    35
    0.06294547   2    1000024    36
    0.062836663   2    37    1000023
    0.028614995   2    37    1000022
    0.020513957   3    1000024    6   -6
    0.012490177   3    1000023   -5    6
    0.0053292825   2   -1000015    16
    0.004346848   3    1000022   -5    6
    0.000496605   2   -1000013    14
    0.00049660483   2   -1000011    12
    0.00018103786   3    1000021   -5    6
    0.00016273864   2    1000014   -13
    0.0001295513   2    1000012   -11
    0.00011681119   2   -1000003    4
    0.00011341687   2   -1000001    2

DECAY 1000022 -1


DECAY 1000023  10.809205
    0.12534308   2    1000012   -12
    0.12534308   2   -1000012    12
    0.12534264   2    1000014   -14
    0.12534264   2   -1000014    14
    0.1246292   2    1000013   -13
    0.1246292   2   -1000013    13
    0.12462882   2    1000011   -11
    0.12462882   2   -1000011    11
    0.00010847427   2    1000022    25

DECAY 1000025  46.519116
    0.17757232   2    1000024   -24
    0.17757232   2   -1000024    24
    0.15991376   2    1000023    23
    0.12260227   2    1000023    25
    0.073934972   2    37   -1000024
    0.073934972   2   -37    1000024
    0.071641147   2    1000023    35
    0.049436741   2    1000022    23
    0.031510237   2    1000022    25
    0.0267015   2    1000022    35
    0.0082141814   3    1000024    5   -6
    0.0082141814   3   -1000024   -5    6
    0.0058210108   3    1000023    6   -6
    0.0038269012   2    1000022    36
    0.002210696   2    1000015   -15
    0.002210696   2   -1000015    15
    0.0021597554   3    1000022    6   -6
    0.0019222845   2    1000023    36
    0.00015875729   3    1000021    6   -6

DECAY 1000035  38.112829
    0.216409   2    1000023    25
    0.21471794   2    1000024   -24
    0.21471794   2   -1000024    24
    0.063214326   2    37   -1000024
    0.063214326   2   -37    1000024
    0.06032676   2    1000023    35
    0.055648694   2    1000022    25
    0.022441081   2    1000022    35
    0.020685495   2    1000023    23
    0.013289363   2    1000022    23
    0.012493778   3    1000024    5   -6
    0.012493778   3   -1000024   -5    6
    0.0092851123   3    1000023    6   -6
    0.0068933155   2    1000022    36
    0.0034850166   2    1000023    36
    0.0031045891   3    1000022    6   -6
    0.0027088888   2    1000015   -15
    0.0027088888   2   -1000015    15
    0.00021934389   2    1000012   -12
    0.00021934389   2   -1000012    12
    0.00021934379   2    1000014   -14
    0.00021934379   2   -1000014    14
    0.00019204569   3    1000021    6   -6
    0.00010783283   2    1000005   -5
    0.00010783283   2   -1000005    5

DECAY 1000021  140.36844
    0.17878286   2    2000003   -3
    0.17878286   2   -2000003    3
    0.17878279   2    2000001   -1
    0.17878279   2   -2000001    1
    0.071205454   2    2000002   -2
    0.071205454   2   -2000002    2
    0.071205372   2    2000004   -4
    0.071205372   2   -2000004    4

DECAY 25  0.0033887633
    0.64147866   2   -5    5
    0.1578547   2   -24    24
    0.074501842   2    21    21
    0.073381077   2   -15    15
    0.031449325   2   -4    4
    0.017427591   2    23    23
    0.0023017911   2    22    22
    0.0011089586   2    22    23
    0.00025456047   2   -13    13
    0.00024066727   2   -3    3
    6.6542138e-07   2   -1    1
    1.6208127e-07   2   -2    2
    5.7228667e-09   2   -11    11

DECAY 35  3.3878031
    0.70291066   2   -5    5
    0.15517988   2   -6    6
    0.1395572   2   -15    15
    0.0013076195   2    25    25
    0.0004960148   2   -13    13
    0.0002220635   2   -3    3
    0.00016797669   2    23    23
    9.9104304e-05   2   -24    24
    4.8910813e-05   2    21    21
    3.9395418e-06   2   -1000001    1000001
    3.9367641e-06   2   -1000003    1000003
    1.6796599e-06   2   -4    4
    6.1396162e-07   2   -1    1
    3.0482321e-07   2    22    22
    8.110183e-08   2    22    23
    1.1141865e-08   2   -11    11
    8.6576556e-12   2   -2    2

DECAY 36  3.3124396
    0.70280387   2   -5    5
    0.15650075   2   -6    6
    0.13953112   2   -15    15
    0.00049592034   2   -13    13
    0.00022902754   2    23    25
    0.00022203272   2   -3    3
    0.0002142653   2    21    21
    1.6246653e-06   2   -4    4
    6.1387676e-07   2   -1    1
    6.1367187e-07   2    22    22
    1.491864e-07   2    22    23
    1.1139747e-08   2   -11    11
    8.3746541e-12   2   -2    2
    5.033809e-34   2    25    25

DECAY 37  3.3148194
    0.86507269   2   -5    6
    0.13272133   2   -15    16
    0.00099722219   2   -5    4
    0.00046921782   2   -13    14
    0.000277456   2   -3    6
    0.00022995651   2    24    25
    0.00020228427   2   -3    4
    1.2712069e-05   2   -1    6
    9.3031743e-06   2   -3    2
    7.1211721e-06   2   -5    2
    5.5432605e-07   2   -1    2
    1.4319239e-07   2   -1    4
    1.0975054e-08   2   -11    12
    1.0526057e-11   2    24    36
    8.7457004e-12   2    24    35

DECAY 6  2.43
    1   2    5    24

DECAY 15 -1
