BLOCK SPINFO
   1   SPheno
   2   v4.0.5be

BLOCK SPHENOINFO
   1   2
   2   2

BLOCK MODSEL
   1   0

BLOCK MINPAR
   3    14.643953
   4   -1

BLOCK EXTPAR
   0    1412.0805
   1   -278.15045
   2   -277.21112
   3    3000
   11    2734.0575
   12   -951.20413
   13    1931.9729
   23   -585.7622
   25    14.071782
   26    1073.1563
   31    1538.4913
   32    1538.4913
   33    1599.1476
   34    1755.9642
   35    1755.9642
   36    1655.3688
   41    5000
   42    5000
   43    1646.2943
   44    5000
   45    5000
   46    1306.512
   47    5000
   48    5000
   49    1690.2372

BLOCK SMINPUTS
   1    127.90897
   2    1.1663787e-05
   3    0.1184
   4    91.1876
   5    4.18
   6    173.2
   7    1.777
   8    0
   11    0.00051099893
   12    0
   13    0.10565837
   14    0
   21    0.005
   22    0.0025
   23    0.095
   24    1.27

BLOCK GAUGE Q=  1412.0805
   1    0.35536298
   2    0.66519887
   3    1.219778

BLOCK YU Q=  1412.0805
   1   1    8.4055165e-06
   2   2    0.0042700024
   3   3    1.0154539

BLOCK YD Q=  1412.0805
   1   1    0.00023768061
   2   2    0.0045159315
   3   3    0.23570468

BLOCK YE Q=  1412.0805
   1   1    4.1477004e-05
   2   2    0.008576129
   3   3    0.14423638

BLOCK AU Q=  1412.0805
   1   1    0
   2   2    0
   3   3    2734.0575

BLOCK AD Q=  1412.0805
   1   1    0
   2   2    0
   3   3   -951.20413

BLOCK AE Q=  1412.0805
   1   1    0
   2   2    0
   3   3    1931.9729

BLOCK MSOFT Q=  1412.0805
   1   -278.15045
   2   -277.21112
   3    3000
   21    804797.26
   22   -284146.15
   31    1538.4913
   32    1538.4913
   33    1599.1476
   34    1755.9642
   35    1755.9642
   36    1655.3688
   41    5000
   42    5000
   43    1646.2943
   44    5000
   45    5000
   46    1306.512
   47    5000
   48    5000
   49    1690.2372

BLOCK MASS
   6    173.2
   23    91.1876
   24    80.429995
   15    1.777
   25    123.19165
   35    1073.0507
   36    1073.1563
   37    1076.3502
   1000001    5025.9936
   2000001    5015.2773
   1000002    5025.5499
   2000002    5016.5447
   1000003    5025.9947
   2000003    5015.2781
   1000004    5025.5508
   2000004    5016.5456
   1000005    1620.4356
   2000005    1705.6414
   1000006    1193.8748
   2000006    1670.1679
   1000011    1541.7451
   2000011    1758.4646
   1000012    1539.3475
   1000013    1541.7435
   2000013    1758.4625
   1000014    1539.3462
   1000015    1601.4976
   2000015    1657.5379
   1000016    1599.7429
   1000021    3182.092
   1000022   -274.55626
   1000023   -291.03891
   1000025    595.8233
   1000035   -606.82932
   1000024    289.67072
   1000037    607.06681

BLOCK ALPHA
      -0.069552104

BLOCK HMIX Q=  1412.0805
   1   -585.7622
   2    14.071782
   3    244.05431
   4    1151664.6

BLOCK STOPMIX
   1   1   -0.32933868
   1   2    0.94421186
   2   1   -0.94421186
   2   2   -0.32933868

BLOCK SBOTMIX
   1   1   -0.99763133
   1   2    0.068787591
   2   1   -0.068787591
   2   2   -0.99763133

BLOCK STAUMIX
   1   1   -0.99508321
   1   2    0.099042472
   2   1   -0.099042472
   2   2   -0.99508321

BLOCK NMIX
   1   1    0.94188699
   1   2   -0.29273785
   1   3   -0.146212
   1   4    0.075996677
   2   1    0.31813096
   2   2    0.9348422
   2   3    0.13875929
   2   4   -0.074890697
   3   1    0.033571494
   3   2   -0.058944669
   3   3    0.70250593
   3   4    0.70843765
   4   1    0.10254043
   4   2   -0.19209409
   4   3    0.68253449
   4   4   -0.6976618

BLOCK UMIX
   1   1   -0.96806989
   1   2   -0.25068046
   2   1   -0.25068046
   2   2    0.96806989

BLOCK VMIX
   1   1    0.99079823
   1   2    0.13534725
   2   1    0.13534725
   2   2   -0.99079823

BLOCK HIGGSBOUNDSINPUTHIGGSCOUPLINGSFERMIONS
       0, 198.01505,3,36,15,15

BLOCK HIGGSBOUNDSINPUTHIGGSCOUPLINGSBOSONS
       0,4,36,21,21,23

BLOCK SPHENOLOWENERGY
   1    0.00033865711
   2    1.5857116e-06
   3    3.5192026e-05
   4    2.452528e-15
   5    1.0476918e-10
   6    2.1930465e-08
   7    8.2834993e-14
   8    3.5387073e-09
   9    7.5052842e-07
   10    9.5854679e-05
   11    0.99014214
   12    0.54316554
   13    19.403661
   14    0
   15    0
   16    0.0021618391
   17    2.2817055e-15
   18    2.4754185e-11
   19    8.2795923e-11
   20    3.3076852e-15
   21    1.4141386e-10
   22    3.7843986e-08
   23    0
   24    0
   25    0
   26    0
   27    0
   28    0
   29    0
   30    0
   31    0
   39    6.0817783e-05
   40    0
   41    0
   42    0

BLOCK FWCOEF Q=  160
   305   4422   0   0   -0.18881911
   305   4422   0   2   -0.20509595
   305   4322   0   2   -0.00051317668
   305   6421   0   0   -0.095227835
   305   6421   0   2   -0.12510804
   305   6321   0   2   -0.00067552667
   3051111   4133   0   0    1.5896293
   3051111   4133   0   2    1.590796
   3051111   4233   0   2    7.1080551e-06
   3051111   4137   0   0   -4.4123214
   3051111   4137   0   2   -4.404655
   3051111   4237   0   2   -5.4390204e-05
   3051313   4133   0   0    1.5896293
   3051313   4133   0   2    1.5907956
   3051313   4233   0   2    7.1078531e-06
   3051313   4137   0   0   -4.4123214
   3051313   4137   0   2   -4.4046554
   3051313   4237   0   2   -5.4390058e-05
   3051212   4137   0   0    1.5053501
   3051212   4137   0   2    1.5036954
   3051212   4237   0   2    1.1853779e-05
   3051414   4137   0   0    1.5053501
   3051414   4137   0   2    1.5036954
   3051414   4237   0   2    1.185382e-05
   3051616   4137   0   0    1.5053501
   3051616   4137   0   2    1.5036954
   3051616   4237   0   2    1.1865417e-05

BLOCK IMFWCOEF Q=  160
   305   4422   0   0    3.8584658e-07
   305   4422   0   2    6.4270542e-06
   305   4322   0   2    1.5002583e-06
   305   6421   0   0    3.3050312e-07
   305   6421   0   2    3.5051787e-06
   305   6321   0   2    5.8236212e-07
   3051111   4133   0   2    2.9421769e-07
   3051111   4233   0   2    5.5358521e-07
   3051111   4137   0   2    3.0140531e-06
   3051111   4237   0   2   -4.3098459e-06
   3051313   4133   0   2    2.942137e-07
   3051313   4233   0   2    5.5358497e-07
   3051313   4137   0   2    3.0140549e-06
   3051313   4237   0   2   -4.3098466e-06
   3051212   4137   0   2   -3.578001e-07
   3051212   4237   0   2    9.3966759e-07
   3051414   4137   0   2   -3.5779998e-07
   3051414   4237   0   2    9.3966759e-07
   3051616   4137   0   2   -3.5943496e-07
   3051616   4237   0   2    9.3966822e-07

DECAY 23  2.4952


DECAY 24  2.085


DECAY 1000011  20.530373
    0.57656221   2   -1000024    12
    0.37520155   2    1000023    11
    0.029659282   2   -1000037    12
    0.013723784   2    1000022    11
    0.0044509183   2    1000035    11
    0.00040225494   2    1000025    11

DECAY 2000011  8.3868422
    0.88961186   2    1000022    11
    0.10086177   2    1000023    11
    0.0085959864   2    1000035    11
    0.00093037581   2    1000025    11

DECAY 1000013  20.53199
    0.57651614   2   -1000024    14
    0.37517358   2    1000023    13
    0.029656895   2   -1000037    14
    0.013724881   2    1000022    13
    0.0044870618   2    1000035    13
    0.00044144281   2    1000025    13

DECAY 2000013  8.3909054
    0.8891862   2    1000022    13
    0.10081835   2    1000023    13
    0.0087025671   2    1000035    13
    0.0010484706   2    1000025    13
    0.00022295842   2   -1000037    14

DECAY 1000015  21.868241
    0.56601339   2   -1000024    16
    0.36709554   2    1000023    15
    0.024716258   2   -1000037    16
    0.019072047   2    1000022    15
    0.012380066   2    1000035    15
    0.010722699   2    1000025    15

DECAY 2000015  8.9878381
    0.76646484   2    1000022    15
    0.092856855   2    1000023    15
    0.066477465   2   -1000037    16
    0.040180094   2    1000035    15
    0.031353418   2    1000025    15
    0.0026649036   2   -1000024    16

DECAY 1000012  20.586902
    0.60122086   2    1000024    11
    0.19543389   2    1000022    12
    0.17903159   2    1000023    12
    0.014308563   2    1000035    12
    0.0085990716   2    1000037    11
    0.0014060209   2    1000025    12

DECAY 1000014  20.58852
    0.60117935   2    1000024    13
    0.19541836   2    1000022    14
    0.17901736   2    1000023    14
    0.014307419   2    1000035    14
    0.0086715996   2    1000037    13
    0.0014059085   2    1000025    14

DECAY 1000016  22.013905
    0.58922976   2    1000024    15
    0.19086178   2    1000022    16
    0.17495213   2    1000023    16
    0.029266238   2    1000037    15
    0.014287721   2    1000035    16
    0.0014023769   2    1000025    16

DECAY 2000001  144.08072
    0.98068938   2    1000021    1
    0.017137273   2    1000022    1
    0.0019535889   2    1000023    1
    0.00019841287   2    1000035    1

DECAY 1000001  208.95335
    0.68156071   2    1000021    1
    0.1971193   2   -1000024    2
    0.08110297   2    1000023    1
    0.022313588   2    1000022    1
    0.012920562   2   -1000037    2
    0.0045490691   2    1000035    1
    0.000433801   2    1000025    1

DECAY 2000003  144.08474
    0.98066253   2    1000021    3
    0.017137096   2    1000022    3
    0.0019538037   2    1000023    3
    0.00020477651   2    1000035    3

DECAY 1000003  208.95722
    0.68154861   2    1000021    3
    0.1971158   2   -1000024    4
    0.081101673   2    1000023    3
    0.022313387   2    1000022    3
    0.012928686   2   -1000037    4
    0.004553385   2    1000035    3
    0.00043846073   2    1000025    3

DECAY 1000005  73.535687
    0.3841875   2    1000006   -24
    0.33243944   2   -1000037    6
    0.17223273   2   -1000024    6
    0.07083919   2    1000023    5
    0.020588875   2    1000022    5
    0.010692747   2    1000035    5
    0.0090195125   2    1000025    5

DECAY 2000005  4.2302876
    0.38537709   2   -1000037    6
    0.18587571   2    1000022    5
    0.17602124   2    1000035    5
    0.17475919   2    1000025    5
    0.052292325   2    1000006   -24
    0.023350995   2    1000023    5
    0.0023234586   2   -1000024    6

DECAY 2000002  152.56233
    0.92703339   2    1000021    2
    0.064754696   2    1000022    2
    0.0073818083   2    1000023    2
    0.00074966278   2    1000035    2

DECAY 1000002  208.94953
    0.68135197   2    1000021    2
    0.20646919   2    1000024    1
    0.10337288   2    1000023    2
    0.003766253   2    1000037    1
    0.0031064121   2    1000035    2
    0.0016445885   2    1000022    2
    0.00028870335   2    1000025    2

DECAY 2000004  152.5659
    0.92701192   2    1000021    4
    0.064753256   2    1000022    4
    0.0073817009   2    1000023    4
    0.00075527292   2    1000035    4

DECAY 1000004  208.95332
    0.68133978   2    1000021    4
    0.20646608   2    1000024    3
    0.10337106   2    1000023    4
    0.0037750447   2    1000037    3
    0.0031104636   2    1000035    4
    0.0016446093   2    1000022    4
    0.0002929591   2    1000025    4

DECAY 1000006  30.683645
    0.36252707   2    1000037    5
    0.24306358   2    1000025    6
    0.19879412   2    1000035    6
    0.082714094   2    1000024    5
    0.077715406   2    1000022    6
    0.035167109   2    1000023    6

DECAY 2000006  76.832711
    0.22024632   2    1000006    23
    0.17823844   2    1000006    25
    0.16522985   2    1000035    6
    0.15273994   2    1000025    6
    0.13670754   2    1000024    5
    0.074401388   2    1000023    6
    0.071714296   2    1000037    5
    0.0007222288   2    1000022    6

DECAY 1000024  1.156598e-06
    0.33932514   3    1000022   -1    2
    0.32785982   3    1000022   -3    4
    0.11338156   3    1000022   -11    12
    0.11335724   3    1000022   -13    14
    0.10607624   3    1000022   -15    16

DECAY 1000037  4.2205271
    0.4371134   2    1000023    24
    0.28997775   2    1000024    23
    0.25486663   2    1000024    25
    0.017233987   2    1000022    24
    0.00077338121   3    1000023   -5    6

DECAY 1000022 -1


DECAY 1000023  1.2717406e-09
    0.36012719   2    1000022    22
    0.10733319   3    1000022    12   -12
    0.10362763   3    1000022    1   -1
    0.10358962   3    1000022    3   -3
    0.079368233   3    1000022    2   -2
    0.073502065   3    1000022    4   -4
    0.057037617   3    1000022    5   -5
    0.018989879   3    1000022    11   -11
    0.018980282   3    1000022    13   -13
    0.01838815   3    1000024    1   -2
    0.01838815   3   -1000024   -1    2
    0.016443362   3    1000022    15   -15
    0.0061453315   3    1000024    11   -12
    0.0061453315   3   -1000024   -11    12
    0.0059669437   3    1000024    13   -14
    0.0059669437   3   -1000024   -13    14

DECAY 1000025  5.2370145
    0.23158487   2    1000024   -24
    0.23158487   2   -1000024    24
    0.18021996   2    1000022    23
    0.15217971   2    1000023    23
    0.10601376   2    1000022    25
    0.097480111   2    1000023    25
    0.00045923521   3    1000024    5   -6
    0.00045923521   3   -1000024   -5    6

DECAY 1000035  4.3317079
    0.33512382   2    1000024   -24
    0.33512382   2   -1000024    24
    0.15177538   2    1000022    25
    0.13956226   2    1000023    25
    0.021028417   2    1000022    23
    0.01588504   2    1000023    23
    0.00074811772   3    1000024    5   -6
    0.00074811772   3   -1000024   -5    6

DECAY 1000021  219.17525
    0.17089824   2    1000006   -6
    0.17089824   2   -1000006    6
    0.1179379   2    1000005   -5
    0.1179379   2   -1000005    5
    0.10908481   2    2000005   -5
    0.10908481   2   -2000005    5
    0.10197252   2    2000006   -6
    0.10197252   2   -2000006    6

DECAY 25  0.0037635392
    0.60982038   2   -5    5
    0.194056   2   -24    24
    0.070994349   2    21    21
    0.069525382   2   -15    15
    0.028876669   2   -4    4
    0.022653598   2    23    23
    0.0022893346   2    22    22
    0.0013147984   2    22    23
    0.00024113857   2   -13    13
    0.00022756953   2   -3    3
    6.2920442e-07   2   -1    1
    1.4881395e-07   2   -2    2
    5.4210866e-09   2   -11    11

DECAY 35  9.9277835
    0.36651426   2   -5    5
    0.15671173   2   -1000024    1000037
    0.15671173   2   -1000037    1000024
    0.15318469   2    1000022    1000025
    0.048815021   2   -15    15
    0.036861764   2    1000022    1000035
    0.03150372   2   -1000024    1000024
    0.025367845   2    1000022    1000022
    0.023357458   2   -6    6
    0.00027529916   2    25    25
    0.0001767281   2    1000023    1000025
    0.00016914443   2   -13    13
    0.00011619916   2   -3    3
    6.2682209e-05   2   -24    24
    5.9475813e-05   2    1000022    1000023
    5.0635975e-05   2    23    23
    4.003947e-05   2    1000023    1000035
    1.8589183e-05   2    21    21
    1.6635867e-06   2    22    23
    6.4975329e-07   2    22    22
    3.2124647e-07   2   -1    1
    3.118318e-07   2   -4    4
    3.4829958e-08   2    1000023    1000023
    3.8000882e-09   2   -11    11
    1.6078019e-12   2   -2    2

DECAY 36  9.7998227
    0.36493143   2   -5    5
    0.14777248   2   -1000024    1000037
    0.14777248   2   -1000037    1000024
    0.13036883   2    1000022    1000035
    0.048966491   2   -1000024    1000024
    0.048601442   2   -15    15
    0.046475026   2    1000022    1000025
    0.039296379   2    1000022    1000022
    0.025077336   2   -6    6
    0.00016840205   2   -13    13
    0.00014989528   2    1000023    1000035
    0.00011569268   2   -3    3
    9.3649651e-05   2    1000022    1000023
    8.1617566e-05   2    21    21
    7.3018111e-05   2    23    25
    5.0792719e-05   2    1000023    1000025
    2.8992489e-06   2    22    23
    1.4660696e-06   2    22    22
    3.1984626e-07   2   -1    1
    2.9878744e-07   2   -4    4
    5.5782455e-08   2    1000023    1000023
    3.7834098e-09   2   -11    11
    1.5407278e-12   2   -2    2
    9.7433956e-37   2    25    25

DECAY 37  9.472468
    0.37321386   2   -5    6
    0.17125668   2    1000024    1000025
    0.16319874   2    1000024    1000035
    0.13516064   2    1000023    1000037
    0.083511781   2    1000022    1000037
    0.048730432   2   -15    16
    0.019554804   2    1000023    1000024
    0.0044349602   2    1000022    1000024
    0.00053753755   2   -5    4
    0.00017228029   2   -13    14
    0.00010891719   2   -3    4
    7.6631023e-05   2    24    25
    3.2079643e-05   2   -3    6
    5.02247e-06   2   -3    2
    3.838579e-06   2   -5    2
    1.4643694e-06   2   -1    6
    3.0133978e-07   2   -1    2
    2.7905584e-08   2   -1    4
    4.029654e-09   2   -11    12
    5.6024658e-11   2    24    35
    4.7614133e-11   2    24    36

DECAY 6  2.43
    1   2    5    24

DECAY 15 -1
