BLOCK SPINFO
   1   SPheno
   2   v4.0.5be

BLOCK SPHENOINFO
   1   2
   2   2

BLOCK MODSEL
   1   0

BLOCK MINPAR
   3    48.413572
   4   -1

BLOCK EXTPAR
   0    1294.714
   1    749.47815
   2   -540.65353
   3    3000
   11    2792.973
   12   -1389.7963
   13    231.07432
   23   -507.3169
   25    49.583261
   26    4733.185
   31    1483.2084
   32    1483.2084
   33    779.40493
   34    883.92022
   35    883.92022
   36    668.93043
   41    5000
   42    5000
   43    1295.4796
   44    5000
   45    5000
   46    1382.1866
   47    5000
   48    5000
   49    910.27806

BLOCK SMINPUTS
   1    127.90897
   2    1.1663787e-05
   3    0.1184
   4    91.1876
   5    4.18
   6    173.2
   7    1.777
   8    0
   11    0.00051099893
   12    0
   13    0.10565837
   14    0
   21    0.005
   22    0.0025
   23    0.095
   24    1.27

BLOCK GAUGE Q=  1294.714
   1    0.35536298
   2    0.66519887
   3    1.219778

BLOCK YU Q=  1294.714
   1   1    8.3860771e-06
   2   2    0.0042601272
   3   3    1.0131055

BLOCK YD Q=  1294.714
   1   1    0.00083555336
   2   2    0.015875514
   3   3    0.82860711

BLOCK YE Q=  1294.714
   1   1    0.00014581017
   2   2    0.030148919
   3   3    0.50705522

BLOCK AU Q=  1294.714
   1   1    0
   2   2    0
   3   3    2792.973

BLOCK AD Q=  1294.714
   1   1    0
   2   2    0
   3   3   -1389.7965

BLOCK AE Q=  1294.714
   1   1    0
   2   2    0
   3   3    231.07432

BLOCK MSOFT Q=  1294.714
   1    749.47815
   2   -540.65353
   3    3000
   21    21876061
   22   -181908.86
   31    1483.2084
   32    1483.2084
   33    779.40493
   34    883.92022
   35    883.92022
   36    668.93043
   41    5000
   42    5000
   43    1295.4796
   44    5000
   45    5000
   46    1382.1866
   47    5000
   48    5000
   49    910.27806

BLOCK MASS
   6    173.2
   23    91.1876
   24    80.429995
   15    1.777
   25    123.9505
   35    4717.6505
   36    4733.185
   37    4719.337
   1000001    5018.3076
   2000001    5007.4111
   1000002    5017.8625
   2000002    5011.969
   1000003    5018.3221
   2000003    5007.4353
   1000004    5017.8758
   2000004    5011.9701
   1000005    1087.5146
   2000005    1334.6171
   1000006    1144.3974
   2000006    1464.7747
   1000011    1492.0153
   2000011    872.96813
   1000012    1489.5145
   1000013    1492.074
   2000013    873.17188
   1000014    1489.5709
   1000015    726.07019
   2000015    838.13394
   1000016    825.0806
   1000021    3172.3203
   1000022   -474.96188
   1000023    507.86725
   1000025   -608.38128
   1000035    752.84929
   1000024    477.06288
   1000037    609.24446

BLOCK ALPHA
      -0.02067798

BLOCK HMIX Q=  1294.714
   1   -507.3169
   2    49.583261
   3    244.16774
   4    22403040

BLOCK STOPMIX
   1   1   -0.67695854
   1   2    0.73602115
   2   1   -0.73602115
   2   2   -0.67695854

BLOCK SBOTMIX
   1   1   -0.14940915
   1   2    0.98877546
   2   1   -0.98877546
   2   2   -0.14940915

BLOCK STAUMIX
   1   1   -0.28690348
   1   2    0.95795949
   2   1   -0.95795949
   2   2   -0.28690348

BLOCK NMIX
   1   1   -0.02178856
   1   2   -0.50257922
   1   3   -0.63071734
   1   4    0.59087649
   2   1    0.1243168
   2   2    0.051289454
   2   3   -0.70114984
   2   4   -0.70021684
   3   1   -0.012778139
   3   2    0.86298504
   3   3   -0.32512772
   3   4    0.3865042
   4   1   -0.99192102
   4   2    0.0063505815
   4   3   -0.069831927
   4   4   -0.10571595

BLOCK UMIX
   1   1   -0.4661645
   1   2   -0.88469806
   2   1   -0.88469806
   2   2    0.4661645

BLOCK VMIX
   1   1    0.55479294
   1   2    0.83198846
   2   1    0.83198846
   2   2   -0.55479294

BLOCK HIGGSBOUNDSINPUTHIGGSCOUPLINGSFERMIONS
       0, 2458.4998,3,36,15,15

BLOCK HIGGSBOUNDSINPUTHIGGSCOUPLINGSBOSONS
       0,4,36,21,21,23

BLOCK SPHENOLOWENERGY
   1    0.00027224254
   2    1.5985365e-06
   3    3.5201225e-05
   4    2.6921208e-15
   5    1.1500213e-10
   6    2.3956838e-08
   7    9.2061142e-14
   8    3.9327714e-09
   9    8.2996628e-07
   10    9.6395988e-05
   11    0.99573365
   12    0.54254364
   13    19.38604
   14    0
   15    0
   16    0.0021588825
   17    2.2816747e-15
   18    2.4755525e-11
   19    8.2800384e-11
   20    1.2834248e-14
   21    5.4879994e-10
   22    2.340786e-07
   23    0
   24    0
   25    0
   26    0
   27    0
   28    0
   29    0
   30    0
   31    0
   39    9.7252163e-05
   40    0
   41    0
   42    0

BLOCK FWCOEF Q=  160
   305   4422   0   0   -0.18881911
   305   4422   0   2   -0.12691631
   305   4322   0   2    0.00026457542
   305   6421   0   0   -0.095227835
   305   6421   0   2   -0.070376685
   305   6321   0   2    4.5121391e-05
   3051111   4133   0   0    1.5873323
   3051111   4133   0   2    1.5889717
   3051111   4233   0   2    0.00035590313
   3051111   4137   0   0   -4.4100244
   3051111   4137   0   2   -4.4033731
   3051111   4237   0   2   -0.0027863368
   3051313   4133   0   0    1.5873323
   3051313   4133   0   2    1.5889675
   3051313   4233   0   2    0.00035589962
   3051313   4137   0   0   -4.4100244
   3051313   4137   0   2   -4.4033773
   3051313   4237   0   2   -0.0027863449
   3051212   4137   0   0    1.5053501
   3051212   4137   0   2    1.5039152
   3051212   4237   0   2    0.0006078852
   3051414   4137   0   0    1.5053501
   3051414   4137   0   2    1.5039152
   3051414   4237   0   2    0.00060788523
   3051616   4137   0   0    1.5053501
   3051616   4137   0   2    1.5039165
   3051616   4237   0   2    0.00060789354

BLOCK IMFWCOEF Q=  160
   305   4422   0   0    3.8589438e-07
   305   4422   0   2    3.0968756e-05
   305   4322   0   2    5.7744384e-06
   305   6421   0   0    3.3054406e-07
   305   6421   0   2    1.8964302e-05
   305   6321   0   2    2.1826738e-06
   3051111   4133   0   2    3.1717719e-07
   3051111   4233   0   2    6.8610481e-06
   3051111   4137   0   2    3.9565213e-07
   3051111   4237   0   2   -5.3722535e-05
   3051313   4133   0   2    3.1703755e-07
   3051313   4233   0   2    6.8609894e-06
   3051313   4137   0   2    3.9573803e-07
   3051313   4237   0   2   -5.3722685e-05
   3051212   4137   0   2    1.9101426e-07
   3051212   4237   0   2    1.1720459e-05
   3051414   4137   0   2    1.9101809e-07
   3051414   4237   0   2    1.1720459e-05
   3051616   4137   0   2    2.0753509e-07
   3051616   4237   0   2    1.1720459e-05

DECAY 23  2.4952


DECAY 24  2.085


DECAY 2000011  0.31430838
    0.90172353   2    1000035    11
    0.09438952   2    1000023    11
    0.0032836399   2    1000022    11
    0.00060278688   2    1000025    11

DECAY 1000011  15.25827
    0.46779293   2   -1000037    12
    0.2192977   2    1000025    11
    0.1507899   2   -1000024    12
    0.091909571   2    1000022    11
    0.065548914   2    1000035    11
    0.0046609828   2    1000023    11

DECAY 2000013  0.32911435
    0.86370211   2    1000035    13
    0.10054696   2    1000023    13
    0.018489355   2   -1000024    14
    0.012597719   2    1000022    13
    0.0027454618   2   -1000037    14
    0.0019183912   2    1000025    13

DECAY 1000013  15.281414
    0.4671175   2   -1000037    14
    0.21911004   2    1000025    13
    0.15057014   2   -1000024    14
    0.092343561   2    1000022    13
    0.065460615   2    1000035    13
    0.0053325208   2    1000023    13

DECAY 1000015  2.4640032
    0.50990732   2   -1000024    16
    0.28420977   2    1000022    15
    0.20233992   2    1000023    15
    0.00184039   2    1000025    15
    0.00170259   2   -1000037    16

DECAY 2000015  4.3272244
    0.34185834   2   -1000037    16
    0.20543282   2    1000022    15
    0.19710407   2    1000023    15
    0.18299419   2    1000025    15
    0.049943564   2   -1000024    16
    0.012051345   2    1000035    15
    0.01061553   2    1000015    23

DECAY 1000012  15.309067
    0.41109461   2    1000037    11
    0.22491652   2    1000025    12
    0.21234964   2    1000024    11
    0.083294943   2    1000022    12
    0.068267787   2    1000035    12

DECAY 1000014  15.331115
    0.41079766   2    1000037    13
    0.22460839   2    1000025    14
    0.21316208   2    1000024    13
    0.083179735   2    1000022    14
    0.06817574   2    1000035    14

DECAY 1000016  4.7469202
    0.51550136   2    1000024    15
    0.26028437   2    1000037    15
    0.1205146   2    1000025    16
    0.082433455   2    1000022    16
    0.015031742   2    1000015    24
    0.0061669681   2    1000035    16

DECAY 2000001  144.32099
    0.98148661   2    1000021    1
    0.018207105   2    1000035    1
    0.00029347286   2    1000023    1

DECAY 1000001  207.95124
    0.68662384   2    1000021    1
    0.16140673   2   -1000037    2
    0.07720265   2    1000025    1
    0.045334355   2   -1000024    2
    0.025945547   2    1000022    1
    0.0033982898   2    1000035    1

DECAY 2000003  144.37257
    0.98115339   2    1000021    3
    0.0182015   2    1000035    3
    0.00037688506   2    1000023    3
    0.00013365715   2   -1000024    4

DECAY 1000003  207.97931
    0.68653847   2    1000021    3
    0.16138811   2   -1000037    4
    0.07720483   2    1000025    3
    0.045334233   2   -1000024    4
    0.025989281   2    1000022    3
    0.003398403   2    1000035    3
    0.00014667974   2    1000023    3

DECAY 1000005  17.722648
    0.42329325   2   -1000024    6
    0.25357889   2    1000023    5
    0.24813193   2    1000022    5
    0.04112577   2   -1000037    6
    0.025246624   2    1000025    5
    0.0086235424   2    1000035    5

DECAY 2000005  54.390327
    0.24780694   2   -1000024    6
    0.23939781   2   -1000037    6
    0.18369594   2    1000006   -24
    0.12001902   2    1000023    5
    0.10860414   2    1000022    5
    0.081553957   2    1000025    5
    0.0098634658   2    1000005    23
    0.0055558322   2    1000005    25
    0.0035028869   2    1000035    5

DECAY 2000002  152.82144
    0.92999964   2    1000021    2
    0.068845839   2    1000035    2
    0.0011087688   2    1000023    2

DECAY 1000002  207.94822
    0.6864108   2    1000021    2
    0.14273543   2    1000037    1
    0.076386578   2    1000025    2
    0.064206504   2    1000024    1
    0.026757066   2    1000022    2
    0.0029426629   2    1000035    2
    0.00056096346   2    1000023    2

DECAY 2000004  152.82503
    0.92997809   2    1000021    4
    0.068844368   2    1000035    4
    0.0011144207   2    1000023    4

DECAY 1000004  207.97607
    0.68632524   2    1000021    4
    0.14274221   2    1000037    3
    0.076377772   2    1000025    4
    0.064290766   2    1000024    3
    0.02675657   2    1000022    4
    0.002942367   2    1000035    4
    0.00056507947   2    1000023    4

DECAY 1000006  34.681961
    0.44834899   2    1000024    5
    0.25086105   2    1000022    6
    0.22990604   2    1000023    6
    0.023521759   2    1000037    5
    0.021716766   2    1000025    6
    0.019340901   2    1000035    6
    0.0057209535   2    1000022    4
    0.00047035787   3    1000022    24    5
    0.00011318375   2    1000023    4

DECAY 2000006  64.625901
    0.21674717   2    1000037    5
    0.21359202   2    1000006    23
    0.15553888   2    1000023    6
    0.13737537   2    1000024    5
    0.10727504   2    1000025    6
    0.081387537   2    1000022    6
    0.041660401   2    2000005    24
    0.033677876   2    1000005    24
    0.010447856   2    1000035    6
    0.0022978373   2    1000006    25

DECAY 1000024  1.059549e-10
    0.56865806   3    1000022   -1    2
    0.18979114   3    1000022   -11    12
    0.1870112   3    1000022   -13    14
    0.054359764   3    1000022   -3    4
    0.00017982989   3    1000022   -15    16

DECAY 1000037  1.6737506
    0.6808283   2    1000022    24
    0.19838922   2    1000024    23
    0.080263925   2    1000023    24
    0.040516496   2    1000024    25

DECAY 1000022 -1


DECAY 1000023  0.00016551799
    0.12475707   3    1000022    12   -12
    0.093301028   3    1000022    1   -1
    0.093292555   3    1000022    3   -3
    0.080051013   3    1000022    5   -5
    0.072768902   3    1000022    2   -2
    0.071401711   3    1000022    4   -4
    0.059371592   3    1000024    1   -2
    0.059371592   3   -1000024   -1    2
    0.058903793   3    1000024    3   -4
    0.058903793   3   -1000024   -3    4
    0.046267867   2    1000022    22
    0.021047585   3    1000022    15   -15
    0.02104407   3    1000022    11   -11
    0.021042385   3    1000022    13   -13
    0.01978641   3    1000024    13   -14
    0.01978641   3   -1000024   -13    14
    0.019786105   3    1000024    11   -12
    0.019786105   3   -1000024   -11    12
    0.019665008   3    1000024    15   -16
    0.019665008   3   -1000024   -15    16

DECAY 1000025  3.10862
    0.39472149   2    1000024   -24
    0.39472149   2   -1000024    24
    0.18805839   2    1000023    23
    0.021347825   2    1000022    25
    0.0011142177   2    1000022    23

DECAY 1000035  1.8041074
    0.22671942   2    1000022    23
    0.18436012   2    1000024   -24
    0.18436012   2   -1000024    24
    0.18221735   2    1000022    25
    0.15986293   2    1000023    25
    0.018797806   2    1000025    23
    0.0096170123   2    1000023    23
    0.0081964419   2    1000037   -24
    0.0081964419   2   -1000037    24
    0.0076288823   2    1000025    25
    0.0047726178   2    1000015   -15
    0.0047726178   2   -1000015    15
    0.00021801093   3    1000024    5   -6
    0.00021801093   3   -1000024   -5    6

DECAY 1000021  282.54066
    0.14126329   2    1000006   -6
    0.14126329   2   -1000006    6
    0.12952368   2    1000005   -5
    0.12952368   2   -1000005    5
    0.11244807   2    2000005   -5
    0.11244807   2   -2000005    5
    0.088511416   2    2000006   -6
    0.088511416   2   -2000006    6
    0.028181778   2    1000006   -4
    0.028181778   2   -1000006    4

DECAY 25  0.0037453132
    0.59040695   2   -5    5
    0.21168293   2   -24    24
    0.071677156   2    21    21
    0.067743324   2   -15    15
    0.029170457   2   -4    4
    0.02509312   2    23    23
    0.0023563242   2    22    22
    0.0014128227   2    22    23
    0.00023486383   2   -13    13
    0.0002212906   2   -3    3
    6.11845e-07   2   -1    1
    1.5032568e-07   2   -2    2
    5.2800141e-09   2   -11    11

DECAY 35  426.60889
    0.74251892   2   -5    5
    0.062173082   2   -15    15
    0.024220984   2   -1000024    1000037
    0.024220984   2   -1000037    1000024
    0.023443714   2   -1000024    1000024
    0.023279016   2   -2000005    1000005
    0.023279016   2   -1000005    2000005
    0.014579412   2    1000023    1000025
    0.014272249   2   -1000037    1000037
    0.0097722362   2    1000022    1000022
    0.0079806421   2    1000022    1000023
    0.0078809567   2    1000025    1000025
    0.0059632194   2    1000023    1000035
    0.0031956803   2    1000022    1000035
    0.0029822825   2    1000025    1000035
    0.0025819334   2    1000022    1000025
    0.0023879588   2   -1000006    1000006
    0.0020343907   2   -2000006    2000006
    0.0013194523   2   -1000005    1000005
    0.0010949709   2   -2000005    2000005
    0.00025194498   2   -6    6
    0.00019856219   2   -13    13
    0.00011543454   2   -3    3
    0.00011054711   2    1000035    1000035
    4.1456467e-05   2   -2000015    1000015
    4.1456467e-05   2   -1000015    2000015
    1.2693962e-05   2   -2000015    2000015
    1.2188992e-05   2   -1000015    1000015
    1.0994536e-05   2   -2000006    1000006
    1.0994536e-05   2   -1000006    2000006
    6.7143229e-06   2    1000023    1000023
    5.4805491e-06   2    21    21
    3.1910483e-07   2   -1    1
    2.0486058e-08   2    23    23
    7.5683893e-09   2    25    25
    6.4138123e-09   2    22    23
    4.4589192e-09   2   -11    11
    4.434096e-09   2   -2000011    2000011
    4.3929815e-09   2   -2000013    2000013
    3.6009095e-09   2   -24    24
    3.4213535e-09   2   -1000011    1000011
    3.3645378e-09   2   -1000013    1000013
    2.9383614e-09   2   -4    4
    9.8745174e-10   2    22    22
    3.8774296e-10   2   -2000013    1000013
    3.8774296e-10   2   -1000013    2000013
    1.5143712e-14   2   -2    2
    9.0694691e-15   2   -2000011    1000011
    9.0694691e-15   2   -1000011    2000011

DECAY 36  363.41876
    0.71091363   2   -5    5
    0.059467958   2   -15    15
    0.030709008   2   -1000024    1000024
    0.028675507   2   -2000005    1000005
    0.028675507   2   -1000005    2000005
    0.025462783   2   -1000024    1000037
    0.025462783   2   -1000037    1000024
    0.019870511   2   -1000037    1000037
    0.014950982   2    1000023    1000025
    0.01292353   2    1000022    1000022
    0.010881842   2    1000025    1000025
    0.0083146257   2    1000022    1000023
    0.0069471951   2    1000023    1000035
    0.0039181774   2    1000022    1000035
    0.0033986817   2    1000025    1000035
    0.0033925811   2    1000022    1000025
    0.0026069515   2   -2000006    1000006
    0.0026069515   2   -1000006    2000006
    0.00025117648   2   -6    6
    0.00018989177   2   -13    13
    0.00012801447   2    1000035    1000035
    0.00011036039   2   -3    3
    6.3092912e-05   2   -2000015    1000015
    6.3092912e-05   2   -1000015    2000015
    7.6343939e-06   2    1000023    1000023
    7.0909859e-06   2    21    21
    3.0507704e-07   2   -1    1
    6.2315812e-08   2    23    25
    3.808288e-08   2    22    23
    2.1387193e-08   2    22    22
    4.2641808e-09   2   -11    11
    2.9281237e-09   2   -4    4
    2.7686907e-09   2    23    35
    4.5423065e-10   2   -2000013    1000013
    4.5423065e-10   2   -1000013    2000013
    1.5091474e-14   2   -2    2
    1.0624502e-14   2   -2000011    1000011
    1.0624502e-14   2   -1000011    2000011
    9.7573244e-38   2    25    25

DECAY 37  398.55795
    0.73475874   2   -5    6
    0.055503345   2   -15    16
    0.049059025   2    1000022    1000037
    0.043220388   2    1000024    1000025
    0.036022094   2   -1000005    1000006
    0.026316214   2    1000023    1000037
    0.019717106   2    1000023    1000024
    0.017812528   2   -1000005    2000006
    0.0065539554   2    1000024    1000035
    0.0062013299   2    1000035    1000037
    0.0029378652   2   -2000005    2000006
    0.0010906249   2   -5    4
    0.00030976433   2   -2000005    1000006
    0.00019622406   2   -13    14
    0.00010908304   2   -3    4
    0.00010866977   2   -1000015    1000016
    5.2636165e-05   2    1000022    1000024
    9.8898003e-06   2    1000025    1000037
    7.7881862e-06   2   -5    2
    6.7358878e-06   2   -2000015    1000016
    5.13456e-06   2   -3    2
    4.3449912e-07   2   -3    6
    3.0251555e-07   2   -1    2
    5.6337457e-08   2    24    25
    1.8646893e-08   2   -2000011    1000012
    1.8585037e-08   2   -2000013    1000014
    1.4311406e-08   2   -1    4
    1.2453931e-08   2   -1    6
    4.5897011e-09   2   -11    12
    8.1522743e-10   2   -1000013    1000014
    4.6616448e-14   2    24    35
    1.9067601e-14   2   -1000011    1000012

DECAY 6  2.43
    1   2    5    24

DECAY 15 -1
