BLOCK SPINFO
   1   SPheno
   2   v4.0.5be

BLOCK SPHENOINFO
   1   2
   2   2

BLOCK MODSEL
   1   0

BLOCK MINPAR
   3    32.435242
   4    1

BLOCK EXTPAR
   0    1410.7886
   1    820.25933
   2   -1581.7157
   3    3000
   11    4085.2104
   12    901.5184
   13    1753.9384
   23    236.3594
   25    31.391838
   26    3496.3782
   31    279.42189
   32    279.42189
   33    552.08408
   34    243.15008
   35    243.15008
   36    504.11984
   41    5000
   42    5000
   43    1681.1541
   44    5000
   45    5000
   46    1350.0458
   47    5000
   48    5000
   49    1774.0354

BLOCK SMINPUTS
   1    127.90897
   2    1.1663787e-05
   3    0.1184
   4    91.1876
   5    4.18
   6    173.2
   7    1.777
   8    0
   11    0.00051099893
   12    0
   13    0.10565837
   14    0
   21    0.005
   22    0.0025
   23    0.095
   24    1.27

BLOCK GAUGE Q=  1410.7886
   1    0.35536298
   2    0.66519887
   3    1.219778

BLOCK YU Q=  1410.7886
   1   1    8.3886252e-06
   2   2    0.0042614216
   3   3    1.0134133

BLOCK YD Q=  1410.7886
   1   1    0.00052916095
   2   2    0.010054058
   3   3    0.52476185

BLOCK YE Q=  1410.7886
   1   1    9.2342455e-05
   2   2    0.019093491
   3   3    0.32112111

BLOCK AU Q=  1410.7886
   1   1    0
   2   2    0
   3   3    4085.2105

BLOCK AD Q=  1410.7886
   1   1    0
   2   2    0
   3   3    901.51835

BLOCK AE Q=  1410.7886
   1   1    0
   2   2    0
   3   3    1753.9384

BLOCK MSOFT Q=  1410.7886
   1    820.25933
   2   -1581.7157
   3    3000
   21    12152128
   22    24947.439
   31    279.42189
   32    279.42189
   33    552.08408
   34    243.15008
   35    243.15008
   36    504.11984
   41    5000
   42    5000
   43    1681.1541
   44    5000
   45    5000
   46    1350.0458
   47    5000
   48    5000
   49    1774.0354

BLOCK MASS
   6    173.2
   23    91.1876
   24    80.429995
   15    1.777
   25    124.35119
   35    3495.5513
   36    3496.3782
   37    3496.8282
   1000001    5025.0286
   2000001    5016.8372
   1000002    5024.6073
   2000002    5019.0014
   1000003    5025.0318
   2000003    5016.8421
   1000004    5024.6103
   2000004    5019.0022
   1000005    1639.2869
   2000005    1799.3559
   1000006    1154.1622
   2000006    1724.4754
   1000011    323.14805
   2000011    244.51248
   1000012    313.19789
   1000013    323.19112
   2000013    244.55096
   1000014    313.22179
   1000015    514.68354
   2000015    584.10318
   1000016    577.26463
   1000021    3185.8773
   1000022   -237.65127
   1000023    239.84163
   1000025    814.63755
   1000035   -1627.9807
   1000024    238.96464
   1000037    1628.1523

BLOCK ALPHA
      -0.030868944

BLOCK HMIX Q=  1410.7886
   1    236.3594
   2    31.391838
   3    244.03031
   4    12224661

BLOCK STOPMIX
   1   1   -0.40821333
   1   2    0.91288656
   2   1   -0.91288656
   2   2   -0.40821333

BLOCK SBOTMIX
   1   1    0.99966001
   1   2    0.026074358
   2   1   -0.026074358
   2   2    0.99966001

BLOCK STAUMIX
   1   1    0.13045691
   1   2    0.99145398
   2   1   -0.99145398
   2   2    0.13045691

BLOCK NMIX
   1   1    0.028686776
   1   2    0.039743446
   1   3   -0.70895495
   1   4   -0.70354844
   2   1    0.056125944
   2   2    0.031526235
   2   3    0.70496581
   2   4   -0.7063138
   3   1    0.99801111
   3   2   -0.0020315804
   3   3   -0.019262322
   3   4    0.059988901
   4   1    0.00088315018
   4   2   -0.99871038
   4   3   -0.0059198964
   4   4   -0.050415744

BLOCK UMIX
   1   1   -0.0083914576
   1   2    0.99996479
   2   1   -0.99996479
   2   2   -0.0083914576

BLOCK VMIX
   1   1    0.071398164
   1   2    0.99744789
   2   1    0.99744789
   2   2   -0.071398164

BLOCK HIGGSBOUNDSINPUTHIGGSCOUPLINGSFERMIONS
       0, 985.44752,3,36,15,15

BLOCK HIGGSBOUNDSINPUTHIGGSCOUPLINGSBOSONS
       0,4,36,21,21,23

BLOCK SPHENOLOWENERGY
   1    0.00036783407
   2    1.5884074e-06
   3    3.5264111e-05
   4    2.5876691e-15
   5    1.1054274e-10
   6    2.3164743e-08
   7    8.677837e-14
   8    3.7071845e-09
   9    7.8713978e-07
   10    9.6248278e-05
   11    0.99420786
   12    0.54350736
   13    19.417702
   14    0
   15    0
   16    0.0021648019
   17    2.2817349e-15
   18    2.4797145e-11
   19    8.2901888e-11
   20    4.8254109e-15
   21    2.0715914e-10
   22   -1.167736e-08
   23    0
   24    0
   25    0
   26    0
   27    0
   28    0
   29    0
   30    0
   31    0
   39    8.860704e-05
   40    0
   41    0
   42    0

BLOCK FWCOEF Q=  160
   305   4422   0   0   -0.18881911
   305   4422   0   2   -0.24350277
   305   4322   0   2   -0.00040882654
   305   6421   0   0   -0.095227835
   305   6421   0   2   -0.12515442
   305   6321   0   2   -0.00025668149
   3051111   4133   0   0    1.5898932
   3051111   4133   0   2    1.5918721
   3051111   4233   0   2    0.0001571465
   3051111   4137   0   0   -4.4125853
   3051111   4137   0   2   -4.4120716
   3051111   4237   0   2   -0.0012262104
   3051313   4133   0   0    1.5898932
   3051313   4133   0   2    1.5918668
   3051313   4233   0   2    0.00015714578
   3051313   4137   0   0   -4.4125853
   3051313   4137   0   2   -4.4120768
   3051313   4237   0   2   -0.0012262122
   3051212   4137   0   0    1.5053501
   3051212   4137   0   2    1.5052447
   3051212   4237   0   2    0.00026736426
   3051414   4137   0   0    1.5053501
   3051414   4137   0   2    1.5052447
   3051414   4237   0   2    0.00026736427
   3051616   4137   0   0    1.5053501
   3051616   4137   0   2    1.5052452
   3051616   4237   0   2    0.00026736845

BLOCK IMFWCOEF Q=  160
   305   4422   0   0    3.8577688e-07
   305   4422   0   2   -1.1470282e-05
   305   4322   0   2   -5.6425606e-06
   305   6421   0   0    3.3044341e-07
   305   6421   0   2   -1.2131809e-05
   305   6321   0   2   -2.3619203e-06
   3051111   4133   0   2    3.0022252e-07
   3051111   4233   0   2    3.149939e-06
   3051111   4137   0   2   -1.6489231e-06
   3051111   4237   0   2   -2.458441e-05
   3051313   4133   0   2    3.001814e-07
   3051313   4233   0   2    3.1499279e-06
   3051313   4137   0   2   -1.6490158e-06
   3051313   4237   0   2   -2.4584444e-05
   3051212   4137   0   2    4.4644644e-07
   3051212   4237   0   2    5.360411e-06
   3051414   4137   0   2    4.4644334e-07
   3051414   4237   0   2    5.360411e-06
   3051616   4137   0   2    4.5034801e-07
   3051616   4237   0   2    5.3604085e-06

DECAY 23  2.4952


DECAY 24  2.085


DECAY 2000011  8.6375939e-06
    0.64158743   2    1000023    11
    0.3584029   2    1000022    11

DECAY 1000011  0.0020361826
    0.53312803   2    1000023    11
    0.44658668   2    1000022    11
    0.020201631   2   -1000024    12

DECAY 2000013  1.6387177e-05
    0.41452976   2    1000023    13
    0.36470475   2    1000022    13
    0.22076549   2   -1000024    14

DECAY 1000013  0.0025215189
    0.52453633   2    1000023    13
    0.45906912   2    1000022    13
    0.016325936   2   -1000024    14

DECAY 1000015  1.3011627
    0.49304301   2   -1000024    16
    0.25668185   2    1000022    15
    0.25027514   2    1000023    15

DECAY 2000015  0.84927973
    0.49371656   2    1000022    15
    0.49371226   2    1000023    15
    0.012538278   2   -1000024    16

DECAY 1000012  0.0026025468
    0.94294138   2    1000024    11
    0.056843028   2    1000022    12
    0.00021559557   2    1000023    12

DECAY 1000014  0.0030030599
    0.9505269   2    1000024    13
    0.04928613   2    1000022    14
    0.00018693706   2    1000023    14

DECAY 1000016  0.83268892
    0.99868997   2    1000024    15
    0.0012549437   2    1000022    16

DECAY 2000001  143.66354
    0.98151451   2    1000021    1
    0.018407988   2    1000025    1

DECAY 1000001  195.68913
    0.72492857   2    1000021    1
    0.18106662   2   -1000037    2
    0.090339221   2    1000035    1
    0.0034624556   2    1000025    1
    0.00013504947   2    1000022    1

DECAY 2000003  143.68408
    0.98137772   2    1000021    3
    0.018405401   2    1000025    3

DECAY 1000003  195.70134
    0.724885   2    1000021    3
    0.18105553   2   -1000037    4
    0.090333669   2    1000035    3
    0.0034622602   2    1000025    3
    0.00016080654   2    1000022    3

DECAY 1000005  101.19854
    0.60588747   2    1000006   -24
    0.30763976   2   -1000024    6
    0.042894145   2    1000022    5
    0.042262186   2    1000023    5
    0.0013039722   2    1000025    5

DECAY 2000005  19.611455
    0.47762057   2   -1000024    6
    0.24355893   2    1000022    5
    0.24118321   2    1000023    5
    0.032515161   2    1000025    5
    0.0045552333   2    1000006   -24
    0.0003656362   2    1000005    25
    0.00018708571   2    1000005    23

DECAY 2000002  151.86075
    0.93001733   2    1000021    2
    0.069690716   2    1000025    2
    0.00023143837   2    1000023    2

DECAY 1000002  195.6861
    0.72471559   2    1000021    2
    0.18013688   2    1000037    1
    0.090272613   2    1000035    2
    0.0033074352   2    1000025    2
    0.001147193   2    1000024    1
    0.00022633926   2    1000022    2
    0.00019395236   2    1000023    2

DECAY 2000004  151.86438
    0.92999525   2    1000021    4
    0.069689101   2    1000025    4
    0.00023736021   2    1000023    4

DECAY 1000004  195.69823
    0.72467196   2    1000021    4
    0.18012587   2    1000037    3
    0.090267082   2    1000035    4
    0.0033072616   2    1000025    4
    0.0011983785   2    1000024    3
    0.00023089788   2    1000022    4
    0.00019854848   2    1000023    4

DECAY 1000006  41.749572
    0.47066862   2    1000024    5
    0.25872139   2    1000022    6
    0.25740126   2    1000023    6
    0.01311537   2    1000025    6

DECAY 2000006  107.65366
    0.363682   2    1000006    23
    0.21992207   2    1000006    25
    0.15060026   2    1000023    6
    0.14788294   2    1000022    6
    0.11207288   2    1000024    5
    0.0034622178   2    1000025    6
    0.0015140857   2    1000037    5
    0.0008635423   2    1000005    24

DECAY 1000024  9.0989362e-12
    0.60348687   3    1000022   -1    2
    0.2012477   3    1000022   -11    12
    0.19526544   3    1000022   -13    14

DECAY 1000037  52.368214
    0.12626757   2   -1000011    12
    0.12626481   2   -1000013    14
    0.12625829   2    1000012   -11
    0.12625682   2    1000014   -13
    0.10407359   2    1000016   -15
    0.102221   2   -2000015    16
    0.067842856   2    1000023    24
    0.067482262   2    1000024    23
    0.067307918   2    1000022    24
    0.066010802   2    1000024    25
    0.009633157   2    1000006   -5
    0.0032366413   3    1000024    6   -6
    0.0025879379   3    1000022   -5    6
    0.0024386485   3    1000023   -5    6
    0.0017722529   2   -1000015    16
    0.0001950547   3    1000024    5   -5
    0.00013118411   2    1000025    24

DECAY 1000022 -1


DECAY 1000023  1.5970646e-09
    0.92523505   2    1000022    22
    0.021892356   3    1000022    12   -12
    0.01636958   3    1000022    1   -1
    0.016016288   3    1000022    3   -3
    0.012767389   3    1000022    2   -2
    0.0036628709   3    1000022    11   -11
    0.0035567331   3    1000022    13   -13
    0.00015189664   3    1000024    1   -2
    0.00015189664   3   -1000024   -1    2

DECAY 1000025  14.070258
    0.11995135   2    2000011   -11
    0.11995135   2   -2000011    11
    0.11994389   2    2000013   -13
    0.11994389   2   -2000013    13
    0.051498422   2    1000015   -15
    0.051498422   2   -1000015    15
    0.039183889   2    1000024   -24
    0.039183889   2   -1000024    24
    0.032020728   2    1000022    23
    0.028290768   2    1000023    25
    0.026504657   2    1000012   -12
    0.026504657   2   -1000012    12
    0.026503254   2    1000014   -14
    0.026503254   2   -1000014    14
    0.0255225   2    1000011   -11
    0.0255225   2   -1000011    11
    0.025520038   2    1000013   -13
    0.025520038   2   -1000013    13
    0.024929139   2    1000022    25
    0.0090463448   2    1000016   -16
    0.0090463448   2   -1000016    16
    0.0090269646   2    2000015   -15
    0.0090269646   2   -2000015    15
    0.008465153   2    1000023    23
    0.00036868134   3    1000024    5   -6
    0.00036868134   3   -1000024   -5    6

DECAY 1000035  53.46471
    0.066668732   2    1000024   -24
    0.066668732   2   -1000024    24
    0.062042113   2    1000012   -12
    0.062042113   2   -1000012    12
    0.062041386   2    1000014   -14
    0.062041386   2   -1000014    14
    0.061618113   2    1000011   -11
    0.061618113   2   -1000011    11
    0.061616765   2    1000013   -13
    0.061616765   2   -1000013    13
    0.051136634   2    1000016   -16
    0.051136634   2   -1000016    16
    0.049881007   2    2000015   -15
    0.049881007   2   -2000015    15
    0.045133427   2    1000023    25
    0.040799413   2    1000023    23
    0.039350521   2    1000022    25
    0.025241654   2    1000022    23
    0.0051204787   2    1000006   -6
    0.0051204787   2   -1000006    6
    0.0024481046   3    1000024    5   -6
    0.0024481046   3   -1000024   -5    6
    0.0010306442   3    1000023    6   -6
    0.00098299842   3    1000022    6   -6
    0.00086488242   2    1000015   -15
    0.00086488242   2   -1000015    15
    0.00014801794   3    1000022    5   -5
    0.00014558705   3    1000023    5   -5
    0.00012592974   2    1000025    25
    0.00011578679   2    1000025    23

DECAY 1000021  218.87739
    0.17751584   2    1000006   -6
    0.17751584   2   -1000006    6
    0.11643055   2    1000005   -5
    0.11643055   2   -1000005    5
    0.09992726   2    2000005   -5
    0.09992726   2   -2000005    5
    0.095054353   2    2000006   -6
    0.095054353   2   -2000006    6
    0.010798895   2    1000006   -4
    0.010798895   2   -1000006    4
    0.00019133979   3    1000035    6   -6
    0.00012538354   3    1000037    5   -6
    0.00012538354   3   -1000037   -5    6

DECAY 25  0.0037939984
    0.58484864   2   -5    5
    0.21811328   2   -24    24
    0.070896198   2    21    21
    0.06699839   2   -15    15
    0.02885082   2   -4    4
    0.026064337   2    23    23
    0.0023321238   2    22    22
    0.0014440812   2    22    23
    0.00023243748   2   -13    13
    0.00021893694   2   -3    3
    6.0533821e-07   2   -1    1
    1.4867726e-07   2   -2    2
    5.2254547e-09   2   -11    11

DECAY 35  71.022359
    0.44002432   2   -5    5
    0.12393444   2   -1000024    1000037
    0.12393444   2   -1000037    1000024
    0.094796307   2   -15    15
    0.062898706   2    1000023    1000035
    0.061420712   2    1000022    1000035
    0.028140428   2    1000022    1000025
    0.023104874   2    1000023    1000025
    0.01071047   2   -2000015    1000015
    0.01071047   2   -1000015    2000015
    0.0052421557   2   -1000006    1000006
    0.0032344341   2   -2000006    1000006
    0.0032344341   2   -1000006    2000006
    0.0020979447   2   -1000024    1000024
    0.001817322   2   -1000015    1000015
    0.0018089216   2   -2000015    2000015
    0.0012714345   2   -6    6
    0.00081148889   2   -2000006    2000006
    0.00031346428   2   -13    13
    0.00020438059   2   -3    3
    0.00013896548   2    1000022    1000022
    5.7014473e-05   2    1000025    1000035
    4.5672208e-05   2    1000022    1000023
    2.1364867e-05   2    1000025    1000025
    8.5504126e-06   2    21    21
    7.489749e-06   2    25    25
    3.5499735e-06   2   -1000037    1000037
    2.145655e-06   2    1000023    1000023
    1.7747115e-06   2    1000035    1000035
    5.6506813e-07   2   -1    1
    2.4587274e-07   2    23    23
    1.0249284e-07   2   -2000013    2000013
    1.0159003e-07   2   -2000011    2000011
    6.594629e-08   2   -1000011    1000011
    6.4392602e-08   2   -1000013    1000013
    6.3666917e-08   2    22    23
    6.105966e-08   2   -24    24
    4.3108536e-08   2    22    22
    2.0021985e-08   2   -4    4
    7.0398358e-09   2   -11    11
    6.4467275e-10   2   -2000013    1000013
    6.4467275e-10   2   -1000013    2000013
    1.0321448e-13   2   -2    2
    1.5184063e-14   2   -2000011    1000011
    1.5184063e-14   2   -1000011    2000011

DECAY 36  69.200101
    0.42880121   2   -5    5
    0.12725681   2   -1000024    1000037
    0.12725681   2   -1000037    1000024
    0.092379931   2   -15    15
    0.06513711   2    1000022    1000035
    0.062535857   2    1000023    1000035
    0.028723949   2    1000023    1000025
    0.02387616   2    1000022    1000025
    0.012850583   2   -2000015    1000015
    0.012850583   2   -1000015    2000015
    0.0070408972   2   -2000006    1000006
    0.0070408972   2   -1000006    2000006
    0.0021618542   2   -1000024    1000024
    0.0012967519   2   -6    6
    0.00030547315   2   -13    13
    0.00019916648   2   -3    3
    0.00012851316   2    1000022    1000022
    5.4101e-05   2    1000022    1000023
    4.17323e-05   2    1000025    1000025
    3.8375497e-05   2    1000025    1000035
    8.9685457e-06   2    21    21
    7.1130683e-06   2   -1000037    1000037
    3.5636914e-06   2    1000035    1000035
    2.5388984e-06   2    1000023    1000023
    5.5064991e-07   2   -1    1
    4.6513315e-07   2    23    25
    2.0222734e-08   2   -4    4
    1.0142186e-08   2    22    23
    6.8604256e-09   2   -11    11
    1.3362206e-09   2    22    22
    8.0675035e-10   2   -2000013    1000013
    8.0675035e-10   2   -1000013    2000013
    1.0425332e-13   2   -2    2
    1.8869974e-14   2   -2000011    1000011
    1.8869974e-14   2   -1000011    2000011
    6.5502425e-37   2    25    25

DECAY 37  71.368371
    0.43897745   2   -5    6
    0.12472028   2    1000022    1000037
    0.12364821   2    1000024    1000035
    0.12336031   2    1000023    1000037
    0.10308562   2   -15    16
    0.050306007   2    1000024    1000025
    0.023972338   2   -1000015    1000016
    0.007629599   2   -1000005    1000006
    0.00095956232   2   -2000015    1000016
    0.00095092135   2    1000023    1000024
    0.00064840822   2   -5    4
    0.00064483898   2   -2000005    1000006
    0.00043290639   2    1000022    1000024
    0.0003644444   2   -13    14
    0.00018696401   2   -3    4
    9.397533e-05   2    1000025    1000037
    8.7710237e-06   2   -3    2
    4.6303033e-06   2   -5    2
    2.8523707e-06   2   -3    6
    5.1883285e-07   2   -1    2
    4.5138273e-07   2    24    25
    3.9766297e-07   2   -2000013    1000014
    3.9699997e-07   2   -2000011    1000012
    1.180836e-07   2   -1    6
    2.5348991e-08   2   -1    4
    8.5243924e-09   2   -11    12
    1.7679743e-10   2   -1000013    1000014
    1.7102299e-12   2    1000035    1000037
    6.4773533e-14   2    24    35
    4.0992555e-15   2   -1000011    1000012

DECAY 6  2.43
    1   2    5    24

DECAY 15 -1
