BLOCK SPINFO
   1   SPheno
   2   v4.0.5be

BLOCK SPHENOINFO
   1   2
   2   2

BLOCK MODSEL
   1   0

BLOCK MINPAR
   3    12.895043
   4   -1

BLOCK EXTPAR
   0    1594.6187
   1   -129.23151
   2    1436.1578
   3    3000
   11   -3981.3659
   12    124.53764
   13    1950.8033
   23   -674.96675
   25    12.405781
   26    1182.1997
   31    1086.6609
   32    1086.6609
   33    770.6884
   34    319.58239
   35    319.58239
   36    1805.5383
   41    5000
   42    5000
   43    1751.4523
   44    5000
   45    5000
   46    1538.0715
   47    5000
   48    5000
   49    1038.8547

BLOCK SMINPUTS
   1    127.90897
   2    1.1663787e-05
   3    0.1184
   4    91.1876
   5    4.18
   6    173.2
   7    1.777
   8    0
   11    0.00051099893
   12    0
   13    0.10565837
   14    0
   21    0.005
   22    0.0025
   23    0.095
   24    1.27

BLOCK GAUGE Q=  1594.6187
   1    0.35536298
   2    0.66519887
   3    1.219778

BLOCK YU Q=  1594.6187
   1   1    8.4115671e-06
   2   2    0.0042730761
   3   3    1.0161849

BLOCK YD Q=  1594.6187
   1   1    0.00020969172
   2   2    0.0039841427
   3   3    0.20794848

BLOCK YE Q=  1594.6187
   1   1    3.6592739e-05
   2   2    0.0075662178
   3   3    0.12725134

BLOCK AU Q=  1594.6187
   1   1    0
   2   2    0
   3   3   -3981.3659

BLOCK AD Q=  1594.6187
   1   1    0
   2   2    0
   3   3    124.53763

BLOCK AE Q=  1594.6187
   1   1    0
   2   2    0
   3   3    1950.8033

BLOCK MSOFT Q=  1594.6187
   1   -129.23151
   2    1436.1578
   3    3000
   21    907098.68
   22   -416122.6
   31    1086.6609
   32    1086.6609
   33    770.6884
   34    319.58239
   35    319.58239
   36    1805.5383
   41    5000
   42    5000
   43    1751.4523
   44    5000
   45    5000
   46    1538.0715
   47    5000
   48    5000
   49    1038.8547

BLOCK MASS
   6    173.2
   23    91.1876
   24    80.429995
   15    1.777
   25    123.08913
   35    1182.2494
   36    1182.1997
   37    1185.1277
   1000001    5032.1659
   2000001    5023.3641
   1000002    5031.7363
   2000002    5024.3876
   1000003    5032.1666
   2000003    5023.3644
   1000004    5031.7369
   2000004    5024.3882
   1000005    1053.1794
   2000005    1741.7354
   1000006    1395.4727
   2000006    1822.1846
   1000011    1101.6046
   2000011    329.65214
   1000012    1098.429
   1000013    1101.6041
   2000013    329.64788
   1000014    1098.4281
   1000015    788.35096
   2000015    1807.7378
   1000016    784.22992
   1000021    3197.5275
   1000022   -127.20997
   1000023    681.90935
   1000025   -688.72471
   1000035    1477.46
   1000024    683.33446
   1000037    1477.6209

BLOCK ALPHA
      -0.078565268

BLOCK HMIX Q=  1594.6187
   1   -674.96675
   2    12.405781
   3    243.92318
   4    1397596.1

BLOCK STOPMIX
   1   1    0.4490925
   1   2    0.89348527
   2   1   -0.89348527
   2   2    0.4490925

BLOCK SBOTMIX
   1   1   -0.010008168
   1   2    0.99994992
   2   1   -0.99994992
   2   2   -0.010008168

BLOCK STAUMIX
   1   1   -0.99997718
   1   2    0.0067550858
   2   1   -0.0067550858
   2   2   -0.99997718

BLOCK NMIX
   1   1   -0.9975333
   1   2   -0.0011244257
   1   3    0.067948335
   1   4   -0.017580534
   2   1   -0.035666254
   2   2   -0.064788427
   2   3   -0.70672753
   2   4   -0.70360967
   3   1    0.060433448
   3   2   -0.028053362
   3   3    0.70373392
   3   4   -0.70733258
   4   1    0.0017413978
   4   2   -0.99750399
   4   3    0.026034242
   4   4    0.065612358

BLOCK UMIX
   1   1   -0.037003267
   1   2   -0.99931514
   2   1    0.99931514
   2   2   -0.037003267

BLOCK VMIX
   1   1   -0.093080741
   1   2    0.99565856
   2   1    0.99565856
   2   2    0.093080741

BLOCK HIGGSBOUNDSINPUTHIGGSCOUPLINGSFERMIONS
       0, 153.90341,3,36,15,15

BLOCK HIGGSBOUNDSINPUTHIGGSCOUPLINGSBOSONS
       0,4,36,21,21,23

BLOCK SPHENOLOWENERGY
   1    0.00036547887
   2    1.5896782e-06
   3    3.5297726e-05
   4    2.4477157e-15
   5    1.0456367e-10
   6    2.1891437e-08
   7    8.2552977e-14
   8    3.5266615e-09
   9    7.4810263e-07
   10    9.6028611e-05
   11    0.99193878
   12    0.5432483
   13    19.407277
   14    0
   15    0
   16    0.0021634108
   17    2.2817213e-15
   18    2.4821374e-11
   19    8.2959243e-11
   20   -6.1535863e-16
   21   -2.6303984e-11
   22   -2.0497298e-08
   23    0
   24    0
   25    0
   26    0
   27    0
   28    0
   29    0
   30    0
   31    0
   39    3.3439676e-05
   40    0
   41    0
   42    0

BLOCK FWCOEF Q=  160
   305   4422   0   0   -0.18881911
   305   4422   0   2   -0.23643619
   305   4322   0   2   -0.00067629775
   305   6421   0   0   -0.095227835
   305   6421   0   2   -0.13813811
   305   6321   0   2   -0.00069074728
   3051111   4133   0   0    1.5939292
   3051111   4133   0   2    1.5954596
   3051111   4233   0   2    1.5074257e-05
   3051111   4137   0   0   -4.4166213
   3051111   4137   0   2   -4.4193479
   3051111   4237   0   2   -0.0001165967
   3051313   4133   0   0    1.5939292
   3051313   4133   0   2    1.5954592
   3051313   4233   0   2    1.5074159e-05
   3051313   4137   0   0   -4.4166213
   3051313   4137   0   2   -4.4193483
   3051313   4237   0   2   -0.00011659665
   3051212   4137   0   0    1.5053501
   3051212   4137   0   2    1.5059525
   3051212   4237   0   2    2.537416e-05
   3051414   4137   0   0    1.5053501
   3051414   4137   0   2    1.5059525
   3051414   4237   0   2    2.5374178e-05
   3051616   4137   0   0    1.5053501
   3051616   4137   0   2    1.5059523
   3051616   4237   0   2    2.5378566e-05

BLOCK IMFWCOEF Q=  160
   305   4422   0   0    3.8578998e-07
   305   4422   0   2   -8.3158824e-06
   305   4322   0   2   -2.7364057e-06
   305   6421   0   0    3.3045463e-07
   305   6421   0   2    3.2532894e-06
   305   6321   0   2   -1.1219198e-06
   3051111   4133   0   2   -2.8480545e-07
   3051111   4233   0   2    5.6283437e-07
   3051111   4137   0   2    2.9847987e-06
   3051111   4237   0   2   -4.364828e-06
   3051313   4133   0   2   -2.8481032e-07
   3051313   4233   0   2    5.628341e-07
   3051313   4137   0   2    2.9847931e-06
   3051313   4237   0   2   -4.3648286e-06
   3051212   4137   0   2   -5.107308e-07
   3051212   4237   0   2    9.5038701e-07
   3051414   4137   0   2   -5.1073081e-07
   3051414   4237   0   2    9.5038701e-07
   3051616   4137   0   2   -5.1408336e-07
   3051616   4237   0   2    9.5037425e-07

DECAY 23  2.4952


DECAY 24  2.085


DECAY 2000011  1.1938887
    1   2    1000022    11

DECAY 1000011  1.3641818
    0.98678631   2    1000022    11
    0.0095060288   2    1000023    11
    0.0036840404   2   -1000024    12

DECAY 2000013  1.1938641
    1   2    1000022    13

DECAY 1000013  1.3648657
    0.9862953   2    1000022    13
    0.00967642   2    1000023    13
    0.0036821875   2   -1000024    14
    0.00019253348   2    1000025    13
    0.00015355963   2    2000013    25

DECAY 1000015  0.95769705
    0.98184808   2    1000022    15
    0.010154179   2    1000023    15
    0.0073406174   2    1000025    15
    0.00065712442   2   -1000024    16

DECAY 2000015  10.028565
    0.89250285   2    1000022    15
    0.04248888   2   -1000024    16
    0.023510255   2    1000025    15
    0.022108186   2    1000023    15
    0.0096801748   2    1000016   -24
    0.0048700458   2    1000015    25
    0.0047892952   2    1000015    23

DECAY 1000012  1.3725679
    0.96955919   2    1000022    12
    0.022934922   2    1000024    11
    0.0047228293   2    1000025    12
    0.0027830599   2    1000023    12

DECAY 1000014  1.3730375
    0.96922672   2    1000022    14
    0.023269985   2    1000024    13
    0.0047211999   2    1000025    14
    0.0027820999   2    1000023    14

DECAY 1000016  0.94484707
    0.9794586   2    1000022    16
    0.019390879   2    1000024    15
    0.00069587046   2    1000025    16
    0.00045465393   2    1000023    16

DECAY 2000001  143.09411
    0.98042949   2    1000021    1
    0.019477468   2    1000022    1

DECAY 1000001  197.41463
    0.71529391   2    1000021    1
    0.18710934   2   -1000037    2
    0.093277658   2    1000035    1
    0.0034910939   2    1000022    1
    0.00036920896   2    1000023    1
    0.00029602119   2   -1000024    2
    0.0001627724   2    1000025    1

DECAY 2000003  143.09719
    0.98040861   2    1000021    3
    0.0194771   2    1000022    3

DECAY 1000003  197.418
    0.71528207   2    1000021    3
    0.18710625   2   -1000037    4
    0.093276087   2    1000035    3
    0.0034910718   2    1000022    3
    0.00037306705   2    1000023    3
    0.00030485188   2   -1000024    4
    0.00016659687   2    1000025    3

DECAY 1000005  1.1195973
    0.51239723   2    1000022    5
    0.21948705   2   -1000024    6
    0.13686771   2    1000023    5
    0.13124801   2    1000025    5

DECAY 2000005  58.29746
    0.52491144   2    1000006   -24
    0.42196974   2   -1000024    6
    0.017966455   2   -1000037    6
    0.010294626   2    1000035    5
    0.0095058473   2    1000023    5
    0.0092298418   2    1000025    5
    0.0041309151   2    1000022    5
    0.0012246447   2    1000005    25
    0.00076649541   2    1000005    23

DECAY 2000002  151.60411
    0.92609729   2    1000021    2
    0.073551573   2    1000022    2
    0.00026023931   2    1000025    2

DECAY 1000002  197.40903
    0.71508775   2    1000021    2
    0.18572598   2    1000037    1
    0.093153432   2    1000035    2
    0.0035804133   2    1000022    2
    0.0018730085   2    1000024    1
    0.00054711231   2    1000023    2

DECAY 2000004  151.60763
    0.92607584   2    1000021    4
    0.073549868   2    1000022    4
    0.00026602604   2    1000025    4

DECAY 1000004  197.41232
    0.71507582   2    1000021    4
    0.18572292   2    1000037    3
    0.093151929   2    1000035    4
    0.0035803562   2    1000022    4
    0.0018807033   2    1000024    3
    0.00055151244   2    1000023    4

DECAY 1000006  30.311565
    0.4645516   2    1000024    5
    0.23011027   2    1000023    6
    0.22838028   2    1000025    6
    0.076843199   2    1000022    6

DECAY 2000006  70.776269
    0.30829675   2    1000006    23
    0.19630211   2    1000023    6
    0.19612324   2    1000025    6
    0.17316722   2    1000006    25
    0.073160391   2    1000024    5
    0.024154437   2    1000037    5
    0.015824411   2    1000022    6
    0.011621612   2    1000035    6
    0.0013495138   2    1000005    24

DECAY 1000024  0.48705518
    0.99249367   2    1000022    24
    0.0070200593   3    1000022   -5    6
    0.00046970539   2   -2000013    14

DECAY 1000037  22.567041
    0.14743023   2    1000016   -15
    0.14725522   2   -1000015    16
    0.11789655   2    1000025    24
    0.1169283   2    1000024    25
    0.11623993   2    1000024    23
    0.11608373   2    1000023    24
    0.0571859   2    1000014   -13
    0.057185642   2    1000012   -11
    0.056785494   2   -1000013    14
    0.056785344   2   -1000011    12
    0.0033063286   3    1000025   -5    6
    0.0025003945   3    1000023   -5    6
    0.0023976314   3    1000024    6   -6
    0.001035936   2    1000006   -5
    0.00080098627   2    1000022    24

DECAY 1000022 -1


DECAY 1000023  0.59189451
    0.60960656   2    1000022    23
    0.38042393   2    1000022    25
    0.0023550443   2    2000013   -13
    0.0023550443   2   -2000013    13
    0.0021620738   2    2000011   -11
    0.0021620738   2   -2000011    11
    0.00089905118   3    1000022    6   -6

DECAY 1000025  0.45830701
    0.68623857   2    1000022    25
    0.27886647   2    1000022    23
    0.0084475366   2    2000013   -13
    0.0084475366   2   -2000013    13
    0.0081944073   2    2000011   -11
    0.0081944073   2   -2000011    11
    0.0015575431   3    1000022    6   -6

DECAY 1000035  25.223696
    0.12164448   2    1000025    25
    0.10549646   2    1000024   -24
    0.10549646   2   -1000024    24
    0.088892497   2    1000025    23
    0.087829226   2    1000023    25
    0.066294444   2    1000016   -16
    0.066294444   2   -1000016    16
    0.065499738   2    1000015   -15
    0.065499738   2   -1000015    15
    0.025707616   2    1000014   -14
    0.025707616   2   -1000014    14
    0.025707511   2    1000012   -12
    0.025707511   2   -1000012    12
    0.025246628   2    1000013   -13
    0.025246628   2   -1000013    13
    0.02524655   2    1000011   -11
    0.02524655   2   -1000011    11
    0.016620098   2    1000023    23
    0.0019839904   3    1000024    5   -6
    0.0019839904   3   -1000024   -5    6
    0.00096254291   3    1000025    6   -6
    0.00069105366   3    1000023    6   -6
    0.00047593015   2    1000022    25
    0.0003640231   2    1000022    23

DECAY 1000021  225.86096
    0.16653896   2    1000005   -5
    0.16653896   2   -1000005    5
    0.12240577   2    1000006   -6
    0.12240577   2   -1000006    6
    0.10732344   2    2000006   -6
    0.10732344   2   -2000006    6
    0.1036257   2    2000005   -5
    0.1036257   2   -2000005    5

DECAY 25  0.0036994132
    0.60737324   2   -5    5
    0.19522302   2   -24    24
    0.071805009   2    21    21
    0.069543015   2   -15    15
    0.029222746   2   -4    4
    0.022742544   2    23    23
    0.0023015716   2    22    22
    0.0013189087   2    22    23
    0.00024123059   2   -13    13
    0.00022792995   2   -3    3
    6.3020283e-07   2   -1    1
    1.505973e-07   2   -2    2
    5.4231566e-09   2   -11    11

DECAY 35  3.8672582
    0.66329018   2   -5    5
    0.10733351   2    1000022    1000023
    0.099566126   2   -15    15
    0.074955657   2   -6    6
    0.050130446   2    1000022    1000025
    0.0027999053   2    1000022    1000022
    0.00097265873   2    25    25
    0.00035006274   2   -13    13
    0.00024930045   2   -3    3
    0.00014499102   2   -24    24
    0.00013189606   2    23    23
    3.4825517e-05   2    21    21
    1.924446e-05   2   -1000011    1000011
    1.9217016e-05   2   -1000013    1000013
    1.0262566e-06   2   -4    4
    6.8926844e-07   2   -1    1
    1.9648685e-07   2    22    22
    6.1338008e-08   2    22    23
    7.8644627e-09   2   -11    11
    5.2916475e-12   2   -2    2

DECAY 36  3.8263411
    0.65834134   2   -5    5
    0.10205657   2    1000022    1000025
    0.098817889   2   -15    15
    0.081832099   2   -6    6
    0.05475415   2    1000022    1000023
    0.0032252697   2    1000022    1000022
    0.00034742568   2   -13    13
    0.00024741537   2   -3    3
    0.00019038196   2    21    21
    0.00018460454   2    23    25
    1.0200678e-06   2   -4    4
    7.1157824e-07   2    22    22
    6.8405677e-07   2   -1    1
    4.2569164e-07   2    22    23
    7.8052213e-09   2   -11    11
    5.2613159e-12   2   -2    2
    1.65668e-34   2    25    25

DECAY 37  3.6016
    0.71370107   2   -5    6
    0.1749512   2    1000022    1000024
    0.10942305   2   -15    16
    0.00095713772   2   -5    4
    0.00038685101   2   -13    14
    0.00023888621   2   -3    4
    0.00019845   2    24    25
    0.00011930323   2   -3    6
    1.1009134e-05   2   -3    2
    6.8349524e-06   2   -5    2
    5.4564172e-06   2   -1    6
    6.5988156e-07   2   -1    2
    8.219218e-08   2   -1    4
    9.0484855e-09   2   -11    12
    8.1144006e-11   2    24    36
    7.448459e-11   2    24    35

DECAY 6  2.43
    1   2    5    24

DECAY 15 -1
