BLOCK SPINFO
   1   SPheno
   2   v4.0.5be

BLOCK SPHENOINFO
   1   2
   2   2

BLOCK MODSEL
   1   0

BLOCK MINPAR
   3    30.400065
   4    1

BLOCK EXTPAR
   0    4872.4578
   1    1190.671
   2   -2084.1111
   3    1499.343
   11    4619.7251
   12    2062.6093
   13    244.24805
   23    2323.9404
   25    29.104102
   26    4902.1506
   31    1642.4158
   32    1642.4158
   33    2446.8435
   34    4821.7795
   35    4821.7795
   36    3149.9252
   41    2980.0774
   42    2980.0774
   43    4831.4377
   44    4058.2467
   45    4058.2467
   46    4929.5383
   47    2183.07
   48    2183.07
   49    2304.1162

BLOCK SMINPUTS
   1    127.90897
   2    1.1663787e-05
   3    0.1184
   4    91.1876
   5    4.18
   6    173.2
   7    1.777
   8    0
   11    0.00051099893
   12    0
   13    0.10565837
   14    0
   21    0.005
   22    0.0025
   23    0.095
   24    1.27

BLOCK GAUGE Q=  4872.4578
   1    0.35536298
   2    0.66519887
   3    1.219778

BLOCK YU Q=  4872.4578
   1   1    8.3893198e-06
   2   2    0.0042617745
   3   3    1.0134972

BLOCK YD Q=  4872.4578
   1   1    0.00049063802
   2   2    0.0093221224
   3   3    0.48655918

BLOCK YE Q=  4872.4578
   1   1    8.5619923e-05
   2   2    0.017703485
   3   3    0.29774349

BLOCK AU Q=  4872.4578
   1   1    0
   2   2    0
   3   3    4619.7251

BLOCK AD Q=  4872.4578
   1   1    0
   2   2    0
   3   3    2062.6093

BLOCK AE Q=  4872.4578
   1   1    0
   2   2    0
   3   3    244.24805

BLOCK MSOFT Q=  4872.4578
   1    1190.671
   2   -2084.1111
   3    1499.343
   21    18630436
   22   -4965164.7
   31    1642.4158
   32    1642.4158
   33    2446.8435
   34    4821.7795
   35    4821.7795
   36    3149.9252
   41    2980.0774
   42    2980.0774
   43    4831.4377
   44    4058.2467
   45    4058.2467
   46    4929.5383
   47    2183.07
   48    2183.07
   49    2304.1162

BLOCK MASS
   6    173.2
   23    91.1876
   24    80.429995
   15    1.777
   25    123.42406
   35    4901.5472
   36    4902.1506
   37    4902.3492
   1000001    3065.9607
   2000001    2263.9274
   1000002    3064.9778
   2000002    4114.9736
   1000003    3065.9582
   2000003    2263.9227
   1000004    3064.9751
   2000004    4114.9728
   1000005    2368.859
   2000005    4853.7089
   1000006    4809.8152
   2000006    4935.9162
   1000011    1676.761
   2000011    4829.2589
   1000012    1674.493
   1000013    1676.7417
   2000013    4829.2298
   1000014    1674.4825
   1000015    2464.7769
   2000015    3149.0498
   1000016    2464.1714
   1000021    1789.6974
   1000022    1175.5844
   1000023   -2113.2831
   1000025    2348.2651
   1000035   -2358.8253
   1000024    2113.4304
   1000037    2359.182

BLOCK ALPHA
      -0.032911803

BLOCK HMIX Q=  4872.4578
   1    2323.9404
   2    29.104102
   3    242.73246
   4    24031081

BLOCK STOPMIX
   1   1   -0.81616205
   1   2    0.57782308
   2   1   -0.57782308
   2   2   -0.81616205

BLOCK SBOTMIX
   1   1    0.0068299209
   1   2    0.99997668
   2   1   -0.99997668
   2   2    0.0068299209

BLOCK STAUMIX
   1   1    0.99955428
   1   2    0.029853814
   2   1   -0.029853814
   2   2    0.99955428

BLOCK NMIX
   1   1   -0.99957966
   1   2   -0.00034048636
   1   3   -0.025654701
   1   4    0.013498811
   2   1   -0.001855904
   2   2   -0.97668636
   2   3    0.16036109
   2   4    0.14270469
   3   1    0.027686003
   3   2   -0.012757572
   3   3   -0.70654583
   3   4    0.70701041
   4   1   -0.0083987117
   4   2    0.21429158
   4   3    0.68878091
   4   4    0.69252396

BLOCK UMIX
   1   1   -0.97331411
   1   2    0.2294769
   2   1   -0.2294769
   2   2   -0.97331411

BLOCK VMIX
   1   1    0.97883747
   1   2    0.2046392
   2   1    0.2046392
   2   2   -0.97883747

BLOCK HIGGSBOUNDSINPUTHIGGSCOUPLINGSFERMIONS
       0, 847.04875,3,36,15,15

BLOCK HIGGSBOUNDSINPUTHIGGSCOUPLINGSBOSONS
       0,4,36,21,21,23

BLOCK SPHENOLOWENERGY
   1    0.00032650307
   2    1.589946e-06
   3    3.5262597e-05
   4    2.7143704e-15
   5    1.15955e-10
   6    2.4284466e-08
   7    9.0787444e-14
   8    3.8784435e-09
   9    8.2304292e-07
   10    9.6550536e-05
   11    0.99733008
   12    0.54194725
   13    19.363087
   14    0
   15    0
   16    0.0021570621
   17    2.2816563e-15
   18    2.4805273e-11
   19    8.2919285e-11
   20   -1.2191186e-15
   21   -5.2120623e-11
   22   -1.2664949e-08
   23    0
   24    0
   25    0
   26    0
   27    0
   28    0
   29    0
   30    0
   31    0
   39    6.0935114e-05
   40    0
   41    0
   42    0

BLOCK FWCOEF Q=  160
   305   4422   0   0   -0.18881911
   305   4422   0   2   -0.19474025
   305   4322   0   2   -0.0001600749
   305   6421   0   0   -0.095227835
   305   6421   0   2   -0.1051837
   305   6321   0   2   -0.00021981883
   3051111   4133   0   0    1.6335441
   3051111   4133   0   2    1.6337355
   3051111   4233   0   2    0.00016470151
   3051111   4137   0   0   -4.4562362
   3051111   4137   0   2   -4.4555821
   3051111   4237   0   2   -0.001207682
   3051313   4133   0   0    1.6335441
   3051313   4133   0   2    1.633735
   3051313   4233   0   2    0.00016470144
   3051313   4137   0   0   -4.4562362
   3051313   4137   0   2   -4.4555827
   3051313   4237   0   2   -0.0012076822
   3051212   4137   0   0    1.5053501
   3051212   4137   0   2    1.5052123
   3051212   4237   0   2    0.00026074469
   3051414   4137   0   0    1.5053501
   3051414   4137   0   2    1.5052123
   3051414   4237   0   2    0.0002607447
   3051616   4137   0   0    1.5053501
   3051616   4137   0   2    1.5052124
   3051616   4237   0   2    0.00026074573

BLOCK IMFWCOEF Q=  160
   305   4422   0   0    3.8578787e-07
   305   4422   0   2    1.0458423e-05
   305   4322   0   2   -1.840126e-06
   305   6421   0   0    3.3045282e-07
   305   6421   0   2   -7.3695406e-05
   305   6321   0   2   -2.5288069e-06
   3051111   4133   0   2    7.2789e-07
   3051111   4233   0   2    3.1313427e-06
   3051111   4137   0   2   -3.6679926e-06
   3051111   4237   0   2   -2.2960631e-05
   3051313   4133   0   2    7.2787705e-07
   3051313   4233   0   2    3.1313419e-06
   3051313   4137   0   2   -3.6679885e-06
   3051313   4237   0   2   -2.2960636e-05
   3051212   4137   0   2    8.5331566e-07
   3051212   4237   0   2    4.9573172e-06
   3051414   4137   0   2    8.5331505e-07
   3051414   4237   0   2    4.9573172e-06
   3051616   4137   0   2    8.5482647e-07
   3051616   4237   0   2    4.9573174e-06

DECAY 23  2.4952


DECAY 24  2.085


DECAY 1000011  0.54476007
    1   2    1000022    11

DECAY 2000011  21.468492
    0.99944608   2    1000022    11
    0.00050511575   2    1000025    11

DECAY 1000013  0.54473169
    1   2    1000022    13

DECAY 2000013  21.50653
    0.99767167   2    1000022    13
    0.00091171603   2    1000025    13
    0.00076882298   2   -1000037    14
    0.00043124056   2    1000035    13
    0.0001422812   2    1000013    25

DECAY 1000015  4.0894376
    0.45453801   2    1000022    15
    0.35428356   2   -1000024    16
    0.1805925   2    1000023    15
    0.0044997755   2    1000025    15
    0.0043398553   2    1000035    15
    0.0017462974   2   -1000037    16

DECAY 2000015  16.069829
    0.72802654   2    1000022    15
    0.067222276   2    1000016   -24
    0.064964386   2   -1000037    16
    0.035453539   2    1000015    25
    0.034285795   2    1000025    15
    0.033298152   2    1000015    23
    0.032558026   2    1000035    15
    0.0028232625   2   -1000024    16
    0.0013680196   2    1000023    15

DECAY 1000012  0.53979711
    1   2    1000022    12

DECAY 1000014  0.5397806
    1   2    1000022    14

DECAY 1000016  4.073967
    0.45234213   2    1000022    16
    0.3609477   2    1000024    15
    0.17733191   2    1000023    16
    0.0084690289   2    1000037    15
    0.00089218006   2    1000035    16

DECAY 2000001  25.812075
    0.97390173   2    1000021    1
    0.026098262   2    1000022    1

DECAY 1000001  116.42014
    0.90346074   2    1000021    1
    0.060495951   2   -1000024    2
    0.030445014   2    1000023    1
    0.0026618928   2    1000022    1
    0.0020312925   2   -1000037    2
    0.000898881   2    1000035    1

DECAY 2000003  25.811673
    0.97390123   2    1000021    3
    0.026098574   2    1000022    3

DECAY 1000003  116.4216
    0.90344714   2    1000021    3
    0.060494786   2   -1000024    4
    0.0304448   2    1000023    3
    0.0026618764   2    1000022    3
    0.0020329602   2   -1000037    4
    0.00090248367   2    1000035    3

DECAY 1000005  35.236056
    0.97760304   2    1000021    5
    0.021446301   2    1000022    5
    0.00052757191   2   -1000024    6
    0.0003670421   2    1000023    5

DECAY 2000005  402.49371
    0.71061953   2    1000021    5
    0.14246362   2   -1000037    6
    0.07076603   2   -1000024    6
    0.03410251   2    1000023    5
    0.017239061   2    1000035    5
    0.016652564   2    1000025    5
    0.0046594785   2    1000005    25
    0.0019886646   2    1000005    23
    0.0015085434   2    1000022    5

DECAY 1000002  116.33556
    0.90322855   2    1000021    2
    0.061138289   2    1000024    1
    0.03046323   2    1000023    2
    0.0026828345   2    1000022    2
    0.0016130365   2    1000037    1
    0.0008728515   2    1000035    2

DECAY 2000002  221.29774
    0.96498995   2    1000021    2
    0.034994178   2    1000022    2

DECAY 1000004  116.33622
    0.90322008   2    1000021    4
    0.061138427   2    1000024    3
    0.030463037   2    1000023    4
    0.0026828165   2    1000022    4
    0.0016201037   2    1000037    3
    0.00087350864   2    1000035    4

DECAY 2000004  221.29894
    0.96498405   2    1000021    4
    0.034993969   2    1000022    4

DECAY 1000006  393.00871
    0.69352293   2    1000021    6
    0.07663425   2    1000025    6
    0.068576266   2    1000024    5
    0.062694611   2    1000035    6
    0.051022762   2    1000037    5
    0.036074803   2    1000023    6
    0.0082758338   2    1000022    6
    0.0025964928   2    1000005    24
    0.00060203219   3    1000022    24    5

DECAY 2000006  424.49927
    0.70919334   2    1000021    6
    0.11890597   2    1000037    5
    0.074297207   2    1000035    6
    0.066774349   2    1000025    6
    0.016596551   2    1000022    6
    0.0072541496   2    1000024    5
    0.004571644   2    1000023    6
    0.0013665211   2    1000005    24
    0.00090641913   2    1000006    23
    0.00011333474   2    1000006    25

DECAY 1000024  4.9330375
    0.25037292   2    1000014   -13
    0.25035345   2    1000012   -11
    0.2452972   2   -1000013    14
    0.24527804   2   -1000011    12
    0.0084611583   2    1000022    24
    0.0002131971   3    1000022   -5    6

DECAY 1000037  6.3424144
    0.28836551   2    1000023    24
    0.23841913   2    1000022    24
    0.19589097   2    1000024    23
    0.19293254   2    1000024    25
    0.021113357   2   -1000013    14
    0.021112366   2   -1000011    12
    0.017153961   2    1000014   -13
    0.016882256   2    1000012   -11
    0.0077677088   3    1000022   -5    6
    0.00022329493   3    1000023   -5    6
    0.00010384475   3    1000021   -5    6

DECAY 1000022 -1


DECAY 1000023  4.9602042
    0.1236315   2    1000014   -14
    0.1236315   2   -1000014    14
    0.12362628   2    1000012   -12
    0.12362628   2   -1000012    12
    0.12301128   2    1000013   -13
    0.12301128   2   -1000013    13
    0.12299657   2    1000011   -11
    0.12299657   2   -1000011    11
    0.007877568   2    1000022    23
    0.005457016   2    1000022    25

DECAY 1000025  7.0692428
    0.23546776   2    1000023    23
    0.21856723   2    1000023    25
    0.18540124   2    1000022    25
    0.16783413   2    1000024   -24
    0.16783413   2   -1000024    24
    0.019471573   2    1000022    23
    0.0040068112   3    1000022    6   -6
    0.0002678614   3    1000021    5   -5
    0.00013403689   2    1000014   -14
    0.00013403689   2   -1000014    14
    0.00013403342   2    1000012   -12
    0.00013403342   2   -1000012    12
    0.00012493443   2    1000013   -13
    0.00012493443   2   -1000013    13
    0.00011529473   2    1000023    22

DECAY 1000035  7.6236127
    0.22016424   2    1000024   -24
    0.22016424   2   -1000024    24
    0.18297408   2    1000022    23
    0.16197651   2    1000023    25
    0.14817418   2    1000022    25
    0.0080205427   2    1000014   -14
    0.0080205427   2   -1000014    14
    0.0080203387   2    1000012   -12
    0.0080203387   2   -1000012    12
    0.0074473476   2    1000013   -13
    0.0074473476   2   -1000013    13
    0.0073353344   2    1000011   -11
    0.0073353344   2   -1000011    11
    0.0034090749   3    1000022    6   -6
    0.00072053655   2    1000023    23
    0.00029405558   3    1000021    5   -5
    0.00018726818   3    1000024    5   -6
    0.00018726818   3   -1000024   -5    6

DECAY 1000021  0.00016153716
    0.3203633   3    1000022    3   -3
    0.32035787   3    1000022    1   -1
    0.22576323   3    1000022    5   -5
    0.058683433   3    1000022    2   -2
    0.058679816   3    1000022    4   -4
    0.0088315777   2    1000022    21
    0.0073207733   3    1000022    6   -6

DECAY 25  0.0036760884
    0.59629173   2   -5    5
    0.2037589   2   -24    24
    0.073790019   2    21    21
    0.068506901   2   -15    15
    0.029577256   2   -4    4
    0.023898467   2    23    23
    0.0023458855   2    22    22
    0.0013684068   2    22    23
    0.00023759155   2   -13    13
    0.00022407236   2   -3    3
    6.1953816e-07   2   -1    1
    1.5242375e-07   2   -2    2
    5.3413421e-09   2   -11    11

DECAY 35  59.718118
    0.56527616   2   -5    5
    0.13366145   2   -15    15
    0.080459559   2   -1000024    1000037
    0.080459559   2   -1000037    1000024
    0.064657284   2    1000023    1000025
    0.030163266   2    1000022    1000035
    0.014698851   2    1000022    1000025
    0.012114158   2    1000023    1000035
    0.0052958407   2   -1000024    1000024
    0.0030239469   2    1000022    1000023
    0.0029576856   2    1000025    1000035
    0.0026588919   2   -6    6
    0.0026381421   2    1000023    1000023
    0.00075254379   2   -1000037    1000037
    0.0004453722   2    1000035    1000035
    0.00044411181   2   -13    13
    0.00019464138   2   -3    3
    8.0459943e-05   2    1000022    1000022
    7.7872961e-06   2    1000025    1000025
    3.8378323e-06   2    25    25
    3.4145149e-06   2   -1000005    1000005
    1.4134465e-06   2    21    21
    5.3818876e-07   2   -1    1
    2.010211e-07   2    23    23
    7.3683236e-08   2   -1000011    1000011
    7.3266895e-08   2   -1000013    1000013
    6.2762882e-08   2    22    23
    6.2422282e-08   2   -1000015    1000015
    3.3941607e-08   2   -24    24
    2.8886246e-08   2   -4    4
    1.7343615e-08   2    22    22
    9.9729491e-09   2   -11    11
    9.7314653e-09   2   -1000001    1000001
    9.6923568e-09   2   -1000003    1000003
    1.4884339e-13   2   -2    2

DECAY 36  57.839872
    0.55820482   2   -5    5
    0.13199337   2   -15    15
    0.073624273   2   -1000024    1000037
    0.073624273   2   -1000037    1000024
    0.057229222   2    1000023    1000035
    0.033757349   2    1000022    1000025
    0.017118291   2   -1000024    1000024
    0.014919596   2    1000023    1000025
    0.01388645   2    1000022    1000035
    0.0085212729   2    1000023    1000023
    0.0073678799   2   -1000037    1000037
    0.0044169784   2    1000035    1000035
    0.0024949925   2   -6    6
    0.0016686748   2    1000022    1000023
    0.00043856845   2   -13    13
    0.00032397976   2    1000025    1000035
    0.00019221872   2   -3    3
    0.00011666983   2    1000022    1000022
    9.2257064e-05   2    1000025    1000025
    7.5804857e-06   2    21    21
    5.6018249e-07   2    23    25
    5.314904e-07   2   -1    1
    1.2151517e-07   2    22    23
    2.6740185e-08   2    22    22
    2.6664744e-08   2   -4    4
    9.8486545e-09   2   -11    11
    1.3738841e-13   2   -2    2
    1.7871586e-37   2    25    25

DECAY 37  59.954851
    0.55107169   2   -5    6
    0.15112083   2   -15    16
    0.083496105   2    1000023    1000037
    0.082266682   2    1000024    1000035
    0.079572631   2    1000024    1000025
    0.043500921   2    1000022    1000037
    0.0046147574   2    1000022    1000024
    0.0027912565   2    1000025    1000037
    0.00081343234   2   -5    4
    0.00053426585   2   -13    14
    0.00018066208   2   -3    4
    1.555449e-05   2    1000035    1000037
    8.505416e-06   2   -3    2
    5.8087447e-06   2   -5    2
    5.0005987e-06   2   -3    6
    5.4061251e-07   2    24    25
    5.0123541e-07   2   -1    2
    2.8847744e-07   2   -1000011    1000012
    2.8789551e-07   2   -1000013    1000014
    2.1696704e-07   2   -1    6
    2.5508909e-08   2   -1    4
    2.1276974e-08   2    1000023    1000024
    1.2496534e-08   2   -11    12
    6.700672e-09   2   -1000015    1000016

DECAY 6  2.43
    1   2    5    24

DECAY 15 -1
