BLOCK SPINFO
   1   SPheno
   2   v4.0.5be

BLOCK SPHENOINFO
   1   2
   2   2

BLOCK MODSEL
   1   0

BLOCK MINPAR
   3    18.992812
   4    1

BLOCK EXTPAR
   0    4042.4099
   1   -1345.5703
   2   -1465.2436
   3    4000
   11    6367.196
   12   -741.99793
   13    1271.9053
   23    1038.8979
   25    18.091876
   26    2000
   31    333.09996
   32    333.09996
   33    938.2918
   34    1102.1797
   35    1102.1797
   36    411.4236
   41    4000
   42    4000
   43    4000
   44    4000
   45    4000
   46    4000
   47    4000
   48    4000
   49    4000

BLOCK SMINPUTS
   1    127.90897
   2    1.1663787e-05
   3    0.1184
   4    91.1876
   5    4.18
   6    173.2
   7    1.777
   8    0
   11    0.00051099893
   12    0
   13    0.10565837
   14    0
   21    0.005
   22    0.0025
   23    0.095
   24    1.27

BLOCK GAUGE Q=  4042.4099
   1    0.35536298
   2    0.66519887
   3    1.219778

BLOCK YU Q=  4042.4099
   1   1    8.3971701e-06
   2   2    0.0042657624
   3   3    1.0144456

BLOCK YD Q=  4042.4099
   1   1    0.0003052789
   2   2    0.0058002992
   3   3    0.30274101

BLOCK YE Q=  4042.4099
   1   1    5.3273401e-05
   2   2    0.01101525
   3   3    0.18525838

BLOCK AU Q=  4042.4099
   1   1    0
   2   2    0
   3   3    6367.1959

BLOCK AD Q=  4042.4099
   1   1    0
   2   2    0
   3   3   -741.99794

BLOCK AE Q=  4042.4099
   1   1    0
   2   2    0
   3   3    1271.9053

BLOCK MSOFT Q=  4042.4099
   1   -1345.5703
   2   -1465.2436
   3    4000
   21    2852981.1
   22   -754085.77
   31    333.09996
   32    333.09996
   33    938.2918
   34    1102.1797
   35    1102.1797
   36    411.4236
   41    4000
   42    4000
   43    4000
   44    4000
   45    4000
   46    4000
   47    4000
   48    4000
   49    4000

BLOCK MASS
   6    173.2
   23    91.1876
   24    80.429995
   15    1.777
   25    125.89252
   35    2000.0923
   36    2000
   37    2001.9595
   1000001    4157.1677
   2000001    4143.2573
   1000002    4156.419
   2000002    4144.5587
   1000003    4157.1671
   2000003    4143.2549
   1000004    4156.4178
   2000004    4144.5579
   1000005    4081.7999
   2000005    4139.3304
   1000006    3938.4574
   2000006    4149.1061
   1000011    412.24755
   2000011    1115.8977
   1000012    404.24352
   1000013    412.23297
   2000013    1115.8904
   1000014    404.23378
   1000015    434.31114
   2000015    972.53122
   1000016    967.8962
   1000021    4249.2993
   1000022   -1045.9589
   1000023    1056.9761
   1000025   -1319.6705
   1000035   -1509.785
   1000024    1050.4291
   1000037    1509.8728
   1000039    1e-09

BLOCK ALPHA
      -0.052887184

BLOCK HMIX Q=  4042.4099
   1    1038.8979
   2    18.091876
   3    242.91954
   4    4000000

BLOCK STOPMIX
   1   1   -0.57274176
   1   2    0.81973586
   2   1   -0.81973586
   2   2   -0.57274176

BLOCK SBOTMIX
   1   1    0.99658687
   1   2    0.082550669
   2   1   -0.082550669
   2   2    0.99658687

BLOCK STAUMIX
   1   1    0.041985699
   1   2    0.99911821
   2   1   -0.99911821
   2   2    0.041985699

BLOCK NMIX
   1   1   -0.10786158
   1   2    0.11442935
   1   3   -0.70175457
   1   4   -0.69484698
   2   1    0.013805661
   2   2   -0.023023334
   2   3   -0.70630827
   2   4    0.70739519
   3   1    0.99378058
   3   2    0.036696971
   3   3   -0.064738663
   3   4   -0.082839642
   4   1    0.023988596
   4   2   -0.99248636
   4   3   -0.06691826
   4   4   -0.099585698

BLOCK UMIX
   1   1   -0.093683088
   1   2    0.99560207
   2   1   -0.99560207
   2   2   -0.093683088

BLOCK VMIX
   1   1    0.13940216
   1   2    0.99023585
   2   1    0.99023585
   2   2   -0.13940216

BLOCK HIGGSBOUNDSINPUTHIGGSCOUPLINGSFERMIONS
       0, 327.31597,3,36,15,15

BLOCK HIGGSBOUNDSINPUTHIGGSCOUPLINGSBOSONS
       0,4,36,21,21,23

BLOCK SPHENOLOWENERGY
   1    0.00033612767
   2    1.5888912e-06
   3    3.526034e-05
   4    2.6030984e-15
   5    1.1120148e-10
   6    2.3282934e-08
   7    8.7388753e-14
   8    3.7332472e-09
   9    7.9199648e-07
   10    9.621262e-05
   11    0.99383953
   12    0.54203743
   13    19.364445
   14    0
   15    0
   16    0.0021575301
   17    2.2816499e-15
   18    2.4803613e-11
   19    8.2914765e-11
   20   -4.1769549e-15
   21   -1.7858435e-10
   22   -5.0314436e-08
   23    0
   24    0
   25    0
   26    0
   27    0
   28    0
   29    0
   30    0
   31    0
   39    5.5427245e-05
   40    0
   41    0
   42    0

BLOCK FWCOEF Q=  160
   305   4422   0   0   -0.18881911
   305   4422   0   2   -0.2053158
   305   4322   0   2   -0.00032741614
   305   6421   0   0   -0.095227835
   305   6421   0   2   -0.11341949
   305   6321   0   2   -0.00035979917
   3051111   4133   0   0    1.6267198
   3051111   4133   0   2    1.6269438
   3051111   4233   0   2    6.1390079e-05
   3051111   4137   0   0   -4.4494119
   3051111   4137   0   2   -4.4484883
   3051111   4237   0   2   -0.00045433601
   3051313   4133   0   0    1.6267198
   3051313   4133   0   2    1.6269434
   3051313   4233   0   2    6.138999e-05
   3051313   4137   0   0   -4.4494119
   3051313   4137   0   2   -4.4484886
   3051313   4237   0   2   -0.00045433601
   3051212   4137   0   0    1.5053501
   3051212   4137   0   2    1.5051574
   3051212   4237   0   2    9.8243945e-05
   3051414   4137   0   0    1.5053501
   3051414   4137   0   2    1.5051574
   3051414   4237   0   2    9.8243959e-05
   3051616   4137   0   0    1.5053501
   3051616   4137   0   2    1.505158
   3051616   4237   0   2    9.8247937e-05

BLOCK IMFWCOEF Q=  160
   305   4422   0   0    3.8580032e-07
   305   4422   0   2   -2.9858913e-06
   305   4322   0   2   -1.3045705e-06
   305   6421   0   0    3.3046349e-07
   305   6421   0   2   -5.2931699e-06
   305   6321   0   2   -7.0684622e-07
   3051111   4133   0   2    5.4146451e-08
   3051111   4233   0   2    1.4103307e-06
   3051111   4137   0   2   -1.2283216e-06
   3051111   4237   0   2   -1.0438654e-05
   3051313   4133   0   2    5.4143268e-08
   3051313   4233   0   2    1.4103302e-06
   3051313   4137   0   2   -1.2283255e-06
   3051313   4237   0   2   -1.0438656e-05
   3051212   4137   0   2    3.9186007e-07
   3051212   4237   0   2    2.2572158e-06
   3051414   4137   0   2    3.9185956e-07
   3051414   4237   0   2    2.2572158e-06
   3051616   4137   0   2    4.0112887e-07
   3051616   4237   0   2    2.2572157e-06

DECAY 23  2.4952


DECAY 24  2.085


DECAY 1000011  9.8777411e-08
    0.30632873   3    1000012    1   -2
    0.27101174   3    1000012    3   -4
    0.13812917   2    1000039    11
    0.10202108   3    1000012    13   -14
    0.10191293   3    1000012    11   -12
    0.080575685   3    1000012    15   -16

DECAY 2000011  0.00097503794
    0.98635542   2    1000022    11
    0.011586562   2    1000023    11
    0.0020335413   2    1000039    11

DECAY 1000013  9.8512567e-08
    0.30622775   3    1000014    1   -2
    0.27088255   3    1000014    3   -4
    0.13847599   2    1000039    13
    0.10207616   3    1000014    11   -12
    0.10179079   3    1000014    13   -14
    0.080526253   3    1000014    15   -16

DECAY 2000013  0.0020285178
    0.48590601   2    1000013    25
    0.48345476   2    1000022    13
    0.017071074   2   -1000024    14
    0.01259073   2    1000023    13
    0.00097742056   2    1000039    13

DECAY 1000015  1.7976598e-08
    0.98496522   2    1000039    15
    0.0053503604   3    1000014    15   -14
    0.0053417507   3    1000012    15   -12
    0.001105714   3    1000013    15   -13
    0.00110214   3    1000011    15   -11
    0.00066482538   3   -1000014    15    14
    0.00066378385   3   -1000012    15    12
    0.00028441353   3   -1000014    13    16
    0.00028376394   3   -1000012    11    16
    0.0001146713   3   -1000013    15    13
    0.00011419947   3   -1000011    15    11

DECAY 2000015  0.52389734
    0.51299969   2    1000015    23
    0.48428671   2    1000015    25
    0.00076241877   3   -1000014    13    16
    0.00076236628   3   -1000012    11    16
    0.00033069126   3   -1000013    15    13
    0.00033065725   3   -1000011    15    11
    0.00011176252   3    1000015    15   -15

DECAY 1000012  1.236995e-08
    1   2    1000039    12

DECAY 1000014  1.236846e-08
    1   2    1000039    14

DECAY 1000016  0.53415656
    0.99711112   2    1000015    24
    0.00068812618   3   -1000013    15    14
    0.0006880539   3   -1000011    15    12
    0.00033673189   3   -1000014    14    16
    0.00033670901   3   -1000012    12    16
    0.00016702893   3    1000014    15   -13
    0.00016697725   3    1000012    15   -11
    0.00013762486   3    1000015   -15    16

DECAY 2000001  1.8708549
    0.98589436   2    1000025    1
    0.012611308   2    1000022    1
    0.00074786294   2    1000039    1
    0.00053510515   2    1000035    1
    0.00020777222   2    1000023    1

DECAY 1000001  41.90685
    0.65229549   2   -1000037    2
    0.32691714   2    1000035    1
    0.0069467245   2    1000025    1
    0.0068417741   2    1000022    1
    0.0067167942   2   -1000024    2
    0.00024812365   2    1000023    1

DECAY 2000003  1.8756902
    0.98335721   2    1000025    3
    0.013215093   2    1000022    3
    0.0012831526   2   -1000024    4
    0.0008501596   2    1000023    3
    0.0007459329   2    1000039    3
    0.00053869534   2    1000035    3

DECAY 1000003  41.910582
    0.6522379   2   -1000037    4
    0.32688819   2    1000035    3
    0.0069463317   2    1000025    3
    0.006869744   2    1000022    3
    0.0067468842   2   -1000024    4
    0.00027700279   2    1000023    3

DECAY 1000005  121.66347
    0.58287816   2   -1000024    6
    0.22723212   2   -1000037    6
    0.10799947   2    1000035    5
    0.030223655   2    1000022    5
    0.026352049   2    1000023    5
    0.023084158   2    1000006   -24
    0.0022197125   2    1000025    5

DECAY 2000005  15.869563
    0.43049663   2   -1000024    6
    0.20966051   2    1000023    5
    0.19398837   2    1000022    5
    0.12017358   2    1000025    5
    0.027496133   2   -1000037    6
    0.013655657   2    1000035    5
    0.0044413689   2    1000006   -24

DECAY 2000002  7.4825752
    0.9864552   2    1000025    2
    0.012616005   2    1000022    2
    0.00053542261   2    1000035    2
    0.00020608736   2    1000023    2
    0.00018728071   2    1000039    2

DECAY 1000002  41.948386
    0.64445717   2    1000037    1
    0.32092583   2    1000035    2
    0.016097979   2    1000025    2
    0.014854346   2    1000024    1
    0.0034694299   2    1000022    2
    0.00016135868   2    1000023    2

DECAY 2000004  7.4851912
    0.98611047   2    1000025    4
    0.012696811   2    1000022    4
    0.00053671428   2    1000035    4
    0.00029374664   2    1000023    4
    0.00018721499   2    1000039    4
    0.00017211112   2    1000024    3

DECAY 1000004  41.952105
    0.64440013   2    1000037    3
    0.32089724   2    1000035    4
    0.016096767   2    1000025    4
    0.014910521   2    1000024    3
    0.0034843968   2    1000022    4
    0.00017706439   2    1000023    4

DECAY 1000006  138.3608
    0.39007511   2    1000024    5
    0.27524692   2    1000022    6
    0.26080105   2    1000023    6
    0.028702424   2    1000025    6
    0.0282498   2    1000037    5
    0.014560549   2    1000035    6
    0.002313541   3    1000022    24    5

DECAY 2000006  134.94002
    0.26352127   2    1000023    6
    0.23287765   2    1000022    6
    0.17777085   2    1000037    5
    0.16622591   2    1000024    5
    0.090549524   2    1000035    6
    0.033994404   2    1000025    6
    0.028175099   2    1000006    23
    0.0068749271   2    1000006    25

DECAY 1000024  0.45086497
    0.55640223   2   -1000015    16
    0.14664124   2    1000014   -13
    0.14462409   2    1000012   -11
    0.064413245   2   -1000013    14
    0.064411586   2   -1000011    12
    0.022100952   2    1000016   -15
    0.0014049937   2   -2000015    16

DECAY 1000037  35.694009
    0.15806386   2   -1000013    14
    0.15806206   2   -1000011    12
    0.1573346   2    1000014   -13
    0.15733297   2    1000012   -11
    0.063407124   2    1000016   -15
    0.063211176   2   -2000015    16
    0.062897859   2    1000022    24
    0.059251835   2    1000024    23
    0.058850477   2    1000023    24
    0.058196304   2    1000024    25
    0.001941555   2    1000025    24
    0.00073758975   3    1000022   -5    6
    0.00050254932   3    1000023   -5    6
    0.00016782674   3    1000024    6   -6

DECAY 1000022  0.52475775
    0.28221878   2    1000015   -15
    0.28221878   2   -1000015    15
    0.093958378   2    1000014   -14
    0.093958378   2   -1000014    14
    0.093956788   2    1000012   -12
    0.093956788   2   -1000012    12
    0.010946475   2    1000013   -13
    0.010946475   2   -1000013    13
    0.010099577   2    1000011   -11
    0.010099577   2   -1000011    11
    0.0061381405   2    2000015   -15
    0.0061381405   2   -2000015    15
    0.0026812027   2    1000016   -16
    0.0026812027   2   -1000016    16

DECAY 1000023  0.26458841
    0.46698318   2    1000015   -15
    0.46698318   2   -1000015    15
    0.016135691   2    2000015   -15
    0.016135691   2   -2000015    15
    0.0059213791   2    1000014   -14
    0.0059213791   2   -1000014    14
    0.0059212813   2    1000012   -12
    0.0059212813   2   -1000012    12
    0.0032760905   2    1000013   -13
    0.0032760905   2   -1000013    13
    0.001547637   2    1000011   -11
    0.001547637   2   -1000011    11
    0.00021177225   2    1000016   -16
    0.00021177225   2   -1000016    16

DECAY 1000025  14.589608
    0.17810594   2    1000015   -15
    0.17810594   2   -1000015    15
    0.052226941   2    1000013   -13
    0.052226941   2   -1000013    13
    0.05222572   2    1000011   -11
    0.05222572   2   -1000011    11
    0.039923024   2    1000014   -14
    0.039923024   2   -1000014    14
    0.039922626   2    1000012   -12
    0.039922626   2   -1000012    12
    0.037676104   2    1000024   -24
    0.037676104   2   -1000024    24
    0.031207169   2    1000023    23
    0.026972713   2    1000023    25
    0.020330611   2    1000022    25
    0.018227911   2    2000013   -13
    0.018227911   2   -2000013    13
    0.01822671   2    2000011   -11
    0.01822671   2   -2000011    11
    0.013537476   2    2000015   -15
    0.013537476   2   -2000015    15
    0.01038045   2    1000016   -16
    0.01038045   2   -1000016    16
    0.00046591094   2    1000022    23

DECAY 1000035  38.599171
    0.074970901   2    1000014   -14
    0.074970901   2   -1000014    14
    0.074970343   2    1000012   -12
    0.074970343   2   -1000012    12
    0.070758164   2    1000013   -13
    0.070758164   2   -1000013    13
    0.070757211   2    1000011   -11
    0.070757211   2   -1000011    11
    0.06734854   2    1000023    25
    0.059037731   2    1000024   -24
    0.059037731   2   -1000024    24
    0.058885573   2    1000023    23
    0.050980591   2    1000022    25
    0.030182405   2    1000016   -16
    0.030182405   2   -1000016    16
    0.028309971   2    2000015   -15
    0.028309971   2   -2000015    15
    0.0022239112   2    1000022    23
    0.00086136661   2    1000025    25
    0.00072632436   3    1000024    5   -6
    0.00072632436   3   -1000024   -5    6

DECAY 1000021  7.0351254
    0.2292537   2    1000006   -6
    0.2292537   2   -1000006    6
    0.053151587   2    1000005   -5
    0.053151587   2   -1000005    5
    0.023463734   2    2000005   -5
    0.023463734   2   -2000005    5
    0.021717097   2    2000003   -3
    0.021717097   2   -2000003    3
    0.021716131   2    2000001   -1
    0.021716131   2   -2000001    1
    0.021192918   2    2000002   -2
    0.021192918   2   -2000002    2
    0.021191743   2    2000004   -4
    0.021191743   2   -2000004    4
    0.01999961   3    1000023    6   -6
    0.017673127   3    1000022    6   -6
    0.016712234   2    1000002   -2
    0.016712234   2   -1000002    2
    0.01671114   2    1000004   -4
    0.01671114   2   -1000004    4
    0.016447028   2    1000003   -3
    0.016447028   2   -1000003    3
    0.016446807   2    1000001   -1
    0.016446807   2   -1000001    1
    0.0074028233   2    1000006   -4
    0.0074028233   2   -1000006    4
    0.0060196363   3    1000035    6   -6
    0.0054263864   3    1000024    5   -6
    0.0054263864   3   -1000024   -5    6
    0.0050504401   3    1000037    5   -6
    0.0050504401   3   -1000037   -5    6
    0.0020968751   3    1000025    6   -6
    0.0011200845   2    1000022    21
    0.0010730595   2    1000023    21
    0.00022566665   2    1000039    21

DECAY 25  0.0040099471
    0.55953962   2   -5    5
    0.24262693   2   -24    24
    0.071642969   2    21    21
    0.064477833   2   -15    15
    0.029889613   2    23    23
    0.027498803   2   -4    4
    0.0023242892   2    22    22
    0.0015653418   2    22    23
    0.00022366937   2   -13    13
    0.00021019773   2   -3    3
    5.8117503e-07   2   -1    1
    1.4170498e-07   2   -2    2
    5.0283241e-09   2   -11    11

DECAY 35  9.4674793
    0.78486001   2   -5    5
    0.14598821   2   -15    15
    0.023628309   2   -2000015    1000015
    0.023628309   2   -1000015    2000015
    0.020539201   2   -6    6
    0.00048975726   2   -13    13
    0.00030891082   2   -3    3
    0.00022480892   2   -1000015    1000015
    0.00014867529   2    25    25
    0.00011407896   2   -2000015    2000015
    1.6315645e-05   2    23    23
    8.6491297e-06   2   -24    24
    7.1248793e-06   2    21    21
    3.7077201e-06   2   -1000011    1000011
    3.6948807e-06   2   -1000013    1000013
    8.5409386e-07   2   -1    1
    2.8219133e-07   2   -4    4
    1.3102831e-07   2   -2000013    1000013
    1.3102831e-07   2   -1000013    2000013
    5.0906286e-08   2    22    23
    3.7489368e-08   2    22    22
    1.1001053e-08   2   -11    11
    3.0648055e-12   2   -2000011    1000011
    3.0648055e-12   2   -1000011    2000011
    1.4548286e-12   2   -2    2

DECAY 36  9.2643627
    0.78366991   2   -5    5
    0.14578446   2   -15    15
    0.024346319   2   -2000015    1000015
    0.024346319   2   -1000015    2000015
    0.020968925   2   -6    6
    0.00048910158   2   -13    13
    0.00030844118   2   -3    3
    6.1644184e-05   2    21    21
    2.2483711e-05   2    23    25
    8.5279759e-07   2   -1    1
    5.2276656e-07   2    22    23
    4.6632491e-07   2    22    22
    2.7865513e-07   2   -4    4
    1.3203775e-07   2   -2000013    1000013
    1.3203775e-07   2   -1000013    2000013
    1.0986329e-08   2   -11    11
    3.0883725e-12   2   -2000011    1000011
    3.0883725e-12   2   -1000011    2000011
    1.436888e-12   2   -2    2
    3.5991728e-34   2    25    25

DECAY 37  8.9857283
    0.78689478   2   -5    6
    0.16072201   2   -15    16
    0.050189583   2   -1000015    1000016
    0.0011336078   2   -5    4
    0.00056821019   2   -13    14
    0.00028939795   2   -3    4
    8.7837181e-05   2   -2000015    1000016
    3.6353903e-05   2   -3    6
    2.328266e-05   2    24    25
    1.5294275e-05   2   -1000011    1000012
    1.5275336e-05   2   -1000013    1000014
    1.347498e-05   2   -3    2
    8.09513e-06   2   -5    2
    1.647985e-06   2   -1    6
    8.0219852e-07   2   -1    2
    2.8010457e-07   2   -2000013    1000014
    5.2474082e-08   2   -1    4
    1.3290495e-08   2   -11    12
    6.5517574e-12   2   -2000011    1000012
    4.374177e-12   2    24    36
    3.4369506e-12   2    24    35

DECAY 6  2.43
    1   2    5    24

DECAY 15 -1


DECAY 1000039 -1
