BLOCK SPINFO
   1   SPheno
   2   v4.0.5be

BLOCK SPHENOINFO
   1   2
   2   2

BLOCK MODSEL
   1   0

BLOCK MINPAR
   3    46.957788
   4    1

BLOCK EXTPAR
   0    1206.6127
   1   -1996.6547
   2   -1104.3467
   3    3000
   11    4257.3045
   12   -1754.9823
   13    1874.6814
   23    462.1923
   25    45.698592
   26    4379.9147
   31    1170.7674
   32    1170.7674
   33    1779.4042
   34    1783.361
   35    1783.361
   36    680.04992
   41    5000
   42    5000
   43    1007.9348
   44    5000
   45    5000
   46    1804.3943
   47    5000
   48    5000
   49    1432.4911

BLOCK SMINPUTS
   1    127.90897
   2    1.1663787e-05
   3    0.1184
   4    91.1876
   5    4.18
   6    173.2
   7    1.777
   8    0
   11    0.00051099893
   12    0
   13    0.10565837
   14    0
   21    0.005
   22    0.0025
   23    0.095
   24    1.27

BLOCK GAUGE Q=  1206.6127
   1    0.35536298
   2    0.66519887
   3    1.219778

BLOCK YU Q=  1206.6127
   1   1    8.3863793e-06
   2   2    0.0042602807
   3   3    1.013142

BLOCK YD Q=  1206.6127
   1   1    0.00077011851
   2   2    0.014632252
   3   3    0.76371625

BLOCK YE Q=  1206.6127
   1   1    0.00013439131
   2   2    0.027787861
   3   3    0.46734611

BLOCK AU Q=  1206.6127
   1   1    0
   2   2    0
   3   3    4257.3046

BLOCK AD Q=  1206.6127
   1   1    0
   2   2    0
   3   3   -1754.9822

BLOCK AE Q=  1206.6127
   1   1    0
   2   2    0
   3   3    1874.6814

BLOCK MSOFT Q=  1206.6127
   1   -1996.6547
   2   -1104.3467
   3    3000
   21    18882356
   22   -155817.98
   31    1170.7674
   32    1170.7674
   33    1779.4042
   34    1783.361
   35    1783.361
   36    680.04992
   41    5000
   42    5000
   43    1007.9348
   44    5000
   45    5000
   46    1804.3943
   47    5000
   48    5000
   49    1432.4911

BLOCK MASS
   6    173.2
   23    91.1876
   24    80.429995
   15    1.777
   25    122.39106
   35    4377.6213
   36    4379.9147
   37    4378.8261
   1000001    5017.7126
   2000001    5008.1043
   1000002    5017.3008
   2000002    5011.3846
   1000003    5017.7222
   2000003    5008.1199
   1000004    5017.3096
   2000004    5011.3857
   1000005    938.79272
   2000005    1437.7079
   1000006    835.18189
   2000006    1743.2299
   1000011    1186.3492
   2000011    1782.2895
   1000012    1183.3933
   1000013    1186.3904
   2000013    1782.3405
   1000014    1183.4356
   1000015    725.7023
   2000015    1798.5727
   1000016    1796.2125
   1000021    3174.5146
   1000022   -463.62812
   1000023    473.32912
   1000025   -1151.0667
   1000035   -1999.457
   1000024    467.38372
   1000037    1151.4034

BLOCK ALPHA
      -0.021294511

BLOCK HMIX Q=  1206.6127
   1    462.1923
   2    45.698592
   3    244.2028
   4    19183653

BLOCK STOPMIX
   1   1   -0.95668508
   1   2    0.29112481
   2   1   -0.29112481
   2   2   -0.95668508

BLOCK SBOTMIX
   1   1    0.9994954
   1   2    0.031763769
   2   1   -0.031763769
   2   2    0.9994954

BLOCK STAUMIX
   1   1    0.012390911
   1   2    0.99992323
   2   1   -0.99992323
   2   2    0.012390911

BLOCK NMIX
   1   1   -0.020100607
   1   2    0.081918842
   1   3   -0.70914125
   1   4   -0.70000282
   2   1    0.013049119
   2   2   -0.036456724
   2   3   -0.70429612
   2   4    0.70884949
   3   1    0.0044091477
   3   2    0.99596941
   3   3    0.032535013
   3   4    0.083468397
   4   1   -0.99970308
   4   2    0.0022697036
   4   3    0.005208724
   4   4    0.023695403

BLOCK UMIX
   1   1   -0.046380097
   1   2    0.99892386
   2   1   -0.99892386
   2   2   -0.046380097

BLOCK VMIX
   1   1    0.1188254
   1   2    0.99291516
   2   1    0.99291516
   2   2   -0.1188254

BLOCK HIGGSBOUNDSINPUTHIGGSCOUPLINGSFERMIONS
       0, 2088.3613,3,36,15,15

BLOCK HIGGSBOUNDSINPUTHIGGSCOUPLINGSBOSONS
       0,4,36,21,21,23

BLOCK SPHENOLOWENERGY
   1    0.00040292023
   2    1.5908602e-06
   3    3.5283174e-05
   4    4.2704289e-15
   5    1.8242834e-10
   6    3.8210032e-08
   7    1.4376113e-13
   8    6.1414868e-09
   9    1.3033775e-06
   10    9.5764288e-05
   11    0.98920843
   12    0.54388666
   13    19.42857
   14    0
   15    0
   16    0.0021706497
   17    2.2817948e-15
   18    2.480633e-11
   19    8.2923465e-11
   20   -9.6911469e-15
   21   -4.1436816e-10
   22   -7.253937e-08
   23    0
   24    0
   25    0
   26    0
   27    0
   28    0
   29    0
   30    0
   31    0
   39    7.9705294e-05
   40    0
   41    0
   42    0

BLOCK FWCOEF Q=  160
   305   4422   0   0   -0.18881911
   305   4422   0   2   -0.28127248
   305   4322   0   2   -0.00049569476
   305   6421   0   0   -0.095227835
   305   6421   0   2   -0.14519192
   305   6321   0   2   -0.00027515981
   3051111   4133   0   0    1.5846756
   3051111   4133   0   2    1.5865628
   3051111   4233   0   2    0.00038932813
   3051111   4137   0   0   -4.4073677
   3051111   4137   0   2   -4.408764
   3051111   4237   0   2   -0.0030631175
   3051313   4133   0   0    1.5846756
   3051313   4133   0   2    1.5865586
   3051313   4233   0   2    0.00038932626
   3051313   4137   0   0   -4.4073677
   3051313   4137   0   2   -4.4087682
   3051313   4237   0   2   -0.0030631238
   3051212   4137   0   0    1.5053501
   3051212   4137   0   2    1.5056674
   3051212   4237   0   2    0.00066867793
   3051414   4137   0   0    1.5053501
   3051414   4137   0   2    1.5056674
   3051414   4237   0   2    0.00066867796
   3051616   4137   0   0    1.5053501
   3051616   4137   0   2    1.505668
   3051616   4237   0   2    0.0006686857

BLOCK IMFWCOEF Q=  160
   305   4422   0   0    3.8563448e-07
   305   4422   0   2   -2.8392169e-05
   305   4322   0   2   -7.755674e-06
   305   6421   0   0    3.3032144e-07
   305   6421   0   2   -3.104186e-05
   305   6321   0   2   -3.3963539e-06
   3051111   4133   0   2   -6.6794976e-08
   3051111   4233   0   2    7.4224152e-06
   3051111   4137   0   2    1.0769397e-06
   3051111   4237   0   2   -5.8403476e-05
   3051313   4133   0   2   -6.6924846e-08
   3051313   4233   0   2    7.4223855e-06
   3051313   4137   0   2    1.0769574e-06
   3051313   4237   0   2   -5.8403591e-05
   3051212   4137   0   2   -3.1481843e-08
   3051212   4237   0   2    1.2749464e-05
   3051414   4137   0   2   -3.1486155e-08
   3051414   4237   0   2    1.2749464e-05
   3051616   4137   0   2   -2.3469803e-08
   3051616   4237   0   2    1.2749459e-05

DECAY 23  2.4952


DECAY 24  2.085


DECAY 1000011  0.09121748
    0.38492069   2   -1000037    12
    0.20821533   2    1000022    11
    0.1958949   2    1000025    11
    0.17576306   2   -1000024    12
    0.035206014   2    1000023    11

DECAY 2000011  0.0045231157
    0.69541376   2    1000022    11
    0.29138313   2    1000023    11
    0.013077902   2    1000025    11
    0.00012251606   2   -1000024    12

DECAY 1000013  0.10431383
    0.33736571   2   -1000037    14
    0.2451401   2    1000022    13
    0.17169102   2    1000025    13
    0.1537057   2   -1000024    14
    0.092097466   2    1000023    13

DECAY 2000013  0.052450014
    0.45171972   2   -1000024    14
    0.28814888   2    1000022    13
    0.24888038   2    1000023    13
    0.0095542165   2    1000013    25
    0.001315555   2    1000025    13
    0.00038124367   2   -1000037    14

DECAY 1000015  2.1536415
    0.50109771   2   -1000024    16
    0.2588701   2    1000022    15
    0.24003219   2    1000023    15

DECAY 2000015  15.454829
    0.35629274   2   -1000037    16
    0.22313976   2    1000022    15
    0.21806979   2    1000023    15
    0.17828578   2    1000025    15
    0.011557639   2    1000015    25
    0.011389555   2    1000015    23
    0.0012647369   2   -1000024    16

DECAY 1000012  0.18790763
    0.55761665   2    1000024    11
    0.17053285   2    1000022    12
    0.15547137   2    1000037    11
    0.079469362   2    1000025    12
    0.036909762   2    1000023    12

DECAY 1000014  0.20095825
    0.58577178   2    1000024    13
    0.15946796   2    1000022    14
    0.14574736   2    1000037    13
    0.074497954   2    1000025    14
    0.034514944   2    1000023    14

DECAY 1000016  15.513564
    0.44892741   2    1000024    15
    0.34904433   2    1000037    15
    0.17474796   2    1000025    16
    0.022636112   2    1000015    24
    0.003811711   2    1000022    16
    0.00083246839   2    1000023    16

DECAY 2000001  143.43484
    0.98622192   2    1000021    1
    0.013765933   2    1000035    1

DECAY 1000001  202.44061
    0.70370953   2    1000021    1
    0.19539884   2   -1000037    2
    0.096975592   2    1000025    1
    0.0025093963   2    1000035    1
    0.00078407604   2    1000022    1
    0.00046124917   2   -1000024    2
    0.00016131249   2    1000023    1

DECAY 2000003  143.47828
    0.98593468   2    1000021    3
    0.013761844   2    1000035    3
    0.00014578322   2   -1000024    4

DECAY 1000003  202.46447
    0.70363154   2    1000021    3
    0.19537639   2   -1000037    4
    0.096964493   2    1000025    3
    0.0025091112   2    1000035    3
    0.00083602014   2    1000022    3
    0.00046985895   2   -1000024    4
    0.00021258904   2    1000023    3

DECAY 1000005  16.506085
    0.55583751   2   -1000024    6
    0.19149546   2    1000022    5
    0.18202229   2    1000023    5
    0.070644738   2    1000006   -24

DECAY 2000005  27.490656
    0.46946199   2   -1000024    6
    0.24378236   2    1000022    5
    0.23999725   2    1000023    5
    0.020370039   2    1000005    25
    0.019191354   2    1000006   -24
    0.0066338602   2    1000005    23
    0.00035179234   2   -1000037    6
    0.00021135595   2    1000025    5

DECAY 2000002  149.71388
    0.9471414   2    1000021    2
    0.052815103   2    1000035    2

DECAY 1000002  202.44068
    0.70349737   2    1000021    2
    0.19303576   2    1000037    1
    0.097272077   2    1000025    2
    0.0030275755   2    1000024    1
    0.0023842781   2    1000035    2
    0.00065809413   2    1000022    2
    0.00012484505   2    1000023    2

DECAY 2000004  149.71748
    0.94711894   2    1000021    4
    0.052813837   2    1000035    4

DECAY 1000004  202.46438
    0.70341925   2    1000021    4
    0.19301378   2    1000037    3
    0.097260921   2    1000025    4
    0.0031304563   2    1000024    3
    0.002384011   2    1000035    4
    0.00066233379   2    1000022    4
    0.00012924969   2    1000023    4

DECAY 1000006  13.444664
    0.39229783   2    1000024    5
    0.31035234   2    1000022    6
    0.29669882   2    1000023    6
    0.00035896827   2    1000022    4
    0.00022634972   3    1000022    24    5

DECAY 2000006  283.06396
    0.37955197   2    1000005    24
    0.22204969   2    1000006    23
    0.19564687   2    1000006    25
    0.098270641   2    1000024    5
    0.050458311   2    1000023    6
    0.048647923   2    1000022    6
    0.0036832138   2    1000037    5
    0.0016594416   2    1000025    6

DECAY 1000024  2.4936171e-09
    0.42460823   3    1000022   -1    2
    0.24482873   3    1000022   -3    4
    0.1415474   3    1000022   -11    12
    0.14099089   3    1000022   -13    14
    0.048024752   3    1000022   -15    16

DECAY 1000037  13.13962
    0.21017321   2    1000006   -5
    0.1851123   2    1000022    24
    0.18338092   2    1000023    24
    0.1822134   2    1000024    23
    0.17262592   2    1000024    25
    0.058001161   2   -1000005    6
    0.0032399641   3    1000022   -5    6
    0.0028686711   3    1000023   -5    6
    0.0022964583   3    1000024    6   -6

DECAY 1000022 -1


DECAY 1000023  3.7475385e-07
    0.4383042   2    1000022    22
    0.1317302   3    1000022    12   -12
    0.098501905   3    1000022    1   -1
    0.098384087   3    1000022    3   -3
    0.076822829   3    1000022    2   -2
    0.060040399   3    1000022    4   -4
    0.022228543   3    1000022    11   -11
    0.022187222   3    1000022    13   -13
    0.013317145   3    1000022    15   -15
    0.0068191367   3    1000024    1   -2
    0.0068191367   3   -1000024   -1    2
    0.0053216051   3    1000024    3   -4
    0.0053216051   3   -1000024   -3    4
    0.0022764943   3    1000022    5   -5
    0.0022730931   3    1000024    11   -12
    0.0022730931   3   -1000024   -11    12
    0.0022690743   3    1000024    13   -14
    0.0022690743   3   -1000024   -13    14
    0.001420576   3    1000024    15   -16
    0.001420576   3   -1000024   -15    16

DECAY 1000025  16.2741
    0.15429038   2    1000024   -24
    0.15429038   2   -1000024    24
    0.12856915   2    1000023    25
    0.12603052   2    1000023    23
    0.11328682   2    1000022    25
    0.094259619   2    1000006   -6
    0.094259619   2   -1000006    6
    0.051639865   2    1000005   -5
    0.051639865   2   -1000005    5
    0.023929159   2    1000022    23
    0.0031400913   3    1000024    5   -6
    0.0031400913   3   -1000024   -5    6
    0.00073642814   3    1000023    6   -6
    0.0006862607   3    1000022    6   -6

DECAY 1000035  21.944059
    0.17243798   2    1000015   -15
    0.17243798   2   -1000015    15
    0.058828251   2    1000024   -24
    0.058828251   2   -1000024    24
    0.043810213   2    1000023    23
    0.04307853   2    1000023    25
    0.038110844   2    1000022    25
    0.028854557   2    1000006   -6
    0.028854557   2   -1000006    6
    0.024348238   2    1000012   -12
    0.024348238   2   -1000012    12
    0.02434636   2    1000014   -14
    0.02434636   2   -1000014    14
    0.023808885   2    1000011   -11
    0.023808885   2   -1000011    11
    0.023807101   2    1000013   -13
    0.023807101   2   -1000013    13
    0.017812512   2    2000005   -5
    0.017812512   2   -2000005    5
    0.017508872   2    1000022    23
    0.012673508   2    2000006   -6
    0.012673508   2   -2000006    6
    0.011840428   2    1000005   -5
    0.011840428   2   -1000005    5
    0.0096546758   2    2000011   -11
    0.0096546758   2   -2000011    11
    0.009650403   2    2000013   -13
    0.009650403   2   -2000013    13
    0.002411213   3    1000024    5   -6
    0.002411213   3   -1000024   -5    6
    0.002147837   2    1000016   -16
    0.002147837   2   -1000016    16
    0.0020683602   2    2000015   -15
    0.0020683602   2   -2000015    15
    0.001792244   2    1000037   -24
    0.001792244   2   -1000037    24
    0.0015112861   2    1000025    25
    0.0014476853   3    1000023    6   -6
    0.0013492139   3    1000022    6   -6
    0.00012303709   2    1000025    23

DECAY 1000021  302.60879
    0.14319598   2    1000006   -6
    0.14319598   2   -1000006    6
    0.1292666   2    1000005   -5
    0.1292666   2   -1000005    5
    0.098121123   2    2000005   -5
    0.098121123   2   -2000005    5
    0.068919336   2    2000006   -6
    0.068919336   2   -2000006    6
    0.060118853   2    1000006   -4
    0.060118853   2   -1000006    4
    0.0002092468   3    1000025    5   -5
    0.00016566814   3    1000037    5   -6
    0.00016566814   3   -1000037   -5    6
    0.00012420471   3    1000025    6   -6

DECAY 25  0.003606572
    0.62128511   2   -5    5
    0.18543389   2   -24    24
    0.069301033   2   -15    15
    0.068564977   2    21    21
    0.030020931   2   -4    4
    0.021298543   2    23    23
    0.0023533109   2    22    22
    0.0012738906   2    22    23
    0.0002403565   2   -13    13
    0.00022717238   2   -3    3
    6.2810846e-07   2   -1    1
    1.5471381e-07   2   -2    2
    5.4035147e-09   2   -11    11

DECAY 35  125.92149
    0.38063042   2   -5    5
    0.13936526   2   -15    15
    0.11903367   2   -1000024    1000037
    0.11903367   2   -1000037    1000024
    0.060523923   2    1000023    1000025
    0.058565323   2    1000022    1000025
    0.023120465   2   -2000005    1000005
    0.023120465   2   -1000005    2000005
    0.013290515   2    1000023    1000035
    0.01139842   2    1000022    1000035
    0.011363269   2   -2000015    1000015
    0.011363269   2   -1000015    2000015
    0.0075705218   2   -2000006    1000006
    0.0075705218   2   -1000006    2000006
    0.0040422863   2   -1000024    1000024
    0.0036054501   2   -1000006    1000006
    0.0025144159   2   -2000006    2000006
    0.0012646028   2    1000022    1000022
    0.00053487252   2   -6    6
    0.00047298532   2   -1000037    1000037
    0.00046971077   2   -13    13
    0.0002784468   2   -3    3
    0.00024244593   2    1000023    1000023
    0.00023417449   2    1000025    1000025
    0.00016069117   2    1000022    1000023
    9.3474327e-05   2   -1000005    1000005
    8.0277835e-05   2   -2000005    2000005
    2.955411e-05   2    1000025    1000035
    9.7926447e-06   2   -1000015    1000015
    7.1676166e-06   2    25    25
    5.3374529e-06   2   -2000015    2000015
    3.3564546e-06   2    21    21
    7.6985048e-07   2   -1    1
    1.5659142e-07   2    1000035    1000035
    4.3217512e-08   2    22    23
    3.1515478e-08   2    22    22
    1.8676706e-08   2   -1000011    1000011
    1.8454191e-08   2   -1000013    1000013
    1.0548291e-08   2   -11    11
    8.2905096e-09   2   -2000011    2000011
    8.1936479e-09   2   -2000013    2000013
    6.901911e-09   2   -4    4
    1.0028137e-09   2   -2000013    1000013
    1.0028137e-09   2   -1000013    2000013
    3.7543264e-10   2    23    23
    7.1576034e-11   2   -24    24
    3.5580138e-14   2   -2    2
    2.3456067e-14   2   -2000011    1000011
    2.3456067e-14   2   -1000011    2000011

DECAY 36  121.25696
    0.36678845   2   -5    5
    0.1343304   2   -15    15
    0.1236545   2   -1000024    1000037
    0.1236545   2   -1000037    1000024
    0.062783022   2    1000022    1000025
    0.06093487   2    1000023    1000025
    0.024094469   2   -2000005    1000005
    0.024094469   2   -1000005    2000005
    0.013923704   2    1000022    1000035
    0.011805559   2   -2000015    1000015
    0.011805559   2   -1000015    2000015
    0.011727478   2    1000023    1000035
    0.011179085   2   -2000006    1000006
    0.011179085   2   -1000006    2000006
    0.0042481211   2   -1000024    1000024
    0.0012629148   2    1000022    1000022
    0.00053386124   2   -1000037    1000037
    0.0004730883   2   -6    6
    0.00045273623   2   -13    13
    0.00028739372   2    1000023    1000023
    0.00026837293   2   -3    3
    0.00026465581   2    1000025    1000025
    0.00020124545   2    1000022    1000023
    4.6147815e-05   2    1000025    1000035
    4.8916516e-06   2    21    21
    7.419905e-07   2   -1    1
    6.5133666e-07   2    1000035    1000035
    1.5134863e-08   2    22    23
    1.0167051e-08   2   -11    11
    6.5020848e-09   2   -4    4
    1.0390516e-09   2   -2000013    1000013
    1.0390516e-09   2   -1000013    2000013
    9.1284426e-10   2    23    25
    8.2516655e-10   2    22    22
    5.7495073e-13   2    23    35
    3.3520593e-14   2   -2    2
    2.4303524e-14   2   -2000011    1000011
    2.4303524e-14   2   -1000011    2000011
    1.1077736e-39   2    25    25

DECAY 37  129.07472
    0.38767272   2   -5    6
    0.14959846   2   -15    16
    0.11933238   2    1000022    1000037
    0.11797595   2    1000024    1000025
    0.11669147   2    1000023    1000037
    0.045932825   2   -2000005    1000006
    0.023692331   2    1000024    1000035
    0.022190137   2   -1000015    1000016
    0.011980927   2   -1000005    2000006
    0.0013060207   2   -1000005    1000006
    0.0012673373   2   -2000005    2000006
    0.00082382254   2    1000023    1000024
    0.00057451216   2   -5    4
    0.00052888378   2   -13    14
    0.00025021419   2   -3    4
    8.877094e-05   2    1000022    1000024
    7.2128835e-05   2    1000035    1000037
    1.1768174e-05   2   -3    2
    4.1026089e-06   2   -5    2
    3.0897726e-06   2   -2000015    1000016
    1.2060667e-06   2   -3    6
    6.9474115e-07   2   -1    2
    7.1663269e-08   2   -1000011    1000012
    7.1358125e-08   2   -1000013    1000014
    3.8192795e-08   2   -1    6
    3.2928355e-08   2   -1    4
    1.2370647e-08   2   -11    12
    5.3609878e-09   2    1000025    1000037
    1.9815942e-09   2   -2000013    1000014
    8.5716373e-10   2    24    25
    4.6351035e-14   2   -2000011    1000012
    2.6783888e-14   2    24    35

DECAY 6  2.43
    1   2    5    24

DECAY 15 -1
