BLOCK SPINFO
   1   SPheno
   2   v4.0.5be

BLOCK SPHENOINFO
   1   2
   2   2

BLOCK MODSEL
   1   0

BLOCK MINPAR
   3    53.003258
   4   -1

BLOCK EXTPAR
   0    3678.1363
   1   -933.07088
   2    4033.8541
   3    4261.265
   11    1936.3497
   12   -7665.9014
   13   -4240.2854
   23   -517.94346
   25    52.694342
   26    3440.6298
   31    1132.1449
   32    1132.1449
   33    4896.0366
   34    1678.8331
   35    1678.8331
   36    1024.5838
   41    1891.1193
   42    1891.1193
   43    2774.606
   44    2719.3122
   45    2719.3122
   46    4540.5171
   47    2009.3003
   48    2009.3003
   49    4983.8559

BLOCK SMINPUTS
   1    127.90897
   2    1.1663787e-05
   3    0.1184
   4    91.1876
   5    4.18
   6    173.2
   7    1.777
   8    0
   11    0.00051099893
   12    0
   13    0.10565837
   14    0
   21    0.005
   22    0.0025
   23    0.095
   24    1.27

BLOCK GAUGE Q=  3678.1363
   1    0.35536298
   2    0.66519887
   3    1.219778

BLOCK YU Q=  3678.1363
   1   1    8.3858818e-06
   2   2    0.0042600279
   3   3    1.0130819

BLOCK YD Q=  3678.1363
   1   1    0.00088795911
   2   2    0.016871223
   3   3    0.88057719

BLOCK YE Q=  3678.1363
   1   1    0.00015495536
   2   2    0.032039853
   3   3    0.53885763

BLOCK AU Q=  3678.1363
   1   1    0
   2   2    0
   3   3    1936.3497

BLOCK AD Q=  3678.1363
   1   1    0
   2   2    0
   3   3   -7665.9011

BLOCK AE Q=  3678.1363
   1   1    0
   2   2    0
   3   3   -4240.2854

BLOCK MSOFT Q=  3678.1363
   1   -933.07088
   2    4033.8541
   3    4261.265
   21    11845312
   22   -91409.935
   31    1132.1449
   32    1132.1449
   33    4896.0366
   34    1678.8331
   35    1678.8331
   36    1024.5838
   41    1891.1193
   42    1891.1193
   43    2774.606
   44    2719.3122
   45    2719.3122
   46    4540.5171
   47    2009.3003
   48    2009.3003
   49    4983.8559

BLOCK MASS
   6    173.2
   23    91.1876
   24    80.429995
   15    1.777
   25    120.19778
   35    3439.2149
   36    3440.6298
   37    3440.4563
   1000001    2113.6406
   2000001    2186.1484
   1000002    2112.1033
   2000002    2876.7841
   1000003    2113.6262
   2000003    2186.126
   1000004    2112.0906
   2000004    2876.7834
   1000005    2931.1261
   2000005    5017.3
   1000006    2932.7831
   2000006    4612.9175
   1000011    1181.8717
   2000011    1689.7376
   1000012    1178.8253
   1000013    1181.805
   2000013    1689.6461
   1000014    1178.7593
   1000015    1008.2737
   2000015    4899.7789
   1000016    4897.7578
   1000021    4304.9829
   1000022   -521.78471
   1000023    523.45758
   1000025   -921.82024
   1000035    3975.1527
   1000024    523.88571
   1000037    3975.2084

BLOCK ALPHA
      -0.018899062

BLOCK HMIX Q=  3678.1363
   1   -517.94346
   2    52.694342
   3    243.06046
   4    11837934

BLOCK STOPMIX
   1   1   -0.9998167
   1   2    0.019145891
   2   1   -0.019145891
   2   2   -0.9998167

BLOCK SBOTMIX
   1   1   -0.99999639
   1   2    0.0026859037
   2   1   -0.0026859037
   2   2   -0.99999639

BLOCK STAUMIX
   1   1   -0.0017541223
   1   2    0.99999846
   2   1   -0.99999846
   2   2   -0.0017541223

BLOCK NMIX
   1   1    0.078867011
   1   2    0.012442332
   1   3   -0.70604465
   1   4    0.703652
   2   1   -0.020980092
   2   2   -0.015606422
   2   3   -0.70697675
   2   4   -0.70675325
   3   1   -0.99666434
   3   2    0.0011382437
   3   3   -0.04098753
   3   4    0.070561511
   4   1    0.00017430164
   4   2   -0.99980015
   4   3    0.0022023221
   4   4    0.019869248

BLOCK UMIX
   1   1   -0.0031152887
   1   2   -0.99999515
   2   1    0.99999515
   2   2   -0.0031152887

BLOCK VMIX
   1   1   -0.028103325
   1   2    0.99960502
   2   1    0.99960502
   2   2    0.028103325

BLOCK HIGGSBOUNDSINPUTHIGGSCOUPLINGSFERMIONS
       0, 2776.6937,3,36,15,15

BLOCK HIGGSBOUNDSINPUTHIGGSCOUPLINGSBOSONS
       0,4,36,21,21,23

BLOCK SPHENOLOWENERGY
   1    0.00032519154
   2    1.5899823e-06
   3    3.5257515e-05
   4    2.5321639e-15
   5    1.081709e-10
   6    2.2626128e-08
   7    8.5986918e-14
   8    3.6733472e-09
   9    7.7839559e-07
   10    9.5606082e-05
   11    0.98757422
   12    0.54181721
   13    19.353114
   14    0
   15    0
   16    0.0021568288
   17    2.2816548e-15
   18    2.4803266e-11
   19    8.2913124e-11
   20   -1.5491013e-15
   21   -6.6216038e-11
   22   -3.7678729e-08
   23    0
   24    0
   25    0
   26    0
   27    0
   28    0
   29    0
   30    0
   31    0
   39    7.5968963e-05
   40    0
   41    0
   42    0

BLOCK FWCOEF Q=  160
   305   4422   0   0   -0.18881911
   305   4422   0   2   -0.19398708
   305   4322   0   2   -0.00012475891
   305   6421   0   0   -0.095227835
   305   6421   0   2   -0.10176206
   305   6321   0   2   -0.00014199781
   3051111   4133   0   0    1.6247241
   3051111   4133   0   2    1.6251256
   3051111   4233   0   2    0.00050269085
   3051111   4137   0   0   -4.4474162
   3051111   4137   0   2   -4.4463775
   3051111   4237   0   2   -0.0037297237
   3051313   4133   0   0    1.6247241
   3051313   4133   0   2    1.6251241
   3051313   4233   0   2    0.00050268832
   3051313   4137   0   0   -4.4474162
   3051313   4137   0   2   -4.446379
   3051313   4237   0   2   -0.0037297293
   3051212   4137   0   0    1.5053501
   3051212   4137   0   2    1.5051253
   3051212   4237   0   2    0.00080686485
   3051414   4137   0   0    1.5053501
   3051414   4137   0   2    1.5051253
   3051414   4237   0   2    0.00080686496
   3051616   4137   0   0    1.5053501
   3051616   4137   0   2    1.5051258
   3051616   4237   0   2    0.0008068981

BLOCK IMFWCOEF Q=  160
   305   4422   0   0    3.8582938e-07
   305   4422   0   2   -1.2324916e-05
   305   4322   0   2   -3.7554398e-07
   305   6421   0   0    3.3048838e-07
   305   6421   0   2   -1.6552438e-06
   305   6321   0   2   -9.2813354e-08
   3051111   4133   0   2    2.2965033e-07
   3051111   4233   0   2    9.9899976e-06
   3051111   4137   0   2   -3.801058e-07
   3051111   4237   0   2   -7.4125719e-05
   3051313   4133   0   2    2.296544e-07
   3051313   4233   0   2    9.9899633e-06
   3051313   4137   0   2   -3.8011036e-07
   3051313   4237   0   2   -7.4125831e-05
   3051212   4137   0   2    7.9736146e-08
   3051212   4237   0   2    1.6035886e-05
   3051414   4137   0   2    7.9735498e-08
   3051414   4237   0   2    1.6035886e-05
   3051616   4137   0   2    8.6651288e-08
   3051616   4237   0   2    1.6035884e-05

DECAY 23  2.4952


DECAY 24  2.085


DECAY 1000011  0.23777
    0.94732337   2    1000025    11
    0.04223693   2    1000022    11
    0.010165283   2    1000023    11
    0.00027441411   2   -1000024    12

DECAY 2000011  4.2070358
    0.98900076   2    1000025    11
    0.010273014   2    1000022    11
    0.00072606795   2    1000023    11

DECAY 1000013  0.25327497
    0.88899588   2    1000025    13
    0.070427919   2    1000022    13
    0.040318613   2    1000023    13
    0.0002575863   2   -1000024    14

DECAY 2000013  4.2636293
    0.97573696   2    1000025    13
    0.013437995   2    1000022    13
    0.0066144598   2   -1000024    14
    0.0040221124   2    1000023    13
    0.00018847517   2    1000013    25

DECAY 1000015  6.3725823
    0.4877445   2   -1000024    16
    0.24706932   2    1000022    15
    0.2439138   2    1000023    15
    0.021272385   2    1000025    15

DECAY 2000015  48.926862
    0.28312444   2    1000022    15
    0.2828894   2    1000023    15
    0.1167186   2    1000025    15
    0.1029841   2   -1000037    16
    0.079263745   2    1000015    35
    0.079132843   2    1000015    36
    0.051467699   2    1000035    15
    0.0022089465   2    1000015    25
    0.0022077584   2    1000015    23

DECAY 1000012  0.23127052
    0.96408972   2    1000025    12
    0.022844072   2    1000024    11
    0.012786461   2    1000022    12
    0.00027974491   2    1000023    12

DECAY 1000014  0.24669579
    0.90343856   2    1000025    14
    0.084313582   2    1000024    13
    0.011985631   2    1000022    14
    0.00026222407   2    1000023    14

DECAY 1000016  48.887379
    0.56626783   2    1000024    15
    0.1581623   2    1000015    37
    0.11680748   2    1000025    16
    0.10261629   2    1000037    15
    0.051343528   2    1000035    16
    0.0044143013   2    1000015    24
    0.00037993649   2    1000022    16

DECAY 1000001  0.19600347
    0.99303908   2    1000025    1
    0.0059673877   2    1000023    1
    0.00081177256   2   -1000024    2
    0.00018175663   2    1000022    1

DECAY 2000001  0.82687421
    0.99118416   2    1000025    1
    0.0081832334   2    1000022    1
    0.0005957555   2    1000023    1

DECAY 1000003  0.20718868
    0.93947853   2    1000025    3
    0.031016071   2    1000023    3
    0.025495911   2    1000022    3
    0.0040094907   2   -1000024    4

DECAY 2000003  0.84879818
    0.96557963   2    1000025    3
    0.014420242   2    1000022    3
    0.012960225   2   -1000024    4
    0.0070399013   2    1000023    3

DECAY 1000005  98.334797
    0.56562493   2   -1000024    6
    0.21542472   2    1000023    5
    0.2149507   2    1000022    5
    0.0039996561   2    1000025    5

DECAY 2000005  181.84159
    0.41542004   2   -1000024    6
    0.20813731   2    1000023    5
    0.20768581   2    1000022    5
    0.15154865   2    1000021    5
    0.01497639   2    1000025    5
    0.000970017   2    1000006   -24
    0.00077374161   2    1000005    25
    0.00048570747   2    1000005    23

DECAY 1000002  0.21122123
    0.89688766   2    1000025    2
    0.061383836   2    1000024    1
    0.027222685   2    1000022    2
    0.014505818   2    1000023    2

DECAY 2000002  5.1783661
    0.99227223   2    1000025    2
    0.0072172531   2    1000022    2
    0.00051051261   2    1000023    2

DECAY 1000004  0.222397
    0.8518223   2    1000025    4
    0.10554855   2    1000024    3
    0.02734688   2    1000022    4
    0.015282275   2    1000023    4

DECAY 2000004  5.1803004
    0.99190098   2    1000025    4
    0.0073077001   2    1000022    4
    0.00060402809   2    1000023    4
    0.00018729371   2    1000024    3

DECAY 1000006  103.94562
    0.40780861   2    1000024    5
    0.26779873   2    1000023    6
    0.26577737   2    1000022    6
    0.053233905   3    1000022    24    5
    0.0053311798   2    1000025    6

DECAY 2000006  210.44066
    0.43605048   2    1000024    5
    0.21722194   2    1000023    6
    0.21554674   2    1000022    6
    0.046695855   2    1000025    6
    0.024570934   2    1000005    24
    0.024048002   2    1000021    6
    0.023615396   2    1000006    25
    0.012240134   2    1000006    23

DECAY 1000024  2.7584536e-11
    0.59444893   3    1000022   -1    2
    0.19815983   3    1000022   -11    12
    0.19411096   3    1000022   -13    14
    0.013280286   3    1000022   -3    4

DECAY 1000037  223.25689
    0.12101149   2    1000004   -3
    0.12101034   2    1000002   -1
    0.12096737   2   -1000003    4
    0.12096612   2   -1000001    2
    0.065143739   2    1000014   -13
    0.06514233   2    1000012   -11
    0.065129569   2   -1000013    14
    0.065128144   2   -1000011    12
    0.048849963   2    1000006   -5
    0.047761105   2   -1000005    6
    0.038685773   2    1000024    25
    0.0362913   2    1000023    24
    0.03627726   2    1000024    23
    0.036041166   2    1000022    24
    0.0040473616   3    1000024    6   -6
    0.0025184144   3    1000022   -5    6
    0.002475585   3    1000023   -5    6
    0.00058950433   2    1000024    35
    0.00055793277   2    37    1000023
    0.00055412257   2    1000024    36
    0.00055259689   2    37    1000022
    0.0002561972   2    1000025    24

DECAY 1000022 -1


DECAY 1000023  1.0163851e-09
    0.96954579   2    1000022    22
    0.0090126389   3    1000022    12   -12
    0.0067387982   3    1000022    1   -1
    0.0064917331   3    1000022    3   -3
    0.0052560543   3    1000022    2   -2
    0.0015208732   3    1000022    11   -11
    0.0014341166   3    1000022    13   -13

DECAY 1000025  2.6519708
    0.21802928   2    1000024   -24
    0.21802928   2   -1000024    24
    0.20772289   2    1000023    23
    0.17413375   2    1000022    25
    0.16477076   2    1000023    25
    0.01445605   2    1000022    23
    0.0013053109   3    1000024    5   -6
    0.0013053109   3   -1000024   -5    6

DECAY 1000035  225.59585
    0.059895901   2    1000004   -4
    0.059895901   2   -1000004    4
    0.059895356   2    1000002   -2
    0.059895356   2   -1000002    2
    0.059834834   2    1000003   -3
    0.059834834   2   -1000003    3
    0.059834192   2    1000001   -1
    0.059834192   2   -1000001    1
    0.035937916   2    1000024   -24
    0.035937916   2   -1000024    24
    0.032252132   2    1000014   -14
    0.032252132   2   -1000014    14
    0.032251436   2    1000012   -12
    0.032251436   2   -1000012    12
    0.032207963   2    1000013   -13
    0.032207963   2   -1000013    13
    0.032207257   2    1000011   -11
    0.032207257   2   -1000011    11
    0.025057929   2    1000022    25
    0.024214484   2    1000005   -5
    0.024214484   2   -1000005    5
    0.023586141   2    1000006   -6
    0.023586141   2   -1000006    6
    0.023405507   2    1000023    25
    0.021711331   2    1000022    23
    0.014018023   2    1000023    23
    0.0024483086   3    1000024    5   -6
    0.0024483086   3   -1000024   -5    6
    0.0020080158   3    1000022    6   -6
    0.0019890912   3    1000023    6   -6
    0.00057594082   2    1000023    35
    0.00056568267   2    1000022    35
    0.0005514319   2    37   -1000024
    0.0005514319   2   -37    1000024
    0.00020508427   2    1000025    25
    0.00017885464   2    1000025    23

DECAY 1000021  585.86746
    0.062698428   2    1000004   -4
    0.062698428   2   -1000004    4
    0.062697953   2    1000002   -2
    0.062697953   2   -1000002    2
    0.062640623   2    1000003   -3
    0.062640623   2   -1000003    3
    0.062640081   2    1000001   -1
    0.062640081   2   -1000001    1
    0.059894796   2    2000003   -3
    0.059894796   2   -2000003    3
    0.059893942   2    2000001   -1
    0.059893942   2   -2000001    1
    0.033311043   2    2000004   -4
    0.033311043   2   -2000004    4
    0.033311026   2    2000002   -2
    0.033311026   2   -2000002    2
    0.031293082   2    1000005   -5
    0.031293082   2   -1000005    5
    0.031244372   2    1000006   -6
    0.031244372   2   -1000006    6
    0.00017653442   3    1000024    5   -6
    0.00017653442   3   -1000024   -5    6
    0.00012356281   3    1000023    6   -6
    0.00012314711   3    1000022    6   -6

DECAY 25  0.003346137
    0.6428973   2   -5    5
    0.15568057   2   -24    24
    0.075130999   2    21    21
    0.073470022   2   -15    15
    0.03180459   2   -4    4
    0.017110321   2    23    23
    0.0023119021   2    22    22
    0.0010970396   2    22    23
    0.00025476144   2   -13    13
    0.00024165844   2   -3    3
    6.6816222e-07   2   -1    1
    1.6391285e-07   2   -2    2
    5.7273876e-09   2   -11    11

DECAY 35  131.91385
    0.83248046   2   -5    5
    0.14122836   2   -15    15
    0.014032456   2    1000023    1000025
    0.010777683   2    1000022    1000025
    0.00042831748   2   -13    13
    0.00036457013   2   -6    6
    0.00035675426   2   -3    3
    0.00015158178   2   -1000024    1000024
    6.4860316e-05   2    1000022    1000022
    5.2926112e-05   2    1000022    1000023
    4.8376663e-05   2    1000025    1000025
    8.4060566e-06   2    21    21
    2.2401841e-06   2    1000023    1000023
    1.4986728e-06   2   -1000015    1000015
    9.8625077e-07   2   -1    1
    2.6776316e-07   2    25    25
    6.6096892e-08   2    23    23
    1.6749307e-08   2   -24    24
    1.589219e-08   2   -1000011    1000011
    1.5639201e-08   2   -1000013    1000013
    9.6193422e-09   2   -11    11
    9.1814102e-09   2    22    22
    6.3633646e-09   2    22    23
    5.9285688e-09   2   -4    4
    2.9395141e-09   2   -2000011    2000011
    2.8985888e-09   2   -2000013    2000013
    1.1948864e-09   2   -2000013    1000013
    1.1948864e-09   2   -1000013    2000013
    3.0566397e-14   2   -2    2
    2.7948907e-14   2   -2000011    1000011
    2.7948907e-14   2   -1000011    2000011

DECAY 36  120.47635
    0.83041608   2   -5    5
    0.14087984   2   -15    15
    0.015260756   2    1000022    1000025
    0.01188464   2    1000023    1000025
    0.00042725045   2   -13    13
    0.00035672606   2   -6    6
    0.00035586847   2   -3    3
    0.00018109713   2   -1000024    1000024
    8.606396e-05   2    1000025    1000025
    8.4201317e-05   2    1000022    1000022
    5.003536e-05   2    1000022    1000023
    1.3780253e-05   2    21    21
    2.5022826e-06   2    1000023    1000023
    9.838039e-07   2   -1    1
    1.3155297e-07   2    23    25
    1.0172326e-08   2    22    22
    9.5953463e-09   2   -11    11
    9.1400961e-09   2    22    23
    5.7511621e-09   2   -4    4
    1.3010732e-09   2   -2000013    1000013
    1.3010732e-09   2   -1000013    2000013
    5.1719632e-14   2    23    35
    3.0432227e-14   2   -2000011    1000011
    3.0432227e-14   2   -1000011    2000011
    2.9652857e-14   2   -2    2
    2.1468448e-39   2    25    25

DECAY 37  135.46707
    0.83083463   2   -5    6
    0.14268644   2   -15    16
    0.024051466   2    1000024    1000025
    0.001231742   2   -5    4
    0.00050444742   2   -13    14
    0.00032041139   2   -3    4
    0.00029158151   2    1000022    1000024
    5.3271964e-05   2    1000023    1000024
    1.5030349e-05   2   -3    2
    8.7959083e-06   2   -5    2
    9.7761747e-07   2   -3    6
    8.8897564e-07   2   -1    2
    1.1703281e-07   2    24    25
    6.079573e-08   2   -1000011    1000012
    6.0449339e-08   2   -1000013    1000014
    4.1789715e-08   2   -1    4
    2.3010956e-08   2   -1    6
    1.1799078e-08   2   -11    12
    2.3575298e-09   2   -2000013    1000014
    5.5145367e-14   2   -2000011    1000012
    2.9636045e-14   2    24    35

DECAY 6  2.43
    1   2    5    24

DECAY 15 -1
