Define dm_incohMix_B_s0 0.0e12
Define dm_incohMix_B0 0.0e12
Alias phiR phi
Alias my_0_1_0_K_10 K_10
Alias my_0_2_0_rho- rho-
Alias my_0_3_0_pi0 pi0
Alias my_1_1_0_K_10 K_10
Alias my_1_2_0_pi0 pi0
Alias my_2_1_0_anti-D*0 anti-D*0
Alias my_2_1_0_pi0 pi0
Alias my_2_2_0_anti-D0 anti-D0
Alias my_3_1_0_anti-D*0 anti-D*0
Alias my_3_1_0_eta eta
Alias my_3_2_0_anti-D0 anti-D0
Alias my_4_1_0_K_10 K_10
Alias my_4_2_0_K*+ K*+
Alias my_4_3_0_pi0 pi0
Alias my_5_1_0_K_10 K_10
Alias my_5_2_0_K*0 K*0
Alias my_5_2_0_pi0 pi0
Alias my_6_1_0_D- D-
Alias my_6_2_0_phi phi
Alias my_6_2_0_pi0 pi0
Alias my_7_1_0_K'_10 K'_10
Alias my_7_2_0_K*+ K*+
Alias my_7_3_0_pi0 pi0
Alias my_8_1_0_K'_10 K'_10
Alias my_8_2_0_K*0 K*0
Alias my_8_2_0_pi0 pi0
Alias my_9_1_0_rho+ rho+
Alias my_9_1_0_D- D-
Alias my_9_2_0_pi0 pi0
Alias my_9_2_0_phiR phiR
Alias my_10_1_0_omega omega
Alias my_10_1_0_K_0*0 K_0*0
Alias my_10_2_0_pi0 pi0
Alias my_11_1_0_omega omega
Alias my_11_1_0_anti-D0 anti-D0
Alias my_11_2_0_pi0 pi0
Alias my_12_1_0_K_2*0 K_2*0
Alias my_12_2_0_rho- rho-
Alias my_12_3_0_pi0 pi0
Alias my_13_1_0_omega omega
Alias my_13_1_0_K_0*0 K_0*0
Alias my_13_2_0_pi0 pi0
Alias my_14_1_0_K_2*0 K_2*0
Alias my_14_2_0_K*0 K*0
Alias my_14_2_0_pi0 pi0
Alias my_15_1_0_K_2*0 K_2*0
Alias my_15_2_0_K*+ K*+
Alias my_15_3_0_pi0 pi0
Alias my_16_1_0_omega omega
Alias my_16_1_0_anti-D0 anti-D0
Alias my_16_2_0_pi0 pi0
Alias my_17_1_0_b_1- b_1-
Alias my_17_2_0_omega omega
Alias my_17_3_0_pi0 pi0
Alias my_18_1_0_J/psi J/psi
Alias my_18_1_0_K*0T K*0T
Alias my_18_2_0_eta eta
Alias my_19_1_0_b_1- b_1-
Alias my_19_2_0_omega omega
Alias my_19_3_0_pi0 pi0
Alias my_20_1_0_b_1+ b_1+
Alias my_20_2_0_omega omega
Alias my_20_3_0_pi0 pi0
Alias my_21_1_0_b_1- b_1-
Alias my_21_2_0_omega omega
Alias my_21_3_0_pi0 pi0
Alias my_22_1_0_omega omega
Alias my_22_2_0_pi0 pi0
Alias my_23_1_0_omega omega
Alias my_23_2_0_pi0 pi0
Alias my_24_1_0_b_1+ b_1+
Alias my_24_2_0_omega omega
Alias my_24_3_0_pi0 pi0
Alias my_25_1_0_b_1- b_1-
Alias my_25_2_0_omega omega
Alias my_25_3_0_pi0 pi0
Alias my_26_1_0_pi0 pi0
Alias my_26_1_0_eta' eta'
Alias my_26_2_0_rho0 rho0
Alias my_27_1_0_K''*0 K''*0
Alias my_27_2_0_rho- rho-
Alias my_27_3_0_pi0 pi0
Alias my_28_1_0_omega omega
Alias my_28_2_0_pi0 pi0
Alias my_29_1_0_anti-D*0 anti-D*0
Alias my_29_1_0_pi0 pi0
Alias my_29_2_0_anti-D0 anti-D0
Alias my_30_1_0_omega omega
Alias my_30_1_0_K_2*0 K_2*0
Alias my_30_2_0_pi0 pi0
Alias my_31_1_0_phi phi
Alias my_31_1_0_pi0 pi0
Alias my_32_1_0_phi phi
Alias my_32_1_0_rho- rho-
Alias my_32_2_0_pi0 pi0
Alias my_33_1_0_omega omega
Alias my_33_2_0_pi0 pi0
Alias my_34_1_0_pi0 pi0
Alias my_34_1_0_eta' eta'
Alias my_35_1_0_K_1+ K_1+
Alias my_35_2_0_omega omega
Alias my_35_3_0_pi0 pi0
Alias my_36_1_0_omega omega
Alias my_36_1_0_anti-D0 anti-D0
Alias my_36_2_0_pi0 pi0
Alias my_37_1_0_omega omega
Alias my_37_1_0_K_2*0 K_2*0
Alias my_37_2_0_pi0 pi0
Alias my_38_1_0_D_s*- D_s*-
Alias my_38_2_0_D_s- D_s-
Alias my_38_3_0_eta eta
Alias my_39_1_0_D_s*+ D_s*+
Alias my_39_2_0_D_s+ D_s+
Alias my_39_3_0_eta eta
Alias my_40_1_0_J/psi J/psi
Alias my_40_2_0_eta eta
Alias my_41_1_0_omega omega
Alias my_41_2_0_pi0 pi0
Alias my_42_1_0_anti-D*0 anti-D*0
Alias my_42_1_0_eta eta
Alias my_42_2_0_anti-D0 anti-D0
Alias my_43_1_0_rho0 rho0
Alias my_43_1_0_anti-D0 anti-D0
Alias my_43_2_0_pi0 pi0
Alias my_44_1_0_K_1+ K_1+
Alias my_44_2_0_omega omega
Alias my_44_3_0_pi0 pi0
Alias my_45_1_0_eta eta
Alias my_45_1_0_eta' eta'
Alias my_45_2_0_rho0 rho0
Alias my_46_1_0_phi phi
Alias my_46_1_0_K_0*0 K_0*0
Alias my_46_1_0_pi0 pi0
Alias my_47_1_0_phi phi
Alias my_47_1_0_K*0 K*0
Alias my_47_1_0_pi0 pi0
Alias my_48_1_0_K'_10 K'_10
Alias my_48_2_0_rho- rho-
Alias my_48_3_0_pi0 pi0
Alias my_49_1_0_K''*0 K''*0
Alias my_49_2_0_K*0 K*0
Alias my_49_2_0_pi0 pi0
Alias my_50_1_0_K''*0 K''*0
Alias my_50_2_0_K*+ K*+
Alias my_50_3_0_pi0 pi0
Alias my_51_1_0_anti-D*0 anti-D*0
Alias my_51_1_0_pi0 pi0
Alias my_51_2_0_anti-D0 anti-D0
Alias my_52_1_0_D*- D*-
Alias my_52_2_0_D- D-
Alias my_52_2_0_pi0 pi0
Alias my_52_3_0_phiR phiR
Alias my_53_1_0_K*0 K*0
Alias my_53_1_0_omega omega
Alias my_53_2_0_pi0 pi0
Alias my_54_1_0_J/psi J/psi
Alias my_54_1_0_K_2*0 K_2*0
Alias my_54_2_0_eta eta
Alias my_55_1_0_D- D-
Alias my_55_2_0_phiR phiR
Alias my_55_3_0_eta eta
Alias my_56_1_0_D- D-
Alias my_56_2_0_phi phi
Alias my_56_2_0_pi0 pi0
Alias my_57_1_0_D*- D*-
Alias my_57_2_0_D- D-
Alias my_57_3_0_eta eta
Alias my_58_1_0_K*0 K*0
Alias my_58_1_0_omega omega
Alias my_58_2_0_pi0 pi0
Alias my_59_1_0_omega omega
Alias my_59_1_0_anti-D0 anti-D0
Alias my_59_2_0_pi0 pi0
Alias my_60_1_0_phi phi
Alias my_60_1_0_K_0*+ K_0*+
Alias my_60_2_0_pi0 pi0
Alias my_61_1_0_phi phi
Alias my_61_1_0_K*+ K*+
Alias my_61_2_0_pi0 pi0
Alias my_62_1_0_omega omega
Alias my_62_2_0_pi0 pi0
Alias my_63_1_0_omega omega
Alias my_63_1_0_rho0 rho0
Alias my_63_2_0_pi0 pi0
Alias my_64_1_0_eta eta
Alias my_64_1_0_eta' eta'
Alias my_65_1_0_phi phi
Alias my_65_2_0_eta eta
Alias my_66_1_0_anti-D0 anti-D0
Alias my_66_1_0_pi0 pi0
Alias my_66_2_0_K*0 K*0
Alias my_67_1_0_anti-D*0 anti-D*0
Alias my_67_1_0_eta eta
Alias my_67_2_0_anti-D0 anti-D0
Alias my_68_1_0_D- D-
Alias my_68_1_0_pi0 pi0
Alias my_68_2_0_phiR phiR
Alias my_69_1_0_omega omega
Alias my_69_1_0_anti-D0 anti-D0
Alias my_69_2_0_pi0 pi0
Alias my_70_1_0_omega omega
Alias my_70_2_0_pi0 pi0
Alias my_71_1_0_omega omega
Alias my_71_1_0_rho0 rho0
Alias my_71_2_0_pi0 pi0
Alias my_72_1_0_D*- D*-
Alias my_72_2_0_anti-D0 anti-D0
Alias my_72_3_0_phi phi
Alias my_72_3_0_pi0 pi0
Alias my_73_1_0_omega omega
Alias my_73_1_0_pi0 pi0
Alias my_74_1_0_omega omega
Alias my_74_1_0_rho- rho-
Alias my_74_2_0_pi0 pi0
Alias my_75_1_0_omega omega
Alias my_75_1_0_rho0 rho0
Alias my_75_1_0_pi0 pi0
Alias my_76_1_0_D- D-
Alias my_76_2_0_omega omega
Alias my_76_3_0_pi0 pi0
Alias my_77_1_0_D_s- D_s-
Alias my_77_2_0_phi phi
Alias my_77_2_0_rho- rho-
Alias my_77_3_0_pi0 pi0
Alias my_78_1_0_anti-D*0 anti-D*0
Alias my_78_1_0_omega omega
Alias my_78_2_0_anti-D0 anti-D0
Alias my_78_2_0_pi0 pi0
Alias my_79_1_0_D*- D*-
Alias my_79_2_0_D- D-
Alias my_79_3_0_pi0 pi0
Alias my_80_1_0_pi0 pi0
Alias my_80_1_0_eta eta
Alias my_81_1_0_D- D-
Alias my_81_2_0_phiR phiR
Alias my_81_3_0_eta eta
Alias my_82_1_0_phi phi
Alias my_82_1_0_K*0 K*0
Alias my_82_2_0_eta eta
Alias my_83_1_0_anti-D*0 anti-D*0
Alias my_83_2_0_anti-D0 anti-D0
Alias my_83_2_0_pi0 pi0
Alias my_84_1_0_phi phi
Alias my_84_1_0_eta eta
Alias my_85_1_0_D- D-
Alias my_85_2_0_omega omega
Alias my_85_3_0_pi0 pi0
Alias my_86_1_0_D_s+ D_s+
Alias my_86_2_0_phi phi
Alias my_86_2_0_rho+ rho+
Alias my_86_3_0_pi0 pi0
Alias my_87_1_0_f_0 f_0
Alias my_87_1_0_omega omega
Alias my_87_2_0_pi0 pi0
Alias my_88_1_0_omega omega
Alias my_88_1_0_K*0 K*0
Alias my_88_1_0_pi0 pi0
Alias my_89_1_0_a_2+ a_2+
Alias my_89_1_0_rho- rho-
Alias my_89_2_0_pi0 pi0
Alias my_90_1_0_a_2- a_2-
Alias my_90_1_0_rho+ rho+
Alias my_90_2_0_pi0 pi0
Alias my_91_1_0_rho0 rho0
Alias my_91_1_0_pi0 pi0
Alias my_92_1_0_rho0 rho0
Alias my_92_1_0_rho- rho-
Alias my_92_2_0_pi0 pi0
Alias my_93_1_0_rho0 rho0
Alias my_93_1_1_rho0 rho0
Alias my_93_1_0_pi0 pi0
Alias my_94_1_0_anti-D0 anti-D0
Alias my_94_1_0_eta eta
Alias my_94_2_0_K*0 K*0
Alias my_95_1_0_phi phi
Alias my_95_2_0_eta eta
Alias my_96_1_0_phi phi
Alias my_96_1_0_K*0 K*0
Alias my_96_1_0_eta eta
Alias my_97_1_0_f_0 f_0
Alias my_97_1_0_omega omega
Alias my_97_2_0_pi0 pi0
Alias my_98_1_0_omega omega
Alias my_98_1_0_f_0 f_0
Alias my_98_1_0_pi0 pi0
Alias my_99_1_0_anti-D0 anti-D0
Alias my_99_1_0_pi0 pi0
Alias my_99_2_0_omega omega
Alias my_100_1_0_omega omega
Alias my_100_1_0_anti-D0 anti-D0
Alias my_100_2_0_pi0 pi0
Alias my_101_1_0_J/psi J/psi
Alias my_101_1_0_K*0T K*0T
Alias my_101_2_0_pi0 pi0
Alias my_102_1_0_anti-D0 anti-D0
Alias my_102_2_0_phi phi
Alias my_102_2_0_pi0 pi0
Alias my_103_1_0_anti-D*0 anti-D*0
Alias my_103_1_0_rho0 rho0
Alias my_103_2_0_anti-D0 anti-D0
Alias my_103_2_0_pi0 pi0
Alias my_104_1_0_K*0 K*0
Alias my_104_1_0_b_10 b_10
Alias my_104_2_0_omega omega
Alias my_104_2_0_pi0 pi0
Alias my_105_1_0_f_1 f_1
Alias my_105_1_0_pi0 pi0
Alias my_105_2_0_rho0 rho0
Alias my_106_1_0_rho0 rho0
Alias my_106_1_0_K_0*0 K_0*0
Alias my_106_1_0_pi0 pi0
Alias my_107_1_0_rho0 rho0
Alias my_107_1_0_K*0 K*0
Alias my_107_1_0_pi0 pi0
Alias my_108_1_0_anti-D0 anti-D0
Alias my_108_1_0_pi0 pi0
Alias my_108_2_0_a_1- a_1-
Alias my_108_3_0_rho0 rho0
Alias my_109_1_0_phi phi
Alias my_109_1_0_K*0 K*0
Alias my_109_2_0_eta eta
Alias my_110_1_0_D- D-
Alias my_110_1_0_omega omega
Alias my_110_2_0_eta eta
Alias my_111_1_0_phi phi
Alias my_111_1_0_pi0 pi0
Alias my_112_1_0_phi phi
Alias my_112_1_0_rho- rho-
Alias my_112_2_0_pi0 pi0
Alias my_113_1_0_phi phi
Alias my_113_1_0_rho+ rho+
Alias my_113_2_0_pi0 pi0
Alias my_114_1_0_phi phi
Alias my_114_1_0_rho0 rho0
Alias my_114_1_0_pi0 pi0
Alias my_115_1_0_K'*+ K'*+
Alias my_115_2_0_K*+ K*+
Alias my_115_2_0_pi0 pi0
Alias my_116_1_0_omega omega
Alias my_116_1_0_anti-D0 anti-D0
Alias my_116_2_0_pi0 pi0
Alias my_117_1_0_omega omega
Alias my_117_1_0_anti-D0 anti-D0
Alias my_117_2_0_pi0 pi0
Alias my_118_1_0_D_s*- D_s*-
Alias my_118_2_0_D_s- D_s-
Alias my_118_3_0_eta eta
Alias my_119_1_0_D- D-
Alias my_119_1_0_omega omega
Alias my_119_2_0_pi0 pi0
Alias my_120_1_0_pi0 pi0
Alias my_120_1_0_eta eta
Alias my_121_1_0_D_s*+ D_s*+
Alias my_121_2_0_D_s+ D_s+
Alias my_121_3_0_eta eta
Alias my_122_1_0_a_2+ a_2+
Alias my_122_1_0_rho- rho-
Alias my_122_2_0_rho0 rho0
Alias my_122_2_0_pi0 pi0
Alias my_123_1_0_a_2- a_2-
Alias my_123_1_0_rho+ rho+
Alias my_123_2_0_rho0 rho0
Alias my_123_2_0_pi0 pi0
Alias my_124_1_0_omega omega
Alias my_124_1_0_K*+ K*+
Alias my_124_2_0_pi0 pi0
Alias my_125_1_0_phi phi
Alias my_125_1_0_K_0*0 K_0*0
Alias my_125_2_0_eta eta
Alias my_126_1_0_K*+ K*+
Alias my_126_1_0_D- D-
Alias my_126_2_0_pi0 pi0
Alias my_126_2_0_phiR phiR
Alias my_127_1_0_rho0 rho0
Alias my_127_1_0_f_0 f_0
Alias my_127_1_0_pi0 pi0
Alias my_128_1_0_rho0 rho0
Alias my_128_1_0_anti-D0 anti-D0
Alias my_128_2_0_pi0 pi0
Alias my_129_1_0_J/psi J/psi
Alias my_129_1_0_K*0T K*0T
Alias my_129_2_0_rho0 rho0
Alias my_129_2_0_pi0 pi0
Alias my_130_1_0_rho- rho-
Alias my_130_1_0_b_1+ b_1+
Alias my_130_2_0_pi0 pi0
Alias my_130_2_0_omega omega
Alias my_131_1_0_rho+ rho+
Alias my_131_1_0_b_1- b_1-
Alias my_131_2_0_pi0 pi0
Alias my_131_2_0_omega omega
Alias my_132_1_0_K'_1+ K'_1+
Alias my_132_2_0_omega omega
Alias my_132_3_0_pi0 pi0
Alias my_133_1_0_K_2*0 K_2*0
Alias my_133_1_0_phi phi
Alias my_133_2_0_eta eta
Alias my_134_1_0_phi phi
Alias my_134_1_0_K''*0 K''*0
Alias my_134_2_0_rho- rho-
Alias my_134_3_0_pi0 pi0
Alias my_135_1_0_rho- rho-
Alias my_135_1_0_D_s+ D_s+
Alias my_135_2_0_pi0 pi0
Alias my_135_2_0_phiR phiR
Alias my_136_1_0_J/psi J/psi
Alias my_136_1_0_rho0 rho0
Alias my_136_2_0_eta eta
Alias my_137_1_0_f_1 f_1
Alias my_137_1_0_eta eta
Alias my_137_2_0_rho0 rho0
Alias my_138_1_0_a_10 a_10
Alias my_138_1_0_omega omega
Alias my_138_2_0_rho+ rho+
Alias my_138_3_0_pi0 pi0
Alias my_139_1_0_a_10 a_10
Alias my_139_1_0_omega omega
Alias my_139_2_0_rho- rho-
Alias my_139_3_0_pi0 pi0
Alias my_140_1_0_a_10 a_10
Alias my_140_1_0_omega omega
Alias my_140_2_0_rho0 rho0
Alias my_140_2_0_pi0 pi0
Alias my_141_1_0_K'_1+ K'_1+
Alias my_141_2_0_omega omega
Alias my_141_3_0_pi0 pi0
Alias my_142_1_0_eta eta
Alias my_142_1_1_eta eta
Alias cc_my_0_1_0_K_10 anti-K_10
Alias cc_my_0_2_0_rho- rho+
Alias cc_my_1_1_0_K_10 anti-K_10
Alias cc_my_2_1_0_anti-D*0 D*0
Alias cc_my_2_2_0_anti-D0 D0
Alias cc_my_3_1_0_anti-D*0 D*0
Alias cc_my_3_2_0_anti-D0 D0
Alias cc_my_4_1_0_K_10 anti-K_10
Alias cc_my_4_2_0_K*+ K*-
Alias cc_my_5_1_0_K_10 anti-K_10
Alias cc_my_5_2_0_K*0 anti-K*0
Alias cc_my_6_1_0_D- D+
Alias cc_my_7_1_0_K'_10 anti-K'_10
Alias cc_my_7_2_0_K*+ K*-
Alias cc_my_8_1_0_K'_10 anti-K'_10
Alias cc_my_8_2_0_K*0 anti-K*0
Alias cc_my_9_1_0_rho+ rho-
Alias cc_my_9_1_0_D- D+
Alias cc_my_10_1_0_K_0*0 anti-K_0*0
Alias cc_my_11_1_0_anti-D0 D0
Alias cc_my_12_1_0_K_2*0 anti-K_2*0
Alias cc_my_12_2_0_rho- rho+
Alias cc_my_13_1_0_K_0*0 anti-K_0*0
Alias cc_my_14_1_0_K_2*0 anti-K_2*0
Alias cc_my_14_2_0_K*0 anti-K*0
Alias cc_my_15_1_0_K_2*0 anti-K_2*0
Alias cc_my_15_2_0_K*+ K*-
Alias cc_my_16_1_0_anti-D0 D0
Alias cc_my_17_1_0_b_1- b_1+
Alias cc_my_18_1_0_K*0T anti-K*0T
Alias cc_my_19_1_0_b_1- b_1+
Alias cc_my_20_1_0_b_1+ b_1-
Alias cc_my_21_1_0_b_1- b_1+
Alias cc_my_24_1_0_b_1+ b_1-
Alias cc_my_25_1_0_b_1- b_1+
Alias cc_my_27_1_0_K''*0 anti-K''*0
Alias cc_my_27_2_0_rho- rho+
Alias cc_my_29_1_0_anti-D*0 D*0
Alias cc_my_29_2_0_anti-D0 D0
Alias cc_my_30_1_0_K_2*0 anti-K_2*0
Alias cc_my_32_1_0_rho- rho+
Alias cc_my_35_1_0_K_1+ K_1-
Alias cc_my_36_1_0_anti-D0 D0
Alias cc_my_37_1_0_K_2*0 anti-K_2*0
Alias cc_my_38_1_0_D_s*- D_s*+
Alias cc_my_38_2_0_D_s- D_s+
Alias cc_my_39_1_0_D_s*+ D_s*-
Alias cc_my_39_2_0_D_s+ D_s-
Alias cc_my_42_1_0_anti-D*0 D*0
Alias cc_my_42_2_0_anti-D0 D0
Alias cc_my_43_1_0_anti-D0 D0
Alias cc_my_44_1_0_K_1+ K_1-
Alias cc_my_46_1_0_K_0*0 anti-K_0*0
Alias cc_my_47_1_0_K*0 anti-K*0
Alias cc_my_48_1_0_K'_10 anti-K'_10
Alias cc_my_48_2_0_rho- rho+
Alias cc_my_49_1_0_K''*0 anti-K''*0
Alias cc_my_49_2_0_K*0 anti-K*0
Alias cc_my_50_1_0_K''*0 anti-K''*0
Alias cc_my_50_2_0_K*+ K*-
Alias cc_my_51_1_0_anti-D*0 D*0
Alias cc_my_51_2_0_anti-D0 D0
Alias cc_my_52_1_0_D*- D*+
Alias cc_my_52_2_0_D- D+
Alias cc_my_53_1_0_K*0 anti-K*0
Alias cc_my_54_1_0_K_2*0 anti-K_2*0
Alias cc_my_55_1_0_D- D+
Alias cc_my_56_1_0_D- D+
Alias cc_my_57_1_0_D*- D*+
Alias cc_my_57_2_0_D- D+
Alias cc_my_58_1_0_K*0 anti-K*0
Alias cc_my_59_1_0_anti-D0 D0
Alias cc_my_60_1_0_K_0*+ K_0*-
Alias cc_my_61_1_0_K*+ K*-
Alias cc_my_66_1_0_anti-D0 D0
Alias cc_my_66_2_0_K*0 anti-K*0
Alias cc_my_67_1_0_anti-D*0 D*0
Alias cc_my_67_2_0_anti-D0 D0
Alias cc_my_68_1_0_D- D+
Alias cc_my_69_1_0_anti-D0 D0
Alias cc_my_72_1_0_D*- D*+
Alias cc_my_72_2_0_anti-D0 D0
Alias cc_my_74_1_0_rho- rho+
Alias cc_my_76_1_0_D- D+
Alias cc_my_77_1_0_D_s- D_s+
Alias cc_my_77_2_0_rho- rho+
Alias cc_my_78_1_0_anti-D*0 D*0
Alias cc_my_78_2_0_anti-D0 D0
Alias cc_my_79_1_0_D*- D*+
Alias cc_my_79_2_0_D- D+
Alias cc_my_81_1_0_D- D+
Alias cc_my_82_1_0_K*0 anti-K*0
Alias cc_my_83_1_0_anti-D*0 D*0
Alias cc_my_83_2_0_anti-D0 D0
Alias cc_my_85_1_0_D- D+
Alias cc_my_86_1_0_D_s+ D_s-
Alias cc_my_86_2_0_rho+ rho-
Alias cc_my_88_1_0_K*0 anti-K*0
Alias cc_my_89_1_0_a_2+ a_2-
Alias cc_my_89_1_0_rho- rho+
Alias cc_my_90_1_0_a_2- a_2+
Alias cc_my_90_1_0_rho+ rho-
Alias cc_my_92_1_0_rho- rho+
Alias cc_my_94_1_0_anti-D0 D0
Alias cc_my_94_2_0_K*0 anti-K*0
Alias cc_my_96_1_0_K*0 anti-K*0
Alias cc_my_99_1_0_anti-D0 D0
Alias cc_my_100_1_0_anti-D0 D0
Alias cc_my_101_1_0_K*0T anti-K*0T
Alias cc_my_102_1_0_anti-D0 D0
Alias cc_my_103_1_0_anti-D*0 D*0
Alias cc_my_103_2_0_anti-D0 D0
Alias cc_my_104_1_0_K*0 anti-K*0
Alias cc_my_106_1_0_K_0*0 anti-K_0*0
Alias cc_my_107_1_0_K*0 anti-K*0
Alias cc_my_108_1_0_anti-D0 D0
Alias cc_my_108_2_0_a_1- a_1+
Alias cc_my_109_1_0_K*0 anti-K*0
Alias cc_my_110_1_0_D- D+
Alias cc_my_112_1_0_rho- rho+
Alias cc_my_113_1_0_rho+ rho-
Alias cc_my_115_1_0_K'*+ K'*-
Alias cc_my_115_2_0_K*+ K*-
Alias cc_my_116_1_0_anti-D0 D0
Alias cc_my_117_1_0_anti-D0 D0
Alias cc_my_118_1_0_D_s*- D_s*+
Alias cc_my_118_2_0_D_s- D_s+
Alias cc_my_119_1_0_D- D+
Alias cc_my_121_1_0_D_s*+ D_s*-
Alias cc_my_121_2_0_D_s+ D_s-
Alias cc_my_122_1_0_a_2+ a_2-
Alias cc_my_122_1_0_rho- rho+
Alias cc_my_123_1_0_a_2- a_2+
Alias cc_my_123_1_0_rho+ rho-
Alias cc_my_124_1_0_K*+ K*-
Alias cc_my_125_1_0_K_0*0 anti-K_0*0
Alias cc_my_126_1_0_K*+ K*-
Alias cc_my_126_1_0_D- D+
Alias cc_my_128_1_0_anti-D0 D0
Alias cc_my_129_1_0_K*0T anti-K*0T
Alias cc_my_130_1_0_rho- rho+
Alias cc_my_130_1_0_b_1+ b_1-
Alias cc_my_131_1_0_rho+ rho-
Alias cc_my_131_1_0_b_1- b_1+
Alias cc_my_132_1_0_K'_1+ K'_1-
Alias cc_my_133_1_0_K_2*0 anti-K_2*0
Alias cc_my_134_1_0_K''*0 anti-K''*0
Alias cc_my_134_2_0_rho- rho+
Alias cc_my_135_1_0_rho- rho+
Alias cc_my_135_1_0_D_s+ D_s-
Alias cc_my_138_2_0_rho+ rho-
Alias cc_my_139_2_0_rho- rho+
Alias cc_my_141_1_0_K'_1+ K'_1-
ChargeConj my_0_1_0_K_10 cc_my_0_1_0_K_10
ChargeConj my_0_2_0_rho- cc_my_0_2_0_rho-
ChargeConj my_1_1_0_K_10 cc_my_1_1_0_K_10
ChargeConj my_2_1_0_anti-D*0 cc_my_2_1_0_anti-D*0
ChargeConj my_2_2_0_anti-D0 cc_my_2_2_0_anti-D0
ChargeConj my_3_1_0_anti-D*0 cc_my_3_1_0_anti-D*0
ChargeConj my_3_2_0_anti-D0 cc_my_3_2_0_anti-D0
ChargeConj my_4_1_0_K_10 cc_my_4_1_0_K_10
ChargeConj my_4_2_0_K*+ cc_my_4_2_0_K*+
ChargeConj my_5_1_0_K_10 cc_my_5_1_0_K_10
ChargeConj my_5_2_0_K*0 cc_my_5_2_0_K*0
ChargeConj my_6_1_0_D- cc_my_6_1_0_D-
ChargeConj my_7_1_0_K'_10 cc_my_7_1_0_K'_10
ChargeConj my_7_2_0_K*+ cc_my_7_2_0_K*+
ChargeConj my_8_1_0_K'_10 cc_my_8_1_0_K'_10
ChargeConj my_8_2_0_K*0 cc_my_8_2_0_K*0
ChargeConj my_9_1_0_rho+ cc_my_9_1_0_rho+
ChargeConj my_9_1_0_D- cc_my_9_1_0_D-
ChargeConj my_10_1_0_K_0*0 cc_my_10_1_0_K_0*0
ChargeConj my_11_1_0_anti-D0 cc_my_11_1_0_anti-D0
ChargeConj my_12_1_0_K_2*0 cc_my_12_1_0_K_2*0
ChargeConj my_12_2_0_rho- cc_my_12_2_0_rho-
ChargeConj my_13_1_0_K_0*0 cc_my_13_1_0_K_0*0
ChargeConj my_14_1_0_K_2*0 cc_my_14_1_0_K_2*0
ChargeConj my_14_2_0_K*0 cc_my_14_2_0_K*0
ChargeConj my_15_1_0_K_2*0 cc_my_15_1_0_K_2*0
ChargeConj my_15_2_0_K*+ cc_my_15_2_0_K*+
ChargeConj my_16_1_0_anti-D0 cc_my_16_1_0_anti-D0
ChargeConj my_17_1_0_b_1- cc_my_17_1_0_b_1-
ChargeConj my_18_1_0_K*0T cc_my_18_1_0_K*0T
ChargeConj my_19_1_0_b_1- cc_my_19_1_0_b_1-
ChargeConj my_20_1_0_b_1+ cc_my_20_1_0_b_1+
ChargeConj my_21_1_0_b_1- cc_my_21_1_0_b_1-
ChargeConj my_24_1_0_b_1+ cc_my_24_1_0_b_1+
ChargeConj my_25_1_0_b_1- cc_my_25_1_0_b_1-
ChargeConj my_27_1_0_K''*0 cc_my_27_1_0_K''*0
ChargeConj my_27_2_0_rho- cc_my_27_2_0_rho-
ChargeConj my_29_1_0_anti-D*0 cc_my_29_1_0_anti-D*0
ChargeConj my_29_2_0_anti-D0 cc_my_29_2_0_anti-D0
ChargeConj my_30_1_0_K_2*0 cc_my_30_1_0_K_2*0
ChargeConj my_32_1_0_rho- cc_my_32_1_0_rho-
ChargeConj my_35_1_0_K_1+ cc_my_35_1_0_K_1+
ChargeConj my_36_1_0_anti-D0 cc_my_36_1_0_anti-D0
ChargeConj my_37_1_0_K_2*0 cc_my_37_1_0_K_2*0
ChargeConj my_38_1_0_D_s*- cc_my_38_1_0_D_s*-
ChargeConj my_38_2_0_D_s- cc_my_38_2_0_D_s-
ChargeConj my_39_1_0_D_s*+ cc_my_39_1_0_D_s*+
ChargeConj my_39_2_0_D_s+ cc_my_39_2_0_D_s+
ChargeConj my_42_1_0_anti-D*0 cc_my_42_1_0_anti-D*0
ChargeConj my_42_2_0_anti-D0 cc_my_42_2_0_anti-D0
ChargeConj my_43_1_0_anti-D0 cc_my_43_1_0_anti-D0
ChargeConj my_44_1_0_K_1+ cc_my_44_1_0_K_1+
ChargeConj my_46_1_0_K_0*0 cc_my_46_1_0_K_0*0
ChargeConj my_47_1_0_K*0 cc_my_47_1_0_K*0
ChargeConj my_48_1_0_K'_10 cc_my_48_1_0_K'_10
ChargeConj my_48_2_0_rho- cc_my_48_2_0_rho-
ChargeConj my_49_1_0_K''*0 cc_my_49_1_0_K''*0
ChargeConj my_49_2_0_K*0 cc_my_49_2_0_K*0
ChargeConj my_50_1_0_K''*0 cc_my_50_1_0_K''*0
ChargeConj my_50_2_0_K*+ cc_my_50_2_0_K*+
ChargeConj my_51_1_0_anti-D*0 cc_my_51_1_0_anti-D*0
ChargeConj my_51_2_0_anti-D0 cc_my_51_2_0_anti-D0
ChargeConj my_52_1_0_D*- cc_my_52_1_0_D*-
ChargeConj my_52_2_0_D- cc_my_52_2_0_D-
ChargeConj my_53_1_0_K*0 cc_my_53_1_0_K*0
ChargeConj my_54_1_0_K_2*0 cc_my_54_1_0_K_2*0
ChargeConj my_55_1_0_D- cc_my_55_1_0_D-
ChargeConj my_56_1_0_D- cc_my_56_1_0_D-
ChargeConj my_57_1_0_D*- cc_my_57_1_0_D*-
ChargeConj my_57_2_0_D- cc_my_57_2_0_D-
ChargeConj my_58_1_0_K*0 cc_my_58_1_0_K*0
ChargeConj my_59_1_0_anti-D0 cc_my_59_1_0_anti-D0
ChargeConj my_60_1_0_K_0*+ cc_my_60_1_0_K_0*+
ChargeConj my_61_1_0_K*+ cc_my_61_1_0_K*+
ChargeConj my_66_1_0_anti-D0 cc_my_66_1_0_anti-D0
ChargeConj my_66_2_0_K*0 cc_my_66_2_0_K*0
ChargeConj my_67_1_0_anti-D*0 cc_my_67_1_0_anti-D*0
ChargeConj my_67_2_0_anti-D0 cc_my_67_2_0_anti-D0
ChargeConj my_68_1_0_D- cc_my_68_1_0_D-
ChargeConj my_69_1_0_anti-D0 cc_my_69_1_0_anti-D0
ChargeConj my_72_1_0_D*- cc_my_72_1_0_D*-
ChargeConj my_72_2_0_anti-D0 cc_my_72_2_0_anti-D0
ChargeConj my_74_1_0_rho- cc_my_74_1_0_rho-
ChargeConj my_76_1_0_D- cc_my_76_1_0_D-
ChargeConj my_77_1_0_D_s- cc_my_77_1_0_D_s-
ChargeConj my_77_2_0_rho- cc_my_77_2_0_rho-
ChargeConj my_78_1_0_anti-D*0 cc_my_78_1_0_anti-D*0
ChargeConj my_78_2_0_anti-D0 cc_my_78_2_0_anti-D0
ChargeConj my_79_1_0_D*- cc_my_79_1_0_D*-
ChargeConj my_79_2_0_D- cc_my_79_2_0_D-
ChargeConj my_81_1_0_D- cc_my_81_1_0_D-
ChargeConj my_82_1_0_K*0 cc_my_82_1_0_K*0
ChargeConj my_83_1_0_anti-D*0 cc_my_83_1_0_anti-D*0
ChargeConj my_83_2_0_anti-D0 cc_my_83_2_0_anti-D0
ChargeConj my_85_1_0_D- cc_my_85_1_0_D-
ChargeConj my_86_1_0_D_s+ cc_my_86_1_0_D_s+
ChargeConj my_86_2_0_rho+ cc_my_86_2_0_rho+
ChargeConj my_88_1_0_K*0 cc_my_88_1_0_K*0
ChargeConj my_89_1_0_a_2+ cc_my_89_1_0_a_2+
ChargeConj my_89_1_0_rho- cc_my_89_1_0_rho-
ChargeConj my_90_1_0_a_2- cc_my_90_1_0_a_2-
ChargeConj my_90_1_0_rho+ cc_my_90_1_0_rho+
ChargeConj my_92_1_0_rho- cc_my_92_1_0_rho-
ChargeConj my_94_1_0_anti-D0 cc_my_94_1_0_anti-D0
ChargeConj my_94_2_0_K*0 cc_my_94_2_0_K*0
ChargeConj my_96_1_0_K*0 cc_my_96_1_0_K*0
ChargeConj my_99_1_0_anti-D0 cc_my_99_1_0_anti-D0
ChargeConj my_100_1_0_anti-D0 cc_my_100_1_0_anti-D0
ChargeConj my_101_1_0_K*0T cc_my_101_1_0_K*0T
ChargeConj my_102_1_0_anti-D0 cc_my_102_1_0_anti-D0
ChargeConj my_103_1_0_anti-D*0 cc_my_103_1_0_anti-D*0
ChargeConj my_103_2_0_anti-D0 cc_my_103_2_0_anti-D0
ChargeConj my_104_1_0_K*0 cc_my_104_1_0_K*0
ChargeConj my_106_1_0_K_0*0 cc_my_106_1_0_K_0*0
ChargeConj my_107_1_0_K*0 cc_my_107_1_0_K*0
ChargeConj my_108_1_0_anti-D0 cc_my_108_1_0_anti-D0
ChargeConj my_108_2_0_a_1- cc_my_108_2_0_a_1-
ChargeConj my_109_1_0_K*0 cc_my_109_1_0_K*0
ChargeConj my_110_1_0_D- cc_my_110_1_0_D-
ChargeConj my_112_1_0_rho- cc_my_112_1_0_rho-
ChargeConj my_113_1_0_rho+ cc_my_113_1_0_rho+
ChargeConj my_115_1_0_K'*+ cc_my_115_1_0_K'*+
ChargeConj my_115_2_0_K*+ cc_my_115_2_0_K*+
ChargeConj my_116_1_0_anti-D0 cc_my_116_1_0_anti-D0
ChargeConj my_117_1_0_anti-D0 cc_my_117_1_0_anti-D0
ChargeConj my_118_1_0_D_s*- cc_my_118_1_0_D_s*-
ChargeConj my_118_2_0_D_s- cc_my_118_2_0_D_s-
ChargeConj my_119_1_0_D- cc_my_119_1_0_D-
ChargeConj my_121_1_0_D_s*+ cc_my_121_1_0_D_s*+
ChargeConj my_121_2_0_D_s+ cc_my_121_2_0_D_s+
ChargeConj my_122_1_0_a_2+ cc_my_122_1_0_a_2+
ChargeConj my_122_1_0_rho- cc_my_122_1_0_rho-
ChargeConj my_123_1_0_a_2- cc_my_123_1_0_a_2-
ChargeConj my_123_1_0_rho+ cc_my_123_1_0_rho+
ChargeConj my_124_1_0_K*+ cc_my_124_1_0_K*+
ChargeConj my_125_1_0_K_0*0 cc_my_125_1_0_K_0*0
ChargeConj my_126_1_0_K*+ cc_my_126_1_0_K*+
ChargeConj my_126_1_0_D- cc_my_126_1_0_D-
ChargeConj my_128_1_0_anti-D0 cc_my_128_1_0_anti-D0
ChargeConj my_129_1_0_K*0T cc_my_129_1_0_K*0T
ChargeConj my_130_1_0_rho- cc_my_130_1_0_rho-
ChargeConj my_130_1_0_b_1+ cc_my_130_1_0_b_1+
ChargeConj my_131_1_0_rho+ cc_my_131_1_0_rho+
ChargeConj my_131_1_0_b_1- cc_my_131_1_0_b_1-
ChargeConj my_132_1_0_K'_1+ cc_my_132_1_0_K'_1+
ChargeConj my_133_1_0_K_2*0 cc_my_133_1_0_K_2*0
ChargeConj my_134_1_0_K''*0 cc_my_134_1_0_K''*0
ChargeConj my_134_2_0_rho- cc_my_134_2_0_rho-
ChargeConj my_135_1_0_rho- cc_my_135_1_0_rho-
ChargeConj my_135_1_0_D_s+ cc_my_135_1_0_D_s+
ChargeConj my_138_2_0_rho+ cc_my_138_2_0_rho+
ChargeConj my_139_2_0_rho- cc_my_139_2_0_rho-
ChargeConj my_141_1_0_K'_1+ cc_my_141_1_0_K'_1+
Decay B0
0.2435942795  my_0_1_0_K_10 gamma  SVP_HELAMP 1.0 0.0 1.0 0.0;
0.1082741820  my_1_1_0_K_10 gamma  SVP_HELAMP 1.0 0.0 1.0 0.0;
0.0628533013  my_2_1_0_anti-D*0 my_2_1_0_pi0  SVS;
0.0380710867  my_3_1_0_anti-D*0 my_3_1_0_eta  SVS;
0.0309255567  my_4_1_0_K_10 gamma  SVP_HELAMP 1.0 0.0 1.0 0.0;
0.0308823469  my_5_1_0_K_10 gamma  SVP_HELAMP 1.0 0.0 1.0 0.0;
0.0291893003  my_6_1_0_D- pi+  PHSP;
0.0276018733  my_7_1_0_K'_10 gamma  SVP_HELAMP 1.0 0.0 1.0 0.0;
0.0271512409  my_8_1_0_K'_10 gamma  SVP_HELAMP 1.0 0.0 1.0 0.0;
0.0206178931  my_9_1_0_rho+ my_9_1_0_D-  SVS;
0.0178779143  my_10_1_0_omega my_10_1_0_K_0*0  PHSP;
0.0168117036  my_11_1_0_omega my_11_1_0_anti-D0  SVS;
0.0145157103  my_12_1_0_K_2*0 gamma  HELAMP 1.0 0.0 1.0 0.0;
0.0139968813  my_13_1_0_omega my_13_1_0_K_0*0  PHSP;
0.0139178069  my_14_1_0_K_2*0 gamma  HELAMP 1.0 0.0 1.0 0.0;
0.0137157719  my_15_1_0_K_2*0 gamma  HELAMP 1.0 0.0 1.0 0.0;
0.0131621294  my_16_1_0_omega my_16_1_0_anti-D0  SVS;
0.0123823394  my_17_1_0_b_1- K+  SVS;
0.0112826880  my_18_1_0_J/psi my_18_1_0_K*0T  SVV_HELAMP 0.612 2.712 0.775 0.0 0.159 1.563;
0.0096943152  my_19_1_0_b_1- K+  SVS;
0.0092030901  my_20_1_0_b_1+ pi-  SVS;
0.0092030901  my_21_1_0_b_1- pi+  SVS;
0.0085474504  my_22_1_0_omega K+ pi-  PHSP;
0.0080422302  my_23_1_0_omega gamma  SVP_HELAMP 1.0 0.0 1.0 0.0;
0.0072052342  my_24_1_0_b_1+ pi-  SVS;
0.0072052342  my_25_1_0_b_1- pi+  SVS;
0.0071217363  my_26_1_0_pi0 my_26_1_0_eta'  SSD_CP 507000000000.0 0.0 1.0 -0.78 1.0 1.387 1.0 -1.387;
0.0068548321  my_27_1_0_K''*0 gamma  SVP_HELAMP 1.0 0.0 1.0 0.0;
0.0066919243  my_28_1_0_omega K+ pi-  PHSP;
0.0064921891  my_29_1_0_anti-D*0 my_29_1_0_pi0  SVS;
0.0056537194  my_30_1_0_omega my_30_1_0_K_2*0  PHSP;
0.0050338539  my_31_1_0_phi K+ pi- my_31_1_0_pi0  PHSP;
0.0050315887  my_32_1_0_phi K+ my_32_1_0_rho-  PHSP;
0.0050279120  my_33_1_0_omega pi+ pi-  PHSP;
0.0049077520  my_34_1_0_pi0 my_34_1_0_eta'  SSD_CP 507000000000.0 0.0 1.0 -0.78 1.0 1.387 1.0 -1.387;
0.0046457907  my_35_1_0_K_1+ pi-  SVS;
0.0045366179  my_36_1_0_omega my_36_1_0_anti-D0  SVS;
0.0044263799  my_37_1_0_omega my_37_1_0_K_2*0  PHSP;
0.0042332587  my_38_1_0_D_s*- K+  SVS;
0.0040592892  my_39_1_0_D_s*+ pi-  SVS;
0.0040422168  my_40_1_0_J/psi K+ pi-  PHSP;
0.0039364260  my_41_1_0_omega pi+ pi-  PHSP;
0.0039324059  my_42_1_0_anti-D*0 my_42_1_0_eta  SVS;
0.0036980107  my_43_1_0_rho0 my_43_1_0_anti-D0  SVS;
0.0036372577  my_44_1_0_K_1+ pi-  SVS;
0.0035391538  my_45_1_0_eta my_45_1_0_eta'  SSD_CP 507000000000.0 0.0 1.0 -0.78 1.0 1.387 1.0 -1.387;
0.0033560704  my_46_1_0_phi my_46_1_0_K_0*0 my_46_1_0_pi0  PHSP;
0.0033510366  my_47_1_0_phi my_47_1_0_K*0 my_47_1_0_pi0  PHSP;
0.0026301708  my_48_1_0_K'_10 gamma  SVP_HELAMP 1.0 0.0 1.0 0.0;
0.0023983372  my_49_1_0_K''*0 gamma  SVP_HELAMP 1.0 0.0 1.0 0.0;
0.0023982961  my_50_1_0_K''*0 gamma  SVP_HELAMP 1.0 0.0 1.0 0.0;
0.0023152292  my_51_1_0_anti-D*0 my_51_1_0_pi0  SVS;
0.0022929325  my_52_1_0_D*- pi+  SVS;
0.0022760151  my_53_1_0_K*0 my_53_1_0_omega  SVV_HELAMP 1.0 0.0 1.7 0.0 1.0 0.0;
0.0022254427  my_54_1_0_J/psi my_54_1_0_K_2*0  PHSP;
0.0021544653  my_55_1_0_D- pi+  PHSP;
0.0021529038  my_56_1_0_D- K+  PHSP;
0.0019969507  my_57_1_0_D*- pi+  SVS;
0.0017819256  my_58_1_0_K*0 my_58_1_0_omega  SVV_HELAMP 1.0 0.0 1.7 0.0 1.0 0.0;
0.0017365000  my_59_1_0_omega my_59_1_0_anti-D0  SVS;
0.0016777835  my_60_1_0_phi my_60_1_0_K_0*+ pi-  PHSP;
0.0016762901  my_61_1_0_phi my_61_1_0_K*+ pi-  PHSP;
0.0016759707  K+ K- my_62_1_0_omega  PHSP;
0.0016742126  my_63_1_0_omega my_63_1_0_rho0  SVV_HELAMP 1.0 0.0 1.7 0.0 1.0 0.0;
0.0016268485  my_64_1_0_eta my_64_1_0_eta'  SSD_CP 507000000000.0 0.0 1.0 -0.78 1.0 1.387 1.0 -1.387;
0.0015800489  my_65_1_0_phi K+ pi-  PHSP;
0.0014882868  my_66_1_0_anti-D0 my_66_1_0_pi0  PHSP;
0.0014023653  my_67_1_0_anti-D*0 my_67_1_0_eta  SVS;
0.0013615944  my_68_1_0_D- pi+ my_68_1_0_pi0  PHSP;
0.0013595313  my_69_1_0_omega my_69_1_0_anti-D0  SVS;
0.0013121420  K+ K- my_70_1_0_omega  PHSP;
0.0013107656  my_71_1_0_omega my_71_1_0_rho0  SVV_HELAMP 1.0 0.0 1.7 0.0 1.0 0.0;
0.0012599529  my_72_1_0_D*- pi+  SVS;
0.0012405706  my_73_1_0_omega K+ pi- my_73_1_0_pi0  PHSP;
0.0012400124  my_74_1_0_omega my_74_1_0_rho- pi+  PHSP;
0.0012392693  my_75_1_0_omega my_75_1_0_rho0 my_75_1_0_pi0  PHSP;
0.0011830952  my_76_1_0_D- pi+  PHSP;
0.0011614517  my_77_1_0_D_s- K+  PHSP;
0.0011546197  my_78_1_0_anti-D*0 my_78_1_0_omega  SVV_HELAMP 0.283 0.0 0.932 0.0 0.228 0.0;
0.0011076375  my_79_1_0_D*- pi+  SVS;
0.0010800700  my_80_1_0_pi0 my_80_1_0_eta  SSD_CP 507000000000.0 0.0 1.0 -0.78 1.0 1.387 1.0 -1.387;
0.0010612622  my_81_1_0_D- pi+  PHSP;
0.0010560459  my_82_1_0_phi my_82_1_0_K*0  SVV_HELAMP 1.0 0.0 1.7 0.0 1.0 0.0;
0.0010345880  my_83_1_0_anti-D*0 gamma  SVP_HELAMP 1.0 0.0 1.0 0.0;
0.0010011897  my_84_1_0_phi K+ pi- my_84_1_0_eta  PHSP;
0.0009262626  my_85_1_0_D- pi+  PHSP;
0.0009129315  my_86_1_0_D_s+ pi-  PHSP;
0.0008379853  my_87_1_0_f_0 my_87_1_0_omega  SSD_CP 507000000000.0 0.0 1.0 -0.78 1.0 1.387 -1.0 -1.387;
0.0008258479  my_88_1_0_omega my_88_1_0_K*0 my_88_1_0_pi0  PHSP;
0.0008193994  my_89_1_0_a_2+ my_89_1_0_rho-  HELAMP 1.0 0.0 1.0 0.0 1.0 0.0;
0.0008193994  my_90_1_0_a_2- my_90_1_0_rho+  HELAMP 1.0 0.0 1.0 0.0 1.0 0.0;
0.0008009179  my_91_1_0_rho0 K+ pi- my_91_1_0_pi0  PHSP;
0.0008005574  my_92_1_0_rho0 my_92_1_0_rho- pi+  PHSP;
0.0008000777  my_93_1_0_rho0 my_93_1_1_rho0 my_93_1_0_pi0  PHSP;
0.0007962024  my_94_1_0_anti-D0 my_94_1_0_eta  PHSP;
0.0007795316  my_95_1_0_phi K+ pi-  PHSP;
0.0006664920  my_96_1_0_phi my_96_1_0_K*0 my_96_1_0_eta  PHSP;
0.0006560710  my_97_1_0_f_0 my_97_1_0_omega  SSD_CP 507000000000.0 0.0 1.0 -0.78 1.0 1.387 -1.0 -1.387;
0.0006202853  my_98_1_0_omega my_98_1_0_f_0 my_98_1_0_pi0  PHSP;
0.0006198660  my_99_1_0_anti-D0 my_99_1_0_pi0  PHSP;
0.0006192666  my_100_1_0_omega my_100_1_0_anti-D0  SVS;
0.0005981005  my_101_1_0_J/psi my_101_1_0_K*0T  SVV_HELAMP 0.612 2.712 0.775 0.0 0.159 1.563;
0.0005973123  my_102_1_0_anti-D0 pi- pi+  PHSP;
0.0005935911  my_103_1_0_anti-D*0 my_103_1_0_rho0  SVV_HELAMP 0.283 0.0 0.932 0.0 0.228 0.0;
0.0005771686  my_104_1_0_K*0 my_104_1_0_b_10  SVV_HELAMP 1.0 0.0 1.0 0.0 1.0 0.0;
0.0005560489  my_105_1_0_f_1 my_105_1_0_pi0  SVS;
0.0005339719  my_106_1_0_rho0 my_106_1_0_K_0*0 my_106_1_0_pi0  PHSP;
0.0005331710  my_107_1_0_rho0 my_107_1_0_K*0 my_107_1_0_pi0  PHSP;
0.0005285138  my_108_1_0_anti-D0 my_108_1_0_pi0  PHSP;
0.0005210099  my_109_1_0_phi my_109_1_0_K*0  SVV_HELAMP 1.0 0.0 1.7 0.0 1.0 0.0;
0.0005209147  my_110_1_0_D- my_110_1_0_omega pi+  PHSP;
0.0005033854  my_111_1_0_phi pi+ pi- my_111_1_0_pi0  PHSP;
0.0005031589  my_112_1_0_phi my_112_1_0_rho- pi+  PHSP;
0.0005031589  my_113_1_0_phi my_113_1_0_rho+ pi-  PHSP;
0.0005028573  my_114_1_0_phi my_114_1_0_rho0 my_114_1_0_pi0  PHSP;
0.0004963205  my_115_1_0_K'*+ pi-  PHSP;
0.0004848329  my_116_1_0_omega my_116_1_0_anti-D0  SVS;
0.0004694139  my_117_1_0_omega my_117_1_0_anti-D0  SVS;
0.0004407569  my_118_1_0_D_s*- K+  SVS;
0.0004331576  my_119_1_0_D- my_119_1_0_omega pi+  PHSP;
0.0004234163  my_120_1_0_pi0 my_120_1_0_eta  SSD_CP 507000000000.0 0.0 1.0 -0.78 1.0 1.387 1.0 -1.387;
0.0004226436  my_121_1_0_D_s*+ pi-  SVS;
0.0004202927  my_122_1_0_a_2+ my_122_1_0_rho-  HELAMP 1.0 0.0 1.0 0.0 1.0 0.0;
0.0004202927  my_123_1_0_a_2- my_123_1_0_rho+  HELAMP 1.0 0.0 1.0 0.0 1.0 0.0;
0.0004131142  my_124_1_0_omega my_124_1_0_K*+ pi-  PHSP;
0.0004108332  my_125_1_0_phi my_125_1_0_K_0*0  PHSP;
0.0004042471  my_126_1_0_K*+ my_126_1_0_D-  SVS;
0.0004004589  my_127_1_0_rho0 my_127_1_0_f_0 my_127_1_0_pi0  PHSP;
0.0003826414  my_128_1_0_rho0 my_128_1_0_anti-D0  SVS;
0.0003797420  my_129_1_0_J/psi my_129_1_0_K*0T  SVV_HELAMP 0.612 2.712 0.775 0.0 0.159 1.563;
0.0003714085  my_130_1_0_rho- my_130_1_0_b_1+  SVV_HELAMP 1.0 0.0 1.0 0.0 1.0 0.0;
0.0003714085  my_131_1_0_rho+ my_131_1_0_b_1-  SVV_HELAMP 1.0 0.0 1.0 0.0 1.0 0.0;
0.0003653616  my_132_1_0_K'_1+ pi-  SVS;
0.0003567498  my_133_1_0_K_2*0 my_133_1_0_phi  PHSP;
0.0003509785  my_134_1_0_phi my_134_1_0_K''*0  PHSP;
0.0003477328  my_135_1_0_rho- my_135_1_0_D_s+  SVS;
0.0003387910  my_136_1_0_J/psi my_136_1_0_rho0  SVV_CP 0.39 507000000000.0 1.0 0.49 2.5 1.1 0.0 0.4 -0.17;
0.0003315948  my_137_1_0_f_1 my_137_1_0_eta  SVS;
0.0002892949  my_138_1_0_a_10 my_138_1_0_omega  PHSP;
0.0002892949  my_139_1_0_a_10 my_139_1_0_omega  PHSP;
0.0002892454  my_140_1_0_a_10 my_140_1_0_omega  PHSP;
0.0002860470  my_141_1_0_K'_1+ pi-  SVS;
0.0002776251  my_142_1_0_eta my_142_1_1_eta  SSD_CP 507000000000.0 0.0 1.0 -0.78 1.0 1.387 1.0 -1.387;
Enddecay
Decay my_0_1_0_K_10
1.0000 my_0_2_0_rho- K+  VVS_PWAVE 1.0 0.0 0.0 0.0 0.0 0.0;
Enddecay
Decay my_0_2_0_rho-
1.0000 pi- my_0_3_0_pi0  VSS;
Enddecay
Decay my_0_3_0_pi0
1.0000 e+ e- gamma  PI0_DALITZ;
Enddecay
Decay my_1_1_0_K_10
1.0000 K+ pi- my_1_2_0_pi0  PHSP;
Enddecay
Decay my_1_2_0_pi0
1.0000 e+ e- gamma  PI0_DALITZ;
Enddecay
Decay my_2_1_0_anti-D*0
1.0000 my_2_2_0_anti-D0 gamma  VSP_PWAVE;
Enddecay
Decay my_2_1_0_pi0
1.0000 e+ e- gamma  PI0_DALITZ;
Enddecay
Decay my_2_2_0_anti-D0
1.0000 K+ pi-  PHSP;
Enddecay
Decay my_3_1_0_anti-D*0
1.0000 my_3_2_0_anti-D0 gamma  VSP_PWAVE;
Enddecay
Decay my_3_1_0_eta
1.0000 gamma e+ e-  PHSP;
Enddecay
Decay my_3_2_0_anti-D0
1.0000 K+ pi-  PHSP;
Enddecay
Decay my_4_1_0_K_10
1.0000 my_4_2_0_K*+ pi-  VVS_PWAVE 1.0 0.0 0.0 0.0 0.0 0.0;
Enddecay
Decay my_4_2_0_K*+
1.0000 K+ my_4_3_0_pi0  VSS;
Enddecay
Decay my_4_3_0_pi0
1.0000 e+ e- gamma  PI0_DALITZ;
Enddecay
Decay my_5_1_0_K_10
1.0000 my_5_2_0_K*0 my_5_2_0_pi0  VVS_PWAVE 1.0 0.0 0.0 0.0 0.0 0.0;
Enddecay
Decay my_5_2_0_K*0
1.0000 K+ pi-  VSS;
Enddecay
Decay my_5_2_0_pi0
1.0000 e+ e- gamma  PI0_DALITZ;
Enddecay
Decay my_6_1_0_D-
1.0000 my_6_2_0_phi pi- my_6_2_0_pi0  PHSP;
Enddecay
Decay my_6_2_0_phi
1.0000 e+ e-  VLL;
Enddecay
Decay my_6_2_0_pi0
1.0000 gamma gamma  PHSP;
Enddecay
Decay my_7_1_0_K'_10
1.0000 my_7_2_0_K*+ pi-  VVS_PWAVE 1.0 0.0 0.0 0.0 0.0 0.0;
Enddecay
Decay my_7_2_0_K*+
1.0000 K+ my_7_3_0_pi0  VSS;
Enddecay
Decay my_7_3_0_pi0
1.0000 e+ e- gamma  PI0_DALITZ;
Enddecay
Decay my_8_1_0_K'_10
1.0000 my_8_2_0_K*0 my_8_2_0_pi0  VVS_PWAVE 1.0 0.0 0.0 0.0 0.0 0.0;
Enddecay
Decay my_8_2_0_K*0
1.0000 K+ pi-  VSS;
Enddecay
Decay my_8_2_0_pi0
1.0000 e+ e- gamma  PI0_DALITZ;
Enddecay
Decay my_9_1_0_rho+
1.0000 pi+ my_9_2_0_pi0  VSS;
Enddecay
Decay my_9_1_0_D-
1.0000 my_9_2_0_phiR pi-  SVS;
Enddecay
Decay my_9_2_0_pi0
1.0000 gamma gamma  PHSP;
Enddecay
Decay my_9_2_0_phiR
1.0000 e+ e-  VLL;
Enddecay
Decay my_10_1_0_omega
1.0000 my_10_2_0_pi0 gamma  VSP_PWAVE;
Enddecay
Decay my_10_1_0_K_0*0
1.0000 K+ pi-  PHSP;
Enddecay
Decay my_10_2_0_pi0
1.0000 e+ e- gamma  PI0_DALITZ;
Enddecay
Decay my_11_1_0_omega
1.0000 my_11_2_0_pi0 gamma  VSP_PWAVE;
Enddecay
Decay my_11_1_0_anti-D0
1.0000 K+ pi-  PHSP;
Enddecay
Decay my_11_2_0_pi0
1.0000 e+ e- gamma  PI0_DALITZ;
Enddecay
Decay my_12_1_0_K_2*0
1.0000 my_12_2_0_rho- K+  TVS_PWAVE 0.0 0.0 1.0 0.0 0.0 0.0;
Enddecay
Decay my_12_2_0_rho-
1.0000 pi- my_12_3_0_pi0  VSS;
Enddecay
Decay my_12_3_0_pi0
1.0000 e+ e- gamma  PI0_DALITZ;
Enddecay
Decay my_13_1_0_omega
1.0000 my_13_2_0_pi0 e+ e-  PHSP;
Enddecay
Decay my_13_1_0_K_0*0
1.0000 K+ pi-  PHSP;
Enddecay
Decay my_13_2_0_pi0
1.0000 gamma gamma  PHSP;
Enddecay
Decay my_14_1_0_K_2*0
1.0000 my_14_2_0_K*0 my_14_2_0_pi0  TVS_PWAVE 0.0 0.0 1.0 0.0 0.0 0.0;
Enddecay
Decay my_14_2_0_K*0
1.0000 K+ pi-  VSS;
Enddecay
Decay my_14_2_0_pi0
1.0000 e+ e- gamma  PI0_DALITZ;
Enddecay
Decay my_15_1_0_K_2*0
1.0000 my_15_2_0_K*+ pi-  TVS_PWAVE 0.0 0.0 1.0 0.0 0.0 0.0;
Enddecay
Decay my_15_2_0_K*+
1.0000 K+ my_15_3_0_pi0  VSS;
Enddecay
Decay my_15_3_0_pi0
1.0000 e+ e- gamma  PI0_DALITZ;
Enddecay
Decay my_16_1_0_omega
1.0000 my_16_2_0_pi0 e+ e-  PHSP;
Enddecay
Decay my_16_1_0_anti-D0
1.0000 K+ pi-  PHSP;
Enddecay
Decay my_16_2_0_pi0
1.0000 gamma gamma  PHSP;
Enddecay
Decay my_17_1_0_b_1-
1.0000 my_17_2_0_omega pi-  VVS_PWAVE 1.0 0.0 0.0 0.0 0.0 0.0;
Enddecay
Decay my_17_2_0_omega
1.0000 my_17_3_0_pi0 gamma  VSP_PWAVE;
Enddecay
Decay my_17_3_0_pi0
1.0000 e+ e- gamma  PI0_DALITZ;
Enddecay
Decay my_18_1_0_J/psi
1.0000 gamma my_18_2_0_eta  PHSP;
Enddecay
Decay my_18_1_0_K*0T
1.0000 pi- K+  VSS;
Enddecay
Decay my_18_2_0_eta
1.0000 gamma e+ e-  PHSP;
Enddecay
Decay my_19_1_0_b_1-
1.0000 my_19_2_0_omega pi-  VVS_PWAVE 1.0 0.0 0.0 0.0 0.0 0.0;
Enddecay
Decay my_19_2_0_omega
1.0000 my_19_3_0_pi0 e+ e-  PHSP;
Enddecay
Decay my_19_3_0_pi0
1.0000 gamma gamma  PHSP;
Enddecay
Decay my_20_1_0_b_1+
1.0000 my_20_2_0_omega pi+  VVS_PWAVE 1.0 0.0 0.0 0.0 0.0 0.0;
Enddecay
Decay my_20_2_0_omega
1.0000 my_20_3_0_pi0 gamma  VSP_PWAVE;
Enddecay
Decay my_20_3_0_pi0
1.0000 e+ e- gamma  PI0_DALITZ;
Enddecay
Decay my_21_1_0_b_1-
1.0000 my_21_2_0_omega pi-  VVS_PWAVE 1.0 0.0 0.0 0.0 0.0 0.0;
Enddecay
Decay my_21_2_0_omega
1.0000 my_21_3_0_pi0 gamma  VSP_PWAVE;
Enddecay
Decay my_21_3_0_pi0
1.0000 e+ e- gamma  PI0_DALITZ;
Enddecay
Decay my_22_1_0_omega
1.0000 my_22_2_0_pi0 gamma  VSP_PWAVE;
Enddecay
Decay my_22_2_0_pi0
1.0000 e+ e- gamma  PI0_DALITZ;
Enddecay
Decay my_23_1_0_omega
1.0000 pi- pi+ my_23_2_0_pi0  OMEGA_DALITZ;
Enddecay
Decay my_23_2_0_pi0
1.0000 e+ e- gamma  PI0_DALITZ;
Enddecay
Decay my_24_1_0_b_1+
1.0000 my_24_2_0_omega pi+  VVS_PWAVE 1.0 0.0 0.0 0.0 0.0 0.0;
Enddecay
Decay my_24_2_0_omega
1.0000 my_24_3_0_pi0 e+ e-  PHSP;
Enddecay
Decay my_24_3_0_pi0
1.0000 gamma gamma  PHSP;
Enddecay
Decay my_25_1_0_b_1-
1.0000 my_25_2_0_omega pi-  VVS_PWAVE 1.0 0.0 0.0 0.0 0.0 0.0;
Enddecay
Decay my_25_2_0_omega
1.0000 my_25_3_0_pi0 e+ e-  PHSP;
Enddecay
Decay my_25_3_0_pi0
1.0000 gamma gamma  PHSP;
Enddecay
Decay my_26_1_0_pi0
1.0000 e+ e- gamma  PI0_DALITZ;
Enddecay
Decay my_26_1_0_eta'
1.0000 my_26_2_0_rho0 gamma  SVP_HELAMP 1.0 0.0 1.0 0.0;
Enddecay
Decay my_26_2_0_rho0
1.0000 pi+ pi-  VSS;
Enddecay
Decay my_27_1_0_K''*0
1.0000 my_27_2_0_rho- K+  VVS_PWAVE 1.0 0.0 0.0 0.0 0.0 0.0;
Enddecay
Decay my_27_2_0_rho-
1.0000 pi- my_27_3_0_pi0  VSS;
Enddecay
Decay my_27_3_0_pi0
1.0000 e+ e- gamma  PI0_DALITZ;
Enddecay
Decay my_28_1_0_omega
1.0000 my_28_2_0_pi0 e+ e-  PHSP;
Enddecay
Decay my_28_2_0_pi0
1.0000 gamma gamma  PHSP;
Enddecay
Decay my_29_1_0_anti-D*0
1.0000 my_29_2_0_anti-D0 gamma  VSP_PWAVE;
Enddecay
Decay my_29_1_0_pi0
1.0000 e+ e- gamma  PI0_DALITZ;
Enddecay
Decay my_29_2_0_anti-D0
1.0000 K+ K-  PHSP;
Enddecay
Decay my_30_1_0_omega
1.0000 my_30_2_0_pi0 gamma  VSP_PWAVE;
Enddecay
Decay my_30_1_0_K_2*0
1.0000 K+ pi-  TSS;
Enddecay
Decay my_30_2_0_pi0
1.0000 e+ e- gamma  PI0_DALITZ;
Enddecay
Decay my_31_1_0_phi
1.0000 e+ e-  VLL;
Enddecay
Decay my_31_1_0_pi0
1.0000 gamma gamma  PHSP;
Enddecay
Decay my_32_1_0_phi
1.0000 e+ e-  VLL;
Enddecay
Decay my_32_1_0_rho-
1.0000 pi- my_32_2_0_pi0  VSS;
Enddecay
Decay my_32_2_0_pi0
1.0000 gamma gamma  PHSP;
Enddecay
Decay my_33_1_0_omega
1.0000 my_33_2_0_pi0 gamma  VSP_PWAVE;
Enddecay
Decay my_33_2_0_pi0
1.0000 e+ e- gamma  PI0_DALITZ;
Enddecay
Decay my_34_1_0_pi0
1.0000 gamma gamma  PHSP;
Enddecay
Decay my_34_1_0_eta'
1.0000 pi+ pi- e+ e-  PHSP;
Enddecay
Decay my_35_1_0_K_1+
1.0000 my_35_2_0_omega K+  VVS_PWAVE 1.0 0.0 0.0 0.0 0.0 0.0;
Enddecay
Decay my_35_2_0_omega
1.0000 my_35_3_0_pi0 gamma  VSP_PWAVE;
Enddecay
Decay my_35_3_0_pi0
1.0000 e+ e- gamma  PI0_DALITZ;
Enddecay
Decay my_36_1_0_omega
1.0000 e+ e-  VLL;
Enddecay
Decay my_36_1_0_anti-D0
1.0000 K+ pi- my_36_2_0_pi0  D_DALITZ;
Enddecay
Decay my_36_2_0_pi0
1.0000 gamma gamma  PHSP;
Enddecay
Decay my_37_1_0_omega
1.0000 my_37_2_0_pi0 e+ e-  PHSP;
Enddecay
Decay my_37_1_0_K_2*0
1.0000 K+ pi-  TSS;
Enddecay
Decay my_37_2_0_pi0
1.0000 gamma gamma  PHSP;
Enddecay
Decay my_38_1_0_D_s*-
1.0000 my_38_2_0_D_s- gamma  VSP_PWAVE;
Enddecay
Decay my_38_2_0_D_s-
1.0000 my_38_3_0_eta pi-  PHSP;
Enddecay
Decay my_38_3_0_eta
1.0000 gamma e+ e-  PHSP;
Enddecay
Decay my_39_1_0_D_s*+
1.0000 my_39_2_0_D_s+ gamma  VSP_PWAVE;
Enddecay
Decay my_39_2_0_D_s+
1.0000 my_39_3_0_eta pi+  PHSP;
Enddecay
Decay my_39_3_0_eta
1.0000 gamma e+ e-  PHSP;
Enddecay
Decay my_40_1_0_J/psi
1.0000 gamma my_40_2_0_eta  PHSP;
Enddecay
Decay my_40_2_0_eta
1.0000 gamma e+ e-  PHSP;
Enddecay
Decay my_41_1_0_omega
1.0000 my_41_2_0_pi0 e+ e-  PHSP;
Enddecay
Decay my_41_2_0_pi0
1.0000 gamma gamma  PHSP;
Enddecay
Decay my_42_1_0_anti-D*0
1.0000 my_42_2_0_anti-D0 gamma  VSP_PWAVE;
Enddecay
Decay my_42_1_0_eta
1.0000 gamma e+ e-  PHSP;
Enddecay
Decay my_42_2_0_anti-D0
1.0000 K+ K-  PHSP;
Enddecay
Decay my_43_1_0_rho0
1.0000 e+ e-  VLL;
Enddecay
Decay my_43_1_0_anti-D0
1.0000 K+ pi- my_43_2_0_pi0  D_DALITZ;
Enddecay
Decay my_43_2_0_pi0
1.0000 gamma gamma  PHSP;
Enddecay
Decay my_44_1_0_K_1+
1.0000 my_44_2_0_omega K+  VVS_PWAVE 1.0 0.0 0.0 0.0 0.0 0.0;
Enddecay
Decay my_44_2_0_omega
1.0000 my_44_3_0_pi0 e+ e-  PHSP;
Enddecay
Decay my_44_3_0_pi0
1.0000 gamma gamma  PHSP;
Enddecay
Decay my_45_1_0_eta
1.0000 gamma e+ e-  PHSP;
Enddecay
Decay my_45_1_0_eta'
1.0000 my_45_2_0_rho0 gamma  SVP_HELAMP 1.0 0.0 1.0 0.0;
Enddecay
Decay my_45_2_0_rho0
1.0000 pi+ pi-  VSS;
Enddecay
Decay my_46_1_0_phi
1.0000 e+ e-  VLL;
Enddecay
Decay my_46_1_0_K_0*0
1.0000 K+ pi-  PHSP;
Enddecay
Decay my_46_1_0_pi0
1.0000 gamma gamma  PHSP;
Enddecay
Decay my_47_1_0_phi
1.0000 e+ e-  VLL;
Enddecay
Decay my_47_1_0_K*0
1.0000 K+ pi-  VSS;
Enddecay
Decay my_47_1_0_pi0
1.0000 gamma gamma  PHSP;
Enddecay
Decay my_48_1_0_K'_10
1.0000 my_48_2_0_rho- K+  VVS_PWAVE 1.0 0.0 0.0 0.0 0.0 0.0;
Enddecay
Decay my_48_2_0_rho-
1.0000 pi- my_48_3_0_pi0  VSS;
Enddecay
Decay my_48_3_0_pi0
1.0000 e+ e- gamma  PI0_DALITZ;
Enddecay
Decay my_49_1_0_K''*0
1.0000 my_49_2_0_K*0 my_49_2_0_pi0  VVS_PWAVE 1.0 0.0 0.0 0.0 0.0 0.0;
Enddecay
Decay my_49_2_0_K*0
1.0000 K+ pi-  VSS;
Enddecay
Decay my_49_2_0_pi0
1.0000 e+ e- gamma  PI0_DALITZ;
Enddecay
Decay my_50_1_0_K''*0
1.0000 my_50_2_0_K*+ pi-  VVS_PWAVE 1.0 0.0 0.0 0.0 0.0 0.0;
Enddecay
Decay my_50_2_0_K*+
1.0000 K+ my_50_3_0_pi0  VSS;
Enddecay
Decay my_50_3_0_pi0
1.0000 e+ e- gamma  PI0_DALITZ;
Enddecay
Decay my_51_1_0_anti-D*0
1.0000 my_51_2_0_anti-D0 gamma  VSP_PWAVE;
Enddecay
Decay my_51_1_0_pi0
1.0000 e+ e- gamma  PI0_DALITZ;
Enddecay
Decay my_51_2_0_anti-D0
1.0000 pi+ pi-  PHSP;
Enddecay
Decay my_52_1_0_D*-
1.0000 my_52_2_0_D- my_52_2_0_pi0  VSS;
Enddecay
Decay my_52_2_0_D-
1.0000 my_52_3_0_phiR pi-  SVS;
Enddecay
Decay my_52_2_0_pi0
1.0000 gamma gamma  PHSP;
Enddecay
Decay my_52_3_0_phiR
1.0000 e+ e-  VLL;
Enddecay
Decay my_53_1_0_K*0
1.0000 K+ pi-  VSS;
Enddecay
Decay my_53_1_0_omega
1.0000 my_53_2_0_pi0 gamma  VSP_PWAVE;
Enddecay
Decay my_53_2_0_pi0
1.0000 e+ e- gamma  PI0_DALITZ;
Enddecay
Decay my_54_1_0_J/psi
1.0000 gamma my_54_2_0_eta  PHSP;
Enddecay
Decay my_54_1_0_K_2*0
1.0000 K+ pi-  TSS;
Enddecay
Decay my_54_2_0_eta
1.0000 gamma e+ e-  PHSP;
Enddecay
Decay my_55_1_0_D-
1.0000 my_55_2_0_phiR pi-  SVS;
Enddecay
Decay my_55_2_0_phiR
1.0000 my_55_3_0_eta gamma  VSP_PWAVE;
Enddecay
Decay my_55_3_0_eta
1.0000 gamma e+ e-  PHSP;
Enddecay
Decay my_56_1_0_D-
1.0000 my_56_2_0_phi pi- my_56_2_0_pi0  PHSP;
Enddecay
Decay my_56_2_0_phi
1.0000 e+ e-  VLL;
Enddecay
Decay my_56_2_0_pi0
1.0000 gamma gamma  PHSP;
Enddecay
Decay my_57_1_0_D*-
1.0000 my_57_2_0_D- gamma  VSP_PWAVE;
Enddecay
Decay my_57_2_0_D-
1.0000 my_57_3_0_eta pi-  PHSP;
Enddecay
Decay my_57_3_0_eta
1.0000 gamma e+ e-  PHSP;
Enddecay
Decay my_58_1_0_K*0
1.0000 K+ pi-  VSS;
Enddecay
Decay my_58_1_0_omega
1.0000 my_58_2_0_pi0 e+ e-  PHSP;
Enddecay
Decay my_58_2_0_pi0
1.0000 gamma gamma  PHSP;
Enddecay
Decay my_59_1_0_omega
1.0000 my_59_2_0_pi0 gamma  VSP_PWAVE;
Enddecay
Decay my_59_1_0_anti-D0
1.0000 K+ K-  PHSP;
Enddecay
Decay my_59_2_0_pi0
1.0000 e+ e- gamma  PI0_DALITZ;
Enddecay
Decay my_60_1_0_phi
1.0000 e+ e-  VLL;
Enddecay
Decay my_60_1_0_K_0*+
1.0000 K+ my_60_2_0_pi0  PHSP;
Enddecay
Decay my_60_2_0_pi0
1.0000 gamma gamma  PHSP;
Enddecay
Decay my_61_1_0_phi
1.0000 e+ e-  VLL;
Enddecay
Decay my_61_1_0_K*+
1.0000 K+ my_61_2_0_pi0  VSS;
Enddecay
Decay my_61_2_0_pi0
1.0000 gamma gamma  PHSP;
Enddecay
Decay my_62_1_0_omega
1.0000 my_62_2_0_pi0 gamma  VSP_PWAVE;
Enddecay
Decay my_62_2_0_pi0
1.0000 e+ e- gamma  PI0_DALITZ;
Enddecay
Decay my_63_1_0_omega
1.0000 my_63_2_0_pi0 gamma  VSP_PWAVE;
Enddecay
Decay my_63_1_0_rho0
1.0000 pi+ pi-  VSS;
Enddecay
Decay my_63_2_0_pi0
1.0000 e+ e- gamma  PI0_DALITZ;
Enddecay
Decay my_64_1_0_eta
1.0000 gamma gamma  PHSP;
Enddecay
Decay my_64_1_0_eta'
1.0000 pi+ pi- e+ e-  PHSP;
Enddecay
Decay my_65_1_0_phi
1.0000 my_65_2_0_eta gamma  VSP_PWAVE;
Enddecay
Decay my_65_2_0_eta
1.0000 gamma e+ e-  PHSP;
Enddecay
Decay my_66_1_0_anti-D0
1.0000 my_66_2_0_K*0 gamma  SVP_HELAMP 1.0 0.0 1.0 0.0;
Enddecay
Decay my_66_1_0_pi0
1.0000 e+ e- gamma  PI0_DALITZ;
Enddecay
Decay my_66_2_0_K*0
1.0000 K+ pi-  VSS;
Enddecay
Decay my_67_1_0_anti-D*0
1.0000 my_67_2_0_anti-D0 gamma  VSP_PWAVE;
Enddecay
Decay my_67_1_0_eta
1.0000 gamma e+ e-  PHSP;
Enddecay
Decay my_67_2_0_anti-D0
1.0000 pi+ pi-  PHSP;
Enddecay
Decay my_68_1_0_D-
1.0000 my_68_2_0_phiR pi-  SVS;
Enddecay
Decay my_68_1_0_pi0
1.0000 gamma gamma  PHSP;
Enddecay
Decay my_68_2_0_phiR
1.0000 e+ e-  VLL;
Enddecay
Decay my_69_1_0_omega
1.0000 my_69_2_0_pi0 e+ e-  PHSP;
Enddecay
Decay my_69_1_0_anti-D0
1.0000 K+ K-  PHSP;
Enddecay
Decay my_69_2_0_pi0
1.0000 gamma gamma  PHSP;
Enddecay
Decay my_70_1_0_omega
1.0000 my_70_2_0_pi0 e+ e-  PHSP;
Enddecay
Decay my_70_2_0_pi0
1.0000 gamma gamma  PHSP;
Enddecay
Decay my_71_1_0_omega
1.0000 my_71_2_0_pi0 e+ e-  PHSP;
Enddecay
Decay my_71_1_0_rho0
1.0000 pi+ pi-  VSS;
Enddecay
Decay my_71_2_0_pi0
1.0000 gamma gamma  PHSP;
Enddecay
Decay my_72_1_0_D*-
1.0000 my_72_2_0_anti-D0 pi-  VSS;
Enddecay
Decay my_72_2_0_anti-D0
1.0000 my_72_3_0_phi my_72_3_0_pi0  SVS;
Enddecay
Decay my_72_3_0_phi
1.0000 e+ e-  VLL;
Enddecay
Decay my_72_3_0_pi0
1.0000 gamma gamma  PHSP;
Enddecay
Decay my_73_1_0_omega
1.0000 e+ e-  VLL;
Enddecay
Decay my_73_1_0_pi0
1.0000 gamma gamma  PHSP;
Enddecay
Decay my_74_1_0_omega
1.0000 e+ e-  VLL;
Enddecay
Decay my_74_1_0_rho-
1.0000 pi- my_74_2_0_pi0  VSS;
Enddecay
Decay my_74_2_0_pi0
1.0000 gamma gamma  PHSP;
Enddecay
Decay my_75_1_0_omega
1.0000 e+ e-  VLL;
Enddecay
Decay my_75_1_0_rho0
1.0000 pi+ pi-  VSS;
Enddecay
Decay my_75_1_0_pi0
1.0000 gamma gamma  PHSP;
Enddecay
Decay my_76_1_0_D-
1.0000 my_76_2_0_omega pi-  SVS;
Enddecay
Decay my_76_2_0_omega
1.0000 my_76_3_0_pi0 gamma  VSP_PWAVE;
Enddecay
Decay my_76_3_0_pi0
1.0000 e+ e- gamma  PI0_DALITZ;
Enddecay
Decay my_77_1_0_D_s-
1.0000 my_77_2_0_phi my_77_2_0_rho-  SVV_HELAMP 1.0 0.0 1.0 0.0 1.0 0.0;
Enddecay
Decay my_77_2_0_phi
1.0000 e+ e-  VLL;
Enddecay
Decay my_77_2_0_rho-
1.0000 pi- my_77_3_0_pi0  VSS;
Enddecay
Decay my_77_3_0_pi0
1.0000 gamma gamma  PHSP;
Enddecay
Decay my_78_1_0_anti-D*0
1.0000 my_78_2_0_anti-D0 my_78_2_0_pi0  VSS;
Enddecay
Decay my_78_1_0_omega
1.0000 e+ e-  VLL;
Enddecay
Decay my_78_2_0_anti-D0
1.0000 K+ pi-  PHSP;
Enddecay
Decay my_78_2_0_pi0
1.0000 gamma gamma  PHSP;
Enddecay
Decay my_79_1_0_D*-
1.0000 my_79_2_0_D- gamma  VSP_PWAVE;
Enddecay
Decay my_79_2_0_D-
1.0000 pi- my_79_3_0_pi0  PHSP;
Enddecay
Decay my_79_3_0_pi0
1.0000 e+ e- gamma  PI0_DALITZ;
Enddecay
Decay my_80_1_0_pi0
1.0000 e+ e- gamma  PI0_DALITZ;
Enddecay
Decay my_80_1_0_eta
1.0000 gamma pi- pi+  PHSP;
Enddecay
Decay my_81_1_0_D-
1.0000 my_81_2_0_phiR pi-  SVS;
Enddecay
Decay my_81_2_0_phiR
1.0000 my_81_3_0_eta e+ e-  PHSP;
Enddecay
Decay my_81_3_0_eta
1.0000 gamma gamma  PHSP;
Enddecay
Decay my_82_1_0_phi
1.0000 my_82_2_0_eta gamma  VSP_PWAVE;
Enddecay
Decay my_82_1_0_K*0
1.0000 K+ pi-  VSS;
Enddecay
Decay my_82_2_0_eta
1.0000 gamma e+ e-  PHSP;
Enddecay
Decay my_83_1_0_anti-D*0
1.0000 my_83_2_0_anti-D0 my_83_2_0_pi0  VSS;
Enddecay
Decay my_83_2_0_anti-D0
1.0000 K+ pi-  PHSP;
Enddecay
Decay my_83_2_0_pi0
1.0000 e+ e- gamma  PI0_DALITZ;
Enddecay
Decay my_84_1_0_phi
1.0000 e+ e-  VLL;
Enddecay
Decay my_84_1_0_eta
1.0000 gamma gamma  PHSP;
Enddecay
Decay my_85_1_0_D-
1.0000 my_85_2_0_omega pi-  SVS;
Enddecay
Decay my_85_2_0_omega
1.0000 my_85_3_0_pi0 e+ e-  PHSP;
Enddecay
Decay my_85_3_0_pi0
1.0000 gamma gamma  PHSP;
Enddecay
Decay my_86_1_0_D_s+
1.0000 my_86_2_0_phi my_86_2_0_rho+  SVV_HELAMP 1.0 0.0 1.0 0.0 1.0 0.0;
Enddecay
Decay my_86_2_0_phi
1.0000 e+ e-  VLL;
Enddecay
Decay my_86_2_0_rho+
1.0000 pi+ my_86_3_0_pi0  VSS;
Enddecay
Decay my_86_3_0_pi0
1.0000 gamma gamma  PHSP;
Enddecay
Decay my_87_1_0_f_0
1.0000 pi+ pi-  PHSP;
Enddecay
Decay my_87_1_0_omega
1.0000 my_87_2_0_pi0 gamma  VSP_PWAVE;
Enddecay
Decay my_87_2_0_pi0
1.0000 e+ e- gamma  PI0_DALITZ;
Enddecay
Decay my_88_1_0_omega
1.0000 e+ e-  VLL;
Enddecay
Decay my_88_1_0_K*0
1.0000 K+ pi-  VSS;
Enddecay
Decay my_88_1_0_pi0
1.0000 gamma gamma  PHSP;
Enddecay
Decay my_89_1_0_a_2+
1.0000 pi+ gamma  PHSP;
Enddecay
Decay my_89_1_0_rho-
1.0000 pi- my_89_2_0_pi0  VSS;
Enddecay
Decay my_89_2_0_pi0
1.0000 e+ e- gamma  PI0_DALITZ;
Enddecay
Decay my_90_1_0_a_2-
1.0000 pi- gamma  PHSP;
Enddecay
Decay my_90_1_0_rho+
1.0000 pi+ my_90_2_0_pi0  VSS;
Enddecay
Decay my_90_2_0_pi0
1.0000 e+ e- gamma  PI0_DALITZ;
Enddecay
Decay my_91_1_0_rho0
1.0000 e+ e-  VLL;
Enddecay
Decay my_91_1_0_pi0
1.0000 gamma gamma  PHSP;
Enddecay
Decay my_92_1_0_rho0
1.0000 e+ e-  VLL;
Enddecay
Decay my_92_1_0_rho-
1.0000 pi- my_92_2_0_pi0  VSS;
Enddecay
Decay my_92_2_0_pi0
1.0000 gamma gamma  PHSP;
Enddecay
Decay my_93_1_1_rho0
1.0000 e+ e-  VLL;
Enddecay
Decay my_93_1_0_rho0
1.0000 pi+ pi-  VSS;
Enddecay
Decay my_93_1_0_pi0
1.0000 gamma gamma  PHSP;
Enddecay
Decay my_94_1_0_anti-D0
1.0000 my_94_2_0_K*0 gamma  SVP_HELAMP 1.0 0.0 1.0 0.0;
Enddecay
Decay my_94_1_0_eta
1.0000 gamma e+ e-  PHSP;
Enddecay
Decay my_94_2_0_K*0
1.0000 K+ pi-  VSS;
Enddecay
Decay my_95_1_0_phi
1.0000 my_95_2_0_eta e+ e-  PHSP;
Enddecay
Decay my_95_2_0_eta
1.0000 gamma gamma  PHSP;
Enddecay
Decay my_96_1_0_phi
1.0000 e+ e-  VLL;
Enddecay
Decay my_96_1_0_K*0
1.0000 K+ pi-  VSS;
Enddecay
Decay my_96_1_0_eta
1.0000 gamma gamma  PHSP;
Enddecay
Decay my_97_1_0_f_0
1.0000 pi+ pi-  PHSP;
Enddecay
Decay my_97_1_0_omega
1.0000 my_97_2_0_pi0 e+ e-  PHSP;
Enddecay
Decay my_97_2_0_pi0
1.0000 gamma gamma  PHSP;
Enddecay
Decay my_98_1_0_omega
1.0000 e+ e-  VLL;
Enddecay
Decay my_98_1_0_f_0
1.0000 pi+ pi-  PHSP;
Enddecay
Decay my_98_1_0_pi0
1.0000 gamma gamma  PHSP;
Enddecay
Decay my_99_1_0_anti-D0
1.0000 K+ my_99_2_0_omega pi-  PHSP;
Enddecay
Decay my_99_1_0_pi0
1.0000 gamma gamma  PHSP;
Enddecay
Decay my_99_2_0_omega
1.0000 e+ e-  VLL;
Enddecay
Decay my_100_1_0_omega
1.0000 my_100_2_0_pi0 gamma  VSP_PWAVE;
Enddecay
Decay my_100_1_0_anti-D0
1.0000 pi+ pi-  PHSP;
Enddecay
Decay my_100_2_0_pi0
1.0000 e+ e- gamma  PI0_DALITZ;
Enddecay
Decay my_101_1_0_J/psi
1.0000 gamma my_101_2_0_pi0  PHSP;
Enddecay
Decay my_101_1_0_K*0T
1.0000 pi- K+  VSS;
Enddecay
Decay my_101_2_0_pi0
1.0000 e+ e- gamma  PI0_DALITZ;
Enddecay
Decay my_102_1_0_anti-D0
1.0000 my_102_2_0_phi my_102_2_0_pi0  SVS;
Enddecay
Decay my_102_2_0_phi
1.0000 e+ e-  VLL;
Enddecay
Decay my_102_2_0_pi0
1.0000 gamma gamma  PHSP;
Enddecay
Decay my_103_1_0_anti-D*0
1.0000 my_103_2_0_anti-D0 my_103_2_0_pi0  VSS;
Enddecay
Decay my_103_1_0_rho0
1.0000 e+ e-  VLL;
Enddecay
Decay my_103_2_0_anti-D0
1.0000 K+ pi-  PHSP;
Enddecay
Decay my_103_2_0_pi0
1.0000 gamma gamma  PHSP;
Enddecay
Decay my_104_1_0_K*0
1.0000 K+ pi-  VSS;
Enddecay
Decay my_104_1_0_b_10
1.0000 my_104_2_0_omega my_104_2_0_pi0  VVS_PWAVE 1.0 0.0 0.0 0.0 0.0 0.0;
Enddecay
Decay my_104_2_0_omega
1.0000 e+ e-  VLL;
Enddecay
Decay my_104_2_0_pi0
1.0000 gamma gamma  PHSP;
Enddecay
Decay my_105_1_0_f_1
1.0000 gamma my_105_2_0_rho0  PHSP;
Enddecay
Decay my_105_1_0_pi0
1.0000 e+ e- gamma  PI0_DALITZ;
Enddecay
Decay my_105_2_0_rho0
1.0000 pi+ pi-  VSS;
Enddecay
Decay my_106_1_0_rho0
1.0000 e+ e-  VLL;
Enddecay
Decay my_106_1_0_K_0*0
1.0000 K+ pi-  PHSP;
Enddecay
Decay my_106_1_0_pi0
1.0000 gamma gamma  PHSP;
Enddecay
Decay my_107_1_0_rho0
1.0000 e+ e-  VLL;
Enddecay
Decay my_107_1_0_K*0
1.0000 K+ pi-  VSS;
Enddecay
Decay my_107_1_0_pi0
1.0000 gamma gamma  PHSP;
Enddecay
Decay my_108_1_0_anti-D0
1.0000 my_108_2_0_a_1- K+  SVS;
Enddecay
Decay my_108_1_0_pi0
1.0000 gamma gamma  PHSP;
Enddecay
Decay my_108_2_0_a_1-
1.0000 my_108_3_0_rho0 pi-  VVS_PWAVE 0.9788 0.0 0.0 0.0 0.0212 0.0;
Enddecay
Decay my_108_3_0_rho0
1.0000 e+ e-  VLL;
Enddecay
Decay my_109_1_0_phi
1.0000 my_109_2_0_eta e+ e-  PHSP;
Enddecay
Decay my_109_1_0_K*0
1.0000 K+ pi-  VSS;
Enddecay
Decay my_109_2_0_eta
1.0000 gamma gamma  PHSP;
Enddecay
Decay my_110_1_0_D-
1.0000 my_110_2_0_eta pi-  PHSP;
Enddecay
Decay my_110_1_0_omega
1.0000 e+ e-  VLL;
Enddecay
Decay my_110_2_0_eta
1.0000 gamma gamma  PHSP;
Enddecay
Decay my_111_1_0_phi
1.0000 e+ e-  VLL;
Enddecay
Decay my_111_1_0_pi0
1.0000 gamma gamma  PHSP;
Enddecay
Decay my_112_1_0_phi
1.0000 e+ e-  VLL;
Enddecay
Decay my_112_1_0_rho-
1.0000 pi- my_112_2_0_pi0  VSS;
Enddecay
Decay my_112_2_0_pi0
1.0000 gamma gamma  PHSP;
Enddecay
Decay my_113_1_0_phi
1.0000 e+ e-  VLL;
Enddecay
Decay my_113_1_0_rho+
1.0000 pi+ my_113_2_0_pi0  VSS;
Enddecay
Decay my_113_2_0_pi0
1.0000 gamma gamma  PHSP;
Enddecay
Decay my_114_1_0_phi
1.0000 e+ e-  VLL;
Enddecay
Decay my_114_1_0_rho0
1.0000 pi+ pi-  VSS;
Enddecay
Decay my_114_1_0_pi0
1.0000 gamma gamma  PHSP;
Enddecay
Decay my_115_1_0_K'*+
1.0000 my_115_2_0_K*+ my_115_2_0_pi0  VVS_PWAVE 1.0 0.0 0.0 0.0 0.0 0.0;
Enddecay
Decay my_115_2_0_K*+
1.0000 K+ gamma  VSP_PWAVE;
Enddecay
Decay my_115_2_0_pi0
1.0000 e+ e- gamma  PI0_DALITZ;
Enddecay
Decay my_116_1_0_omega
1.0000 my_116_2_0_pi0 e+ e-  PHSP;
Enddecay
Decay my_116_1_0_anti-D0
1.0000 pi+ pi-  PHSP;
Enddecay
Decay my_116_2_0_pi0
1.0000 gamma gamma  PHSP;
Enddecay
Decay my_117_1_0_omega
1.0000 e+ e-  VLL;
Enddecay
Decay my_117_1_0_anti-D0
1.0000 pi+ pi- my_117_2_0_pi0  D_DALITZ;
Enddecay
Decay my_117_2_0_pi0
1.0000 gamma gamma  PHSP;
Enddecay
Decay my_118_1_0_D_s*-
1.0000 my_118_2_0_D_s- gamma  VSP_PWAVE;
Enddecay
Decay my_118_2_0_D_s-
1.0000 my_118_3_0_eta K-  PHSP;
Enddecay
Decay my_118_3_0_eta
1.0000 gamma e+ e-  PHSP;
Enddecay
Decay my_119_1_0_D-
1.0000 pi- my_119_2_0_pi0  PHSP;
Enddecay
Decay my_119_1_0_omega
1.0000 e+ e-  VLL;
Enddecay
Decay my_119_2_0_pi0
1.0000 gamma gamma  PHSP;
Enddecay
Decay my_120_1_0_pi0
1.0000 gamma gamma  PHSP;
Enddecay
Decay my_120_1_0_eta
1.0000 pi+ pi- e+ e-  PHSP;
Enddecay
Decay my_121_1_0_D_s*+
1.0000 my_121_2_0_D_s+ gamma  VSP_PWAVE;
Enddecay
Decay my_121_2_0_D_s+
1.0000 my_121_3_0_eta K+  PHSP;
Enddecay
Decay my_121_3_0_eta
1.0000 gamma e+ e-  PHSP;
Enddecay
Decay my_122_1_0_a_2+
1.0000 my_122_2_0_rho0 pi+  TVS_PWAVE 0.0 0.0 1.0 0.0 0.0 0.0;
Enddecay
Decay my_122_1_0_rho-
1.0000 pi- my_122_2_0_pi0  VSS;
Enddecay
Decay my_122_2_0_rho0
1.0000 e+ e-  VLL;
Enddecay
Decay my_122_2_0_pi0
1.0000 gamma gamma  PHSP;
Enddecay
Decay my_123_1_0_a_2-
1.0000 my_123_2_0_rho0 pi-  TVS_PWAVE 0.0 0.0 1.0 0.0 0.0 0.0;
Enddecay
Decay my_123_1_0_rho+
1.0000 pi+ my_123_2_0_pi0  VSS;
Enddecay
Decay my_123_2_0_rho0
1.0000 e+ e-  VLL;
Enddecay
Decay my_123_2_0_pi0
1.0000 gamma gamma  PHSP;
Enddecay
Decay my_124_1_0_omega
1.0000 e+ e-  VLL;
Enddecay
Decay my_124_1_0_K*+
1.0000 K+ my_124_2_0_pi0  VSS;
Enddecay
Decay my_124_2_0_pi0
1.0000 gamma gamma  PHSP;
Enddecay
Decay my_125_1_0_phi
1.0000 my_125_2_0_eta gamma  VSP_PWAVE;
Enddecay
Decay my_125_1_0_K_0*0
1.0000 K+ pi-  PHSP;
Enddecay
Decay my_125_2_0_eta
1.0000 gamma e+ e-  PHSP;
Enddecay
Decay my_126_1_0_K*+
1.0000 K+ my_126_2_0_pi0  VSS;
Enddecay
Decay my_126_1_0_D-
1.0000 my_126_2_0_phiR pi-  SVS;
Enddecay
Decay my_126_2_0_pi0
1.0000 gamma gamma  PHSP;
Enddecay
Decay my_126_2_0_phiR
1.0000 e+ e-  VLL;
Enddecay
Decay my_127_1_0_rho0
1.0000 e+ e-  VLL;
Enddecay
Decay my_127_1_0_f_0
1.0000 pi+ pi-  PHSP;
Enddecay
Decay my_127_1_0_pi0
1.0000 gamma gamma  PHSP;
Enddecay
Decay my_128_1_0_rho0
1.0000 e+ e-  VLL;
Enddecay
Decay my_128_1_0_anti-D0
1.0000 pi+ pi- my_128_2_0_pi0  D_DALITZ;
Enddecay
Decay my_128_2_0_pi0
1.0000 gamma gamma  PHSP;
Enddecay
Decay my_129_1_0_J/psi
1.0000 my_129_2_0_rho0 my_129_2_0_pi0  PARTWAVE 0.0 0.0 1.0 0.0 0.0 0.0;
Enddecay
Decay my_129_1_0_K*0T
1.0000 pi- K+  VSS;
Enddecay
Decay my_129_2_0_rho0
1.0000 e+ e-  VLL;
Enddecay
Decay my_129_2_0_pi0
1.0000 gamma gamma  PHSP;
Enddecay
Decay my_130_1_0_rho-
1.0000 pi- my_130_2_0_pi0  VSS;
Enddecay
Decay my_130_1_0_b_1+
1.0000 my_130_2_0_omega pi+  VVS_PWAVE 1.0 0.0 0.0 0.0 0.0 0.0;
Enddecay
Decay my_130_2_0_pi0
1.0000 gamma gamma  PHSP;
Enddecay
Decay my_130_2_0_omega
1.0000 e+ e-  VLL;
Enddecay
Decay my_131_1_0_rho+
1.0000 pi+ my_131_2_0_pi0  VSS;
Enddecay
Decay my_131_1_0_b_1-
1.0000 my_131_2_0_omega pi-  VVS_PWAVE 1.0 0.0 0.0 0.0 0.0 0.0;
Enddecay
Decay my_131_2_0_pi0
1.0000 gamma gamma  PHSP;
Enddecay
Decay my_131_2_0_omega
1.0000 e+ e-  VLL;
Enddecay
Decay my_132_1_0_K'_1+
1.0000 my_132_2_0_omega K+  VVS_PWAVE 1.0 0.0 0.0 0.0 0.0 0.0;
Enddecay
Decay my_132_2_0_omega
1.0000 my_132_3_0_pi0 gamma  VSP_PWAVE;
Enddecay
Decay my_132_3_0_pi0
1.0000 e+ e- gamma  PI0_DALITZ;
Enddecay
Decay my_133_1_0_K_2*0
1.0000 K+ pi-  TSS;
Enddecay
Decay my_133_1_0_phi
1.0000 my_133_2_0_eta gamma  VSP_PWAVE;
Enddecay
Decay my_133_2_0_eta
1.0000 gamma e+ e-  PHSP;
Enddecay
Decay my_134_1_0_phi
1.0000 e+ e-  VLL;
Enddecay
Decay my_134_1_0_K''*0
1.0000 my_134_2_0_rho- K+  VVS_PWAVE 1.0 0.0 0.0 0.0 0.0 0.0;
Enddecay
Decay my_134_2_0_rho-
1.0000 pi- my_134_3_0_pi0  VSS;
Enddecay
Decay my_134_3_0_pi0
1.0000 gamma gamma  PHSP;
Enddecay
Decay my_135_1_0_rho-
1.0000 pi- my_135_2_0_pi0  VSS;
Enddecay
Decay my_135_1_0_D_s+
1.0000 my_135_2_0_phiR pi+  SVS;
Enddecay
Decay my_135_2_0_pi0
1.0000 gamma gamma  PHSP;
Enddecay
Decay my_135_2_0_phiR
1.0000 e+ e-  VLL;
Enddecay
Decay my_136_1_0_J/psi
1.0000 gamma my_136_2_0_eta  PHSP;
Enddecay
Decay my_136_1_0_rho0
1.0000 pi+ pi-  VSS;
Enddecay
Decay my_136_2_0_eta
1.0000 gamma e+ e-  PHSP;
Enddecay
Decay my_137_1_0_f_1
1.0000 gamma my_137_2_0_rho0  PHSP;
Enddecay
Decay my_137_1_0_eta
1.0000 gamma e+ e-  PHSP;
Enddecay
Decay my_137_2_0_rho0
1.0000 pi+ pi-  VSS;
Enddecay
Decay my_138_1_0_a_10
1.0000 my_138_2_0_rho+ pi-  VVS_PWAVE 1.0 0.0 0.0 0.0 0.0 0.0;
Enddecay
Decay my_138_1_0_omega
1.0000 e+ e-  VLL;
Enddecay
Decay my_138_2_0_rho+
1.0000 pi+ my_138_3_0_pi0  VSS;
Enddecay
Decay my_138_3_0_pi0
1.0000 gamma gamma  PHSP;
Enddecay
Decay my_139_1_0_a_10
1.0000 my_139_2_0_rho- pi+  VVS_PWAVE 1.0 0.0 0.0 0.0 0.0 0.0;
Enddecay
Decay my_139_1_0_omega
1.0000 e+ e-  VLL;
Enddecay
Decay my_139_2_0_rho-
1.0000 pi- my_139_3_0_pi0  VSS;
Enddecay
Decay my_139_3_0_pi0
1.0000 gamma gamma  PHSP;
Enddecay
Decay my_140_1_0_a_10
1.0000 my_140_2_0_rho0 my_140_2_0_pi0  VVS_PWAVE 1.0 0.0 0.0 0.0 0.0 0.0;
Enddecay
Decay my_140_1_0_omega
1.0000 e+ e-  VLL;
Enddecay
Decay my_140_2_0_rho0
1.0000 pi+ pi-  VSS;
Enddecay
Decay my_140_2_0_pi0
1.0000 gamma gamma  PHSP;
Enddecay
Decay my_141_1_0_K'_1+
1.0000 my_141_2_0_omega K+  VVS_PWAVE 1.0 0.0 0.0 0.0 0.0 0.0;
Enddecay
Decay my_141_2_0_omega
1.0000 my_141_3_0_pi0 e+ e-  PHSP;
Enddecay
Decay my_141_3_0_pi0
1.0000 gamma gamma  PHSP;
Enddecay
Decay my_142_1_1_eta
1.0000 gamma e+ e-  PHSP;
Enddecay
Decay my_142_1_0_eta
1.0000 gamma pi- pi+  PHSP;
Enddecay
End
