BLOCK DCINFO
   1   SDECAY/HDECAY
   2   1.3b /3.4

BLOCK SPINFO
   1   SOFTSUSY
   2   3.4.0

BLOCK MODSEL
   1   0

BLOCK SMINPUTS
   1    127.90897
   2    1.1663787e-05
   3    0.1184
   4    91.1876
   5    4.18
   6    173.2
   7    1.777

BLOCK MINPAR
   3    37.75

BLOCK EXTPAR
   0   -1
   1   -2548.61
   2    796.1
   3    3709.61
   11   -4106.22
   12    2830.81
   13   -3062.54
   23    437.55
   26    2793.17
   31    3092.3
   32    3092.3
   33    1644.62
   34    2561.81
   35    2561.81
   36    2400.46
   41    1827.91
   42    1827.91
   43    3867.4
   44    2348.01
   45    2348.01
   46    2445.37
   47    3103.95
   48    3103.95
   49    2832.08

BLOCK MASS
   24    80.371004
   25    127.15799
   35    2793.1736
   36    2793.17
   37    2794.4551
   5    4.8187603
   1000001    1970.1974
   2000001    3218.7275
   1000002    1968.684
   2000002    2476.2163
   1000003    1970.1974
   2000003    3218.7275
   1000004    1968.684
   2000004    2476.2163
   1000005    2933.59
   2000005    3926.2735
   1000006    2510.2975
   2000006    3933.4204
   1000011    3100.1702
   2000011    2573.724
   1000012    3098.8387
   1000013    3100.1702
   2000013    2573.724
   1000014    3098.8387
   1000015    1645.0728
   2000015    2398.2933
   1000016    1642.9899
   1000021    3750.6957
   1000022    448.96684
   1000023   -459.05033
   1000025    838.47727
   1000035   -2513.7657
   1000024    451.27587
   1000037    838.70559

BLOCK NMIX
   1   1   -0.010520643
   1   2   -0.14731638
   1   3    0.70531958
   1   4   -0.6933336
   2   1    0.014607
   2   2    0.042196788
   2   3    0.70490062
   2   4    0.70789913
   3   1   -0.0017656044
   3   2    0.98818882
   3   3    0.075045807
   3   4   -0.13359593
   4   1    0.9998364
   4   2   -0.0004215499
   4   3   -0.0027440156
   4   4   -0.017873399

BLOCK UMIX
   1   1   -0.10670171
   1   2    0.99429108
   2   1   -0.99429108
   2   2   -0.10670171

BLOCK VMIX
   1   1   -0.18996488
   1   2    0.98179089
   2   1   -0.98179089
   2   2   -0.18996488

BLOCK STOPMIX
   1   1    0.064686581
   1   2    0.99790563
   2   1   -0.99790563
   2   2    0.064686581

BLOCK SBOTMIX
   1   1    0.0046009677
   1   2    0.99998942
   2   1   -0.99998942
   2   2    0.0046009677

BLOCK STAUMIX
   1   1    0.99993191
   1   2    0.011669591
   2   1   -0.011669591
   2   2    0.99993191

BLOCK ALPHA
      -0.027275419

BLOCK HMIX Q=  3075.62
   1    446.76434
   2    36.762016
   3    241.78721
   4    8129009.7

BLOCK GAUGE Q=  3075.62
   1    0.36514499
   2    0.63953859
   3    1.0065728

BLOCK AU Q=  3075.62
   1   1    0
   2   2    0
   3   3   -4106.22

BLOCK AD Q=  3075.62
   1   1    0
   2   2    0
   3   3    2830.81

BLOCK AE Q=  3075.62
   1   1    0
   2   2    0
   3   3   -3062.54

BLOCK YU Q=  3075.62
   1   1    0
   2   2    0
   3   3    0.81385111

BLOCK YD Q=  3075.62
   1   1    0
   2   2    0
   3   3    0.48953683

BLOCK YE Q=  3075.62
   1   1    0
   2   2    0
   3   3    0.38739985

BLOCK MSOFT Q=  3075.62
   1   -2548.61
   2    796.1
   3    3709.61
   21    7766636.8
   22   -32207.843
   31    3092.3
   32    3092.3
   33    1644.62
   34    2561.81
   35    2561.81
   36    2400.46
   41    1827.91
   42    1827.91
   43    3867.4
   44    2348.01
   45    2348.01
   46    2445.3699
   47    3103.95
   48    3103.95
   49    2832.08

BLOCK HIGGSBOUNDSINPUTHIGGSCOUPLINGSFERMIONS
       0, 1351.4458,3,36,15,15

BLOCK HIGGSBOUNDSINPUTHIGGSCOUPLINGSBOSONS
       0,4,36,21,21,23

DECAY 6  1.4413168
    1   2    5    24

DECAY 1000021  240.59054
    0.078988364   2    1000002   -2
    0.078988364   2   -1000002    2
    0.078988348   2    1000004   -4
    0.078988348   2   -1000004    4
    0.078895991   2    1000001   -1
    0.078895991   2   -1000001    1
    0.078895991   2    1000003   -3
    0.078895991   2   -1000003    3
    0.047891149   2    2000002   -2
    0.047891149   2   -2000002    2
    0.047891124   2    2000004   -4
    0.047891124   2   -2000004    4
    0.044717804   2    1000006   -6
    0.044717804   2   -1000006    6
    0.022826758   2    1000005   -5
    0.022826758   2   -1000005    5
    0.010452235   2    2000001   -1
    0.010452235   2   -2000001    1
    0.010452235   2    2000003   -3
    0.010452235   2   -2000003    3

DECAY 1000006  61.471216
    0.49398213   2    1000024    5
    0.25097341   2    1000023    6
    0.24274765   2    1000022    6
    0.0082900179   2    1000037    5
    0.0040067955   2    1000025    6

DECAY 2000006  146.46516
    0.19860657   2    1000037    5
    0.17137019   2    1000023    6
    0.16480798   2    1000022    6
    0.12525989   2    1000024    5
    0.11618731   2    1000006    23
    0.11256506   2    1000006    25
    0.10604953   2    1000025    6
    0.0032538992   2    1000021    6
    0.0014222182   2    1000035    6
    0.00047734967   2    1000005    24

DECAY 1000005  26.655787
    0.49136647   2   -1000024    6
    0.24936952   2    1000022    5
    0.24801624   2    1000023    5
    0.0045783811   2    1000035    5
    0.004447726   2   -1000037    6
    0.0022207125   2    1000025    5
    9.597542e-07   2    1000006   -24

DECAY 2000005  146.71696
    0.33134402   2   -1000024    6
    0.22354232   2    1000006   -24
    0.20880213   2   -1000037    6
    0.097643297   2    1000025    5
    0.063948917   2    1000022    5
    0.061861464   2    1000023    5
    0.010990257   2    1000021    5
    0.0013796319   2    1000035    5
    0.00024692672   2    1000005    25
    0.00024103563   2    1000005    23

DECAY 1000002  16.502921
    0.63562131   2    1000037    1
    0.32182452   2    1000025    2
    0.031823531   2    1000024    1
    0.0098420764   2    1000022    2
    0.00088856139   2    1000023    2

DECAY 2000002  0.0052934846
    0.21931792   2    1000023    2
    0.15861008   3    2    24   -1000024
    0.11411928   2    1000022    2
    0.082144378   3    2    23    1000022
    0.080096577   3    2    25    1000023
    0.076937977   3    2   -24    1000024
    0.037723733   3    2    23    1000023
    0.033605463   3    2    25    1000022
    0.028172369   3    2   -4    1000004
    0.028121363   3    2   -1    1000001
    0.028051465   3    2   -3    1000003
    0.02770009   3    2   -2    1000002
    0.01118526   3    2   -16    1000016
    0.011020151   3    2   -15    1000015
    0.010448505   3    2    2   -1000002
    0.01026186   3    2    4   -1000004
    0.010162304   3    2    3   -1000003
    0.010081828   3    2    1   -1000001
    0.0085882936   3    2    15   -1000015
    0.0084411315   3    2    16   -1000016
    0.0026128346   3    2    24   -1000037
    0.0012747746   3    2    23    1000025
    0.00085497556   3    2   -24    1000037
    0.0004515551   3    2    25    1000025
    8.1717438e-06   3    2    15   -2000015
    7.6688614e-06   3    2   -15    2000015

DECAY 1000001  16.430419
    0.65570903   2   -1000037    2
    0.32414047   2    1000025    1
    0.010093621   2   -1000024    2
    0.009370788   2    1000022    1
    0.00068608828   2    1000023    1

DECAY 2000001  0.28990456
    0.99798298   2    1000035    1
    0.0013158085   2    1000023    1
    0.00068378376   2    1000022    1
    1.7431786e-05   2    1000025    1

DECAY 1000004  16.276321
    0.63556935   2    1000037    3
    0.32179809   2    1000025    4
    0.031882113   2    1000024    3
    0.0098602841   2    1000022    4
    0.00089016448   2    1000023    4

DECAY 2000004  0.0052933354
    0.21943878   2    1000023    4
    0.15846152   3    4    24   -1000024
    0.11418736   2    1000022    4
    0.082082461   3    4    23    1000022
    0.079976039   3    4    25    1000023
    0.077174403   3    4   -24    1000024
    0.037688902   3    4    23    1000023
    0.033534622   3    4    25    1000022
    0.028229838   3    4   -4    1000004
    0.0279748   3    4   -3    1000003
    0.027914347   3    4   -2    1000002
    0.027689536   3    4   -1    1000001
    0.011295336   3    4   -16    1000016
    0.010931671   3    4   -15    1000015
    0.01031618   3    4    2   -1000002
    0.01031089   3    4    1   -1000001
    0.010271407   3    4    4   -1000004
    0.010130475   3    4    3   -1000003
    0.0086151729   3    4    16   -1000016
    0.0085549085   3    4    15   -1000015
    0.0026197093   3    4    24   -1000037
    0.0012742627   3    4    23    1000025
    0.00085936364   3    4   -24    1000037
    0.00045222904   3    4    25    1000025
    8.110954e-06   3    4    15   -2000015
    7.6738005e-06   3    4   -15    2000015

DECAY 1000003  16.204789
    0.65568303   2   -1000037    4
    0.32412848   2    1000025    3
    0.010112615   2   -1000024    4
    0.0093885277   2    1000022    3
    0.00068735565   2    1000023    3

DECAY 2000003  0.28917929
    0.99794052   2    1000035    3
    0.0013435013   2    1000023    3
    0.00069820638   2    1000022    3
    1.7771104e-05   2    1000025    3

DECAY 1000011  33.052841
    0.64811115   2   -1000037    12
    0.31946486   2    1000025    11
    0.014568377   2    1000035    11
    0.0085983538   2    1000022    11
    0.008324932   2   -1000024    12
    0.00093232519   2    1000023    11

DECAY 2000011  0.041684929
    0.18089032   3    11    24   -1000024
    0.14982393   3    11   -24    1000024
    0.10949761   3    11    25    1000023
    0.10730497   3    11    23    1000022
    0.065511087   2    1000023    11
    0.057466813   3    11    23    1000023
    0.053105525   3    11    25    1000022
    0.044649231   3    11   -15    1000015
    0.043946339   3    11   -16    1000016
    0.043303421   3    11    16   -1000016
    0.042768455   3    11    15   -1000015
    0.034081324   2    1000022    11
    0.0063281865   3    11   -3    1000003
    0.0062317487   3    11   -4    1000004
    0.006231029   3    11   -1    1000001
    0.0062185545   3    11   -2    1000002
    0.0061542627   3    11    2   -1000002
    0.0061499446   3    11    4   -1000004
    0.0061429876   3    11    1   -1000001
    0.0061187583   3    11    3   -1000003
    0.00346816   3    11    24   -1000037
    0.0034017091   3    11    15   -2000015
    0.00339955   3    11   -15    2000015
    0.002877059   3    11   -24    1000037
    0.0024327738   3    11    23    1000025
    0.0006529938   3    11    25    1000025
    0.00046275718   3    11   -4    2000004
    0.00046196553   3    11    2   -2000002
    0.00045966254   3    11   -2    2000002
    0.00045887088   3    11    4   -2000004

DECAY 1000013  33.052841
    0.64811115   2   -1000037    14
    0.31946486   2    1000025    13
    0.014568377   2    1000035    13
    0.0085983538   2    1000022    13
    0.008324932   2   -1000024    14
    0.00093232519   2    1000023    13

DECAY 2000013  0.041815225
    0.18023339   3    13    24   -1000024
    0.15007452   3    13   -24    1000024
    0.11153593   3    13    25    1000023
    0.10697061   3    13    23    1000022
    0.065306953   2    1000023    13
    0.057287746   3    13    23    1000023
    0.052940047   3    13    25    1000022
    0.044510103   3    13   -15    1000015
    0.043809401   3    13   -16    1000016
    0.043166095   3    13    16   -1000016
    0.042635188   3    13    15   -1000015
    0.033975126   2    1000022    13
    0.0063084677   3    13   -3    1000003
    0.0062874227   3    13   -4    1000004
    0.006211613   3    13   -1    1000001
    0.0061991774   3    13   -2    1000002
    0.0061350859   3    13    2   -1000002
    0.0061307812   3    13    4   -1000004
    0.0061267157   3    13    1   -1000001
    0.0060879739   3    13    3   -1000003
    0.0034937035   3    13    24   -1000037
    0.0033911093   3    13    15   -2000015
    0.003388957   3    13   -15    2000015
    0.0028678549   3    13   -24    1000037
    0.0024251932   3    13    23    1000025
    0.00065830089   3    13    25    1000025
    0.00046554813   3    13    2   -2000002
    0.00046131522   3    13   -4    2000004
    0.00045823022   3    13   -2    2000002
    0.00045744103   3    13    4   -2000004

DECAY 1000015  15.293296
    0.47315928   2   -1000037    16
    0.23433107   2    1000025    15
    0.14637074   2    1000022    15
    0.13645855   2    1000023    15
    0.0096803538   2   -1000024    16

DECAY 2000015  13.651741
    0.48042154   2   -1000024    16
    0.24238287   2    1000023    15
    0.24174437   2    1000022    15
    0.012726166   2    1000016   -24
    0.0066810611   2    1000015    25
    0.0064755043   2    1000015    23
    0.0063997013   2   -1000037    16
    0.003168782   2    1000025    15

DECAY 1000012  33.079289
    0.63105543   2    1000037    11
    0.32033351   2    1000025    12
    0.02635327   2    1000024    11
    0.014545405   2    1000035    12
    0.0072944632   2    1000022    12
    0.00041792493   2    1000023    12

DECAY 1000014  33.079289
    0.63105543   2    1000037    13
    0.32033351   2    1000025    14
    0.02635327   2    1000024    13
    0.014545405   2    1000035    14
    0.0072944632   2    1000022    14
    0.00041792493   2    1000023    14

DECAY 1000016  15.331916
    0.46161298   2    1000037    15
    0.29717245   2    1000024    15
    0.23333549   2    1000025    16
    0.0074542981   2    1000022    16
    0.00042478417   2    1000023    16

DECAY 1000024  7.3458823e-11
    0.37365407   3    1000022    2   -1
    0.37365407   3    1000022    4   -3
    0.12454559   3    1000022   -11    12
    0.12454559   3    1000022   -13    14
    0.0036006862   3    1000022   -15    16

DECAY 1000037  5.7657588
    0.2562903   2    1000024    23
    0.25262352   2    1000022    24
    0.25036602   2    1000023    24
    0.24072017   2    1000024    25

DECAY 1000022 -1


DECAY 1000023  3.2944987e-07
    0.54280273   2    1000022    22
    0.046828624   3    1000022   -1    1
    0.046828624   3    1000022   -3    3
    0.036082048   3    1000022   -2    2
    0.036082048   3    1000022   -4    4
    0.033508057   3    1000024   -2    1
    0.033508057   3   -1000024   -1    2
    0.033508057   3    1000024   -4    3
    0.033508057   3   -1000024   -3    4
    0.021503762   3    1000022   -16    16
    0.021503379   3    1000022   -12    12
    0.021503379   3    1000022   -14    14
    0.01116927   3    1000024   -12    11
    0.01116927   3   -1000024    12   -11
    0.01116927   3    1000024   -14    13
    0.01116927   3   -1000024    14   -13
    0.010754474   3    1000022   -11    11
    0.010754474   3    1000022   -13    13
    0.0089099351   3    1000022   -15    15
    0.0086922826   3    1000024   -16    15
    0.0086922826   3   -1000024    16   -15
    0.00035264657   3    1000022   -5    5

DECAY 1000025  5.7642714
    0.25874875   2    1000024   -24
    0.25874875   2   -1000024    24
    0.22826774   2    1000023    23
    0.21776669   2    1000022    25
    0.02031084   2    1000022    23
    0.016157239   2    1000023    25

DECAY 1000035  9.1019497
    0.15886479   2    1000024   -24
    0.15886479   2   -1000024    24
    0.11728612   2    1000023    25
    0.10528486   2    1000022    23
    0.061112586   2    1000022    25
    0.060160691   2    1000016   -16
    0.060160691   2   -1000016    16
    0.059781794   2    1000015   -15
    0.059781794   2   -1000015    15
    0.058835467   2    1000023    23
    0.0092785954   2    1000001   -1
    0.0092785954   2   -1000001    1
    0.0092785954   2    1000003   -3
    0.0092785954   2   -1000003    3
    0.0092411479   2    1000002   -2
    0.0092411479   2   -1000002    2
    0.0092411177   2    1000004   -4
    0.0092411177   2   -1000004    4
    0.0058987557   2    2000015   -15
    0.0058987557   2   -2000015    15
    0.003343286   2    1000037   -24
    0.003343286   2   -1000037    24
    0.0026646399   2    1000025    23
    0.00096326664   2    2000002   -2
    0.00096326664   2   -2000002    2
    0.00096249857   2    2000004   -4
    0.00096249857   2   -2000004    4
    0.00078726274   2    1000025    25

DECAY 25  0.0044330057
    0.5697662   2    5   -5
    0.2397467   2    24   -24
    0.075680575   2    21    21
    0.059721383   2   -15    15
    0.030821914   2    23    23
    0.019835261   2    4   -4
    0.0022869528   2    22    22
    0.0016997085   2    22    23
    0.00022991416   2    3   -3
    0.0002113962   2   -13    13

DECAY 35  77.866373
    0.54450554   2    5   -5
    0.11398596   2    1000024   -1000037
    0.11398596   2    1000037   -1000024
    0.096488633   2   -15    15
    0.067613835   2    1000023    1000025
    0.047045864   2    1000022    1000025
    0.008913768   2    1000024   -1000024
    0.0024404337   2    1000022    1000022
    0.0015415123   2    1000037   -1000037
    0.0010852441   2    6   -6
    0.00089720519   2    1000022    1000023
    0.00077535175   2    1000025    1000025
    0.00034850619   2   -13    13
    0.00020083492   2    3   -3
    0.00015860608   2    1000023    1000023
    9.7363003e-06   2    21    21
    2.0999146e-06   2    25    25
    5.7706569e-07   2    24   -24
    2.8783662e-07   2    23    23
    3.1740629e-08   2    22    22
    1.1061999e-08   2    4   -4
    5.3316828e-09   2    23    22

DECAY 36  77.866056
    0.54452274   2    5   -5
    0.11244969   2    1000024   -1000037
    0.11244969   2    1000037   -1000024
    0.096489487   2   -15    15
    0.065112957   2    1000022    1000025
    0.048473908   2    1000023    1000025
    0.010573188   2    1000024   -1000024
    0.0030295502   2    1000022    1000022
    0.0029350158   2    1000037   -1000037
    0.0014721315   2    1000025    1000025
    0.0010898755   2    6   -6
    0.00067093075   2    1000022    1000023
    0.0003485087   2   -13    13
    0.00020084689   2    3   -3
    0.00015938297   2    1000023    1000023
    2.141631e-05   2    21    21
    5.8421857e-07   2    23    25
    7.2406785e-08   2    22    22
    1.5047194e-08   2    23    22
    1.1098866e-08   2    4   -4

DECAY 37  75.812027
    0.53280915   2    6   -5
    0.12410973   2    1000037    1000022
    0.12036551   2    1000024    1000025
    0.11837995   2    1000037    1000023
    0.099149342   2   -15    16
    0.0034183958   2    1000024    1000023
    0.00089531047   2    4   -5
    0.00035811578   2   -13    14
    0.00029152507   2    1000024    1000022
    0.00020310252   2    4   -3
    1.0318103e-05   2    2   -3
    8.9530925e-06   2    2   -5
    6.0131267e-07   2    24    25
    3.3394893e-09   2    1000037    1000025
    6.0826627e-14   2    24    36

DECAY 5 -1


DECAY 15 -1


DECAY 23  2.4952


DECAY 24  2.085
