BLOCK SPINFO
   1   SPheno
   2   v4.0.5be

BLOCK SPHENOINFO
   1   2
   2   2

BLOCK MODSEL
   1   0

BLOCK MINPAR
   3    34.144499
   4   -1

BLOCK EXTPAR
   0    2693.3506
   1   -2207.7909
   2    4224.3828
   3    2107.0323
   11   -7657.9065
   12    1178.1406
   13   -7514.4526
   23   -1105.0325
   25    33.088315
   26    1090.6055
   31    2205.9353
   32    2205.9353
   33    4861.3603
   34    1753.5075
   35    1753.5075
   36    4431.6509
   41    2246.628
   42    2246.628
   43    3528.4647
   44    2127.2576
   45    2127.2576
   46    2095.2175
   47    4524.9612
   48    4524.9612
   49    3941.6618

BLOCK SMINPUTS
   1    127.90897
   2    1.1663787e-05
   3    0.1184
   4    91.1876
   5    4.18
   6    173.2
   7    1.777
   8    0
   11    0.00051099893
   12    0
   13    0.10565837
   14    0
   21    0.005
   22    0.0025
   23    0.095
   24    1.27

BLOCK GAUGE Q=  2693.3506
   1    0.35536298
   2    0.66519887
   3    1.219778

BLOCK YU Q=  2693.3506
   1   1    8.3882003e-06
   2   2    0.0042612058
   3   3    1.013362

BLOCK YD Q=  2693.3506
   1   1    0.0005577296
   2   2    0.010596862
   3   3    0.55309299

BLOCK YE Q=  2693.3506
   1   1    9.7327893e-05
   2   2    0.020124322
   3   3    0.33845798

BLOCK AU Q=  2693.3506
   1   1    0
   2   2    0
   3   3   -7657.9062

BLOCK AD Q=  2693.3506
   1   1    0
   2   2    0
   3   3    1178.1405

BLOCK AE Q=  2693.3506
   1   1    0
   2   2    0
   3   3   -7514.4527

BLOCK MSOFT Q=  2693.3506
   1   -2207.7909
   2    4224.3828
   3    2107.0323
   21   -65894.344
   22   -1188437.5
   31    2205.9353
   32    2205.9353
   33    4861.3603
   34    1753.5075
   35    1753.5075
   36    4431.6509
   41    2246.628
   42    2246.628
   43    3528.4647
   44    2127.2576
   45    2127.2576
   46    2095.2175
   47    4524.9612
   48    4524.9612
   49    3941.6618

BLOCK MASS
   6    173.2
   23    91.1876
   24    80.429995
   15    1.777
   25    123.9221
   35    1090.5459
   36    1090.6055
   37    1093.735
   1000001    2361.2338
   2000001    4577.4575
   1000002    2359.9714
   2000002    2225.0583
   1000003    2361.2321
   2000003    4577.4536
   1000004    2359.9699
   2000004    2225.0579
   1000005    3502.6215
   2000005    3987.4742
   1000006    2058.1597
   2000006    3524.5744
   1000011    2226.1668
   2000011    1769.0755
   1000012    2224.3967
   1000013    2226.1574
   2000013    1769.0523
   1000014    2224.385
   1000015    4433.5321
   2000015    4871.9866
   1000016    4871.2128
   1000021    2335.6654
   1000022    1123.0681
   1000023   -1123.7821
   1000025   -2180.7503
   1000035    4172.4892
   1000024    1124.0291
   1000037    4172.5482

BLOCK ALPHA
      -0.029676115

BLOCK HMIX Q=  2693.3506
   1   -1105.0325
   2    33.088315
   3    243.33358
   4    1189420.4

BLOCK STOPMIX
   1   1    0.13067111
   1   2    0.99142577
   2   1   -0.99142577
   2   2    0.13067111

BLOCK SBOTMIX
   1   1   -0.99976519
   1   2    0.021669564
   2   1   -0.021669564
   2   2   -0.99976519

BLOCK STAUMIX
   1   1   -0.012418782
   1   2    0.99992288
   2   1   -0.99992288
   2   2   -0.012418782

BLOCK NMIX
   1   1   -0.0092438946
   1   2   -0.0174654
   1   3   -0.70725193
   1   4   -0.70668538
   2   1    0.030307435
   2   2    0.010725834
   2   3   -0.7067887
   2   4    0.70669381
   3   1   -0.99949787
   3   2    0.00034929154
   3   3   -0.014890012
   3   4    0.027967385
   4   1    0.00013743357
   4   2   -0.99978988
   4   3    0.0047673399
   4   4    0.019936381

BLOCK UMIX
   1   1   -0.0067451001
   1   2   -0.99997725
   2   1    0.99997725
   2   2   -0.0067451001

BLOCK VMIX
   1   1   -0.028200144
   1   2    0.9996023
   2   1    0.9996023
   2   2    0.028200144

BLOCK HIGGSBOUNDSINPUTHIGGSCOUPLINGSFERMIONS
       0, 1094.8366,3,36,15,15

BLOCK HIGGSBOUNDSINPUTHIGGSCOUPLINGSBOSONS
       0,4,36,21,21,23

BLOCK SPHENOLOWENERGY
   1    0.00038960586
   2    1.5911805e-06
   3    3.5320377e-05
   4    1.5555001e-15
   5    6.6444858e-11
   6    1.3654244e-08
   7    5.2617596e-14
   8    2.2476813e-09
   9    4.6836207e-07
   10    8.8702018e-05
   11    0.91625789
   12    0.54292172
   13    19.354523
   14    0
   15    0
   16    0.0021638677
   17    2.2817327e-15
   18    2.4853212e-11
   19    8.3019282e-11
   20   -7.8824722e-16
   21   -3.3699467e-11
   22   -7.326025e-09
   23    0
   24    0
   25    0
   26    0
   27    0
   28    0
   29    0
   30    0
   31    0
   39    0.0001071621
   40    0
   41    0
   42    0

BLOCK FWCOEF Q=  160
   305   4422   0   0   -0.18881911
   305   4422   0   2   -0.261143
   305   4322   0   2   -0.0018415186
   305   6421   0   0   -0.095227835
   305   6421   0   2   -0.15707712
   305   6321   0   2   -0.0015754096
   3051111   4133   0   0    1.6128917
   3051111   4133   0   2    1.6139371
   3051111   4233   0   2    0.00025425071
   3051111   4137   0   0   -4.4355838
   3051111   4137   0   2   -4.4406588
   3051111   4237   0   2   -0.0019199113
   3051313   4133   0   0    1.6128917
   3051313   4133   0   2    1.6139353
   3051313   4233   0   2    0.00025424497
   3051313   4137   0   0   -4.4355838
   3051313   4137   0   2   -4.4406606
   3051313   4237   0   2   -0.0019199069
   3051212   4137   0   0    1.5053501
   3051212   4137   0   2    1.506451
   3051212   4237   0   2    0.00041644865
   3051414   4137   0   0    1.5053501
   3051414   4137   0   2    1.506451
   3051414   4237   0   2    0.00041644982
   3051616   4137   0   0    1.5053501
   3051616   4137   0   2    1.5064514
   3051616   4237   0   2    0.00041677897

BLOCK IMFWCOEF Q=  160
   305   4422   0   0    3.8570128e-07
   305   4422   0   2   -2.470622e-05
   305   4322   0   2   -2.2196307e-05
   305   6421   0   0    3.3037865e-07
   305   6421   0   2    3.6555919e-05
   305   6321   0   2   -1.5374378e-05
   3051111   4133   0   2   -6.7923064e-09
   3051111   4233   0   2    6.9127668e-06
   3051111   4137   0   2    4.7576353e-06
   3051111   4237   0   2   -5.2209318e-05
   3051313   4133   0   2   -6.8414633e-09
   3051313   4233   0   2    6.9127606e-06
   3051313   4137   0   2    4.7575849e-06
   3051313   4237   0   2   -5.2209336e-05
   3051212   4137   0   2   -1.0315019e-06
   3051212   4237   0   2    1.132474e-05
   3051414   4137   0   2   -1.031502e-06
   3051414   4237   0   2    1.132474e-05
   3051616   4137   0   2   -1.0240251e-06
   3051616   4237   0   2    1.132474e-05

DECAY 23  2.4952


DECAY 24  2.085


DECAY 2000011  0.0031758456
    0.91470648   2    1000023    11
    0.0852562   2    1000022    11

DECAY 1000011  0.011721027
    0.38823694   2    1000025    11
    0.33632819   2    1000023    11
    0.23320698   2    1000022    11
    0.042226325   2   -1000024    12

DECAY 2000013  0.013317515
    0.40837967   2    1000023    13
    0.38052191   2   -1000024    14
    0.21109842   2    1000022    13

DECAY 1000013  0.022462923
    0.39695019   2    1000023    13
    0.34367227   2    1000022    13
    0.20249881   2    1000025    13
    0.034845491   2    2000013    25
    0.022033239   2   -1000024    14

DECAY 1000015  30.504039
    0.41917635   2    1000025    15
    0.29005681   2   -1000024    16
    0.14551868   2    1000023    15
    0.14524613   2    1000022    15

DECAY 2000015  18.507531
    0.26940144   2    1000022    15
    0.26932553   2    1000023    15
    0.21125194   2    1000025    15
    0.16458417   2   -1000037    16
    0.082261309   2    1000035    15
    0.0016175189   2    1000015    25
    0.0015577199   2    1000015    23

DECAY 1000012  0.013870704
    0.62254284   2    1000024    11
    0.30426928   2    1000025    12
    0.061494504   2    1000022    12
    0.011693374   2    1000023    12

DECAY 1000014  0.023806602
    0.78017199   2    1000024    13
    0.17718628   2    1000025    14
    0.035828775   2    1000022    14
    0.0068129546   2    1000023    14

DECAY 1000016  18.514309
    0.53909459   2    1000024    15
    0.21136418   2    1000025    16
    0.16409712   2    1000037    15
    0.08210487   2    1000035    16
    0.003145318   2    1000015    24
    0.00016292724   2    1000022    16

DECAY 1000001  0.095923688
    0.90144827   2    1000021    1
    0.074488893   2    1000025    1
    0.016279704   2    1000022    1
    0.0058968857   2   -1000024    2
    0.0018862499   2    1000023    1

DECAY 2000001  199.19154
    0.99232932   2    1000021    1
    0.0076590501   2    1000025    1

DECAY 1000003  0.099567027
    0.86832811   2    1000021    3
    0.071761873   2    1000025    3
    0.031510537   2    1000022    3
    0.017606331   2    1000023    3
    0.010793147   2   -1000024    4

DECAY 2000003  199.20936
    0.99223852   2    1000021    3
    0.0076583566   2    1000025    3

DECAY 1000005  303.36272
    0.45935323   2    1000006   -24
    0.28102082   2    1000021    5
    0.1882374   2   -1000024    6
    0.028323476   2    1000022    5
    0.028257435   2    1000023    5
    0.014202789   2    1000006   -37
    0.0006048576   2    1000025    5

DECAY 2000005  178.74338
    0.75989908   2    1000021    5
    0.11485861   2   -1000024    6
    0.057525665   2    1000022    5
    0.057468951   2    1000023    5
    0.0061432383   2    1000025    5
    0.0012245508   2    1000005    25
    0.0011126424   2    2000006   -24
    0.00076170902   2    1000006   -24
    0.00063921223   2    1000005    23
    0.00036634725   2    1000006   -37

DECAY 2000002  0.010485947
    0.73598186   2    1000025    2
    0.24152945   2    1000023    2
    0.022488526   2    1000022    2

DECAY 1000002  0.09899296
    0.79021721   2    1000021    2
    0.099850392   2    1000024    1
    0.070690768   2    1000025    2
    0.022932758   2    1000022    2
    0.016308869   2    1000023    2

DECAY 2000004  0.011374554
    0.67810874   2    1000025    4
    0.2423566   2    1000023    4
    0.04036575   2    1000022    4
    0.039168913   2    1000024    3

DECAY 1000004  0.10250247
    0.76178115   2    1000021    4
    0.12710346   2    1000024    3
    0.068268705   2    1000025    4
    0.024621912   2    1000022    4
    0.018224743   2    1000023    4

DECAY 1000006  40.028273
    0.51338368   2    1000024    5
    0.24348118   2    1000022    6
    0.24312976   2    1000023    6

DECAY 2000006  338.23746
    0.30503882   2    1000006    25
    0.24704557   2    1000021    6
    0.21022695   2    1000006    23
    0.086088209   2    1000023    6
    0.085840386   2    1000022    6
    0.052444704   2    1000024    5
    0.0066063047   2    1000006    36
    0.0061269808   2    1000006    35
    0.00058207923   2    1000025    6

DECAY 1000024  8.9375426e-13
    0.71953132   2    1000022    211
    0.14403519   3    1000022   -11    12
    0.13574905   3    1000022   -13    14
    0.00048423532   3    1000023   -11    12
    0.00020021053   3    1000023   -13    14

DECAY 1000037  216.23986
    0.11775894   2    1000004   -3
    0.11775879   2    1000002   -1
    0.11772866   2   -1000003    4
    0.11772855   2   -1000001    2
    0.043482265   2    1000014   -13
    0.043481897   2    1000012   -11
    0.043459818   2   -1000013    14
    0.043459527   2   -1000011    12
    0.04086217   2    1000024    25
    0.038320644   2    1000023    24
    0.038280656   2    1000024    23
    0.03827862   2    1000022    24
    0.03730376   2    37    1000022
    0.037290227   2    1000024    36
    0.037253729   2    1000024    35
    0.034892647   2    37    1000023
    0.021093229   2   -1000005    6
    0.020771946   2    2000006   -5
    0.0042201481   3    1000024    6   -6
    0.0027952633   3    1000023   -5    6
    0.0025971205   3    1000022   -5    6
    0.0011306138   2    1000006   -5

DECAY 1000022 -1


DECAY 1000023  9.9389118e-11
    0.99279192   2    1000022    22
    0.0055070057   2    1000022    111
    0.0013177442   3    1000022    12   -12
    0.00022237278   3    1000022    11   -11
    0.00016096123   3    1000022    13   -13

DECAY 1000025  9.2853183
    0.15202684   2    1000024   -24
    0.15202684   2   -1000024    24
    0.1397251   2    1000022    23
    0.13036061   2    1000023    25
    0.11607376   2    1000022    25
    0.068917939   2    2000013   -13
    0.068917939   2   -2000013    13
    0.068910951   2    2000011   -11
    0.068910951   2   -2000011    11
    0.012980992   2    1000023    23
    0.0058187089   3    1000024    5   -6
    0.0058187089   3   -1000024   -5    6
    0.0022752087   3    1000022    5   -5
    0.0022620759   3    1000023    6   -6
    0.001994873   3    1000023    5   -5
    0.0019212885   3    1000022    6   -6
    0.00028352141   3    1000022    15   -15
    0.00025669503   3    1000024    15   -16
    0.00025669503   3   -1000024   -15    16
    0.00024858489   3    1000023    15   -15

DECAY 1000035  221.06611
    0.057610454   2    1000004   -4
    0.057610454   2   -1000004    4
    0.057610408   2    1000002   -2
    0.057610408   2   -1000002    2
    0.057558139   2    1000003   -3
    0.057558139   2   -1000003    3
    0.057558061   2    1000001   -1
    0.057558061   2   -1000001    1
    0.03748808   2    1000024   -24
    0.03748808   2   -1000024    24
    0.03644566   2    37   -1000024
    0.03644566   2   -37    1000024
    0.032785237   2    1000023    25
    0.029076563   2    1000022    25
    0.028762545   2    1000022    35
    0.027207319   2    1000023    23
    0.02551577   2    1000023    35
    0.021276813   2    1000014   -14
    0.021276813   2   -1000014    14
    0.021276635   2    1000012   -12
    0.021276635   2   -1000012    12
    0.021243646   2    1000013   -13
    0.021243646   2   -1000013    13
    0.021243502   2    1000011   -11
    0.021243502   2   -1000011    11
    0.010856825   2    1000005   -5
    0.010856825   2   -1000005    5
    0.010255448   2    1000022    23
    0.0096221938   2    2000006   -6
    0.0096221938   2   -2000006    6
    0.0086789521   2    1000023    36
    0.0077053794   2    1000022    36
    0.0025425129   3    1000024    5   -6
    0.0025425129   3   -1000024   -5    6
    0.0021516729   3    1000023    6   -6
    0.0020295719   3    1000022    6   -6
    0.00054703823   2    1000006   -6
    0.00054703823   2   -1000006    6

DECAY 1000021  3.4926595
    0.32913757   2    1000006   -6
    0.32913757   2   -1000006    6
    0.084626512   2    2000002   -2
    0.084626512   2   -2000002    2
    0.084621917   2    2000004   -4
    0.084621917   2   -2000004    4
    0.000570308   3    1000024    5   -6
    0.000570308   3   -1000024   -5    6
    0.00040967049   2    1000022    21
    0.00040383505   2    1000023    21
    0.00036708617   3    1000023    6   -6
    0.00036620493   3    1000022    6   -6
    0.00024089834   3    1000022    5   -5
    0.00023995891   3    1000023    5   -5

DECAY 25  0.0037801354
    0.59312358   2   -5    5
    0.20909451   2   -24    24
    0.072017963   2    21    21
    0.068122829   2   -15    15
    0.028690728   2   -4    4
    0.024772117   2    23    23
    0.0023246087   2    22    22
    0.0013937051   2    22    23
    0.00023608322   2   -13    13
    0.00022310577   2   -3    3
    6.1686746e-07   2   -1    1
    1.4785324e-07   2   -2    2
    5.3074268e-09   2   -11    11

DECAY 35  17.265793
    0.85079218   2   -5    5
    0.14621059   2   -15    15
    0.0020826132   2   -6    6
    0.00047936957   2   -13    13
    0.00038514091   2   -3    3
    3.5556691e-05   2    21    21
    7.6868118e-06   2    25    25
    3.1390932e-06   2   -24    24
    2.5851125e-06   2    23    23
    1.0653335e-06   2   -1    1
    3.3199134e-08   2   -4    4
    2.0740656e-08   2    22    22
    1.1827564e-08   2    22    23
    1.0769717e-08   2   -11    11
    1.7120473e-13   2   -2    2

DECAY 36  16.794523
    0.85043105   2   -5    5
    0.14614555   2   -15    15
    0.0024860267   2   -6    6
    0.00047915043   2   -13    13
    0.00038496425   2   -3    3
    6.8260113e-05   2    21    21
    3.7625336e-06   2    23    25
    1.0648448e-06   2   -1    1
    8.5305128e-08   2    22    22
    3.8454101e-08   2    22    23
    3.5284721e-08   2   -4    4
    1.0764799e-08   2   -11    11
    1.8205399e-13   2   -2    2
    5.0592807e-36   2    25    25

DECAY 37  14.380619
    0.82035147   2   -5    6
    0.1773247   2   -15    16
    0.0012516324   2   -5    4
    0.00062690898   2   -13    14
    0.00040717946   2   -3    4
    1.8831013e-05   2   -3    2
    8.9379677e-06   2   -5    2
    4.5009345e-06   2   -3    6
    4.4552293e-06   2    24    25
    1.1302763e-06   2   -1    2
    1.8031295e-07   2   -1    6
    5.3846097e-08   2   -1    4
    1.4663467e-08   2   -11    12
    3.1134747e-11   2    24    35
    2.8332195e-11   2    24    36

DECAY 6  2.43
    1   2    5    24

DECAY 15 -1
