BLOCK SPINFO
   1   SPheno
   2   v4.0.5be

BLOCK SPHENOINFO
   1   2
   2   2

BLOCK MODSEL
   1   0

BLOCK MINPAR
   3    13.510342
   4    1

BLOCK EXTPAR
   0    1603.6855
   1   -1195.4254
   2   -667.25768
   3    3000
   11   -3815.5935
   12   -471.53027
   13    539.02291
   23    127.2585
   25    12.997562
   26    3479.9369
   31    218.69495
   32    218.69495
   33    1393.4961
   34    1441.05
   35    1441.05
   36    332.16033
   41    5000
   42    5000
   43    1742.4282
   44    5000
   45    5000
   46    1558.2799
   47    5000
   48    5000
   49    938.85127

BLOCK SMINPUTS
   1    127.90897
   2    1.1663787e-05
   3    0.1184
   4    91.1876
   5    4.18
   6    173.2
   7    1.777
   8    0
   11    0.00051099893
   12    0
   13    0.10565837
   14    0
   21    0.005
   22    0.0025
   23    0.095
   24    1.27

BLOCK GAUGE Q=  1603.6855
   1    0.35536298
   2    0.66519887
   3    1.219778

BLOCK YU Q=  1603.6855
   1   1    8.4091507e-06
   2   2    0.0042718485
   3   3    1.0158929

BLOCK YD Q=  1603.6855
   1   1    0.00021963132
   2   2    0.0041729951
   3   3    0.21780544

BLOCK YE Q=  1603.6855
   1   1    3.8327271e-05
   2   2    0.0079248641
   3   3    0.13328318

BLOCK AU Q=  1603.6855
   1   1    0
   2   2    0
   3   3   -3815.5935

BLOCK AD Q=  1603.6855
   1   1    0
   2   2    0
   3   3   -471.53027

BLOCK AE Q=  1603.6855
   1   1    0
   2   2    0
   3   3    539.02291

BLOCK MSOFT Q=  1603.6855
   1   -1195.4254
   2   -667.25768
   3    3000
   21    11989959
   22    102408.08
   31    218.69495
   32    218.69495
   33    1393.4961
   34    1441.05
   35    1441.05
   36    332.16033
   41    5000
   42    5000
   43    1742.4282
   44    5000
   45    5000
   46    1558.2799
   47    5000
   48    5000
   49    938.85127

BLOCK MASS
   6    173.2
   23    91.1876
   24    80.429995
   15    1.777
   25    123.97233
   35    3479.5174
   36    3479.9369
   37    3480.6652
   1000001    5033.8699
   2000001    5023.1686
   1000002    5033.4342
   2000002    5025.234
   1000003    5033.8706
   2000003    5023.1693
   1000004    5033.4349
   2000004    5025.2346
   1000005    948.52156
   2000005    1729.1784
   1000006    1417.912
   2000006    1813.7988
   1000011    256.65916
   2000011    1443.5956
   1000012    243.75312
   1000013    256.66163
   2000013    1443.5958
   1000014    243.75774
   1000015    339.43667
   2000015    1400.7774
   1000016    1398.1966
   1000021    3198.434
   1000022   -129.14358
   1000023    139.09469
   1000025   -708.57747
   1000035   -1191.6396
   1000024    134.08194
   1000037    708.87264

BLOCK ALPHA
      -0.074017557

BLOCK HMIX Q=  1603.6855
   1    127.2585
   2    12.997562
   3    243.90877
   4    12109961

BLOCK STOPMIX
   1   1    0.47556631
   1   2    0.87967988
   2   1   -0.87967988
   2   2    0.47556631

BLOCK SBOTMIX
   1   1    0.0022322585
   1   2    0.99999751
   2   1   -0.99999751
   2   2    0.0022322585

BLOCK STAUMIX
   1   1    0.0010881335
   1   2    0.99999941
   2   1   -0.99999941
   2   2    0.0010881335

BLOCK NMIX
   1   1   -0.026425289
   1   2    0.088391147
   1   3   -0.71964294
   1   4   -0.68818802
   2   1    0.025549123
   2   2   -0.073675096
   2   3   -0.69422969
   2   4    0.71551685
   3   1    0.010218127
   3   2    0.99333969
   3   3    0.012537767
   3   4    0.11408176
   4   1   -0.999272
   4   2    0.0059362974
   4   3    0.0014089511
   4   4    0.037659514

BLOCK UMIX
   1   1   -0.018138291
   1   2    0.99983549
   2   1   -0.99983549
   2   2   -0.018138291

BLOCK VMIX
   1   1    0.16320558
   1   2    0.98659208
   2   1    0.98659208
   2   2   -0.16320558

BLOCK HIGGSBOUNDSINPUTHIGGSCOUPLINGSFERMIONS
       0, 168.93661,3,36,15,15

BLOCK HIGGSBOUNDSINPUTHIGGSCOUPLINGSBOSONS
       0,4,36,21,21,23

BLOCK SPHENOLOWENERGY
   1    0.00030590349
   2    1.5909505e-06
   3    3.5218274e-05
   4    2.7016144e-15
   5    1.1540991e-10
   6    2.4159339e-08
   7    9.0929653e-14
   8    3.8845123e-09
   9    8.2392691e-07
   10    9.6723855e-05
   11    0.99912039
   12    0.54284306
   13    19.395818
   14    0
   15    0
   16    0.002160823
   17    2.2816939e-15
   18    2.4795187e-11
   19    8.2882867e-11
   20   -6.4271972e-15
   21   -2.7478699e-10
   22   -3.4287305e-08
   23    0
   24    0
   25    0
   26    0
   27    0
   28    0
   29    0
   30    0
   31    0
   39    9.3346096e-05
   40    0
   41    0
   42    0

BLOCK FWCOEF Q=  160
   305   4422   0   0   -0.18881911
   305   4422   0   2   -0.17050699
   305   4322   0   2    4.7734979e-05
   305   6421   0   0   -0.095227835
   305   6421   0   2   -0.090172152
   305   6321   0   2   -7.0130338e-05
   3051111   4133   0   0    1.5941355
   3051111   4133   0   2    1.594893
   3051111   4233   0   2    3.1623481e-05
   3051111   4137   0   0   -4.4168276
   3051111   4137   0   2   -4.4117054
   3051111   4237   0   2   -0.00024403328
   3051313   4133   0   0    1.5941355
   3051313   4133   0   2    1.5948921
   3051313   4233   0   2    3.1623468e-05
   3051313   4137   0   0   -4.4168276
   3051313   4137   0   2   -4.4117063
   3051313   4237   0   2   -0.00024403332
   3051212   4137   0   0    1.5053501
   3051212   4137   0   2    1.5042572
   3051212   4237   0   2    5.3159975e-05
   3051414   4137   0   0    1.5053501
   3051414   4137   0   2    1.5042572
   3051414   4237   0   2    5.3159976e-05
   3051616   4137   0   0    1.5053501
   3051616   4137   0   2    1.5042588
   3051616   4237   0   2    5.3159001e-05

BLOCK IMFWCOEF Q=  160
   305   4422   0   0    3.8582965e-07
   305   4422   0   2   -6.3151822e-06
   305   4322   0   2    2.5645602e-06
   305   6421   0   0    3.3048861e-07
   305   6421   0   2   -6.6691361e-06
   305   6321   0   2    1.0213623e-06
   3051111   4133   0   2   -4.2034041e-06
   3051111   4233   0   2    6.2648939e-07
   3051111   4137   0   2    2.7960747e-05
   3051111   4237   0   2   -4.8377646e-06
   3051313   4133   0   2   -4.2034108e-06
   3051313   4233   0   2    6.2648921e-07
   3051313   4137   0   2    2.7960788e-05
   3051313   4237   0   2   -4.8377655e-06
   3051212   4137   0   2   -5.6497187e-06
   3051212   4237   0   2    1.0538504e-06
   3051414   4137   0   2   -5.6497243e-06
   3051414   4237   0   2    1.0538504e-06
   3051616   4137   0   2   -5.6225909e-06
   3051616   4237   0   2    1.0538306e-06

DECAY 23  2.4952


DECAY 24  2.085


DECAY 1000011  0.0059000467
    0.58912968   2    1000022    11
    0.34416157   2    1000023    11
    0.066603627   2   -1000024    12

DECAY 2000011  0.74529854
    0.98649115   2    1000035    11
    0.0066877777   2    1000022    11
    0.0062355115   2    1000023    11
    0.00058550509   2    1000025    11

DECAY 1000013  0.0060697797
    0.58782466   2    1000022    13
    0.34733053   2    1000023    13
    0.064742709   2   -1000024    14

DECAY 2000013  0.74885146
    0.98181243   2    1000035    13
    0.0078834364   2    1000022    13
    0.0073453573   2    1000023    13
    0.0023664383   2   -1000024    14
    0.00058294343   2    1000025    13

DECAY 1000015  0.17254891
    0.49512858   2   -1000024    16
    0.2683309   2    1000022    15
    0.23654052   2    1000023    15

DECAY 2000015  10.905616
    0.62553134   2   -1000037    16
    0.31230201   2    1000025    15
    0.026147792   2    1000022    15
    0.023469686   2    1000023    15
    0.012027643   2    1000035    15
    0.00035648997   2   -1000024    16

DECAY 1000012  0.037353438
    0.74423768   2    1000024    11
    0.15615535   2    1000022    12
    0.099606965   2    1000023    12

DECAY 1000014  0.03750621
    0.74526641   2    1000024    13
    0.15552684   2    1000022    14
    0.099206751   2    1000023    14

DECAY 1000016  10.982852
    0.60213057   2    1000037    15
    0.30202787   2    1000025    16
    0.07347541   2    1000024    15
    0.012224243   2    1000035    16
    0.0057880276   2    1000022    16
    0.0041887485   2    1000023    16
    0.00016512426   2    1000015    24

DECAY 2000001  142.66306
    0.98248971   2    1000021    1
    0.017481726   2    1000035    1

DECAY 1000001  205.77485
    0.6865678   2    1000021    1
    0.20682468   2   -1000037    2
    0.10170281   2    1000025    1
    0.0032440794   2    1000035    1
    0.00093200035   2    1000022    1
    0.00065787732   2    1000023    1

DECAY 2000003  142.6666
    0.98246585   2    1000021    3
    0.017481296   2    1000035    3

DECAY 1000003  205.77849
    0.686556   2    1000021    3
    0.20682128   2   -1000037    4
    0.10170103   2    1000025    3
    0.0032440226   2    1000035    3
    0.00093635474   2    1000022    3
    0.00066193296   2    1000023    3

DECAY 1000005  1.6605445
    0.48182543   2   -1000024    6
    0.26948572   2    1000022    5
    0.24866915   2    1000023    5

DECAY 2000005  76.997556
    0.43435329   2   -1000024    6
    0.32724544   2    1000006   -24
    0.14771232   2   -1000037    6
    0.067286962   2    1000025    5
    0.011684276   2    1000022    5
    0.010694349   2    1000023    5
    0.00092164194   2    1000035    5

DECAY 2000002  150.37716
    0.93351828   2    1000021    2
    0.066373552   2    1000035    2

DECAY 1000002  205.7716
    0.68635829   2    1000021    2
    0.20136628   2    1000037    1
    0.10244277   2    1000025    2
    0.0057275299   2    1000024    1
    0.0028384235   2    1000035    2
    0.00075302712   2    1000022    2
    0.00051368257   2    1000023    2

DECAY 2000004  150.38081
    0.93349569   2    1000021    4
    0.066371948   2    1000035    4

DECAY 1000004  205.77518
    0.68634642   2    1000021    4
    0.20136281   2    1000037    3
    0.10244108   2    1000025    4
    0.0057358681   2    1000024    3
    0.0028383869   2    1000035    4
    0.00075721587   2    1000022    4
    0.00051821462   2    1000023    4

DECAY 1000006  49.804499
    0.38918376   2    1000024    5
    0.26575977   2    1000023    6
    0.24426444   2    1000022    6
    0.066822947   2    1000037    5
    0.030933198   2    1000025    6
    0.0029747748   2    1000035    6

DECAY 2000006  89.491262
    0.21957593   2    1000023    6
    0.21490134   2    1000006    23
    0.20549258   2    1000022    6
    0.14522123   2    1000024    5
    0.1026603   2    1000006    25
    0.071919221   2    1000037    5
    0.037066753   2    1000025    6
    0.0022995412   2    1000035    6
    0.00079697164   2    2000005    24

DECAY 1000024  1.0253629e-08
    0.38834347   3    1000022   -1    2
    0.28243603   3    1000022   -3    4
    0.12980012   3    1000022   -11    12
    0.12950323   3    1000022   -13    14
    0.069917149   3    1000022   -15    16

DECAY 1000037  15.097539
    0.15640167   2    1000012   -11
    0.15640011   2    1000014   -13
    0.15598026   2   -1000011    12
    0.15597935   2   -1000013    14
    0.098241142   2    1000023    24
    0.093956628   2    1000024    23
    0.091970128   2    1000022    24
    0.088771095   2    1000024    25
    0.00099280131   3    1000022   -5    6
    0.00087766778   3    1000023   -5    6
    0.00042528875   3    1000024    6   -6

DECAY 1000022 -1


DECAY 1000023  3.3301937e-07
    0.23318353   2    1000022    22
    0.18510917   3    1000022    12   -12
    0.13815974   3    1000022    1   -1
    0.13801355   3    1000022    3   -3
    0.10775291   3    1000022    2   -2
    0.08666688   3    1000022    4   -4
    0.031137403   3    1000022    11   -11
    0.031086667   3    1000022    13   -13
    0.019544027   3    1000022    15   -15
    0.007298511   3    1000022    5   -5
    0.0042655313   3    1000024    1   -2
    0.0042655313   3   -1000024   -1    2
    0.0031303373   3    1000024    3   -4
    0.0031303373   3   -1000024   -3    4
    0.0014250652   3    1000024    11   -12
    0.0014250652   3   -1000024   -11    12
    0.0014219213   3    1000024    13   -14
    0.0014219213   3   -1000024   -13    14
    0.00078095203   3    1000024    15   -16
    0.00078095203   3   -1000024   -15    16

DECAY 1000025  15.785621
    0.095047633   2    1000024   -24
    0.095047633   2   -1000024    24
    0.074939694   2    1000012   -12
    0.074939694   2   -1000012    12
    0.074938931   2    1000014   -14
    0.074938931   2   -1000014    14
    0.074386245   2    1000011   -11
    0.074386245   2   -1000011    11
    0.074385804   2    1000013   -13
    0.074385804   2   -1000013    13
    0.071433012   2    1000023    25
    0.056703884   2    1000023    23
    0.047530344   2    1000022    25
    0.03405774   2    1000022    23
    0.0012578001   3    1000024    5   -6
    0.0012578001   3   -1000024   -5    6
    0.00017056569   3    1000023    6   -6
    0.00015425874   3    1000022    6   -6

DECAY 1000035  14.048996
    0.17965458   2    1000015   -15
    0.17965458   2   -1000015    15
    0.050572775   2    1000024   -24
    0.050572775   2   -1000024    24
    0.049929999   2    1000012   -12
    0.049929999   2   -1000012    12
    0.049929833   2    1000014   -14
    0.049929833   2   -1000014    14
    0.047305352   2    1000011   -11
    0.047305352   2   -1000011    11
    0.047305264   2    1000013   -13
    0.047305264   2   -1000013    13
    0.037757827   2    1000023    25
    0.03078802   2    1000023    23
    0.025357118   2    1000022    25
    0.024618751   2    1000022    23
    0.0095213958   2    1000005   -5
    0.0095213958   2   -1000005    5
    0.0031864576   2    1000037   -24
    0.0031864576   2   -1000037    24
    0.0028246153   2    1000025    25
    0.0012406255   3    1000024    5   -6
    0.0012406255   3   -1000024   -5    6
    0.00054712641   3    1000023    6   -6
    0.00049270476   3    1000022    6   -6
    0.00021242024   2    1000025    23

DECAY 1000021  229.59988
    0.17149923   2    1000005   -5
    0.17149923   2   -1000005    5
    0.11792683   2    1000006   -6
    0.11792683   2   -1000006    6
    0.10706043   2    2000006   -6
    0.10706043   2   -2000006    6
    0.10326472   2    2000005   -5
    0.10326472   2   -2000005    5
    0.00013275438   2    1000006   -4
    0.00013275438   2   -1000006    4

DECAY 25  0.0037362629
    0.58838439   2   -5    5
    0.21269338   2   -24    24
    0.072824952   2    21    21
    0.067593705   2   -15    15
    0.029107239   2   -4    4
    0.025223985   2    23    23
    0.0023106237   2    22    22
    0.0014053469   2    22    23
    0.00023459037   2   -13    13
    0.00022102296   2   -3    3
    6.1110584e-07   2   -1    1
    1.4999932e-07   2   -2    2
    5.2738651e-09   2   -11    11

DECAY 35  51.342422
    0.24763734   2   -1000024    1000037
    0.24763734   2   -1000037    1000024
    0.14526906   2    1000022    1000025
    0.12951126   2   -5    5
    0.10343318   2    1000023    1000025
    0.036224043   2    1000022    1000035
    0.026275721   2    1000023    1000035
    0.024436004   2   -15    15
    0.016306757   2   -1000024    1000024
    0.014011075   2   -6    6
    0.0036989398   2    1000022    1000022
    0.0018198694   2    1000023    1000023
    0.00087106186   2   -1000006    1000006
    0.00055449558   2   -2000005    1000005
    0.00055449558   2   -1000005    2000005
    0.00045176359   2   -1000037    1000037
    0.0002540088   2   -2000015    1000015
    0.0002540088   2   -1000015    2000015
    0.00021643188   2    1000025    1000025
    0.00018989762   2   -2000006    1000006
    0.00018989762   2   -1000006    2000006
    8.1269286e-05   2   -13    13
    5.0310043e-05   2   -3    3
    4.2267346e-05   2    1000025    1000035
    1.3470561e-05   2    25    25
    2.6561095e-06   2    23    23
    9.9606997e-07   2    1000022    1000023
    9.266657e-07   2    1000035    1000035
    8.1063229e-07   2   -1000011    1000011
    8.0990654e-07   2   -1000013    1000013
    6.6338519e-07   2   -24    24
    5.0835849e-07   2    21    21
    4.1266789e-07   2   -2000015    2000015
    3.227741e-07   2   -1000015    1000015
    2.9604699e-07   2   -2000011    2000011
    2.9572273e-07   2   -2000013    2000013
    1.888228e-07   2   -4    4
    1.3909025e-07   2   -1    1
    5.5295863e-08   2   -1000005    1000005
    5.4313746e-08   2    22    23
    1.0102708e-08   2    22    22
    1.8251716e-09   2   -11    11
    2.6499706e-10   2   -2000013    1000013
    2.6499706e-10   2   -1000013    2000013
    9.7334009e-13   2   -2    2
    6.1983091e-15   2   -2000011    1000011
    6.1983091e-15   2   -1000011    2000011

DECAY 36  50.963431
    0.24997575   2   -1000024    1000037
    0.24997575   2   -1000037    1000024
    0.13677529   2    1000023    1000025
    0.12496267   2   -5    5
    0.11414997   2    1000022    1000025
    0.033848988   2    1000023    1000035
    0.02917043   2    1000022    1000035
    0.02357773   2   -15    15
    0.015964936   2   -1000024    1000024
    0.013278204   2   -6    6
    0.0028258521   2    1000022    1000022
    0.0025097276   2    1000023    1000023
    0.00055860868   2   -2000005    1000005
    0.00055860868   2   -1000005    2000005
    0.00054013119   2   -2000006    1000006
    0.00054013119   2   -1000006    2000006
    0.00025587642   2   -2000015    1000015
    0.00025587642   2   -1000015    2000015
    9.5135908e-05   2    1000022    1000023
    7.8413577e-05   2   -13    13
    4.8542389e-05   2   -3    3
    2.5131761e-05   2   -1000037    1000037
    1.2346376e-05   2    1000025    1000025
    1.0034337e-05   2    21    21
    4.9099609e-06   2    23    25
    3.2657506e-07   2    1000025    1000035
    2.6770621e-07   2    1000035    1000035
    1.7736866e-07   2   -4    4
    1.3420416e-07   2   -1    1
    4.500588e-08   2    22    23
    1.7610355e-09   2   -11    11
    2.6550993e-10   2   -2000013    1000013
    2.6550993e-10   2   -1000013    2000013
    2.3702069e-10   2    22    22
    9.1432214e-13   2   -2    2
    6.2103048e-15   2   -2000011    1000011
    6.2103048e-15   2   -1000011    2000011
    3.8455508e-37   2    25    25

DECAY 37  51.39743
    0.26681145   2    1000022    1000037
    0.25435953   2    1000024    1000025
    0.24357402   2    1000023    1000037
    0.14500491   2   -5    6
    0.059955986   2    1000024    1000035
    0.024720019   2   -15    16
    0.001916925   2    1000023    1000024
    0.0011790088   2   -1000005    2000006
    0.00096307989   2    1000022    1000024
    0.00056617952   2   -2000005    1000006
    0.00050762291   2   -1000015    1000016
    0.00019367579   2   -5    4
    8.7394075e-05   2   -13    14
    4.611683e-05   2   -3    4
    4.2419461e-05   2    1000035    1000037
    3.334913e-05   2   -1000005    1000006
    2.0581546e-05   2   -3    6
    4.8738168e-06   2    24    25
    3.1791368e-06   2   -1000011    1000012
    3.1781208e-06   2   -1000013    1000014
    2.1550336e-06   2   -3    2
    1.810459e-06   2   -2000015    1000016
    1.3830429e-06   2   -5    2
    9.4083445e-07   2   -1    6
    1.2745259e-07   2   -1    2
    5.3537934e-08   2    1000025    1000037
    1.4546925e-08   2   -1    4
    2.0441565e-09   2   -11    12
    5.3365133e-10   2   -2000013    1000014
    5.2767896e-14   2    24    35
    1.2482185e-14   2   -2000011    1000012

DECAY 6  2.43
    1   2    5    24

DECAY 15 -1
