BLOCK SPINFO
   1   SPheno
   2   v4.0.5be

BLOCK SPHENOINFO
   1   2
   2   2

BLOCK MODSEL
   1   0

BLOCK MINPAR
   3    15.303749
   4   -1

BLOCK EXTPAR
   0    1603.4319
   1    50.825601
   2    321.048
   3    3000
   11   -3664.9307
   12   -937.0335
   13    322.39705
   23   -276.86393
   25    14.732573
   26    972.10023
   31    461.46374
   32    461.46374
   33    1080.4277
   34    16.95769
   35    16.95769
   36    1153.6052
   41    5000
   42    5000
   43    1792.1152
   44    5000
   45    5000
   46    1507.9092
   47    5000
   48    5000
   49    1037.4849

BLOCK SMINPUTS
   1    127.90897
   2    1.1663787e-05
   3    0.1184
   4    91.1876
   5    4.18
   6    173.2
   7    1.777
   8    0
   11    0.00051099893
   12    0
   13    0.10565837
   14    0
   21    0.005
   22    0.0025
   23    0.095
   24    1.27

BLOCK GAUGE Q=  1603.4319
   1    0.35536298
   2    0.66519887
   3    1.219778

BLOCK YU Q=  1603.4319
   1   1    8.4036644e-06
   2   2    0.0042690615
   3   3    1.0152302

BLOCK YD Q=  1603.4319
   1   1    0.00024878693
   2   2    0.0047269517
   3   3    0.24671868

BLOCK YE Q=  1603.4319
   1   1    4.3415139e-05
   2   2    0.0089768737
   3   3    0.15097625

BLOCK AU Q=  1603.4319
   1   1    0
   2   2    0
   3   3   -3664.9311

BLOCK AD Q=  1603.4319
   1   1    0
   2   2    0
   3   3   -937.03362

BLOCK AE Q=  1603.4319
   1   1    0
   2   2    0
   3   3    322.39705

BLOCK MSOFT Q=  1603.4319
   1    50.825601
   2    321.048
   3    3000
   21    871268.81
   22   -24041.899
   31    461.46374
   32    461.46374
   33    1080.4277
   34    16.95769
   35    16.95769
   36    1153.6052
   41    5000
   42    5000
   43    1792.1152
   44    5000
   45    5000
   46    1507.9092
   47    5000
   48    5000
   49    1037.4849

BLOCK MASS
   6    173.2
   23    91.1876
   24    80.429995
   15    1.777
   25    124.64502
   35    972.06808
   36    972.10023
   37    975.60196
   1000001    5034.2932
   2000001    5023.4382
   1000002    5033.8532
   2000002    5024.5927
   1000003    5034.2939
   2000003    5023.4389
   1000004    5033.8539
   2000004    5024.5933
   1000005    1051.2966
   2000005    1781.6275
   1000006    1393.7511
   2000006    1844.6578
   1000011    465.9411
   2000011    73.711052
   1000012    458.85828
   1000013    465.94052
   2000013    73.688461
   1000014    458.85661
   1000015    1082.3881
   2000015    1155.9042
   1000016    1079.3358
   1000021    3197.9281
   1000022    49.721044
   1000023    253.20244
   1000025   -288.13843
   1000035    376.58973
   1000024    254.83849
   1000037    377.60917

BLOCK ALPHA
      -0.066756969

BLOCK HMIX Q=  1603.4319
   1   -276.86393
   2    14.732573
   3    243.90358
   4    944978.85

BLOCK STOPMIX
   1   1    0.3848475
   1   2    0.92298017
   2   1   -0.92298017
   2   2    0.3848475

BLOCK SBOTMIX
   1   1   -0.0035488562
   1   2    0.9999937
   2   1   -0.9999937
   2   2   -0.0035488562

BLOCK STAUMIX
   1   1   -0.99888528
   1   2    0.047203726
   2   1   -0.047203726
   2   2   -0.99888528

BLOCK NMIX
   1   1   -0.98689613
   1   2    0.0020117414
   1   3    0.16027227
   1   4    0.018568486
   2   1   -0.11658704
   2   2   -0.48840995
   2   3   -0.64503349
   2   4   -0.57601647
   3   1    0.09849752
   3   2   -0.096939819
   3   3    0.69003789
   3   4   -0.71045662
   4   1   -0.052361622
   4   2    0.86721067
   4   3   -0.28651753
   4   4   -0.4038708

BLOCK UMIX
   1   1   -0.41356688
   1   2   -0.91047374
   2   1    0.91047374
   2   2   -0.41356688

BLOCK VMIX
   1   1   -0.58136228
   1   2    0.81364483
   2   1    0.81364483
   2   2    0.58136228

BLOCK HIGGSBOUNDSINPUTHIGGSCOUPLINGSFERMIONS
       0, 217.04872,3,36,15,15

BLOCK HIGGSBOUNDSINPUTHIGGSCOUPLINGSBOSONS
       0,4,36,21,21,23

BLOCK SPHENOLOWENERGY
   1    0.00037775019
   2    1.5873848e-06
   3    3.5250427e-05
   4    2.2381033e-15
   5    9.5609242e-11
   6    2.0014945e-08
   7    7.5479426e-14
   8    3.224479e-09
   9    6.8394753e-07
   10    9.5286962e-05
   11    0.98427784
   12    0.54320591
   13    19.402649
   14    0
   15    0
   16    0.0021629544
   17    2.2817174e-15
   18    2.4794842e-11
   19    8.289246e-11
   20   -1.0519149e-13
   21   -4.5159538e-09
   22   -5.4008867e-08
   23    0
   24    0
   25    0
   26    0
   27    0
   28    0
   29    0
   30    0
   31    0
   39    6.3056426e-05
   40    0
   41    0
   42    0

BLOCK FWCOEF Q=  160
   305   4422   0   0   -0.18881911
   305   4422   0   2   -0.24885115
   305   4322   0   2   -0.00087040196
   305   6421   0   0   -0.095227835
   305   6421   0   2   -0.14870568
   305   6321   0   2   -0.0008795847
   3051111   4133   0   0    1.5941488
   3051111   4133   0   2    1.5952594
   3051111   4233   0   2    1.2525195e-05
   3051111   4137   0   0   -4.4168409
   3051111   4137   0   2   -4.414771
   3051111   4237   0   2   -9.7633189e-05
   3051313   4133   0   0    1.5941488
   3051313   4133   0   2    1.5952584
   3051313   4233   0   2    1.252467e-05
   3051313   4137   0   0   -4.4168409
   3051313   4137   0   2   -4.414772
   3051313   4237   0   2   -9.7632983e-05
   3051212   4137   0   0    1.5053501
   3051212   4137   0   2    1.5049436
   3051212   4237   0   2    2.1217565e-05
   3051414   4137   0   0    1.5053501
   3051414   4137   0   2    1.5049436
   3051414   4237   0   2    2.1217635e-05
   3051616   4137   0   0    1.5053501
   3051616   4137   0   2    1.5049417
   3051616   4237   0   2    2.123981e-05

BLOCK IMFWCOEF Q=  160
   305   4422   0   0    3.8580568e-07
   305   4422   0   2   -1.1026372e-05
   305   4322   0   2   -3.2020972e-06
   305   6421   0   0    3.3046808e-07
   305   6421   0   2    3.8845659e-06
   305   6321   0   2   -1.2196497e-06
   3051111   4133   0   2   -2.215322e-06
   3051111   4233   0   2    7.6595625e-07
   3051111   4137   0   2    1.3124491e-05
   3051111   4237   0   2   -5.9576074e-06
   3051313   4133   0   2   -2.2153147e-06
   3051313   4233   0   2    7.6595257e-07
   3051313   4137   0   2    1.3124473e-05
   3051313   4237   0   2   -5.9576094e-06
   3051212   4137   0   2   -2.0731929e-06
   3051212   4237   0   2    1.2968589e-06
   3051414   4137   0   2   -2.0731744e-06
   3051414   4237   0   2    1.2968589e-06
   3051616   4137   0   2   -2.1075998e-06
   3051616   4237   0   2    1.2969058e-06

DECAY 23  2.4952


DECAY 24  2.085


DECAY 2000011  0.10714368
    1   2    1000022    11

DECAY 1000011  1.7821112
    0.31025256   2    1000022    11
    0.22474883   2   -1000037    12
    0.19336993   2   -1000024    12
    0.17330802   2    1000023    11
    0.097458472   2    1000035    11
    0.00086217329   2    1000025    11

DECAY 2000013  0.10700282
    1   2    1000022    13

DECAY 1000013  1.7825379
    0.31018821   2    1000022    13
    0.22469264   2   -1000037    14
    0.19332301   2   -1000024    14
    0.17335522   2    1000023    13
    0.097436834   2    1000035    13
    0.00093783187   2    1000025    13

DECAY 1000015  13.174834
    0.45695455   2   -1000037    16
    0.19646256   2    1000035    15
    0.11538009   2   -1000024    16
    0.11437936   2    1000023    15
    0.10186947   2    1000022    15
    0.01495397   2    1000025    15

DECAY 2000015  6.7018327
    0.83960683   2    1000022    15
    0.048002819   2   -1000024    16
    0.042195949   2    1000025    15
    0.034862897   2    1000023    15
    0.022652483   2   -1000037    16
    0.012674166   2    1000035    15

DECAY 1000012  1.8504565
    0.35284528   2    1000024    11
    0.29856316   2    1000022    12
    0.15056484   2    1000037    11
    0.095869908   2    1000023    12
    0.093200683   2    1000035    12
    0.0089561304   2    1000025    12

DECAY 1000014  1.8507405
    0.35295058   2    1000024    13
    0.29851621   2    1000022    14
    0.15054109   2    1000037    13
    0.095854237   2    1000023    14
    0.093183244   2    1000035    14
    0.0089546387   2    1000025    14

DECAY 1000016  13.257684
    0.37016608   2    1000037    15
    0.24338131   2    1000024    15
    0.22149551   2    1000035    16
    0.099939956   2    1000022    16
    0.058103603   2    1000023    16
    0.0069135353   2    1000025    16

DECAY 2000001  143.05707
    0.98040245   2    1000021    1
    0.019090246   2    1000022    1
    0.00026513923   2    1000023    1
    0.00018896827   2    1000025    1

DECAY 1000001  207.89379
    0.68007304   2    1000021    1
    0.17472877   2   -1000037    2
    0.080977527   2    1000035    1
    0.036273804   2   -1000024    2
    0.023192107   2    1000023    1
    0.0033670047   2    1000022    1
    0.0013877489   2    1000025    1

DECAY 2000003  143.06157
    0.98037213   2    1000021    3
    0.019090049   2    1000022    3
    0.00027157404   2    1000023    3
    0.00019632487   2    1000025    3

DECAY 1000003  207.8979
    0.68005993   2    1000021    3
    0.17472831   2   -1000037    4
    0.080976804   2    1000035    3
    0.036278842   2   -1000024    4
    0.023196097   2    1000023    3
    0.0033672143   2    1000022    3
    0.0013927985   2    1000025    3

DECAY 1000005  2.7135503
    0.32582176   2   -1000024    6
    0.22228712   2    1000022    5
    0.1922308   2    1000025    5
    0.17728061   2    1000023    5
    0.053913957   2   -1000037    6
    0.02846576   2    1000035    5

DECAY 2000005  89.167745
    0.34921919   2    1000006   -24
    0.2784042   2   -1000024    6
    0.26518676   2   -1000037    6
    0.063531618   2    1000035    5
    0.028060538   2    1000023    5
    0.012045496   2    1000025    5
    0.0033676086   2    1000022    5
    0.00011120534   2    1000005    25

DECAY 2000002  151.5904
    0.92600586   2    1000021    2
    0.072079036   2    1000022    2
    0.0010010209   2    1000023    2
    0.00071341242   2    1000025    2
    0.00020067089   2    1000035    2

DECAY 1000002  207.89166
    0.67985969   2    1000021    2
    0.13952915   2    1000037    1
    0.077562416   2    1000035    2
    0.071673982   2    1000024    1
    0.027491194   2    1000023    2
    0.0032160538   2    1000022    2
    0.00066750924   2    1000025    2

DECAY 2000004  151.59402
    0.92598376   2    1000021    4
    0.072077315   2    1000022    4
    0.0010049676   2    1000023    4
    0.00071941707   2    1000025    4
    0.00020260597   2    1000035    4

DECAY 1000004  207.89571
    0.67984651   2    1000021    4
    0.13952826   2    1000037    3
    0.077562347   2    1000035    4
    0.071681455   2    1000024    3
    0.02749354   2    1000023    4
    0.0032159942   2    1000022    4
    0.00067189497   2    1000025    4

DECAY 1000006  52.315734
    0.41495003   2    1000024    5
    0.25091594   2    1000025    6
    0.20309247   2    1000023    6
    0.052238572   2    1000037    5
    0.050159906   2    1000022    6
    0.028628399   2    1000035    6

DECAY 2000006  97.821125
    0.20419964   2    1000006    23
    0.18486342   2    1000037    5
    0.17355119   2    1000025    6
    0.15434426   2    1000006    25
    0.15073281   2    1000035    6
    0.10917411   2    1000023    6
    0.01607049   2    1000024    5
    0.0069222581   2    1000022    6
    0.00014180904   2    1000005    24

DECAY 1000024  0.10365081
    0.99856787   2    1000022    24
    0.0013719436   2   -2000013    14

DECAY 1000037  0.904333
    0.41994292   2    1000025    24
    0.30861964   2    1000023    24
    0.19298326   2    1000024    23
    0.078109144   2    1000022    24

DECAY 1000022 -1


DECAY 1000023  0.11214238
    0.40854489   2    1000022    23
    0.33175707   2    1000022    25
    0.065238244   2    2000013   -13
    0.065238244   2   -2000013    13
    0.064588413   2    2000011   -11
    0.064588413   2   -2000011    11

DECAY 1000025  0.23952463
    0.50697592   2    1000022    23
    0.38810395   2    1000022    25
    0.026016988   2    2000013   -13
    0.026016988   2   -2000013    13
    0.025608722   2    2000011   -11
    0.025608722   2   -2000011    11
    0.0001823247   3    1000024    1   -2
    0.0001823247   3   -1000024   -1    2
    0.00018113082   3    1000024    3   -4
    0.00018113082   3   -1000024   -3    4
    0.00010821066   3    1000023    12   -12

DECAY 1000035  0.6829857
    0.42059656   2    1000024   -24
    0.42059656   2   -1000024    24
    0.047520935   2    1000022    25
    0.038538374   2    1000022    23
    0.013666904   2    1000023    23
    0.0090468263   3    1000025    12   -12
    0.0068071562   3    1000025    1   -1
    0.0068071158   3    1000025    3   -3
    0.0067307438   3    1000025    5   -5
    0.0053086904   3    1000025    2   -2
    0.0053013836   3    1000025    4   -4
    0.0035467122   2    2000013   -13
    0.0035467122   2   -2000013    13
    0.0035125826   2    2000011   -11
    0.0035125826   2   -2000011    11
    0.0015395295   3    1000025    11   -11
    0.0015395119   3    1000025    13   -13
    0.00153221   3    1000025    15   -15
    0.00012943882   3    1000022    12   -12

DECAY 1000021  223.29937
    0.16862088   2    1000005   -5
    0.16862088   2   -1000005    5
    0.12569975   2    1000006   -6
    0.12569975   2   -1000006    6
    0.10473951   2    2000006   -6
    0.10473951   2   -2000006    6
    0.10079699   2    2000005   -5
    0.10079699   2   -2000005    5

DECAY 25  0.050086498
    0.4608805   2   -1000011    1000011
    0.46053719   2   -1000013    1000013
    0.046097234   2   -5    5
    0.017045507   2   -24    24
    0.0055156324   2    21    21
    0.0052920546   2   -15    15
    0.0021825844   2   -4    4
    0.0020489217   2    23    23
    0.00018679863   2    22    22
    0.00010208781   2    22    23
    7.584867e-05   2    1000022    1000022
    1.8274872e-05   2   -13    13
    1.7303445e-05   2   -3    3
    4.7842159e-08   2   -1    1
    1.1247431e-08   2   -2    2
    4.1083925e-10   2   -11    11

DECAY 35  11.980007
    0.25510097   2   -5    5
    0.14410466   2   -1000024    1000024
    0.11846067   2   -1000024    1000037
    0.11846067   2   -1000037    1000024
    0.090856089   2    1000025    1000035
    0.051485846   2    1000022    1000023
    0.043493429   2    1000023    1000023
    0.039231284   2   -15    15
    0.031281938   2   -1000037    1000037
    0.028532396   2    1000022    1000025
    0.025330937   2    1000023    1000035
    0.018647541   2    1000035    1000035
    0.013647734   2   -6    6
    0.012138031   2    1000023    1000025
    0.0046159809   2    1000022    1000022
    0.0033054437   2    1000025    1000025
    0.00061585895   2    1000022    1000035
    0.0003191972   2    25    25
    0.00013168116   2   -13    13
    9.6031407e-05   2   -3    3
    4.9877118e-05   2   -24    24
    3.6020268e-05   2    23    23
    1.4210809e-05   2    21    21
    6.4440832e-06   2   -1000011    1000011
    6.4317699e-06   2   -1000013    1000013
    2.9825992e-06   2   -2000011    2000011
    2.9804034e-06   2   -2000013    2000013
    1.6078466e-06   2    22    23
    3.608096e-07   2    22    22
    2.6550429e-07   2   -1    1
    2.048282e-07   2   -4    4
    1.8408645e-08   2   -2000013    1000013
    1.8408645e-08   2   -1000013    2000013
    2.9585099e-09   2   -11    11
    1.0561995e-12   2   -2    2
    4.3058741e-13   2   -2000011    1000011
    4.3058741e-13   2   -1000011    2000011

DECAY 36  11.921322
    0.25106702   2   -5    5
    0.16485765   2   -1000024    1000024
    0.10128392   2   -1000024    1000037
    0.10128392   2   -1000037    1000024
    0.063968334   2    1000025    1000035
    0.047013534   2   -1000037    1000037
    0.046649234   2    1000023    1000023
    0.045092812   2    1000022    1000023
    0.03861004   2   -15    15
    0.035982616   2    1000022    1000025
    0.034433641   2    1000023    1000035
    0.029286139   2    1000035    1000035
    0.015006663   2   -6    6
    0.013769466   2    1000023    1000025
    0.006678578   2    1000025    1000025
    0.0045458788   2    1000022    1000022
    0.00013036566   2    1000022    1000035
    0.00012959115   2   -13    13
    9.4508594e-05   2   -3    3
    6.1130593e-05   2    21    21
    5.3087541e-05   2    23    25
    1.2341912e-06   2    22    23
    2.6129408e-07   2   -1    1
    1.9501141e-07   2   -4    4
    1.5043038e-07   2    22    22
    1.7973267e-08   2   -2000013    1000013
    1.7973267e-08   2   -1000013    2000013
    2.9115544e-09   2   -11    11
    1.005886e-12   2   -2    2
    4.2039628e-13   2   -2000011    1000011
    4.2039628e-13   2   -1000011    2000011
    4.7805152e-35   2    25    25

DECAY 37  11.512053
    0.24682214   2   -5    6
    0.23691033   2    1000023    1000037
    0.17784385   2    1000024    1000035
    0.1361915   2    1000025    1000037
    0.097301752   2    1000022    1000024
    0.060143015   2    1000024    1000025
    0.039692476   2   -15    16
    0.0035073172   2    1000023    1000024
    0.00073101588   2    1000022    1000037
    0.00035840373   2   -5    4
    0.00015747025   2    1000035    1000037
    0.0001403279   2   -13    14
    8.8284987e-05   2   -3    4
    5.5948027e-05   2    24    25
    2.1932482e-05   2   -3    6
    1.3162023e-05   2   -2000011    1000012
    1.3158421e-05   2   -2000013    1000014
    4.0671912e-06   2   -3    2
    2.5593781e-06   2   -5    2
    1.0003614e-06   2   -1    6
    2.4441377e-07   2   -1    2
    3.3107477e-08   2   -1000013    1000014
    2.0937183e-08   2   -1    4
    3.2822843e-09   2   -11    12
    6.4923739e-11   2    24    35
    6.2026379e-11   2    24    36
    7.7436856e-13   2   -1000011    1000012

DECAY 6  2.43
    1   2    5    24

DECAY 15 -1
