BLOCK SPINFO
   1   SPheno
   2   v4.0.5be

BLOCK SPHENOINFO
   1   2
   2   2

BLOCK MODSEL
   1   0

BLOCK MINPAR
   3    47.26362
   4    1

BLOCK EXTPAR
   0    1499.8513
   1    195.75908
   2    246.815
   3    3000
   11   -2057.2317
   12    902.54049
   13    456.21619
   23    1597.9866
   25    46.134336
   26    2075.9885
   31    743.12838
   32    743.12838
   33    1597.0917
   34    1200.0804
   35    1200.0804
   36    1199.7813
   41    5000
   42    5000
   43    1526.0709
   44    5000
   45    5000
   46    1484.4986
   47    5000
   48    5000
   49    1172.1859

BLOCK SMINPUTS
   1    127.90897
   2    1.1663787e-05
   3    0.1184
   4    91.1876
   5    4.18
   6    173.2
   7    1.777
   8    0
   11    0.00051099893
   12    0
   13    0.10565837
   14    0
   21    0.005
   22    0.0025
   23    0.095
   24    1.27

BLOCK GAUGE Q=  1499.8513
   1    0.35536298
   2    0.66519887
   3    1.219778

BLOCK YU Q=  1499.8513
   1   1    8.3863416e-06
   2   2    0.0042602615
   3   3    1.0131374

BLOCK YD Q=  1499.8513
   1   1    0.00077745823
   2   2    0.014771706
   3   3    0.77099495

BLOCK YE Q=  1499.8513
   1   1    0.00013567215
   2   2    0.028052697
   3   3    0.47180022

BLOCK AU Q=  1499.8513
   1   1    0
   2   2    0
   3   3   -2057.2316

BLOCK AD Q=  1499.8513
   1   1    0
   2   2    0
   3   3    902.54058

BLOCK AE Q=  1499.8513
   1   1    0
   2   2    0
   3   3    456.21619

BLOCK MSOFT Q=  1499.8513
   1    195.75908
   2    246.815
   3    3000
   21    1797511.5
   22   -2525438.1
   31    743.12838
   32    743.12838
   33    1597.0917
   34    1200.0804
   35    1200.0804
   36    1199.7813
   41    5000
   42    5000
   43    1526.0709
   44    5000
   45    5000
   46    1484.4986
   47    5000
   48    5000
   49    1172.1859

BLOCK MASS
   6    173.2
   23    91.1876
   24    80.429995
   15    1.777
   25    120.43015
   35    2075.3432
   36    2075.9885
   37    2077.4218
   1000001    5027.8698
   2000001    5017.0852
   1000002    5027.4094
   2000002    5018.5345
   1000003    5027.8816
   2000003    5017.0841
   1000004    5027.4134
   2000004    5018.5353
   1000005    1154.8536
   2000005    1532.3349
   1000006    1401.2211
   2000006    1605.4239
   1000011    746.22882
   2000011    1202.0117
   1000012    741.61583
   1000013    746.17263
   2000013    1202.0095
   1000014    741.60675
   1000015    1191.7606
   2000015    1601.7506
   1000016    1594.7091
   1000021    3185.4021
   1000022    195.5349
   1000023    265.67993
   1000025   -1593.6894
   1000035    1594.178
   1000024    265.87864
   1000037    1595.7998

BLOCK ALPHA
      -0.021188893

BLOCK HMIX Q=  1499.8513
   1    1597.9866
   2    46.134336
   3    244.03841
   4    4309728.1

BLOCK STOPMIX
   1   1    0.61967518
   1   2    0.78485838
   2   1   -0.78485838
   2   2    0.61967518

BLOCK SBOTMIX
   1   1    0.12731818
   1   2    0.99186193
   2   1   -0.99186193
   2   2    0.12731818

BLOCK STAUMIX
   1   1    0.11424312
   1   2    0.99345282
   2   1   -0.99345282
   2   2    0.11424312

BLOCK NMIX
   1   1    0.99955604
   1   2   -0.0060420365
   1   3    0.028853688
   1   4   -0.0043226017
   2   1   -0.0075438785
   2   2   -0.99863527
   2   3    0.050791638
   2   4   -0.0095341932
   3   1    0.017148805
   3   2   -0.029293374
   3   3   -0.70615917
   3   4   -0.70723903
   4   1   -0.023167537
   4   2    0.042813473
   4   3    0.70563936
   4   4   -0.706897

BLOCK UMIX
   1   1   -0.997402
   1   2    0.07203645
   2   1    0.07203645
   2   2    0.997402

BLOCK VMIX
   1   1   -0.99990804
   1   2    0.013561464
   2   1    0.013561464
   2   2    0.99990804

BLOCK HIGGSBOUNDSINPUTHIGGSCOUPLINGSFERMIONS
       0, 2128.3769,3,36,15,15

BLOCK HIGGSBOUNDSINPUTHIGGSCOUPLINGSBOSONS
       0,4,36,21,21,23

BLOCK SPHENOLOWENERGY
   1    0.00029824756
   2    1.5930829e-06
   3    3.5234427e-05
   4    2.3306546e-15
   5    9.9560844e-11
   6    2.0716583e-08
   7    7.7897433e-14
   8    3.3277114e-09
   9    7.0187956e-07
   10    9.4962279e-05
   11    0.98092399
   12    0.54203921
   13    19.356615
   14    0
   15    0
   16    0.0021574708
   17    2.2816628e-15
   18    2.4785871e-11
   19    8.2870524e-11
   20    1.9955468e-14
   21    8.5321937e-10
   22    8.4651281e-08
   23    0
   24    0
   25    0
   26    0
   27    0
   28    0
   29    0
   30    0
   31    0
   39    8.5471093e-05
   40    0
   41    0
   42    0

BLOCK FWCOEF Q=  160
   305   4422   0   0   -0.18881911
   305   4422   0   2   -0.16022381
   305   4322   0   2    5.6191179e-05
   305   6421   0   0   -0.095227835
   305   6421   0   2   -0.087803808
   305   6321   0   2   -0.00017422547
   3051111   4133   0   0    1.5925015
   3051111   4133   0   2    1.5929825
   3051111   4233   0   2    0.00018364088
   3051111   4137   0   0   -4.4151936
   3051111   4137   0   2   -4.4116706
   3051111   4237   0   2   -0.0014279628
   3051313   4133   0   0    1.5925015
   3051313   4133   0   2    1.5929764
   3051313   4233   0   2    0.00018363792
   3051313   4137   0   0   -4.4151936
   3051313   4137   0   2   -4.4116766
   3051313   4237   0   2   -0.0014279639
   3051212   4137   0   0    1.5053501
   3051212   4137   0   2    1.5046137
   3051212   4237   0   2    0.00031115619
   3051414   4137   0   0    1.5053501
   3051414   4137   0   2    1.5046137
   3051414   4237   0   2    0.00031115662
   3051616   4137   0   0    1.5053501
   3051616   4137   0   2    1.5046115
   3051616   4237   0   2    0.00031128

BLOCK IMFWCOEF Q=  160
   305   4422   0   0    3.8589776e-07
   305   4422   0   2    2.3111037e-05
   305   4322   0   2    4.9585116e-06
   305   6421   0   0    3.3054695e-07
   305   6421   0   2   -1.1472289e-05
   305   6321   0   2    1.8795471e-06
   3051111   4133   0   2   -7.5241953e-07
   3051111   4233   0   2    4.9382579e-06
   3051111   4137   0   2    6.4325257e-06
   3051111   4237   0   2   -3.8423321e-05
   3051313   4133   0   2   -7.5254046e-07
   3051313   4233   0   2    4.9382413e-06
   3051313   4137   0   2    6.4326054e-06
   3051313   4237   0   2   -3.8423378e-05
   3051212   4137   0   2   -8.4003277e-07
   3051212   4237   0   2    8.3726524e-06
   3051414   4137   0   2   -8.4002951e-07
   3051414   4237   0   2    8.3726524e-06
   3051616   4137   0   2   -8.7938757e-07
   3051616   4237   0   2    8.3726793e-06

DECAY 23  2.4952


DECAY 24  2.085


DECAY 1000011  8.2932023
    0.60062649   2   -1000024    12
    0.30362305   2    1000023    11
    0.095750452   2    1000022    11

DECAY 2000011  5.7194788
    0.99994559   2    1000022    11

DECAY 1000013  8.2922617
    0.60062307   2   -1000024    14
    0.30362389   2    1000023    13
    0.095753037   2    1000022    13

DECAY 2000013  5.7294488
    0.99820608   2    1000022    13
    0.0017165643   2    1000013    25

DECAY 1000015  6.0173395
    0.93581592   2    1000022    15
    0.04270551   2   -1000024    16
    0.02147857   2    1000023    15

DECAY 2000015  24.349122
    0.53134837   2   -1000024    16
    0.26924999   2    1000023    15
    0.080706175   2    1000022    15
    0.0608766   2    1000015    23
    0.057789048   2    1000015    25

DECAY 1000012  8.2348414
    0.60197798   2    1000024    11
    0.29793623   2    1000023    12
    0.10008579   2    1000022    12

DECAY 1000014  8.2347261
    0.60197979   2    1000024    13
    0.29793461   2    1000023    14
    0.1000856   2    1000022    14

DECAY 1000016  24.762246
    0.53712165   2    1000024    15
    0.26506153   2    1000023    16
    0.1176185   2    1000015    24
    0.080198324   2    1000022    16

DECAY 2000001  143.88268
    0.98059421   2    1000021    1
    0.019390942   2    1000022    1

DECAY 1000001  208.87749
    0.68084598   2    1000021    1
    0.20962047   2   -1000024    2
    0.10478797   2    1000023    1
    0.0035775766   2    1000022    1
    0.00088920861   2   -1000037    2
    0.00018897434   2    1000035    1

DECAY 2000003  143.91769
    0.98035478   2    1000021    3
    0.019386344   2    1000022    3
    0.00012162523   2   -1000037    4

DECAY 1000003  208.89798
    0.68078512   2    1000021    3
    0.20960038   2   -1000024    4
    0.10477821   2    1000023    3
    0.0035773206   2    1000022    3
    0.00089618217   2   -1000037    4
    0.0002309356   2    1000035    3
    0.00013185447   2    1000025    3

DECAY 1000005  1.2230486
    0.52481904   2    1000022    5
    0.31128046   2   -1000024    6
    0.16390051   2    1000023    5

DECAY 2000005  25.222107
    0.4682256   2   -1000024    6
    0.24259351   2    1000023    5
    0.14490475   2    1000005    25
    0.079296281   2    1000006   -24
    0.056916561   2    1000005    23
    0.0080632923   2    1000022    5

DECAY 2000002  152.41286
    0.92670246   2    1000021    2
    0.073243986   2    1000022    2

DECAY 1000002  208.86864
    0.68064529   2    1000021    2
    0.21066458   2    1000024    1
    0.10534805   2    1000023    2
    0.0031230289   2    1000022    2
    0.00012828592   2    1000035    2

DECAY 2000004  152.41581
    0.92668466   2    1000021    4
    0.073242569   2    1000022    4

DECAY 1000004  208.88813
    0.68058346   2    1000021    4
    0.21064563   2    1000024    3
    0.10533829   2    1000023    4
    0.0031227398   2    1000022    4
    0.00013179562   2    1000035    4
    0.00011555858   2    1000037    3

DECAY 1000006  9.9661003
    0.46797007   2    1000024    5
    0.22463086   2    1000023    6
    0.19163899   2    1000022    6
    0.080473529   2    1000023    4
    0.032526784   2    1000005    24
    0.0024615502   2    1000022    4
    0.00029569432   3    1000022    24    5

DECAY 2000006  19.804683
    0.40510078   2    1000024    5
    0.19604589   2    1000023    6
    0.16257634   2    1000006    23
    0.15173647   2    1000005    24
    0.06921461   2    1000022    6
    0.015097394   2    1000006    25
    0.00022851834   2    1000037    5

DECAY 1000024  6.3818396e-07
    0.3268462   3    1000022   -1    2
    0.32655207   3    1000022   -3    4
    0.12089748   3    1000022   -13    14
    0.12089586   3    1000022   -11    12
    0.10480839   3    1000022   -15    16

DECAY 1000037  21.524336
    0.31905472   2   -1000005    6
    0.16236201   2    1000024    25
    0.15931673   2    1000023    24
    0.15758632   2    1000024    23
    0.1006382   2    1000006   -5
    0.049742254   2    1000022    24
    0.030792909   2   -1000015    16
    0.0082352398   3    1000024    6   -6
    0.0059681158   3    1000023   -5    6
    0.0018802192   3    1000022   -5    6
    0.0014047985   3    1000024    5   -5
    0.0010338633   2   -1000013    14
    0.0010337761   2   -1000011    12
    0.00039175287   2    1000014   -13
    0.00025175456   3    1000024    15   -15
    0.00011735401   3    1000023   -15    16
    0.00010806648   2   -2000013    14

DECAY 1000022 -1


DECAY 1000023  4.439668e-08
    0.28747641   3    1000022    12   -12
    0.1902883   3    1000022    13   -13
    0.19019096   3    1000022    11   -11
    0.098356891   3    1000022    5   -5
    0.062508513   3    1000022    1   -1
    0.062508216   3    1000022    3   -3
    0.048761462   3    1000022    2   -2
    0.048634677   3    1000022    4   -4
    0.0083337122   3    1000022    15   -15
    0.0029408656   2    1000022    22

DECAY 1000025  22.385474
    0.1523921   2    1000024   -24
    0.1523921   2   -1000024    24
    0.14121192   2    1000005   -5
    0.14121192   2   -1000005    5
    0.10298242   2    1000023    23
    0.097350761   2    1000023    25
    0.049702204   2    1000006   -6
    0.049702204   2   -1000006    6
    0.032352852   2    1000022    23
    0.026915387   2    1000022    25
    0.01510878   2    1000015   -15
    0.01510878   2   -1000015    15
    0.0055075524   3    1000024    5   -6
    0.0055075524   3   -1000024   -5    6
    0.0035393134   2    2000005   -5
    0.0035393134   2   -2000005    5
    0.0027986741   3    1000023    6   -6
    0.00099924611   3    1000022    6   -6
    0.00020810105   2    1000013   -13
    0.00020810105   2   -1000013    13
    0.0001422133   2    1000014   -14
    0.0001422133   2   -1000014    14
    0.00014221137   2    1000012   -12
    0.00014221137   2   -1000012    12
    0.00011546583   3    1000023    15   -15
    0.00011402388   3    1000024    15   -16
    0.00011402388   3   -1000024   -15    16

DECAY 1000035  20.905208
    0.16266836   2    1000024   -24
    0.16266836   2   -1000024    24
    0.15068116   2    1000005   -5
    0.15068116   2   -1000005    5
    0.11305044   2    1000023    25
    0.051485682   2    1000023    23
    0.050832253   2    1000006   -6
    0.050832253   2   -1000006    6
    0.031269041   2    1000022    25
    0.018911566   2    1000022    23
    0.016104587   2    1000015   -15
    0.016104587   2   -1000015    15
    0.0052167538   3    1000024    5   -6
    0.0052167538   3   -1000024   -5    6
    0.0038541884   2    2000005   -5
    0.0038541884   2   -2000005    5
    0.002875155   3    1000023    6   -6
    0.0010131765   3    1000022    6   -6
    0.00031387508   2    1000014   -14
    0.00031387508   2   -1000014    14
    0.00031387084   2    1000012   -12
    0.00031387084   2   -1000012    12
    0.00027603152   2    1000013   -13
    0.00027603152   2   -1000013    13
    0.00012393084   3    1000023    15   -15
    0.00012254419   3    1000024    15   -16
    0.00012254419   3   -1000024   -15    16

DECAY 1000021  249.10499
    0.14266323   2    1000005   -5
    0.14266323   2   -1000005    5
    0.11986539   2    2000006   -6
    0.11986539   2   -2000006    6
    0.11189451   2    2000005   -5
    0.11189451   2   -2000005    5
    0.10682029   2    1000006   -6
    0.10682029   2   -1000006    6
    0.017224223   2    1000006   -4
    0.017224223   2   -1000006    4
    0.00067806818   3    1000035    6   -6
    0.00065176064   3    1000025    6   -6
    0.00045106497   3    1000037    5   -6
    0.00045106497   3   -1000037   -5    6
    0.00029755755   3    1000025    5   -5
    0.0002970372   3    1000035    5   -5

DECAY 25  0.0033802373
    0.64151258   2   -5    5
    0.15834639   2   -24    24
    0.074277159   2    21    21
    0.072919921   2   -15    15
    0.031546236   2   -4    4
    0.017483636   2    23    23
    0.0023075346   2    22    22
    0.001113227   2    22    23
    0.00025296958   2   -13    13
    0.00023952266   2   -3    3
    6.622548e-07   2   -1    1
    1.6258036e-07   2   -2    2
    5.6871064e-09   2   -11    11

DECAY 35  35.386504
    0.6086446   2   -5    5
    0.27710225   2   -15    15
    0.032722699   2   -1000024    1000037
    0.032722699   2   -1000037    1000024
    0.02436838   2    1000023    1000025
    0.0080449366   2    1000023    1000035
    0.0073036749   2    1000022    1000025
    0.0030808283   2    1000022    1000035
    0.0023199798   2   -1000024    1000024
    0.0011385493   2    1000023    1000023
    0.00099393186   2   -13    13
    0.00068380774   2    1000022    1000023
    0.00046715395   2   -3    3
    0.00027771915   2   -6    6
    0.00010252095   2    1000022    1000022
    1.5144453e-05   2    21    21
    8.5345519e-06   2    25    25
    1.2915386e-06   2   -1    1
    1.1426987e-07   2   -1000011    1000011
    1.0952572e-07   2   -1000013    1000013
    7.2883436e-08   2    22    23
    6.9775901e-08   2    23    23
    4.2038141e-08   2   -2000013    1000013
    4.2038141e-08   2   -1000013    2000013
    3.5082532e-08   2   -24    24
    2.3142065e-08   2    22    22
    2.2325708e-08   2   -11    11
    1.5305645e-08   2   -4    4
    9.8353596e-13   2   -2000011    1000011
    9.8353596e-13   2   -1000011    2000011
    7.8936914e-14   2   -2    2

DECAY 36  34.154444
    0.60573613   2   -5    5
    0.27570951   2   -15    15
    0.033929423   2   -1000024    1000037
    0.033929423   2   -1000037    1000024
    0.025108366   2    1000023    1000035
    0.0084599726   2    1000023    1000025
    0.0075262822   2    1000022    1000035
    0.0032336835   2    1000022    1000025
    0.0025855055   2   -1000024    1000024
    0.001268903   2    1000023    1000023
    0.00098892307   2   -13    13
    0.00075192742   2    1000022    1000023
    0.00046478699   2   -3    3
    0.00016291051   2   -6    6
    0.00011151058   2    1000022    1000022
    3.0897258e-05   2    21    21
    1.2849929e-06   2   -1    1
    2.3495609e-07   2    22    23
    1.1113235e-07   2    22    22
    9.8530828e-08   2    23    25
    4.3337332e-08   2   -2000013    1000013
    4.3337332e-08   2   -1000013    2000013
    2.2213145e-08   2   -11    11
    1.1729829e-08   2   -4    4
    1.0136048e-12   2   -2000011    1000011
    1.0136048e-12   2   -1000011    2000011
    6.0491257e-14   2   -2    2
    2.7988195e-35   2    25    25

DECAY 37  43.938368
    0.69711576   2   -5    6
    0.21121736   2   -15    16
    0.027012929   2    1000023    1000037
    0.026810177   2    1000024    1000025
    0.026685928   2    1000024    1000035
    0.0078848422   2    1000022    1000037
    0.0011138285   2    1000022    1000024
    0.0010357768   2   -5    4
    0.00074672933   2   -13    14
    0.00034921007   2   -3    4
    1.6285137e-05   2   -3    2
    7.3965181e-06   2   -5    2
    1.7399703e-06   2   -3    6
    9.6843008e-07   2   -1    2
    3.6243538e-07   2   -1000011    1000012
    3.5701364e-07   2   -1000013    1000014
    8.2717839e-08   2    1000023    1000024
    7.6851171e-08   2    24    25
    7.0692888e-08   2   -2000013    1000014
    5.6363113e-08   2   -1    6
    4.554987e-08   2   -1    4
    1.7466077e-08   2   -11    12
    1.6539238e-12   2   -2000011    1000012
    1.2013366e-12   2    24    35
    1.8736806e-13   2    24    36

DECAY 6  2.43
    1   2    5    24

DECAY 15 -1
