BLOCK SPINFO
   1   SPheno
   2   v4.0.5be

BLOCK SPHENOINFO
   1   2
   2   2

BLOCK MODSEL
   1   0

BLOCK MINPAR
   3    43.465973
   4   -1

BLOCK EXTPAR
   0    3056.3751
   1   -501.37005
   2    2329.2902
   3    2738.0487
   11    7269.8744
   12   -3351.1521
   13    2941.2695
   23   -653.01189
   25    42.792112
   26    2151.3287
   31    604.90717
   32    604.90717
   33    573.18546
   34    2581.6465
   35    2581.6465
   36    2599.1285
   41    3227.9949
   42    3227.9949
   43    1814.1303
   44    4626.6569
   45    4626.6569
   46    4862.7326
   47    679.91848
   48    679.91848
   49    3039.755

BLOCK SMINPUTS
   1    127.90897
   2    1.1663787e-05
   3    0.1184
   4    91.1876
   5    4.18
   6    173.2
   7    1.777
   8    0
   11    0.00051099893
   12    0
   13    0.10565837
   14    0
   21    0.005
   22    0.0025
   23    0.095
   24    1.27

BLOCK GAUGE Q=  3056.3751
   1    0.35536298
   2    0.66519887
   3    1.219778

BLOCK YU Q=  3056.3751
   1   1    8.3866612e-06
   2   2    0.0042604239
   3   3    1.013176

BLOCK YD Q=  3056.3751
   1   1    0.00072116239
   2   2    0.013702086
   3   3    0.71516711

BLOCK YE Q=  3056.3751
   1   1    0.00012584811
   2   2    0.026021398
   3   3    0.43763711

BLOCK AU Q=  3056.3751
   1   1    0
   2   2    0
   3   3    7269.8745

BLOCK AD Q=  3056.3751
   1   1    0
   2   2    0
   3   3   -3351.1521

BLOCK AE Q=  3056.3751
   1   1    0
   2   2    0
   3   3    2941.2695

BLOCK MSOFT Q=  3056.3751
   1   -501.37005
   2    2329.2902
   3    2738.0487
   21    4391479.3
   22   -659072.95
   31    604.90717
   32    604.90717
   33    573.18546
   34    2581.6465
   35    2581.6465
   36    2599.1285
   41    3227.9949
   42    3227.9949
   43    1814.1303
   44    4626.6569
   45    4626.6569
   46    4862.7326
   47    679.91848
   48    679.91848
   49    3039.755

BLOCK MASS
   6    173.2
   23    91.1876
   24    80.429995
   15    1.777
   25    128.0558
   35    2150.8323
   36    2151.3287
   37    2153.2093
   1000001    3335.5023
   2000001    907.77538
   1000002    3334.579
   2000002    4693.6872
   1000003    3335.4976
   2000003    907.75811
   1000004    3334.5743
   2000004    4693.6867
   1000005    1946.1984
   2000005    3092.9286
   1000006    1936.7629
   2000006    4823.2176
   1000011    676.22313
   2000011    2577.8574
   1000012    671.28905
   1000013    676.18004
   2000013    2577.8216
   1000014    671.24844
   1000015    631.89165
   2000015    2577.3155
   1000016    627.34174
   1000021    2956.5359
   1000022   -491.22723
   1000023    665.6029
   1000025   -672.92221
   1000035    2338.0068
   1000024    665.86463
   1000037    2338.2245

BLOCK ALPHA
      -0.023117353

BLOCK HMIX Q=  3056.3751
   1   -653.01189
   2    42.792112
   3    243.22201
   4    4628215.3

BLOCK STOPMIX
   1   1   -0.99862119
   1   2    0.052494943
   2   1   -0.052494943
   2   2   -0.99862119

BLOCK SBOTMIX
   1   1   -0.99994678
   1   2    0.010316902
   2   1   -0.010316902
   2   2   -0.99994678

BLOCK STAUMIX
   1   1   -0.9999674
   1   2    0.0080748923
   2   1   -0.0080748923
   2   2   -0.9999674

BLOCK NMIX
   1   1    0.98396862
   1   2    0.0031073196
   1   3   -0.14270995
   1   4    0.10691106
   2   1   -0.025716579
   2   2   -0.032446675
   2   3   -0.70695384
   2   4   -0.70604684
   3   1    0.17647691
   3   2   -0.018849425
   3   3    0.69264776
   3   4   -0.69909919
   4   1    0.00056583544
   4   2   -0.99929088
   4   3    0.009445542
   4   4    0.036444541

BLOCK UMIX
   1   1   -0.013398709
   1   2   -0.99991023
   2   1    0.99991023
   2   2   -0.013398709

BLOCK VMIX
   1   1   -0.051610007
   1   2    0.99866732
   2   1    0.99866732
   2   2    0.051610007

BLOCK HIGGSBOUNDSINPUTHIGGSCOUPLINGSFERMIONS
       0, 1831.1649,3,36,15,15

BLOCK HIGGSBOUNDSINPUTHIGGSCOUPLINGSBOSONS
       0,4,36,21,21,23

BLOCK SPHENOLOWENERGY
   1    0.0003153665
   2    1.5910055e-06
   3    3.5251955e-05
   4    5.6251917e-15
   5    2.4028285e-10
   6    4.9205182e-08
   7    2.0012803e-13
   8    8.5487595e-09
   9    1.7720633e-06
   10    9.4973691e-05
   11    0.98104187
   12    0.54169079
   13    19.437379
   14    0
   15    0
   16    0.0021564773
   17    2.2816524e-15
   18    2.4806406e-11
   19    8.2913123e-11
   20   -6.6864645e-16
   21   -2.8537796e-11
   22    4.8049543e-09
   23    0
   24    0
   25    0
   26    0
   27    0
   28    0
   29    0
   30    0
   31    0
   39    7.9337715e-05
   40    0
   41    0
   42    0

BLOCK FWCOEF Q=  160
   305   4422   0   0   -0.18881911
   305   4422   0   2   -0.18241079
   305   4322   0   2   -3.3362426e-05
   305   6421   0   0   -0.095227835
   305   6421   0   2   -0.094977101
   305   6321   0   2   -5.9226937e-05
   3051111   4133   0   0    1.6177151
   3051111   4133   0   2    1.6179459
   3051111   4233   0   2    0.00088410389
   3051111   4137   0   0   -4.4404072
   3051111   4137   0   2   -4.4389285
   3051111   4237   0   2   -0.0066311112
   3051313   4133   0   0    1.6177151
   3051313   4133   0   2    1.6179443
   3051313   4233   0   2    0.00088410126
   3051313   4137   0   0   -4.4404072
   3051313   4137   0   2   -4.4389301
   3051313   4237   0   2   -0.0066311157
   3051212   4137   0   0    1.5053501
   3051212   4137   0   2    1.5050317
   3051212   4237   0   2    0.0014368005
   3051414   4137   0   0    1.5053501
   3051414   4137   0   2    1.5050317
   3051414   4237   0   2    0.0014368008
   3051616   4137   0   0    1.5053501
   3051616   4137   0   2    1.5050311
   3051616   4237   0   2    0.0014368837

BLOCK IMFWCOEF Q=  160
   305   4422   0   0    3.8586667e-07
   305   4422   0   2   -6.6879372e-05
   305   4322   0   2    3.3333173e-06
   305   6421   0   0    3.3052032e-07
   305   6421   0   2    3.7234848e-05
   305   6321   0   2    3.9264549e-06
   3051111   4133   0   2   -3.6019557e-07
   3051111   4233   0   2    1.7225974e-05
   3051111   4137   0   2    1.0739054e-05
   3051111   4237   0   2   -0.00012920299
   3051313   4133   0   2   -3.6008835e-07
   3051313   4233   0   2    1.7225952e-05
   3051313   4137   0   2    1.0739005e-05
   3051313   4237   0   2   -0.0001292031
   3051212   4137   0   2   -2.2862414e-06
   3051212   4237   0   2    2.7995134e-05
   3051414   4137   0   2   -2.286254e-06
   3051414   4237   0   2    2.7995134e-05
   3051616   4137   0   2   -2.2961905e-06
   3051616   4237   0   2    2.7995133e-05

DECAY 23  2.4952


DECAY 24  2.085


DECAY 1000011  0.18564271
    0.99995279   2    1000022    11

DECAY 2000011  12.004359
    0.97019726   2    1000022    11
    0.029181023   2    1000025    11
    0.00062164775   2    1000023    11

DECAY 1000013  0.18562153
    0.99992669   2    1000022    13

DECAY 2000013  12.06568
    0.96530568   2    1000022    13
    0.030230887   2    1000025    13
    0.0025063225   2   -1000024    14
    0.001871393   2    1000023    13

DECAY 1000015  0.12919321
    0.99999998   2    1000022    15

DECAY 2000015  30.40272
    0.38871381   2    1000022    15
    0.28116579   2   -1000024    16
    0.14642692   2    1000025    15
    0.14079386   2    1000023    15
    0.020727012   2    1000016   -24
    0.011838711   2    1000015    25
    0.010323905   2    1000015    23

DECAY 1000012  0.17409281
    0.99997488   2    1000022    12

DECAY 1000014  0.17403608
    0.99996131   2    1000022    14

DECAY 1000016  0.11284417
    1   2    1000022    16

DECAY 2000001  0.24866886
    0.98681467   2    1000022    1
    0.012885098   2    1000025    1
    0.00029217049   2    1000023    1

DECAY 1000001  23.947168
    0.50501761   2    1000021    1
    0.31709281   2   -1000037    2
    0.15843898   2    1000035    1
    0.017381382   2    1000022    1
    0.0014266606   2    1000025    1
    0.00043960215   2    1000023    1
    0.00020292844   2   -1000024    2

DECAY 2000003  0.25010256
    0.98125469   2    1000022    3
    0.014119188   2    1000025    3
    0.002892256   2   -1000024    4
    0.0017338707   2    1000023    3

DECAY 1000003  23.9596
    0.50474451   2    1000021    3
    0.31692598   2   -1000037    4
    0.15835569   2    1000035    3
    0.017382462   2    1000022    3
    0.0016548204   2    1000025    3
    0.00067831947   2    1000023    3
    0.00024900904   2   -1000024    4

DECAY 1000005  45.897582
    0.65826474   2   -1000024    6
    0.16833583   2    1000023    5
    0.16045021   2    1000025    5
    0.012949221   2    1000022    5

DECAY 2000005  61.544516
    0.46203879   2   -1000024    6
    0.23237221   2    1000023    5
    0.22391953   2    1000025    5
    0.035227583   2    1000022    5
    0.029513937   2    1000021    5
    0.0077397273   2    1000006   -24
    0.0053165317   2    1000005    25
    0.0037983449   2    1000005    23

DECAY 1000002  23.932783
    0.50313196   2    1000021    2
    0.31606892   2    1000037    1
    0.15825696   2    1000035    2
    0.018664823   2    1000022    2
    0.0030129861   2    1000024    1
    0.00077509004   2    1000023    2

DECAY 2000002  145.06317
    0.92936077   2    1000021    2
    0.06843452   2    1000022    2
    0.0021588154   2    1000025    2

DECAY 1000004  23.944905
    0.50286244   2    1000021    4
    0.31590678   2    1000037    3
    0.1581757   2    1000035    4
    0.018655864   2    1000022    4
    0.0034896084   2    1000024    3
    0.00079775978   2    1000023    4
    0.00011184667   2    1000025    4

DECAY 2000004  145.0663
    0.9293399   2    1000021    4
    0.068433167   2    1000022    4
    0.0021642271   2    1000025    4

DECAY 1000006  45.763296
    0.33405985   2    1000024    5
    0.32928324   2    1000023    6
    0.32011148   2    1000025    6
    0.015111411   2    1000022    6
    0.0011630641   3    1000022    24    5

DECAY 2000006  627.26605
    0.236696   2    1000021    6
    0.19650521   2    1000005    24
    0.15103104   2    1000024    5
    0.14829021   2    1000006    25
    0.098508293   2    1000006    23
    0.075171335   2    1000023    6
    0.074477018   2    1000025    6
    0.017614129   2    1000022    6
    0.00082567894   2    1000005    37
    0.00041739337   2    1000006    36
    0.00041610129   2    1000006    35

DECAY 1000024  0.39205454
    0.95922406   2    1000022    24
    0.040749267   2    1000016   -15

DECAY 1000037  77.82887
    0.11359196   2    1000016   -15
    0.11358214   2   -1000015    16
    0.11104149   2    1000014   -13
    0.11103903   2    1000012   -11
    0.11102331   2   -1000013    14
    0.11102073   2   -1000011    12
    0.063431591   2    1000024    25
    0.061388347   2    1000024    23
    0.061240603   2    1000023    24
    0.059602521   2    1000025    24
    0.039221572   2    1000006   -5
    0.031807675   2   -1000005    6
    0.00379153   3    1000024    6   -6
    0.0028565385   3    1000025   -5    6
    0.0027775433   3    1000023   -5    6
    0.0020041018   2    1000022    24
    0.00021119815   3    1000024    5   -5
    0.00014060846   3    1000024    15   -15
    0.00010048911   3    1000022   -5    6

DECAY 1000022 -1


DECAY 1000023  0.56943935
    0.6757962   2    1000022    23
    0.30256212   2    1000022    25
    0.010801092   2    1000015   -15
    0.010801092   2   -1000015    15

DECAY 1000025  0.21381004
    0.87961291   2    1000022    25
    0.040164087   2    1000015   -15
    0.040164087   2   -1000015    15
    0.037006986   2    1000022    23
    0.0015184618   2    1000016   -16
    0.0015184618   2   -1000016    16

DECAY 1000035  80.633548
    0.059555826   2    1000024   -24
    0.059555826   2   -1000024    24
    0.054909577   2    1000016   -16
    0.054909577   2   -1000016    16
    0.054713823   2    1000015   -15
    0.054713823   2   -1000015    15
    0.053682159   2    1000014   -14
    0.053682159   2   -1000014    14
    0.053680992   2    1000012   -12
    0.053680992   2   -1000012    12
    0.05347529   2    1000013   -13
    0.05347529   2   -1000013    13
    0.053474026   2    1000011   -11
    0.053474026   2   -1000011    11
    0.048726094   2    1000025    25
    0.045625918   2    1000023    25
    0.042786383   2    1000025    23
    0.018031856   2    1000005   -5
    0.018031856   2   -1000005    5
    0.016198234   2    1000006   -6
    0.016198234   2   -1000006    6
    0.015238328   2    1000023    23
    0.0026858462   3    1000024    5   -6
    0.0026858462   3   -1000024   -5    6
    0.0017862894   3    1000025    6   -6
    0.0017442698   3    1000023    6   -6
    0.0014796247   2    1000022    25
    0.0012978241   2    1000022    23
    0.0001021317   3    1000023    5   -5

DECAY 1000021  200.69525
    0.17885669   2    2000003   -3
    0.17885669   2   -2000003    3
    0.17885527   2    2000001   -1
    0.17885527   2   -2000001    1
    0.071903799   2    1000006   -6
    0.071903799   2   -1000006    6
    0.070020822   2    1000005   -5
    0.070020822   2   -1000005    5
    0.00015456152   3    1000024    5   -6
    0.00015456152   3   -1000024   -5    6
    0.00014153195   3    1000023    5   -5
    0.00013608338   3    1000025    5   -5

DECAY 25  0.004346174
    0.52500209   2   -5    5
    0.27912917   2   -24    24
    0.069409632   2    21    21
    0.060459566   2   -15    15
    0.035802639   2    23    23
    0.025734289   2   -4    4
    0.0023160051   2    22    22
    0.0017392918   2    22    23
    0.00020966433   2   -13    13
    0.00019697833   2   -3    3
    5.4462277e-07   2   -1    1
    1.3260615e-07   2   -2    2
    4.7134517e-09   2   -11    11

DECAY 35  69.300719
    0.87870412   2   -5    5
    0.093103965   2   -15    15
    0.015412698   2    1000022    1000023
    0.0084158769   2    1000022    1000025
    0.001111285   2    1000022    1000022
    0.00085250214   2    1000025    1000025
    0.00074564119   2   -6    6
    0.00057683751   2    1000023    1000025
    0.0003562131   2   -1000024    1000024
    0.00032409514   2   -13    13
    0.00032314939   2   -3    3
    2.6652403e-05   2   -1000015    1000015
    2.478432e-05   2    1000023    1000023
    1.7567596e-05   2    21    21
    2.0621435e-06   2    25    25
    8.932445e-07   2   -1    1
    4.4574167e-07   2    23    23
    2.1296331e-07   2   -24    24
    7.9171472e-08   2   -1000011    1000011
    7.8400941e-08   2   -1000013    1000013
    1.6016862e-08   2   -1000001    1000001
    1.589463e-08   2   -1000003    1000003
    1.1024159e-08   2   -4    4
    7.9819857e-09   2    22    22
    7.2797441e-09   2   -11    11
    5.2441718e-09   2    22    23
    5.6840753e-14   2   -2    2

DECAY 36  64.995654
    0.87688858   2   -5    5
    0.09291128   2   -15    15
    0.01379535   2    1000022    1000025
    0.01079445   2    1000022    1000023
    0.0016162224   2    1000022    1000022
    0.001602144   2    1000025    1000025
    0.00074878298   2   -6    6
    0.00058694916   2   -1000024    1000024
    0.00034074026   2    1000023    1000025
    0.00032342382   2   -13    13
    0.0003224778   2   -3    3
    3.8118217e-05   2    1000023    1000023
    2.985956e-05   2    21    21
    8.9138792e-07   2   -1    1
    6.5317912e-07   2    23    25
    3.1533587e-08   2    22    23
    2.891291e-08   2    22    22
    1.0770382e-08   2   -4    4
    7.2646514e-09   2   -11    11
    5.5540176e-14   2   -2    2
    5.8640913e-38   2    25    25

DECAY 37  72.77188
    0.86084559   2   -5    6
    0.11179346   2   -15    16
    0.024878021   2    1000022    1000024
    0.0012789988   2   -5    4
    0.00040258844   2    1000024    1000025
    0.00039523004   2   -13    14
    0.00027831122   2   -3    4
    8.6982505e-05   2    1000023    1000024
    1.53502e-05   2   -1000015    1000016
    1.2984492e-05   2   -3    2
    9.1333746e-06   2   -5    2
    1.3144973e-06   2   -3    6
    7.7201071e-07   2   -1    2
    5.8564034e-07   2    24    25
    2.9542809e-07   2   -1000011    1000012
    2.9439896e-07   2   -1000013    1000014
    4.15816e-08   2   -1    6
    3.6295712e-08   2   -1    4
    9.2444718e-09   2   -11    12
    1.4187494e-12   2    24    35
    4.3983144e-13   2    24    36

DECAY 6  2.43
    1   2    5    24

DECAY 15 -1
