BLOCK SPINFO
   1   SPheno
   2   v4.0.5be

BLOCK SPHENOINFO
   1   2
   2   2

BLOCK MODSEL
   1   0

BLOCK MINPAR
   3    37.716682
   4    1

BLOCK EXTPAR
   0    2580.8616
   1   -3132.2985
   2   -3340.2047
   3    4911.2302
   11   -4578.7248
   12   -6039.4771
   13    2555.5345
   23    101.73246
   25    36.713017
   26    4061.9851
   31    3560.9909
   32    3560.9909
   33    4596.1942
   34    1095.8727
   35    1095.8727
   36    1047.1316
   41    3285.0239
   42    3285.0239
   43    4564.7788
   44    2184.0917
   45    2184.0917
   46    1466.035
   47    4705.1473
   48    4705.1473
   49    1374.387

BLOCK SMINPUTS
   1    127.90897
   2    1.1663787e-05
   3    0.1184
   4    91.1876
   5    4.18
   6    173.2
   7    1.777
   8    0
   11    0.00051099893
   12    0
   13    0.10565837
   14    0
   21    0.005
   22    0.0025
   23    0.095
   24    1.27

BLOCK GAUGE Q=  2580.8616
   1    0.35536298
   2    0.66519887
   3    1.219778

BLOCK YU Q=  2580.8616
   1   1    8.3874818e-06
   2   2    0.0042608408
   3   3    1.0132752

BLOCK YD Q=  2580.8616
   1   1    0.00061877379
   2   2    0.011756702
   3   3    0.61362971

BLOCK YE Q=  2580.8616
   1   1    0.00010798055
   2   2    0.022326953
   3   3    0.37550262

BLOCK AU Q=  2580.8616
   1   1    0
   2   2    0
   3   3   -4578.7247

BLOCK AD Q=  2580.8616
   1   1    0
   2   2    0
   3   3   -6039.4772

BLOCK AE Q=  2580.8616
   1   1    0
   2   2    0
   3   3    2555.5346

BLOCK MSOFT Q=  2580.8616
   1   -3132.2985
   2   -3340.2047
   3    4911.2302
   21    16468212
   22   -158138.61
   31    3560.9909
   32    3560.9909
   33    4596.1942
   34    1095.8727
   35    1095.8727
   36    1047.1316
   41    3285.0239
   42    3285.0239
   43    4564.7788
   44    2184.0917
   45    2184.0917
   46    1466.035
   47    4705.1473
   48    4705.1473
   49    1374.387

BLOCK MASS
   6    173.2
   23    91.1876
   24    80.429995
   15    1.777
   25    123.452
   35    4061.2544
   36    4061.9851
   37    4062.2638
   1000001    3371.2853
   2000001    4777.1598
   1000002    3370.3669
   2000002    2213.2624
   1000003    3371.2837
   2000003    4777.1566
   1000004    3370.3654
   2000004    2213.2619
   1000005    1390.5024
   2000005    4620.6941
   1000006    1440.1787
   2000006    4625.0139
   1000011    3578.8816
   2000011    1121.3568
   1000012    3577.5834
   1000013    3578.8717
   2000013    1121.3289
   1000014    3577.5736
   1000015    1077.3641
   2000015    4605.5785
   1000016    4604.5089
   1000021    4871.503
   1000022   -115.56842
   1000023    117.70521
   1000025   -3092.456
   1000035   -3386.1027
   1000024    116.79542
   1000037    3386.2141

BLOCK ALPHA
      -0.026543405

BLOCK HMIX Q=  2580.8616
   1    101.73246
   2    36.713017
   3    243.38775
   4    16499723

BLOCK STOPMIX
   1   1    0.033440529
   1   2    0.99944071
   2   1   -0.99944071
   2   2    0.033440529

BLOCK SBOTMIX
   1   1    0.001034259
   1   2    0.99999947
   2   1   -0.99999947
   2   2    0.001034259

BLOCK STAUMIX
   1   1    0.00010923552
   1   2    0.99999999
   2   1   -0.99999999
   2   2    0.00010923552

BLOCK NMIX
   1   1   -0.01039385
   1   2    0.016103223
   1   3   -0.71031066
   1   4   -0.70362733
   2   1    0.010254407
   2   2   -0.016158438
   2   3   -0.7038883
   2   4    0.71005282
   3   1    0.99988367
   3   2    0.0047437029
   3   3   -0.00016463607
   3   4   -0.014495329
   4   1    0.004411279
   4   2   -0.99972851
   4   3   -6.5354622e-05
   4   4   -0.022878985

BLOCK UMIX
   1   1   -9.2853288e-05
   1   2    1
   2   1   -1
   2   2   -9.2853288e-05

BLOCK VMIX
   1   1    0.0322765
   1   2    0.99947898
   2   1    0.99947898
   2   2   -0.0322765

BLOCK HIGGSBOUNDSINPUTHIGGSCOUPLINGSFERMIONS
       0, 1347.8456,3,36,15,15

BLOCK HIGGSBOUNDSINPUTHIGGSCOUPLINGSBOSONS
       0,4,36,21,21,23

BLOCK SPHENOLOWENERGY
   1    0.00031340162
   2    1.5910946e-06
   3    3.5249395e-05
   4    2.8850949e-15
   5    1.2324746e-10
   6    2.5769702e-08
   7    9.6947295e-14
   8    4.1415685e-09
   9    8.7744562e-07
   10    9.6335714e-05
   11    0.99511104
   12    0.54209394
   13    19.366485
   14    0
   15    0
   16    0.0021578731
   17    2.2816644e-15
   18    2.4800814e-11
   19    8.2898646e-11
   20   -8.9271366e-16
   21   -3.8162737e-11
   22   -6.3224623e-09
   23    0
   24    0
   25    0
   26    0
   27    0
   28    0
   29    0
   30    0
   31    0
   39    6.3004073e-05
   40    0
   41    0
   42    0

BLOCK FWCOEF Q=  160
   305   4422   0   0   -0.18881911
   305   4422   0   2   -0.17982857
   305   4322   0   2    0.0002556169
   305   6421   0   0   -0.095227835
   305   6421   0   2   -0.094420461
   305   6321   0   2    5.8820463e-05
   3051111   4133   0   0    1.6115049
   3051111   4133   0   2    1.6118179
   3051111   4233   0   2    0.00013871418
   3051111   4137   0   0   -4.434197
   3051111   4137   0   2   -4.4322544
   3051111   4237   0   2   -0.0010491419
   3051313   4133   0   0    1.6115049
   3051313   4133   0   2    1.6118172
   3051313   4233   0   2    0.00013871389
   3051313   4137   0   0   -4.434197
   3051313   4137   0   2   -4.4322551
   3051313   4237   0   2   -0.0010491423
   3051212   4137   0   0    1.5053501
   3051212   4137   0   2    1.5049292
   3051212   4237   0   2    0.00022764188
   3051414   4137   0   0    1.5053501
   3051414   4137   0   2    1.5049292
   3051414   4237   0   2    0.00022764189
   3051616   4137   0   0    1.5053501
   3051616   4137   0   2    1.5049292
   3051616   4237   0   2    0.00022764661

BLOCK IMFWCOEF Q=  160
   305   4422   0   0    3.858266e-07
   305   4422   0   2   -1.698449e-06
   305   4322   0   2    5.9110981e-06
   305   6421   0   0    3.30486e-07
   305   6421   0   2   -4.4211007e-06
   305   6321   0   2    2.8669515e-06
   3051111   4133   0   2   -1.5581102e-06
   3051111   4233   0   2    2.8629132e-06
   3051111   4137   0   2    1.20855e-05
   3051111   4237   0   2   -2.1655793e-05
   3051313   4133   0   2   -1.558105e-06
   3051313   4233   0   2    2.8629094e-06
   3051313   4137   0   2    1.2085507e-05
   3051313   4237   0   2   -2.1655802e-05
   3051212   4137   0   2   -2.6125324e-06
   3051212   4237   0   2    4.6988518e-06
   3051414   4137   0   2   -2.6125324e-06
   3051414   4237   0   2    4.6988518e-06
   3051616   4137   0   2   -2.6118399e-06
   3051616   4237   0   2    4.6988514e-06

DECAY 23  2.4952


DECAY 24  2.085


DECAY 2000011  0.0011758344
    0.50684307   2    1000022    11
    0.49294049   2    1000023    11
    0.00021644354   2   -1000024    12

DECAY 1000011  0.81523111
    0.42421085   2   -1000037    12
    0.3602128   2    1000025    11
    0.21122918   2    1000035    11
    0.0021998737   2    1000023    11
    0.0021469539   2    1000022    11

DECAY 2000013  0.022936888
    0.47436527   2   -1000024    14
    0.26541996   2    1000022    13
    0.26021477   2    1000023    13

DECAY 1000013  0.8505992
    0.40653239   2   -1000037    14
    0.34522282   2    1000025    13
    0.20242645   2    1000035    13
    0.023065934   2    1000022    13
    0.022736916   2    1000023    13

DECAY 1000015  5.9044066
    0.49988933   2   -1000024    16
    0.25243409   2    1000022    15
    0.24767657   2    1000023    15

DECAY 2000015  27.497443
    0.31120297   2   -1000037    16
    0.23683386   2    1000022    15
    0.23256731   2    1000023    15
    0.15480845   2    1000035    15
    0.064563249   2    1000025    15

DECAY 1000012  0.84225456
    0.404953   2    1000037    11
    0.33492771   2    1000025    12
    0.20376415   2    1000035    12
    0.038872027   2    1000024    11
    0.0087496859   2    1000022    12
    0.0087334332   2    1000023    12

DECAY 1000014  0.87759797
    0.3886066   2    1000037    13
    0.32142791   2    1000025    14
    0.19553902   2    1000035    14
    0.07764749   2    1000024    13
    0.0083972876   2    1000022    14
    0.0083816896   2    1000023    14

DECAY 1000016  27.501727
    0.47058574   2    1000024    15
    0.31041798   2    1000037    15
    0.15604386   2    1000035    16
    0.0622384   2    1000025    16
    0.00034516674   2    1000022    16
    0.00034453624   2    1000023    16

DECAY 1000001  0.020793093
    0.5389956   2    1000025    1
    0.230869   2    1000023    1
    0.2301229   2    1000022    1

DECAY 2000001  0.90057741
    0.99927442   2    1000025    1
    0.00033992425   2    1000022    1
    0.00033102679   2    1000023    1

DECAY 1000003  0.03122897
    0.35887402   2    1000025    3
    0.30222854   2    1000022    3
    0.30003291   2    1000023    3
    0.038864531   2   -1000024    4

DECAY 2000003  0.92674497
    0.9710564   2    1000025    3
    0.014157644   2   -1000024    4
    0.0074538265   2    1000022    3
    0.0073166545   2    1000023    3

DECAY 1000005  20.218163
    0.49202956   2   -1000024    6
    0.25636926   2    1000022    5
    0.25160118   2    1000023    5

DECAY 2000005  197.01114
    0.47661687   2   -1000024    6
    0.28007027   2    1000006   -24
    0.088563135   2    1000022    5
    0.086974275   2    1000023    5
    0.044285774   2   -1000037    6
    0.022151211   2    1000035    5
    0.00094512433   2    1000025    5
    0.00025647453   2    1000005    25
    0.00013686147   2    1000005    23

DECAY 2000002  0.0010478494
    0.50680243   2    1000022    2
    0.49319463   2    1000023    2

DECAY 1000002  0.049299118
    0.62598082   2    1000024    1
    0.25137619   2    1000025    2
    0.061662238   2    1000023    2
    0.06098076   2    1000022    2

DECAY 2000004  0.0026364331
    0.35074755   2    1000022    4
    0.34804762   2    1000023    4
    0.30120484   2    1000024    3

DECAY 1000004  0.059732675
    0.67099658   2    1000024    3
    0.20746469   2    1000025    4
    0.061142497   2    1000023    4
    0.060396232   2    1000022    4

DECAY 1000006  57.04606
    0.50728434   2    1000024    5
    0.24853379   2    1000023    6
    0.24418185   2    1000022    6

DECAY 2000006  211.4646
    0.22458246   2    1000023    6
    0.22054812   2    1000022    6
    0.19677406   2    1000006    25
    0.16477872   2    1000024    5
    0.13071752   2    1000006    23
    0.041217692   2    1000037    5
    0.020132492   2    1000035    6
    0.00099325704   2    1000025    6
    0.00025567508   2    1000005    24

DECAY 1000024  6.4102826e-12
    0.6043157   3    1000022   -1    2
    0.20145546   3    1000022   -11    12
    0.19422883   3    1000022   -13    14

DECAY 1000037  29.814809
    0.24811486   2    1000024    25
    0.2318392   2    1000023    24
    0.2297154   2    1000024    23
    0.22765029   2    1000022    24
    0.023637643   3    1000024    6   -6
    0.015417089   3    1000023   -5    6
    0.015269629   3    1000022   -5    6
    0.0068588123   2    1000006   -5
    0.00065919706   3    1000024    5   -5
    0.0001879027   2    1000025    24
    0.00013065596   2    1000004   -3
    0.00013063329   2    1000002   -1
    0.00011608331   2   -1000001    2
    0.00011568496   2   -1000003    4

DECAY 1000022 -1


DECAY 1000023  8.7781015e-10
    0.88043779   2    1000022    22
    0.034914293   3    1000022    12   -12
    0.026106844   3    1000022    1   -1
    0.025514957   3    1000022    3   -3
    0.020361773   3    1000022    2   -2
    0.0058918925   3    1000022    11   -11
    0.0056830867   3    1000022    13   -13
    0.00033103268   3    1000024    1   -2
    0.00033103268   3   -1000024   -1    2
    0.00011035339   3    1000024    11   -12
    0.00011035339   3   -1000024   -11    12
    0.00010329626   3    1000024    13   -14
    0.00010329626   3   -1000024   -13    14

DECAY 1000025  70.331362
    0.09128386   2    1000006   -6
    0.09128386   2   -1000006    6
    0.085258549   2    1000015   -15
    0.085258549   2   -1000015    15
    0.083308209   2    2000013   -13
    0.083308209   2   -2000013    13
    0.083306955   2    2000011   -11
    0.083306955   2   -2000011    11
    0.035035664   2    2000004   -4
    0.035035664   2   -2000004    4
    0.035035631   2    2000002   -2
    0.035035631   2   -2000002    2
    0.03080234   2    1000024   -24
    0.03080234   2   -1000024    24
    0.023432338   2    1000005   -5
    0.023432338   2   -1000005    5
    0.015433259   2    1000023    23
    0.015414604   2    1000023    25
    0.014483935   2    1000022    23
    0.013591635   2    1000022    25
    0.0018157638   3    1000024    5   -6
    0.0018157638   3   -1000024   -5    6
    0.0012558269   3    1000023    6   -6
    0.0012319716   3    1000022    6   -6

DECAY 1000035  30.331685
    0.22489637   2    1000024   -24
    0.22489637   2   -1000024    24
    0.13946755   2    1000023    25
    0.12298865   2    1000022    25
    0.11517063   2    1000023    23
    0.11182447   2    1000022    23
    0.015220781   3    1000024    5   -6
    0.015220781   3   -1000024   -5    6
    0.011099982   3    1000023    6   -6
    0.01089755   3    1000022    6   -6
    0.0034343121   2    1000006   -6
    0.0034343121   2   -1000006    6
    0.00032885084   3    1000022    5   -5
    0.00031960033   3    1000023    5   -5

DECAY 1000021  582.654
    0.10439877   2    1000005   -5
    0.10439877   2   -1000005    5
    0.10249311   2    1000006   -6
    0.10249311   2   -1000006    6
    0.07792946   2    2000004   -4
    0.07792946   2   -2000004    4
    0.077929444   2    2000002   -2
    0.077929444   2   -2000002    2
    0.033632126   2    1000004   -4
    0.033632126   2   -1000004    4
    0.033632079   2    1000002   -2
    0.033632079   2   -1000002    2
    0.033598484   2    1000003   -3
    0.033598484   2   -1000003    3
    0.033598426   2    1000001   -1
    0.033598426   2   -1000001    1
    0.0012452016   2    2000005   -5
    0.0012452016   2   -2000005    5
    0.00090869182   2    2000006   -6
    0.00090869182   2   -2000006    6
    0.00018207328   2    2000003   -3
    0.00018207328   2   -2000003    3
    0.00018206125   2    2000001   -1
    0.00018206125   2   -2000001    1
    0.00013426681   2    1000006   -4
    0.00013426681   2   -1000006    4

DECAY 25  0.0036807523
    0.59596324   2   -5    5
    0.20411829   2   -24    24
    0.073844984   2    21    21
    0.068433021   2   -15    15
    0.029512383   2   -4    4
    0.023954152   2    23    23
    0.0023416502   2    22    22
    0.0013702719   2    22    23
    0.00023734425   2   -13    13
    0.0002238906   2   -3    3
    6.1903465e-07   2   -1    1
    1.5208911e-07   2   -2    2
    5.3357824e-09   2   -11    11

DECAY 35  75.833438
    0.77102546   2   -5    5
    0.14876043   2   -15    15
    0.022379307   2   -1000024    1000037
    0.022379307   2   -1000037    1000024
    0.011960425   2    1000023    1000035
    0.010549621   2    1000022    1000035
    0.0051379374   2    1000023    1000025
    0.0048372292   2    1000022    1000025
    0.0014327329   2   -6    6
    0.00051466921   2   -13    13
    0.0005047508   2   -1000024    1000024
    0.00029189979   2   -3    3
    0.00011416132   2    1000022    1000022
    0.00010084836   2    1000023    1000023
    4.7505784e-06   2    21    21
    2.7299677e-06   2   -1000006    1000006
    1.2592696e-06   2   -1000005    1000005
    1.0950636e-06   2    25    25
    8.0698628e-07   2   -1    1
    2.5698828e-07   2    1000022    1000023
    1.7592497e-07   2    23    23
    3.6510201e-08   2   -24    24
    3.3432315e-08   2   -1000011    1000011
    3.3146212e-08   2   -1000013    1000013
    1.878145e-08   2   -4    4
    1.1558137e-08   2   -11    11
    6.3266682e-09   2    22    23
    5.7248957e-09   2   -1000015    1000015
    5.3704458e-09   2    22    22
    9.6806596e-14   2   -2    2

DECAY 36  72.146902
    0.76762401   2   -5    5
    0.14810583   2   -15    15
    0.023563509   2   -1000024    1000037
    0.023563509   2   -1000037    1000024
    0.012897203   2    1000022    1000035
    0.010804666   2    1000023    1000035
    0.0055403947   2    1000022    1000025
    0.004957746   2    1000023    1000025
    0.0013690076   2   -6    6
    0.00053175294   2   -1000024    1000024
    0.00051240414   2   -13    13
    0.00029060834   2   -3    3
    0.00011835039   2    1000023    1000023
    0.00010834082   2    1000022    1000022
    1.1343599e-05   2    21    21
    8.0340907e-07   2   -1    1
    3.9664273e-07   2    23    25
    7.7358947e-08   2    1000022    1000023
    1.7801087e-08   2   -4    4
    1.1507252e-08   2   -11    11
    9.5484878e-09   2    22    22
    6.1722696e-09   2    22    23
    9.1754351e-14   2   -2    2
    3.9675398e-40   2    25    25

DECAY 37  77.584441
    0.77311308   2   -5    6
    0.14895524   2   -15    16
    0.022234098   2    1000022    1000037
    0.021822172   2    1000024    1000035
    0.021669872   2    1000023    1000037
    0.010159276   2    1000024    1000025
    0.0011450125   2   -5    4
    0.0005266098   2   -13    14
    0.00026633641   2   -3    4
    3.0654817e-05   2    1000023    1000024
    2.8933759e-05   2    1000022    1000024
    2.4370733e-05   2   -1000005    1000006
    1.2515863e-05   2   -3    2
    8.1765699e-06   2   -5    2
    2.4024255e-06   2   -3    6
    7.3894982e-07   2   -1    2
    3.6904471e-07   2    24    25
    9.1984666e-08   2   -1    6
    3.5463957e-08   2   -1    4
    1.2317458e-08   2   -11    12
    5.5703481e-12   2   -1000005    1000004
    1.8394692e-14   2    24    35
    2.0864034e-19   2   -1000005    1000002

DECAY 6  2.43
    1   2    5    24

DECAY 15 -1
