BLOCK SPINFO
   1   SPheno
   2   v4.0.5be

BLOCK SPHENOINFO
   1   2
   2   2

BLOCK MODSEL
   1   0

BLOCK MINPAR
   3    5.5178932
   4   -1

BLOCK EXTPAR
   0    1542.5926
   1   -18.424422
   2   -958.21758
   3    3000
   11    3065.3456
   12   -839.07011
   13   -138.15244
   23   -868.54451
   25    5.2763697
   26    4368.3229
   31    601.79344
   32    601.79344
   33    643.14994
   34    746.41141
   35    746.41141
   36    1121.877
   41    5000
   42    5000
   43    1378.8036
   44    5000
   45    5000
   46    1805.9972
   47    5000
   48    5000
   49    1158.838

BLOCK SMINPUTS
   1    127.90897
   2    1.1663787e-05
   3    0.1184
   4    91.1876
   5    4.18
   6    173.2
   7    1.777
   8    0
   11    0.00051099893
   12    0
   13    0.10565837
   14    0
   21    0.005
   22    0.0025
   23    0.095
   24    1.27

BLOCK GAUGE Q=  1542.5926
   1    0.35536298
   2    0.66519887
   3    1.219778

BLOCK YU Q=  1542.5926
   1   1    8.5336247e-06
   2   2    0.0043350813
   3   3    1.0309304

BLOCK YD Q=  1542.5926
   1   1    9.0479252e-05
   2   2    0.0017191058
   3   3    0.089727066

BLOCK YE Q=  1542.5926
   1   1    1.5789291e-05
   2   2    0.0032647246
   3   3    0.054907297

BLOCK AU Q=  1542.5926
   1   1    0
   2   2    0
   3   3    3065.3456

BLOCK AD Q=  1542.5926
   1   1    0
   2   2    0
   3   3   -839.07012

BLOCK AE Q=  1542.5926
   1   1    0
   2   2    0
   3   3   -138.15244

BLOCK MSOFT Q=  1542.5926
   1   -18.424422
   2   -958.21758
   3    3000
   21    17599590
   22   -35504.816
   31    601.79344
   32    601.79344
   33    643.14994
   34    746.41141
   35    746.41141
   36    1121.877
   41    5000
   42    5000
   43    1378.8036
   44    5000
   45    5000
   46    1805.9972
   47    5000
   48    5000
   49    1158.838

BLOCK MASS
   6    173.2
   23    91.1876
   24    80.429995
   15    1.777
   25    120.52164
   35    4368.1823
   36    4368.3229
   37    4368.8164
   1000001    5029.9401
   2000001    5019.8222
   1000002    5029.5405
   2000002    5023.2114
   1000003    5029.9406
   2000003    5019.8224
   1000004    5029.541
   2000004    5023.2122
   1000005    1165.6493
   2000005    1376.0032
   1000006    1318.0006
   2000006    1805.4558
   1000011    625.15016
   2000011    737.06592
   1000012    620.0951
   1000013    625.14988
   2000013    737.06853
   1000014    620.09609
   1000015    665.53378
   2000015    1116.4542
   1000016    660.83328
   1000021    3191.9704
   1000022   -16.683682
   1000023   -846.53759
   1000025    878.25922
   1000035   -1018.3583
   1000024    846.80104
   1000037    1018.6125

BLOCK ALPHA
      -0.17948823

BLOCK HMIX Q=  1542.5926
   1   -868.54451
   2    5.2763697
   3    243.97463
   4    19082245

BLOCK STOPMIX
   1   1   -0.94476481
   1   2    0.32774907
   2   1   -0.32774907
   2   2   -0.94476481

BLOCK SBOTMIX
   1   1   -0.01723435
   1   2    0.99985148
   2   1   -0.99985148
   2   2   -0.01723435

BLOCK STAUMIX
   1   1   -0.99995134
   1   2    0.0098651223
   2   1   -0.0098651223
   2   2   -0.99995134

BLOCK NMIX
   1   1    0.99869078
   1   2   -0.0016366503
   1   3   -0.050025393
   1   4    0.01055959
   2   1    0.039838455
   2   2    0.42198397
   2   3    0.64792535
   2   4   -0.63287848
   3   1    0.02781243
   3   2   -0.024222621
   3   3    0.70543877
   3   4    0.70781062
   4   1   -0.016002804
   4   2    0.90627817
   4   3   -0.28292462
   4   4    0.31361992

BLOCK UMIX
   1   1   -0.40129211
   1   2   -0.91595013
   2   1   -0.91595013
   2   2    0.40129211

BLOCK VMIX
   1   1    0.44516287
   1   2    0.89544962
   2   1    0.89544962
   2   2   -0.44516287

BLOCK HIGGSBOUNDSINPUTHIGGSCOUPLINGSFERMIONS
       0, 27.840077,3,36,15,15

BLOCK HIGGSBOUNDSINPUTHIGGSCOUPLINGSBOSONS
       0,4,36,21,21,23

BLOCK SPHENOLOWENERGY
   1    0.00031874742
   2    1.5902557e-06
   3    3.5243585e-05
   4    2.4463753e-15
   5    1.0450638e-10
   6    2.1877587e-08
   7    8.2550522e-14
   8    3.5265558e-09
   9    7.4802006e-07
   10    9.6800241e-05
   11    0.99990943
   12    0.54286369
   13    19.396965
   14    0
   15    0
   16    0.0021608112
   17    2.2816941e-15
   18    2.4787909e-11
   19    8.2877161e-11
   20    1.5853607e-15
   21    6.7779266e-11
   22    1.8479817e-08
   23    0
   24    0
   25    0
   26    0
   27    0
   28    0
   29    0
   30    0
   31    0
   39   -0.00029599789
   40    0
   41    0
   42    0

BLOCK FWCOEF Q=  160
   305   4422   0   0   -0.18881911
   305   4422   0   2   -0.1865348
   305   4322   0   2   -3.4797118e-05
   305   6421   0   0   -0.095227835
   305   6421   0   2   -0.096966141
   305   6321   0   2   -7.5014514e-05
   3051111   4133   0   0    1.592729
   3051111   4133   0   2    1.5938801
   3051111   4233   0   2    5.1424988e-06
   3051111   4137   0   0   -4.4154211
   3051111   4137   0   2   -4.4128102
   3051111   4237   0   2   -3.9346674e-05
   3051313   4133   0   0    1.592729
   3051313   4133   0   2    1.59388
   3051313   4233   0   2    5.1424976e-06
   3051313   4137   0   0   -4.4154211
   3051313   4137   0   2   -4.4128103
   3051313   4237   0   2   -3.9346676e-05
   3051212   4137   0   0    1.5053501
   3051212   4137   0   2    1.5047964
   3051212   4237   0   2    8.54968e-06
   3051414   4137   0   0    1.5053501
   3051414   4137   0   2    1.5047964
   3051414   4237   0   2    8.5496799e-06
   3051616   4137   0   0    1.5053501
   3051616   4137   0   2    1.5047964
   3051616   4237   0   2    8.5498917e-06

BLOCK IMFWCOEF Q=  160
   305   4422   0   0    3.858355e-07
   305   4422   0   2    2.825013e-06
   305   4322   0   2    5.426362e-07
   305   6421   0   0    3.3049362e-07
   305   6421   0   2    2.3830695e-06
   305   6321   0   2    2.3308847e-07
   3051111   4133   0   2   -2.5816804e-07
   3051111   4233   0   2    9.8860812e-08
   3051111   4137   0   2    1.295999e-06
   3051111   4237   0   2   -7.57351e-07
   3051313   4133   0   2   -2.5816988e-07
   3051313   4233   0   2    9.8860792e-08
   3051313   4137   0   2    1.2959999e-06
   3051313   4237   0   2   -7.5735104e-07
   3051212   4137   0   2   -3.576908e-08
   3051212   4237   0   2    1.645992e-07
   3051414   4137   0   2   -3.5769198e-08
   3051414   4237   0   2    1.645992e-07
   3051616   4137   0   2   -3.4852692e-08
   3051616   4237   0   2    1.6460295e-07

DECAY 23  2.4952


DECAY 24  2.085


DECAY 1000011  0.7773265
    0.99999999   2    1000022    11

DECAY 2000011  3.6900119
    1   2    1000022    11

DECAY 1000013  0.77732643
    0.99999999   2    1000022    13

DECAY 2000013  3.6900253
    1   2    1000022    13

DECAY 1000015  0.82818443
    0.99999998   2    1000022    15

DECAY 2000015  5.6605927
    0.98788762   2    1000022    15
    0.004243385   2    1000016   -24
    0.0020399529   2    1000015    23
    0.0020293469   2    1000015    25
    0.0016075131   2   -1000024    16
    0.0010851789   2    1000023    15
    0.00097054186   2    1000025    15

DECAY 1000012  0.78054212
    1   2    1000022    12

DECAY 1000014  0.78054337
    1   2    1000022    14

DECAY 1000016  0.83196515
    0.99999999   2    1000022    16

DECAY 2000001  143.39168
    0.98045889   2    1000021    1
    0.019493008   2    1000022    1

DECAY 1000001  203.6967
    0.69536072   2    1000021    1
    0.1677195   2   -1000037    2
    0.0826187   2    1000035    1
    0.033049104   2   -1000024    2
    0.017664028   2    1000023    1
    0.0035009856   2    1000022    1

DECAY 2000003  143.39224
    0.98045511   2    1000021    3
    0.019492937   2    1000022    3

DECAY 1000003  203.69881
    0.6953538   2    1000021    3
    0.16771957   2   -1000037    4
    0.08261796   2    1000035    3
    0.033055656   2   -1000024    4
    0.017664425   2    1000023    3
    0.0035009534   2    1000022    3

DECAY 1000005  0.71402478
    0.91035748   2    1000022    5
    0.037280186   2   -1000024    6
    0.027598057   2    1000023    5
    0.0241688   2    1000025    5
    0.00059547522   2    1000035    5

DECAY 2000005  13.306848
    0.58082594   2   -1000024    6
    0.29067122   2   -1000037    6
    0.077254229   2    1000035    5
    0.032749598   2    1000023    5
    0.014630599   2    1000022    5
    0.0030502133   2    1000025    5
    0.00049294562   2    1000005    25
    0.00032525588   2    1000005    23

DECAY 2000002  152.15801
    0.92628918   2    1000021    2
    0.073529413   2    1000022    2
    0.00011045567   2    1000023    2

DECAY 1000002  203.6938
    0.69516641   2    1000021    2
    0.16028319   2    1000037    1
    0.081579641   2    1000035    2
    0.040667174   2    1000024    1
    0.018891422   2    1000023    2
    0.0033742282   2    1000022    2

DECAY 2000004  152.16156
    0.92626771   2    1000021    4
    0.073527701   2    1000022    4
    0.00011511542   2    1000023    4

DECAY 1000004  203.69584
    0.69515941   2    1000021    4
    0.16028183   2    1000037    3
    0.081579594   2    1000035    4
    0.040667912   2    1000024    3
    0.018894773   2    1000023    4
    0.0033741953   2    1000022    4

DECAY 1000006  14.908929
    0.37403103   2    1000023    6
    0.31486034   2    1000025    6
    0.20889322   2    1000024    5
    0.048917713   2    1000037    5
    0.033808471   2    1000022    6
    0.018898421   2    1000035    6
    0.00041544075   3    1000022    24    5
    0.0001751085   2    1000005    24

DECAY 2000006  107.95795
    0.27774986   2    2000005    24
    0.1715544   2    1000006    23
    0.15139238   2    1000006    25
    0.12178435   2    1000024    5
    0.091082186   2    1000025    6
    0.06382056   2    1000023    6
    0.061162263   2    1000037    5
    0.032371252   2    1000022    6
    0.028853831   2    1000035    6
    0.00022891286   2    1000005    24

DECAY 1000024  1.2510376
    0.37867699   2    1000022    24
    0.12699798   2    1000014   -13
    0.1269846   2    1000012   -11
    0.099319967   2   -1000013    14
    0.099319758   2   -1000011    12
    0.093189011   2    1000016   -15
    0.070374481   2   -1000015    16
    0.0051324088   3    1000022   -5    6

DECAY 1000037  12.315422
    0.15949937   2    1000023    24
    0.118674   2   -1000013    14
    0.11867388   2   -1000011    12
    0.11563964   2    1000012   -11
    0.11563959   2    1000014   -13
    0.10023538   2   -1000015    16
    0.097987033   2    1000016   -15
    0.077430181   2    1000024    23
    0.049114533   2    1000025    24
    0.037326457   2    1000024    25
    0.0096063158   2    1000022    24
    0.00017215668   3    1000022   -5    6

DECAY 1000022 -1


DECAY 1000023  1.2023044
    0.25113941   2    1000022    25
    0.11361675   2    1000022    23
    0.062940158   2    1000013   -13
    0.062940158   2   -1000013    13
    0.062934254   2    1000011   -11
    0.062934254   2   -1000011    11
    0.053434331   2    1000012   -12
    0.053434331   2   -1000012    12
    0.053433934   2    1000014   -14
    0.053433934   2   -1000014    14
    0.045665039   2    1000015   -15
    0.045665039   2   -1000015    15
    0.037961731   2    1000016   -16
    0.037961731   2   -1000016    16
    0.0018293253   3    1000022    6   -6
    0.00016615671   2    2000013   -13
    0.00016615671   2   -2000013    13
    0.00016429443   2    2000011   -11
    0.00016429443   2   -2000011    11

DECAY 1000025  0.61577044
    0.68430732   2    1000022    23
    0.29401729   2    1000022    25
    0.0056917736   3    1000022    6   -6
    0.0038797191   2    1000015   -15
    0.0038797191   2   -1000015    15
    0.0012056724   2    1000012   -12
    0.0012056724   2   -1000012    12
    0.0012056647   2    1000014   -14
    0.0012056647   2   -1000014    14
    0.00090232016   2    1000016   -16
    0.00090232016   2   -1000016    16
    0.00024896924   2    2000013   -13
    0.00024896924   2   -2000013    13
    0.00024233367   2    2000011   -11
    0.00024233367   2   -2000011    11

DECAY 1000035  14.544331
    0.13689973   2    1000024   -24
    0.13689973   2   -1000024    24
    0.1032042   2    1000025    23
    0.051058053   2    1000012   -12
    0.051058053   2   -1000012    12
    0.051057861   2    1000014   -14
    0.051057861   2   -1000014    14
    0.048223672   2    1000013   -13
    0.048223672   2   -1000013    13
    0.048223321   2    1000011   -11
    0.048223321   2   -1000011    11
    0.04321844   2    1000016   -16
    0.04321844   2   -1000016    16
    0.040797024   2    1000015   -15
    0.040797024   2   -1000015    15
    0.031958966   2    1000023    25
    0.017901054   2    1000025    25
    0.0047128726   2    1000022    25
    0.0029030054   2    1000022    23
    0.00022136726   2    1000023    23

DECAY 1000021  243.01568
    0.14601955   2    1000005   -5
    0.14601955   2   -1000005    5
    0.14434368   2    1000006   -6
    0.14434368   2   -1000006    6
    0.12884437   2    2000005   -5
    0.12884437   2   -2000005    5
    0.080724907   2    2000006   -6
    0.080724907   2   -2000006    6

DECAY 25  0.0034562335
    0.62315895   2   -5    5
    0.15652002   2   -24    24
    0.072625322   2    21    21
    0.071228071   2   -15    15
    0.030855817   2   -4    4
    0.024446513   2    1000022    1000022
    0.017313439   2    23    23
    0.0022700125   2    22    22
    0.0010999518   2    22    23
    0.00024706123   2   -13    13
    0.00023403415   2   -3    3
    6.4708118e-07   2   -1    1
    1.5902178e-07   2   -2    2
    5.554272e-09   2   -11    11

DECAY 35  59.719879
    0.20574702   2   -1000024    1000037
    0.20574702   2   -1000037    1000024
    0.14893099   2    1000025    1000035
    0.099832772   2   -6    6
    0.062016994   2   -1000024    1000024
    0.053126139   2    1000022    1000025
    0.039077141   2   -1000037    1000037
    0.033263486   2    1000023    1000025
    0.026791559   2    1000023    1000035
    0.025711404   2   -5    5
    0.024937348   2    1000023    1000023
    0.024270965   2    1000022    1000023
    0.020823623   2    1000035    1000035
    0.0064838271   2   -2000006    1000006
    0.0064838271   2   -1000006    2000006
    0.0062127802   2   -1000006    1000006
    0.0044913629   2   -15    15
    0.0022705675   2    1000022    1000035
    0.0017702332   2   -2000006    2000006
    0.00049461079   2    1000025    1000025
    0.00048076941   2   -2000005    1000005
    0.00048076941   2   -1000005    2000005
    0.00037264953   2    1000022    1000022
    4.29303e-05   2    25    25
    2.240817e-05   2   -2000005    2000005
    1.7818103e-05   2    21    21
    1.5550831e-05   2   -13    13
    9.2941313e-06   2   -2000015    1000015
    9.2941313e-06   2   -1000015    2000015
    8.8785819e-06   2   -3    3
    8.2664783e-06   2    23    23
    3.0543919e-06   2   -1000011    1000011
    3.0521141e-06   2   -1000013    1000013
    2.702238e-06   2   -1000015    1000015
    1.9332316e-06   2   -2000013    2000013
    1.9321713e-06   2   -2000011    2000011
    1.8239537e-06   2   -2000015    2000015
    1.579778e-06   2   -24    24
    1.2863619e-06   2   -4    4
    2.5453193e-07   2    22    22
    2.0894474e-07   2    22    23
    2.7582005e-08   2   -1000005    1000005
    2.4546127e-08   2   -1    1
    9.9132306e-09   2   -2000013    1000013
    9.9132306e-09   2   -1000013    2000013
    3.4921989e-10   2   -11    11
    6.6303211e-12   2   -2    2
    2.3187778e-13   2   -2000011    1000011
    2.3187778e-13   2   -1000011    2000011

DECAY 36  59.072492
    0.14040608   2   -1000024    1000024
    0.13173768   2   -1000024    1000037
    0.13173768   2   -1000037    1000024
    0.11437183   2   -1000037    1000037
    0.091907489   2   -6    6
    0.06488476   2    1000023    1000035
    0.060906202   2    1000025    1000035
    0.06026296   2    1000023    1000023
    0.059554969   2    1000035    1000035
    0.048505888   2    1000022    1000023
    0.025533505   2    1000022    1000025
    0.024974739   2   -5    5
    0.012004779   2    1000023    1000025
    0.010248135   2   -2000006    1000006
    0.010248135   2   -1000006    2000006
    0.0065655773   2    1000022    1000035
    0.0043642426   2   -15    15
    0.00048926451   2   -2000005    1000005
    0.00048926451   2   -1000005    2000005
    0.00043590161   2    1000022    1000022
    0.00028488038   2    1000025    1000025
    2.2447224e-05   2    21    21
    1.9489074e-05   2    23    25
    1.511068e-05   2   -13    13
    9.3682961e-06   2   -2000015    1000015
    9.3682961e-06   2   -1000015    2000015
    8.6268156e-06   2   -3    3
    1.1713963e-06   2   -4    4
    2.2142885e-07   2    22    22
    2.0157393e-07   2    22    23
    2.3850014e-08   2   -1    1
    9.8222211e-09   2   -2000013    1000013
    9.8222211e-09   2   -1000013    2000013
    3.3933549e-10   2   -11    11
    6.037896e-12   2   -2    2
    2.2974277e-13   2   -2000011    1000011
    2.2974277e-13   2   -1000011    2000011
    8.3015642e-40   2    25    25

DECAY 37  58.734822
    0.26959983   2    1000023    1000037
    0.25103696   2    1000024    1000035
    0.20401884   2    1000025    1000037
    0.11950518   2   -5    6
    0.072720348   2    1000022    1000024
    0.055246916   2    1000024    1000025
    0.011648776   2   -2000005    2000006
    0.008731373   2    1000022    1000037
    0.004529081   2   -15    16
    0.0012176082   2   -2000005    1000006
    0.001059441   2   -1000005    1000006
    0.00037777788   2    1000023    1000024
    0.00013210585   2   -3    6
    3.9774097e-05   2   -5    4
    2.3780785e-05   2    1000035    1000037
    1.9613506e-05   2    24    25
    1.9135978e-05   2   -2000015    1000016
    1.6011912e-05   2   -13    14
    1.2201359e-05   2   -1000011    1000012
    1.2198045e-05   2   -1000013    1000014
    1.1643805e-05   2   -1000015    1000016
    9.5681721e-06   2   -3    4
    6.0584061e-06   2   -1    6
    5.0043896e-06   2   -1000005    2000006
    3.9476739e-07   2   -3    2
    2.8401498e-07   2   -5    2
    5.6273612e-08   2   -1    4
    2.3294373e-08   2   -1    2
    2.2385902e-08   2   -2000013    1000014
    3.7452029e-10   2   -11    12
    5.236143e-13   2   -2000011    1000012

DECAY 6  2.43
    1   2    5    24

DECAY 15 -1
