BLOCK SPINFO
   1   SPheno
   2   v4.0.5be

BLOCK SPHENOINFO
   1   2
   2   2

BLOCK MODSEL
   1   0

BLOCK MINPAR
   3    21.521882
   4   -1

BLOCK EXTPAR
   0    2901.7393
   1   -758.23344
   2    623.38899
   3    1789.8106
   11    3130.9666
   12   -5661.72
   13   -2736.6479
   23   -662.77498
   25    20.622156
   26    4391.5048
   31    2881.6777
   32    2881.6777
   33    2736.6758
   34    4379.6693
   35    4379.6693
   36    769.29943
   41    4567.7211
   42    4567.7211
   43    2063.8971
   44    3394.3035
   45    3394.3035
   46    3954.1243
   47    959.63141
   48    959.63141
   49    3933.008

BLOCK SMINPUTS
   1    127.90897
   2    1.1663787e-05
   3    0.1184
   4    91.1876
   5    4.18
   6    173.2
   7    1.777
   8    0
   11    0.00051099893
   12    0
   13    0.10565837
   14    0
   21    0.005
   22    0.0025
   23    0.095
   24    1.27

BLOCK GAUGE Q=  2901.7393
   1    0.35536298
   2    0.66519887
   3    1.219778

BLOCK YU Q=  2901.7393
   1   1    8.394224e-06
   2   2    0.0042642658
   3   3    1.0140897

BLOCK YD Q=  2901.7393
   1   1    0.00034785229
   2   2    0.0066091935
   3   3    0.34496047

BLOCK YE Q=  2901.7393
   1   1    6.0702769e-05
   2   2    0.012551407
   3   3    0.21109402

BLOCK AU Q=  2901.7393
   1   1    0
   2   2    0
   3   3    3130.9666

BLOCK AD Q=  2901.7393
   1   1    0
   2   2    0
   3   3   -5661.72

BLOCK AE Q=  2901.7393
   1   1    0
   2   2    0
   3   3   -2736.6479

BLOCK MSOFT Q=  2901.7393
   1   -758.23344
   2    623.38899
   3    1789.8106
   21    18826823
   22   -300440.8
   31    2881.6777
   32    2881.6777
   33    2736.6758
   34    4379.6693
   35    4379.6693
   36    769.29943
   41    4567.7211
   42    4567.7211
   43    2063.8971
   44    3394.3035
   45    3394.3035
   46    3954.1243
   47    959.63141
   48    959.63141
   49    3933.008

BLOCK MASS
   6    173.2
   23    91.1876
   24    80.429995
   15    1.777
   25    122.84817
   35    4390.5722
   36    4391.5048
   37    4391.6173
   1000001    4630.4704
   2000001    1109.5457
   1000002    4629.8832
   2000002    3444.834
   1000003    4630.4694
   2000003    1109.5445
   1000004    4629.8823
   2000004    3444.8336
   1000005    2132.8811
   2000005    3981.0521
   1000006    2133.1775
   2000006    3947.2059
   1000011    2885.3751
   2000011    4387.4542
   1000012    2883.8919
   1000013    2885.3713
   2000013    4387.4467
   1000014    2883.8881
   1000015    794.86549
   2000015    2738.8852
   1000016    2737.0246
   1000021    2042.219
   1000022    616.616
   1000023   -665.48045
   1000025    724.08697
   1000035   -764.81698
   1000024    617.5783
   1000037    725.28276

BLOCK ALPHA
      -0.046480533

BLOCK HMIX Q=  2901.7393
   1   -662.77498
   2    20.622156
   3    243.2815
   4    19285314

BLOCK STOPMIX
   1   1   -0.99931905
   1   2    0.036897573
   2   1   -0.036897573
   2   2   -0.99931905

BLOCK SBOTMIX
   1   1   -0.99999878
   1   2    0.0015645578
   2   1   -0.0015645578
   2   2   -0.99999878

BLOCK STAUMIX
   1   1   -0.0028777413
   1   2    0.99999586
   2   1   -0.99999586
   2   2   -0.0028777413

BLOCK NMIX
   1   1   -0.013434623
   1   2   -0.74318318
   1   3   -0.49639863
   1   4   -0.4484269
   2   1    0.34083192
   2   2    0.042014902
   2   3   -0.66826748
   2   4    0.65991434
   3   1    0.015381693
   3   2   -0.66760057
   3   3    0.50546493
   3   4    0.546423
   4   1   -0.9399024
   4   2    0.014933017
   4   3   -0.22696298
   4   4    0.25465328

BLOCK UMIX
   1   1   -0.72071073
   1   2   -0.69323592
   2   1    0.69323592
   2   2   -0.72071073

BLOCK VMIX
   1   1   -0.77953412
   1   2    0.62635977
   2   1    0.62635977
   2   2    0.77953412

BLOCK HIGGSBOUNDSINPUTHIGGSCOUPLINGSFERMIONS
       0, 425.27332,3,36,15,15

BLOCK HIGGSBOUNDSINPUTHIGGSCOUPLINGSBOSONS
       0,4,36,21,21,23

BLOCK SPHENOLOWENERGY
   1    0.00031788172
   2    1.5898286e-06
   3    3.5236343e-05
   4    2.6191903e-15
   5    1.1188876e-10
   6    2.3418261e-08
   7    8.8591964e-14
   8    3.7846432e-09
   9    8.0259425e-07
   10    9.667395e-05
   11    0.99860489
   12    0.54201915
   13    19.366397
   14    0
   15    0
   16    0.0021574768
   17    2.2816601e-15
   18    2.4790641e-11
   19    8.2880465e-11
   20   -1.6206877e-15
   21   -6.9290479e-11
   22   -2.6298088e-08
   23    0
   24    0
   25    0
   26    0
   27    0
   28    0
   29    0
   30    0
   31    0
   39    6.3701587e-05
   40    0
   41    0
   42    0

BLOCK FWCOEF Q=  160
   305   4422   0   0   -0.18881911
   305   4422   0   2   -0.18573291
   305   4322   0   2   -3.3247908e-05
   305   6421   0   0   -0.095227835
   305   6421   0   2   -0.095644745
   305   6321   0   2   -5.0191869e-05
   3051111   4133   0   0    1.6151746
   3051111   4133   0   2    1.6155272
   3051111   4233   0   2    0.00012693878
   3051111   4137   0   0   -4.4378667
   3051111   4137   0   2   -4.4345741
   3051111   4237   0   2   -0.00095876399
   3051313   4133   0   0    1.6151746
   3051313   4133   0   2    1.6155271
   3051313   4233   0   2    0.00012693874
   3051313   4137   0   0   -4.4378667
   3051313   4137   0   2   -4.4345743
   3051313   4237   0   2   -0.00095876414
   3051212   4137   0   0    1.5053501
   3051212   4137   0   2    1.5046497
   3051212   4237   0   2    0.00020786109
   3051414   4137   0   0    1.5053501
   3051414   4137   0   2    1.5046497
   3051414   4237   0   2    0.00020786109
   3051616   4137   0   0    1.5053501
   3051616   4137   0   2    1.5046498
   3051616   4237   0   2    0.0002078615

BLOCK IMFWCOEF Q=  160
   305   4422   0   0    3.8583509e-07
   305   4422   0   2   -2.2855376e-05
   305   4322   0   2    6.2062808e-07
   305   6421   0   0    3.3049327e-07
   305   6421   0   2    8.4308348e-06
   305   6321   0   2    7.4111313e-07
   3051111   4133   0   2    7.431564e-07
   3051111   4233   0   2    2.378331e-06
   3051111   4137   0   2    4.5616705e-06
   3051111   4237   0   2   -1.7960529e-05
   3051313   4133   0   2    7.4313987e-07
   3051313   4233   0   2    2.3783304e-06
   3051313   4137   0   2    4.5616885e-06
   3051313   4237   0   2   -1.7960531e-05
   3051212   4137   0   2   -7.4536038e-07
   3051212   4237   0   2    3.8938605e-06
   3051414   4137   0   2   -7.4535965e-07
   3051414   4237   0   2    3.8938605e-06
   3051616   4137   0   2   -7.4281724e-07
   3051616   4237   0   2    3.8938609e-06

DECAY 23  2.4952


DECAY 24  2.085


DECAY 1000011  37.263139
    0.32236349   2   -1000024    12
    0.28749236   2   -1000037    12
    0.17476858   2    1000022    11
    0.13010774   2    1000025    11
    0.069924859   2    1000035    11
    0.015342972   2    1000023    11

DECAY 2000011  20.76283
    0.88184608   2    1000035    11
    0.11773204   2    1000023    11
    0.00023771682   2    1000025    11
    0.00018414602   2    1000022    11

DECAY 1000013  37.271159
    0.32229362   2   -1000024    14
    0.28743002   2   -1000037    14
    0.17478525   2    1000022    13
    0.13013385   2    1000025    13
    0.069920533   2    1000035    13
    0.015436733   2    1000023    13

DECAY 2000013  20.789092
    0.88076232   2    1000035    13
    0.11786513   2    1000023    13
    0.00039732353   2    1000025    13
    0.00034051889   2    1000022    13
    0.00032504768   2   -1000037    14
    0.00030540132   2   -1000024    14

DECAY 1000015  0.18745811
    0.37640844   2    1000023    15
    0.28913652   2   -1000024    16
    0.15012878   2    1000022    15
    0.10317344   2    1000035    15
    0.053775006   2   -1000037    16
    0.027377822   2    1000025    15

DECAY 2000015  37.148373
    0.30317809   2   -1000024    16
    0.27020912   2   -1000037    16
    0.17893036   2    1000022    15
    0.13672367   2    1000025    15
    0.068437857   2    1000035    15
    0.040191146   2    1000023    15
    0.0011915619   2    1000015    23
    0.0011381864   2    1000015    25

DECAY 1000012  37.291981
    0.37661005   2    1000024    11
    0.23436475   2    1000037    11
    0.16791307   2    1000022    12
    0.13647938   2    1000025    12
    0.078647338   2    1000035    12
    0.0059854186   2    1000023    12

DECAY 1000014  37.299996
    0.37663476   2    1000024    13
    0.23442425   2    1000037    13
    0.16787673   2    1000022    14
    0.13644983   2    1000025    14
    0.078630306   2    1000035    14
    0.005984123   2    1000023    14

DECAY 1000016  37.174599
    0.38308701   2    1000024    15
    0.24907264   2    1000037    15
    0.15818153   2    1000022    16
    0.12801824   2    1000025    16
    0.073634481   2    1000035    16
    0.0056281174   2    1000023    16
    0.0023779791   2    1000015    24

DECAY 2000001  0.1803519
    0.83585951   2    1000035    1
    0.16356762   2    1000023    1
    0.00029786855   2    1000022    1
    0.00026908798   2    1000025    1

DECAY 1000001  296.35868
    0.80016984   2    1000021    1
    0.068924372   2   -1000024    2
    0.062896605   2   -1000037    2
    0.036413392   2    1000022    1
    0.029410134   2    1000025    1
    0.0021626269   2    1000035    1

DECAY 2000003  0.18111888
    0.83238242   2    1000035    3
    0.16385595   2    1000023    3
    0.0012187239   2   -1000024    4
    0.00092123047   2    1000022    3
    0.00090696716   2   -1000037    4
    0.00071470343   2    1000025    3

DECAY 1000003  296.36405
    0.800155   2    1000021    3
    0.068925169   2   -1000024    4
    0.062898795   2   -1000037    4
    0.036415951   2    1000022    3
    0.029412876   2    1000025    3
    0.0021632459   2    1000035    3

DECAY 1000005  63.042963
    0.45703567   2   -1000037    6
    0.33482526   2   -1000024    6
    0.08539509   2    1000022    5
    0.068215858   2    1000025    5
    0.029214591   2    1000023    5
    0.018464206   2    1000021    5
    0.0068493328   2    1000035    5

DECAY 2000005  190.51522
    0.89553591   2    1000021    5
    0.024064355   2   -1000037    6
    0.022414966   2   -1000024    6
    0.022140388   2    1000023    5
    0.011941864   2    1000035    5
    0.011886666   2    1000025    5
    0.011540504   2    1000022    5
    0.00019894362   2    1000006   -24
    0.00017684564   2    1000005    25

DECAY 2000002  121.34338
    0.94252896   2    1000021    2
    0.050621357   2    1000035    2
    0.0068252598   2    1000023    2

DECAY 1000002  296.34349
    0.80001136   2    1000021    2
    0.080627722   2    1000024    1
    0.051342213   2    1000037    1
    0.036882158   2    1000022    2
    0.028928844   2    1000025    2
    0.001511948   2    1000035    2
    0.00069575089   2    1000023    2

DECAY 2000004  121.34555
    0.94251106   2    1000021    4
    0.050620964   2    1000035    4
    0.0068293348   2    1000023    4

DECAY 1000004  296.34877
    0.79999659   2    1000021    4
    0.080632566   2    1000024    3
    0.051347961   2    1000037    3
    0.03688255   2    1000022    4
    0.028929966   2    1000025    4
    0.001512272   2    1000035    4
    0.0006980916   2    1000023    4

DECAY 1000006  64.809295
    0.23708928   2    1000023    6
    0.2222005   2    1000025    6
    0.16609932   2    1000024    5
    0.16366818   2    1000022    6
    0.13310503   2    1000037    5
    0.034217545   2    1000035    6
    0.026856561   2    1000022    4
    0.0090840434   3    1000022    24    5
    0.0071850846   2    1000021    4
    0.0004944568   2    1000023    4

DECAY 2000006  374.72776
    0.44471822   2    1000021    6
    0.11740787   2    1000037    5
    0.090514776   2    1000023    6
    0.085282962   2    1000024    5
    0.057284933   2    1000025    6
    0.053784283   2    1000005    24
    0.048430437   2    1000006    25
    0.043390273   2    1000022    6
    0.032364548   2    1000035    6
    0.026821694   2    1000006    23

DECAY 1000024  2.1726204e-12
    0.7193522   2    1000022    211
    0.14446921   3    1000022   -11    12
    0.1361786   3    1000022   -13    14

DECAY 1000037  0.30562292
    0.66305594   2    1000022    24
    0.32716529   2    1000024    23
    0.0032609572   3    1000023   -1    2
    0.003255922   3    1000023   -3    4
    0.0010872196   3    1000023   -11    12
    0.001087211   3    1000023   -13    14
    0.0010871601   3    1000023   -15    16

DECAY 1000022 -1


DECAY 1000023  0.0016054742
    0.1160195   3    1000024    1   -2
    0.1160195   3   -1000024   -1    2
    0.11569565   3    1000024    3   -4
    0.11569565   3   -1000024   -3    4
    0.059292488   3    1000022    12   -12
    0.04434889   3    1000022    1   -1
    0.044347285   3    1000022    3   -3
    0.041236156   3    1000022    5   -5
    0.038660601   3    1000024    11   -12
    0.038660601   3   -1000024   -11    12
    0.038660075   3    1000024    13   -14
    0.038660075   3   -1000024   -13    14
    0.038538299   3    1000024    15   -16
    0.038538299   3   -1000024   -15    16
    0.034590467   3    1000022    2   -2
    0.034317308   3    1000022    4   -4
    0.016822893   2    1000022    22
    0.010004045   3    1000022    11   -11
    0.010003446   3    1000022    13   -13
    0.0098887719   3    1000022    15   -15

DECAY 1000025  0.40460384
    0.49773206   2    1000024   -24
    0.49773206   2   -1000024    24
    0.0008535802   3    1000023    12   -12
    0.00063816982   3    1000023    1   -1
    0.00063815531   3    1000023    3   -3
    0.00060893625   3    1000023    5   -5
    0.00049769346   3    1000023    2   -2
    0.00049513715   3    1000023    4   -4
    0.00029385617   2    1000022    23
    0.00014406068   3    1000023    11   -11
    0.00014405506   3    1000023    13   -13
    0.00014344861   3    1000023    15   -15

DECAY 1000035  1.5134346
    0.30535886   2    1000022    23
    0.28667142   2    1000024   -24
    0.28667142   2   -1000024    24
    0.12069584   2    1000022    25
    0.00040921851   2    1000023    23
    0.00012538828   2    1000022    22

DECAY 1000021  60.286345
    0.2490596   2    2000003   -3
    0.2490596   2   -2000003    3
    0.24905916   2    2000001   -1
    0.24905916   2   -2000001    1
    0.00063794318   3    1000037    5   -6
    0.00063794318   3   -1000037   -5    6
    0.00044288429   3    1000024    5   -6
    0.00044288429   3   -1000024   -5    6
    0.00042952229   3    1000025    6   -6
    0.00040097386   3    1000023    6   -6
    0.00022273067   3    1000022    6   -6
    0.00019745953   3    1000022    5   -5
    0.00014367561   3    1000025    5   -5

DECAY 25  0.0036136616
    0.60504806   2   -5    5
    0.19464926   2   -24    24
    0.074231546   2    21    21
    0.069407516   2   -15    15
    0.029975563   2   -4    4
    0.022565214   2    23    23
    0.0023365189   2    22    22
    0.0013174983   2    22    23
    0.00024071514   2   -13    13
    0.00022731414   2   -3    3
    6.2850068e-07   2   -1    1
    1.5447807e-07   2   -2    2
    5.411572e-09   2   -11    11

DECAY 35  81.676673
    0.27708524   2   -5    5
    0.11262475   2   -1000024    1000024
    0.10671937   2   -1000024    1000037
    0.10671937   2   -1000037    1000024
    0.07485591   2   -1000037    1000037
    0.069322397   2    1000022    1000023
    0.053064383   2    1000022    1000022
    0.049191477   2   -15    15
    0.044357961   2    1000025    1000025
    0.035691752   2    1000025    1000035
    0.020658916   2    1000023    1000025
    0.018867597   2    1000023    1000035
    0.0079518484   2    1000022    1000025
    0.0053192486   2   -2000015    1000015
    0.0053192486   2   -1000015    2000015
    0.0047714518   2   -6    6
    0.0033647445   2    1000035    1000035
    0.0020684104   2    1000023    1000023
    0.0017134557   2    1000022    1000035
    0.00016914718   2   -13    13
    0.00010643513   2   -3    3
    5.3207974e-05   2   -1000006    1000006
    1.6478064e-06   2    25    25
    7.2373423e-07   2    21    21
    3.5516932e-07   2    23    23
    2.942493e-07   2   -1    1
    2.101241e-07   2   -1000005    1000005
    1.4627448e-07   2   -1000015    1000015
    8.1057778e-08   2    22    23
    6.7491614e-08   2   -24    24
    6.2565876e-08   2   -4    4
    3.1308826e-08   2   -1000001    1000001
    3.1263187e-08   2   -1000003    1000003
    1.9303904e-08   2    22    22
    3.7985062e-09   2   -11    11
    3.2246932e-13   2   -2    2

DECAY 36  80.285387
    0.26752018   2   -5    5
    0.11716716   2   -1000024    1000037
    0.11716716   2   -1000037    1000024
    0.10596533   2   -1000024    1000024
    0.075805031   2    1000022    1000023
    0.0676786   2   -1000037    1000037
    0.049414323   2    1000022    1000022
    0.047494552   2   -15    15
    0.041237923   2    1000025    1000025
    0.029698561   2    1000025    1000035
    0.025733269   2    1000023    1000035
    0.024577663   2    1000023    1000025
    0.0069224471   2    1000022    1000025
    0.0054127052   2   -2000015    1000015
    0.0054127052   2   -1000015    2000015
    0.0048288487   2    1000035    1000035
    0.0043242503   2   -6    6
    0.0027785311   2    1000023    1000023
    0.00058737071   2    1000022    1000035
    0.00016331135   2   -13    13
    0.00010276042   2   -3    3
    6.0650211e-06   2    21    21
    8.4819506e-07   2    23    25
    2.840928e-07   2   -1    1
    5.634241e-08   2   -4    4
    4.4620885e-08   2    22    23
    3.6673872e-09   2   -11    11
    2.3257197e-09   2    22    22
    2.9039703e-13   2   -2    2
    8.1952209e-40   2    25    25

DECAY 37  82.076321
    0.28456399   2   -5    6
    0.21012255   2    1000022    1000037
    0.18870392   2    1000024    1000025
    0.15648616   2    1000023    1000024
    0.061609857   2    1000035    1000037
    0.049563557   2   -15    16
    0.03579642   2    1000023    1000037
    0.010596977   2   -1000015    1000016
    0.0016502649   2    1000024    1000035
    0.00041585379   2   -5    4
    0.0001752248   2   -13    14
    0.00016809671   2    1000025    1000037
    9.6871116e-05   2   -3    4
    2.1993364e-05   2    1000022    1000024
    1.2946433e-05   2   -1000005    1000006
    6.3877073e-06   2   -3    6
    4.553747e-06   2   -3    2
    2.9696241e-06   2   -5    2
    8.2999096e-07   2    24    25
    2.8634373e-07   2   -1    6
    2.6862715e-07   2   -1    2
    1.5205891e-08   2   -1    4
    4.0985264e-09   2   -11    12
    6.3201787e-12   2   -1000003    1000006
    1.1771184e-13   2   -1000003    1000004
    2.0685601e-14   2    24    35
    8.0292422e-16   2   -1000001    1000006
    1.7443638e-17   2   -1000001    1000004
    3.3071885e-20   2   -1000003    1000002
    1.7130895e-21   2   -1000001    1000002

DECAY 6  2.43
    1   2    5    24

DECAY 15 -1
