BLOCK SPINFO
   1   SPheno
   2   v4.0.5be

BLOCK SPHENOINFO
   1   2
   2   2

BLOCK MODSEL
   1   0

BLOCK MINPAR
   3    19.821654
   4   -1

BLOCK EXTPAR
   0    2878.0622
   1    2053.1038
   2   -1725.8304
   3    3761.1032
   11    2946.5562
   12   -1391.5492
   13    7854.1921
   23   -536.89787
   25    18.978064
   26    542.47624
   31    1506.1561
   32    1506.1561
   33    3364.1619
   34    4215.3954
   35    4215.3954
   36    806.09909
   41    1772.7824
   42    1772.7824
   43    3110.0848
   44    3554.3569
   45    3554.3569
   46    2525.7717
   47    2565.3782
   48    2565.3782
   49    2365.6525

BLOCK SMINPUTS
   1    127.90897
   2    1.1663787e-05
   3    0.1184
   4    91.1876
   5    4.18
   6    173.2
   7    1.777
   8    0
   11    0.00051099893
   12    0
   13    0.10565837
   14    0
   21    0.005
   22    0.0025
   23    0.095
   24    1.27

BLOCK GAUGE Q=  2878.0622
   1    0.35536298
   2    0.66519887
   3    1.219778

BLOCK YU Q=  2878.0622
   1   1    8.3960036e-06
   2   2    0.0042651698
   3   3    1.0143047

BLOCK YD Q=  2878.0622
   1   1    0.00032018779
   2   2    0.006083568
   3   3    0.31752595

BLOCK YE Q=  2878.0622
   1   1    5.587511e-05
   2   2    0.011553201
   3   3    0.19430583

BLOCK AU Q=  2878.0622
   1   1    0
   2   2    0
   3   3    2946.5562

BLOCK AD Q=  2878.0622
   1   1    0
   2   2    0
   3   3   -1391.5492

BLOCK AE Q=  2878.0622
   1   1    0
   2   2    0
   3   3    7854.1921

BLOCK MSOFT Q=  2878.0622
   1    2053.1038
   2   -1725.8304
   3    3761.1032
   21   -14601.094
   22   -146832.12
   31    1506.1561
   32    1506.1561
   33    3364.1619
   34    4215.3954
   35    4215.3954
   36    806.09909
   41    1772.7824
   42    1772.7824
   43    3110.0848
   44    3554.3569
   45    3554.3569
   46    2525.7717
   47    2565.3782
   48    2565.3782
   49    2365.6525

BLOCK MASS
   6    173.2
   23    91.1876
   24    80.429995
   15    1.777
   25    121.19813
   35    542.57811
   36    542.47624
   37    548.59226
   1000001    1921.6637
   2000001    2684.2094
   1000002    1919.9767
   2000002    3660.6582
   1000003    1921.6625
   2000003    2684.208
   1000004    1919.9756
   2000004    3660.6577
   1000005    2482.0194
   2000005    3199.6563
   1000006    2581.1078
   2000006    3209.181
   1000011    1530.3994
   2000011    4220.8903
   1000012    1527.9413
   1000013    1530.3963
   2000013    4220.8847
   1000014    1527.9376
   1000015    814.52653
   2000015    3369.5369
   1000016    3368.1955
   1000021    3784.2031
   1000022   -541.94145
   1000023    545.04245
   1000025   -1744.4409
   1000035    2033.4713
   1000024    542.70245
   1000037    1744.6697

BLOCK ALPHA
      -0.054527782

BLOCK HMIX Q=  2878.0622
   1   -536.89787
   2    18.978064
   3    243.30633
   4    294280.48

BLOCK STOPMIX
   1   1   -0.11601828
   1   2    0.99324708
   2   1   -0.99324708
   2   2   -0.11601828

BLOCK SBOTMIX
   1   1   -0.0052698985
   1   2    0.99998611
   2   1   -0.99998611
   2   2   -0.0052698985

BLOCK STAUMIX
   1   1   -0.0030249264
   1   2    0.99999543
   2   1   -0.99999543
   2   2   -0.0030249264

BLOCK NMIX
   1   1    0.012691425
   1   2    0.048472158
   1   3    0.70765767
   1   4   -0.70477656
   2   1    0.019806593
   2   2    0.023092616
   2   3   -0.70630807
   2   4   -0.70725055
   3   1    0.00060524522
   3   2   -0.99855744
   3   3    0.01801484
   3   4   -0.050578035
   4   1   -0.99972309
   4   2    0.00046832438
   4   3   -0.0049988525
   4   4   -0.022989821

BLOCK UMIX
   1   1   -0.025490956
   1   2   -0.99967505
   2   1   -0.99967505
   2   2    0.025490956

BLOCK VMIX
   1   1    0.071592266
   1   2    0.99743398
   2   1    0.99743398
   2   2   -0.071592266

BLOCK HIGGSBOUNDSINPUTHIGGSCOUPLINGSFERMIONS
       0, 360.1669,3,36,15,15

BLOCK HIGGSBOUNDSINPUTHIGGSCOUPLINGSBOSONS
       0,4,36,21,21,23

BLOCK SPHENOLOWENERGY
   1    0.00039729029
   2    1.5882858e-06
   3    3.5256602e-05
   4    2.5776368e-15
   5    1.1011367e-10
   6    2.3047639e-08
   7    8.7135471e-14
   8    3.7224229e-09
   9    7.8943754e-07
   10    8.9501399e-05
   11    0.92451518
   12    0.54239564
   13    19.35173
   14    0
   15    0
   16    0.0021593408
   17    2.2816881e-15
   18    2.4800551e-11
   19    8.2908355e-11
   20    1.7945684e-15
   21    7.6723501e-11
   22    1.5592056e-08
   23    0
   24    0
   25    0
   26    0
   27    0
   28    0
   29    0
   30    0
   31    0
   39    5.8028313e-05
   40    0
   41    0
   42    0

BLOCK FWCOEF Q=  160
   305   4422   0   0   -0.18881911
   305   4422   0   2   -0.26391227
   305   4322   0   2   -0.001447803
   305   6421   0   0   -0.095227835
   305   6421   0   2   -0.17872582
   305   6321   0   2   -0.0016226244
   3051111   4133   0   0    1.6148531
   3051111   4133   0   2    1.6155107
   3051111   4233   0   2   -6.6955739e-05
   3051111   4137   0   0   -4.4375452
   3051111   4137   0   2   -4.4362392
   3051111   4237   0   2    0.00050478783
   3051313   4133   0   0    1.6148531
   3051313   4133   0   2    1.6155103
   3051313   4233   0   2   -6.6961785e-05
   3051313   4137   0   0   -4.4375452
   3051313   4137   0   2   -4.4362396
   3051313   4237   0   2    0.0005047938
   3051212   4137   0   0    1.5053501
   3051212   4137   0   2    1.5050695
   3051212   4237   0   2   -0.00010944522
   3051414   4137   0   0    1.5053501
   3051414   4137   0   2    1.5050695
   3051414   4237   0   2   -0.00010944391
   3051616   4137   0   0    1.5053501
   3051616   4137   0   2    1.5050696
   3051616   4237   0   2   -0.00010907501

BLOCK IMFWCOEF Q=  160
   305   4422   0   0    3.8583268e-07
   305   4422   0   2    4.3640683e-06
   305   4322   0   2    1.5762839e-06
   305   6421   0   0    3.3049121e-07
   305   6421   0   2    3.8716102e-06
   305   6321   0   2    7.3320518e-07
   3051111   4133   0   2    5.2210314e-07
   3051111   4233   0   2    7.8826491e-07
   3051111   4137   0   2   -3.4479237e-06
   3051111   4237   0   2   -5.9311465e-06
   3051313   4133   0   2    5.2209889e-07
   3051313   4233   0   2    7.8826471e-07
   3051313   4137   0   2   -3.4479248e-06
   3051313   4237   0   2   -5.9311477e-06
   3051212   4137   0   2    7.9334833e-07
   3051212   4237   0   2    1.285959e-06
   3051414   4137   0   2    7.9334824e-07
   3051414   4237   0   2    1.285959e-06
   3051616   4137   0   2    7.9441863e-07
   3051616   4237   0   2    1.2859588e-06

DECAY 23  2.4952


DECAY 24  2.085


DECAY 1000011  0.028244452
    0.55692186   2    1000022    11
    0.23689183   2   -1000024    12
    0.20618631   2    1000023    11

DECAY 2000011  12.51054
    0.99909235   2    1000035    11
    0.00064306488   2    1000023    11
    0.0002641385   2    1000022    11

DECAY 1000013  0.031346907
    0.55147757   2    1000022    13
    0.23507686   2    1000023    13
    0.21344557   2   -1000024    14

DECAY 2000013  12.53226
    0.99735793   2    1000035    13
    0.0010733592   2    1000023    13
    0.00086446571   2   -1000024    14
    0.00069689429   2    1000022    13

DECAY 1000015  0.37818948
    0.50017401   2   -1000024    16
    0.25225782   2    1000022    15
    0.24756816   2    1000023    15

DECAY 2000015  40.595596
    0.39117326   2   -1000037    16
    0.19506915   2    1000025    15
    0.15298196   2    1000015    36
    0.1529043   2    1000015    35
    0.04205483   2    1000035    15
    0.030660819   2    1000022    15
    0.02989468   2    1000023    15
    0.00244234   2    1000015    23
    0.0023988749   2    1000015    25
    0.00041979011   2   -1000024    16

DECAY 1000012  0.062379034
    0.84392647   2    1000024    11
    0.14321812   2    1000022    12
    0.012855407   2    1000023    12

DECAY 1000014  0.065473484
    0.85130348   2    1000024    13
    0.13644874   2    1000022    14
    0.01224778   2    1000023    14

DECAY 1000016  40.608588
    0.38892635   2    1000037    15
    0.30574178   2    1000015    37
    0.1950524   2    1000025    16
    0.062613417   2    1000024    15
    0.042130263   2    1000035    16
    0.0048794432   2    1000015    24
    0.00060215462   2    1000022    16

DECAY 1000001  0.81052077
    0.64407345   2   -1000037    2
    0.32217769   2    1000025    1
    0.018883929   2    1000022    1
    0.011484864   2   -1000024    2
    0.0033800594   2    1000023    1

DECAY 2000001  0.27269329
    0.99716596   2    1000035    1
    0.0019909882   2    1000023    1
    0.0008237187   2    1000022    1

DECAY 1000003  0.81227447
    0.6426574   2   -1000037    4
    0.32147779   2    1000025    3
    0.019580703   2    1000022    3
    0.012178812   2   -1000024    4
    0.004105296   2    1000023    3

DECAY 2000003  0.27633586
    0.98401814   2    1000035    3
    0.0065749407   2   -1000024    4
    0.0052356214   2    1000023    3
    0.0040991321   2    1000022    3

DECAY 1000005  9.1244175
    0.48893765   2   -1000024    6
    0.24804902   2    1000022    5
    0.2465686   2    1000023    5
    0.016402794   2    1000035    5

DECAY 2000005  101.36089
    0.60234536   2   -1000024    6
    0.13961981   2   -1000037    6
    0.12287677   2    1000006   -24
    0.068450069   2    1000025    5
    0.030169642   2    1000022    5
    0.029837691   2    1000023    5
    0.0016147345   2    1000005    35
    0.0016134796   2    1000005    36
    0.0015743189   2    1000035    5
    0.0014535387   2    1000006   -37
    0.00025642912   2    1000005    25
    0.00018815723   2    1000005    23

DECAY 1000002  0.86405211
    0.59106646   2    1000037    1
    0.29687187   2    1000025    2
    0.084881986   2    1000024    1
    0.021321122   2    1000022    2
    0.0058585659   2    1000023    2

DECAY 2000002  3.9103387
    0.99889322   2    1000035    2
    0.00078418077   2    1000023    2
    0.00032213623   2    1000022    2

DECAY 1000004  0.86581327
    0.58985749   2    1000037    3
    0.29625224   2    1000025    4
    0.086085232   2    1000024    3
    0.021617768   2    1000022    4
    0.0061872629   2    1000023    4

DECAY 2000004  3.9129049
    0.99823756   2    1000035    4
    0.00094551614   2    1000023    4
    0.0004827565   2    1000022    4
    0.0003222018   2    1000024    3

DECAY 1000006  96.88053
    0.4949483   2    1000024    5
    0.2485772   2    1000023    6
    0.24822059   2    1000022    6
    0.0082304585   2    1000035    6

DECAY 2000006  104.63083
    0.29276897   2    1000023    6
    0.29003737   2    1000022    6
    0.13491502   2    1000037    5
    0.088404163   2    1000006    25
    0.066371245   2    1000025    6
    0.060835012   2    1000006    23
    0.060073072   2    1000024    5
    0.003019149   2    1000005    37
    0.001697031   2    1000035    6
    0.00078433358   2    1000006    36
    0.00071966682   2    1000006    35
    0.00037497224   2    1000005    24

DECAY 1000024  5.6309306e-13
    0.61109733   3    1000022   -1    2
    0.20375622   3    1000022   -11    12
    0.18514645   3    1000022   -13    14

DECAY 1000037  29.041638
    0.13646924   2    1000024    25
    0.13209175   2    1000022    24
    0.13178919   2    1000023    24
    0.13124016   2    1000024    23
    0.11007221   2    37    1000022
    0.096400014   2    1000024    36
    0.095762535   2    1000024    35
    0.095657607   2    37    1000023
    0.014283835   2    1000014   -13
    0.014283391   2    1000012   -11
    0.014045487   2   -1000013    14
    0.014045101   2   -1000011    12
    0.0055576333   3    1000024    6   -6
    0.0044043781   3    1000023   -5    6
    0.0038870301   3    1000022   -5    6

DECAY 1000022 -1


DECAY 1000023  7.1678207e-09
    0.89100509   2    1000022    22
    0.026907567   3    1000022    12   -12
    0.020120263   3    1000022    1   -1
    0.019898698   3    1000022    3   -3
    0.015692624   3    1000022    2   -2
    0.0045406702   3    1000022    11   -11
    0.0044621131   3    1000022    13   -13
    0.0044178088   3    1000024    1   -2
    0.0044178088   3   -1000024   -1    2
    0.0014726418   3    1000024    11   -12
    0.0014726418   3   -1000024   -11    12
    0.0014575705   3    1000024    13   -14
    0.0014575705   3   -1000024   -13    14
    0.00096894176   3    1000024    3   -4
    0.00096894176   3   -1000024   -3    4
    0.00064824131   3    1000022    4   -4

DECAY 1000025  31.777547
    0.12135746   2    1000024   -24
    0.12135746   2   -1000024    24
    0.10153827   2    1000022    25
    0.099941967   2    37   -1000024
    0.099941967   2   -37    1000024
    0.098824051   2    1000023    23
    0.08481057   2    1000023    35
    0.082595336   2    1000023    25
    0.068207382   2    1000022    35
    0.022111408   2    1000022    23
    0.019722521   2    1000022    36
    0.01583306   2    1000023    36
    0.0065338234   2    1000014   -14
    0.0065338234   2   -1000014    14
    0.0065336177   2    1000012   -12
    0.0065336177   2   -1000012    12
    0.0063875908   2    1000013   -13
    0.0063875908   2   -1000013    13
    0.0063874115   2    1000011   -11
    0.0063874115   2   -1000011    11
    0.003906396   3    1000024    5   -6
    0.003906396   3   -1000024   -5    6
    0.0022255932   3    1000022    6   -6
    0.002007623   3    1000023    6   -6

DECAY 1000035  19.426355
    0.18525844   2    1000015   -15
    0.18525844   2   -1000015    15
    0.065138205   2    1000024   -24
    0.065138205   2   -1000024    24
    0.058296696   2    37   -1000024
    0.058296696   2   -37    1000024
    0.053943926   2    1000022    25
    0.047302675   2    1000023    35
    0.046171454   2    1000022    23
    0.043574798   2    1000023    25
    0.03805199   2    1000022    35
    0.019148134   2    1000023    23
    0.014368459   2    1000022    36
    0.012478824   2    1000014   -14
    0.012478824   2   -1000014    14
    0.012478669   2    1000012   -12
    0.012478669   2   -1000012    12
    0.012331475   2    1000013   -13
    0.012331475   2   -1000013    13
    0.012331343   2    1000011   -11
    0.012331343   2   -1000011    11
    0.011538373   2    1000023    36
    0.0021534188   3    1000024    5   -6
    0.0021534188   3   -1000024   -5    6
    0.0015315356   3    1000022    6   -6
    0.0013765751   3    1000023    6   -6
    0.0002565436   2    1000002   -2
    0.0002565436   2   -1000002    2
    0.00025654052   2    1000004   -4
    0.00025654052   2   -1000004    4
    0.00025182766   2    1000003   -3
    0.00025182766   2   -1000003    3
    0.0002518223   2    1000001   -1
    0.0002518223   2   -1000001    1

DECAY 1000021  389.55054
    0.079279081   2    1000004   -4
    0.079279081   2   -1000004    4
    0.079279027   2    1000002   -2
    0.079279027   2   -1000002    2
    0.079182493   2    1000003   -3
    0.079182493   2   -1000003    3
    0.079182424   2    1000001   -1
    0.079182424   2   -1000001    1
    0.046681742   2    1000005   -5
    0.046681742   2   -1000005    5
    0.042436795   2    1000006   -6
    0.042436795   2   -1000006    6
    0.035493703   2    2000003   -3
    0.035493703   2   -2000003    3
    0.035493627   2    2000001   -1
    0.035493627   2   -2000001    1
    0.011683134   2    2000005   -5
    0.011683134   2   -2000005    5
    0.010076367   2    2000006   -6
    0.010076367   2   -2000006    6
    0.0005931135   2    2000002   -2
    0.0005931135   2   -2000002    2
    0.00059308791   2    2000004   -4
    0.00059308791   2   -2000004    4

DECAY 25  0.0038817102
    0.66088949   2   -5    5
    0.15064605   2   -24    24
    0.074616477   2   -15    15
    0.065755122   2    21    21
    0.027584213   2   -4    4
    0.016890741   2    23    23
    0.0020636441   2    22    22
    0.0010464593   2    22    23
    0.00025957848   2   -13    13
    0.00024739128   2   -3    3
    6.8400254e-07   2   -1    1
    1.4215907e-07   2   -2    2
    5.835667e-09   2   -11    11

DECAY 35  4.058215
    0.87407019   2   -5    5
    0.11364194   2   -15    15
    0.010187644   2   -6    6
    0.00090215985   2    25    25
    0.00040831538   2   -13    13
    0.0003316738   2   -3    3
    0.0002054353   2   -24    24
    0.00015241009   2    21    21
    9.8784617e-05   2    23    23
    9.1692178e-07   2   -1    1
    2.692552e-07   2   -4    4
    1.7476546e-07   2    22    22
    7.8819867e-08   2    22    23
    9.1753308e-09   2   -11    11
    1.3887813e-12   2   -2    2

DECAY 36  4.0236077
    0.87086754   2   -5    5
    0.11321737   2   -15    15
    0.014777828   2   -6    6
    0.00040677165   2   -13    13
    0.00033042275   2   -3    3
    0.00022717156   2    21    21
    0.00017145509   2    23    25
    9.1346299e-07   2   -1    1
    2.355137e-07   2    22    22
    2.2948635e-07   2   -4    4
    5.8109703e-08   2    22    23
    9.1406404e-09   2   -11    11
    1.1835354e-12   2   -2    2
    6.3512736e-37   2    25    25

DECAY 37  3.1975743
    0.86256637   2   -5    6
    0.13480165   2   -15    16
    0.0015037084   2   -5    4
    0.00047658159   2   -13    14
    0.00036750453   2   -3    4
    0.00022952564   2    24    25
    2.4893433e-05   2   -3    6
    1.6814574e-05   2   -3    2
    1.0738139e-05   2   -5    2
    1.1218696e-06   2   -1    6
    1.0189527e-06   2   -1    2
    5.9083937e-08   2   -1    4
    1.1147294e-08   2   -11    12
    3.5962938e-09   2    24    36
    3.3071233e-09   2    24    35

DECAY 6  2.43
    1   2    5    24

DECAY 15 -1
