BLOCK DCINFO
   1   SDECAY/HDECAY
   2   1.3b /3.4

BLOCK SPINFO
   1   SOFTSUSY
   2   3.4.0

BLOCK MODSEL
   1   0

BLOCK SMINPUTS
   1    127.90897
   2    1.1663787e-05
   3    0.1184
   4    91.1876
   5    4.18
   6    173.2
   7    1.777

BLOCK MINPAR
   3    42.08

BLOCK EXTPAR
   0   -1
   1    2685.97
   2    692.71
   3    2831.43
   11   -3699.35
   12   -3297.08
   13    220.69
   23    776.96
   26    1990.62
   31    1529.69
   32    1529.69
   33    747.87
   34    2870.34
   35    2870.34
   36    2630.68
   41    2217.05
   42    2217.05
   43    3880.88
   44    3057.14
   45    3057.14
   46    2573.35
   47    1386.34
   48    1386.34
   49    2235.62

BLOCK MASS
   24    80.37154
   25    126.33639
   35    1990.6248
   36    1990.62
   37    1992.385
   5    4.8187603
   1000001    2348.1065
   2000001    1547.4862
   1000002    2346.884
   2000002    3157.8394
   1000003    2348.1065
   2000003    1547.4862
   1000004    2346.884
   2000004    3157.8394
   1000005    2339.0021
   2000005    3912.9277
   1000006    2634.6487
   2000006    3919.2773
   1000011    1538.7695
   2000011    2881.3509
   1000012    1536.4102
   1000013    1538.7695
   2000013    2881.3509
   1000014    1536.4102
   1000015    750.95729
   2000015    2629.7975
   1000016    746.87274
   1000021    2955.7597
   1000022    694.52519
   1000023   -806.82954
   1000025    832.6508
   1000035    2646.8342
   1000024    695.19907
   1000037    835.10564

BLOCK NMIX
   1   1   -0.0069895141
   1   2    0.89117825
   1   3   -0.34273943
   1   4    0.29712312
   2   1   -0.0088931513
   2   2    0.035381773
   2   3    0.70563439
   2   4    0.70763631
   3   1    0.016149643
   3   2    0.45227079
   3   3    0.6201388
   3   4   -0.64079496
   4   1    0.99980561
   4   2   -0.0007606012
   4   3   -0.0061364816
   4   4    0.018722112

BLOCK UMIX
   1   1    0.878818
   1   2   -0.47715713
   2   1    0.47715713
   2   2    0.878818

BLOCK VMIX
   1   1    0.91033021
   1   2   -0.41388273
   2   1    0.41388273
   2   2    0.91033021

BLOCK STOPMIX
   1   1    0.063644508
   1   2    0.99797263
   2   1   -0.99797263
   2   2    0.063644508

BLOCK SBOTMIX
   1   1    0.0079148139
   1   2    0.99996868
   2   1   -0.99996868
   2   2    0.0079148139

BLOCK STAUMIX
   1   1    0.99995201
   1   2    0.0097967187
   2   1   -0.0097967187
   2   2    0.99995201

BLOCK ALPHA
      -0.024439947

BLOCK HMIX Q=  3161.115
   1    794.38248
   2    41.134604
   3    241.93302
   4    4748981.2

BLOCK GAUGE Q=  3161.115
   1    0.36521767
   2    0.63986418
   3    1.0110312

BLOCK AU Q=  3161.115
   1   1    0
   2   2    0
   3   3   -3699.35

BLOCK AD Q=  3161.115
   1   1    0
   2   2    0
   3   3   -3297.08

BLOCK AE Q=  3161.115
   1   1    0
   2   2    0
   3   3    220.69

BLOCK YU Q=  3161.115
   1   1    0
   2   2    0
   3   3    0.81465241

BLOCK YD Q=  3161.115
   1   1    0
   2   2    0
   3   3    0.52849265

BLOCK YE Q=  3161.115
   1   1    0
   2   2    0
   3   3    0.45223577

BLOCK MSOFT Q=  3161.115
   1    2685.97
   2    692.71
   3    2831.43
   21    3490056.6
   22   -442800.14
   31    1529.69
   32    1529.69
   33    747.87
   34    2870.34
   35    2870.34
   36    2630.68
   41    2217.05
   42    2217.05
   43    3880.88
   44    3057.14
   45    3057.14
   46    2573.35
   47    1386.34
   48    1386.34
   49    2235.62

BLOCK HIGGSBOUNDSINPUTHIGGSCOUPLINGSFERMIONS
       0, 1692.0556,3,36,15,15

BLOCK HIGGSBOUNDSINPUTHIGGSCOUPLINGSBOSONS
       0,4,36,21,21,23

DECAY 6  1.4427607
    1   2    5    24

DECAY 1000021  101.69719
    0.14859622   2    2000001   -1
    0.14859622   2   -2000001    1
    0.14859622   2    2000003   -3
    0.14859622   2   -2000003    3
    0.039382802   2    1000005   -5
    0.039382802   2   -1000005    5
    0.03851453   2    1000002   -2
    0.03851453   2   -1000002    2
    0.038514421   2    1000004   -4
    0.038514421   2   -1000004    4
    0.038377722   2    1000001   -1
    0.038377722   2   -1000001    1
    0.038377722   2    1000003   -3
    0.038377722   2   -1000003    3
    0.0096403562   2    1000006   -6
    0.0096403562   2   -1000006    6

DECAY 1000006  56.889395
    0.39056944   2    1000037    5
    0.25135184   2    1000023    6
    0.19024269   2    1000025    6
    0.1114844   2    1000024    5
    0.056351194   2    1000022    6
    4.3554642e-07   2    1000005    24

DECAY 2000006  175.85855
    0.21568639   2    1000021    6
    0.15664839   2    1000024    5
    0.1340317   2    1000025    6
    0.13390723   2    1000023    6
    0.12606676   2    1000037    5
    0.08473404   2    1000022    6
    0.073256253   2    1000006    23
    0.071075265   2    1000006    25
    0.0035791235   2    1000005    24
    0.0010148493   2    1000035    6

DECAY 1000005  20.062798
    0.37098414   2   -1000037    6
    0.25017327   2    1000023    5
    0.18815439   2    1000025    5
    0.12515854   2   -1000024    6
    0.065529659   2    1000022    5

DECAY 2000005  176.45187
    0.26191028   2   -1000037    6
    0.22170893   2    1000021    5
    0.17366107   2   -1000024    6
    0.14075836   2    1000006   -24
    0.080544176   2    1000022    5
    0.060249899   2    1000025    5
    0.056401945   2    1000023    5
    0.001969316   2    1000005    25
    0.0018232025   2    1000005    23
    0.0009728227   2    1000035    5

DECAY 1000002  23.257613
    0.560814   2    1000024    1
    0.26803   2    1000022    2
    0.10633507   2    1000037    1
    0.064461873   2    1000025    2
    0.00035905663   2    1000023    2

DECAY 2000002  4.281478
    0.84730126   2    1000021    2
    0.15213451   2    1000035    2
    0.00037571443   2    1000025    2
    0.00011495717   2    1000023    2
    7.3556962e-05   2    1000022    2

DECAY 1000001  23.199416
    0.52432872   2   -1000024    2
    0.27049563   2    1000022    1
    0.14179912   2   -1000037    2
    0.062940296   2    1000025    1
    0.00043623341   2    1000023    1

DECAY 2000001  0.00018980103
    0.64322756   2    1000025    1
    0.20480474   2    1000023    1
    0.1519677   2    1000022    1

DECAY 1000004  23.504538
    0.56088469   2    1000024    3
    0.26806443   2    1000022    4
    0.10626922   2    1000037    3
    0.064422771   2    1000025    4
    0.00035889024   2    1000023    4

DECAY 2000004  3.2896665
    0.79897202   2    1000021    4
    0.20026008   2    1000035    4
    0.00051127406   2    1000025    4
    0.00015645634   2    1000023    4
    0.00010017225   2    1000022    4

DECAY 1000003  23.446015
    0.52440778   2   -1000024    4
    0.27053752   2    1000022    3
    0.14171485   2   -1000037    4
    0.062903801   2    1000025    3
    0.00043604289   2    1000023    3

DECAY 2000003  0.00018683432
    0.64302231   2    1000025    3
    0.20481362   2    1000023    3
    0.15216408   2    1000022    3

DECAY 1000011  11.350052
    0.54023392   2   -1000024    12
    0.27556093   2    1000022    11
    0.12512849   2   -1000037    12
    0.058810054   2    1000025    11
    0.00026660421   2    1000023    11

DECAY 2000011  0.37779109
    0.98665948   2    1000035    11
    0.0088672783   2    1000025    11
    0.0027189112   2    1000023    11
    0.0017543278   2    1000022    11

DECAY 1000013  11.350052
    0.54023393   2   -1000024    14
    0.27556092   2    1000022    13
    0.12512849   2   -1000037    14
    0.058810053   2    1000025    13
    0.0002666042   2    1000023    13

DECAY 2000013  0.37779105
    0.98665948   2    1000035    13
    0.0088672792   2    1000025    13
    0.0027189115   2    1000023    13
    0.001754328   2    1000022    13

DECAY 1000015  0.15434589
    0.63041836   2   -1000024    16
    0.36958164   2    1000022    15

DECAY 2000015  19.304157
    0.35129602   2   -1000037    16
    0.22677345   2    1000023    15
    0.17514037   2    1000025    15
    0.103663   2   -1000024    16
    0.053527228   2    1000022    15
    0.044138986   2    1000016   -24
    0.022822408   2    1000015    25
    0.022638542   2    1000015    23

DECAY 1000012  11.415372
    0.5745639   2    1000024    11
    0.2780689   2    1000022    12
    0.093221069   2    1000037    11
    0.053675533   2    1000025    12
    0.00047059534   2    1000023    12

DECAY 1000014  11.415372
    0.5745639   2    1000024    13
    0.27806891   2    1000022    14
    0.093221068   2    1000037    13
    0.053675534   2    1000025    14
    0.00047059535   2    1000023    14

DECAY 1000016  0.14463559
    0.69165986   2    1000024    15
    0.30834014   2    1000022    16

DECAY 1000024  6.1677589e-13
    0.72603806   2    1000022    211
    0.13165833   3    1000022   -11    12
    0.116847   3    1000022   -13    14
    0.025372859   3    1000022    211    111
    4.1876057e-05   4    1000022    211    111    111
    4.1876057e-05   4    1000022    211    211   -211

DECAY 1000037  1.0904572
    0.42397436   2    1000022    24
    0.35179589   2    1000024    23
    0.13065868   2    1000024    25
    0.068225184   2    1000016   -15
    0.025345893   2   -1000015    16

DECAY 1000022 -1


DECAY 1000023  0.53716503
    0.35990236   2    1000024   -24
    0.35990236   2   -1000024    24
    0.22546078   2    1000022    23
    0.027264731   2    1000015   -15
    0.027264731   2   -1000015    15
    0.00010251999   2    1000016   -16
    0.00010251999   2   -1000016    16

DECAY 1000025  1.1791098
    0.39863235   2    1000024   -24
    0.39863235   2   -1000024    24
    0.12014956   2    1000022    25
    0.02897699   2    1000015   -15
    0.02897699   2   -1000015    15
    0.010779999   2    1000016   -16
    0.010779999   2   -1000016    16
    0.0030717558   2    1000022    23

DECAY 1000035  23.448774
    0.063576947   2    1000016   -16
    0.063576947   2   -1000016    16
    0.063129515   2    1000015   -15
    0.063129515   2   -1000015    15
    0.061933517   2    1000037   -24
    0.061933517   2   -1000037    24
    0.059055636   2    1000023    23
    0.052290508   2    1000025    25
    0.042629354   2    2000001   -1
    0.042629354   2   -2000001    1
    0.042629354   2    2000003   -3
    0.042629354   2   -2000003    3
    0.032996326   2    1000012   -12
    0.032996326   2   -1000012    12
    0.032996326   2    1000014   -14
    0.032996326   2   -1000014    14
    0.032718435   2    1000011   -11
    0.032718435   2   -1000011    11
    0.032718435   2    1000013   -13
    0.032718435   2   -1000013    13
    0.01549075   2    1000023    25
    0.012637478   2    1000025    23
    0.010000932   2    1000024   -24
    0.010000932   2   -1000024    24
    0.0084391166   2    1000022    25
    0.0047865742   2    1000005   -5
    0.0047865742   2   -1000005    5
    0.0024861873   2    1000022    23
    0.0011637591   2    1000001   -1
    0.0011637591   2   -1000001    1
    0.0011637591   2    1000003   -3
    0.0011637591   2   -1000003    3
    0.0011539576   2    1000002   -2
    0.0011539576   2   -1000002    2
    0.0011539434   2    1000004   -4
    0.0011539434   2   -1000004    4
    4.902874e-05   2    2000015   -15
    4.902874e-05   2   -2000015    15

DECAY 25  0.0044844853
    0.59926942   2    5   -5
    0.21708826   2    24   -24
    0.073424086   2    21    21
    0.058926767   2   -15    15
    0.027587319   2    23    23
    0.019505675   2    4   -4
    0.0021970719   2    22    22
    0.0015657909   2    22    23
    0.00022698024   2    3   -3
    0.00020862858   2   -13    13

DECAY 35  57.731136
    0.68796132   2    5   -5
    0.1079861   2   -15    15
    0.055009233   2    1000024   -1000037
    0.055009233   2    1000037   -1000024
    0.038315802   2    1000022    1000023
    0.019386654   2    1000024   -1000024
    0.0098585067   2    1000023    1000025
    0.0096792971   2    1000022    1000022
    0.0059143576   2    1000022    1000025
    0.0058675431   2    1000037   -1000037
    0.0034549238   2    1000025    1000025
    0.0008655976   2    6   -6
    0.0004013406   2   -13    13
    0.00021254307   2    3   -3
    4.9420846e-05   2    1000023    1000023
    2.3404921e-05   2    21    21
    2.8695428e-06   2    25    25
    7.8737807e-07   2    24   -24
    3.921705e-07   2    23    23
    3.0985124e-07   2    1000016   -1000016
    2.6974762e-07   2    1000015   -1000015
    7.3088111e-08   2    22    22
    1.1377628e-08   2    23    22
    8.9418429e-09   2    4   -4

DECAY 36  57.700972
    0.68833995   2    5   -5
    0.10804338   2   -15    15
    0.041097372   2    1000024   -1000024
    0.035736546   2    1000024   -1000037
    0.035736546   2    1000037   -1000024
    0.022282393   2    1000037   -1000037
    0.02054025   2    1000022    1000022
    0.015928579   2    1000022    1000025
    0.014975795   2    1000022    1000023
    0.012738032   2    1000025    1000025
    0.0029202095   2    1000023    1000025
    0.0008747576   2    6   -6
    0.00040155216   2   -13    13
    0.00021266423   2    3   -3
    0.00013077386   2    1000023    1000023
    4.0208704e-05   2    21    21
    7.943377e-07   2    23    25
    1.5891414e-07   2    22    22
    2.3483615e-08   2    23    22
    8.9299223e-09   2    4   -4

DECAY 37  53.17791
    0.66219108   2    6   -5
    0.11733699   2   -15    16
    0.074384027   2    1000037    1000022
    0.071682669   2    1000024    1000025
    0.060308298   2    1000024    1000023
    0.01228448   2    1000037    1000023
    0.0011158458   2    4   -5
    0.00043609261   2   -13    14
    0.00022703334   2    4   -3
    1.1534e-05   2    2   -3
    1.1158429e-05   2    2   -5
    9.3154834e-06   2    1000037    1000025
    8.6545334e-07   2    24    25
    6.1208635e-07   2    1000024    1000022
    5.9651349e-10   2   -1000015    1000016
    4.2354314e-13   2    24    36

DECAY 5 -1


DECAY 15 -1


DECAY 23  2.4952


DECAY 24  2.085
