BLOCK SPINFO
   1   SPheno
   2   v4.0.5be

BLOCK SPHENOINFO
   1   2
   2   2

BLOCK MODSEL
   1   0

BLOCK MINPAR
   3    13.321577
   4   -1

BLOCK EXTPAR
   0    2561.2271
   1   -1028.4719
   2    3925.7055
   3    879.72791
   11   -3293.0926
   12    6449.6326
   13   -3639.1734
   23   -1801.2251
   25    12.740173
   26    4324.5321
   31    1280.5627
   32    1280.5627
   33    3939.9467
   34    2866.232
   35    2866.232
   36    1813.4642
   41    4547.9245
   42    4547.9245
   43    3606.4227
   44    4305.3073
   45    4305.3073
   46    1756.1211
   47    2164.6245
   48    2164.6245
   49    3279.4009

BLOCK SMINPUTS
   1    127.90897
   2    1.1663787e-05
   3    0.1184
   4    91.1876
   5    4.18
   6    173.2
   7    1.777
   8    0
   11    0.00051099893
   12    0
   13    0.10565837
   14    0
   21    0.005
   22    0.0025
   23    0.095
   24    1.27

BLOCK GAUGE Q=  2561.2271
   1    0.35536298
   2    0.66519887
   3    1.219778

BLOCK YU Q=  2561.2271
   1   1    8.4101604e-06
   2   2    0.0042723615
   3   3    1.0160149

BLOCK YD Q=  2561.2271
   1   1    0.00021530785
   2   2    0.0040908491
   3   3    0.21351792

BLOCK YE Q=  2561.2271
   1   1    3.7572794e-05
   2   2    0.0077688622
   3   3    0.13065948

BLOCK AU Q=  2561.2271
   1   1    0
   2   2    0
   3   3   -3293.0926

BLOCK AD Q=  2561.2271
   1   1    0
   2   2    0
   3   3    6449.6325

BLOCK AE Q=  2561.2271
   1   1    0
   2   2    0
   3   3   -3639.1734

BLOCK MSOFT Q=  2561.2271
   1   -1028.4719
   2    3925.7055
   3    879.72791
   21    15198336
   22   -3044597.7
   31    1280.5627
   32    1280.5627
   33    3939.9467
   34    2866.232
   35    2866.232
   36    1813.4642
   41    4547.9245
   42    4547.9245
   43    3606.4227
   44    4305.3073
   45    4305.3073
   46    1756.1211
   47    2164.6245
   48    2164.6245
   49    3279.4009

BLOCK MASS
   6    173.2
   23    91.1876
   24    80.429995
   15    1.777
   25    120.42328
   35    4324.6003
   36    4324.5321
   37    4325.6196
   1000001    4610.9151
   2000001    2197.2115
   1000002    4610.3436
   2000002    4353.2628
   1000003    4610.9148
   2000003    2197.2117
   1000004    4610.3433
   2000004    4353.2626
   1000005    3316.4011
   2000005    3642.3585
   1000006    1798.6623
   2000006    3647.0907
   1000011    1302.0559
   2000011    2866.885
   1000012    1299.2903
   1000013    1302.0557
   2000013    2866.883
   1000014    1299.2908
   1000015    1814.3214
   2000015    3958.1139
   1000016    3956.898
   1000021    1095.38
   1000022   -1022.1618
   1000023    1818.3944
   1000025   -1821.7568
   1000035    3956.7088
   1000024    1819.0186
   1000037    3956.9092

BLOCK ALPHA
      -0.07502012

BLOCK HMIX Q=  2561.2271
   1   -1801.2251
   2    12.740173
   3    243.43051
   4    18701578

BLOCK STOPMIX
   1   1    0.045527934
   1   2    0.99896307
   2   1   -0.99896307
   2   2    0.045527934

BLOCK SBOTMIX
   1   1   -0.029238432
   1   2    0.99957247
   2   1   -0.99957247
   2   2   -0.029238432

BLOCK STAUMIX
   1   1   -0.002716962
   1   2    0.99999631
   2   1   -0.99999631
   2   2   -0.002716962

BLOCK NMIX
   1   1    0.99901975
   1   2    0.00040399784
   1   3   -0.037767714
   1   4    0.023086151
   2   1   -0.010392124
   2   2   -0.023616603
   2   3   -0.70709321
   2   4   -0.70664945
   3   1    0.043028994
   3   2   -0.010250155
   3   3    0.70604779
   3   4   -0.70678141
   4   1   -0.0002080436
   4   2    0.99966846
   4   3   -0.0094499154
   4   4   -0.023950546

BLOCK UMIX
   1   1   -0.013456977
   1   2   -0.99990945
   2   1    0.99990945
   2   2   -0.013456977

BLOCK VMIX
   1   1   -0.033998502
   1   2    0.99942188
   2   1    0.99942188
   2   2    0.033998502

BLOCK HIGGSBOUNDSINPUTHIGGSCOUPLINGSFERMIONS
       0, 162.31202,3,36,15,15

BLOCK HIGGSBOUNDSINPUTHIGGSCOUPLINGSBOSONS
       0,4,36,21,21,23

BLOCK SPHENOLOWENERGY
   1    0.00033095016
   2    1.5900171e-06
   3    3.5271009e-05
   4    2.5276479e-15
   5    1.0797831e-10
   6    2.2606488e-08
   7    8.5164912e-14
   8    3.6382442e-09
   9    7.7178178e-07
   10    9.6747089e-05
   11    0.99936039
   12    0.54300591
   13    19.401841
   14    0
   15    0
   16    0.0021618547
   17    2.2817046e-15
   18    2.4809189e-11
   19    8.2929805e-11
   20   -4.309102e-16
   21   -1.8422621e-11
   22   -4.95027e-09
   23    0
   24    0
   25    0
   26    0
   27    0
   28    0
   29    0
   30    0
   31    0
   39    5.1307576e-06
   40    0
   41    0
   42    0

BLOCK FWCOEF Q=  160
   305   4422   0   0   -0.18881911
   305   4422   0   2   -0.20107066
   305   4322   0   2   -0.00020277813
   305   6421   0   0   -0.095227835
   305   6421   0   2   -0.10440633
   305   6321   0   2   -0.00015348716
   3051111   4133   0   0    1.6106583
   3051111   4133   0   2    1.6113477
   3051111   4233   0   2    1.9543181e-05
   3051111   4137   0   0   -4.4333504
   3051111   4137   0   2   -4.4334986
   3051111   4237   0   2   -0.00014947028
   3051313   4133   0   0    1.6106583
   3051313   4133   0   2    1.6113472
   3051313   4233   0   2    1.9543178e-05
   3051313   4137   0   0   -4.4333504
   3051313   4137   0   2   -4.4334991
   3051313   4237   0   2   -0.00014947029
   3051212   4137   0   0    1.5053501
   3051212   4137   0   2    1.5053827
   3051212   4237   0   2    3.2438686e-05
   3051414   4137   0   0    1.5053501
   3051414   4137   0   2    1.5053827
   3051414   4237   0   2    3.2438686e-05
   3051616   4137   0   0    1.5053501
   3051616   4137   0   2    1.5053828
   3051616   4237   0   2    3.2438719e-05

BLOCK IMFWCOEF Q=  160
   305   4422   0   0    3.8580087e-07
   305   4422   0   2   -3.0085045e-06
   305   4322   0   2   -2.4616059e-06
   305   6421   0   0    3.3046396e-07
   305   6421   0   2    1.3746403e-05
   305   6321   0   2   -1.1330196e-06
   3051111   4133   0   2    6.3263489e-07
   3051111   4233   0   2    3.9285578e-07
   3051111   4137   0   2   -3.598739e-06
   3051111   4237   0   2   -3.0015889e-06
   3051313   4133   0   2    6.3263207e-07
   3051313   4233   0   2    3.9285573e-07
   3051313   4137   0   2   -3.5987421e-06
   3051313   4237   0   2   -3.0015891e-06
   3051212   4137   0   2    7.8504712e-07
   3051212   4237   0   2    6.514162e-07
   3051414   4137   0   2    7.8504708e-07
   3051414   4237   0   2    6.514162e-07
   3051616   4137   0   2    7.8794097e-07
   3051616   4237   0   2    6.5141571e-07

DECAY 23  2.4952


DECAY 24  2.085


DECAY 1000011  0.2407145
    1   2    1000022    11

DECAY 2000011  10.963982
    0.99908461   2    1000022    11
    0.00086469239   2    1000025    11

DECAY 1000013  0.24071433
    1   2    1000022    13

DECAY 2000013  10.966961
    0.99881249   2    1000022    13
    0.00092003917   2    1000025    13
    0.00011200737   2   -1000024    14
    0.00010673029   2    1000023    13

DECAY 1000015  4.2399142
    1   2    1000022    15

DECAY 2000015  5.3348251
    0.81170302   2    1000022    15
    0.08012169   2    1000023    15
    0.078439174   2    1000025    15
    0.014713342   2    1000015    25
    0.01434165   2    1000015    23
    0.00067870372   2   -1000024    16

DECAY 1000012  0.23621004
    1   2    1000022    12

DECAY 1000014  0.23621062
    1   2    1000022    14

DECAY 1000016  5.3435691
    0.80736837   2    1000022    16
    0.1611181   2    1000024    15
    0.028615731   2    1000015    24
    0.0022359442   2    1000025    16
    0.00066183083   2    1000023    16

DECAY 2000001  98.689883
    0.99238074   2    1000021    1
    0.0076168796   2    1000022    1

DECAY 1000001  328.85744
    0.98533233   2    1000021    1
    0.0085721522   2   -1000037    2
    0.0042867533   2    1000035    1
    0.0017578626   2    1000022    1

DECAY 2000003  98.690044
    0.99237928   2    1000021    3
    0.0076168765   2    1000022    3

DECAY 1000003  328.85977
    0.98532525   2    1000021    3
    0.0085720688   2   -1000037    4
    0.0042867187   2    1000035    3
    0.0017578561   2    1000022    3

DECAY 1000005  212.21717
    0.97900675   2    1000021    5
    0.0071746279   2    1000022    5
    0.0068362412   2   -1000024    6
    0.0034782293   2    1000023    5
    0.0034316057   2    1000025    5

DECAY 2000005  311.36924
    0.76391993   2    1000021    5
    0.13394475   2   -1000024    6
    0.094244001   2    1000006   -24
    0.0030003035   2    1000025    5
    0.0029942144   2    1000023    5
    0.001369795   2    1000022    5
    0.000327606   2    1000005    25
    0.00019940109   2    1000005    23

DECAY 2000002  310.15851
    0.97203001   2    1000021    2
    0.027928198   2    1000022    2

DECAY 1000002  328.82971
    0.98526406   2    1000021    2
    0.0085515928   2    1000037    1
    0.0042800134   2    1000035    2
    0.0017737876   2    1000022    2
    0.00010171335   2    1000024    1

DECAY 2000004  310.16057
    0.97202327   2    1000021    4
    0.02792801   2    1000022    4

DECAY 1000004  328.83189
    0.98525723   2    1000021    4
    0.0085515283   2    1000037    3
    0.004279974   2    1000035    4
    0.0017737772   2    1000022    4
    0.00010503221   2    1000024    3

DECAY 1000006  56.292484
    0.96782965   2    1000021    6
    0.032101084   2    1000022    6

DECAY 2000006  316.45976
    0.74671628   2    1000021    6
    0.06638513   2    1000023    6
    0.066294014   2    1000025    6
    0.066085433   2    1000006    25
    0.046563473   2    1000006    23
    0.005955999   2    1000024    5
    0.0015784101   2    1000022    6
    0.00042125851   2    1000005    24

DECAY 1000024  1.3539477
    0.96074739   2    1000022    24
    0.019967096   2    1000006   -5
    0.015194872   3    1000022   -5    6
    0.0018330365   2    1000014   -13
    0.0016398405   2    1000012   -11
    0.00025463136   2   -1000013    14
    0.00025463118   2   -1000011    12
    0.00010226232   3    1000021   -5    6

DECAY 1000037  87.101361
    0.1589779   2    1000012   -11
    0.15897788   2    1000014   -13
    0.1589692   2   -1000013    14
    0.15896919   2   -1000011    12
    0.084284695   2    1000024    25
    0.079143867   2    1000024    23
    0.079065831   2    1000025    24
    0.078028183   2    1000023    24
    0.013602084   2    2000006   -5
    0.01114281   2   -2000005    6
    0.0070077139   3    1000024    6   -6
    0.0059101245   3    1000025   -5    6
    0.0045135303   3    1000023   -5    6
    0.00052739421   3    1000021   -3    4
    0.00052739391   3    1000021   -1    2
    0.00023829307   2    1000022    24

DECAY 1000022 -1


DECAY 1000023  2.0536167
    0.6005001   2    1000022    23
    0.38623899   2    1000022    25
    0.0075582283   3    1000021    6   -6
    0.0033600578   3    1000022    6   -6
    0.00045668798   2    1000013   -13
    0.00045668798   2   -1000013    13
    0.00039365578   2    1000011   -11
    0.00039365578   2   -1000011    11
    0.00015234727   2    1000012   -12
    0.00015234727   2   -1000012    12
    0.00015234706   2    1000014   -14
    0.00015234706   2   -1000014    14

DECAY 1000025  1.1767239
    0.91198658   2    1000022    25
    0.061289323   2    1000022    23
    0.014220957   3    1000021    6   -6
    0.0080628707   3    1000022    6   -6
    0.00090864018   2    1000012   -12
    0.00090864018   2   -1000012    12
    0.00090863897   2    1000014   -14
    0.00090863897   2   -1000014    14
    0.00024307214   2    1000013   -13
    0.00024307214   2   -1000013    13
    0.00013226194   2    1000011   -11
    0.00013226194   2   -1000011    11

DECAY 1000035  94.468468
    0.088525325   2    1000025    25
    0.073644001   2    1000024   -24
    0.073644001   2   -1000024    24
    0.073336983   2    1000012   -12
    0.073336983   2   -1000012    12
    0.073336972   2    1000014   -14
    0.073336972   2   -1000014    14
    0.073228891   2    1000013   -13
    0.073228891   2   -1000013    13
    0.073228882   2    1000011   -11
    0.073228882   2   -1000011    11
    0.065518095   2    1000023    25
    0.060938662   2    1000025    23
    0.011512966   2    1000023    23
    0.0064307239   2    2000005   -5
    0.0064307239   2   -2000005    5
    0.0049599883   2    2000006   -6
    0.0049599883   2   -2000006    6
    0.0041711923   3    1000024    5   -6
    0.0041711923   3   -1000024   -5    6
    0.0039800975   3    1000025    6   -6
    0.0031164264   3    1000023    6   -6
    0.00030890553   3    1000021    4   -4
    0.00030890534   3    1000021    2   -2
    0.00030868638   3    1000021    3   -3
    0.00030868622   3    1000021    1   -1
    0.00019847957   2    1000022    25
    0.00015024205   2    1000022    23

DECAY 1000021  3.1555952e-09
    0.37104323   3    1000022    1   -1
    0.37104048   3    1000022    3   -3
    0.066723592   3    1000022    2   -2
    0.066483528   3    1000022    4   -4
    0.063538817   2    1000022    21
    0.061170357   3    1000022    5   -5

DECAY 25  0.0033608745
    0.63929505   2   -5    5
    0.15913124   2   -24    24
    0.075262414   2    21    21
    0.073127373   2   -15    15
    0.031684317   2   -4    4
    0.017567895   2    23    23
    0.0023189016   2    22    22
    0.0011179798   2    22    23
    0.00025362793   2   -13    13
    0.00024036177   2   -3    3
    6.6457741e-07   2   -1    1
    1.63292e-07   2   -2    2
    5.7019017e-09   2   -11    11

DECAY 35  13.109168
    0.57565649   2   -5    5
    0.16035489   2    1000022    1000023
    0.11119888   2   -15    15
    0.071236684   2   -6    6
    0.069094015   2    1000022    1000025
    0.010030028   2   -1000006    1000006
    0.00064292304   2    1000022    1000022
    0.00060183495   2   -1000024    1000024
    0.00036792867   2   -13    13
    0.00023527324   2   -3    3
    0.00021177186   2    1000025    1000025
    0.00012300837   2    25    25
    0.00011777415   2    1000023    1000025
    9.8607678e-05   2    1000023    1000023
    7.8104298e-06   2    23    23
    2.1321422e-06   2   -1000011    1000011
    2.1293906e-06   2   -1000013    1000013
    1.5093758e-06   2   -24    24
    8.8302856e-07   2   -4    4
    6.5049068e-07   2   -1    1
    6.475011e-07   2    21    21
    5.7414655e-08   2    22    22
    5.3604314e-08   2    22    23
    5.3403335e-08   2   -2000013    1000013
    5.3403335e-08   2   -1000013    2000013
    1.0479832e-08   2   -1000015    1000015
    8.2624795e-09   2   -11    11
    4.5515171e-12   2   -2    2
    1.2491097e-12   2   -2000011    1000011
    1.2491097e-12   2   -1000011    2000011

DECAY 36  12.703069
    0.57731677   2   -5    5
    0.16324662   2    1000022    1000025
    0.11152101   2   -15    15
    0.072503651   2    1000022    1000023
    0.070693456   2   -6    6
    0.001797855   2   -1000024    1000024
    0.0010322023   2    1000022    1000022
    0.00096996378   2    1000025    1000025
    0.00036900186   2   -13    13
    0.00024545225   2    1000023    1000023
    0.0002359513   2   -3    3
    3.6019312e-05   2    21    21
    1.8570854e-05   2    23    25
    1.1543329e-05   2    1000023    1000025
    8.6992516e-07   2   -4    4
    6.5237242e-07   2   -1    1
    1.6233197e-07   2    22    22
    1.2501588e-07   2    22    23
    5.4932986e-08   2   -2000013    1000013
    5.4932986e-08   2   -1000013    2000013
    8.2865809e-09   2   -11    11
    4.4840997e-12   2   -2    2
    1.2848876e-12   2   -2000011    1000011
    1.2848876e-12   2   -1000011    2000011
    1.3841229e-37   2    25    25

DECAY 37  13.014929
    0.64748123   2   -5    6
    0.23277938   2    1000022    1000024
    0.11795412   2   -15    16
    0.00085537528   2   -5    4
    0.00041700978   2   -13    14
    0.00022198396   2   -3    4
    0.00012781594   2    1000023    1000024
    0.00010169389   2   -3    6
    1.8144981e-05   2    24    25
    1.0396983e-05   2   -3    2
    8.4378721e-06   2   -1000011    1000012
    8.4339867e-06   2   -1000013    1000014
    6.1082513e-06   2   -5    2
    4.6490222e-06   2   -1    6
    4.4153175e-06   2    1000024    1000025
    6.1353894e-07   2   -1    2
    1.0865379e-07   2   -2000013    1000014
    7.1115621e-08   2   -1    4
    9.7539022e-09   2   -11    12
    1.8011514e-10   2   -1000003    1000006
    2.5414265e-12   2   -2000011    1000012
    1.5916015e-13   2    24    36
    1.1510835e-13   2    24    35
    2.2886319e-14   2   -1000001    1000006

DECAY 6  2.43
    1   2    5    24

DECAY 15 -1
