BLOCK DCINFO
   1   SDECAY/HDECAY
   2   1.3b /3.4

BLOCK SPINFO
   1   SOFTSUSY
   2   3.4.0

BLOCK MODSEL
   1   0

BLOCK SMINPUTS
   1    127.90897
   2    1.1663787e-05
   3    0.1184
   4    91.1876
   5    4.18
   6    173.2
   7    1.777

BLOCK MINPAR
   3    20.61

BLOCK EXTPAR
   0   -1
   1    1030.26
   2    2071.46
   3    3061.8
   11   -2845.8
   12    1004.93
   13   -2278.58
   23    1584.87
   26    2136.88
   31    3274.3
   32    3274.3
   33    2189.8
   34    2966.26
   35    2966.26
   36    3054.35
   41    2482.98
   42    2482.98
   43    1285.45
   44    1014.33
   45    1014.33
   46    2397.85
   47    1761.65
   48    1761.65
   49    2331.38

BLOCK MASS
   24    80.389035
   25    125.21705
   35    2136.8218
   36    2136.8799
   37    2138.557
   5    4.8187603
   1000001    2543.0649
   2000001    1805.1671
   1000002    2541.9459
   2000002    1038.9342
   1000003    2543.0649
   2000003    1805.1671
   1000004    2541.9459
   2000004    1038.9342
   1000005    1332.1248
   2000005    2379.0052
   1000006    1321.4
   2000006    2419.2794
   1000011    3281.8655
   2000011    2969.0297
   1000012    3280.5853
   1000013    3281.8655
   2000013    2969.0297
   1000014    3280.5853
   1000015    2202.2833
   2000015    3055.7357
   1000016    2200.7465
   1000021    3033.0576
   1000022    1024.4059
   1000023    1600.6167
   1000025   -1607.9008
   1000035    2094.3351
   1000024    1600.2404
   1000037    2094.4985

BLOCK NMIX
   1   1    0.99832698
   1   2   -0.0026031159
   1   3    0.047972943
   1   4   -0.032172263
   2   1   -0.05659289
   2   2   -0.12039267
   2   3    0.70191987
   2   4   -0.69972233
   3   1   -0.011126484
   3   2    0.014435947
   3   3    0.70667152
   3   4    0.70730698
   4   1   -0.0040841362
   4   2    0.99261797
   4   3    0.074982942
   4   4   -0.095238891

BLOCK UMIX
   1   1   -0.10721739
   1   2    0.9942356
   2   1   -0.9942356
   2   2   -0.10721739

BLOCK VMIX
   1   1   -0.13619495
   1   2    0.99068205
   2   1   -0.99068205
   2   2   -0.13619495

BLOCK STOPMIX
   1   1    0.99468643
   1   2    0.10295102
   2   1   -0.10295102
   2   2    0.99468643

BLOCK SBOTMIX
   1   1    0.99983764
   1   2    0.018019368
   2   1   -0.018019368
   2   2    0.99983764

BLOCK STAUMIX
   1   1    0.99990296
   1   2    0.013930635
   2   1   -0.013930635
   2   2    0.99990296

BLOCK ALPHA
      -0.050461523

BLOCK HMIX Q=  1753.775
   1    1603.8924
   2    19.87411
   3    243.73763
   4    4650025.7

BLOCK GAUGE Q=  1753.775
   1    0.36308195
   2    0.63541922
   3    1.0240252

BLOCK AU Q=  1753.775
   1   1    0
   2   2    0
   3   3   -2845.8

BLOCK AD Q=  1753.775
   1   1    0
   2   2    0
   3   3    1004.93

BLOCK AE Q=  1753.775
   1   1    0
   2   2    0
   3   3   -2278.58

BLOCK YU Q=  1753.775
   1   1    0
   2   2    0
   3   3    0.8256942

BLOCK YD Q=  1753.775
   1   1    0
   2   2    0
   3   3    0.25832478

BLOCK YE Q=  1753.775
   1   1    0
   2   2    0
   3   3    0.20957188

BLOCK MSOFT Q=  1753.775
   1    1030.26
   2    2071.46
   3    3061.8
   21    1939873.5
   22   -2551019.7
   31    3274.3
   32    3274.3
   33    2189.8
   34    2966.26
   35    2966.26
   36    3054.35
   41    2482.98
   42    2482.98
   43    1285.45
   44    1014.33
   45    1014.33
   46    2397.85
   47    1761.65
   48    1761.65
   49    2331.38

BLOCK HIGGSBOUNDSINPUTHIGGSCOUPLINGSFERMIONS
       0, 394.98026,3,36,15,15

BLOCK HIGGSBOUNDSINPUTHIGGSCOUPLINGSBOSONS
       0,4,36,21,21,23

DECAY 6  1.4220127
    1   2    5    24

DECAY 1000021  253.50984
    0.090235655   2    2000002   -2
    0.090235655   2   -2000002    2
    0.090235647   2    2000004   -4
    0.090235647   2   -2000004    4
    0.075157497   2    1000005   -5
    0.075157497   2   -1000005    5
    0.073665223   2    1000006   -6
    0.073665223   2   -1000006    6
    0.048300507   2    2000001   -1
    0.048300507   2   -2000001    1
    0.048300507   2    2000003   -3
    0.048300507   2   -2000003    3
    0.017266007   2    2000005   -5
    0.017266007   2   -2000005    5
    0.015887619   2    2000006   -6
    0.015887619   2   -2000006    6
    0.010259143   2    1000002   -2
    0.010259143   2   -1000002    2
    0.010259095   2    1000004   -4
    0.010259095   2   -1000004    4
    0.010216549   2    1000001   -1
    0.010216549   2   -1000001    1
    0.010216549   2    1000003   -3
    0.010216549   2   -1000003    3

DECAY 1000006  0.050897915
    1   2    1000022    6

DECAY 2000006  86.94902
    0.35959138   2    1000005    24
    0.18687761   2    1000006    23
    0.18361604   2    1000006    25
    0.11357224   2    1000024    5
    0.058376195   2    1000023    6
    0.054847444   2    1000025    6
    0.041554439   2    1000022    6
    0.0010844827   2    1000037    5
    0.00048016763   2    1000035    6

DECAY 1000005  0.034245118
    1   2    1000022    5

DECAY 2000005  4.5541118
    0.20150202   2    1000022    5
    0.20103817   2   -1000024    6
    0.19334157   2    1000006   -24
    0.1023569   2    1000025    5
    0.10191787   2    1000023    5
    0.10055972   2    1000005    25
    0.098227021   2    1000005    23
    0.00066047318   2   -1000037    6
    0.00039626232   2    1000035    5

DECAY 1000002  3.5840571
    0.58244646   2    1000037    1
    0.2920939   2    1000035    2
    0.069349427   2    1000022    2
    0.038233843   2    1000024    1
    0.017721962   2    1000023    2
    0.00015440329   2    1000025    2

DECAY 2000002  0.0021581991
    1   2    1000022    2

DECAY 1000001  3.5587549
    0.59321051   2   -1000037    2
    0.29629609   2    1000035    1
    0.073828852   2    1000022    1
    0.023900456   2   -1000024    2
    0.012482714   2    1000023    1
    0.00028138034   2    1000025    1

DECAY 2000001  0.4873413
    0.99965822   2    1000022    1
    0.00032985769   2    1000023    1
    1.1923666e-05   2    1000025    1

DECAY 1000004  3.5561777
    0.58088609   2    1000037    3
    0.29131246   2    1000035    4
    0.070841121   2    1000022    4
    0.038813246   2    1000024    3
    0.017990363   2    1000023    4
    0.00015672067   2    1000025    4

DECAY 2000004  0.0018505129
    1   2    1000022    4

DECAY 1000003  3.5305279
    0.59176298   2   -1000037    4
    0.29557818   2    1000035    3
    0.075431396   2    1000022    3
    0.024267456   2   -1000024    4
    0.012674322   2    1000023    3
    0.00028566116   2    1000025    3

DECAY 2000003  0.48210578
    0.99966903   2    1000022    3
    0.00031944103   2    1000023    3
    1.1533044e-05   2    1000025    3

DECAY 1000011  17.513218
    0.52269509   2   -1000037    12
    0.25932995   2    1000035    11
    0.19769554   2    1000022    11
    0.010197352   2    1000023    11
    0.010053696   2   -1000024    12
    2.8365607e-05   2    1000025    11

DECAY 2000011  12.071938
    0.99783572   2    1000022    11
    0.0020790846   2    1000023    11
    7.9764913e-05   2    1000025    11
    5.4317606e-06   2    1000035    11

DECAY 1000013  17.513218
    0.52269509   2   -1000037    14
    0.25932995   2    1000035    13
    0.19769554   2    1000022    13
    0.010197352   2    1000023    13
    0.010053696   2   -1000024    14
    2.8365607e-05   2    1000025    13

DECAY 2000013  12.071938
    0.99783572   2    1000022    13
    0.0020790846   2    1000023    13
    7.9764913e-05   2    1000025    13
    5.4317606e-06   2    1000035    13

DECAY 1000015  2.5124498
    0.69942954   2    1000022    15
    0.10268617   2    1000023    15
    0.083293288   2    1000025    15
    0.063386864   2   -1000037    16
    0.031605655   2    1000035    15
    0.019598483   2   -1000024    16

DECAY 2000015  16.173466
    0.77812599   2    1000022    15
    0.085156427   2   -1000024    16
    0.044193054   2    1000023    15
    0.043245062   2    1000025    15
    0.023401785   2    1000016   -24
    0.012373308   2    1000015    25
    0.011958142   2    1000015    23
    0.0010330095   2   -1000037    16
    0.00051322133   2    1000035    15

DECAY 1000012  17.523928
    0.51788982   2    1000037    11
    0.26123779   2    1000035    12
    0.20110182   2    1000022    12
    0.016198353   2    1000024    11
    0.003384552   2    1000023    12
    0.00018766138   2    1000025    12

DECAY 1000014  17.523928
    0.51788982   2    1000037    13
    0.26123779   2    1000035    14
    0.20110182   2    1000022    14
    0.016198353   2    1000024    13
    0.003384552   2    1000023    14
    0.00018766138   2    1000025    14

DECAY 1000016  2.5234783
    0.70577572   2    1000022    16
    0.19581103   2    1000024    15
    0.061181682   2    1000037    15
    0.03087695   2    1000035    16
    0.0060254609   2    1000023    16
    0.00032915377   2    1000025    16

DECAY 1000024  4.009296
    0.67058813   2   -1000005    6
    0.21380426   2    1000022    24
    0.11560761   2    1000006   -5

DECAY 1000037  28.103127
    0.30480858   2    1000006   -5
    0.28864638   2   -1000005    6
    0.10628967   2    1000024    23
    0.10158014   2    1000025    24
    0.10011882   2    1000023    24
    0.098434558   2    1000024    25
    0.00012185929   2    1000022    24

DECAY 1000022 -1


DECAY 1000023  4.6617215
    0.36321389   2    1000006   -6
    0.36321389   2   -1000006    6
    0.19129044   2    1000022    25
    0.034775384   2    1000005   -5
    0.034775384   2   -1000005    5
    0.0074772302   2    1000022    23
    0.0013134481   2    2000002   -2
    0.0013134481   2   -2000002    2
    0.0013134448   2    2000004   -4
    0.0013134448   2   -2000004    4

DECAY 1000025  3.658868
    0.33385686   2    1000006   -6
    0.33385686   2   -1000006    6
    0.2364833   2    1000022    23
    0.04300526   2    1000005   -5
    0.04300526   2   -1000005    5
    0.0095292024   2    1000022    25
    6.5814501e-05   2    2000002   -2
    6.5814501e-05   2   -2000002    2
    6.5814344e-05   2    2000004   -4
    6.5814344e-05   2   -2000004    4

DECAY 1000035  28.335111
    0.15568073   2    1000005   -5
    0.15568073   2   -1000005    5
    0.13924507   2    1000006   -6
    0.13924507   2   -1000006    6
    0.10585446   2    1000024   -24
    0.10585446   2   -1000024    24
    0.098769349   2    1000025    23
    0.09667334   2    1000023    25
    0.0015380035   2    1000023    23
    0.0013122364   2    1000025    25
    0.00012334224   2    1000022    25
    1.3119325e-05   2    1000022    23
    2.4527595e-06   2    2000002   -2
    2.4527595e-06   2   -2000002    2
    2.4527583e-06   2    2000004   -4
    2.4527583e-06   2   -2000004    4
    7.3344204e-08   2    2000001   -1
    7.3344204e-08   2   -2000001    1
    7.3344204e-08   2    2000003   -3
    7.3344204e-08   2   -2000003    3

DECAY 25  0.0044634386
    0.62936629   2    5   -5
    0.19280492   2    24   -24
    0.071743031   2    21    21
    0.058492738   2   -15    15
    0.024148213   2    23    23
    0.019457847   2    4   -4
    0.00212739   2    22    22
    0.0014267582   2    22    23
    0.00022575896   2    3   -3
    0.00020705271   2   -13    13

DECAY 35  11.133961
    0.82944149   2    5   -5
    0.14918702   2   -15    15
    0.020438987   2    6   -6
    0.00053509273   2   -13    13
    0.0002827714   2    3   -3
    5.110576e-05   2    25    25
    2.4295899e-05   2    21    21
    2.3064561e-05   2    1000022    1000022
    9.8249241e-06   2    24   -24
    4.895415e-06   2    23    23
    5.9577331e-07   2    2000002   -2000002
    5.9577331e-07   2    2000004   -2000004
    2.1035906e-07   2    4   -4
    4.4883277e-08   2    22    22
    1.4193264e-08   2    23    22

DECAY 36  11.141282
    0.8290055   2    5   -5
    0.14909633   2   -15    15
    0.02064392   2    6   -6
    0.00053476594   2   -13    13
    0.00032719953   2    1000022    1000022
    0.00028264872   2    3   -3
    9.9356774e-05   2    21    21
    9.9138263e-06   2    23    25
    2.1059299e-07   2    4   -4
    7.7157893e-08   2    23    22
    7.2185057e-08   2    22    22

DECAY 37  9.5704004
    0.82395644   2    6   -5
    0.17370517   2   -15    16
    0.0013498479   2    4   -5
    0.00062303081   2   -13    14
    0.0003239795   2    4   -3
    1.6447898e-05   2    2   -3
    1.3498445e-05   2    2   -5
    1.1582799e-05   2    24    25
    1.8231623e-12   2    24    36

DECAY 5 -1


DECAY 15 -1


DECAY 23  2.4952


DECAY 24  2.085
