BLOCK SPINFO
   1   SPheno
   2   v4.0.5be

BLOCK SPHENOINFO
   1   2
   2   2

BLOCK MODSEL
   1   0

BLOCK MINPAR
   3    40.927877
   4    1

BLOCK EXTPAR
   0    3857.823
   1   -286.29515
   2   -304.52548
   3    4657.7199
   11    981.39079
   12    3748.0955
   13   -5330.9455
   23    631.04893
   25    39.729151
   26    4481.8752
   31    3408.8443
   32    3408.8443
   33    3918.0519
   34    2585.2575
   35    2585.2575
   36    1720.4413
   41    4360.2983
   42    4360.2983
   43    3462.0041
   44    2014.4737
   45    2014.4737
   46    4043.3396
   47    4220.0598
   48    4220.0598
   49    1555.9521

BLOCK SMINPUTS
   1    127.90897
   2    1.1663787e-05
   3    0.1184
   4    91.1876
   5    4.18
   6    173.2
   7    1.777
   8    0
   11    0.00051099893
   12    0
   13    0.10565837
   14    0
   21    0.005
   22    0.0025
   23    0.095
   24    1.27

BLOCK GAUGE Q=  3857.823
   1    0.35536298
   2    0.66519887
   3    1.219778

BLOCK YU Q=  3857.823
   1   1    8.3870277e-06
   2   2    0.0042606101
   3   3    1.0132203

BLOCK YD Q=  3857.823
   1   1    0.0006695725
   2   2    0.012721877
   3   3    0.6640061

BLOCK YE Q=  3857.823
   1   1    0.0001168453
   2   2    0.024159902
   3   3    0.4063298

BLOCK AU Q=  3857.823
   1   1    0
   2   2    0
   3   3    981.39081

BLOCK AD Q=  3857.823
   1   1    0
   2   2    0
   3   3    3748.1013

BLOCK AE Q=  3857.823
   1   1    0
   2   2    0
   3   3   -5330.9448

BLOCK MSOFT Q=  3857.823
   1   -286.29515
   2   -304.52548
   3    4657.7199
   21    20019103
   22   -48048.606
   31    3408.8443
   32    3408.8443
   33    3918.0519
   34    2585.2575
   35    2585.2575
   36    1720.4413
   41    4360.2983
   42    4360.2983
   43    3462.0041
   44    2014.4737
   45    2014.4737
   46    4043.3396
   47    4220.0598
   48    4220.0598
   49    1555.9521

BLOCK MASS
   6    173.2
   23    91.1876
   24    80.429995
   15    1.777
   25    121.95528
   35    4479.571
   36    4481.8752
   37    4480.638
   1000001    4513.5037
   2000001    4363.6218
   1000002    4512.7687
   2000002    2195.206
   1000003    4513.4994
   2000003    4363.6136
   1000004    4512.7644
   2000004    2195.2052
   1000005    1727.2098
   2000005    3591.1103
   1000006    3592.6459
   2000006    4142.5731
   1000011    3415.2759
   2000011    2590.087
   1000012    3413.9349
   1000013    3415.2485
   2000013    2590.0227
   1000014    3413.907
   1000015    1706.8754
   2000015    3916.4951
   1000016    3915.1784
   1000021    4773.9685
   1000022   -280.94983
   1000023   -323.58833
   1000025    632.45946
   1000035   -640.37574
   1000024    323.2561
   1000037    641.32202

BLOCK ALPHA
      -0.024451539

BLOCK HMIX Q=  3857.823
   1    631.04893
   2    39.729151
   3    242.99868
   4    20087206

BLOCK STOPMIX
   1   1   -0.99965587
   1   2    0.026232379
   2   1   -0.026232379
   2   2   -0.99965587

BLOCK SBOTMIX
   1   1    0.004584512
   1   2    0.99998949
   2   1   -0.99998949
   2   2    0.004584512

BLOCK STAUMIX
   1   1    0.0043037559
   1   2    0.99999074
   2   1   -0.99999074
   2   2    0.0043037559

BLOCK NMIX
   1   1   -0.99259291
   1   2    0.062478682
   1   3   -0.095714161
   1   4   -0.041164668
   2   1   -0.080327593
   2   2   -0.98087874
   2   3    0.15930193
   2   4    0.077764202
   3   1    0.034601902
   3   2   -0.060890719
   3   3   -0.70297448
   3   4    0.70775837
   4   1   -0.084317866
   4   2    0.1739702
   4   3    0.68650461
   4   4    0.70095384

BLOCK UMIX
   1   1   -0.97230116
   1   2    0.23373157
   2   1   -0.23373157
   2   2   -0.97230116

BLOCK VMIX
   1   1    0.99349297
   1   2    0.11389346
   2   1    0.11389346
   2   2   -0.99349297

BLOCK HIGGSBOUNDSINPUTHIGGSCOUPLINGSFERMIONS
       0, 1578.4054,3,36,15,15

BLOCK HIGGSBOUNDSINPUTHIGGSCOUPLINGSBOSONS
       0,4,36,21,21,23

BLOCK SPHENOLOWENERGY
   1    0.00032215031
   2    1.589762e-06
   3    3.5247161e-05
   4    2.6245085e-15
   5    1.12116e-10
   6    2.346889e-08
   7    8.8040033e-14
   8    3.7610673e-09
   9    7.9774355e-07
   10    9.633093e-05
   11    0.99506163
   12    0.54189903
   13    19.35986
   14    0
   15    0
   16    0.0021570366
   17    2.2816559e-15
   18    2.4795579e-11
   19    8.2893981e-11
   20   -1.7649075e-15
   21   -7.5457424e-11
   22   -1.6106078e-08
   23    0
   24    0
   25    0
   26    0
   27    0
   28    0
   29    0
   30    0
   31    0
   39    6.9661189e-05
   40    0
   41    0
   42    0

BLOCK FWCOEF Q=  160
   305   4422   0   0   -0.18881911
   305   4422   0   2   -0.19057256
   305   4322   0   2   -4.5859352e-05
   305   6421   0   0   -0.095227835
   305   6421   0   2   -0.099210627
   305   6321   0   2   -8.5294068e-05
   3051111   4133   0   0    1.6257927
   3051111   4133   0   2    1.6260018
   3051111   4233   0   2    0.00023266883
   3051111   4137   0   0   -4.4484848
   3051111   4137   0   2   -4.4463207
   3051111   4237   0   2   -0.0017236439
   3051313   4133   0   0    1.6257927
   3051313   4133   0   2    1.6260014
   3051313   4233   0   2    0.00023266845
   3051313   4137   0   0   -4.4484848
   3051313   4137   0   2   -4.4463212
   3051313   4237   0   2   -0.0017236446
   3051212   4137   0   0    1.5053501
   3051212   4137   0   2    1.5048873
   3051212   4237   0   2    0.00037278926
   3051414   4137   0   0    1.5053501
   3051414   4137   0   2    1.5048873
   3051414   4237   0   2    0.00037278927
   3051616   4137   0   0    1.5053501
   3051616   4137   0   2    1.5048872
   3051616   4237   0   2    0.00037279387

BLOCK IMFWCOEF Q=  160
   305   4422   0   0    3.858144e-07
   305   4422   0   2   -4.7084257e-06
   305   4322   0   2    3.8872246e-07
   305   6421   0   0    3.3047555e-07
   305   6421   0   2   -4.551986e-06
   305   6321   0   2    9.2583795e-08
   3051111   4133   0   2    4.3259358e-07
   3051111   4233   0   2    4.5476991e-06
   3051111   4137   0   2    6.8095567e-07
   3051111   4237   0   2   -3.3692063e-05
   3051313   4133   0   2    4.3257973e-07
   3051313   4233   0   2    4.5476937e-06
   3051313   4137   0   2    6.8097145e-07
   3051313   4237   0   2   -3.3692077e-05
   3051212   4137   0   2   -5.225912e-08
   3051212   4237   0   2    7.2869149e-06
   3051414   4137   0   2   -5.225841e-08
   3051414   4237   0   2    7.2869149e-06
   3051616   4137   0   2   -5.4615378e-08
   3051616   4237   0   2    7.2869158e-06

DECAY 23  2.4952


DECAY 24  2.085


DECAY 2000011  12.698916
    0.98608442   2    1000022    11
    0.0064225221   2    1000035    11
    0.0064079279   2    1000023    11
    0.0010850829   2    1000025    11

DECAY 1000011  48.421564
    0.57650797   2   -1000024    12
    0.31958068   2    1000023    11
    0.067016968   2    1000022    11
    0.031569965   2   -1000037    12
    0.0048037877   2    1000035    11
    0.00052063757   2    1000025    11

DECAY 2000013  12.751878
    0.98198448   2    1000022    13
    0.0073755533   2    1000035    13
    0.006439157   2    1000023    13
    0.0021112516   2    1000025    13
    0.0019646902   2   -1000037    14
    0.00012486711   2   -1000024    14

DECAY 1000013  48.458469
    0.57606413   2   -1000024    14
    0.31935501   2    1000023    13
    0.066972782   2    1000022    13
    0.031545632   2   -1000037    14
    0.0051591727   2    1000035    13
    0.00089741211   2    1000025    13

DECAY 1000015  16.496188
    0.48794519   2    1000022    15
    0.23617789   2   -1000037    16
    0.12533413   2    1000025    15
    0.12064118   2    1000035    15
    0.018285154   2   -1000024    16
    0.011616451   2    1000023    15

DECAY 2000015  68.397602
    0.46945822   2   -1000024    16
    0.26499685   2    1000023    15
    0.088691065   2    1000025    15
    0.088204888   2    1000035    15
    0.05619021   2    1000022    15
    0.026653602   2   -1000037    16
    0.0029332671   2    1000015    23
    0.0028719035   2    1000015    25

DECAY 1000012  48.447499
    0.60134543   2    1000024    11
    0.26799243   2    1000023    12
    0.10750196   2    1000022    12
    0.01384908   2    1000035    12
    0.0074887591   2    1000037    11
    0.0018223377   2    1000025    12

DECAY 1000014  48.484094
    0.60093039   2    1000024    13
    0.26778789   2    1000023    14
    0.10741992   2    1000022    14
    0.013838498   2    1000035    14
    0.0082023602   2    1000037    13
    0.0018209452   2    1000025    14

DECAY 1000016  68.420319
    0.50058115   2    1000024    15
    0.21856983   2    1000023    16
    0.17445797   2    1000037    15
    0.08758248   2    1000022    16
    0.011443583   2    1000035    16
    0.0058598364   2    1000015    24
    0.0015051454   2    1000025    16

DECAY 2000001  2.415363
    0.98550985   2    1000022    1
    0.0068725055   2    1000035    1
    0.0064371535   2    1000023    1
    0.001165039   2    1000025    1

DECAY 1000001  59.526932
    0.62455153   2   -1000024    2
    0.3086016   2    1000023    1
    0.0350068   2   -1000037    2
    0.018952853   2    1000022    1
    0.011444761   2    1000035    1
    0.0014424618   2    1000025    1

DECAY 2000003  2.4422323
    0.97471747   2    1000022    3
    0.0093856016   2    1000035    3
    0.0065103272   2    1000023    3
    0.0052062618   2   -1000037    4
    0.0038694951   2    1000025    3
    0.00031084702   2   -1000024    4

DECAY 1000003  59.542383
    0.62438904   2   -1000024    4
    0.30852731   2    1000023    3
    0.035023785   2   -1000037    4
    0.018950127   2    1000022    3
    0.01155195   2    1000035    3
    0.0015577008   2    1000025    3

DECAY 1000005  23.437517
    0.44044568   2   -1000037    6
    0.2393837   2    1000025    5
    0.2264182   2    1000035    5
    0.044231663   2    1000022    5
    0.033407413   2   -1000024    6
    0.016113336   2    1000023    5

DECAY 2000005  145.64404
    0.47761916   2   -1000037    6
    0.20625137   2   -1000024    6
    0.10493428   2    1000023    5
    0.10088864   2    1000025    5
    0.0993975   2    1000035    5
    0.0080127826   2    1000022    5
    0.0018678241   2    1000005    25
    0.0010284288   2    1000005    23

DECAY 2000002  4.7373676
    0.98640995   2    1000022    2
    0.0063901086   2    1000023    2
    0.0061581262   2    1000035    2
    0.001041819   2    1000025    2

DECAY 1000002  59.57103
    0.6514821   2    1000024    1
    0.32684325   2    1000023    2
    0.0083051807   2    1000037    1
    0.0080889658   2    1000035    2
    0.0043206296   2    1000022    2
    0.00095987879   2    1000025    2

DECAY 2000004  4.7386911
    0.98613365   2    1000022    4
    0.0063892535   2    1000023    4
    0.0062246682   2    1000035    4
    0.0011122128   2    1000025    4
    0.00013814341   2    1000037    3

DECAY 1000004  59.586466
    0.65132587   2    1000024    3
    0.32675837   2    1000023    4
    0.0085236811   2    1000037    3
    0.0080997044   2    1000035    4
    0.0043195501   2    1000022    4
    0.00097281661   2    1000025    4

DECAY 1000006  153.76594
    0.22472255   2    1000025    6
    0.21885314   2    1000035    6
    0.21245977   2    1000024    5
    0.18251628   2    1000037    5
    0.10361144   2    1000023    6
    0.049489096   2    1000023    4
    0.0033303949   3    1000022    24    5
    0.0024094656   2    1000022    6
    0.0019526777   2    1000005    24
    0.00065517866   2    1000022    4

DECAY 2000006  171.35998
    0.4658959   2    1000037    5
    0.23442237   2    1000025    6
    0.23200146   2    1000035    6
    0.053093869   2    1000022    6
    0.0045728369   2    1000024    5
    0.0032296773   2    1000006    25
    0.0028863155   2    2000005    24
    0.0024779347   2    1000023    6
    0.0014173393   2    1000006    23

DECAY 1000024  1.2773672e-05
    0.33402225   3    1000022   -1    2
    0.33273972   3    1000022   -3    4
    0.11135426   3    1000022   -11    12
    0.11135218   3    1000022   -13    14
    0.11053158   3    1000022   -15    16

DECAY 1000037  3.7995228
    0.36547   2    1000023    24
    0.2881394   2    1000024    23
    0.26464681   2    1000024    25
    0.08047668   2    1000022    24
    0.00096557775   3    1000023   -5    6
    0.00030106779   3    1000022   -5    6

DECAY 1000022 -1


DECAY 1000023  7.5906767e-08
    0.18708332   3    1000022    12   -12
    0.14779258   3    1000022    1   -1
    0.14778571   3    1000022    3   -3
    0.1367396   3    1000022    5   -5
    0.11507256   3    1000022    2   -2
    0.11397803   3    1000022    4   -4
    0.058662265   2    1000022    22
    0.03116631   3    1000022    11   -11
    0.031164482   3    1000022    13   -13
    0.030554253   3    1000022    15   -15

DECAY 1000025  5.1058166
    0.21521791   2    1000024   -24
    0.21521791   2   -1000024    24
    0.20937737   2    1000023    23
    0.19378691   2    1000023    25
    0.087477505   2    1000022    23
    0.077995744   2    1000022    25
    0.00045437872   3    1000024    5   -6
    0.00045437872   3   -1000024   -5    6

DECAY 1000035  3.9913181
    0.32750788   2    1000024   -24
    0.32750788   2   -1000024    24
    0.20990166   2    1000023    25
    0.085175166   2    1000022    25
    0.030630145   2    1000023    23
    0.017221699   2    1000022    23
    0.001025456   3    1000024    5   -6
    0.001025456   3   -1000024   -5    6

DECAY 1000021  371.0893
    0.14381254   2    1000005   -5
    0.14381254   2   -1000005    5
    0.11839413   2    2000004   -4
    0.11839413   2   -2000004    4
    0.11839408   2    2000002   -2
    0.11839408   2   -2000002    2
    0.035889228   2    2000005   -5
    0.035889228   2   -2000005    5
    0.035831788   2    1000006   -6
    0.035831788   2   -1000006    6
    0.017684897   2    1000006   -4
    0.017684897   2   -1000006    4
    0.011057895   2    2000006   -6
    0.011057895   2   -2000006    6
    0.0051537874   2    2000003   -3
    0.0051537874   2   -2000003    3
    0.0051535905   2    2000001   -1
    0.0051535905   2   -2000001    1
    0.002156879   2    1000004   -4
    0.002156879   2   -1000004    4
    0.0021568332   2    1000002   -2
    0.0021568332   2   -1000002    2
    0.0021451196   2    1000003   -3
    0.0021451196   2   -1000003    3
    0.0021450509   2    1000001   -1
    0.0021450509   2   -1000001    1

DECAY 25  0.0035156208
    0.61804457   2   -5    5
    0.18120725   2   -24    24
    0.074563592   2    21    21
    0.070850132   2   -15    15
    0.030649541   2   -4    4
    0.020630129   2    23    23
    0.0023321306   2    22    22
    0.0012437837   2    22    23
    0.00024574358   2   -13    13
    0.00023231956   2   -3    3
    6.4234078e-07   2   -1    1
    1.579543e-07   2   -2    2
    5.5246296e-09   2   -11    11

DECAY 35  133.96829
    0.46106966   2   -5    5
    0.12202929   2   -1000024    1000037
    0.12202929   2   -1000037    1000024
    0.11032303   2   -15    15
    0.04464023   2    1000023    1000025
    0.042791453   2    1000023    1000035
    0.029588362   2    1000022    1000025
    0.028469295   2    1000022    1000035
    0.013469255   2   -1000024    1000024
    0.0051632649   2    1000025    1000035
    0.0051344115   2    1000022    1000023
    0.0051341399   2    1000035    1000035
    0.00398252   2    1000023    1000023
    0.0026222476   2   -1000037    1000037
    0.0016541615   2    1000022    1000022
    0.00072689006   2    1000025    1000025
    0.00057541153   2   -6    6
    0.00038213395   2   -13    13
    0.00019760827   2   -3    3
    9.1990672e-06   2   -1000005    1000005
    3.8520131e-06   2   -1000015    1000015
    2.9210908e-06   2    21    21
    5.4806169e-07   2    25    25
    5.4633389e-07   2   -1    1
    6.7276651e-08   2    22    23
    5.6451617e-08   2   -1000002    1000002
    5.6421209e-08   2   -1000004    1000004
    4.9020118e-08   2    23    23
    2.4176455e-08   2    22    22
    9.1115981e-09   2   -24    24
    8.5813707e-09   2   -11    11
    7.9366905e-09   2   -4    4
    4.0918257e-14   2   -2    2

DECAY 36  128.33232
    0.44577551   2   -5    5
    0.12781041   2   -1000024    1000037
    0.12781041   2   -1000037    1000024
    0.10667661   2   -15    15
    0.049624044   2    1000023    1000025
    0.041959147   2    1000023    1000035
    0.032953325   2    1000022    1000025
    0.027858273   2    1000022    1000035
    0.013713485   2   -1000024    1000024
    0.0052893123   2    1000035    1000035
    0.0052238766   2    1000022    1000023
    0.0051772442   2    1000025    1000035
    0.0040508461   2    1000023    1000023
    0.0023961632   2   -1000037    1000037
    0.0016835641   2    1000022    1000022
    0.00091123112   2    1000025    1000025
    0.00051959454   2   -6    6
    0.00036950372   2   -13    13
    0.00019105948   2   -3    3
    5.7023209e-06   2    21    21
    5.2822419e-07   2   -1    1
    1.2320913e-07   2    23    25
    2.684139e-08   2    22    23
    8.297844e-09   2   -11    11
    7.1305332e-09   2   -4    4
    1.0973897e-09   2    22    22
    5.5614674e-13   2    23    35
    3.6763066e-14   2   -2    2
    4.3418616e-39   2    25    25

DECAY 37  135.76212
    0.46651053   2   -5    6
    0.15255662   2    1000023    1000037
    0.12292673   2    1000024    1000025
    0.12203456   2    1000024    1000035
    0.11055924   2   -15    16
    0.01154208   2    1000022    1000037
    0.0070069589   2    1000022    1000024
    0.0039969072   2    1000025    1000037
    0.0012978101   2    1000035    1000037
    0.00069135397   2   -5    4
    0.00039086623   2   -13    14
    0.00029164891   2    1000023    1000024
    0.00017929298   2   -3    4
    8.434453e-06   2   -3    2
    4.9369799e-06   2   -5    2
    1.3310292e-06   2   -3    6
    4.9748619e-07   2   -1    2
    1.1640198e-07   2    24    25
    4.8773053e-08   2   -1    6
    2.3779938e-08   2   -1    4
    9.1424017e-09   2   -11    12
    4.6766036e-12   2   -1000005    1000004
    1.3870019e-14   2    24    35
    1.7516458e-19   2   -1000005    1000002

DECAY 6  2.43
    1   2    5    24

DECAY 15 -1
