BLOCK SPINFO
   1   SPheno
   2   v4.0.5be

BLOCK SPHENOINFO
   1   2
   2   2

BLOCK MODSEL
   1   0

BLOCK MINPAR
   3    23.885638
   4   -1

BLOCK EXTPAR
   0    1747.7877
   1   -946.70295
   2    2665.5246
   3    2814.5487
   11   -5484.183
   12   -4008.521
   13    5948.5311
   23   -1489.2878
   25    23.100409
   26    3070.1955
   31    4257.5032
   32    4257.5032
   33    1394.9892
   34    1618.7025
   35    1618.7025
   36    3094.1253
   41    3940.5035
   42    3940.5035
   43    3204.0878
   44    1288.8038
   45    1288.8038
   46    831.51101
   47    2413.2344
   48    2413.2344
   49    1181.7049

BLOCK SMINPUTS
   1    127.90897
   2    1.1663787e-05
   3    0.1184
   4    91.1876
   5    4.18
   6    173.2
   7    1.777
   8    0
   11    0.00051099893
   12    0
   13    0.10565837
   14    0
   21    0.005
   22    0.0025
   23    0.095
   24    1.27

BLOCK GAUGE Q=  1747.7877
   1    0.35536298
   2    0.66519887
   3    1.219778

BLOCK YU Q=  1747.7877
   1   1    8.3922245e-06
   2   2    0.00426325
   3   3    1.0138481

BLOCK YD Q=  1747.7877
   1   1    0.00038956238
   2   2    0.0074016852
   3   3    0.38632381

BLOCK YE Q=  1747.7877
   1   1    6.7981484e-05
   2   2    0.014056415
   3   3    0.23640577

BLOCK AU Q=  1747.7877
   1   1    0
   2   2    0
   3   3   -5484.1828

BLOCK AD Q=  1747.7877
   1   1    0
   2   2    0
   3   3   -4008.5204

BLOCK AE Q=  1747.7877
   1   1    0
   2   2    0
   3   3    5948.5311

BLOCK MSOFT Q=  1747.7877
   1   -946.70295
   2    2665.5246
   3    2814.5487
   21    7129705.5
   22   -2436659.5
   31    4257.5032
   32    4257.5032
   33    1394.9892
   34    1618.7025
   35    1618.7025
   36    3094.1253
   41    3940.5035
   42    3940.5035
   43    3204.0878
   44    1288.8038
   45    1288.8038
   46    831.51101
   47    2413.2344
   48    2413.2344
   49    1181.7049

BLOCK MASS
   6    173.2
   23    91.1876
   24    80.429995
   15    1.777
   25    123.19695
   35    3070.2027
   36    3070.1955
   37    3071.6203
   1000001    3977.9241
   2000001    2469.1535
   1000002    3977.3273
   2000002    1333.8284
   1000003    3977.9237
   2000003    2469.1547
   1000004    3977.3269
   2000004    1333.8298
   1000005    1239.7287
   2000005    3229.7252
   1000006    942.24956
   2000006    3241.988
   1000011    4263.3315
   2000011    1621.6558
   1000012    4262.2305
   1000013    4263.3307
   2000013    1621.6727
   1000014    4262.2296
   1000015    1412.5425
   2000015    3096.7338
   1000016    1409.6227
   1000021    2925.9001
   1000022   -939.39819
   1000023    1493.1599
   1000025   -1498.6525
   1000035    2726.5559
   1000024    1494.2578
   1000037    2726.5121

BLOCK ALPHA
      -0.0419234

BLOCK HMIX Q=  1747.7877
   1   -1489.2878
   2    23.100409
   3    243.92357
   4    9426100.1

BLOCK STOPMIX
   1   1    0.082401272
   1   2    0.99659923
   2   1   -0.99659923
   2   2    0.082401272

BLOCK SBOTMIX
   1   1   -0.0074396099
   1   2    0.99997233
   2   1   -0.99997233
   2   2   -0.0074396099

BLOCK STAUMIX
   1   1   -0.99996069
   1   2    0.0088670741
   2   1   -0.0088670741
   2   2   -0.99996069

BLOCK NMIX
   1   1    0.99806381
   1   2    0.0007480757
   1   3   -0.052181778
   1   4    0.033839833
   2   1   -0.013000864
   2   2   -0.043416766
   2   3   -0.70698199
   2   4   -0.70577789
   3   1    0.060822501
   3   2   -0.01363199
   3   3    0.70498915
   3   4   -0.7064737
   4   1   -0.00048245098
   4   2    0.99896376
   4   3   -0.021067261
   4   4   -0.040340353

BLOCK UMIX
   1   1   -0.029832897
   1   2   -0.9995549
   2   1    0.9995549
   2   2   -0.029832897

BLOCK VMIX
   1   1   -0.057120214
   1   2    0.99836731
   2   1    0.99836731
   2   2    0.057120214

BLOCK HIGGSBOUNDSINPUTHIGGSCOUPLINGSFERMIONS
       0, 533.6289,3,36,15,15

BLOCK HIGGSBOUNDSINPUTHIGGSCOUPLINGSBOSONS
       0,4,36,21,21,23

BLOCK SPHENOLOWENERGY
   1    0.00035306851
   2    1.5899854e-06
   3    3.5301406e-05
   4    2.434361e-15
   5    1.0399337e-10
   6    2.1787784e-08
   7    8.2241893e-14
   8    3.5133787e-09
   9    7.4582697e-07
   10    9.6290384e-05
   11    0.99464281
   12    0.54354004
   13    19.417934
   14    0
   15    0
   16    0.0021668217
   17    2.281756e-15
   18    2.4834009e-11
   19    8.2984429e-11
   20   -8.116859e-16
   21   -3.470308e-11
   22   -1.2080655e-08
   23    0
   24    0
   25    0
   26    0
   27    0
   28    0
   29    0
   30    0
   31    0
   39    6.6391616e-05
   40    0
   41    0
   42    0

BLOCK FWCOEF Q=  160
   305   4422   0   0   -0.18881911
   305   4422   0   2   -0.22503923
   305   4322   0   2   -0.00059845165
   305   6421   0   0   -0.095227835
   305   6421   0   2   -0.12273349
   305   6321   0   2   -0.00045449945
   3051111   4133   0   0    1.5973368
   3051111   4133   0   2    1.5981289
   3051111   4233   0   2    7.431982e-05
   3051111   4137   0   0   -4.4200289
   3051111   4137   0   2   -4.4231693
   3051111   4237   0   2   -0.00057370366
   3051313   4133   0   0    1.5973368
   3051313   4133   0   2    1.5981284
   3051313   4233   0   2    7.4319737e-05
   3051313   4137   0   0   -4.4200289
   3051313   4137   0   2   -4.4231698
   3051313   4237   0   2   -0.00057370373
   3051212   4137   0   0    1.5053501
   3051212   4137   0   2    1.506035
   3051212   4237   0   2    0.00012487962
   3051414   4137   0   0    1.5053501
   3051414   4137   0   2    1.506035
   3051414   4237   0   2    0.00012487962
   3051616   4137   0   0    1.5053501
   3051616   4137   0   2    1.5060348
   3051616   4237   0   2    0.00012488171

BLOCK IMFWCOEF Q=  160
   305   4422   0   0    3.8570259e-07
   305   4422   0   2   -1.0405672e-05
   305   4322   0   2   -8.652071e-06
   305   6421   0   0    3.3037977e-07
   305   6421   0   2    1.100965e-05
   305   6321   0   2   -5.4053219e-06
   3051111   4133   0   2   -7.6599258e-07
   3051111   4233   0   2    1.5644903e-06
   3051111   4137   0   2    7.2544354e-06
   3051111   4237   0   2   -1.2080194e-05
   3051313   4133   0   2   -7.6599936e-07
   3051313   4233   0   2    1.5644895e-06
   3051313   4137   0   2    7.2544293e-06
   3051313   4237   0   2   -1.2080196e-05
   3051212   4137   0   2   -1.5570369e-06
   3051212   4237   0   2    2.62953e-06
   3051414   4137   0   2   -1.5570369e-06
   3051414   4237   0   2    2.62953e-06
   3051616   4137   0   2   -1.5608852e-06
   3051616   4237   0   2    2.6295294e-06

DECAY 23  2.4952


DECAY 24  2.085


DECAY 2000011  3.5839423
    0.99981194   2    1000022    11
    0.00017915357   2    1000025    11

DECAY 1000011  24.544736
    0.53360684   2   -1000037    12
    0.26633858   2    1000035    11
    0.19730604   2    1000022    11
    0.0014925742   2    1000023    11
    0.0010470532   2   -1000024    12
    0.00020890885   2    1000025    11

DECAY 2000013  3.5843498
    0.99973211   2    1000022    13
    0.00019791426   2    1000025    13

DECAY 1000013  24.558481
    0.5333078   2   -1000037    14
    0.26618941   2    1000035    13
    0.19719723   2    1000022    13
    0.0017542853   2    1000023    13
    0.0010464669   2   -1000024    14
    0.00046930763   2    1000025    13

DECAY 1000015  0.55304555
    1   2    1000022    15

DECAY 2000015  18.466642
    0.69221263   2    1000022    15
    0.1094649   2   -1000024    16
    0.056282326   2    1000025    15
    0.05487695   2    1000023    15
    0.042701788   2    1000016   -24
    0.023163115   2    1000015    25
    0.021255918   2    1000015    23

DECAY 1000012  24.549273
    0.53172333   2    1000037    11
    0.26630492   2    1000035    12
    0.19610458   2    1000022    12
    0.0038362211   2    1000024    11
    0.0012486508   2    1000025    12
    0.00078230677   2    1000023    12

DECAY 1000014  24.562138
    0.53144456   2    1000037    13
    0.26616522   2    1000035    14
    0.19600181   2    1000022    14
    0.0043585235   2    1000024    13
    0.0012479964   2    1000025    14
    0.00078189675   2    1000023    14

DECAY 1000016  0.54352219
    1   2    1000022    16

DECAY 2000001  1.0065603
    0.9978798   2    1000022    1
    0.0020226094   2    1000025    1

DECAY 1000001  81.438455
    0.81225461   2    1000021    1
    0.12077377   2   -1000037    2
    0.060322414   2    1000035    1
    0.0060039793   2    1000022    1
    0.00028231413   2   -1000024    2
    0.00026811953   2    1000023    1

DECAY 2000003  1.0087153
    0.99575454   2    1000022    3
    0.0025454381   2    1000025    3
    0.0010706473   2   -1000024    4
    0.00062937731   2    1000023    3

DECAY 1000003  81.44284
    0.81221044   2    1000021    3
    0.12076721   2   -1000037    4
    0.060319141   2    1000035    3
    0.0060037858   2    1000022    3
    0.00029524727   2   -1000024    4
    0.00028769614   2    1000023    3
    0.00011420048   2    1000025    3

DECAY 1000005  0.12756459
    0.99974378   2    1000022    5
    0.00025621758   2    1000006   -24

DECAY 2000005  178.16879
    0.66731197   2    1000006   -24
    0.22567694   2   -1000024    6
    0.046000516   2    1000021    5
    0.016702001   2    1000023    5
    0.016517408   2    1000025    5
    0.013002526   2   -1000037    6
    0.006575194   2    1000035    5
    0.0038193307   2    1000005    25
    0.002198694   2    1000005    23
    0.0021954233   2    1000022    5

DECAY 2000002  0.75364106
    1   2    1000022    2

DECAY 1000002  81.413714
    0.81180485   2    1000021    2
    0.1204414   2    1000037    1
    0.060278867   2    1000035    2
    0.006106643   2    1000022    2
    0.0010351212   2    1000024    1
    0.00033188175   2    1000023    2

DECAY 2000004  0.7536403
    1   2    1000022    4

DECAY 1000004  81.41784
    0.81176234   2    1000021    4
    0.12043525   2    1000037    3
    0.060275783   2    1000035    4
    0.0061063455   2    1000022    4
    0.0010742188   2    1000024    3
    0.00033832932   2    1000023    4

DECAY 1000006  1.4036544e-08
    1   2    1000022    4

DECAY 2000006  200.52297
    0.4106039   2    1000006    25
    0.29826173   2    1000006    23
    0.10164545   2    1000023    6
    0.10160226   2    1000025    6
    0.033000893   2    1000021    6
    0.029949175   2    1000024    5
    0.012247297   2    1000037    5
    0.0060623197   2    1000035    6
    0.0039440507   2    1000005    24
    0.0026829209   2    1000022    6

DECAY 1000024  18.097338
    0.91576554   2    1000006   -5
    0.05502234   2    1000022    24
    0.028010308   2   -1000005    6
    0.0006294235   3    1000022   -5    6
    0.00056603146   2    1000016   -15

DECAY 1000037  33.116848
    0.19393926   2    1000016   -15
    0.1937324   2   -1000015    16
    0.15106221   2    1000024    25
    0.14717942   2    1000025    24
    0.14674355   2    1000024    23
    0.14668723   2    1000023    24
    0.0072313025   3    1000024    6   -6
    0.00657264   3    1000025   -5    6
    0.0055440424   3    1000023   -5    6
    0.0010850244   2    1000022    24

DECAY 1000022 -1


DECAY 1000023  19.250051
    0.44104141   2    1000006   -6
    0.44104141   2   -1000006    6
    0.049733042   2    1000022    23
    0.034141871   2    1000022    25
    0.016678126   2    1000005   -5
    0.016678126   2   -1000005    5
    0.0002414599   2    1000015   -15
    0.0002414599   2   -1000015    15
    0.00018463593   3    1000022    6   -6

DECAY 1000025  19.199376
    0.46076355   2    1000006   -6
    0.46076355   2   -1000006    6
    0.04077069   2    1000022    25
    0.017239998   2    1000005   -5
    0.017239998   2   -1000005    5
    0.0022956948   2    1000022    23
    0.0002680637   2    1000015   -15
    0.0002680637   2   -1000015    15
    0.00021046217   3    1000022    6   -6

DECAY 1000035  38.006185
    0.14127063   2    1000025    25
    0.1285501   2    1000024   -24
    0.1285501   2   -1000024    24
    0.11935821   2    1000023    25
    0.11677404   2    1000025    23
    0.084630181   2    1000016   -16
    0.084630181   2   -1000016    16
    0.084277431   2    1000015   -15
    0.084277431   2   -1000015    15
    0.011562236   2    1000023    23
    0.0044286884   3    1000024    5   -6
    0.0044286884   3   -1000024   -5    6
    0.0029358607   3    1000025    6   -6
    0.0025402223   3    1000023    6   -6
    0.00081273929   2    1000022    25
    0.00075650411   2    1000022    23

DECAY 1000021  249.7156
    0.13617059   2    1000006   -6
    0.13617059   2   -1000006    6
    0.1167412   2    1000005   -5
    0.1167412   2   -1000005    5
    0.10882449   2    2000002   -2
    0.10882449   2   -2000002    2
    0.10882436   2    2000004   -4
    0.10882436   2   -2000004    4
    0.014367453   2    2000001   -1
    0.014367453   2   -2000001    1
    0.014367379   2    2000003   -3
    0.014367379   2   -2000003    3
    0.00046647877   2    1000006   -4
    0.00046647877   2   -1000006    4
    0.00019802036   3    1000022    6   -6

DECAY 25  0.0036417522
    0.60037036   2   -5    5
    0.20066192   2   -24    24
    0.072861817   2    21    21
    0.068829097   2   -15    15
    0.029671953   2   -4    4
    0.023427272   2    23    23
    0.0023610473   2    22    22
    0.0013515729   2    22    23
    0.00023876177   2   -13    13
    0.00022540985   2   -3    3
    6.2323586e-07   2   -1    1
    1.5291212e-07   2   -2    2
    5.3676532e-09   2   -11    11

DECAY 35  25.318323
    0.79071875   2   -5    5
    0.12072806   2   -15    15
    0.044994468   2    1000022    1000023
    0.019706421   2   -1000006    1000006
    0.014091976   2    1000022    1000025
    0.0084238784   2   -6    6
    0.0004553201   2   -13    13
    0.00032827014   2   -3    3
    0.00031988593   2    1000022    1000022
    7.2422957e-05   2   -1000005    1000005
    5.6572415e-05   2   -1000024    1000024
    4.3577353e-05   2   -1000015    1000015
    1.2915429e-05   2    1000023    1000023
    1.2313496e-05   2    21    21
    1.2106705e-05   2    1000025    1000025
    1.0893176e-05   2    25    25
    5.1513832e-06   2    1000023    1000025
    1.5886705e-06   2   -1000002    1000002
    1.5879299e-06   2   -1000004    1000004
    1.5018007e-06   2    23    23
    9.0782846e-07   2   -1    1
    4.3991341e-07   2   -24    24
    1.0399844e-07   2   -4    4
    3.6841557e-08   2    22    23
    1.0226092e-08   2   -11    11
    6.3885217e-09   2    22    22
    5.3607466e-13   2   -2    2

DECAY 36  24.112028
    0.80364562   2   -5    5
    0.12269931   2   -15    15
    0.045841979   2    1000022    1000025
    0.01538027   2    1000022    1000023
    0.0096545359   2   -6    6
    0.00089268518   2   -1000024    1000024
    0.00060420349   2    1000022    1000022
    0.00046274633   2   -13    13
    0.00033362828   2   -3    3
    0.00027143883   2    1000025    1000025
    0.00018642363   2    1000023    1000023
    2.3217722e-05   2    21    21
    2.6076023e-06   2    23    25
    9.2264656e-07   2   -1    1
    1.3183262e-07   2    22    22
    1.307964e-07   2    22    23
    1.1817843e-07   2   -4    4
    1.717062e-08   2    1000023    1000025
    1.0392879e-08   2   -11    11
    6.0923129e-13   2   -2    2
    5.6301712e-40   2    25    25

DECAY 37  22.752181
    0.77675996   2   -5    6
    0.15403286   2   -15    16
    0.066657238   2    1000022    1000024
    0.0011382784   2   -5    4
    0.00054456115   2   -13    14
    0.00041445391   2   -1000005    1000006
    0.00033683522   2   -3    4
    3.1788108e-05   2    1000023    1000024
    3.1516146e-05   2   -1000015    1000016
    1.5775316e-05   2   -3    2
    1.3742392e-05   2   -3    6
    1.0487749e-05   2    1000024    1000025
    8.1284814e-06   2   -5    2
    2.7689619e-06   2    24    25
    9.3482431e-07   2   -1    2
    6.0741057e-07   2   -1    6
    4.9218753e-08   2   -1    4
    1.2737342e-08   2   -11    12
    2.4752294e-11   2   -1000005    1000004
    3.5135112e-13   2    24    36
    3.4251606e-13   2    24    35
    9.2711012e-19   2   -1000005    1000002

DECAY 6  2.43
    1   2    5    24

DECAY 15 -1
