BLOCK SPINFO
   1   SPheno
   2   v4.0.5be

BLOCK SPHENOINFO
   1   2
   2   2

BLOCK MODSEL
   1   0

BLOCK MINPAR
   3    57.898109
   4    1

BLOCK EXTPAR
   0    1331.2286
   1    1864.3016
   2   -1623.6538
   3    3000
   11   -4277.0598
   12    212.36609
   13   -1444.8577
   23    525.24126
   25    57.712665
   26    2962.3168
   31    1911.2795
   32    1911.2795
   33    1657.4143
   34    1186.669
   35    1186.669
   36    1125.6699
   41    5000
   42    5000
   43    1619.706
   44    5000
   45    5000
   46    1285.03
   47    5000
   48    5000
   49    697.05085

BLOCK SMINPUTS
   1    127.90897
   2    1.1663787e-05
   3    0.1184
   4    91.1876
   5    4.18
   6    173.2
   7    1.777
   8    0
   11    0.00051099893
   12    0
   13    0.10565837
   14    0
   21    0.005
   22    0.0025
   23    0.095
   24    1.27

BLOCK GAUGE Q=  1331.2286
   1    0.35536298
   2    0.66519887
   3    1.219778

BLOCK YU Q=  1331.2286
   1   1    8.3856307e-06
   2   2    0.0042599004
   3   3    1.0130515

BLOCK YD Q=  1331.2286
   1   1    0.0009724944
   2   2    0.018477394
   3   3    0.96440971

BLOCK YE Q=  1331.2286
   1   1    0.00016970739
   2   2    0.035090105
   3   3    0.59015784

BLOCK AU Q=  1331.2286
   1   1    0
   2   2    0
   3   3   -4277.0599

BLOCK AD Q=  1331.2286
   1   1    0
   2   2    0
   3   3    212.36608

BLOCK AE Q=  1331.2286
   1   1    0
   2   2    0
   3   3   -1444.8577

BLOCK MSOFT Q=  1331.2286
   1    1864.3016
   2   -1623.6538
   3    3000
   21    8574558.4
   22   -245592.22
   31    1911.2795
   32    1911.2795
   33    1657.4143
   34    1186.669
   35    1186.669
   36    1125.6699
   41    5000
   42    5000
   43    1619.706
   44    5000
   45    5000
   46    1285.03
   47    5000
   48    5000
   49    697.05085

BLOCK MASS
   6    173.2
   23    91.1876
   24    80.429995
   15    1.777
   25    120.51138
   35    2959.0824
   36    2962.3168
   37    2960.7357
   1000001    5021.5526
   2000001    5013.7538
   1000002    5021.1267
   2000002    5015.0365
   1000003    5021.5632
   2000003    5013.7677
   1000004    5021.1353
   2000004    5015.0374
   1000005    621.87493
   2000005    1564.7653
   1000006    1072.3938
   2000006    1652.5361
   1000011    1921.7751
   2000011    1191.8209
   1000012    1919.7951
   1000013    1921.7692
   2000013    1191.8156
   1000014    1919.788
   1000015    1131.9157
   2000015    1669.5459
   1000016    1666.7204
   1000021    3183.4809
   1000022   -529.42896
   1000023    531.2351
   1000025   -1678.058
   1000035    1860.8223
   1000024    530.33801
   1000037    1678.2379

BLOCK ALPHA
      -0.017336288

BLOCK HMIX Q=  1331.2286
   1    525.24126
   2    57.712665
   3    244.10365
   4    8775320.7

BLOCK STOPMIX
   1   1    0.41287648
   1   2    0.91078703
   2   1   -0.91078703
   2   2    0.41287648

BLOCK SBOTMIX
   1   1    0.029503908
   1   2    0.99956466
   2   1   -0.99956466
   2   2    0.029503908

BLOCK STAUMIX
   1   1    0.035248639
   1   2    0.99937857
   2   1   -0.99937857
   2   2    0.035248639

BLOCK NMIX
   1   1    0.012987137
   1   2    0.047286171
   1   3   -0.70740958
   1   4   -0.70510073
   2   1    0.024421397
   2   2    0.025772381
   2   3    0.70659317
   2   4   -0.70672872
   3   1    0.00068057035
   3   2   -0.99854869
   3   3   -0.015257698
   3   4   -0.051645478
   4   1    0.99961716
   4   2   -0.00056414291
   4   3   -0.0080614694
   4   4    0.026461822

BLOCK UMIX
   1   1   -0.021573919
   1   2    0.99976726
   2   1   -0.99976726
   2   2   -0.021573919

BLOCK VMIX
   1   1    0.073019305
   1   2    0.99733053
   2   1    0.99733053
   2   2   -0.073019305

BLOCK HIGGSBOUNDSINPUTHIGGSCOUPLINGSFERMIONS
       0, 3330.7517,3,36,15,15

BLOCK HIGGSBOUNDSINPUTHIGGSCOUPLINGSBOSONS
       0,4,36,21,21,23

BLOCK SPHENOLOWENERGY
   1    0.00022990816
   2    1.618084e-06
   3    3.5257497e-05
   4    2.6920278e-15
   5    1.1499334e-10
   6    2.3670381e-08
   7    8.9910633e-14
   8    3.8407535e-09
   9    8.0157226e-07
   10    9.5686049e-05
   11    0.98840026
   12    0.5421521
   13    19.361418
   14    0
   15    0
   16    0.0021575918
   17    2.2816632e-15
   18    2.482899e-11
   19    8.2961272e-11
   20   -5.5691615e-15
   21   -2.3810472e-10
   22   -7.2408203e-08
   23    0
   24    0
   25    0
   26    0
   27    0
   28    0
   29    0
   30    0
   31    0
   39    8.9146911e-05
   40    0
   41    0
   42    0

BLOCK FWCOEF Q=  160
   305   4422   0   0   -0.18881911
   305   4422   0   2   -0.069566125
   305   4322   0   2    0.00062448697
   305   6421   0   0   -0.095227835
   305   6421   0   2   -0.036015727
   305   6321   0   2    0.00015849405
   3051111   4133   0   0    1.5886217
   3051111   4133   0   2    1.5899346
   3051111   4233   0   2    0.00050334505
   3051111   4137   0   0   -4.4113138
   3051111   4137   0   2   -4.4102724
   3051111   4237   0   2   -0.0039375976
   3051313   4133   0   0    1.5886217
   3051313   4133   0   2    1.5899292
   3051313   4233   0   2    0.00050334004
   3051313   4137   0   0   -4.4113138
   3051313   4137   0   2   -4.4102778
   3051313   4237   0   2   -0.0039376061
   3051212   4137   0   0    1.5053501
   3051212   4137   0   2    1.5051271
   3051212   4237   0   2    0.00085880727
   3051414   4137   0   0    1.5053501
   3051414   4137   0   2    1.5051271
   3051414   4237   0   2    0.00085880755
   3051616   4137   0   0    1.5053501
   3051616   4137   0   2    1.5051271
   3051616   4237   0   2    0.00085888645

BLOCK IMFWCOEF Q=  160
   305   4422   0   0    3.8592287e-07
   305   4422   0   2   -1.6174724e-05
   305   4322   0   2    1.336905e-05
   305   6421   0   0    3.3056846e-07
   305   6421   0   2   -3.374522e-05
   305   6321   0   2    5.7148774e-06
   3051111   4133   0   2   -3.5403261e-06
   3051111   4233   0   2    1.0422244e-05
   3051111   4137   0   2    2.8996463e-05
   3051111   4237   0   2   -8.1550741e-05
   3051313   4133   0   2   -3.5402704e-06
   3051313   4233   0   2    1.0422179e-05
   3051313   4137   0   2    2.8996542e-05
   3051313   4237   0   2   -8.1550917e-05
   3051212   4137   0   2   -6.24353e-06
   3051212   4237   0   2    1.7786565e-05
   3051414   4137   0   2   -6.2435302e-06
   3051414   4237   0   2    1.7786565e-05
   3051616   4137   0   2   -6.2444591e-06
   3051616   4237   0   2    1.7786567e-05

DECAY 23  2.4952


DECAY 24  2.085


DECAY 2000011  0.0029449784
    0.77880572   2    1000023    11
    0.22104521   2    1000022    11
    0.00014907267   2   -1000024    12

DECAY 1000011  1.4767606
    0.64528562   2   -1000037    12
    0.32206567   2    1000025    11
    0.014382493   2    1000022    11
    0.007362985   2    1000023    11
    0.0063524825   2    1000035    11
    0.0045507356   2   -1000024    12

DECAY 2000013  0.040485284
    0.46360374   2   -1000024    14
    0.28780937   2    1000023    13
    0.24858689   2    1000022    13

DECAY 1000013  1.5179303
    0.62775713   2   -1000037    14
    0.31331778   2    1000025    13
    0.027244733   2    1000022    13
    0.020371758   2    1000023    13
    0.0061789967   2    1000035    13
    0.0044272911   2   -1000024    14
    0.00070231306   2    2000013    25

DECAY 1000015  9.5608389
    0.49969958   2   -1000024    16
    0.25138852   2    1000022    15
    0.24891189   2    1000023    15

DECAY 2000015  9.9909251
    0.46898283   2    1000022    15
    0.46838143   2    1000023    15
    0.032876768   2    1000015    25
    0.029646976   2    1000015    23
    0.00011199018   2   -1000024    16

DECAY 1000012  1.5029581
    0.62197089   2    1000037    11
    0.31240634   2    1000025    12
    0.0511531   2    1000024    11
    0.0078136654   2    1000022    12
    0.0058795743   2    1000035    12
    0.00077642552   2    1000023    12

DECAY 1000014  1.5429913
    0.60580265   2    1000037    13
    0.30428522   2    1000025    14
    0.075819256   2    1000024    13
    0.0076109009   2    1000022    14
    0.0057256925   2    1000035    14
    0.00075627729   2    1000023    14

DECAY 1000016  9.9898743
    0.93979679   2    1000024    15
    0.059140784   2    1000015    24
    0.00096642898   2    1000022    16

DECAY 2000001  143.05542
    0.98544766   2    1000021    1
    0.014536404   2    1000035    1

DECAY 1000001  194.64462
    0.728433   2    1000021    1
    0.17912305   2   -1000037    2
    0.089369842   2    1000025    1
    0.0026947154   2    1000035    1
    0.00022483404   2    1000022    1
    0.00010335806   2   -1000024    2

DECAY 2000003  143.12327
    0.98499053   2    1000021    3
    0.01452959   2    1000035    3
    0.00023253598   2   -1000024    4
    0.00012754742   2    1000023    3
    0.00011965675   2    1000022    3

DECAY 1000003  194.68091
    0.72830285   2    1000021    3
    0.17909026   2   -1000037    4
    0.089353499   2    1000025    3
    0.0026942311   2    1000035    3
    0.0003102878   2    1000022    3
    0.00013647372   2    1000023    3
    0.00011239221   2   -1000024    4

DECAY 1000005  0.85289749
    0.51041735   2    1000022    5
    0.48958265   2    1000023    5

DECAY 2000005  112.33403
    0.56523945   2    1000006   -24
    0.21509597   2   -1000024    6
    0.10107096   2    1000022    5
    0.10082193   2    1000023    5
    0.011846273   2    1000005    25
    0.0059254201   2    1000005    23

DECAY 2000002  149.43706
    0.94425804   2    1000021    2
    0.055685872   2    1000035    2

DECAY 1000002  194.63822
    0.72822908   2    1000021    2
    0.1782341   2    1000037    1
    0.089318015   2    1000025    2
    0.002660488   2    1000035    2
    0.0011844354   2    1000024    1
    0.00027315457   2    1000022    2
    0.00010072631   2    1000023    2

DECAY 2000004  149.44064
    0.94423569   2    1000021    4
    0.055684561   2    1000035    4

DECAY 1000004  194.67421
    0.72809874   2    1000021    4
    0.17820167   2    1000037    3
    0.089301719   2    1000025    4
    0.0026600063   2    1000035    4
    0.0013549746   2    1000024    3
    0.00027763575   2    1000022    4
    0.00010525768   2    1000023    4

DECAY 1000006  21.081542
    0.55727171   2    1000024    5
    0.22179901   2    1000023    6
    0.21921679   2    1000022    6
    0.0016395192   2    1000005    24

DECAY 2000006  124.42382
    0.32545997   2    1000006    23
    0.22522617   2    1000006    25
    0.20953247   2    1000024    5
    0.11425445   2    1000022    6
    0.11293006   2    1000023    6
    0.011147143   2    1000005    24
    0.0014497424   2    2000005    24

DECAY 1000024  1.4464998e-12
    0.60772984   3    1000022   -1    2
    0.20261624   3    1000022   -11    12
    0.18965392   3    1000022   -13    14

DECAY 1000037  16.205731
    0.21689368   2    1000024    25
    0.21023567   2    1000022    24
    0.20929658   2    1000023    24
    0.20794571   2    1000024    23
    0.12614369   2    1000006   -5
    0.011250068   3    1000024    6   -6
    0.0086798192   3    1000022   -5    6
    0.0083780615   3    1000023   -5    6
    0.00093839292   2    2000006   -5

DECAY 1000022 -1


DECAY 1000023  1.3175756e-09
    0.96469221   2    1000022    22
    0.010231741   3    1000022    12   -12
    0.0076504123   3    1000022    1   -1
    0.0074090451   3    1000022    3   -3
    0.0059670157   3    1000022    2   -2
    0.0017266149   3    1000022    11   -11
    0.0016417373   3    1000022    13   -13
    0.00020706877   3    1000024    1   -2
    0.00020706877   3   -1000024   -1    2

DECAY 1000025  18.756672
    0.18144957   2    1000024   -24
    0.18144957   2   -1000024    24
    0.15648282   2    1000023    25
    0.1445778   2    1000022    25
    0.14052044   2    1000023    23
    0.056793116   2    1000006   -6
    0.056793116   2   -1000006    6
    0.041358884   2    1000022    23
    0.010017232   2    2000005   -5
    0.010017232   2   -2000005    5
    0.0068593778   3    1000024    5   -6
    0.0068593778   3   -1000024   -5    6
    0.0033886689   3    1000023    6   -6
    0.0032191116   3    1000022    6   -6

DECAY 1000035  22.770287
    0.08623305   2    1000006   -6
    0.08623305   2   -1000006    6
    0.081312346   2    1000015   -15
    0.081312346   2   -1000015    15
    0.071362536   2    2000013   -13
    0.071362536   2   -2000013    13
    0.071361642   2    2000011   -11
    0.071361642   2   -2000011    11
    0.05694113   2    1000024   -24
    0.05694113   2   -1000024    24
    0.053804302   2    1000005   -5
    0.053804302   2   -1000005    5
    0.044563569   2    1000022    23
    0.040065259   2    1000023    25
    0.037320872   2    1000022    25
    0.012677838   2    1000023    23
    0.0030551498   2    2000006   -6
    0.0030551498   2   -2000006    6
    0.0020980489   3    1000024    5   -6
    0.0020980489   3   -1000024   -5    6
    0.002009648   2    1000016   -16
    0.002009648   2   -1000016    16
    0.0019603639   2    2000015   -15
    0.0019603639   2   -2000015    15
    0.0015094597   2    2000005   -5
    0.0015094597   2   -2000005    5
    0.0010482122   3    1000023    6   -6
    0.00099767498   3    1000022    6   -6

DECAY 1000021  271.48633
    0.16052852   2    1000005   -5
    0.16052852   2   -1000005    5
    0.12373776   2    1000006   -6
    0.12373776   2   -1000006    6
    0.1026404   2    2000006   -6
    0.1026404   2   -2000006    6
    0.09983955   2    2000005   -5
    0.09983955   2   -2000005    5
    0.011093923   2    1000006   -4
    0.011093923   2   -1000006    4
    0.0019005896   3    1000024    5   -6
    0.0019005896   3   -1000024   -5    6
    0.00010171185   3    1000037    5   -6
    0.00010171185   3   -1000037   -5    6
    0.00010039957   3    1000025    5   -5

DECAY 25  0.0032841752
    0.63447395   2   -5    5
    0.16452398   2   -24    24
    0.073966221   2    21    21
    0.073221859   2   -15    15
    0.031560249   2   -4    4
    0.018195082   2    23    23
    0.0024077511   2    22    22
    0.0011554433   2    22    23
    0.0002539831   2   -13    13
    0.00024064783   2   -3    3
    6.6536821e-07   2   -1    1
    1.626489e-07   2   -2    2
    5.7098846e-09   2   -11    11

DECAY 35  118.11198
    0.68987971   2   -5    5
    0.14527939   2   -15    15
    0.042796508   2   -1000024    1000037
    0.042796508   2   -1000037    1000024
    0.02699447   2    1000023    1000025
    0.015894418   2    1000022    1000025
    0.0065461769   2   -2000015    1000015
    0.0065461769   2   -1000015    2000015
    0.0063688189   2    1000022    1000035
    0.0057287256   2   -1000006    1000006
    0.0027729343   2   -2000006    1000006
    0.0027729343   2   -1000006    2000006
    0.0025833083   2    1000023    1000035
    0.0010164616   2   -1000024    1000024
    0.00051260677   2   -13    13
    0.00031750061   2   -2000005    1000005
    0.00031750061   2   -1000005    2000005
    0.00030314437   2   -3    3
    0.00023943996   2   -6    6
    0.000167337   2    1000022    1000022
    7.150484e-05   2   -1000015    1000015
    3.8273652e-05   2    1000022    1000023
    2.5914606e-05   2    25    25
    1.694969e-05   2    1000023    1000023
    7.1462874e-06   2    21    21
    4.9823618e-06   2   -1000005    1000005
    8.3805456e-07   2   -1    1
    1.9486345e-07   2    23    23
    5.991275e-08   2   -24    24
    1.9761293e-08   2    22    23
    1.1512937e-08   2   -11    11
    8.8906217e-09   2   -1000011    1000011
    8.6904736e-09   2   -1000013    1000013
    6.4758986e-09   2   -4    4
    2.7151868e-09   2    22    22
    3.3392814e-14   2   -2    2

DECAY 36  109.19433
    0.67759939   2   -5    5
    0.14276537   2   -15    15
    0.046371986   2   -1000024    1000037
    0.046371986   2   -1000037    1000024
    0.029364623   2    1000022    1000025
    0.017162506   2    1000023    1000025
    0.007174641   2   -2000015    1000015
    0.007174641   2   -1000015    2000015
    0.0068935963   2    1000023    1000035
    0.0065441147   2   -2000006    1000006
    0.0065441147   2   -1000006    2000006
    0.0028435035   2    1000022    1000035
    0.0012323072   2   -1000024    1000024
    0.0005037478   2   -13    13
    0.0003457868   2   -2000005    1000005
    0.0003457868   2   -1000005    2000005
    0.00029786777   2   -3    3
    0.00019329893   2    1000022    1000022
    0.00018837652   2   -6    6
    4.1617095e-05   2    1000022    1000023
    2.2522362e-05   2    1000023    1000023
    1.6992831e-05   2    21    21
    8.234626e-07   2   -1    1
    3.4056254e-07   2    23    25
    3.724124e-08   2    22    23
    1.131395e-08   2   -11    11
    9.0075218e-09   2    22    22
    5.8187345e-09   2   -4    4
    3.5594858e-12   2    23    35
    3.0009064e-14   2   -2    2
    1.031112e-37   2    25    25

DECAY 37  141.24818
    0.72352487   2   -5    6
    0.14052084   2   -15    16
    0.036236659   2    1000022    1000037
    0.035931895   2    1000024    1000025
    0.035823082   2    1000023    1000037
    0.011118164   2   -1000015    1000016
    0.0074727194   2    1000024    1000035
    0.0051306009   2   -2000005    1000006
    0.0018801715   2   -1000005    1000006
    0.0010728337   2   -5    4
    0.00049679136   2   -13    14
    0.00029818877   2    1000023    1000024
    0.00023906405   2   -3    4
    0.00014961225   2   -1000005    2000006
    8.3963443e-05   2    1000022    1000024
    1.1195416e-05   2   -3    2
    7.6611401e-06   2   -5    2
    7.059863e-07   2   -3    6
    6.6290867e-07   2   -1    2
    2.6302193e-07   2    24    25
    3.1101154e-08   2   -1    4
    1.6150725e-08   2   -1    6
    1.1620001e-08   2   -11    12
    1.1902334e-13   2    24    35

DECAY 6  2.43
    1   2    5    24

DECAY 15 -1
