# SUSY Les Houches Accord 2 - MSSM spectrum + Decays
# SPheno v4.0.5be
# W. Porod, Comput. Phys. Commun. 153 (2003) 275-315, hep-ph/0301101;
# W. Porod, F.~Staub, Comput. Phys. Commun. 183 (2012) 2458
#                     arXiv:1104.1573 [hep-ph] 
# in case of problems send email to porod@physik.uni-wuerzburg.de
# Created: 20.12.2022,  11:57
Block SPINFO         # Program information
     1   SPheno      # spectrum calculator
     2   v4.0.5be    # version number
#
Block SPhenoINFO     # SPheno specific information
    1      2         # using 2-loop RGEs
    2      2         # using pole masses for boundary conditions at mZ
Block MODSEL  # Model selection
    1    0    # general MSSM
Block MINPAR  # Input parameters
    3    3.84055126E+01  # tanb at m_Z    
    4    1.00000000E+00  # Sign(mu)
Block EXTPAR  # non-universal input parameters
    0    3.66498804E+03  # scale for input parameters
    1    9.03545216E+01  # M_1
    2    1.73523246E+03  # M_2
    3    4.72714181E+03  # M_3
   11    6.85352064E+02  # A_t
   12   -5.97093319E+02  # A_b
   13    1.36681989E+03  # A_tau
   23    6.85958168E+02  # mu
   25    3.72247377E+01  # tan(beta)
   26    3.88064932E+03  # m_A, pole mass
   31    1.00000000E+04  # M_L11
   32    1.00000000E+04  # M_L22
   33    1.00000000E+04  # M_L33
   34    1.00000000E+04  # M_E11
   35    1.00000000E+04  # M_E22
   36    1.00000000E+04  # M_E33
   41    1.00000000E+04  # M_Q11
   42    1.00000000E+04  # M_Q22
   43    4.55540769E+03  # M_Q33
   44    1.00000000E+04  # M_U11
   45    1.00000000E+04  # M_U22
   46    2.77325414E+03  # M_U33
   47    1.00000000E+04  # M_D11
   48    1.00000000E+04  # M_D22
   49    2.13294832E+03  # M_D33
Block SMINPUTS  # SM parameters
         1     1.27908970E+02  # alpha_em^-1(MZ)^MSbar
         2     1.16637870E-05  # G_mu [GeV^-2]
         3     1.18400000E-01  # alpha_s(MZ)^MSbar
         4     9.11876000E+01  # m_Z(pole)
         5     4.18000000E+00  # m_b(m_b), MSbar
         6     1.73200000E+02  # m_t(pole)
         7     1.77700000E+00  # m_tau(pole)
         8     0.00000000E+00  # m_nu_3
        11     5.10998930E-04  # m_e(pole)
        12     0.00000000E+00  # m_nu_1
        13     1.05658372E-01  # m_muon(pole)
        14     0.00000000E+00  # m_nu_2
        21     5.00000000E-03  # m_d(2 GeV), MSbar
        22     2.50000000E-03  # m_u(2 GeV), MSbar
        23     9.50000000E-02  # m_s(2 GeV), MSbar
        24     1.27000000E+00  # m_c(m_c), MSbar
Block gauge Q=  3.66498804E+03  # (SUSY scale)
   1    3.55362975E-01  # g'(Q)^DRbar
   2    6.65198874E-01  # g(Q)^DRbar
   3    1.21977796E+00  # g3(Q)^DRbar
Block Yu Q=  3.66498804E+03  # (SUSY scale)
  1  1     8.38739695E-06   # Y_u(Q)^DRbar
  2  2     4.26079765E-03   # Y_c(Q)^DRbar
  3  3     1.01326492E+00   # Y_t(Q)^DRbar
Block Yd Q=  3.66498804E+03  # (SUSY scale)
  1  1     6.27392165E-04   # Y_d(Q)^DRbar
  2  2     1.19204511E-02   # Y_s(Q)^DRbar
  3  3     6.22176432E-01   # Y_b(Q)^DRbar
Block Ye Q=  3.66498804E+03  # (SUSY scale)
  1  1     1.09484521E-04   # Y_e(Q)^DRbar
  2  2     2.26379265E-02   # Y_mu(Q)^DRbar
  3  3     3.80732682E-01   # Y_tau(Q)^DRbar
Block Au Q=  3.66498804E+03  # (SUSY scale)
  1  1     0.00000000E+00   # A_u(Q)^DRbar
  2  2     0.00000000E+00   # A_c(Q)^DRbar
  3  3     6.85352072E+02   # A_t(Q)^DRbar
Block Ad Q=  3.66498804E+03  # (SUSY scale)
  1  1     0.00000000E+00   # A_d(Q)^DRbar
  2  2     0.00000000E+00   # A_s(Q)^DRbar
  3  3    -5.97093326E+02   # A_b(Q)^DRbar
Block Ae Q=  3.66498804E+03  # (SUSY scale)
  1  1     0.00000000E+00   # A_e(Q)^DRbar
  2  2     0.00000000E+00   # A_mu(Q)^DRbar
  3  3     1.36681988E+03   # A_tau(Q)^DRbar
Block MSOFT Q=  3.66498804E+03  # soft SUSY breaking masses at Q
   1    9.03545216E+01  # M_1
   2    1.73523246E+03  # M_2
   3    4.72714181E+03  # M_3
  21    1.45063027E+07  # M^2_(H,d)
  22   -2.48006099E+05  # M^2_(H,u)
  31    1.00000000E+04  # M_(L,11)
  32    1.00000000E+04  # M_(L,22)
  33    1.00000000E+04  # M_(L,33)
  34    1.00000000E+04  # M_(E,11)
  35    1.00000000E+04  # M_(E,22)
  36    1.00000000E+04  # M_(E,33)
  41    1.00000000E+04  # M_(Q,11)
  42    1.00000000E+04  # M_(Q,22)
  43    4.55540769E+03  # M_(Q,33)
  44    1.00000000E+04  # M_(U,11)
  45    1.00000000E+04  # M_(U,22)
  46    2.77325414E+03  # M_(U,33)
  47    1.00000000E+04  # M_(D,11)
  48    1.00000000E+04  # M_(D,22)
  49    2.13294832E+03  # M_(D,33)
Block MASS  # Mass spectrum
#   PDG code      mass          particle
         6     1.73200000E+02  # m_t(pole)
        23     9.11876000E+01  # m_Z(pole)
        24     8.04299946E+01  # W+
        15     1.77700000E+00  # m_tau(pole)
        25     1.20584386E+02  # h0
        35     3.87976965E+03  # H0
        36     3.88064932E+03  # A0
        37     3.88039763E+03  # H+
   1000001     1.00887094E+04  # ~d_L
   2000001     1.00658079E+04  # ~d_R
   1000002     1.00883584E+04  # ~u_L
   2000002     1.00684926E+04  # ~u_R
   1000003     1.00887139E+04  # ~s_L
   2000003     1.00658141E+04  # ~s_R
   1000004     1.00883623E+04  # ~c_L
   2000004     1.00684935E+04  # ~c_R
   1000005     2.26845889E+03  # ~b_1
   2000005     4.66688977E+03  # ~b_2
   1000006     2.87714150E+03  # ~t_1
   2000006     4.66857030E+03  # ~t_2
   1000011     1.00198741E+04  # ~e_L-
   2000011     1.00092422E+04  # ~e_R-
   1000012     1.00191127E+04  # ~nu_eL
   1000013     1.00198929E+04  # ~mu_L-
   2000013     1.00092738E+04  # ~mu_R-
   1000014     1.00191298E+04  # ~nu_muL
   1000015     1.00181475E+04  # ~tau_1-
   2000015     1.00255033E+04  # ~tau_2-
   1000016     1.00240325E+04  # ~nu_tauL
   1000021     5.17690845E+03  # ~g
   1000022     9.03410767E+01  # ~chi_10
   1000023     6.95656477E+02  # ~chi_20
   1000025     6.98998861E+02  # ~chi_30
   1000035     1.84914828E+03  # ~chi_40
   1000024     6.94959352E+02  # ~chi_1+
   1000037     1.84911692E+03  # ~chi_2+
# Higgs mixing
Block alpha # Effective Higgs mixing angle
          -2.60740310E-02   # alpha
Block Hmix Q=  3.66498804E+03  # Higgs mixing parameters
   1    6.85958168E+02  # mu
   2    3.72247377E+01  # tan[beta](Q)
   3    2.43057318E+02  # v(Q)
   4    1.50594391E+07  # m^2_A(Q)
Block stopmix # stop mixing matrix
   1  1    -5.61036709E-03   # Re[R_st(1,1)]
   1  2     9.99984262E-01   # Re[R_st(1,2)]
   2  1    -9.99984262E-01   # Re[R_st(2,1)]
   2  2    -5.61036709E-03   # Re[R_st(2,2)]
Block sbotmix # sbottom mixing matrix
   1  1     3.35831163E-03   # Re[R_sb(1,1)]
   1  2     9.99994361E-01   # Re[R_sb(1,2)]
   2  1    -9.99994361E-01   # Re[R_sb(2,1)]
   2  2     3.35831163E-03   # Re[R_sb(2,2)]
Block staumix # stau mixing matrix
   1  1     3.12543458E-01   # Re[R_sta(1,1)]
   1  2     9.49903462E-01   # Re[R_sta(1,2)]
   2  1    -9.49903462E-01   # Re[R_sta(2,1)]
   2  2     3.12543458E-01   # Re[R_sta(2,2)]
Block Nmix # neutralino mixing matrix
   1  1     9.97764847E-01   # Re[N(1,1)]
   1  2    -5.20156142E-04   # Re[N(1,2)]
   1  3     6.60127164E-02   # Re[N(1,3)]
   1  4    -1.03615523E-02   # Re[N(1,4)]
   2  1    -5.40331894E-02   # Re[N(2,1)]
   2  2    -5.02268928E-02   # Re[N(2,2)]
   2  3     7.05695499E-01   # Re[N(2,3)]
   2  4    -7.04664130E-01   # Re[N(2,4)]
   3  1     3.92925935E-02   # Re[N(3,1)]
   3  2    -2.16010148E-02   # Re[N(3,2)]
   3  3    -7.05141826E-01   # Re[N(3,3)]
   3  4    -7.07647153E-01   # Re[N(3,4)]
   4  1     1.34818259E-03   # Re[N(4,1)]
   4  2    -9.98504074E-01   # Re[N(4,2)]
   4  3    -2.02777842E-02   # Re[N(4,3)]
   4  4     5.07603097E-02   # Re[N(4,4)]
Block Umix # chargino mixing matrix
   1  1    -2.86724537E-02   # Re[U(1,1)]
   1  2     9.99588861E-01   # Re[U(1,2)]
   2  1     9.99588861E-01   # Re[U(2,1)]
   2  2     2.86724537E-02   # Re[U(2,2)]
Block Vmix # chargino mixing matrix
   1  1    -7.18194352E-02   # Re[V(1,1)]
   1  2     9.97417650E-01   # Re[V(1,2)]
   2  1     9.97417650E-01   # Re[V(2,1)]
   2  2     7.18194352E-02   # Re[V(2,2)]
DECAY        23     2.49520000E+00   # Z
DECAY        24     2.08500000E+00   # W
DECAY   2000011     5.02824567E+01   # ~e^-_R
#    BR                NDA      ID1      ID2
     9.95576969E-01    2     1000022        11   # BR(~e^-_R -> chi^0_1 e^-)
     2.89206526E-03    2     1000023        11   # BR(~e^-_R -> chi^0_2 e^-)
     1.52922287E-03    2     1000025        11   # BR(~e^-_R -> chi^0_3 e^-)
DECAY   1000011     1.36048643E+02   # ~e^-_L
#    BR                NDA      ID1      ID2
     9.19073638E-02    2     1000022        11   # BR(~e^-_L -> chi^0_1 e^-)
     2.00838613E-03    2     1000023        11   # BR(~e^-_L -> chi^0_2 e^-)
     3.01124617E-01    2     1000035        11   # BR(~e^-_L -> chi^0_4 e^-)
     5.27888810E-04    2    -1000024        12   # BR(~e^-_L -> chi^-_1 nu_e)
     6.04431616E-01    2    -1000037        12   # BR(~e^-_L -> chi^-_2 nu_e)
#    BR                NDA      ID1      ID2       ID3
DECAY   2000013     5.04847351E+01   # ~mu^-_R
#    BR                NDA      ID1      ID2
     9.91599903E-01    2     1000022        13   # BR(~mu^-_R -> chi^0_1 mu^-)
     3.87742178E-03    2     1000023        13   # BR(~mu^-_R -> chi^0_2 mu^-)
     2.51837741E-03    2     1000025        13   # BR(~mu^-_R -> chi^0_3 mu^-)
     2.00028267E-03    2    -1000024        14   # BR(~mu^-_R -> chi^-_1 nu_mu)
DECAY   1000013     1.36150100E+02   # ~mu^-_L
#    BR                NDA      ID1      ID2
     9.18423175E-02    2     1000022        13   # BR(~mu^-_L -> chi^0_1 mu^-)
     2.37695428E-03    2     1000023        13   # BR(~mu^-_L -> chi^0_2 mu^-)
     3.69576589E-04    2     1000025        13   # BR(~mu^-_L -> chi^0_3 mu^-)
     3.00901158E-01    2     1000035        13   # BR(~mu^-_L -> chi^0_4 mu^-)
     5.27496445E-04    2    -1000024        14   # BR(~mu^-_L -> chi^-_1 nu_mu)
     6.03982497E-01    2    -1000037        14   # BR(~mu^-_L -> chi^-_2 nu_mu)
#    BR                NDA      ID1      ID2       ID3
DECAY   1000015     1.13207895E+02   # ~tau^-_1
#    BR                NDA      ID1      ID2
     4.17847661E-01    2     1000022        15   # BR(~tau^-_1 -> chi^0_1 tau^-)
     1.30057994E-01    2     1000023        15   # BR(~tau^-_1 -> chi^0_2 tau^-)
     1.20703674E-01    2     1000025        15   # BR(~tau^-_1 -> chi^0_3 tau^-)
     3.19021996E-02    2     1000035        15   # BR(~tau^-_1 -> chi^0_4 tau^-)
     2.35450028E-01    2    -1000024        16   # BR(~tau^-_1 -> chi^-_1 nu_tau)
     6.40384441E-02    2    -1000037        16   # BR(~tau^-_1 -> chi^-_2 nu_tau)
DECAY   2000015     1.59106217E+02   # ~tau^-_2
#    BR                NDA      ID1      ID2
     9.78329850E-02    2     1000022        15   # BR(~tau^-_2 -> chi^0_1 tau^-)
     8.92761436E-02    2     1000023        15   # BR(~tau^-_2 -> chi^0_2 tau^-)
     9.34899719E-02    2     1000025        15   # BR(~tau^-_2 -> chi^0_3 tau^-)
     2.35073217E-01    2     1000035        15   # BR(~tau^-_2 -> chi^0_4 tau^-)
     1.26222842E-02    2    -1000024        16   # BR(~tau^-_2 -> chi^-_1 nu_tau)
     4.71705398E-01    2    -1000037        16   # BR(~tau^-_2 -> chi^-_2 nu_tau)
#    BR                NDA      ID1      ID2       ID3
DECAY   1000012     1.36052102E+02   # ~nu_e
#    BR                NDA      ID1      ID2
     9.22574589E-02    2     1000022        12   # BR(~nu_e -> chi^0_1 nu_e)
     1.46481522E-04    2     1000023        12   # BR(~nu_e -> chi^0_2 nu_e)
     5.82295901E-04    2     1000025        12   # BR(~nu_e -> chi^0_3 nu_e)
     3.01960823E-01    2     1000035        12   # BR(~nu_e -> chi^0_4 nu_e)
     3.31172530E-03    2     1000024        11   # BR(~nu_e -> chi^+_1 e^-)
     6.01741215E-01    2     1000037        11   # BR(~nu_e -> chi^+_2 e^-)
#    BR                NDA      ID1      ID2       ID3
DECAY   1000014     1.36153525E+02   # ~nu_mu
#    BR                NDA      ID1      ID2
     9.21888923E-02    2     1000022        14   # BR(~nu_mu -> chi^0_1 nu_mu)
     1.46372660E-04    2     1000023        14   # BR(~nu_mu -> chi^0_2 nu_mu)
     5.81863153E-04    2     1000025        14   # BR(~nu_mu -> chi^0_3 nu_mu)
     3.01736476E-01    2     1000035        14   # BR(~nu_mu -> chi^0_4 nu_mu)
     4.05167684E-03    2     1000024        13   # BR(~nu_mu -> chi^+_1 mu^-)
     6.01294720E-01    2     1000037        13   # BR(~nu_mu -> chi^+_2 mu^-)
#    BR                NDA      ID1      ID2       ID3
DECAY   1000016     1.64756498E+02   # ~nu_tau
#    BR                NDA      ID1      ID2
     7.62214953E-02    2     1000022        16   # BR(~nu_tau -> chi^0_1 nu_tau)
     1.21021597E-04    2     1000023        16   # BR(~nu_tau -> chi^0_2 nu_tau)
     4.81087207E-04    2     1000025        16   # BR(~nu_tau -> chi^0_3 nu_tau)
     2.49491966E-01    2     1000035        16   # BR(~nu_tau -> chi^0_4 nu_tau)
     1.76366388E-01    2     1000024        15   # BR(~nu_tau -> chi^+_1 tau^-)
     4.97318042E-01    2     1000037        15   # BR(~nu_tau -> chi^+_2 tau^-)
#    BR                NDA      ID1      ID2       ID3
DECAY   2000001     4.35413798E+02   # ~d_R
#    BR                NDA      ID1      ID2
     1.28467979E-02    2     1000022         1   # BR(~d_R -> chi^0_1 d)
     9.87095765E-01    2     1000021         1   # BR(~d_R -> ~g d)
DECAY   1000001     5.58014506E+02   # ~d_L
#    BR                NDA      ID1      ID2
     2.52649302E-03    2     1000022         1   # BR(~d_L -> chi^0_1 d)
     1.30030772E-04    2     1000023         1   # BR(~d_L -> chi^0_2 d)
     7.41344865E-02    2     1000035         1   # BR(~d_L -> chi^0_4 d)
     1.29604986E-04    2    -1000024         2   # BR(~d_L -> chi^-_1 u)
     1.48520233E-01    2    -1000037         2   # BR(~d_L -> chi^-_2 u)
     7.74494623E-01    2     1000021         1   # BR(~d_L -> ~g d)
DECAY   2000003     4.35470657E+02   # ~s_R
#    BR                NDA      ID1      ID2
     1.28454123E-02    2     1000022         3   # BR(~s_R -> chi^0_1 s)
     9.86968361E-01    2     1000021         3   # BR(~s_R -> ~g s)
DECAY   1000003     5.58046816E+02   # ~s_L
#    BR                NDA      ID1      ID2
     2.52656990E-03    2     1000022         3   # BR(~s_L -> chi^0_1 s)
     1.55163277E-04    2     1000023         3   # BR(~s_L -> chi^0_2 s)
     7.41302520E-02    2     1000035         3   # BR(~s_L -> chi^0_4 s)
     1.36030672E-04    2    -1000024         4   # BR(~s_L -> chi^-_1 c)
     1.48511742E-01    2    -1000037         4   # BR(~s_L -> chi^-_2 c)
     7.74450618E-01    2     1000021         3   # BR(~s_L -> ~g s)
DECAY   1000005     2.97217587E+01   # ~b_1
#    BR                NDA      ID1      ID2
     4.49401035E-02    2     1000022         5   # BR(~b_1 -> chi^0_1 b)
     2.40397523E-01    2     1000023         5   # BR(~b_1 -> chi^0_2 b)
     2.39379195E-01    2     1000025         5   # BR(~b_1 -> chi^0_3 b)
     4.75225551E-01    2    -1000024         6   # BR(~b_1 -> chi^-_1 t)
DECAY   2000005     1.70653432E+02   # ~b_2
#    BR                NDA      ID1      ID2
     4.69872088E-03    2     1000022         5   # BR(~b_2 -> chi^0_1 b)
     1.00445610E-01    2     1000023         5   # BR(~b_2 -> chi^0_2 b)
     1.00199149E-01    2     1000025         5   # BR(~b_2 -> chi^0_3 b)
     8.54061794E-02    2     1000035         5   # BR(~b_2 -> chi^0_4 b)
     5.29740581E-01    2    -1000024         6   # BR(~b_2 -> chi^-_1 t)
     1.73652472E-01    2    -1000037         6   # BR(~b_2 -> chi^-_2 t)
     3.02930070E-03    2     1000006       -24   # BR(~b_2 -> ~t_1 W^-)
     1.01556581E-03    2     1000005        23   # BR(~b_2 -> ~b_1 Z)
     1.81242199E-03    2     1000005        25   # BR(~b_2 -> ~b_1 h^0)
DECAY   2000002     4.52554748E+02   # ~u_R
#    BR                NDA      ID1      ID2
     4.94540397E-02    2     1000022         2   # BR(~u_R -> chi^0_1 u)
     1.43674665E-04    2     1000023         2   # BR(~u_R -> chi^0_2 u)
     9.50326232E-01    2     1000021         2   # BR(~u_R -> ~g u)
DECAY   1000002     5.57997044E+02   # ~u_L
#    BR                NDA      ID1      ID2
     2.49707026E-03    2     1000022         2   # BR(~u_L -> chi^0_1 u)
     2.82333450E-04    2     1000023         2   # BR(~u_L -> chi^0_2 u)
     7.40626051E-02    2     1000035         2   # BR(~u_L -> chi^0_4 u)
     8.13296453E-04    2     1000024         1   # BR(~u_L -> chi^+_1 d)
     1.47874498E-01    2     1000037         1   # BR(~u_L -> chi^+_2 d)
     7.74453387E-01    2     1000021         2   # BR(~u_L -> ~g u)
DECAY   2000004     4.52562014E+02   # ~c_R
#    BR                NDA      ID1      ID2
     4.94532490E-02    2     1000022         4   # BR(~c_R -> chi^0_1 c)
     1.47625181E-04    2     1000023         4   # BR(~c_R -> chi^0_2 c)
     9.50311113E-01    2     1000021         4   # BR(~c_R -> ~g c)
DECAY   1000004     5.58029252E+02   # ~c_L
#    BR                NDA      ID1      ID2
     2.49692771E-03    2     1000022         4   # BR(~c_L -> chi^0_1 c)
     2.85527518E-04    2     1000023         4   # BR(~c_L -> chi^0_2 c)
     7.40583793E-02    2     1000035         4   # BR(~c_L -> chi^0_4 c)
     8.63689800E-04    2     1000024         3   # BR(~c_L -> chi^+_1 s)
     1.47866069E-01    2     1000037         3   # BR(~c_L -> chi^+_2 s)
     7.74409360E-01    2     1000021         4   # BR(~c_L -> ~g c)
DECAY   1000006     1.09868378E+02   # ~t_1
#    BR                NDA      ID1      ID2
     5.77082201E-02    2     1000022         6   # BR(~t_1 -> chi^0_1 t)
     2.34091424E-01    2     1000023         6   # BR(~t_1 -> chi^0_2 t)
     2.35044696E-01    2     1000025         6   # BR(~t_1 -> chi^0_3 t)
     5.15548522E-04    2     1000035         6   # BR(~t_1 -> chi^0_4 t)
     4.71589929E-01    2     1000024         5   # BR(~t_1 -> chi^+_1 b)
     1.05017519E-03    2     1000037         5   # BR(~t_1 -> chi^+_2 b)
#    BR                NDA      ID1      ID2       ID3
DECAY   2000006     1.70959754E+02   # ~t_2
#    BR                NDA      ID1      ID2
     3.83811595E-03    2     1000022         6   # BR(~t_2 -> chi^0_1 t)
     2.64225302E-01    2     1000023         6   # BR(~t_2 -> chi^0_2 t)
     2.66181863E-01    2     1000025         6   # BR(~t_2 -> chi^0_3 t)
     8.63745473E-02    2     1000035         6   # BR(~t_2 -> chi^0_4 t)
     2.02388848E-01    2     1000024         5   # BR(~t_2 -> chi^+_1 b)
     1.69919682E-01    2     1000037         5   # BR(~t_2 -> chi^+_2 b)
     2.03209978E-03    2     1000005        24   # BR(~t_2 -> ~b_1 W^+)
     1.51416930E-03    2     1000006        23   # BR(~t_2 -> ~t_1 Z)
     3.52537309E-03    2     1000006        25   # BR(~t_2 -> ~t_1 h^0)
DECAY   1000024     4.86643702E-01   # chi^+_1
#    BR                NDA      ID1      ID2
     9.91577350E-01    2     1000022        24   # BR(chi^+_1 -> chi^0_1 W^+)
#    BR                NDA      ID1      ID2       ID3
     8.42255847E-03    3     1000022        -5         6   # BR(chi^+_1 -> chi^0_1 b_bar t)
DECAY   1000037     1.66125847E+01   # chi^+_2
#    BR                NDA      ID1      ID2
     1.72226713E-04    2     1000022        24   # BR(chi^+_2 -> chi^0_1 W^+)
     2.43706949E-01    2     1000023        24   # BR(chi^+_2 -> chi^0_2 W^+)
     2.44754668E-01    2     1000025        24   # BR(chi^+_2 -> chi^0_3 W^+)
     2.42799971E-01    2     1000024        23   # BR(chi^+_2 -> chi^+_1 Z)
     2.43628605E-01    2     1000024        25   # BR(chi^+_2 -> chi^+_1 h^0)
#    BR                NDA      ID1      ID2       ID3
     9.77440372E-03    3     1000024         6        -6   # BR(chi^+_2 -> chi^+_1 t t_bar)
     7.80523896E-03    3     1000023        -5         6   # BR(chi^+_2 -> chi^0_2 b_bar t)
     7.33653962E-03    3     1000025        -5         6   # BR(chi^+_2 -> chi^0_3 b_bar t)
DECAY   1000022     0.00000000E+00   # chi^0_1
DECAY   1000023     4.41558083E-01   # chi^0_2
#    BR                NDA      ID1      ID2
     3.85175004E-01    2     1000022        23   # BR(chi^0_2 -> chi^0_1 Z)
     6.12811443E-01    2     1000022        25   # BR(chi^0_2 -> chi^0_1 h^0)
#    BR                NDA      ID1      ID2       ID3
     2.00714708E-03    3     1000022         6        -6   # BR(chi^0_2 -> chi^0_1 t t_bar)
DECAY   1000025     5.73050331E-01   # chi^0_3
#    BR                NDA      ID1      ID2
     5.66606005E-01    2     1000022        23   # BR(chi^0_3 -> chi^0_1 Z)
     4.31583958E-01    2     1000022        25   # BR(chi^0_3 -> chi^0_1 h^0)
#    BR                NDA      ID1      ID2       ID3
     1.78248014E-03    3     1000022         6        -6   # BR(chi^0_3 -> chi^0_1 t t_bar)
DECAY   1000035     1.90785916E+01   # chi^0_4
#    BR                NDA      ID1      ID2
     2.12507864E-01    2     1000024       -24   # BR(chi^0_4 -> chi^+_1 W^-)
     2.12507864E-01    2    -1000024        24   # BR(chi^0_4 -> chi^-_1 W^+)
     3.30901615E-02    2     1000023        23   # BR(chi^0_4 -> chi^0_2 Z)
     1.80372979E-01    2     1000025        23   # BR(chi^0_4 -> chi^0_3 Z)
     1.78776621E-01    2     1000023        25   # BR(chi^0_4 -> chi^0_2 h^0)
     1.62073734E-01    2     1000025        25   # BR(chi^0_4 -> chi^0_3 h^0)
#    BR                NDA      ID1      ID2       ID3
     3.74282074E-03    3     1000023         6        -6   # BR(chi^0_4 -> chi^0_2 t t_bar)
     3.43906738E-03    3     1000025         6        -6   # BR(chi^0_4 -> chi^0_3 t t_bar)
     6.66857406E-03    3     1000024         5        -6   # BR(chi^0_4 -> chi^+_1 b t_bar)
     6.66857406E-03    3    -1000024        -5         6   # BR(chi^0_4 -> chi^-_1 b_bar t)
DECAY   1000021     1.83642631E+02   # ~g
#    BR                NDA      ID1      ID2
     1.99209954E-01    2     1000006        -6   # BR(~g -> ~t_1 t_bar)
     1.99209954E-01    2    -1000006         6   # BR(~g -> ~t^*_1 t)
     1.37040567E-02    2     2000006        -6   # BR(~g -> ~t_2 t_bar)
     1.37040567E-02    2    -2000006         6   # BR(~g -> ~t^*_2 t)
     2.72374278E-01    2     1000005        -5   # BR(~g -> ~b_1 b_bar)
     2.72374278E-01    2    -1000005         5   # BR(~g -> ~b^*_1 b)
     1.46415265E-02    2     2000005        -5   # BR(~g -> ~b_2 b_bar)
     1.46415265E-02    2    -2000005         5   # BR(~g -> ~b^*_2 b)
#    BR                NDA      ID1      ID2       ID3
DECAY        25     3.38137271E-03   # Gamma(h0)
     2.31931027E-03   2        22        22   # BR(h0 -> photon photon)
     1.12960560E-03   2        22        23   # BR(h0 -> photon Z)
     1.78482857E-02   2        23        23   # BR(h0 -> Z Z)
     1.61153811E-01   2       -24        24   # BR(h0 -> W W)
     7.50480459E-02   2        21        21   # BR(h0 -> gluon gluon)
     5.68664047E-09   2       -11        11   # BR(h0 -> Electron electron)
     2.52949189E-04   2       -13        13   # BR(h0 -> Muon muon)
     7.29277153E-02   2       -15        15   # BR(h0 -> Tau tau)
     1.62686800E-07   2        -2         2   # BR(h0 -> Up up)
     3.15669988E-02   2        -4         4   # BR(h0 -> Charm charm)
     6.62504062E-07   2        -1         1   # BR(h0 -> Down down)
     2.39612066E-04   2        -3         3   # BR(h0 -> Strange strange)
     6.37512835E-01   2        -5         5   # BR(h0 -> Bottom bottom)
DECAY        35     9.66464009E+01   # Gamma(HH)
     1.23630150E-08   2        22        22   # BR(HH -> photon photon)
     3.74125812E-08   2        22        23   # BR(HH -> photon Z)
     1.70472089E-07   2        23        23   # BR(HH -> Z Z)
     3.73170447E-08   2       -24        24   # BR(HH -> W W)
     3.72555241E-06   2        21        21   # BR(HH -> gluon gluon)
     9.29727300E-09   2       -11        11   # BR(HH -> Electron electron)
     4.13993614E-04   2       -13        13   # BR(HH -> Muon muon)
     1.19571277E-01   2       -15        15   # BR(HH -> Tau tau)
     6.94544676E-14   2        -2         2   # BR(HH -> Up up)
     1.34743587E-08   2        -4         4   # BR(HH -> Charm charm)
     9.18689285E-04   2        -6         6   # BR(HH -> Top top)
     6.43582637E-07   2        -1         1   # BR(HH -> Down down)
     2.32786844E-04   2        -3         3   # BR(HH -> Strange strange)
     5.46711241E-01   2        -5         5   # BR(HH -> Bottom bottom)
     1.60402711E-03   2  -1000024   1000024   # BR(HH -> Chargino1 chargino1)
     9.52405139E-02   2  -1000024   1000037   # BR(HH -> Chargino1 chargino2)
     9.52405139E-02   2  -1000037   1000024   # BR(HH -> Chargino2 chargino1)
     2.61936013E-05   2  -1000037   1000037   # BR(HH -> Chargino2 chargino2)
     3.80433152E-04   2   1000022   1000022   # BR(HH -> neutralino1 neutralino1)
     2.08438683E-02   2   1000022   1000023   # BR(HH -> neutralino1 neutralino2)
     2.29174026E-02   2   1000022   1000025   # BR(HH -> neutralino1 neutralino3)
     2.77043061E-04   2   1000022   1000035   # BR(HH -> neutralino1 neutralino4)
     9.41882080E-05   2   1000023   1000023   # BR(HH -> neutralino2 neutralino2)
     1.54933601E-05   2   1000023   1000025   # BR(HH -> neutralino2 neutralino3)
     3.54058100E-02   2   1000023   1000035   # BR(HH -> neutralino2 neutralino4)
     2.62901962E-04   2   1000025   1000025   # BR(HH -> neutralino3 neutralino3)
     5.98245258E-02   2   1000025   1000035   # BR(HH -> neutralino3 neutralino4)
     1.31469455E-05   2   1000035   1000035   # BR(HH -> neutralino4 neutralino4)
     1.30107902E-06   2        25        25   # BR(HH -> h0 h0)
DECAY        36     9.32153301E+01   # Gamma(A0)
     5.41866529E-08   2        22        22   # BR(A0 -> photon photon)
     8.60779015E-08   2        22        23   # BR(A0 -> photon Z)
     8.41729703E-06   2        21        21   # BR(A0 -> gluon gluon)
     9.12662392E-09   2       -11        11   # BR(A0 -> Electron electron)
     4.06390551E-04   2       -13        13   # BR(A0 -> Muon muon)
     1.17375443E-01   2       -15        15   # BR(A0 -> Tau tau)
     6.40094052E-14   2        -2         2   # BR(A0 -> Up up)
     1.24176095E-08   2        -4         4   # BR(A0 -> Charm charm)
     8.49998380E-04   2        -6         6   # BR(A0 -> Top top)
     6.31744275E-07   2        -1         1   # BR(A0 -> Down down)
     2.28504596E-04   2        -3         3   # BR(A0 -> Strange strange)
     5.36654562E-01   2        -5         5   # BR(A0 -> Bottom bottom)
     1.98364894E-03   2  -1000024   1000024   # BR(A0 -> Chargino1 chargino1)
     9.85393963E-02   2  -1000024   1000037   # BR(A0 -> Chargino1 chargino2)
     9.85393963E-02   2  -1000037   1000024   # BR(A0 -> Chargino2 chargino1)
     1.78655693E-04   2  -1000037   1000037   # BR(A0 -> Chargino2 chargino2)
     4.01877075E-04   2   1000022   1000022   # BR(A0 -> neutralino1 neutralino1)
     2.43849195E-02   2   1000022   1000023   # BR(A0 -> neutralino1 neutralino2)
     2.10266615E-02   2   1000022   1000025   # BR(A0 -> neutralino1 neutralino3)
     2.91016269E-04   2   1000022   1000035   # BR(A0 -> neutralino1 neutralino4)
     1.23797577E-04   2   1000023   1000023   # BR(A0 -> neutralino2 neutralino2)
     2.22475138E-05   2   1000023   1000025   # BR(A0 -> neutralino2 neutralino3)
     6.18923661E-02   2   1000023   1000035   # BR(A0 -> neutralino2 neutralino4)
     2.80935325E-04   2   1000025   1000025   # BR(A0 -> neutralino3 neutralino3)
     3.67210027E-02   2   1000025   1000035   # BR(A0 -> neutralino3 neutralino4)
     8.96088711E-05   2   1000035   1000035   # BR(A0 -> neutralino4 neutralino4)
     3.60995400E-07   2        23        25   # BR(A0 -> Z h0)
     2.18853789E-39   2        25        25   # BR(A0 -> h0 h0)
DECAY        37     9.70721273E+01   # Gamma(Hp)
     9.75055757E-09   2       -11        12   # BR(Hp -> Electron nu_e)
     4.16866790E-04   2       -13        14   # BR(Hp -> Muon nu_mu)
     1.17913666E-01   2       -15        16   # BR(Hp -> Tau nu_tau)
     5.93452175E-07   2        -1         2   # BR(Hp -> Down up)
     1.00462446E-05   2        -3         2   # BR(Hp -> Strange up)
     5.81765763E-06   2        -5         2   # BR(Hp -> Bottom up)
     2.84143925E-08   2        -1         4   # BR(Hp -> Down charm)
     2.13888480E-04   2        -3         4   # BR(Hp -> Strange charm)
     8.14680351E-04   2        -5         4   # BR(Hp -> Bottom charm)
     6.80391181E-08   2        -1         6   # BR(Hp -> Down top)
     1.80191470E-06   2        -3         6   # BR(Hp -> Strange top)
     5.50193741E-01   2        -5         6   # BR(Hp -> Bottom top)
     4.41787253E-02   2   1000022   1000024   # BR(Hp -> neutralino1 chargino1)
     5.56473589E-04   2   1000022   1000037   # BR(Hp -> neutralino1 chargino2)
     3.70752495E-04   2   1000023   1000024   # BR(Hp -> neutralino2 chargino1)
     9.54751898E-02   2   1000023   1000037   # BR(Hp -> neutralino2 chargino2)
     1.75954736E-04   2   1000024   1000025   # BR(Hp -> chargino1 neutralino3)
     9.46426923E-02   2   1000025   1000037   # BR(Hp -> neutralino3 chargino2)
     9.50286563E-02   2   1000024   1000035   # BR(Hp -> chargino1 neutralino4)
     1.28878695E-10   2   1000035   1000037   # BR(Hp -> neutralino4 chargino2)
     3.46713392E-07   2        24        25   # BR(Hp -> W h0)
DECAY         6     2.43000000E+00   # top
#    BR                NDA      ID1      ID2
     1.00000000E+00    2           5        24   # BR(t -> b W)
Block HiggsBoundsInputHiggsCouplingsFermions
# ScalarNormEffCoupSq PseudoSNormEffCoupSq NP IP1 IP2 IP2
    9.42528582E-01    0.00000000E+00        3  25   5   5  # h0-b-b eff. coupling^2, normalised to SM
    1.38573857E+03    0.00000000E+00        3  35   5   5  # H0-b-b eff. coupling^2, normalised to SM
    0.00000000E+00    1.38568110E+03        3  36   5   5  # A0-b-b eff. coupling^2, normalised to SM
#
    1.00004148E+00    0.00000000E+00        3  25   6   6  # h0-t-t eff. coupling^2, normalised to SM
    6.80191557E-04    0.00000000E+00        3  35   6   6  # H0-t-t eff. coupling^2, normalised to SM
    0.00000000E+00    7.21666769E-04        3  36   6   6  # A0-t-t eff. coupling^2, normalised to SM
#
    9.42528582E-01    0.00000000E+00        3  25  15  15  # h0-tau-tau eff. coupling^2, normalised to SM
    1.38573857E+03    0.00000000E+00        3  35  15  15  # H0-tau-tau eff. coupling^2, normalised to SM
    0.00000000E+00    1.38568110E+03        3  36  15  15  # A0-tau-tau eff. coupling^2, normalised to SM
#
Block HiggsBoundsInputHiggsCouplingsBosons
    9.99999386E-01        3  25  24  24  # h0-W-W eff. coupling^2, normalised to SM
    6.13661739E-07        3  35  24  24  # H0-W-W eff. coupling^2, normalised to SM
    0.00000000E+00        3  36  24  24  # A0-W-W eff. coupling^2, normalised to SM
#
    9.99999386E-01        3  25  23  23  # h0-Z-Z eff. coupling^2, normalised to SM
    6.13661739E-07        3  35  23  23  # H0-Z-Z eff. coupling^2, normalised to SM
    0.00000000E+00        3  36  23  23  # A0-Z-Z eff. coupling^2, normalised to SM
#
    1.26922644E+00        3  25  21  21  # h0-g-g eff. coupling^2, normalised to SM
    4.94561090E-03        3  35  21  21  # H0-g-g eff. coupling^2, normalised to SM
    1.12248974E-01        3  36  21  21  # A0-g-g eff. coupling^2, normalised to SM
#
    0.00000000E+00        3  25  25  23  # h0-h0-Z eff. coupling^2, normalised to SM
    0.00000000E+00        3  35  25  23  # H0-h0-Z eff. coupling^2, normalised to SM
    6.13661739E-07        3  36  25  23  # A0-h0-Z eff. coupling^2, normalised to SM
    0.00000000E+00        3  35  35  23  # H0-H0-Z eff. coupling^2, normalised to SM
    9.99999386E-01        3  36  35  23  # A0-H0-Z eff. coupling^2, normalised to SM
    0.00000000E+00        3  36  36  23  # A0-A0-Z eff. coupling^2, normalised to SM
#
    0.00000000E+00        4  25  21  21  23  # h0-g-g-Z eff. coupling^2, normalised to SM
    0.00000000E+00        4  35  21  21  23  # H0-g-g-Z eff. coupling^2, normalised to SM
    0.00000000E+00        4  36  21  21  23  # A0-g-g-Z eff. coupling^2, normalised to SM
Block SPhenoLowEnergy  # low energy observables
    1    3.22047189E-04   # BR(b -> s gamma)
    2    1.58990986E-06   # BR(b -> s mu+ mu-)
    3    3.52491891E-05   # BR(b -> s nu nu)
    4    2.64925352E-15   # BR(Bd -> e+ e-)
    5    1.13173015E-10   # BR(Bd -> mu+ mu-)
    6    2.36865692E-08   # BR(Bd -> tau+ tau-)
    7    8.88926591E-14   # BR(Bs -> e+ e-)
    8    3.79748921E-09   # BR(Bs -> mu+ mu-)
    9    8.05341631E-07   # BR(Bs -> tau+ tau-)
   10    9.62446280E-05   # BR(B_u -> tau nu)
   11    9.94170160E-01   # BR(B_u -> tau nu)/BR(B_u -> tau nu)_SM
   12    5.42037434E-01   # |Delta(M_Bd)| [ps^-1] 
   13    1.93643007E+01   # |Delta(M_Bs)| [ps^-1] 
   14    0.00000000E+00   # neutron EDM according to the chiral quark model
   15    0.00000000E+00   # neutron EDM according to the relativistic quark-parton model
   16    2.15759381E-03   # epsilon_K
   17    2.28166151E-15   # Delta(M_K)
   18    2.47964166E-11   # BR(K^0 -> pi^0 nu nu)
   19    8.28968784E-11   # BR(K^+ -> pi^+ nu nu)
   20    3.76863285E-16   # Delta(g-2)_electron/2
   21    1.61121659E-11   # Delta(g-2)_muon/2
   22    4.56404337E-09   # Delta(g-2)_tau/2
   23    0.00000000E+00   # electric dipole moment of the electron
   24    0.00000000E+00   # electric dipole moment of the muon
   25    0.00000000E+00   # electric dipole moment of the tau
   26    0.00000000E+00   # Br(mu -> e gamma)
   27    0.00000000E+00   # Br(tau -> e gamma)
   28    0.00000000E+00   # Br(tau -> mu gamma)
   29    0.00000000E+00   # Br(mu -> 3 e)
   30    0.00000000E+00   # Br(tau -> 3 e)
   31    0.00000000E+00   # Br(tau -> 3 mu)
   39    6.56852333E-05   # Delta(rho_parameter)
   40    0.00000000E+00   # BR(Z -> e mu)
   41    0.00000000E+00   # BR(Z -> e tau)
   42    0.00000000E+00   # BR(Z -> mu tau)
Block FWCOEF Q=  1.60000000E+02  # Wilson coefficients at scale Q
#    id        order  M        value         comment
     0305 4422   00   0    -1.88819110E-01   # C7
     0305 4422   00   2    -1.90207993E-01   # C7
     0305 4322   00   2    -6.15079304E-05   # C7'
     0305 6421   00   0    -9.52278348E-02   # C8
     0305 6421   00   2    -9.99273783E-02   # C8
     0305 6321   00   2    -1.10307393E-04   # C8'
 03051111 4133   00   0     1.62388730E+00   # C9 e+e-
 03051111 4133   00   2     1.62421357E+00   # C9 e+e-
 03051111 4233   00   2     2.39214157E-04   # C9' e+e-
 03051111 4137   00   0    -4.44657941E+00   # C10 e+e-
 03051111 4137   00   2    -4.44463896E+00   # C10 e+e-
 03051111 4237   00   2    -1.77696522E-03   # C10' e+e-
 03051313 4133   00   0     1.62388730E+00   # C9 mu+mu-
 03051313 4133   00   2     1.62421345E+00   # C9 mu+mu-
 03051313 4233   00   2     2.39213996E-04   # C9' mu+mu-
 03051313 4137   00   0    -4.44657941E+00   # C10 mu+mu-
 03051313 4137   00   2    -4.44463909E+00   # C10 mu+mu-
 03051313 4237   00   2    -1.77696531E-03   # C10' mu+mu-
 03051212 4137   00   0     1.50535012E+00   # C11 nu_1 nu_1
 03051212 4137   00   2     1.50493102E+00   # C11 nu_1 nu_1
 03051212 4237   00   2     3.84487909E-04   # C11' nu_1 nu_1
 03051414 4137   00   0     1.50535012E+00   # C11 nu_2 nu_2
 03051414 4137   00   2     1.50493102E+00   # C11 nu_2 nu_2
 03051414 4237   00   2     3.84487930E-04   # C11' nu_2 nu_2
 03051616 4137   00   0     1.50535012E+00   # C11 nu_3 nu_3
 03051616 4137   00   2     1.50493103E+00   # C11 nu_3 nu_3
 03051616 4237   00   2     3.84493931E-04   # C11' nu_3 nu_3
Block IMFWCOEF Q=  1.60000000E+02  # Im(Wilson coefficients) at scale Q
#    id        order  M        value         comment
     0305 4422   00   0     3.85816138E-07   # C7
     0305 4422   00   2     6.22471399E-06   # C7
     0305 4322   00   2     4.57464760E-07   # C7'
     0305 6421   00   0     3.30477037E-07   # C8
     0305 6421   00   2    -1.96673689E-06   # C8
     0305 6321   00   2     6.97423661E-08   # C8'
 03051111 4133   00   2     1.77828956E-07   # C9 e+e-
 03051111 4233   00   2     4.71039331E-06   # C9' e+e-
 03051111 4137   00   2    -3.43345900E-07   # C10 e+e-
 03051111 4237   00   2    -3.49931227E-05   # C10' e+e-
 03051313 4133   00   2     1.77827481E-07   # C9 mu+mu-
 03051313 4233   00   2     4.71039220E-06   # C9' mu+mu-
 03051313 4137   00   2    -3.43344381E-07   # C10 mu+mu-
 03051313 4237   00   2    -3.49931260E-05   # C10' mu+mu-
 03051212 4137   00   2     8.78698478E-08   # C11 nu_1 nu_1
 03051212 4237   00   2     7.57158079E-06   # C11' nu_1 nu_1
 03051414 4137   00   2     8.78699089E-08   # C11 nu_2 nu_2
 03051414 4237   00   2     7.57158079E-06   # C11' nu_2 nu_2
 03051616 4137   00   2     8.78870565E-08   # C11 nu_3 nu_3
 03051616 4237   00   2     7.57158077E-06   # C11' nu_3 nu_3
