Define dm_incohMix_B_s0 0.0e12
Define dm_incohMix_B0 0.0e12
Alias my_0_1_0_J/psi J/psi
Alias my_1_1_0_J/psi J/psi
Alias my_1_1_0_K_1+ K_1+
Alias my_2_1_0_J/psi J/psi
Alias my_2_1_0_K_1+ K_1+
Alias my_2_2_0_rho0 rho0
Alias my_3_1_0_psi(2S) psi(2S)
Alias my_3_2_0_J/psi J/psi
Alias my_4_1_0_J/psi J/psi
Alias my_4_1_0_K_1+ K_1+
Alias my_4_2_0_K*0 K*0
Alias my_5_1_0_psi(2S) psi(2S)
Alias my_6_1_0_J/psi J/psi
Alias my_6_1_0_K_2*+ K_2*+
Alias my_6_2_0_K*0 K*0
Alias my_7_1_0_J/psi J/psi
Alias my_7_1_0_K'_1+ K'_1+
Alias my_7_2_0_K*0 K*0
Alias my_8_1_0_J/psi J/psi
Alias my_9_1_0_J/psi J/psi
Alias my_9_1_0_phi phi
Alias my_10_1_0_J/psi J/psi
Alias my_10_1_0_K_2*+ K_2*+
Alias my_10_2_0_rho0 rho0
Alias my_11_1_0_psi(2S) psi(2S)
Alias my_11_2_0_J/psi J/psi
Alias my_12_1_0_psi(2S) psi(2S)
Alias my_12_1_0_K_1+ K_1+
Alias my_13_1_0_psi(2S) psi(2S)
Alias my_13_1_0_K_1+ K_1+
Alias my_13_2_0_rho0 rho0
Alias my_14_1_0_J/psi J/psi
Alias my_14_1_0_omega omega
Alias my_15_1_0_psi(2S) psi(2S)
Alias my_15_1_0_K_1+ K_1+
Alias my_15_2_0_K*0 K*0
Alias my_16_1_0_J/psi J/psi
Alias my_16_1_0_K_1+ K_1+
Alias my_16_2_0_omega omega
Alias my_17_1_0_J/psi J/psi
Alias my_17_1_0_K'_1+ K'_1+
Alias my_18_1_0_J/psi J/psi
Alias my_18_1_0_K'_1+ K'_1+
Alias my_18_2_0_rho0 rho0
Alias my_19_1_0_psi(3770) psi(3770)
Alias my_19_2_0_J/psi J/psi
Alias my_20_1_0_psi(2S) psi(2S)
Alias my_20_1_0_phi phi
Alias my_21_1_0_J/psi J/psi
Alias my_21_1_0_K_2*+ K_2*+
Alias my_21_2_0_omega omega
Alias my_22_1_0_psi(2S) psi(2S)
Alias my_22_1_0_K_1+ K_1+
Alias my_22_2_0_omega omega
Alias my_23_1_0_J/psi J/psi
Alias my_23_1_0_K'_1+ K'_1+
Alias my_23_2_0_omega omega
Alias my_24_1_0_J/psi J/psi
Alias my_24_1_0_phi phi
Alias cc_my_1_1_0_K_1+ K_1-
Alias cc_my_2_1_0_K_1+ K_1-
Alias cc_my_4_1_0_K_1+ K_1-
Alias cc_my_4_2_0_K*0 anti-K*0
Alias cc_my_6_1_0_K_2*+ K_2*-
Alias cc_my_6_2_0_K*0 anti-K*0
Alias cc_my_7_1_0_K'_1+ K'_1-
Alias cc_my_7_2_0_K*0 anti-K*0
Alias cc_my_10_1_0_K_2*+ K_2*-
Alias cc_my_12_1_0_K_1+ K_1-
Alias cc_my_13_1_0_K_1+ K_1-
Alias cc_my_15_1_0_K_1+ K_1-
Alias cc_my_15_2_0_K*0 anti-K*0
Alias cc_my_16_1_0_K_1+ K_1-
Alias cc_my_17_1_0_K'_1+ K'_1-
Alias cc_my_18_1_0_K'_1+ K'_1-
Alias cc_my_21_1_0_K_2*+ K_2*-
Alias cc_my_22_1_0_K_1+ K_1-
Alias cc_my_23_1_0_K'_1+ K'_1-
ChargeConj my_1_1_0_K_1+ cc_my_1_1_0_K_1+
ChargeConj my_2_1_0_K_1+ cc_my_2_1_0_K_1+
ChargeConj my_4_1_0_K_1+ cc_my_4_1_0_K_1+
ChargeConj my_4_2_0_K*0 cc_my_4_2_0_K*0
ChargeConj my_6_1_0_K_2*+ cc_my_6_1_0_K_2*+
ChargeConj my_6_2_0_K*0 cc_my_6_2_0_K*0
ChargeConj my_7_1_0_K'_1+ cc_my_7_1_0_K'_1+
ChargeConj my_7_2_0_K*0 cc_my_7_2_0_K*0
ChargeConj my_10_1_0_K_2*+ cc_my_10_1_0_K_2*+
ChargeConj my_12_1_0_K_1+ cc_my_12_1_0_K_1+
ChargeConj my_13_1_0_K_1+ cc_my_13_1_0_K_1+
ChargeConj my_15_1_0_K_1+ cc_my_15_1_0_K_1+
ChargeConj my_15_2_0_K*0 cc_my_15_2_0_K*0
ChargeConj my_16_1_0_K_1+ cc_my_16_1_0_K_1+
ChargeConj my_17_1_0_K'_1+ cc_my_17_1_0_K'_1+
ChargeConj my_18_1_0_K'_1+ cc_my_18_1_0_K'_1+
ChargeConj my_21_1_0_K_2*+ cc_my_21_1_0_K_2*+
ChargeConj my_22_1_0_K_1+ cc_my_22_1_0_K_1+
ChargeConj my_23_1_0_K'_1+ cc_my_23_1_0_K'_1+
Decay B+
0.4219161468  my_0_1_0_J/psi K+ pi+ pi-  PHSP;
0.1351512717  my_1_1_0_J/psi my_1_1_0_K_1+  SVV_HELAMP 0.5 0.0 1.0 0.0 0.5 0.0;
0.1308956352  my_2_1_0_J/psi my_2_1_0_K_1+  SVV_HELAMP 0.5 0.0 1.0 0.0 0.5 0.0;
0.1081686885  my_3_1_0_psi(2S) K+  SVS;
0.0664807514  my_4_1_0_J/psi my_4_1_0_K_1+  SVV_HELAMP 0.5 0.0 1.0 0.0 0.5 0.0;
0.0293093546  my_5_1_0_psi(2S) K+ pi+ pi-  PHSP;
0.0284704874  my_6_1_0_J/psi my_6_1_0_K_2*+  PHSP;
0.0218071818  my_7_1_0_J/psi my_7_1_0_K'_1+  SVV_HELAMP 0.5 0.0 1.0 0.0 0.5 0.0;
0.0175230758  my_8_1_0_J/psi K+ K+ K-  PHSP;
0.0127620842  my_9_1_0_J/psi my_9_1_0_phi K+  PHSP;
0.0075316933  my_10_1_0_J/psi my_10_1_0_K_2*+  PHSP;
0.0042629432  my_11_1_0_psi(2S) pi+  PHSP;
0.0038998119  my_12_1_0_psi(2S) my_12_1_0_K_1+  PHSP;
0.0037770148  my_13_1_0_psi(2S) my_13_1_0_K_1+  PHSP;
0.0025457857  my_14_1_0_J/psi my_14_1_0_omega K+  PHSP;
0.0019183129  my_15_1_0_psi(2S) my_15_1_0_K_1+  PHSP;
0.0015752049  my_16_1_0_J/psi my_16_1_0_K_1+  SVV_HELAMP 0.5 0.0 1.0 0.0 0.5 0.0;
0.0006915635  my_17_1_0_J/psi my_17_1_0_K'_1+  SVV_HELAMP 0.5 0.0 1.0 0.0 0.5 0.0;
0.0005194271  my_18_1_0_J/psi my_18_1_0_K'_1+  SVV_HELAMP 0.5 0.0 1.0 0.0 0.5 0.0;
0.0004898113  my_19_1_0_psi(3770) K+  SVS;
0.0001322533  my_20_1_0_psi(2S) my_20_1_0_phi K+  PHSP;
0.0001153559  my_21_1_0_J/psi my_21_1_0_K_2*+  PHSP;
0.0000454528  my_22_1_0_psi(2S) my_22_1_0_K_1+  PHSP;
0.0000079556  my_23_1_0_J/psi my_23_1_0_K'_1+  SVV_HELAMP 0.5 0.0 1.0 0.0 0.5 0.0;
0.0000027364  my_24_1_0_J/psi my_24_1_0_phi K+  PHSP;
Enddecay
Decay my_0_1_0_J/psi
1.0000 mu+ mu-  VLL;
Enddecay
Decay my_1_1_0_J/psi
1.0000 mu+ mu-  VLL;
Enddecay
Decay my_1_1_0_K_1+
1.0000 K+ pi+ pi-  PHSP;
Enddecay
Decay my_2_1_0_J/psi
1.0000 mu+ mu-  VLL;
Enddecay
Decay my_2_1_0_K_1+
1.0000 my_2_2_0_rho0 K+  VVS_PWAVE 1.0 0.0 0.0 0.0 0.0 0.0;
Enddecay
Decay my_2_2_0_rho0
1.0000 pi+ pi-  VSS;
Enddecay
Decay my_3_1_0_psi(2S)
1.0000 my_3_2_0_J/psi pi+ pi-  VVPIPI;
Enddecay
Decay my_3_2_0_J/psi
1.0000 mu+ mu-  VLL;
Enddecay
Decay my_4_1_0_J/psi
1.0000 mu+ mu-  VLL;
Enddecay
Decay my_4_1_0_K_1+
1.0000 my_4_2_0_K*0 pi+  VVS_PWAVE 1.0 0.0 0.0 0.0 0.0 0.0;
Enddecay
Decay my_4_2_0_K*0
1.0000 K+ pi-  VSS;
Enddecay
Decay my_5_1_0_psi(2S)
1.0000 mu+ mu-  VLL;
Enddecay
Decay my_6_1_0_J/psi
1.0000 mu+ mu-  VLL;
Enddecay
Decay my_6_1_0_K_2*+
1.0000 my_6_2_0_K*0 pi+  TVS_PWAVE 0.0 0.0 1.0 0.0 0.0 0.0;
Enddecay
Decay my_6_2_0_K*0
1.0000 K+ pi-  VSS;
Enddecay
Decay my_7_1_0_J/psi
1.0000 mu+ mu-  VLL;
Enddecay
Decay my_7_1_0_K'_1+
1.0000 my_7_2_0_K*0 pi+  VVS_PWAVE 1.0 0.0 0.0 0.0 0.0 0.0;
Enddecay
Decay my_7_2_0_K*0
1.0000 K+ pi-  VSS;
Enddecay
Decay my_8_1_0_J/psi
1.0000 mu+ mu-  VLL;
Enddecay
Decay my_9_1_0_J/psi
1.0000 mu+ mu-  VLL;
Enddecay
Decay my_9_1_0_phi
1.0000 K+ K-  VSS;
Enddecay
Decay my_10_1_0_J/psi
1.0000 mu+ mu-  VLL;
Enddecay
Decay my_10_1_0_K_2*+
1.0000 my_10_2_0_rho0 K+  TVS_PWAVE 0.0 0.0 1.0 0.0 0.0 0.0;
Enddecay
Decay my_10_2_0_rho0
1.0000 pi+ pi-  VSS;
Enddecay
Decay my_11_1_0_psi(2S)
1.0000 my_11_2_0_J/psi pi+ pi-  VVPIPI;
Enddecay
Decay my_11_2_0_J/psi
1.0000 mu+ mu-  VLL;
Enddecay
Decay my_12_1_0_psi(2S)
1.0000 mu+ mu-  VLL;
Enddecay
Decay my_12_1_0_K_1+
1.0000 K+ pi+ pi-  PHSP;
Enddecay
Decay my_13_1_0_psi(2S)
1.0000 mu+ mu-  VLL;
Enddecay
Decay my_13_1_0_K_1+
1.0000 my_13_2_0_rho0 K+  VVS_PWAVE 1.0 0.0 0.0 0.0 0.0 0.0;
Enddecay
Decay my_13_2_0_rho0
1.0000 pi+ pi-  VSS;
Enddecay
Decay my_14_1_0_J/psi
1.0000 mu+ mu-  VLL;
Enddecay
Decay my_14_1_0_omega
1.0000 pi- pi+  VSS;
Enddecay
Decay my_15_1_0_psi(2S)
1.0000 mu+ mu-  VLL;
Enddecay
Decay my_15_1_0_K_1+
1.0000 my_15_2_0_K*0 pi+  VVS_PWAVE 1.0 0.0 0.0 0.0 0.0 0.0;
Enddecay
Decay my_15_2_0_K*0
1.0000 K+ pi-  VSS;
Enddecay
Decay my_16_1_0_J/psi
1.0000 mu+ mu-  VLL;
Enddecay
Decay my_16_1_0_K_1+
1.0000 my_16_2_0_omega K+  VVS_PWAVE 1.0 0.0 0.0 0.0 0.0 0.0;
Enddecay
Decay my_16_2_0_omega
1.0000 pi- pi+  VSS;
Enddecay
Decay my_17_1_0_J/psi
1.0000 mu+ mu-  VLL;
Enddecay
Decay my_17_1_0_K'_1+
1.0000 K+ pi+ pi-  PHSP;
Enddecay
Decay my_18_1_0_J/psi
1.0000 mu+ mu-  VLL;
Enddecay
Decay my_18_1_0_K'_1+
1.0000 my_18_2_0_rho0 K+  VVS_PWAVE 1.0 0.0 0.0 0.0 0.0 0.0;
Enddecay
Decay my_18_2_0_rho0
1.0000 pi+ pi-  VSS;
Enddecay
Decay my_19_1_0_psi(3770)
1.0000 my_19_2_0_J/psi pi+ pi-  PHSP;
Enddecay
Decay my_19_2_0_J/psi
1.0000 mu+ mu-  VLL;
Enddecay
Decay my_20_1_0_psi(2S)
1.0000 mu+ mu-  VLL;
Enddecay
Decay my_20_1_0_phi
1.0000 K+ K-  VSS;
Enddecay
Decay my_21_1_0_J/psi
1.0000 mu+ mu-  VLL;
Enddecay
Decay my_21_1_0_K_2*+
1.0000 my_21_2_0_omega K+  TVS_PWAVE 0.0 0.0 1.0 0.0 0.0 0.0;
Enddecay
Decay my_21_2_0_omega
1.0000 pi- pi+  VSS;
Enddecay
Decay my_22_1_0_psi(2S)
1.0000 mu+ mu-  VLL;
Enddecay
Decay my_22_1_0_K_1+
1.0000 my_22_2_0_omega K+  VVS_PWAVE 1.0 0.0 0.0 0.0 0.0 0.0;
Enddecay
Decay my_22_2_0_omega
1.0000 pi- pi+  VSS;
Enddecay
Decay my_23_1_0_J/psi
1.0000 mu+ mu-  VLL;
Enddecay
Decay my_23_1_0_K'_1+
1.0000 my_23_2_0_omega K+  VVS_PWAVE 1.0 0.0 0.0 0.0 0.0 0.0;
Enddecay
Decay my_23_2_0_omega
1.0000 pi- pi+  VSS;
Enddecay
Decay my_24_1_0_J/psi
1.0000 mu+ mu-  VLL;
Enddecay
Decay my_24_1_0_phi
1.0000 pi+ pi-  VSS;
Enddecay
End
