BLOCK SPINFO
   1   SPheno
   2   v4.0.5be

BLOCK SPHENOINFO
   1   2
   2   2

BLOCK MODSEL
   1   0

BLOCK MINPAR
   3    13.374563
   4    1

BLOCK EXTPAR
   0    1632.7907
   1    147.22088
   2   -873.81959
   3    3000
   11    3586.5191
   12   -923.85668
   13   -1710.9388
   23    267.87741
   25    12.819672
   26    1931.8842
   31    1254.9339
   32    1254.9339
   33    1097.9012
   34    851.68383
   35    851.68383
   36    1405.112
   41    5000
   42    5000
   43    1977.1869
   44    5000
   45    5000
   46    1404.0271
   47    5000
   48    5000
   49    940.58846

BLOCK SMINPUTS
   1    127.90897
   2    1.1663787e-05
   3    0.1184
   4    91.1876
   5    4.18
   6    173.2
   7    1.777
   8    0
   11    0.00051099893
   12    0
   13    0.10565837
   14    0
   21    0.005
   22    0.0025
   23    0.095
   24    1.27

BLOCK GAUGE Q=  1632.7907
   1    0.35536298
   2    0.66519887
   3    1.219778

BLOCK YU Q=  1632.7907
   1   1    8.409842e-06
   2   2    0.0042721998
   3   3    1.0159765

BLOCK YD Q=  1632.7907
   1   1    0.00021664317
   2   2    0.0041162201
   3   3    0.21484213

BLOCK YE Q=  1632.7907
   1   1    3.7805817e-05
   2   2    0.0078170439
   3   3    0.13146982

BLOCK AU Q=  1632.7907
   1   1    0
   2   2    0
   3   3    3586.5192

BLOCK AD Q=  1632.7907
   1   1    0
   2   2    0
   3   3   -923.85667

BLOCK AE Q=  1632.7907
   1   1    0
   2   2    0
   3   3   -1710.9388

BLOCK MSOFT Q=  1632.7907
   1    147.22088
   2   -873.81959
   3    3000
   21    3632406.5
   22    8724.9024
   31    1254.9339
   32    1254.9339
   33    1097.9012
   34    851.68383
   35    851.68383
   36    1405.112
   41    5000
   42    5000
   43    1977.1869
   44    5000
   45    5000
   46    1404.0271
   47    5000
   48    5000
   49    940.58846

BLOCK MASS
   6    173.2
   23    91.1876
   24    80.429995
   15    1.777
   25    124.70794
   35    1931.7537
   36    1931.8842
   37    1933.71
   1000001    5034.5158
   2000001    5024.4142
   1000002    5034.0765
   2000002    5025.4935
   1000003    5034.5164
   2000003    5024.4147
   1000004    5034.0771
   2000004    5025.4942
   1000005    954.37284
   2000005    1978.1302
   1000006    1323.259
   2000006    2014.727
   1000011    1261.9919
   2000011    855.76001
   1000012    1259.1672
   1000013    1261.9907
   2000013    855.75656
   1000014    1259.1659
   1000015    1105.6809
   2000015    1407.4923
   1000016    1102.5708
   1000021    3201.5965
   1000022    139.82298
   1000023   -265.96177
   1000025    280.27491
   1000035   -922.50862
   1000024    267.25132
   1000037    922.6618

BLOCK ALPHA
      -0.075073659

BLOCK HMIX Q=  1632.7907
   1    267.87741
   2    12.819672
   3    243.89366
   4    3732176.6

BLOCK STOPMIX
   1   1   -0.24037825
   1   2    0.9706793
   2   1   -0.9706793
   2   2   -0.24037825

BLOCK SBOTMIX
   1   1    0.0032359297
   1   2    0.99999476
   2   1   -0.99999476
   2   2    0.0032359297

BLOCK STAUMIX
   1   1    0.99993006
   1   2    0.011827184
   2   1   -0.011827184
   2   2    0.99993006

BLOCK NMIX
   1   1   -0.96632997
   1   2   -0.011052053
   1   3   -0.22301824
   1   4    0.12785577
   2   1    0.069652103
   2   2    0.079845722
   2   3   -0.70676216
   2   4   -0.69947158
   3   1    0.24766965
   3   2   -0.05016118
   3   3   -0.67106933
   3   4    0.6970004
   4   1    0.0038352747
   4   2   -0.99548298
   4   3   -0.020397633
   4   4   -0.092643718

BLOCK UMIX
   1   1   -0.029119122
   1   2    0.99957595
   2   1   -0.99957595
   2   2   -0.029119122

BLOCK VMIX
   1   1    0.13154878
   1   2    0.9913097
   2   1    0.9913097
   2   2   -0.13154878

BLOCK HIGGSBOUNDSINPUTHIGGSCOUPLINGSFERMIONS
       0, 164.34399,3,36,15,15

BLOCK HIGGSBOUNDSINPUTHIGGSCOUPLINGSBOSONS
       0,4,36,21,21,23

BLOCK SPHENOLOWENERGY
   1    0.00034406627
   2    1.5870727e-06
   3    3.52266e-05
   4    2.5040254e-15
   5    1.0696915e-10
   6    2.2395025e-08
   7    8.4201287e-14
   8    3.5970774e-09
   9    7.6304214e-07
   10    9.6517215e-05
   11    0.99698588
   12    0.54330372
   13    19.411425
   14    0
   15    0
   16    0.0021631155
   17    2.2817176e-15
   18    2.4773951e-11
   19    8.2845788e-11
   20   -2.8658391e-15
   21   -1.2252375e-10
   22   -3.7313124e-08
   23    0
   24    0
   25    0
   26    0
   27    0
   28    0
   29    0
   30    0
   31    0
   39    3.3587256e-05
   40    0
   41    0
   42    0

BLOCK FWCOEF Q=  160
   305   4422   0   0   -0.18881911
   305   4422   0   2   -0.21475619
   305   4322   0   2   -0.00035081164
   305   6421   0   0   -0.095227835
   305   6421   0   2   -0.11740294
   305   6321   0   2   -0.00035800011
   3051111   4133   0   0    1.5947715
   3051111   4133   0   2    1.5961257
   3051111   4233   0   2    2.027486e-05
   3051111   4137   0   0   -4.4174636
   3051111   4137   0   2   -4.4132095
   3051111   4237   0   2   -0.00015616689
   3051313   4133   0   0    1.5947715
   3051313   4133   0   2    1.5961253
   3051313   4233   0   2    2.0274828e-05
   3051313   4137   0   0   -4.4174636
   3051313   4137   0   2   -4.4132099
   3051313   4237   0   2   -0.00015616691
   3051212   4137   0   0    1.5053501
   3051212   4137   0   2    1.5044348
   3051212   4237   0   2    3.3995425e-05
   3051414   4137   0   0    1.5053501
   3051414   4137   0   2    1.5044348
   3051414   4237   0   2    3.3995428e-05
   3051616   4137   0   0    1.5053501
   3051616   4137   0   2    1.5044348
   3051616   4237   0   2    3.3996199e-05

BLOCK IMFWCOEF Q=  160
   305   4422   0   0    3.8580937e-07
   305   4422   0   2   -4.6409402e-06
   305   4322   0   2   -1.8019652e-06
   305   6421   0   0    3.3047124e-07
   305   6421   0   2   -5.111406e-06
   305   6321   0   2   -7.6785516e-07
   3051111   4133   0   2    2.4109019e-07
   3051111   4233   0   2    5.1471457e-07
   3051111   4137   0   2   -1.3216647e-06
   3051111   4237   0   2   -3.9737979e-06
   3051313   4133   0   2    2.410856e-07
   3051313   4233   0   2    5.1471431e-07
   3051313   4137   0   2   -1.3216669e-06
   3051313   4237   0   2   -3.9737986e-06
   3051212   4137   0   2    4.7808346e-07
   3051212   4237   0   2    8.65177e-07
   3051414   4137   0   2    4.7808348e-07
   3051414   4237   0   2    8.65177e-07
   3051616   4137   0   2    4.7879053e-07
   3051616   4237   0   2    8.6517176e-07

DECAY 23  2.4952


DECAY 24  2.085


DECAY 2000011  4.030912
    0.94362775   2    1000022    11
    0.052148564   2    1000025    11
    0.0042236818   2    1000023    11

DECAY 1000011  5.2122501
    0.4614024   2   -1000037    12
    0.28906642   2    1000022    11
    0.22804864   2    1000035    11
    0.013333861   2    1000023    11
    0.006499879   2    1000025    11
    0.0016487984   2   -1000024    12

DECAY 2000013  4.0325875
    0.94324332   2    1000022    13
    0.052219569   2    1000025    13
    0.0043271844   2    1000023    13
    0.00020993198   2   -1000024    14

DECAY 1000013  5.213645
    0.46127645   2   -1000037    14
    0.28900314   2    1000022    13
    0.22798645   2    1000035    13
    0.013464395   2    1000023    13
    0.0066178255   2    1000025    13
    0.0016483553   2   -1000024    14

DECAY 1000015  3.084684
    0.4320177   2    1000022    15
    0.29061655   2   -1000037    16
    0.14375784   2    1000035    15
    0.074059815   2    1000023    15
    0.05678049   2    1000025    15
    0.0027676147   2   -1000024    16

DECAY 2000015  7.830405
    0.82912429   2    1000022    15
    0.07738635   2    1000025    15
    0.057174863   2   -1000024    16
    0.032647849   2    1000023    15
    0.00175137   2    1000016   -24
    0.00085113676   2    1000015    25
    0.00082219372   2    1000015    23
    0.00015898015   2   -1000037    16

DECAY 1000012  5.2498343
    0.44491961   2    1000037    11
    0.26282016   2    1000022    12
    0.22543467   2    1000035    12
    0.033320232   2    1000024    11
    0.031753647   2    1000025    12
    0.0017516778   2    1000023    12

DECAY 1000014  5.2512071
    0.44480061   2    1000037    13
    0.26275116   2    1000022    14
    0.22537441   2    1000035    14
    0.033577298   2    1000024    13
    0.031745306   2    1000025    14
    0.0017512177   2    1000023    14

DECAY 1000016  3.1241711
    0.38378426   2    1000022    16
    0.27421878   2    1000037    15
    0.15517042   2    1000024    15
    0.13906935   2    1000035    16
    0.045252469   2    1000025    16
    0.0025047236   2    1000023    16

DECAY 2000001  142.71648
    0.98038138   2    1000021    1
    0.01832531   2    1000022    1
    0.0011981667   2    1000025    1

DECAY 1000001  203.76934
    0.69179867   2    1000021    1
    0.20295944   2   -1000037    2
    0.10079084   2    1000035    1
    0.0028154167   2    1000022    1
    0.00096034614   2    1000025    1
    0.00049189496   2    1000023    1
    0.00018338238   2   -1000024    2

DECAY 2000003  142.71988
    0.98035832   2    1000021    3
    0.018325461   2    1000022    3
    0.001203435   2    1000025    3
    0.00010071336   2    1000023    3

DECAY 1000003  203.7729
    0.69178686   2    1000021    3
    0.20295607   2   -1000037    4
    0.1007891   2    1000035    3
    0.00281578   2    1000022    3
    0.00096404687   2    1000025    3
    0.00049601125   2    1000023    3
    0.00019214295   2   -1000024    4

DECAY 1000005  1.9352175
    0.35397382   2   -1000024    6
    0.26822797   2    1000022    5
    0.1938046   2    1000023    5
    0.18399324   2    1000025    5

DECAY 2000005  106.62249
    0.47012051   2    1000006   -24
    0.35491639   2   -1000024    6
    0.105476   2   -1000037    6
    0.049628493   2    1000035    5
    0.0085539625   2    1000023    5
    0.0080950518   2    1000025    5
    0.0029074837   2    1000022    5
    0.00018686918   2    1000005    25
    0.00011524036   2    1000005    23

DECAY 2000002  151.2308
    0.92592794   2    1000021    2
    0.069189264   2    1000022    2
    0.0045237668   2    1000025    2
    0.00035800805   2    1000023    2

DECAY 1000002  203.7659
    0.69158598   2    1000021    2
    0.1996   2    1000037    1
    0.10050633   2    1000035    2
    0.0037423662   2    1000024    1
    0.0036411573   2    1000022    2
    0.00092020841   2    1000023    2

DECAY 2000004  151.23443
    0.92590574   2    1000021    4
    0.069187794   2    1000022    4
    0.0045294936   2    1000025    4
    0.00036386706   2    1000023    4

DECAY 1000004  203.76941
    0.6915741   2    1000021    4
    0.1995966   2    1000037    3
    0.10050465   2    1000035    4
    0.0037505546   2    1000024    3
    0.0036412417   2    1000022    4
    0.00092456072   2    1000023    4

DECAY 1000006  51.80231
    0.46761881   2    1000024    5
    0.2484787   2    1000025    6
    0.23609891   2    1000023    6
    0.047622613   2    1000022    6
    0.00011130668   2    1000037    5

DECAY 2000006  113.28135
    0.2494664   2    1000006    25
    0.23918089   2    1000006    23
    0.16684642   2    1000023    6
    0.15680085   2    1000025    6
    0.09985339   2    1000037    5
    0.048978284   2    1000035    6
    0.023259272   2    1000024    5
    0.01539058   2    1000022    6
    0.00022392359   2    1000005    24

DECAY 1000024  0.090015062
    0.99999947   2    1000022    24

DECAY 1000037  7.3124442
    0.25265999   2    1000023    24
    0.24855785   2    1000024    23
    0.23794513   2    1000024    25
    0.23426325   2    1000025    24
    0.016714868   2    1000022    24
    0.0041832049   3    1000023   -5    6
    0.0030301319   3    1000025   -5    6
    0.0023322046   3    1000024    6   -6
    0.00024442949   3    1000022   -5    6

DECAY 1000022 -1


DECAY 1000023  0.206541
    0.93692394   2    1000022    23
    0.063042631   2    1000022    25

DECAY 1000025  0.066318442
    0.77118931   2    1000022    25
    0.22876127   2    1000022    23

DECAY 1000035  8.621413
    0.21906139   2    1000024   -24
    0.21906139   2   -1000024    24
    0.18533744   2    1000025    25
    0.14486663   2    1000025    23
    0.14130635   2    1000023    25
    0.061799171   2    1000023    23
    0.010623187   2    1000022    25
    0.0078344982   2    1000022    23
    0.004132428   3    1000024    5   -6
    0.004132428   3   -1000024   -5    6
    0.00083796995   3    1000025    6   -6
    0.00079099002   3    1000023    6   -6

DECAY 1000021  215.43162
    0.18259191   2    1000005   -5
    0.18259191   2   -1000005    5
    0.16015873   2    1000006   -6
    0.16015873   2   -1000006    6
    0.084073779   2    2000005   -5
    0.084073779   2   -2000005    5
    0.073088924   2    2000006   -6
    0.073088924   2   -2000006    6

DECAY 25  0.0038579449
    0.57927592   2   -5    5
    0.22277574   2   -24    24
    0.071829717   2    21    21
    0.066633256   2   -15    15
    0.028429777   2   -4    4
    0.026811926   2    23    23
    0.0023300642   2    22    22
    0.001464091   2    22    23
    0.00023109638   2   -13    13
    0.00021765133   2   -3    3
    6.0178326e-07   2   -1    1
    1.465063e-07   2   -2    2
    5.1953067e-09   2   -11    11

DECAY 35  20.720401
    0.21486566   2   -1000024    1000037
    0.21486566   2   -1000037    1000024
    0.18004578   2   -5    5
    0.10701879   2    1000023    1000035
    0.1012075   2    1000025    1000035
    0.057599582   2    1000022    1000023
    0.03349484   2   -15    15
    0.026885827   2    1000022    1000025
    0.018927981   2   -6    6
    0.01334934   2   -1000024    1000024
    0.0094071397   2    1000022    1000035
    0.0084811123   2    1000025    1000025
    0.0082134109   2    1000022    1000022
    0.0042308574   2    1000023    1000025
    0.00093785836   2    1000023    1000023
    0.00011635329   2   -13    13
    0.0001052125   2    25    25
    9.4063959e-05   2   -1000037    1000037
    7.364387e-05   2   -3    3
    4.703951e-05   2    1000035    1000035
    1.6454135e-05   2    23    23
    9.1689306e-06   2   -24    24
    3.7634403e-06   2    21    21
    1.1355003e-06   2   -1000011    1000011
    1.1341705e-06   2   -1000013    1000013
    2.7440565e-07   2   -4    4
    2.036062e-07   2   -1    1
    1.96568e-07   2    22    23
    2.0191686e-08   2    22    22
    2.6135827e-09   2   -11    11
    1.4147293e-12   2   -2    2

DECAY 36  20.600022
    0.21613081   2   -1000024    1000037
    0.21613081   2   -1000037    1000024
    0.17622298   2   -5    5
    0.1111356   2    1000023    1000035
    0.097438897   2    1000025    1000035
    0.041889419   2    1000022    1000023
    0.039284169   2    1000022    1000025
    0.032783222   2   -15    15
    0.018779287   2   -6    6
    0.013555761   2   -1000024    1000024
    0.01271553   2    1000025    1000025
    0.010314283   2    1000022    1000035
    0.010041928   2    1000022    1000022
    0.0023555973   2    1000023    1000025
    0.00075817908   2    1000023    1000023
    0.00014936173   2   -1000037    1000037
    0.00011388095   2   -13    13
    7.5363774e-05   2    1000035    1000035
    7.2078083e-05   2   -3    3
    3.0031015e-05   2    21    21
    2.2181951e-05   2    23    25
    2.6260821e-07   2   -4    4
    1.9927695e-07   2   -1    1
    1.5599237e-07   2    22    23
    4.3880632e-09   2    22    22
    2.5580464e-09   2   -11    11
    1.3540242e-12   2   -2    2
    3.8437628e-36   2    25    25

DECAY 37  20.563925
    0.22304948   2    1000023    1000037
    0.21851786   2    1000024    1000035
    0.1996573   2    1000025    1000037
    0.19438441   2   -5    6
    0.1067277   2    1000022    1000024
    0.033638707   2   -15    16
    0.019847849   2    1000022    1000037
    0.0027783145   2    1000023    1000024
    0.00089558405   2    1000024    1000025
    0.0002572479   2   -5    4
    0.00011892496   2   -13    14
    6.6972955e-05   2   -3    4
    3.0766749e-05   2   -3    6
    2.2318414e-05   2    24    25
    3.107598e-06   2   -3    2
    1.8370134e-06   2   -5    2
    1.4066423e-06   2   -1    6
    1.8507659e-07   2   -1    2
    2.157747e-08   2   -1    4
    2.7816671e-09   2   -11    12
    7.3502712e-10   2    1000035    1000037
    1.8959218e-12   2    24    35
    1.3423955e-12   2    24    36

DECAY 6  2.43
    1   2    5    24

DECAY 15 -1
