BLOCK SPINFO
   1   SPheno
   2   v4.0.5be

BLOCK SPHENOINFO
   1   2
   2   2

BLOCK MODSEL
   1   0

BLOCK MINPAR
   3    55.243888
   4   -1

BLOCK EXTPAR
   0    1324.2105
   1    148.48936
   2   -150.35068
   3    3000
   11    1883.9509
   12   -1654.2132
   13   -1953.9423
   23   -710.29578
   25    57.692168
   26    1999.9148
   31    1289.5915
   32    1289.5915
   33    775.64293
   34    1465.8311
   35    1465.8311
   36    1304.3575
   41    5000
   42    5000
   43    1731.9374
   44    5000
   45    5000
   46    1100.0277
   47    5000
   48    5000
   49    1571.8865

BLOCK SMINPUTS
   1    127.90897
   2    1.1663787e-05
   3    0.1184
   4    91.1876
   5    4.18
   6    173.2
   7    1.777
   8    0
   11    0.00051099893
   12    0
   13    0.10565837
   14    0
   21    0.005
   22    0.0025
   23    0.095
   24    1.27

BLOCK GAUGE Q=  1324.2105
   1    0.35536298
   2    0.66519887
   3    1.219778

BLOCK YU Q=  1324.2105
   1   1    8.3856316e-06
   2   2    0.0042599008
   3   3    1.0130516

BLOCK YD Q=  1324.2105
   1   1    0.00097214911
   2   2    0.018470833
   3   3    0.96406729

BLOCK YE Q=  1324.2105
   1   1    0.00016964713
   2   2    0.035077646
   3   3    0.5899483

BLOCK AU Q=  1324.2105
   1   1    0
   2   2    0
   3   3    1883.9509

BLOCK AD Q=  1324.2105
   1   1    0
   2   2    0
   3   3   -1654.213

BLOCK AE Q=  1324.2105
   1   1    0
   2   2    0
   3   3   -1953.9423

BLOCK MSOFT Q=  1324.2105
   1    148.48936
   2   -150.35068
   3    3000
   21    3765335.7
   22   -476308.61
   31    1289.5915
   32    1289.5915
   33    775.64293
   34    1465.8311
   35    1465.8311
   36    1304.3575
   41    5000
   42    5000
   43    1731.9374
   44    5000
   45    5000
   46    1100.0277
   47    5000
   48    5000
   49    1571.8865

BLOCK MASS
   6    173.2
   23    91.1876
   24    80.429995
   15    1.777
   25    120.32288
   35    1993.6686
   36    1999.9148
   37    1997.4589
   1000001    5021.6834
   2000001    5010.8612
   1000002    5021.2237
   2000002    5012.3194
   1000003    5021.6975
   2000003    5010.878
   1000004    5021.2344
   2000004    5012.3204
   1000005    1521.0383
   2000005    1708.0033
   1000006    1022.6413
   2000006    1714.7102
   1000011    1292.5939
   2000011    1467.7256
   1000012    1289.74
   1000013    1292.5601
   2000013    1467.7014
   1000014    1289.7223
   1000015    773.13647
   2000015    1297.7254
   1000016    772.62226
   1000021    3175.4034
   1000022    148.25204
   1000023   -161.4374
   1000025    719.58146
   1000035   -720.96608
   1000024    161.64234
   1000037    723.82283

BLOCK ALPHA
      -0.018191864

BLOCK HMIX Q=  1324.2105
   1   -710.29578
   2    57.692168
   3    244.14007
   4    3999659.1

BLOCK STOPMIX
   1   1   -0.15477524
   1   2    0.98794971
   2   1   -0.98794971
   2   2   -0.15477524

BLOCK SBOTMIX
   1   1   -0.2534953
   1   2    0.96733662
   2   1   -0.96733662
   2   2   -0.2534953

BLOCK STAUMIX
   1   1   -0.99782435
   1   2    0.065928436
   2   1   -0.065928436
   2   2   -0.99782435

BLOCK NMIX
   1   1    0.99779275
   1   2    0.0027983077
   1   3   -0.065185651
   1   4   -0.012354107
   2   1    0.0045013971
   2   2    0.99274008
   2   3    0.11685338
   2   4   -0.028145289
   3   1    0.05478834
   3   2   -0.062809139
   3   3    0.70187665
   3   4    0.70740542
   4   1    0.037250489
   4   2   -0.10253932
   4   3    0.69961796
   4   4   -0.70613936

BLOCK UMIX
   1   1   -0.98635487
   1   2   -0.16463312
   2   1   -0.16463312
   2   2    0.98635487

BLOCK VMIX
   1   1    0.99921168
   1   2    0.039699125
   2   1    0.039699125
   2   2   -0.99921168

BLOCK HIGGSBOUNDSINPUTHIGGSCOUPLINGSFERMIONS
       0, 3328.3863,3,36,15,15

BLOCK HIGGSBOUNDSINPUTHIGGSCOUPLINGSBOSONS
       0,4,36,21,21,23

BLOCK SPHENOLOWENERGY
   1    0.00030422474
   2    1.5887784e-06
   3    3.5162303e-05
   4    3.9011086e-15
   5    1.666313e-10
   6    3.3766915e-08
   7    1.3490196e-13
   8    5.762317e-09
   9    1.1824629e-06
   10    9.3746675e-05
   11    0.96836726
   12    0.54260211
   13    19.380747
   14    0
   15    0
   16    0.0021592086
   17    2.2816825e-15
   18    2.4734606e-11
   19    8.274899e-11
   20    1.4957427e-14
   21    6.3950494e-10
   22    3.7728434e-07
   23    0
   24    0
   25    0
   26    0
   27    0
   28    0
   29    0
   30    0
   31    0
   39    0.00010076095
   40    0
   41    0
   42    0

BLOCK FWCOEF Q=  160
   305   4422   0   0   -0.18881911
   305   4422   0   2   -0.16671645
   305   4322   0   2   -3.3460039e-05
   305   6421   0   0   -0.095227835
   305   6421   0   2   -0.094638093
   305   6321   0   2   -0.00021273497
   3051111   4133   0   0    1.5884303
   3051111   4133   0   2    1.5894423
   3051111   4233   0   2    0.00024498108
   3051111   4137   0   0   -4.4111224
   3051111   4137   0   2   -4.4006095
   3051111   4237   0   2   -0.0019134748
   3051313   4133   0   0    1.5884303
   3051313   4133   0   2    1.5894351
   3051313   4233   0   2    0.00024497268
   3051313   4137   0   0   -4.4111224
   3051313   4137   0   2   -4.4006167
   3051313   4237   0   2   -0.0019134792
   3051212   4137   0   0    1.5053501
   3051212   4137   0   2    1.5030758
   3051212   4237   0   2    0.00041734414
   3051414   4137   0   0    1.5053501
   3051414   4137   0   2    1.5030758
   3051414   4237   0   2    0.00041734527
   3051616   4137   0   0    1.5053501
   3051616   4137   0   2    1.5030777
   3051616   4237   0   2    0.00041766385

BLOCK IMFWCOEF Q=  160
   305   4422   0   0    3.8588756e-07
   305   4422   0   2    1.6434179e-05
   305   4322   0   2    3.5693895e-06
   305   6421   0   0    3.3053821e-07
   305   6421   0   2    1.0570579e-05
   305   6321   0   2    1.4321211e-06
   3051111   4133   0   2    6.416356e-07
   3051111   4233   0   2    7.01957e-06
   3051111   4137   0   2    1.7030166e-06
   3051111   4237   0   2   -5.4901335e-05
   3051313   4133   0   2    6.4155263e-07
   3051313   4233   0   2    7.0195154e-06
   3051313   4137   0   2    1.7030877e-06
   3051313   4237   0   2   -5.4901508e-05
   3051212   4137   0   2   -3.4114221e-08
   3051212   4237   0   2    1.1974526e-05
   3051414   4137   0   2   -3.411065e-08
   3051414   4237   0   2    1.1974526e-05
   3051616   4137   0   2   -3.9651247e-10
   3051616   4237   0   2    1.1974499e-05

DECAY 23  2.4952


DECAY 24  2.085


DECAY 1000011  17.944365
    0.59778234   2   -1000024    12
    0.30426657   2    1000023    11
    0.088655434   2    1000022    11
    0.0080982041   2   -1000037    12
    0.0010275959   2    1000035    11
    0.000169864   2    1000025    11

DECAY 2000011  7.2120204
    0.99739161   2    1000022    11
    0.0017712808   2    1000025    11
    0.00081681754   2    1000035    11

DECAY 1000013  17.959177
    0.5972727   2   -1000024    14
    0.30403059   2    1000023    13
    0.088587133   2    1000022    13
    0.0080909274   2   -1000037    14
    0.0014357188   2    1000035    13
    0.00058293432   2    1000025    13

DECAY 2000013  7.2545111
    0.99155348   2    1000022    13
    0.0031683238   2    1000025    13
    0.0027595153   2   -1000037    14
    0.0022071266   2    1000035    13
    0.00013099515   2   -1000024    14

DECAY 1000015  10.392482
    0.5915294   2   -1000024    16
    0.30756204   2    1000023    15
    0.092070434   2    1000022    15
    0.0044884518   2    1000025    15
    0.0042361601   2    1000035    15
    0.00011351   2   -1000037    16

DECAY 2000015  18.202279
    0.3465955   2    1000022    15
    0.23261473   2   -1000037    16
    0.11868367   2    1000025    15
    0.11779101   2    1000035    15
    0.091971374   2    1000016   -24
    0.045183079   2    1000015    23
    0.041161844   2    1000015    25
    0.003957784   2   -1000024    16
    0.0020410054   2    1000023    15

DECAY 1000012  18.002602
    0.61004719   2    1000024    11
    0.29965264   2    1000023    12
    0.086331084   2    1000022    12
    0.0022344962   2    1000035    12
    0.001268134   2    1000025    12
    0.00046645182   2    1000037    11

DECAY 1000014  18.017579
    0.60957699   2    1000024    13
    0.29939919   2    1000023    14
    0.086258076   2    1000022    14
    0.0022325524   2    1000035    14
    0.0012670311   2    1000025    14
    0.001266161   2    1000037    13

DECAY 1000016  10.357001
    0.6121412   2    1000024    15
    0.29452791   2    1000023    16
    0.085645147   2    1000022    16
    0.0075545696   2    1000037    15

DECAY 2000001  144.43161
    0.98066675   2    1000021    1
    0.019250066   2    1000022    1

DECAY 1000001  209.57686
    0.68121365   2    1000021    1
    0.20478828   2   -1000024    2
    0.10355725   2    1000023    1
    0.0054819804   2   -1000037    2
    0.0032199061   2    1000022    1
    0.0012059298   2    1000035    1
    0.00053299371   2    1000025    1

DECAY 2000003  144.49848
    0.98022507   2    1000021    3
    0.019242219   2    1000022    3
    0.0002195353   2   -1000037    4
    0.00016695893   2    1000025    3
    0.00013624776   2    1000035    3

DECAY 1000003  209.61288
    0.68110359   2    1000021    3
    0.20475365   2   -1000024    4
    0.10354196   2    1000023    3
    0.0054893695   2   -1000037    4
    0.0032200499   2    1000022    3
    0.0012818493   2    1000035    3
    0.00060953421   2    1000025    3

DECAY 1000005  36.05641
    0.38265722   2   -1000037    6
    0.22467724   2    1000025    5
    0.22036324   2    1000035    5
    0.081671283   2   -1000024    6
    0.043010434   2    1000023    5
    0.031477796   2    1000022    5
    0.016142795   2    1000006   -24

DECAY 2000005  85.908438
    0.29718062   2   -1000037    6
    0.22844392   2    1000006   -24
    0.13464735   2   -1000024    6
    0.12707411   2    1000035    5
    0.12646783   2    1000025    5
    0.074086535   2    1000023    5
    0.0069879659   2    1000005    23
    0.003401171   2    1000005    25
    0.0017105074   2    1000022    5

DECAY 2000002  152.96301
    0.92696359   2    1000021    2
    0.072726849   2    1000022    2
    0.00021069865   2    1000025    2

DECAY 1000002  209.57131
    0.68100312   2    1000021    2
    0.21014803   2    1000024    1
    0.10388546   2    1000023    2
    0.0034290657   2    1000022    2
    0.00093041817   2    1000035    2
    0.00031915805   2    1000037    1
    0.00028475622   2    1000025    2

DECAY 2000004  152.96653
    0.92694257   2    1000021    4
    0.072725183   2    1000022    4
    0.00021637782   2    1000025    4
    0.00010303304   2    1000035    4

DECAY 1000004  209.60687
    0.68089263   2    1000021    4
    0.21011721   2    1000024    3
    0.10386805   2    1000023    4
    0.0034284922   2    1000022    4
    0.00093438849   2    1000035    4
    0.00047037271   2    1000037    3
    0.00028886605   2    1000025    4

DECAY 1000006  12.409914
    0.41231371   2    1000037    5
    0.19797335   2    1000025    6
    0.18111701   2    1000035    6
    0.15905392   2    1000022    6
    0.032619603   2    1000024    5
    0.014866729   2    1000023    6
    0.0019887421   2    1000023    4

DECAY 2000006  90.069766
    0.23452081   2    1000037    5
    0.16650866   2    1000024    5
    0.13706726   2    1000006    25
    0.12530408   2    1000035    6
    0.1226987   2    1000025    6
    0.11581527   2    1000006    23
    0.076667439   2    1000023    6
    0.017395034   2    1000005    24
    0.0040227459   2    1000022    6

DECAY 1000024  3.2132744e-11
    0.412215   3    1000022   -1    2
    0.39460372   3    1000022   -3    4
    0.082111252   3    1000022   -11    12
    0.082096031   3    1000022   -13    14
    0.028947412   3    1000022   -15    16

DECAY 1000037  5.100527
    0.3103124   2    1000023    24
    0.29960625   2    1000024    23
    0.2879071   2    1000024    25
    0.096500544   2    1000022    24
    0.002879325   3    1000023   -5    6
    0.001442829   3    1000024    6   -6
    0.00088777962   3    1000022   -5    6
    0.00023378512   3    1000024    15   -15
    0.00010843245   3    1000023   -15    16

DECAY 1000022 -1


DECAY 1000023  9.5260899e-11
    0.40665769   2    1000022    22
    0.1278221   3    1000022    1   -1
    0.12774612   3    1000022    3   -3
    0.099817506   3    1000022    2   -2
    0.088242879   3    1000022    4   -4
    0.065928   3    1000022    12   -12
    0.042622322   3    1000022    5   -5
    0.015914756   3    1000022    11   -11
    0.015900793   3    1000022    13   -13
    0.0093478322   3    1000022    15   -15

DECAY 1000025  5.7502747
    0.26994124   2    1000024   -24
    0.26994124   2   -1000024    24
    0.20057426   2    1000023    23
    0.17749849   2    1000023    25
    0.049117542   2    1000022    25
    0.027053905   2    1000022    23
    0.0024900654   3    1000024    5   -6
    0.0024900654   3   -1000024   -5    6
    0.00040337821   3    1000023    6   -6
    0.00011252997   3    1000022    6   -6
    0.00010117774   3    1000023    15   -15

DECAY 1000035  5.3647081
    0.29609332   2    1000024   -24
    0.29609332   2   -1000024    24
    0.20034757   2    1000023    25
    0.079731336   2    1000023    23
    0.062863792   2    1000022    23
    0.05720255   2    1000022    25
    0.0033142126   3    1000024    5   -6
    0.0033142126   3   -1000024   -5    6
    0.00047840852   3    1000023    6   -6
    0.0001458461   3    1000022    6   -6
    0.00011067759   3    1000023    15   -15
    0.0001064707   3    1000024    15   -16
    0.0001064707   3   -1000024   -15    16

DECAY 1000021  226.82059
    0.17248366   2    1000006   -6
    0.17248366   2   -1000006    6
    0.12322806   2    1000005   -5
    0.12322806   2   -1000005    5
    0.10445633   2    2000005   -5
    0.10445633   2   -2000005    5
    0.098753178   2    2000006   -6
    0.098753178   2   -2000006    6
    0.00097238708   2    1000006   -4
    0.00097238708   2   -1000006    4

DECAY 25  0.0034053266
    0.64573885   2   -5    5
    0.15522747   2   -24    24
    0.073851195   2    21    21
    0.072903944   2   -15    15
    0.031299789   2   -4    4
    0.017102824   2    23    23
    0.0022862027   2    22    22
    0.0010966982   2    22    23
    0.00025272625   2   -13    13
    0.00023947215   2   -3    3
    6.6211443e-07   2   -1    1
    1.613106e-07   2   -2    2
    5.6816332e-09   2   -11    11

DECAY 35  213.14822
    0.84272408   2   -5    5
    0.061953834   2   -15    15
    0.02780403   2   -1000024    1000037
    0.02780403   2   -1000037    1000024
    0.014768465   2    1000023    1000025
    0.011894245   2    1000023    1000035
    0.0038767949   2    1000022    1000035
    0.0037602291   2    1000022    1000025
    0.0020106244   2   -1000024    1000024
    0.00099600093   2    1000023    1000023
    0.00060035945   2    1000025    1000035
    0.00058668632   2    1000022    1000023
    0.00025442941   2   -1000015    1000015
    0.00020629641   2   -13    13
    0.00019871791   2   -6    6
    0.00017709516   2    1000035    1000035
    0.00013989371   2   -3    3
    0.00011348968   2    1000025    1000025
    8.2627486e-05   2    1000022    1000022
    2.9087394e-05   2   -1000037    1000037
    1.8150799e-05   2    21    21
    3.867095e-07   2   -1    1
    2.7329505e-07   2    25    25
    7.5700946e-08   2    23    23
    4.0315662e-08   2   -24    24
    6.7716625e-09   2    22    23
    4.6338958e-09   2   -11    11
    2.9059596e-09   2    22    22
    1.8039791e-09   2   -4    4
    9.301073e-15   2   -2    2

DECAY 36  188.63053
    0.83099579   2   -5    5
    0.061077462   2   -15    15
    0.03150057   2   -1000024    1000037
    0.03150057   2   -1000037    1000024
    0.01646314   2    1000023    1000035
    0.013768793   2    1000023    1000025
    0.004484123   2    1000022    1000025
    0.0041963169   2    1000022    1000035
    0.0023686711   2   -1000024    1000024
    0.0011735954   2    1000023    1000023
    0.00065134981   2    1000022    1000023
    0.00044950911   2    1000035    1000035
    0.00032908922   2    1000025    1000035
    0.00024744145   2    1000025    1000025
    0.00023370163   2   -6    6
    0.00020337443   2   -13    13
    0.00013786961   2   -3    3
    9.5811388e-05   2   -1000037    1000037
    9.4459635e-05   2    1000022    1000022
    2.7704962e-05   2    21    21
    3.8111482e-07   2   -1    1
    1.1650901e-07   2    23    25
    1.0038223e-07   2    22    23
    5.4965233e-08   2    22    22
    4.5682513e-09   2   -11    11
    2.1474729e-09   2   -4    4
    5.5288635e-11   2    23    35
    1.1073408e-14   2   -2    2
    8.2548936e-38   2    25    25

DECAY 37  200.12689
    0.8367303   2   -5    6
    0.060916608   2   -15    16
    0.031080835   2    1000023    1000037
    0.02996819   2    1000024    1000035
    0.029747908   2    1000024    1000025
    0.0080743443   2    1000022    1000037
    0.0012453769   2   -5    4
    0.0012421694   2    1000022    1000024
    0.00035134049   2    1000025    1000037
    0.00021536215   2   -13    14
    0.00014112537   2    1000035    1000037
    0.00013737661   2   -3    4
    0.00013282621   2   -1000015    1000016
    8.8932808e-06   2   -5    2
    6.4035072e-06   2   -3    2
    3.9158007e-07   2   -3    6
    3.8102063e-07   2   -1    2
    1.0956194e-07   2    24    25
    2.2295452e-08   2    1000023    1000024
    1.778924e-08   2   -1    4
    8.7532794e-09   2   -1    6
    5.037343e-09   2   -11    12
    5.3154783e-12   2    24    35

DECAY 6  2.43
    1   2    5    24

DECAY 15 -1
