BLOCK SPINFO
   1   SPheno
   2   v4.0.5be

BLOCK SPHENOINFO
   1   2
   2   2

BLOCK MODSEL
   1   0

BLOCK MINPAR
   3    26.740437
   4   -1

BLOCK EXTPAR
   0    1235.9302
   1    626.414
   2   -509.07455
   3    3000
   11    3989.6674
   12   -1071.3229
   13    1390.8788
   23   -252.92906
   25    25.882997
   26    368.46209
   31    1686.0001
   32    1686.0001
   33    1457.0327
   34    448.12863
   35    448.12863
   36    1742.0563
   41    5000
   42    5000
   43    1920.7311
   44    5000
   45    5000
   46    982.61333
   47    5000
   48    5000
   49    1503.2381

BLOCK SMINPUTS
   1    127.90897
   2    1.1663787e-05
   3    0.1184
   4    91.1876
   5    4.18
   6    173.2
   7    1.777
   8    0
   11    0.00051099893
   12    0
   13    0.10565837
   14    0
   21    0.005
   22    0.0025
   23    0.095
   24    1.27

BLOCK GAUGE Q=  1235.9302
   1    0.35536298
   2    0.66519887
   3    1.219778

BLOCK YU Q=  1235.9302
   1   1    8.3906275e-06
   2   2    0.0042624387
   3   3    1.0136552

BLOCK YD Q=  1235.9302
   1   1    0.00043640452
   2   2    0.0082916859
   3   3    0.43277654

BLOCK YE Q=  1235.9302
   1   1    7.6155781e-05
   2   2    0.0157466
   3   3    0.26483191

BLOCK AU Q=  1235.9302
   1   1    0
   2   2    0
   3   3    3989.6676

BLOCK AD Q=  1235.9302
   1   1    0
   2   2    0
   3   3   -1071.323

BLOCK AE Q=  1235.9302
   1   1    0
   2   2    0
   3   3    1390.8788

BLOCK MSOFT Q=  1235.9302
   1    626.414
   2   -509.07455
   3    3000
   21    76598.243
   22   -32420.687
   31    1686.0001
   32    1686.0001
   33    1457.0327
   34    448.12863
   35    448.12863
   36    1742.0563
   41    5000
   42    5000
   43    1920.7311
   44    5000
   45    5000
   46    982.61333
   47    5000
   48    5000
   49    1503.2381

BLOCK MASS
   6    173.2
   23    91.1876
   24    80.429995
   15    1.777
   25    125.08115
   35    368.58406
   36    368.46209
   37    378.81509
   1000001    5021.0388
   2000001    5010.6455
   1000002    5020.6134
   2000002    5011.7876
   1000003    5021.0414
   2000003    5010.6492
   1000004    5020.6159
   2000004    5011.7886
   1000005    1490.0995
   2000005    1878.3584
   1000006    796.46229
   2000006    1917.8856
   1000011    1689.7904
   2000011    457.61507
   1000012    1687.608
   1000013    1689.7878
   2000013    457.60511
   1000014    1687.6053
   1000015    1459.4522
   2000015    1742.1736
   1000016    1457.0254
   1000021    3177.2632
   1000022   -244.95151
   1000023    257.488
   1000025   -553.8926
   1000035    626.7161
   1000024    247.76119
   1000037    554.25587

BLOCK ALPHA
      -0.045799347

BLOCK HMIX Q=  1235.9302
   1   -252.92906
   2    25.882997
   3    244.14652
   4    135764.31

BLOCK STOPMIX
   1   1   -0.21221837
   1   2    0.97722227
   2   1   -0.97722227
   2   2   -0.21221837

BLOCK SBOTMIX
   1   1   -0.011385719
   1   2    0.99993518
   2   1   -0.99993518
   2   2   -0.011385719

BLOCK STAUMIX
   1   1   -0.99987846
   1   2    0.015590845
   2   1   -0.015590845
   2   2   -0.99987846

BLOCK NMIX
   1   1    0.036313618
   1   2    0.19299029
   1   3    0.70709848
   1   4   -0.6792995
   2   1    0.082263735
   2   2    0.068622249
   2   3   -0.70064395
   2   4   -0.70542308
   3   1    0.0070929642
   3   2   -0.97878131
   3   3    0.090115169
   3   4   -0.18389153
   4   1   -0.99592354
   4   2    0.005734213
   4   3   -0.031449302
   4   4   -0.084346733

BLOCK UMIX
   1   1   -0.12882577
   1   2   -0.99166724
   2   1   -0.99166724
   2   2    0.12882577

BLOCK VMIX
   1   1    0.26293253
   1   2    0.96481422
   2   1    0.96481422
   2   2   -0.26293253

BLOCK HIGGSBOUNDSINPUTHIGGSCOUPLINGSFERMIONS
       0, 669.92952,3,36,15,15

BLOCK HIGGSBOUNDSINPUTHIGGSCOUPLINGSBOSONS
       0,4,36,21,21,23

BLOCK SPHENOLOWENERGY
   1    0.00039365526
   2    1.5866398e-06
   3    3.5224892e-05
   4    4.3093685e-15
   5    1.8407953e-10
   6    3.7843848e-08
   7    1.4722256e-13
   8    6.2889433e-09
   9    1.3101957e-06
   10    7.4253794e-05
   11    0.76701326
   12    0.54313902
   13    19.340474
   14    0
   15    0
   16    0.0021624009
   17    2.2817412e-15
   18    2.4773379e-11
   19    8.2842651e-11
   20    5.772543e-15
   21    2.4679459e-10
   22    7.0250934e-08
   23    0
   24    0
   25    0
   26    0
   27    0
   28    0
   29    0
   30    0
   31    0
   39    7.7701645e-05
   40    0
   41    0
   42    0

BLOCK FWCOEF Q=  160
   305   4422   0   0   -0.18881911
   305   4422   0   2   -0.25639646
   305   4322   0   2   -0.0018962643
   305   6421   0   0   -0.095227835
   305   6421   0   2   -0.18831404
   305   6321   0   2   -0.0020981892
   3051111   4133   0   0    1.5850533
   3051111   4133   0   2    1.5866589
   3051111   4233   0   2   -0.00018027376
   3051111   4137   0   0   -4.4077454
   3051111   4137   0   2   -4.4032592
   3051111   4237   0   2    0.0014228826
   3051313   4133   0   0    1.5850533
   3051313   4133   0   2    1.5866574
   3051313   4233   0   2   -0.00018033404
   3051313   4137   0   0   -4.4077454
   3051313   4137   0   2   -4.4032607
   3051313   4237   0   2    0.0014229422
   3051212   4137   0   0    1.5053501
   3051212   4137   0   2    1.5043845
   3051212   4237   0   2   -0.00031059079
   3051414   4137   0   0    1.5053501
   3051414   4137   0   2    1.5043845
   3051414   4237   0   2   -0.00031057767
   3051616   4137   0   0    1.5053501
   3051616   4137   0   2    1.5043847
   3051616   4237   0   2   -0.00030687878

BLOCK IMFWCOEF Q=  160
   305   4422   0   0    3.8585507e-07
   305   4422   0   2    1.2534623e-05
   305   4322   0   2    5.2846571e-06
   305   6421   0   0    3.3051038e-07
   305   6421   0   2    8.2305438e-06
   305   6321   0   2    2.2446403e-06
   3051111   4133   0   2   -3.7254144e-07
   3051111   4233   0   2    1.8378042e-06
   3051111   4137   0   2    5.9934977e-06
   3051111   4237   0   2   -1.4447288e-05
   3051313   4133   0   2   -3.7255611e-07
   3051313   4233   0   2    1.8378e-06
   3051313   4137   0   2    5.9934886e-06
   3051313   4237   0   2   -1.4447298e-05
   3051212   4137   0   2   -1.0800057e-06
   3051212   4237   0   2    3.1534924e-06
   3051414   4137   0   2   -1.0800056e-06
   3051414   4237   0   2    3.1534924e-06
   3051616   4137   0   2   -1.0758813e-06
   3051616   4237   0   2    3.1534914e-06

DECAY 23  2.4952


DECAY 24  2.085


DECAY 2000011  0.0088107788
    0.82481355   2    1000023    11
    0.17518351   2    1000022    11

DECAY 1000011  19.463005
    0.59857836   2   -1000037    12
    0.28939997   2    1000025    11
    0.078735423   2    1000035    11
    0.016521408   2    1000022    11
    0.012144648   2   -1000024    12
    0.0046201936   2    1000023    11

DECAY 2000013  0.011012168
    0.70701516   2    1000023    13
    0.1922656   2    1000022    13
    0.10071924   2   -1000024    14

DECAY 1000013  19.471003
    0.59833108   2   -1000037    14
    0.2892831   2    1000025    13
    0.078703209   2    1000035    13
    0.016719801   2    1000022    13
    0.012139639   2   -1000024    14
    0.0048187557   2    1000023    13

DECAY 1000015  17.379803
    0.53140162   2   -1000037    16
    0.25761503   2    1000025    15
    0.071850178   2    1000022    15
    0.068160943   2    1000035    15
    0.058271655   2    1000023    15
    0.012700579   2   -1000024    16

DECAY 2000015  11.341882
    0.58041609   2    1000035    15
    0.20022843   2   -1000024    16
    0.10587441   2    1000023    15
    0.10254412   2    1000022    15
    0.0048659664   2   -1000037    16
    0.0024127512   2    1000025    15
    0.0018469878   2    1000016   -24
    0.00094525469   2    1000015    25
    0.00086598695   2    1000015    23

DECAY 1000012  19.514799
    0.56401409   2    1000037    11
    0.29257528   2    1000025    12
    0.081812495   2    1000035    12
    0.050385235   2    1000024    11
    0.010991815   2    1000022    12
    0.000221093   2    1000023    12

DECAY 1000014  19.5227
    0.56379027   2    1000037    13
    0.29245617   2    1000025    14
    0.081779169   2    1000035    14
    0.050766034   2    1000024    13
    0.010987348   2    1000022    14
    0.00022100313   2    1000023    14

DECAY 1000016  17.429507
    0.50258232   2    1000037    15
    0.2599777   2    1000025    16
    0.15608125   2    1000024    15
    0.070678746   2    1000035    16
    0.010469734   2    1000022    16
    0.0002102566   2    1000023    16

DECAY 2000001  144.10535
    0.98118607   2    1000021    1
    0.018656567   2    1000035    1
    0.00013074029   2    1000023    1

DECAY 1000001  207.88135
    0.68537486   2    1000021    1
    0.20403008   2   -1000037    2
    0.099640934   2    1000025    1
    0.0036811662   2    1000022    1
    0.0035115531   2   -1000024    2
    0.0034532904   2    1000035    1
    0.00030811593   2    1000023    1

DECAY 2000003  144.11934
    0.98109353   2    1000021    3
    0.018654816   2    1000035    3
    0.00015388514   2    1000023    3

DECAY 1000003  207.89026
    0.68534674   2    1000021    3
    0.20402204   2   -1000037    4
    0.099636972   2    1000025    3
    0.0036974055   2    1000022    3
    0.0035194812   2   -1000024    4
    0.0034531755   2    1000035    3
    0.00032418933   2    1000023    3

DECAY 1000005  11.121399
    0.45234198   2   -1000024    6
    0.23783149   2    1000022    5
    0.23096116   2    1000023    5
    0.050431321   2    1000035    5
    0.021358196   2    1000006   -37
    0.0043988169   2   -1000037    6
    0.0022557564   2    1000025    5
    0.00042127904   2    1000006   -24

DECAY 2000005  175.31791
    0.63293078   2    1000006   -24
    0.19387515   2   -1000024    6
    0.091913908   2   -1000037    6
    0.038088249   2    1000025    5
    0.020761513   2    1000022    5
    0.019014242   2    1000023    5
    0.0012923724   2    1000035    5
    0.00076688303   2    1000005    36
    0.00076618157   2    1000005    35
    0.00043134681   2    1000006   -37

DECAY 2000002  152.36031
    0.9288054   2    1000021    2
    0.070600087   2    1000035    2
    0.00049449731   2    1000023    2

DECAY 1000002  207.8806
    0.68516411   2    1000021    2
    0.19311348   2    1000037    1
    0.099119473   2    1000025    2
    0.014626803   2    1000024    1
    0.0042089483   2    1000022    2
    0.0030339432   2    1000035    2
    0.00073324392   2    1000023    2

DECAY 2000004  152.36396
    0.92878346   2    1000021    4
    0.070598493   2    1000035    4
    0.00050036753   2    1000023    4
    0.00010186264   2    1000022    4

DECAY 1000004  207.88944
    0.68513591   2    1000021    4
    0.19310591   2    1000037    3
    0.099115561   2    1000025    4
    0.014658419   2    1000024    3
    0.0042127868   2    1000022    4
    0.0030338735   2    1000035    4
    0.00073753721   2    1000023    4

DECAY 1000006  25.135115
    0.51082822   2    1000024    5
    0.24362631   2    1000023    6
    0.24160565   2    1000022    6
    0.0026042485   2    1000037    5
    0.0013350928   2    1000025    6

DECAY 2000006  181.34583
    0.32005185   2    1000006    25
    0.31883211   2    1000006    23
    0.10080242   2    1000023    6
    0.091574522   2    1000022    6
    0.083159521   2    1000037    5
    0.045433341   2    1000025    6
    0.03605899   2    1000024    5
    0.0020333868   2    1000005    37
    0.0015476452   2    1000035    6
    0.0002217396   2    1000006    36
    0.00019313641   2    1000005    24

DECAY 1000024  5.4117863e-10
    0.48246373   3    1000022   -1    2
    0.17721684   3    1000022   -3    4
    0.16084616   3    1000022   -11    12
    0.15972245   3    1000022   -13    14
    0.019750822   3    1000022   -15    16

DECAY 1000037  4.40776
    0.28629663   2    1000022    24
    0.25302511   2    1000023    24
    0.24662042   2    1000024    23
    0.21231112   2    1000024    25
    0.00059631332   3    1000022   -5    6
    0.00055938672   3    1000024    5   -5
    0.0004559748   3    1000023   -5    6

DECAY 1000022 -1


DECAY 1000023  1.3203438e-06
    0.20760341   2    1000022    22
    0.14896318   3    1000022    12   -12
    0.11138889   3    1000022    1   -1
    0.11131487   3    1000022    3   -3
    0.086874695   3    1000022    2   -2
    0.075780601   3    1000022    4   -4
    0.028574277   3    1000024    1   -2
    0.028574277   3   -1000024   -1    2
    0.026290805   3    1000024    3   -4
    0.026290805   3   -1000024   -3    4
    0.02512759   3    1000022    11   -11
    0.025108782   3    1000022    5   -5
    0.025102668   3    1000022    13   -13
    0.018756024   3    1000022    15   -15
    0.0095245635   3    1000024    11   -12
    0.0095245635   3   -1000024   -11    12
    0.0095190258   3    1000024    13   -14
    0.0095190258   3   -1000024   -13    14
    0.0080809767   3    1000024    15   -16
    0.0080809767   3   -1000024   -15    16

DECAY 1000025  5.5382808
    0.24246318   2    1000024   -24
    0.24246318   2   -1000024    24
    0.20764215   2    1000023    23
    0.14389272   2    1000022    25
    0.13943204   2    1000023    25
    0.022386203   2    1000022    23
    0.00054992577   3    1000024    5   -6
    0.00054992577   3   -1000024   -5    6
    0.00023652239   3    1000022    5   -5
    0.00021138496   3    1000023    5   -5

DECAY 1000035  3.2308133
    0.11832834   2    1000024   -24
    0.11832834   2   -1000024    24
    0.10611202   2    1000022    23
    0.10535682   2    2000013   -13
    0.10535682   2   -2000013    13
    0.1053461   2    2000011   -11
    0.1053461   2   -2000011    11
    0.10084193   2    1000022    25
    0.085306449   2    1000023    25
    0.022354805   2    1000023    23
    0.017287852   2    1000022    35
    0.0048773064   2    1000023    35
    0.0020083796   2    37   -1000024
    0.0020083796   2   -37    1000024
    0.00039615117   3    1000024    5   -6
    0.00039615117   3   -1000024   -5    6
    0.00033011903   2    1000022    36

DECAY 1000021  218.88288
    0.19767169   2    1000006   -6
    0.19767169   2   -1000006    6
    0.13073163   2    1000005   -5
    0.13073163   2   -1000005    5
    0.090897685   2    2000005   -5
    0.090897685   2   -2000005    5
    0.080213648   2    2000006   -6
    0.080213648   2   -2000006    6
    0.00076693916   3    1000035    6   -6

DECAY 25  0.0053244331
    0.66559467   2   -5    5
    0.16788325   2   -24    24
    0.073075328   2   -15    15
    0.049066425   2    21    21
    0.020688731   2   -4    4
    0.020355652   2    23    23
    0.0017436655   2    22    22
    0.0011004955   2    22    23
    0.00025265941   2   -13    13
    0.00023835105   2   -3    3
    6.5900195e-07   2   -1    1
    1.0661398e-07   2   -2    2
    5.6800631e-09   2   -11    11

DECAY 35  5.7376214
    0.89766762   2   -5    5
    0.099957494   2   -15    15
    0.00080744482   2    25    25
    0.00045132692   2   -6    6
    0.00034106429   2   -13    13
    0.00027516956   2    21    21
    0.00027279193   2   -3    3
    0.00015487129   2   -24    24
    7.0835815e-05   2    23    23
    7.5416114e-07   2   -1    1
    3.4057348e-07   2    22    22
    1.9073002e-07   2    22    23
    9.1407283e-08   2   -4    4
    7.6650129e-09   2   -11    11
    4.7151225e-13   2   -2    2

DECAY 36  5.705144
    0.89666397   2   -5    5
    0.099831046   2   -15    15
    0.0025371996   2   -6    6
    0.00034059577   2   -13    13
    0.00027243047   2   -3    3
    0.00024685682   2    21    21
    0.00010689231   2    23    25
    7.531618e-07   2   -1    1
    1.2877096e-07   2    22    22
    6.6147588e-08   2    22    23
    5.7809865e-08   2   -4    4
    7.6544808e-09   2   -11    11
    2.978984e-13   2   -2    2
    6.9401685e-38   2    25    25

DECAY 37  3.587776
    0.84592484   2   -5    6
    0.15097858   2   -15    16
    0.001928707   2   -5    4
    0.00053378623   2   -13    14
    0.00038931241   2   -3    4
    0.00020468117   2    24    25
    1.7714427e-05   2   -3    2
    1.3773263e-05   2   -5    2
    7.0591379e-06   2   -3    6
    1.0797985e-06   2   -1    2
    3.0762966e-07   2   -1    6
    5.3463503e-08   2   -1    4
    4.3738865e-08   2    24    36
    4.1230378e-08   2    24    35
    1.2485317e-08   2   -11    12

DECAY 6  2.43
    1   2    5    24

DECAY 15 -1
