BLOCK SPINFO
   1   SPheno
   2   v4.0.5be

BLOCK SPHENOINFO
   1   2
   2   2

BLOCK MODSEL
   1   0

BLOCK MINPAR
   3    7.7772123
   4   -1

BLOCK EXTPAR
   0    1469.6573
   1   -221.13167
   2   -1031.3344
   3    3000
   11   -3729.6116
   12    1533.9321
   13   -1406.9831
   23   -573.47308
   25    7.4727703
   26    3839.5225
   31    1265.5557
   32    1265.5557
   33    387.43833
   34    535.64143
   35    535.64143
   36    819.99557
   41    5000
   42    5000
   43    1636.5072
   44    5000
   45    5000
   46    1427.7771
   47    5000
   48    5000
   49    1553.2014

BLOCK SMINPUTS
   1    127.90897
   2    1.1663787e-05
   3    0.1184
   4    91.1876
   5    4.18
   6    173.2
   7    1.777
   8    0
   11    0.00051099893
   12    0
   13    0.10565837
   14    0
   21    0.005
   22    0.0025
   23    0.095
   24    1.27

BLOCK GAUGE Q=  1469.6573
   1    0.35536298
   2    0.66519887
   3    1.219778

BLOCK YU Q=  1469.6573
   1   1    8.4591109e-06
   2   2    0.0042972283
   3   3    1.0219285

BLOCK YD Q=  1469.6573
   1   1    0.00012702424
   2   2    0.0024134605
   3   3    0.12596824

BLOCK YE Q=  1469.6573
   1   1    2.2166658e-05
   2   2    0.0045833619
   3   3    0.077084607

BLOCK AU Q=  1469.6573
   1   1    0
   2   2    0
   3   3   -3729.6116

BLOCK AD Q=  1469.6573
   1   1    0
   2   2    0
   3   3    1533.9321

BLOCK AE Q=  1469.6573
   1   1    0
   2   2    0
   3   3   -1406.9831

BLOCK MSOFT Q=  1469.6573
   1   -221.13167
   2   -1031.3344
   3    3000
   21    14122771
   22   -35004.787
   31    1265.5557
   32    1265.5557
   33    387.43833
   34    535.64143
   35    535.64143
   36    819.99557
   41    5000
   42    5000
   43    1636.5072
   44    5000
   45    5000
   46    1427.7771
   47    5000
   48    5000
   49    1553.2014

BLOCK MASS
   6    173.2
   23    91.1876
   24    80.429995
   15    1.777
   25    121.84041
   35    3838.5442
   36    3839.5225
   37    3840.0368
   1000001    5027.5604
   2000001    5017.8378
   1000002    5027.145
   2000002    5020.3127
   1000003    5027.561
   2000003    5017.8381
   1000004    5027.1456
   2000004    5020.3135
   1000005    1572.1614
   2000005    1610.7363
   1000006    1274.5975
   2000006    1694.5684
   1000011    1276.4469
   2000011    530.26569
   1000012    1273.7145
   1000013    1276.4474
   2000013    530.2681
   1000014    1273.7149
   1000015    417.31078
   2000015    817.3372
   1000016    409.77045
   1000021    3187.1705
   1000022   -217.15431
   1000023   -577.16483
   1000025    583.11965
   1000035   -1079.9896
   1000024    575.07514
   1000037    1080.1103

BLOCK ALPHA
      -0.12807177

BLOCK HMIX Q=  1469.6573
   1   -573.47308
   2    7.4727703
   3    244.01417
   4    14741933

BLOCK STOPMIX
   1   1    0.46101383
   1   2    0.88739295
   2   1   -0.88739295
   2   2    0.46101383

BLOCK SBOTMIX
   1   1   -0.10792779
   1   2    0.99415874
   2   1   -0.99415874
   2   2   -0.10792779

BLOCK STAUMIX
   1   1   -0.99994512
   1   2    0.010476356
   2   1   -0.010476356
   2   2   -0.99994512

BLOCK NMIX
   1   1    0.99462627
   1   2   -0.0051184922
   1   3   -0.093171978
   1   4    0.044848273
   2   1    0.097608612
   2   2    0.12552968
   2   3    0.69994088
   2   4   -0.6962741
   3   1    0.033948271
   3   2   -0.029345171
   3   3    0.7048026
   3   4    0.70798282
   4   1    0.0062175361
   4   2   -0.99164256
   4   3    0.068227914
   4   4   -0.10932215

BLOCK UMIX
   1   1   -0.096330218
   1   2   -0.99534943
   2   1   -0.99534943
   2   2    0.096330218

BLOCK VMIX
   1   1    0.15445586
   1   2    0.98799969
   2   1    0.98799969
   2   2   -0.15445586

BLOCK HIGGSBOUNDSINPUTHIGGSCOUPLINGSFERMIONS
       0, 55.842295,3,36,15,15

BLOCK HIGGSBOUNDSINPUTHIGGSCOUPLINGSBOSONS
       0,4,36,21,21,23

BLOCK SPHENOLOWENERGY
   1    0.00033509772
   2    1.5880827e-06
   3    3.5235982e-05
   4    2.5066583e-15
   5    1.0708161e-10
   6    2.2417672e-08
   7    8.4523759e-14
   8    3.6108528e-09
   9    7.6593165e-07
   10    9.6783425e-05
   11    0.99973573
   12    0.54317903
   13    19.408177
   14    0
   15    0
   16    0.0021626711
   17    2.2817128e-15
   18    2.4804256e-11
   19    8.2906559e-11
   20    1.485214e-15
   21    6.3497827e-11
   22    4.814547e-08
   23    0
   24    0
   25    0
   26    0
   27    0
   28    0
   29    0
   30    0
   31    0
   39   -0.00010361978
   40    0
   41    0
   42    0

BLOCK FWCOEF Q=  160
   305   4422   0   0   -0.18881911
   305   4422   0   2   -0.20581469
   305   4322   0   2   -0.00016475492
   305   6421   0   0   -0.095227835
   305   6421   0   2   -0.10731359
   305   6321   0   2   -0.00014181177
   3051111   4133   0   0    1.5910051
   3051111   4133   0   2    1.5920004
   3051111   4233   0   2    1.0268693e-05
   3051111   4137   0   0   -4.4136972
   3051111   4137   0   2   -4.4103689
   3051111   4237   0   2   -7.9571813e-05
   3051313   4133   0   0    1.5910051
   3051313   4133   0   2    1.5920002
   3051313   4233   0   2    1.026869e-05
   3051313   4137   0   0   -4.4136972
   3051313   4137   0   2   -4.4103691
   3051313   4237   0   2   -7.9571818e-05
   3051212   4137   0   0    1.5053501
   3051212   4137   0   2    1.5046348
   3051212   4237   0   2    1.7332708e-05
   3051414   4137   0   0    1.5053501
   3051414   4137   0   2    1.5046348
   3051414   4237   0   2    1.7332708e-05
   3051616   4137   0   0    1.5053501
   3051616   4137   0   2    1.5046337
   3051616   4237   0   2    1.7331539e-05

BLOCK IMFWCOEF Q=  160
   305   4422   0   0    3.8580495e-07
   305   4422   0   2    3.4084302e-06
   305   4322   0   2   -1.5116739e-06
   305   6421   0   0    3.3046745e-07
   305   6421   0   2    4.8533094e-06
   305   6321   0   2   -6.105437e-07
   3051111   4133   0   2   -2.8377815e-06
   3051111   4233   0   2    2.0073352e-07
   3051111   4137   0   2    2.2561064e-05
   3051111   4237   0   2   -1.5564789e-06
   3051313   4133   0   2   -2.8377809e-06
   3051313   4233   0   2    2.0073347e-07
   3051313   4137   0   2    2.2561067e-05
   3051313   4237   0   2   -1.556479e-06
   3051212   4137   0   2   -4.724075e-06
   3051212   4237   0   2    3.3906162e-07
   3051414   4137   0   2   -4.724075e-06
   3051414   4237   0   2    3.3906162e-07
   3051616   4137   0   2   -4.7431835e-06
   3051616   4237   0   2    3.3904058e-07

DECAY 23  2.4952


DECAY 24  2.085


DECAY 2000011  1.8258743
    1   2    1000022    11

DECAY 1000011  2.9867381
    0.49119333   2    1000022    11
    0.30056427   2   -1000037    12
    0.14833439   2    1000035    11
    0.037582782   2    1000023    11
    0.022177224   2   -1000024    12
    0.00014799902   2    1000025    11

DECAY 2000013  1.8258911
    1   2    1000022    13

DECAY 1000013  2.9871233
    0.49113159   2    1000022    13
    0.30052669   2   -1000037    14
    0.14831578   2    1000035    13
    0.037633606   2    1000023    13
    0.02217438   2   -1000024    14
    0.00020350991   2    1000025    13

DECAY 1000015  0.27078182
    0.99999985   2    1000022    15

DECAY 2000015  3.5989425
    0.97514849   2    1000022    15
    0.0066628991   2   -1000024    16
    0.0059579981   2    1000023    15
    0.004450119   2    1000016   -24
    0.0035465246   2    1000025    15
    0.0021384012   2    1000015    25
    0.0020955662   2    1000015    23

DECAY 1000012  3.01956
    0.50373118   2    1000022    12
    0.2859991   2    1000037    11
    0.14518874   2    1000035    12
    0.056151731   2    1000024    11
    0.0063142233   2    1000023    12
    0.0026150292   2    1000025    12

DECAY 1000014  3.0198987
    0.50367485   2    1000022    14
    0.28596826   2    1000037    13
    0.14517294   2    1000035    14
    0.056255689   2    1000024    13
    0.006313519   2    1000023    14
    0.0026147376   2    1000025    14

DECAY 1000016  0.26846378
    1   2    1000022    16

DECAY 2000001  143.74753
    0.98058919   2    1000021    1
    0.019207455   2    1000022    1
    0.00018080024   2    1000023    1

DECAY 1000001  203.11655
    0.69895562   2    1000021    1
    0.19640459   2   -1000037    2
    0.097692101   2    1000035    1
    0.0036046024   2    1000022    1
    0.0019693857   2   -1000024    2
    0.001240885   2    1000023    1
    0.00013281165   2    1000025    1

DECAY 2000003  143.74868
    0.98058149   2    1000021    3
    0.019207336   2    1000022    3
    0.0001827227   2    1000023    3

DECAY 1000003  203.11898
    0.69894756   2    1000021    3
    0.19640248   2   -1000037    4
    0.097690956   2    1000035    3
    0.0036045845   2    1000022    3
    0.0019779905   2   -1000024    4
    0.0012422358   2    1000023    3
    0.00013419266   2    1000025    3

DECAY 1000005  2.1167891
    0.40238642   2    1000022    5
    0.28406621   2   -1000024    6
    0.11095403   2    1000006   -24
    0.096437542   2    1000023    5
    0.082353859   2    1000025    5
    0.016583482   2   -1000037    6
    0.007218456   2    1000035    5

DECAY 2000005  59.589719
    0.47873155   2    1000006   -24
    0.39743921   2   -1000024    6
    0.077458551   2   -1000037    6
    0.035255026   2    1000035    5
    0.0039617253   2    1000023    5
    0.0036735618   2    1000022    5
    0.0034803695   2    1000025    5

DECAY 2000002  152.38143
    0.92671967   2    1000021    2
    0.072512668   2    1000022    2
    0.00068255894   2    1000023    2

DECAY 1000002  203.11311
    0.69875446   2    1000021    2
    0.19349895   2    1000037    1
    0.09724883   2    1000035    2
    0.0050627293   2    1000024    1
    0.0032107898   2    1000022    2
    0.0021666756   2    1000023    2

DECAY 2000004  152.38504
    0.92669786   2    1000021    4
    0.072510977   2    1000022    4
    0.00068824804   2    1000023    4

DECAY 1000004  203.11548
    0.69874633   2    1000021    4
    0.19349675   2    1000037    3
    0.097247769   2    1000035    4
    0.0050654283   2    1000024    3
    0.0032107701   2    1000022    4
    0.0021709554   2    1000023    4

DECAY 1000006  26.984432
    0.43144038   2    1000024    5
    0.24552429   2    1000025    6
    0.23492457   2    1000023    6
    0.071150693   2    1000022    6
    0.014663407   2    1000037    5
    0.0022834515   2    1000035    6

DECAY 2000006  75.739923
    0.27821562   2    1000006    23
    0.19281616   2    1000025    6
    0.19240108   2    1000023    6
    0.14712011   2    1000006    25
    0.11220724   2    1000024    5
    0.04090789   2    1000037    5
    0.018419195   2    1000035    6
    0.016764468   2    1000022    6
    0.00068485144   2    2000005    24
    0.00046338969   2    1000005    24

DECAY 1000024  0.48889115
    0.9398748   2    1000022    24
    0.047183075   2    1000016   -15
    0.011038298   2   -1000015    16
    0.0018967349   3    1000022   -5    6

DECAY 1000037  16.829426
    0.2024805   2   -1000015    16
    0.20209404   2    1000016   -15
    0.1583711   2    1000023    24
    0.14611627   2    1000024    23
    0.1455482   2    1000025    24
    0.14198608   2    1000024    25
    0.0014886963   3    1000025   -5    6
    0.0010584902   3    1000023   -5    6
    0.0007029221   3    1000024    6   -6

DECAY 1000022 -1


DECAY 1000023  0.41637637
    0.80417777   2    1000022    25
    0.12283634   2    1000022    23
    0.030828272   2    1000015   -15
    0.030828272   2   -1000015    15
    0.0040407586   2    1000016   -16
    0.0040407586   2   -1000016    16
    0.00081015923   2    2000013   -13
    0.00081015923   2   -2000013    13
    0.00080654377   2    2000011   -11
    0.00080654377   2   -2000011    11

DECAY 1000025  0.65433632
    0.66741021   2    1000022    23
    0.3175007   2    1000022    25
    0.0062453485   2    1000015   -15
    0.0062453485   2   -1000015    15
    0.0011328843   2    1000016   -16
    0.0011328843   2   -1000016    16

DECAY 1000035  18.454898
    0.1434526   2    1000024   -24
    0.1434526   2   -1000024    24
    0.13581707   2    1000025    23
    0.1227814   2    1000023    25
    0.093429472   2    1000016   -16
    0.093429472   2   -1000016    16
    0.091025789   2    1000015   -15
    0.091025789   2   -1000015    15
    0.075791482   2    1000025    25
    0.0071060599   2    1000023    23
    0.0011371085   3    1000024    5   -6
    0.0011371085   3   -1000024   -5    6
    0.00014983797   3    1000023    6   -6

DECAY 1000021  220.19125
    0.13504902   2    1000006   -6
    0.13504902   2   -1000006    6
    0.12342671   2    2000006   -6
    0.12342671   2   -2000006    6
    0.12274676   2    1000005   -5
    0.12274676   2   -1000005    5
    0.11867848   2    2000005   -5
    0.11867848   2   -2000005    5

DECAY 25  0.0034938939
    0.62001644   2   -5    5
    0.17999845   2   -24    24
    0.073727749   2    21    21
    0.071045659   2   -15    15
    0.030697452   2   -4    4
    0.020444937   2    23    23
    0.0023488164   2    22    22
    0.0012402722   2    22    23
    0.00024644258   2   -13    13
    0.00023297408   2   -3    3
    6.4415026e-07   2   -1    1
    1.582011e-07   2   -2    2
    5.5403458e-09   2   -11    11

DECAY 35  57.000408
    0.22361932   2   -1000024    1000037
    0.22361932   2   -1000037    1000024
    0.15146487   2    1000025    1000035
    0.072870863   2    1000023    1000035
    0.056680722   2   -1000006    1000006
    0.047097594   2    1000022    1000025
    0.043791609   2   -5    5
    0.042971558   2   -6    6
    0.029248716   2   -2000006    2000006
    0.028531684   2    1000022    1000023
    0.024797644   2   -2000006    1000006
    0.024797644   2   -1000006    2000006
    0.01080313   2   -1000024    1000024
    0.0084194324   2   -15    15
    0.0021686304   2   -1000037    1000037
    0.0012485347   2   -2000005    1000005
    0.0012485347   2   -1000005    2000005
    0.0012225905   2    1000023    1000023
    0.0011425469   2    1000022    1000022
    0.0011085708   2    1000035    1000035
    0.00069707649   2    1000025    1000025
    0.00064536494   2    1000022    1000035
    0.00057139863   2   -2000015    1000015
    0.00057139863   2   -1000015    2000015
    0.00035029708   2    1000023    1000025
    0.00013432837   2    25    25
    6.8543794e-05   2   -1000005    1000005
    2.867982e-05   2   -13    13
    2.4396007e-05   2   -2000005    2000005
    1.6665299e-05   2   -3    3
    5.9598557e-06   2    23    23
    5.9490831e-06   2    21    21
    2.2612674e-06   2   -2000015    2000015
    1.4801589e-06   2   -2000011    2000011
    1.4798285e-06   2   -2000013    2000013
    1.3212326e-06   2   -24    24
    1.2236138e-06   2   -1000011    1000011
    1.2230478e-06   2   -1000013    1000013
    6.7877172e-07   2   -1000015    1000015
    5.3793556e-07   2   -4    4
    1.1969829e-07   2    22    23
    1.0836445e-07   2    22    22
    4.607513e-08   2   -1    1
    4.6062883e-09   2   -2000013    1000013
    4.6062883e-09   2   -1000013    2000013
    6.4408595e-10   2   -11    11
    2.7727724e-12   2   -2    2
    1.0774162e-13   2   -2000011    1000011
    1.0774162e-13   2   -1000011    2000011

DECAY 36  56.896263
    0.21887318   2   -1000024    1000037
    0.21887318   2   -1000037    1000024
    0.14548155   2    1000023    1000035
    0.075835929   2    1000025    1000035
    0.068338817   2   -2000006    1000006
    0.068338817   2   -1000006    2000006
    0.049221494   2    1000022    1000023
    0.0424179   2   -6    6
    0.042035258   2   -5    5
    0.026834558   2    1000022    1000025
    0.016399324   2   -1000024    1000024
    0.0080823617   2   -15    15
    0.007072095   2   -1000037    1000037
    0.0035864492   2    1000035    1000035
    0.0022449043   2    1000023    1000023
    0.0014903595   2    1000022    1000022
    0.0012939378   2   -2000005    1000005
    0.0012939378   2   -1000005    2000005
    0.00057428234   2    1000022    1000035
    0.0005723729   2   -2000015    1000015
    0.0005723729   2   -1000015    2000015
    0.00045625067   2    1000025    1000025
    3.9651427e-05   2    1000023    1000025
    2.7531684e-05   2   -13    13
    1.5997615e-05   2   -3    3
    1.4508978e-05   2    21    21
    1.2060232e-05   2    23    25
    5.2879956e-07   2   -4    4
    1.7214692e-07   2    22    23
    1.6154681e-07   2    22    22
    4.4229395e-08   2   -1    1
    4.6125511e-09   2   -2000013    1000013
    4.6125511e-09   2   -1000013    2000013
    6.1830006e-10   2   -11    11
    2.7257923e-12   2   -2    2
    1.0788805e-13   2   -2000011    1000011
    1.0788805e-13   2   -1000011    2000011
    1.1178636e-36   2    25    25

DECAY 37  54.069728
    0.24398523   2    1000023    1000037
    0.23867256   2    1000024    1000035
    0.23684438   2    1000025    1000037
    0.090768286   2   -5    6
    0.080244815   2    1000022    1000024
    0.075697398   2   -2000005    1000006
    0.01218698   2   -2000005    2000006
    0.0085906185   2   -15    16
    0.0037421736   2    1000024    1000025
    0.0035730706   2   -1000005    1000006
    0.0017666426   2    1000023    1000024
    0.0013311915   2    1000022    1000037
    0.0012068779   2   -2000015    1000016
    0.0011755128   2   -1000005    2000006
    6.7622099e-05   2   -5    4
    6.4323431e-05   2   -3    6
    3.0370895e-05   2   -13    14
    1.672168e-05   2   -3    4
    1.2700611e-05   2    24    25
    6.1309049e-06   2   -2000011    1000012
    6.1304156e-06   2   -2000013    1000014
    5.8339029e-06   2   -1000015    1000016
    2.9490653e-06   2   -1    6
    7.5844995e-07   2   -3    2
    4.8288515e-07   2   -5    2
    1.6603078e-07   2    1000035    1000037
    4.4815291e-08   2   -1    2
    2.8984283e-08   2   -1    4
    9.5246162e-09   2   -1000013    1000014
    7.103784e-10   2   -11    12
    2.2278155e-13   2   -1000011    1000012
    1.8652672e-13   2    24    35

DECAY 6  2.43
    1   2    5    24

DECAY 15 -1
