BLOCK SPINFO
   1   SPheno
   2   v4.0.5be

BLOCK SPHENOINFO
   1   2
   2   2

BLOCK MODSEL
   1   0

BLOCK MINPAR
   3    9.2350105
   4    1

BLOCK EXTPAR
   0    4437.9601
   1   -4820.1605
   2    1567.5023
   3    1837.8582
   11   -7133.3232
   12    6498.771
   13   -21.257246
   23    364.41284
   25    8.7661142
   26    2507.1767
   31    3264.7594
   32    3264.7594
   33    2408.2185
   34    3163.5612
   35    3163.5612
   36    4808.3475
   41    4870.5156
   42    4870.5156
   43    4665.2847
   44    4589.1796
   45    4589.1796
   46    4317.7854
   47    3100.5451
   48    3100.5451
   49    3461.7949

BLOCK SMINPUTS
   1    127.90897
   2    1.1663787e-05
   3    0.1184
   4    91.1876
   5    4.18
   6    173.2
   7    1.777
   8    0
   11    0.00051099893
   12    0
   13    0.10565837
   14    0
   21    0.005
   22    0.0025
   23    0.095
   24    1.27

BLOCK GAUGE Q=  4437.9601
   1    0.35536298
   2    0.66519887
   3    1.219778

BLOCK YU Q=  4437.9601
   1   1    8.4387498e-06
   2   2    0.0042868849
   3   3    1.0194687

BLOCK YD Q=  4437.9601
   1   1    0.00014865019
   2   2    0.0028243537
   3   3    0.14741441

BLOCK YE Q=  4437.9601
   1   1    2.5940546e-05
   2   2    0.0053636821
   3   3    0.09020831

BLOCK AU Q=  4437.9601
   1   1    0
   2   2    0
   3   3   -7133.3232

BLOCK AD Q=  4437.9601
   1   1    0
   2   2    0
   3   3    6498.7711

BLOCK AE Q=  4437.9601
   1   1    0
   2   2    0
   3   3   -21.257246

BLOCK MSOFT Q=  4437.9601
   1   -4820.1605
   2    1567.5023
   3    1837.8582
   21    6016274.6
   22    341174.67
   31    3264.7594
   32    3264.7594
   33    2408.2185
   34    3163.5612
   35    3163.5612
   36    4808.3475
   41    4870.5156
   42    4870.5156
   43    4665.2847
   44    4589.1796
   45    4589.1796
   46    4317.7854
   47    3100.5451
   48    3100.5451
   49    3461.7949

BLOCK MASS
   6    173.2
   23    91.1876
   24    80.429995
   15    1.777
   25    125.45284
   35    2507.1119
   36    2507.1767
   37    2508.6644
   1000001    4948.1398
   2000001    3176.4623
   1000002    4947.41
   2000002    4657.4207
   1000003    4948.139
   2000003    3176.4617
   1000004    4947.4092
   2000004    4657.4197
   1000005    3530.0976
   2000005    4647.4371
   1000006    4212.6332
   2000006    4675.3395
   1000011    3280.4293
   2000011    3185.5645
   1000012    3279.0705
   1000013    3280.4276
   2000013    3185.5611
   1000014    3279.0689
   1000015    2427.0532
   2000015    4824.6517
   1000016    2425.4401
   1000021    2180.6972
   1000022    377.46997
   1000023   -381.41801
   1000025    1636.2088
   1000035   -4747.736
   1000024    378.67288
   1000037    1636.0431

BLOCK ALPHA
      -0.10825539

BLOCK HMIX Q=  4437.9601
   1    364.41284
   2    8.7661142
   3    242.80718
   4    6285935.2

BLOCK STOPMIX
   1   1    0.24776579
   1   2    0.96881996
   2   1   -0.96881996
   2   2    0.24776579

BLOCK SBOTMIX
   1   1   -0.00075324331
   1   2    0.99999972
   2   1   -0.99999972
   2   2   -0.00075324331

BLOCK STAUMIX
   1   1    0.99999994
   1   2    0.00033448111
   2   1   -0.00033448111
   2   2    0.99999994

BLOCK NMIX
   1   1   -0.0066211065
   1   2   -0.049255996
   1   3    0.70836183
   1   4   -0.70409766
   2   1   -0.006202435
   2   2   -0.024729253
   2   3   -0.70563325
   2   4   -0.70811843
   3   1   -0.00036578812
   3   2    0.99847999
   3   3    0.017467872
   3   4   -0.052272763
   4   1    0.99995878
   4   2   -0.00011428337
   4   3    0.0003198975
   4   4   -0.0090734589

BLOCK UMIX
   1   1   -0.024715071
   1   2    0.99969454
   2   1    0.99969454
   2   2    0.024715071

BLOCK VMIX
   1   1   -0.074004164
   1   2    0.99725793
   2   1    0.99725793
   2   2    0.074004164

BLOCK HIGGSBOUNDSINPUTHIGGSCOUPLINGSFERMIONS
       0, 76.844758,3,36,15,15

BLOCK HIGGSBOUNDSINPUTHIGGSCOUPLINGSBOSONS
       0,4,36,21,21,23

BLOCK SPHENOLOWENERGY
   1    0.00032629142
   2    1.5903348e-06
   3    3.5270282e-05
   4    2.6979328e-15
   5    1.1525261e-10
   6    2.412629e-08
   7    9.0783178e-14
   8    3.8782541e-09
   9    8.2258757e-07
   10    9.6725286e-05
   11    0.99913518
   12    0.54213216
   13    19.370489
   14    0
   15    0
   16    0.0021578466
   17    2.2816639e-15
   18    2.481204e-11
   19    8.2932495e-11
   20    3.3139143e-16
   21    1.4167996e-11
   22    5.1156435e-09
   23    0
   24    0
   25    0
   26    0
   27    0
   28    0
   29    0
   30    0
   31    0
   39   -6.6931237e-05
   40    0
   41    0
   42    0

BLOCK FWCOEF Q=  160
   305   4422   0   0   -0.18881911
   305   4422   0   2   -0.19434855
   305   4322   0   2   -0.00011242742
   305   6421   0   0   -0.095227835
   305   6421   0   2   -0.10548841
   305   6321   0   2   -0.00020669486
   3051111   4133   0   0    1.629827
   3051111   4133   0   2    1.6301408
   3051111   4233   0   2    2.301874e-05
   3051111   4137   0   0   -4.4525191
   3051111   4137   0   2   -4.4525737
   3051111   4237   0   2   -0.00016983882
   3051313   4133   0   0    1.629827
   3051313   4133   0   2    1.6301408
   3051313   4233   0   2    2.3018738e-05
   3051313   4137   0   0   -4.4525191
   3051313   4137   0   2   -4.4525737
   3051313   4237   0   2   -0.00016983882
   3051212   4137   0   0    1.5053501
   3051212   4137   0   2    1.5053673
   3051212   4237   0   2    3.6699546e-05
   3051414   4137   0   0    1.5053501
   3051414   4137   0   2    1.5053673
   3051414   4237   0   2    3.6699546e-05
   3051616   4137   0   0    1.5053501
   3051616   4137   0   2    1.5053674
   3051616   4237   0   2    3.669964e-05

BLOCK IMFWCOEF Q=  160
   305   4422   0   0    3.8582595e-07
   305   4422   0   2    5.0483102e-06
   305   4322   0   2    1.1856778e-06
   305   6421   0   0    3.3048544e-07
   305   6421   0   2   -5.9946975e-06
   305   6321   0   2    4.0561177e-07
   3051111   4133   0   2   -7.4238346e-08
   3051111   4233   0   2    4.6409645e-07
   3051111   4137   0   2    2.7065831e-06
   3051111   4237   0   2   -3.4238617e-06
   3051313   4133   0   2   -7.4239115e-08
   3051313   4233   0   2    4.6409644e-07
   3051313   4137   0   2    2.7065833e-06
   3051313   4237   0   2   -3.4238617e-06
   3051212   4137   0   2   -4.8826217e-07
   3051212   4237   0   2    7.3984392e-07
   3051414   4137   0   2   -4.8826216e-07
   3051414   4237   0   2    7.3984392e-07
   3051616   4137   0   2   -4.8712746e-07
   3051616   4237   0   2    7.3984377e-07

DECAY 23  2.4952


DECAY 24  2.085


DECAY 2000011  0.0012816147
    0.53226229   2    1000022    11
    0.46679972   2    1000023    11
    0.00090566058   2    1000025    11

DECAY 1000011  24.476645
    0.6654857   2   -1000037    12
    0.33176039   2    1000025    11
    0.0016008831   2    1000022    11
    0.00070159088   2   -1000024    12
    0.00045144065   2    1000023    11

DECAY 2000013  0.0048247479
    0.36706337   2   -1000024    14
    0.32571465   2    1000022    13
    0.30679379   2    1000023    13
    0.00030307399   2    1000025    13
    0.00012511917   2   -1000037    14

DECAY 1000013  24.478444
    0.66543601   2   -1000037    14
    0.33173564   2    1000025    13
    0.0016382346   2    1000022    13
    0.00070153896   2   -1000024    14
    0.00048857371   2    1000023    13

DECAY 1000015  9.9471944
    0.63900839   2   -1000037    16
    0.31850234   2    1000025    15
    0.021724096   2    1000022    15
    0.019511674   2    1000023    15
    0.0012534939   2   -1000024    16

DECAY 2000015  1.575961
    0.48916809   2   -1000024    16
    0.24626461   2    1000022    15
    0.24430912   2    1000023    15
    0.015384148   2    1000035    15
    0.0022593858   2    1000016   -24
    0.0011275625   2    1000015    23
    0.0010554308   2    1000015    25
    0.00028679062   2   -1000037    16
    0.00014485671   2    1000025    15

DECAY 1000012  24.502574
    0.6609079   2    1000037    11
    0.33134949   2    1000025    12
    0.0062809188   2    1000024    11
    0.0011987982   2    1000022    12
    0.0002628923   2    1000023    12

DECAY 1000014  24.504371
    0.66085867   2    1000037    13
    0.33132479   2    1000025    14
    0.0063549563   2    1000024    13
    0.0011987096   2    1000022    14
    0.00026287287   2    1000023    14

DECAY 1000016  9.9794603
    0.63203101   2    1000037    15
    0.31680096   2    1000025    16
    0.048572342   2    1000024    15
    0.0021290256   2    1000022    16
    0.00046666423   2    1000023    16

DECAY 2000001  70.083076
    0.99999794   2    1000021    1

DECAY 1000001  305.44173
    0.83023454   2    1000021    1
    0.11306374   2   -1000037    2
    0.056399141   2    1000025    1
    0.00016290355   2    1000022    1

DECAY 2000003  70.083988
    0.999984   2    1000021    3

DECAY 1000003  305.44419
    0.83022757   2    1000021    3
    0.11306282   2   -1000037    4
    0.056398673   2    1000025    3
    0.00016417349   2    1000022    3

DECAY 1000005  109.52878
    0.97284093   2    1000021    5
    0.013539143   2   -1000024    6
    0.0068313393   2    1000022    5
    0.0067784439   2    1000023    5

DECAY 2000005  389.28395
    0.57306476   2    1000021    5
    0.24157781   2   -1000024    6
    0.081899614   2   -1000037    6
    0.057996181   2    1000006   -24
    0.040211851   2    1000025    5
    0.0026762298   2    1000022    5
    0.0025640333   2    1000023    5

DECAY 2000002  224.1062
    0.99999623   2    1000021    2

DECAY 1000002  305.40103
    0.83010465   2    1000021    2
    0.11250351   2    1000037    1
    0.056379539   2    1000025    2
    0.00077188642   2    1000024    1
    0.00017926866   2    1000022    2

DECAY 2000004  224.10939
    0.99998124   2    1000021    4

DECAY 1000004  305.40342
    0.83009765   2    1000021    4
    0.1125026   2    1000037    3
    0.056379095   2    1000025    4
    0.0007744118   2    1000024    3
    0.00018216729   2    1000022    4

DECAY 1000006  350.90488
    0.51871345   2    1000021    6
    0.23397057   2    1000024    5
    0.12239618   2    1000023    6
    0.12198802   2    1000022    6
    0.0014347686   2    1000037    5
    0.00075839659   2    1000025    6
    0.00069296684   2    1000021    4

DECAY 2000006  395.55237
    0.55653776   2    1000021    6
    0.12013789   2    1000023    6
    0.11795926   2    1000022    6
    0.07921425   2    1000037    5
    0.040288872   2    1000025    6
    0.039667656   2    1000006    25
    0.031776986   2    1000006    23
    0.014409949   2    1000024    5

DECAY 1000024  2.0432707e-12
    0.61987483   2    1000022    211
    0.19367366   3    1000022   -11    12
    0.18645151   3    1000022   -13    14

DECAY 1000037  15.714687
    0.24531445   2    1000023    24
    0.24498704   2    1000024    25
    0.24268301   2    1000024    23
    0.24233853   2    1000022    24
    0.010228158   3    1000024    6   -6
    0.0080149889   3    1000022   -5    6
    0.0064284891   3    1000023   -5    6

DECAY 1000022 -1


DECAY 1000023  1.4833937e-08
    0.78095846   2    1000022    22
    0.044969515   3    1000022    12   -12
    0.033626807   3    1000022    1   -1
    0.033401251   3    1000022    3   -3
    0.02622632   3    1000022    2   -2
    0.014704168   3    1000024    1   -2
    0.014704168   3   -1000024   -1    2
    0.007588727   3    1000022    11   -11
    0.0075086355   3    1000022    13   -13
    0.0054022849   3    1000022    4   -4
    0.0051340182   3    1000024    3   -4
    0.0051340182   3   -1000024   -3    4
    0.0049014446   3    1000024    11   -12
    0.0049014446   3   -1000024   -11    12
    0.0048654602   3    1000024    13   -14
    0.0048654602   3   -1000024   -13    14
    0.00053196723   3    1000024    15   -16
    0.00053196723   3   -1000024   -15    16

DECAY 1000025  16.957967
    0.22645675   2    1000024   -24
    0.22645675   2   -1000024    24
    0.18179614   2    1000023    23
    0.17999864   2    1000022    25
    0.11826937   2    1000023    25
    0.044728232   2    1000022    23
    0.0073062562   3    1000024    5   -6
    0.0073062562   3   -1000024   -5    6
    0.0042436562   3    1000022    6   -6
    0.0034273096   3    1000023    6   -6

DECAY 1000035  54.464915
    0.066195575   2    2000013   -13
    0.066195575   2   -2000013    13
    0.066195343   2    2000011   -11
    0.066195343   2   -2000011    11
    0.05390428   2    1000024   -24
    0.05390428   2   -1000024    24
    0.0382667   2    1000022    25
    0.029912044   2    1000016   -16
    0.029912044   2   -1000016    16
    0.02985834   2    1000015   -15
    0.02985834   2   -1000015    15
    0.029004907   2    1000023    23
    0.026820844   2    37   -1000024
    0.026820844   2   -37    1000024
    0.025022133   2    1000023    25
    0.024907978   2    1000022    23
    0.022271813   2    2000003   -3
    0.022271813   2   -2000003    3
    0.022271799   2    2000001   -1
    0.022271799   2   -2000001    1
    0.020898743   2    1000023    35
    0.014980288   2    1000014   -14
    0.014980288   2   -1000014    14
    0.01498026   2    1000012   -12
    0.01498026   2   -1000012    12
    0.014944851   2    1000013   -13
    0.014944851   2   -1000013    13
    0.014944823   2    1000011   -11
    0.014944823   2   -1000011    11
    0.014595144   2    1000005   -5
    0.014595144   2   -1000005    5
    0.013596373   2    1000022    35
    0.013574159   2    1000022    36
    0.011692235   2    1000006   -6
    0.011692235   2   -1000006    6
    0.0084907601   2    1000023    36
    0.0042976179   3    1000024    5   -6
    0.0042976179   3   -1000024   -5    6
    0.0039771787   3    1000022    6   -6
    0.0038237784   3    1000023    6   -6
    0.00041462597   2    2000002   -2
    0.00041462597   2   -2000002    2
    0.00041459613   2    2000004   -4
    0.00041459613   2   -2000004    4
    0.00012998953   2    1000037   -24
    0.00012998953   2   -1000037    24
    0.00011884347   2    1000025    25
    0.0001185585   3    1000021    6   -6
    0.00010059518   2    1000025    23

DECAY 1000021  0.0118908
    0.24985815   3    1000024    5   -6
    0.24985815   3   -1000024   -5    6
    0.22976697   3    1000023    6   -6
    0.22723958   3    1000022    6   -6
    0.0096693007   3    1000022    5   -5
    0.009513287   3    1000023    5   -5
    0.0081783192   2    1000023    21
    0.007754206   2    1000022    21
    0.00081320877   3    1000037    1   -2
    0.00081320877   3   -1000037   -1    2
    0.00081319224   3    1000037    3   -4
    0.00081319224   3   -1000037   -3    4
    0.0007488383   3    1000037    5   -6
    0.0007488383   3   -1000037   -5    6
    0.00054738058   3    1000025    5   -5
    0.00040614579   3    1000025    2   -2
    0.00040612893   3    1000025    4   -4
    0.00040597022   3    1000025    3   -3
    0.00040596987   3    1000025    1   -1
    0.00020822736   3    1000025    6   -6
    0.00016826298   3    1000024    3   -4
    0.00016826298   3   -1000024   -3    4
    0.00016014811   3    1000024    1   -2
    0.00016014811   3   -1000024   -1    2

DECAY 25  0.0039432131
    0.56603916   2   -5    5
    0.23570386   2   -24    24
    0.072094371   2    21    21
    0.06516156   2   -15    15
    0.028788825   2    23    23
    0.027891632   2   -4    4
    0.0023462774   2    22    22
    0.0015350479   2    22    23
    0.00022598286   2   -13    13
    0.00021255148   2   -3    3
    5.8768251e-07   2   -1    1
    1.4373061e-07   2   -2    2
    5.0803399e-09   2   -11    11

DECAY 35  14.822418
    0.23983822   2   -1000024    1000037
    0.23983822   2   -1000037    1000024
    0.17862329   2    1000023    1000025
    0.16649795   2   -5    5
    0.074318928   2   -6    6
    0.061441504   2    1000022    1000025
    0.030369239   2   -15    15
    0.0067567405   2   -1000024    1000024
    0.0011177063   2    1000022    1000022
    0.00038345445   2    1000023    1000023
    0.00035567575   2    1000022    1000023
    0.0002236344   2    25    25
    0.00010464837   2   -13    13
    6.3019444e-05   2   -3    3
    3.6339026e-05   2    23    23
    1.5704195e-05   2    21    21
    1.3990207e-05   2   -24    24
    1.0079104e-06   2   -4    4
    3.0479009e-07   2    22    22
    2.3825243e-07   2    22    23
    1.7422705e-07   2   -1    1
    2.3504681e-09   2   -11    11
    5.1959258e-12   2   -2    2

DECAY 36  14.705706
    0.24075713   2   -1000024    1000037
    0.24075713   2   -1000037    1000024
    0.18046338   2    1000022    1000025
    0.16391999   2   -5    5
    0.072080119   2   -6    6
    0.061009846   2    1000023    1000025
    0.029898531   2   -15    15
    0.0085797299   2   -1000024    1000024
    0.0018943135   2    1000022    1000022
    0.00027282675   2    1000023    1000023
    0.00010302671   2   -13    13
    9.293877e-05   2    1000022    1000023
    6.2043106e-05   2   -3    3
    5.3443029e-05   2    23    25
    5.3346195e-05   2    21    21
    9.5814904e-07   2   -4    4
    5.3396352e-07   2    22    22
    5.327833e-07   2    22    23
    1.7152791e-07   2   -1    1
    2.3140562e-09   2   -11    11
    4.9396045e-12   2   -2    2
    7.7569835e-37   2    25    25

DECAY 37  14.752757
    0.244164   2    1000022    1000037
    0.24196765   2    1000024    1000025
    0.24109531   2   -5    6
    0.24070493   2    1000023    1000037
    0.029002753   2   -15    16
    0.001948644   2    1000023    1000024
    0.00054135322   2    1000022    1000024
    0.00023874606   2   -5    4
    0.00011380293   2   -3    6
    0.00010253512   2   -13    14
    5.7098982e-05   2   -3    4
    5.3415784e-05   2    24    25
    5.2157365e-06   2   -1    6
    2.6209918e-06   2   -3    2
    1.7048823e-06   2   -5    2
    1.5559768e-07   2   -1    2
    5.5062957e-08   2   -1    4
    2.3983071e-09   2   -11    12
    8.3186281e-13   2    24    35
    6.7215484e-13   2    24    36

DECAY 6  2.43
    1   2    5    24

DECAY 15 -1
