BLOCK SPINFO
   1   SPheno
   2   v4.0.5be

BLOCK SPHENOINFO
   1   2
   2   2

BLOCK MODSEL
   1   0

BLOCK MINPAR
   3    10.219399
   4   -1

BLOCK EXTPAR
   0    2620.7281
   1   -587.96526
   2    3932.0372
   3    4963.4833
   11   -7257.3634
   12   -6328.847
   13    6356.2037
   23   -288.54782
   25    9.7718006
   26    724.54505
   31    3518.8498
   32    3518.8498
   33    2814.7186
   34    710.2193
   35    710.2193
   36    2856.9565
   41    1855.8456
   42    1855.8456
   43    1708.5235
   44    2307.082
   45    2307.082
   46    4104.8917
   47    2637.0346
   48    2637.0346
   49    4016.118

BLOCK SMINPUTS
   1    127.90897
   2    1.1663787e-05
   3    0.1184
   4    91.1876
   5    4.18
   6    173.2
   7    1.777
   8    0
   11    0.00051099893
   12    0
   13    0.10565837
   14    0
   21    0.005
   22    0.0025
   23    0.095
   24    1.27

BLOCK GAUGE Q=  2620.7281
   1    0.35536298
   2    0.66519887
   3    1.219778

BLOCK YU Q=  2620.7281
   1   1    8.4281605e-06
   2   2    0.0042815055
   3   3    1.0181895

BLOCK YD Q=  2620.7281
   1   1    0.00016549605
   2   2    0.003144425
   3   3    0.16412023

BLOCK YE Q=  2620.7281
   1   1    2.8880272e-05
   2   2    0.0059715242
   3   3    0.10043121

BLOCK AU Q=  2620.7281
   1   1    0
   2   2    0
   3   3   -7257.3633

BLOCK AD Q=  2620.7281
   1   1    0
   2   2    0
   3   3   -6328.847

BLOCK AE Q=  2620.7281
   1   1    0
   2   2    0
   3   3    6356.2037

BLOCK MSOFT Q=  2620.7281
   1   -587.96526
   2    3932.0372
   3    4963.4833
   21    407199.64
   22   -197636.88
   31    3518.8498
   32    3518.8498
   33    2814.7186
   34    710.2193
   35    710.2193
   36    2856.9565
   41    1855.8456
   42    1855.8456
   43    1708.5235
   44    2307.082
   45    2307.082
   46    4104.8917
   47    2637.0346
   48    2637.0346
   49    4016.118

BLOCK MASS
   6    173.2
   23    91.1876
   24    80.429995
   15    1.777
   25    124.16452
   35    724.7631
   36    724.54505
   37    728.84973
   1000001    1897.6323
   2000001    2687.4743
   1000002    1896.1432
   2000002    2345.2877
   1000003    1897.6317
   2000003    2687.474
   1000004    1896.1427
   2000004    2345.2871
   1000005    1709.3716
   2000005    4088.2001
   1000006    1689.5834
   2000006    4065.0351
   1000011    3539.0622
   2000011    719.39048
   1000012    3537.7927
   1000013    3539.0615
   2000013    719.3879
   1000014    3537.7919
   1000015    2834.6053
   2000015    2859.4945
   1000016    2833.4656
   1000021    4822.7052
   1000022   -298.9458
   1000023    302.0468
   1000025   -585.31726
   1000035    3872.6267
   1000024    302.24935
   1000037    3872.6819

BLOCK ALPHA
      -0.10175726

BLOCK HMIX Q=  2620.7281
   1   -288.54782
   2    9.7718006
   3    243.36132
   4    524965.53

BLOCK STOPMIX
   1   1    0.99710934
   1   2    0.075980011
   2   1   -0.075980011
   2   2    0.99710934

BLOCK SBOTMIX
   1   1    0.9999998
   1   2    0.00062470635
   2   1   -0.00062470635
   2   2    0.9999998

BLOCK STAUMIX
   1   1   -0.9935099
   1   2    0.11374571
   2   1   -0.11374571
   2   2   -0.9935099

BLOCK NMIX
   1   1    0.11799792
   1   2    0.014608441
   1   3   -0.70483129
   1   4    0.69933965
   2   1   -0.031009261
   2   2   -0.014039719
   2   3   -0.70668504
   2   4   -0.70670897
   3   1   -0.99252953
   3   2    0.0019744704
   3   3   -0.061715989
   3   4    0.10522529
   4   1    0.00019944813
   4   2   -0.99979277
   4   3   -0.00049678614
   4   4    0.020350239

BLOCK UMIX
   1   1    0.00070063482
   1   2   -0.99999976
   2   1    0.99999976
   2   2    0.00070063482

BLOCK VMIX
   1   1   -0.028782939
   1   2    0.99958569
   2   1    0.99958569
   2   2    0.028782939

BLOCK HIGGSBOUNDSINPUTHIGGSCOUPLINGSFERMIONS
       0, 95.488087,3,36,15,15

BLOCK HIGGSBOUNDSINPUTHIGGSCOUPLINGSBOSONS
       0,4,36,21,21,23

BLOCK SPHENOLOWENERGY
   1    0.00038022538
   2    1.5899505e-06
   3    3.5307307e-05
   4    2.371978e-15
   5    1.0132823e-10
   6    2.1213322e-08
   7    8.005996e-14
   8    3.4201596e-09
   9    7.2548745e-07
   10    9.5585318e-05
   11    0.98735974
   12    0.54276185
   13    19.388148
   14    0
   15    0
   16    0.0021608664
   17    2.2816965e-15
   18    2.4835641e-11
   19    8.2992544e-11
   20   -3.1304415e-16
   21   -1.338384e-11
   22   -2.8669564e-09
   23    0
   24    0
   25    0
   26    0
   27    0
   28    0
   29    0
   30    0
   31    0
   39   -3.254111e-05
   40    0
   41    0
   42    0

BLOCK FWCOEF Q=  160
   305   4422   0   0   -0.18881911
   305   4422   0   2   -0.24859631
   305   4322   0   2   -0.0011686259
   305   6421   0   0   -0.095227835
   305   6421   0   2   -0.1595642
   305   6321   0   2   -0.001256381
   3051111   4133   0   0    1.6114354
   3051111   4133   0   2    1.6120935
   3051111   4233   0   2    2.0160129e-05
   3051111   4137   0   0   -4.4341275
   3051111   4137   0   2   -4.4378421
   3051111   4237   0   2   -0.0001526187
   3051313   4133   0   0    1.6114354
   3051313   4133   0   2    1.6120935
   3051313   4233   0   2    2.0159953e-05
   3051313   4137   0   0   -4.4341275
   3051313   4137   0   2   -4.4378422
   3051313   4237   0   2   -0.00015261854
   3051212   4137   0   0    1.5053501
   3051212   4137   0   2    1.5061572
   3051212   4237   0   2    3.3116663e-05
   3051414   4137   0   0    1.5053501
   3051414   4137   0   2    1.5061572
   3051414   4237   0   2    3.31167e-05
   3051616   4137   0   0    1.5053501
   3051616   4137   0   2    1.506157
   3051616   4237   0   2    3.3127249e-05

BLOCK IMFWCOEF Q=  160
   305   4422   0   0    3.8581458e-07
   305   4422   0   2   -4.3607311e-06
   305   4322   0   2   -1.792676e-06
   305   6421   0   0    3.3047571e-07
   305   6421   0   2    5.369394e-08
   305   6321   0   2   -8.9541292e-07
   3051111   4133   0   2    8.3564774e-07
   3051111   4233   0   2    7.3128621e-07
   3051111   4137   0   2   -3.7962988e-06
   3051111   4237   0   2   -5.5365002e-06
   3051313   4133   0   2    8.3564733e-07
   3051313   4233   0   2    7.3128614e-07
   3051313   4137   0   2   -3.7962993e-06
   3051313   4237   0   2   -5.5365004e-06
   3051212   4137   0   2    8.4248494e-07
   3051212   4237   0   2    1.2013401e-06
   3051414   4137   0   2    8.4248493e-07
   3051414   4237   0   2    1.2013401e-06
   3051616   4137   0   2    8.3989841e-07
   3051616   4237   0   2    1.2013405e-06

DECAY 23  2.4952


DECAY 24  2.085


DECAY 2000011  0.44363244
    0.91703223   2    1000025    11
    0.077649029   2    1000022    11
    0.0053187189   2    1000023    11

DECAY 1000011  4.2193165
    0.97464715   2    1000025    11
    0.021941214   2    1000022    11
    0.0034080583   2    1000023    11

DECAY 2000013  0.44431209
    0.91559968   2    1000025    13
    0.077921911   2    1000022    13
    0.0056995149   2    1000023    13
    0.0007788914   2   -1000024    14

DECAY 1000013  4.2217978
    0.97407626   2    1000025    13
    0.022219515   2    1000022    13
    0.0036987431   2    1000023    13

DECAY 1000015  3.9658653
    0.83201741   2    1000025    15
    0.093674182   2    1000022    15
    0.072638777   2    1000023    15
    0.0016696282   2   -1000024    16

DECAY 2000015  14.188897
    0.90824792   2    1000025    15
    0.03907102   2   -1000024    16
    0.031909562   2    1000022    15
    0.020771469   2    1000023    15

DECAY 1000012  4.2339166
    0.98546865   2    1000025    12
    0.0085029708   2    1000022    12
    0.0060052541   2    1000024    11

DECAY 1000014  4.2363889
    0.98489328   2    1000025    14
    0.0084980064   2    1000022    14
    0.0065855664   2    1000024    13

DECAY 1000016  3.8420305
    0.84263241   2    1000025    16
    0.14990278   2    1000024    15
    0.0074445632   2    1000022    16

DECAY 1000001  0.21934121
    0.99585018   2    1000025    1
    0.0026269834   2    1000023    1
    0.0014873146   2    1000022    1

DECAY 2000001  1.3629536
    0.98401528   2    1000025    1
    0.014951146   2    1000022    1
    0.0010325231   2    1000023    1

DECAY 1000003  0.22035156
    0.99128846   2    1000025    3
    0.003416532   2    1000023    3
    0.0030163486   2   -1000024    4
    0.0022786573   2    1000022    3

DECAY 2000003  1.3639827
    0.98327395   2    1000025    3
    0.015127211   2    1000022    3
    0.0012199042   2    1000023    3
    0.00037782534   2   -1000024    4

DECAY 1000005  33.386113
    0.96861823   2   -1000024    6
    0.012876653   2    1000023    5
    0.012814934   2    1000022    5
    0.0056901812   2    1000025    5

DECAY 2000005  14.696908
    0.27683928   2    1000006   -37
    0.14730151   2    1000025    5
    0.14689364   2   -1000024    6
    0.13912964   2    1000005    36
    0.13912681   2    1000005    35
    0.075422187   2    1000022    5
    0.073777104   2    1000023    5
    0.00069837602   2    1000006   -24
    0.00046552142   2    1000005    25
    0.00034591948   2    1000005    23

DECAY 1000002  0.23489106
    0.8882921   2    1000025    2
    0.055922356   2    1000024    1
    0.042869743   2    1000022    2
    0.012915802   2    1000023    2

DECAY 2000002  4.6122034
    0.9836426   2    1000025    2
    0.015301353   2    1000022    2
    0.0010560456   2    1000023    2

DECAY 1000004  0.23589988
    0.88452332   2    1000025    4
    0.057181505   2    1000024    3
    0.044045939   2    1000022    4
    0.014249241   2    1000023    4

DECAY 2000004  4.6138492
    0.98329159   2    1000025    4
    0.015383981   2    1000022    4
    0.0011453062   2    1000023    4
    0.00017912181   2    1000024    3

DECAY 1000006  33.076353
    0.47879834   2    1000023    6
    0.46715359   2    1000022    6
    0.034381443   2    1000024    5
    0.01875442   2    1000025    6
    0.00091221284   3    1000022    24    5

DECAY 2000006  508.25808
    0.28897749   2    1000005    24
    0.20816301   2    1000006    25
    0.16161988   2    1000024    5
    0.14571629   2    1000006    23
    0.081310121   2    1000023    6
    0.080273165   2    1000022    6
    0.017705379   2    1000025    6
    0.0081225358   2    1000005    37
    0.0041054151   2    1000006    36
    0.0039961291   2    1000006    35

DECAY 1000024  1.2078703e-09
    0.44780931   3    1000022   -1    2
    0.21910203   3    1000022   -3    4
    0.14927053   3    1000022   -11    12
    0.14851248   3    1000022   -13    14
    0.035300452   3    1000022   -15    16

DECAY 1000037  259.76161
    0.1273406   2    1000006   -5
    0.12647367   2   -1000005    6
    0.11369452   2    1000004   -3
    0.11369448   2    1000002   -1
    0.11367598   2   -1000003    4
    0.11367598   2   -1000001    2
    0.031687154   2    1000024    25
    0.031505841   2    1000024    36
    0.031503229   2    1000024    35
    0.031466116   2    37    1000023
    0.030949853   2    1000023    24
    0.03093001   2    1000024    23
    0.03040324   2    1000022    24
    0.029344407   2    37    1000022
    0.014157618   2    1000016   -15
    0.013960468   2   -1000015    16
    0.0032833456   3    1000024    6   -6
    0.0021182581   3    1000022   -5    6
    0.0020069034   3    1000023   -5    6
    0.0017952668   2    1000014   -13
    0.0017952586   2    1000012   -11
    0.0017837679   2   -1000013    14
    0.0017837607   2   -1000011    12
    0.00054041311   2    1000025    24
    0.00021135712   2    37    1000025
    0.00017528719   2   -2000015    16

DECAY 1000022 -1


DECAY 1000023  4.3740686e-09
    0.88648748   2    1000022    22
    0.033229235   3    1000022    12   -12
    0.024847391   3    1000022    1   -1
    0.02454344   3    1000022    3   -3
    0.019379478   3    1000022    2   -2
    0.0056069003   3    1000022    11   -11
    0.0054992066   3    1000022    13   -13
    0.00040687535   3    1000022    4   -4

DECAY 1000025  1.8443109
    0.23603526   2    1000024   -24
    0.23603526   2   -1000024    24
    0.22901769   2    1000023    23
    0.16736043   2    1000022    25
    0.11582246   2    1000023    25
    0.0151734   2    1000022    23
    0.0002634952   3    1000024    5   -6
    0.0002634952   3   -1000024   -5    6

DECAY 1000035  261.3365
    0.063404809   2    1000005   -5
    0.063404809   2   -1000005    5
    0.062739984   2    1000006   -6
    0.062739984   2   -1000006    6
    0.056522242   2    1000002   -2
    0.056522242   2   -1000002    2
    0.05652224   2    1000004   -4
    0.05652224   2   -1000004    4
    0.056474294   2    1000003   -3
    0.056474294   2   -1000003    3
    0.056474271   2    1000001   -1
    0.056474271   2   -1000001    1
    0.031296086   2    37   -1000024
    0.031296086   2   -37    1000024
    0.030774726   2    1000024   -24
    0.030774726   2   -1000024    24
    0.022156918   2    1000022    25
    0.021143188   2    1000023    35
    0.01611743   2    1000023    23
    0.015230183   2    1000022    36
    0.014979509   2    1000023    25
    0.014313865   2    1000022    23
    0.013962823   2    1000022    35
    0.010145353   2    1000023    36
    0.007040014   2    1000016   -16
    0.007040014   2   -1000016    16
    0.0069332542   2    1000015   -15
    0.0069332542   2   -1000015    15
    0.0019760948   3    1000024    5   -6
    0.0019760948   3   -1000024   -5    6
    0.0017138962   3    1000022    6   -6
    0.0016524153   3    1000023    6   -6
    0.00089251476   2    1000014   -14
    0.00089251476   2   -1000014    14
    0.00089251064   2    1000012   -12
    0.00089251064   2   -1000012    12
    0.00088568502   2    1000013   -13
    0.00088568502   2   -1000013    13
    0.00088568146   2    1000011   -11
    0.00088568146   2   -1000011    11
    0.00042264943   2    1000025    25
    0.00031443204   2    1000025    23
    0.00010520214   2    1000025    36
    0.00010510319   2    1000025    35

DECAY 1000021  951.20446
    0.057367827   2    1000005   -5
    0.057367827   2   -1000005    5
    0.057009049   2    1000006   -6
    0.057009049   2   -1000006    6
    0.053631619   2    1000004   -4
    0.053631619   2   -1000004    4
    0.05363161   2    1000002   -2
    0.05363161   2   -1000002    2
    0.05360081   2    1000003   -3
    0.05360081   2   -1000003    3
    0.053600798   2    1000001   -1
    0.053600798   2   -1000001    1
    0.043743078   2    2000004   -4
    0.043743078   2   -2000004    4
    0.043743067   2    2000002   -2
    0.043743067   2   -2000002    2
    0.035670247   2    2000003   -3
    0.035670247   2   -2000003    3
    0.035670238   2    2000001   -1
    0.035670238   2   -2000001    1
    0.0063798145   2    2000006   -6
    0.0063798145   2   -2000006    6
    0.0059421883   2    2000005   -5
    0.0059421883   2   -2000005    5

DECAY 25  0.003974131
    0.60237659   2   -5    5
    0.20411737   2   -24    24
    0.069066127   2   -15    15
    0.06870093   2    21    21
    0.027389414   2   -4    4
    0.024300668   2    23    23
    0.0022264942   2    22    22
    0.0013560926   2    22    23
    0.00023959226   2   -13    13
    0.00022595953   2   -3    3
    6.2475325e-07   2   -1    1
    1.4114637e-07   2   -2    2
    5.3863108e-09   2   -11    11

DECAY 35  1.4777156
    0.71748255   2   -5    5
    0.15915673   2   -6    6
    0.10902771   2   -15    15
    0.0084670137   2    25    25
    0.0014561247   2   -24    24
    0.0012725827   2    1000022    1000023
    0.00080732095   2    23    23
    0.00071881646   2   -1000024    1000024
    0.00071271887   2    1000022    1000022
    0.00037975892   2   -13    13
    0.00027703788   2   -3    3
    0.00023340757   2    21    21
    3.8490905e-06   2    1000023    1000023
    2.939757e-06   2   -4    4
    7.6595367e-07   2   -1    1
    5.6500604e-07   2    22    22
    9.580175e-08   2    22    23
    8.5328876e-09   2   -11    11
    1.5160288e-11   2   -2    2

DECAY 36  1.5003311
    0.69761264   2   -5    5
    0.1888719   2   -6    6
    0.10599414   2   -15    15
    0.0027680157   2    1000022    1000022
    0.0019583477   2   -1000024    1000024
    0.0012823839   2    23    25
    0.00056637312   2    21    21
    0.00036918284   2   -13    13
    0.00029585898   2    1000022    1000023
    0.0002693328   2   -3    3
    6.9507874e-06   2    1000023    1000023
    2.6702112e-06   2   -4    4
    1.1454488e-06   2    22    22
    7.4465037e-07   2   -1    1
    2.9904053e-07   2    22    23
    8.2952491e-09   2   -11    11
    1.3773293e-11   2   -2    2
    7.9386701e-36   2    25    25

DECAY 37  1.3277882
    0.87564576   2   -5    6
    0.1146437   2   -15    16
    0.0052175219   2    1000022    1000024
    0.0014948573   2    24    25
    0.0010627733   2   -5    4
    0.00091369931   2    1000023    1000024
    0.00040531093   2   -13    14
    0.00031212738   2   -3    6
    0.00026919948   2   -3    4
    1.429976e-05   2   -1    6
    1.2233306e-05   2   -3    2
    7.5893077e-06   2   -5    2
    7.382111e-07   2   -1    2
    1.7968892e-07   2   -1    4
    9.4802652e-09   2   -11    12
    1.5052712e-09   2    24    36
    1.1610525e-09   2    24    35

DECAY 6  2.43
    1   2    5    24

DECAY 15 -1
