BLOCK SPINFO
   1   SPheno
   2   v4.0.5be

BLOCK SPHENOINFO
   1   2
   2   2

BLOCK MODSEL
   1   0

BLOCK MINPAR
   3    28.883948
   4   -1

BLOCK EXTPAR
   0    1613.9458
   1    405.01197
   2   -385.8665
   3    3000
   11   -4845.3533
   12    929.21752
   13    1178.9738
   23   -832.53077
   25    28.059064
   26    3120.5064
   31    1244.6806
   32    1244.6806
   33    985.72066
   34    802.81494
   35    802.81494
   36    1665.8898
   41    5000
   42    5000
   43    1731.579
   44    5000
   45    5000
   46    1646.7967
   47    5000
   48    5000
   49    1122.844

BLOCK SMINPUTS
   1    127.90897
   2    1.1663787e-05
   3    0.1184
   4    91.1876
   5    4.18
   6    173.2
   7    1.777
   8    0
   11    0.00051099893
   12    0
   13    0.10565837
   14    0
   21    0.005
   22    0.0025
   23    0.095
   24    1.27

BLOCK GAUGE Q=  1613.9458
   1    0.35536298
   2    0.66519887
   3    1.219778

BLOCK YU Q=  1613.9458
   1   1    8.3896951e-06
   2   2    0.0042619651
   3   3    1.0135426

BLOCK YD Q=  1613.9458
   1   1    0.0004730419
   2   2    0.0089877961
   3   3    0.46910934

BLOCK YE Q=  1613.9458
   1   1    8.2549271e-05
   2   2    0.017068571
   3   3    0.28706529

BLOCK AU Q=  1613.9458
   1   1    0
   2   2    0
   3   3   -4845.3527

BLOCK AD Q=  1613.9458
   1   1    0
   2   2    0
   3   3    929.21731

BLOCK AE Q=  1613.9458
   1   1    0
   2   2    0
   3   3    1178.9738

BLOCK MSOFT Q=  1613.9458
   1    405.01197
   2   -385.8665
   3    3000
   21    9064655.2
   22   -631562.14
   31    1244.6806
   32    1244.6806
   33    985.72066
   34    802.81494
   35    802.81494
   36    1665.8898
   41    5000
   42    5000
   43    1731.579
   44    5000
   45    5000
   46    1646.7967
   47    5000
   48    5000
   49    1122.844

BLOCK MASS
   6    173.2
   23    91.1876
   24    80.429995
   15    1.777
   25    122.15063
   35    3118.0752
   36    3120.5064
   37    3121.0176
   1000001    5035.9964
   2000001    5025.1499
   1000002    5035.5611
   2000002    5026.7052
   1000003    5035.9992
   2000003    5025.1517
   1000004    5035.5629
   2000004    5026.7058
   1000005    1148.5105
   2000005    1702.5517
   1000006    1417.7356
   2000006    1837.3107
   1000011    1248.5882
   2000011    805.19951
   1000012    1245.7608
   1000013    1248.5886
   2000013    805.19502
   1000014    1245.7583
   1000015    989.24848
   2000015    1666.3731
   1000016    986.57371
   1000021    3200.7711
   1000022    402.8776
   1000023   -407.25337
   1000025    844.22605
   1000035   -849.17937
   1000024    407.46622
   1000037    850.72102

BLOCK ALPHA
      -0.034661593

BLOCK HMIX Q=  1613.9458
   1   -832.53077
   2    28.059064
   3    243.89332
   4    9737560.4

BLOCK STOPMIX
   1   1    0.5907521
   1   2    0.80685312
   2   1   -0.80685312
   2   2    0.5907521

BLOCK SBOTMIX
   1   1   -0.035278577
   1   2    0.99937752
   2   1   -0.99937752
   2   2   -0.035278577

BLOCK STAUMIX
   1   1   -0.99969034
   1   2    0.024884296
   2   1   -0.024884296
   2   2   -0.99969034

BLOCK NMIX
   1   1    0.9972338
   1   2    0.0029264073
   1   3   -0.067552214
   1   4   -0.030868692
   2   1    0.0035143285
   2   2    0.99045437
   2   3    0.12309082
   2   4   -0.06193905
   3   1   -0.069611979
   3   2    0.043416629
   3   3   -0.70289738
   3   4   -0.70654401
   4   1    0.025817892
   4   2   -0.13079212
   4   3    0.69729522
   4   4   -0.7042771

BLOCK UMIX
   1   1   -0.98483117
   1   2   -0.1735153
   2   1   -0.1735153
   2   2    0.98483117

BLOCK VMIX
   1   1    0.99617934
   1   2    0.087331092
   2   1    0.087331092
   2   2   -0.99617934

BLOCK HIGGSBOUNDSINPUTHIGGSCOUPLINGSFERMIONS
       0, 787.3111,3,36,15,15

BLOCK HIGGSBOUNDSINPUTHIGGSCOUPLINGSBOSONS
       0,4,36,21,21,23

BLOCK SPHENOLOWENERGY
   1    0.00036833162
   2    1.5872343e-06
   3    3.5248335e-05
   4    2.0826723e-15
   5    8.8969392e-11
   6    1.8625734e-08
   7    7.064358e-14
   8    3.0178921e-09
   9    6.4019291e-07
   10    9.6077916e-05
   11    0.99244809
   12    0.54322943
   13    19.403722
   14    0
   15    0
   16    0.0021651683
   17    2.2817387e-15
   18    2.4814906e-11
   19    8.2930244e-11
   20    4.1576327e-15
   21    1.7773448e-10
   22    7.4798177e-08
   23    0
   24    0
   25    0
   26    0
   27    0
   28    0
   29    0
   30    0
   31    0
   39    8.7314503e-05
   40    0
   41    0
   42    0

BLOCK FWCOEF Q=  160
   305   4422   0   0   -0.18881911
   305   4422   0   2   -0.24262244
   305   4322   0   2   -0.00044521363
   305   6421   0   0   -0.095227835
   305   6421   0   2   -0.13005991
   305   6321   0   2   -0.00030154083
   3051111   4133   0   0    1.594611
   3051111   4133   0   2    1.5953157
   3051111   4233   0   2    0.00015578229
   3051111   4137   0   0   -4.4173031
   3051111   4137   0   2   -4.4151422
   3051111   4237   0   2   -0.0012077016
   3051313   4133   0   0    1.594611
   3051313   4133   0   2    1.5953138
   3051313   4233   0   2    0.00015578196
   3051313   4137   0   0   -4.4173031
   3051313   4137   0   2   -4.4151441
   3051313   4237   0   2   -0.0012077023
   3051212   4137   0   0    1.5053501
   3051212   4137   0   2    1.5049077
   3051212   4237   0   2    0.00026303722
   3051414   4137   0   0    1.5053501
   3051414   4137   0   2    1.5049077
   3051414   4237   0   2    0.00026303724
   3051616   4137   0   0    1.5053501
   3051616   4137   0   2    1.5049085
   3051616   4237   0   2    0.00026304124

BLOCK IMFWCOEF Q=  160
   305   4422   0   0    3.8569827e-07
   305   4422   0   2    1.2143178e-05
   305   4322   0   2   -5.9044939e-06
   305   6421   0   0    3.3037607e-07
   305   6421   0   2    1.9738933e-05
   305   6321   0   2   -2.6999895e-06
   3051111   4133   0   2   -3.9498332e-06
   3051111   4233   0   2    3.1156142e-06
   3051111   4137   0   2    3.4399733e-05
   3051111   4237   0   2   -2.4157907e-05
   3051313   4133   0   2   -3.9498633e-06
   3051313   4233   0   2    3.1156097e-06
   3051313   4137   0   2    3.43998e-05
   3051313   4237   0   2   -2.415792e-05
   3051212   4137   0   2   -6.9676403e-06
   3051212   4237   0   2    5.2616098e-06
   3051414   4137   0   2   -6.9676385e-06
   3051414   4237   0   2    5.2616098e-06
   3051616   4137   0   2   -6.9533579e-06
   3051616   4237   0   2    5.2616054e-06

DECAY 23  2.4952


DECAY 24  2.085


DECAY 2000011  2.2611531
    0.99998776   2    1000022    11

DECAY 1000011  14.214676
    0.59872756   2   -1000024    12
    0.30401682   2    1000023    11
    0.089039914   2    1000022    11
    0.006682563   2   -1000037    12
    0.0015287212   2    1000035    11

DECAY 2000013  2.2612542
    0.99993606   2    1000022    13

DECAY 1000013  14.217768
    0.59859768   2   -1000024    14
    0.3039572   2    1000023    13
    0.089022412   2    1000022    13
    0.0066811205   2   -1000037    14
    0.0015997336   2    1000035    13

DECAY 1000015  9.837056
    0.59386144   2   -1000024    16
    0.30339048   2    1000023    15
    0.089352542   2    1000022    15
    0.0059593603   2    1000025    15
    0.0058428307   2    1000035    15
    0.0015933482   2   -1000037    16

DECAY 2000015  11.444541
    0.64508017   2    1000022    15
    0.12906912   2   -1000037    16
    0.067693996   2    1000025    15
    0.06493837   2    1000035    15
    0.045629751   2    1000016   -24
    0.022450019   2    1000015    23
    0.020808748   2    1000015    25
    0.0028724825   2   -1000024    16
    0.0014573372   2    1000023    15

DECAY 1000012  14.254521
    0.60884944   2    1000024    11
    0.29987101   2    1000023    12
    0.086573125   2    1000022    12
    0.0023046153   2    1000035    12
    0.0016710098   2    1000037    11
    0.00073080507   2    1000025    12

DECAY 1000014  14.256643
    0.60876878   2    1000024    13
    0.29982546   2    1000023    14
    0.086559978   2    1000022    14
    0.0023042512   2    1000035    14
    0.0018108423   2    1000037    13
    0.00073068975   2    1000025    14

DECAY 1000016  9.8441082
    0.60553377   2    1000024    15
    0.2966979   2    1000023    16
    0.085970483   2    1000022    16
    0.010973161   2    1000037    15
    0.00061922474   2    1000035    16
    0.00020546704   2    1000025    16

DECAY 2000001  142.86066
    0.98061794   2    1000021    1
    0.019279306   2    1000022    1

DECAY 1000001  207.46666
    0.6806883   2    1000021    1
    0.204545   2   -1000024    2
    0.10331449   2    1000023    1
    0.0060715366   2   -1000037    2
    0.0032175358   2    1000022    1
    0.0018487054   2    1000035    1
    0.00031442453   2    1000025    1

DECAY 2000003  142.87607
    0.98051351   2    1000021    3
    0.019277489   2    1000022    3
    0.00011622739   2    1000025    3

DECAY 1000003  207.47633
    0.68065796   2    1000021    3
    0.20453561   2   -1000024    4
    0.10331032   2    1000023    3
    0.0060795145   2   -1000037    4
    0.0032175632   2    1000022    3
    0.0018664683   2    1000035    3
    0.00033256176   2    1000025    3

DECAY 1000005  2.5021357
    0.27713522   2   -1000037    6
    0.20833457   2    1000025    5
    0.2070048   2    1000022    5
    0.19797782   2    1000035    5
    0.071172031   2   -1000024    6
    0.038375558   2    1000023    5

DECAY 2000005  73.86747
    0.40270646   2    1000006   -24
    0.26659683   2   -1000037    6
    0.16984338   2   -1000024    6
    0.088851411   2    1000023    5
    0.029099361   2    1000035    5
    0.028739715   2    1000025    5
    0.0068285796   2    1000005    25
    0.004380802   2    1000005    23
    0.0029534663   2    1000022    5

DECAY 2000002  151.33257
    0.92678982   2    1000021    2
    0.072823153   2    1000022    2
    0.0003394602   2    1000025    2

DECAY 1000002  207.46287
    0.68048241   2    1000021    2
    0.20927135   2    1000024    1
    0.10356864   2    1000023    2
    0.003436551   2    1000022    2
    0.0016059546   2    1000035    2
    0.0015379946   2    1000037    1

DECAY 2000004  151.336
    0.92676882   2    1000021    4
    0.072821509   2    1000022    4
    0.00034511968   2    1000025    4

DECAY 1000004  207.47236
    0.68045189   2    1000021    4
    0.209263   2    1000024    3
    0.10356396   2    1000023    4
    0.0034364032   2    1000022    4
    0.0016099721   2    1000035    4
    0.0015735357   2    1000037    3
    0.00010124137   2    1000025    4

DECAY 1000006  24.264403
    0.37979451   2    1000037    5
    0.19264613   2    1000035    6
    0.17131296   2    1000025    6
    0.10241043   2    1000024    5
    0.080277874   2    1000022    6
    0.050300151   2    1000023    6
    0.021296297   2    1000023    4
    0.0012233345   2    1000005    24
    0.00070916041   2    1000022    4

DECAY 2000006  91.580342
    0.32199949   2    1000006    23
    0.14386883   2    1000025    6
    0.1258373   2    1000024    5
    0.12309318   2    1000035    6
    0.10835169   2    1000037    5
    0.061941883   2    1000023    6
    0.050283612   2    1000006    25
    0.043638105   2    2000005    24
    0.012723939   2    1000022    6
    0.0082619591   2    1000005    24

DECAY 1000024  2.1579241e-13
    0.46659009   3    1000022   -1    2
    0.323603   3    1000022   -3    4
    0.089803161   3    1000022   -11    12
    0.089555069   3    1000022   -13    14
    0.02556597   3    1000022   -15    16
    0.0037611165   3    1000023   -11    12
    0.0011215883   3    1000023   -13    14

DECAY 1000037  5.7039663
    0.32172796   2    1000023    24
    0.29500413   2    1000024    23
    0.28957786   2    1000024    25
    0.090376971   2    1000022    24
    0.002126191   3    1000023   -5    6
    0.00059438614   3    1000022   -5    6
    0.00056005908   3    1000024    6   -6

DECAY 1000022 -1


DECAY 1000023  5.2132262e-12
    0.93338478   2    1000022    22
    0.016953715   3    1000022    1   -1
    0.016861235   3    1000022    3   -3
    0.013235798   3    1000022    2   -2
    0.011294232   3    1000022    12   -12
    0.0038544693   3    1000022    4   -4
    0.0021844222   3    1000022    11   -11
    0.002165311   3    1000022    13   -13

DECAY 1000025  6.8589627
    0.24515589   2    1000024   -24
    0.24515589   2   -1000024    24
    0.24134732   2    1000023    23
    0.19947651   2    1000023    25
    0.055694773   2    1000022    25
    0.0095432302   2    1000022    23
    0.0017203313   3    1000024    5   -6
    0.0017203313   3   -1000024   -5    6

DECAY 1000035  6.3437162
    0.29116773   2    1000024   -24
    0.29116773   2   -1000024    24
    0.23726649   2    1000023    25
    0.076205458   2    1000022    23
    0.071509378   2    1000022    25
    0.028135954   2    1000023    23
    0.0021818579   3    1000024    5   -6
    0.0021818579   3   -1000024   -5    6
    0.00010421602   3    1000023    6   -6

DECAY 1000021  229.01356
    0.1570465   2    1000005   -5
    0.1570465   2   -1000005    5
    0.11634511   2    1000006   -6
    0.11634511   2   -1000006    6
    0.10677272   2    2000006   -6
    0.10677272   2   -2000006    6
    0.10633007   2    2000005   -5
    0.10633007   2   -2000005    5
    0.013385099   2    1000006   -4
    0.013385099   2   -1000006    4

DECAY 25  0.0035196765
    0.61553154   2   -5    5
    0.1849959   2   -24    24
    0.073221606   2    21    21
    0.070541538   2   -15    15
    0.030455544   2   -4    4
    0.02114494   2    23    23
    0.0023625885   2    22    22
    0.0012697669   2    22    23
    0.00024464101   2   -13    13
    0.0002311366   2   -3    3
    6.3907037e-07   2   -1    1
    1.5695318e-07   2   -2    2
    5.4998406e-09   2   -11    11

DECAY 35  78.042686
    0.42990245   2   -5    5
    0.13191738   2   -1000024    1000037
    0.13191738   2   -1000037    1000024
    0.073223227   2    1000022    1000025
    0.072863724   2   -15    15
    0.052924944   2    1000022    1000035
    0.036708592   2   -1000006    1000006
    0.018122085   2    1000023    1000025
    0.017622561   2    1000023    1000035
    0.0085287591   2   -1000024    1000024
    0.0042284203   2    1000022    1000022
    0.0034366672   2    1000025    1000035
    0.0026806658   2    1000022    1000023
    0.0024911455   2   -2000005    1000005
    0.0024911455   2   -1000005    2000005
    0.002319005   2   -2000015    1000015
    0.002319005   2   -1000015    2000015
    0.0017841219   2    1000035    1000035
    0.0017520921   2   -6    6
    0.0011371102   2   -1000037    1000037
    0.00068455338   2    1000025    1000025
    0.00037254879   2    1000023    1000023
    0.00024758968   2   -13    13
    0.00015108601   2   -3    3
    0.00011561162   2    25    25
    3.8046129e-05   2   -1000005    1000005
    9.4856504e-06   2   -1000015    1000015
    8.5348636e-06   2    21    21
    4.1776168e-07   2   -1    1
    2.214535e-07   2    23    23
    1.1823135e-07   2    22    23
    7.9615179e-08   2   -2000011    2000011
    7.9539587e-08   2   -2000013    2000013
    7.3390192e-08   2   -1000011    1000011
    7.2740185e-08   2   -1000013    1000013
    6.3575896e-08   2   -24    24
    4.3630546e-08   2    22    22
    1.3767439e-08   2   -4    4
    7.5048571e-09   2   -2000013    1000013
    7.5048571e-09   2   -1000013    2000013
    5.5606553e-09   2   -11    11
    1.7554488e-13   2   -2000011    1000011
    1.7554488e-13   2   -1000011    2000011
    7.0956017e-14   2   -2    2

DECAY 36  73.15422
    0.43410125   2   -5    5
    0.13972059   2   -1000024    1000037
    0.13972059   2   -1000037    1000024
    0.075264791   2    1000022    1000035
    0.073571485   2   -15    15
    0.058740787   2    1000022    1000025
    0.019592608   2    1000023    1000025
    0.018664046   2    1000023    1000035
    0.010348495   2   -1000024    1000024
    0.0051343392   2    1000022    1000022
    0.0030910725   2    1000035    1000035
    0.0027247997   2   -2000005    1000005
    0.0027247997   2   -1000005    2000005
    0.0026862073   2    1000022    1000023
    0.0025111969   2    1000025    1000035
    0.0024836433   2   -2000015    1000015
    0.0024836433   2   -1000015    2000015
    0.0024363267   2   -6    6
    0.0022924166   2   -1000037    1000037
    0.00089346494   2    1000025    1000025
    0.00040015057   2    1000023    1000023
    0.00024999285   2   -13    13
    0.00015254315   2   -3    3
    9.685589e-06   2    21    21
    4.2178971e-07   2   -1    1
    3.9623476e-07   2    23    25
    1.4457179e-07   2    22    23
    7.6987061e-08   2    22    22
    2.013545e-08   2   -4    4
    8.0121013e-09   2   -2000013    1000013
    8.0121013e-09   2   -1000013    2000013
    5.614593e-09   2   -11    11
    1.2754236e-12   2    23    35
    1.8740384e-13   2   -2000011    1000011
    1.8740384e-13   2   -1000011    2000011
    1.0378253e-13   2   -2    2
    2.0385177e-38   2    25    25

DECAY 37  70.385004
    0.41182546   2   -5    6
    0.15365106   2    1000022    1000037
    0.14898782   2    1000024    1000035
    0.14579699   2    1000024    1000025
    0.073981717   2   -15    16
    0.039220668   2    1000023    1000037
    0.0084601552   2   -1000005    1000006
    0.0057855798   2    1000023    1000024
    0.0051720567   2   -2000015    1000016
    0.00350866   2    1000025    1000037
    0.0021442574   2   -1000005    2000006
    0.0006077114   2   -5    4
    0.00042107483   2    1000035    1000037
    0.00026155177   2   -13    14
    0.00015140976   2   -3    4
    7.4219201e-06   2   -1000015    1000016
    7.0936482e-06   2   -3    2
    4.3396863e-06   2   -5    2
    3.1947771e-06   2   -3    6
    4.2026082e-07   2   -1    2
    4.1226406e-07   2    24    25
    3.4747037e-07   2   -2000011    1000012
    3.4734947e-07   2   -2000013    1000014
    1.3623721e-07   2   -1    6
    7.8576462e-08   2    1000022    1000024
    2.0879838e-08   2   -1    4
    1.6200114e-08   2   -1000013    1000014
    6.1177231e-09   2   -11    12
    4.2652434e-12   2    24    35
    3.7891679e-13   2   -1000011    1000012

DECAY 6  2.43
    1   2    5    24

DECAY 15 -1
