# SUSY Les Houches Accord 2 - MSSM spectrum + Decays
# SPheno v4.0.5be
# W. Porod, Comput. Phys. Commun. 153 (2003) 275-315, hep-ph/0301101;
# W. Porod, F.~Staub, Comput. Phys. Commun. 183 (2012) 2458
#                     arXiv:1104.1573 [hep-ph] 
# in case of problems send email to porod@physik.uni-wuerzburg.de
# Created: 07.09.2021,  14:57
Block SPINFO         # Program information
     1   SPheno      # spectrum calculator
     2   v4.0.5be    # version number
#
Block SPhenoINFO     # SPheno specific information
    1      2         # using 2-loop RGEs
    2      2         # using pole masses for boundary conditions at mZ
Block MODSEL  # Model selection
    1    0    # general MSSM
Block MINPAR  # Input parameters
    3    2.34975835E+01  # tanb at m_Z    
    4    1.00000000E+00  # Sign(mu)
Block EXTPAR  # non-universal input parameters
    0    3.71064858E+03  # scale for input parameters
    1   -2.39719473E+02  # M_1
    2    1.77009946E+03  # M_2
    3    3.55848454E+03  # M_3
   11   -5.91629749E+03  # A_t
   12   -3.23965902E+02  # A_b
   13    3.38827318E+02  # A_tau
   23    2.57630793E+02  # mu
   25    2.25347827E+01  # tan(beta)
   26    9.36497087E+02  # m_A, pole mass
   31    1.00000000E+04  # M_L11
   32    1.00000000E+04  # M_L22
   33    1.00000000E+04  # M_L33
   34    1.00000000E+04  # M_E11
   35    1.00000000E+04  # M_E22
   36    1.00000000E+04  # M_E33
   41    1.00000000E+04  # M_Q11
   42    1.00000000E+04  # M_Q22
   43    4.49780788E+03  # M_Q33
   44    1.00000000E+04  # M_U11
   45    1.00000000E+04  # M_U22
   46    2.97149554E+03  # M_U33
   47    1.00000000E+04  # M_D11
   48    1.00000000E+04  # M_D22
   49    4.31323376E+03  # M_D33
Block SMINPUTS  # SM parameters
         1     1.27908970E+02  # alpha_em^-1(MZ)^MSbar
         2     1.16637870E-05  # G_mu [GeV^-2]
         3     1.18400000E-01  # alpha_s(MZ)^MSbar
         4     9.11876000E+01  # m_Z(pole)
         5     4.18000000E+00  # m_b(m_b), MSbar
         6     1.73200000E+02  # m_t(pole)
         7     1.77700000E+00  # m_tau(pole)
         8     0.00000000E+00  # m_nu_3
        11     5.10998930E-04  # m_e(pole)
        12     0.00000000E+00  # m_nu_1
        13     1.05658372E-01  # m_muon(pole)
        14     0.00000000E+00  # m_nu_2
        21     5.00000000E-03  # m_d(2 GeV), MSbar
        22     2.50000000E-03  # m_u(2 GeV), MSbar
        23     9.50000000E-02  # m_s(2 GeV), MSbar
        24     1.27000000E+00  # m_c(m_c), MSbar
Block gauge Q=  3.71064858E+03  # (SUSY scale)
   1    3.55362975E-01  # g'(Q)^DRbar
   2    6.65198874E-01  # g(Q)^DRbar
   3    1.21977796E+00  # g3(Q)^DRbar
Block Yu Q=  3.71064858E+03  # (SUSY scale)
  1  1     8.39262339E-06   # Y_u(Q)^DRbar
  2  2     4.26345268E-03   # Y_c(Q)^DRbar
  3  3     1.01389632E+00   # Y_t(Q)^DRbar
Block Yd Q=  3.71064858E+03  # (SUSY scale)
  1  1     3.80041792E-04   # Y_d(Q)^DRbar
  2  2     7.22079405E-03   # Y_s(Q)^DRbar
  3  3     3.76882370E-01   # Y_b(Q)^DRbar
Block Ye Q=  3.71064858E+03  # (SUSY scale)
  1  1     6.63200718E-05   # Y_e(Q)^DRbar
  2  2     1.37128875E-02   # Y_mu(Q)^DRbar
  3  3     2.30628208E-01   # Y_tau(Q)^DRbar
Block Au Q=  3.71064858E+03  # (SUSY scale)
  1  1     0.00000000E+00   # A_u(Q)^DRbar
  2  2     0.00000000E+00   # A_c(Q)^DRbar
  3  3    -5.91630344E+03   # A_t(Q)^DRbar
Block Ad Q=  3.71064858E+03  # (SUSY scale)
  1  1     0.00000000E+00   # A_d(Q)^DRbar
  2  2     0.00000000E+00   # A_s(Q)^DRbar
  3  3    -3.23965732E+02   # A_b(Q)^DRbar
Block Ae Q=  3.71064858E+03  # (SUSY scale)
  1  1     0.00000000E+00   # A_e(Q)^DRbar
  2  2     0.00000000E+00   # A_mu(Q)^DRbar
  3  3     3.38827170E+02   # A_tau(Q)^DRbar
Block MSOFT Q=  3.71064858E+03  # soft SUSY breaking masses at Q
   1   -2.39719473E+02  # M_1
   2    1.77009946E+03  # M_2
   3    3.55848454E+03  # M_3
  21    7.25921535E+05  # M^2_(H,d)
  22    1.45319762E+05  # M^2_(H,u)
  31    1.00000000E+04  # M_(L,11)
  32    1.00000000E+04  # M_(L,22)
  33    1.00000000E+04  # M_(L,33)
  34    1.00000000E+04  # M_(E,11)
  35    1.00000000E+04  # M_(E,22)
  36    1.00000000E+04  # M_(E,33)
  41    1.00000000E+04  # M_(Q,11)
  42    1.00000000E+04  # M_(Q,22)
  43    4.49780788E+03  # M_(Q,33)
  44    1.00000000E+04  # M_(U,11)
  45    1.00000000E+04  # M_(U,22)
  46    2.97149554E+03  # M_(U,33)
  47    1.00000000E+04  # M_(D,11)
  48    1.00000000E+04  # M_(D,22)
  49    4.31323376E+03  # M_(D,33)
Block MASS  # Mass spectrum
#   PDG code      mass          particle
         6     1.73200000E+02  # m_t(pole)
        23     9.11876000E+01  # m_Z(pole)
        24     8.04299946E+01  # W+
        15     1.77700000E+00  # m_tau(pole)
        25     1.26401979E+02  # h0
        35     9.36535065E+02  # H0
        36     9.36497087E+02  # A0
        37     9.41446607E+02  # H+
   1000001     1.01019107E+04  # ~d_L
   2000001     1.00784504E+04  # ~d_R
   1000002     1.01015507E+04  # ~u_L
   2000002     1.00817400E+04  # ~u_R
   1000003     1.01019123E+04  # ~s_L
   2000003     1.00784527E+04  # ~s_R
   1000004     1.01015523E+04  # ~c_L
   2000004     1.00817408E+04  # ~c_R
   1000005     4.41056749E+03  # ~b_1
   2000005     4.54570707E+03  # ~b_2
   1000006     3.02328247E+03  # ~t_1
   2000006     4.55429258E+03  # ~t_2
   1000011     1.00202264E+04  # ~e_L-
   2000011     1.00087704E+04  # ~e_R-
   1000012     1.00194670E+04  # ~nu_eL
   1000013     1.00202326E+04  # ~mu_L-
   2000013     1.00087821E+04  # ~mu_R-
   1000014     1.00194731E+04  # ~nu_muL
   1000015     1.00121045E+04  # ~tau_1-
   2000015     1.00219711E+04  # ~tau_2-
   1000016     1.00211855E+04  # ~nu_tauL
   1000021     4.04590662E+03  # ~g
   1000022     2.23983891E+02  # ~chi_10
   1000023     2.70222461E+02  # ~chi_20
   1000025     2.90939305E+02  # ~chi_30
   1000035     1.87716756E+03  # ~chi_40
   1000024     2.69657587E+02  # ~chi_1+
   1000037     1.87713484E+03  # ~chi_2+
# Higgs mixing
Block alpha # Effective Higgs mixing angle
          -4.37106696E-02   # alpha
Block Hmix Q=  3.71064858E+03  # Higgs mixing parameters
   1    2.57630793E+02  # mu
   2    2.25347827E+01  # tan[beta](Q)
   3    2.43011347E+02  # v(Q)
   4    8.77026794E+05  # m^2_A(Q)
Block stopmix # stop mixing matrix
   1  1     7.21118012E-02   # Re[R_st(1,1)]
   1  2     9.97396555E-01   # Re[R_st(1,2)]
   2  1    -9.97396555E-01   # Re[R_st(2,1)]
   2  2     7.21118012E-02   # Re[R_st(2,2)]
Block sbotmix # sbottom mixing matrix
   1  1     1.12153248E-02   # Re[R_sb(1,1)]
   1  2     9.99937106E-01   # Re[R_sb(1,2)]
   2  1    -9.99937106E-01   # Re[R_sb(2,1)]
   2  2     1.12153248E-02   # Re[R_sb(2,2)]
Block staumix # stau mixing matrix
   1  1     4.92342561E-02   # Re[R_sta(1,1)]
   1  2     9.98787259E-01   # Re[R_sta(1,2)]
   2  1    -9.98787259E-01   # Re[R_sta(2,1)]
   2  2     4.92342561E-02   # Re[R_sta(2,2)]
Block Nmix # neutralino mixing matrix
   1  1     8.41719544E-01   # Re[N(1,1)]
   1  2     1.23328374E-02   # Re[N(1,2)]
   1  3     4.18422740E-01   # Re[N(1,3)]
   1  4     3.40996364E-01   # Re[N(1,4)]
   2  1    -6.44104149E-02   # Re[N(2,1)]
   2  2    -3.65388820E-02   # Re[N(2,2)]
   2  3     7.05254496E-01   # Re[N(2,3)]
   2  4    -7.05076098E-01   # Re[N(2,4)]
   3  1    -5.36058400E-01   # Re[N(3,1)]
   3  2     2.19880321E-02   # Re[N(3,2)]
   3  3     5.72253405E-01   # Re[N(3,3)]
   3  4     6.20228957E-01   # Re[N(3,4)]
   4  1     9.48340372E-04   # Re[N(4,1)]
   4  2    -9.99014183E-01   # Re[N(4,2)]
   4  3    -8.03406507E-03   # Re[N(4,3)]
   4  4     4.36487890E-02   # Re[N(4,4)]
Block Umix # chargino mixing matrix
   1  1    -1.13613187E-02   # Re[U(1,1)]
   1  2     9.99935458E-01   # Re[U(1,2)]
   2  1     9.99935458E-01   # Re[U(2,1)]
   2  2     1.13613187E-02   # Re[U(2,2)]
Block Vmix # chargino mixing matrix
   1  1    -6.17464606E-02   # Re[V(1,1)]
   1  2     9.98091867E-01   # Re[V(1,2)]
   2  1     9.98091867E-01   # Re[V(2,1)]
   2  2     6.17464606E-02   # Re[V(2,2)]
DECAY        23     2.49520000E+00   # Z
DECAY        24     2.08500000E+00   # W
DECAY   2000011     5.02300190E+01   # ~e^-_R
#    BR                NDA      ID1      ID2
     7.08633366E-01    2     1000022        11   # BR(~e^-_R -> chi^0_1 e^-)
     4.14764535E-03    2     1000023        11   # BR(~e^-_R -> chi^0_2 e^-)
     2.87218133E-01    2     1000025        11   # BR(~e^-_R -> chi^0_3 e^-)
DECAY   1000011     1.35770755E+02   # ~e^-_L
#    BR                NDA      ID1      ID2
     6.92657101E-02    2     1000022        11   # BR(~e^-_L -> chi^0_1 e^-)
     1.63277688E-03    2     1000023        11   # BR(~e^-_L -> chi^0_2 e^-)
     2.26681975E-02    2     1000025        11   # BR(~e^-_L -> chi^0_3 e^-)
     3.01540652E-01    2     1000035        11   # BR(~e^-_L -> chi^0_4 e^-)
     6.04808923E-01    2    -1000037        12   # BR(~e^-_L -> chi^-_2 nu_e)
#    BR                NDA      ID1      ID2       ID3
DECAY   2000013     5.03048527E+01   # ~mu^-_R
#    BR                NDA      ID1      ID2
     7.07710200E-01    2     1000022        13   # BR(~mu^-_R -> chi^0_1 mu^-)
     4.51114587E-03    2     1000023        13   # BR(~mu^-_R -> chi^0_2 mu^-)
     2.87034540E-01    2     1000025        13   # BR(~mu^-_R -> chi^0_3 mu^-)
     7.43143255E-04    2    -1000024        14   # BR(~mu^-_R -> chi^-_1 nu_mu)
DECAY   1000013     1.35808280E+02   # ~mu^-_L
#    BR                NDA      ID1      ID2
     6.92948912E-02    2     1000022        13   # BR(~mu^-_L -> chi^0_1 mu^-)
     1.76941096E-03    2     1000023        13   # BR(~mu^-_L -> chi^0_2 mu^-)
     2.27521810E-02    2     1000025        13   # BR(~mu^-_L -> chi^0_3 mu^-)
     3.01457564E-01    2     1000035        13   # BR(~mu^-_L -> chi^0_4 mu^-)
     6.04642236E-01    2    -1000037        14   # BR(~mu^-_L -> chi^-_2 nu_mu)
#    BR                NDA      ID1      ID2       ID3
DECAY   1000015     7.15900296E+01   # ~tau^-_1
#    BR                NDA      ID1      ID2
     5.27788262E-01    2     1000022        15   # BR(~tau^-_1 -> chi^0_1 tau^-)
     7.64561401E-02    2     1000023        15   # BR(~tau^-_1 -> chi^0_2 tau^-)
     2.44358306E-01    2     1000025        15   # BR(~tau^-_1 -> chi^0_3 tau^-)
     1.17251111E-03    2     1000035        15   # BR(~tau^-_1 -> chi^0_4 tau^-)
     1.47873200E-01    2    -1000024        16   # BR(~tau^-_1 -> chi^-_1 nu_tau)
     2.35158118E-03    2    -1000037        16   # BR(~tau^-_1 -> chi^-_2 nu_tau)
DECAY   2000015     1.46201711E+02   # ~tau^-_2
#    BR                NDA      ID1      ID2
     7.47974710E-02    2     1000022        15   # BR(~tau^-_2 -> chi^0_1 tau^-)
     3.75203712E-02    2     1000023        15   # BR(~tau^-_2 -> chi^0_2 tau^-)
     4.75194260E-02    2     1000025        15   # BR(~tau^-_2 -> chi^0_3 tau^-)
     2.79517036E-01    2     1000035        15   # BR(~tau^-_2 -> chi^0_4 tau^-)
     5.60625973E-01    2    -1000037        16   # BR(~tau^-_2 -> chi^-_2 nu_tau)
#    BR                NDA      ID1      ID2       ID3
DECAY   1000012     1.35774313E+02   # ~nu_e
#    BR                NDA      ID1      ID2
     6.20607132E-02    2     1000022        12   # BR(~nu_e -> chi^0_1 nu_e)
     3.08331421E-02    2     1000025        12   # BR(~nu_e -> chi^0_3 nu_e)
     3.02118798E-01    2     1000035        12   # BR(~nu_e -> chi^0_4 nu_e)
     2.47318189E-03    2     1000024        11   # BR(~nu_e -> chi^+_1 e^-)
     6.02512694E-01    2     1000037        11   # BR(~nu_e -> chi^+_2 e^-)
#    BR                NDA      ID1      ID2       ID3
DECAY   1000014     1.35811834E+02   # ~nu_mu
#    BR                NDA      ID1      ID2
     6.20436055E-02    2     1000022        14   # BR(~nu_mu -> chi^0_1 nu_mu)
     3.08246426E-02    2     1000025        14   # BR(~nu_mu -> chi^0_3 nu_mu)
     3.02035542E-01    2     1000035        14   # BR(~nu_mu -> chi^0_4 nu_mu)
     2.74804870E-03    2     1000024        13   # BR(~nu_mu -> chi^+_1 mu^-)
     6.02346691E-01    2     1000037        13   # BR(~nu_mu -> chi^+_2 mu^-)
#    BR                NDA      ID1      ID2       ID3
DECAY   1000016     1.46389336E+02   # ~nu_tau
#    BR                NDA      ID1      ID2
     5.75704424E-02    2     1000022        16   # BR(~nu_tau -> chi^0_1 nu_tau)
     2.86022825E-02    2     1000025        16   # BR(~nu_tau -> chi^0_3 nu_tau)
     2.80266532E-01    2     1000035        16   # BR(~nu_tau -> chi^0_4 nu_tau)
     7.46174838E-02    2     1000024        15   # BR(~nu_tau -> chi^+_1 tau^-)
     5.58941895E-01    2     1000037        15   # BR(~nu_tau -> chi^+_2 tau^-)
#    BR                NDA      ID1      ID2       ID3
DECAY   2000001     5.65400267E+02   # ~d_R
#    BR                NDA      ID1      ID2
     7.04378358E-03    2     1000022         1   # BR(~d_R -> chi^0_1 d)
     2.85497544E-03    2     1000025         1   # BR(~d_R -> chi^0_3 d)
     9.90059929E-01    2     1000021         1   # BR(~d_R -> ~g d)
DECAY   1000001     6.87836221E+02   # ~d_L
#    BR                NDA      ID1      ID2
     1.22194275E-03    2     1000022         1   # BR(~d_L -> chi^0_1 d)
     8.90190589E-04    2     1000025         1   # BR(~d_L -> chi^0_3 d)
     6.01574138E-02    2     1000035         1   # BR(~d_L -> chi^0_4 d)
     1.20496394E-01    2    -1000037         2   # BR(~d_L -> chi^-_2 u)
     8.17176806E-01    2     1000021         1   # BR(~d_L -> ~g d)
DECAY   2000003     5.65421315E+02   # ~s_R
#    BR                NDA      ID1      ID2
     7.04674760E-03    2     1000022         3   # BR(~s_R -> chi^0_1 s)
     2.86089811E-03    2     1000025         3   # BR(~s_R -> chi^0_3 s)
     9.90023473E-01    2     1000021         3   # BR(~s_R -> ~g s)
DECAY   1000003     6.87850482E+02   # ~s_L
#    BR                NDA      ID1      ID2
     1.22457459E-03    2     1000022         3   # BR(~s_L -> chi^0_1 s)
     8.95139066E-04    2     1000025         3   # BR(~s_L -> chi^0_3 s)
     6.01561785E-02    2     1000035         3   # BR(~s_L -> chi^0_4 s)
     1.20493937E-01    2    -1000037         4   # BR(~s_L -> chi^-_2 c)
     8.17160091E-01    2     1000021         3   # BR(~s_L -> ~g s)
DECAY   1000005     3.59236114E+01   # ~b_1
#    BR                NDA      ID1      ID2
     1.10494304E-01    2     1000022         5   # BR(~b_1 -> chi^0_1 b)
     1.71567680E-01    2     1000023         5   # BR(~b_1 -> chi^0_2 b)
     1.30464867E-01    2     1000025         5   # BR(~b_1 -> chi^0_3 b)
     3.43560053E-01    2    -1000024         6   # BR(~b_1 -> chi^-_1 t)
     2.43574184E-01    2     1000021         5   # BR(~b_1 -> ~g b)
     1.57546554E-04    2     1000006       -24   # BR(~b_1 -> ~t_1 W^-)
     1.55528057E-04    2     1000006       -37   # BR(~b_1 -> ~t_1 H^-)
DECAY   2000005     2.19558788E+02   # ~b_2
#    BR                NDA      ID1      ID2
     1.16109417E-02    2     1000022         5   # BR(~b_2 -> chi^0_1 b)
     2.89482613E-02    2     1000023         5   # BR(~b_2 -> chi^0_2 b)
     2.05369974E-02    2     1000025         5   # BR(~b_2 -> chi^0_3 b)
     6.26000411E-02    2     1000035         5   # BR(~b_2 -> chi^0_4 b)
     4.17552508E-01    2    -1000024         6   # BR(~b_2 -> chi^-_1 t)
     1.26854177E-01    2    -1000037         6   # BR(~b_2 -> chi^-_2 t)
     7.05587013E-02    2     1000021         5   # BR(~b_2 -> ~g b)
     2.61334514E-01    2     1000006       -24   # BR(~b_2 -> ~t_1 W^-)
DECAY   2000002     5.82590853E+02   # ~u_R
#    BR                NDA      ID1      ID2
     2.73526748E-02    2     1000022         2   # BR(~u_R -> chi^0_1 u)
     1.60096489E-04    2     1000023         2   # BR(~u_R -> chi^0_2 u)
     1.10864977E-02    2     1000025         2   # BR(~u_R -> chi^0_3 u)
     9.61400699E-01    2     1000021         2   # BR(~u_R -> ~g u)
DECAY   1000002     6.87819757E+02   # ~u_L
#    BR                NDA      ID1      ID2
     1.69942743E-03    2     1000022         2   # BR(~u_L -> chi^0_1 u)
     1.48776460E-04    2     1000023         2   # BR(~u_L -> chi^0_2 u)
     3.48348029E-04    2     1000025         2   # BR(~u_L -> chi^0_3 u)
     6.01157413E-02    2     1000035         2   # BR(~u_L -> chi^0_4 u)
     4.92253349E-04    2     1000024         1   # BR(~u_L -> chi^+_1 d)
     1.20050466E-01    2     1000037         1   # BR(~u_L -> chi^+_2 d)
     8.17144987E-01    2     1000021         2   # BR(~u_L -> ~g u)
DECAY   2000004     5.82598181E+02   # ~c_R
#    BR                NDA      ID1      ID2
     2.73530605E-02    2     1000022         4   # BR(~c_R -> chi^0_1 c)
     1.63201275E-04    2     1000023         4   # BR(~c_R -> chi^0_2 c)
     1.10887593E-02    2     1000025         4   # BR(~c_R -> chi^0_3 c)
     9.61388688E-01    2     1000021         4   # BR(~c_R -> ~g c)
DECAY   1000004     6.87833987E+02   # ~c_L
#    BR                NDA      ID1      ID2
     1.70000900E-03    2     1000022         4   # BR(~c_L -> chi^0_1 c)
     1.51409472E-04    2     1000023         4   # BR(~c_L -> chi^0_2 c)
     3.50380865E-04    2     1000025         4   # BR(~c_L -> chi^0_3 c)
     6.01145180E-02    2     1000035         4   # BR(~c_L -> chi^0_4 c)
     5.07410905E-04    2     1000024         3   # BR(~c_L -> chi^+_1 s)
     1.20048006E-01    2     1000037         3   # BR(~c_L -> chi^+_2 s)
     8.17128266E-01    2     1000021         4   # BR(~c_L -> ~g c)
DECAY   1000006     1.27645701E+02   # ~t_1
#    BR                NDA      ID1      ID2
     8.79539640E-02    2     1000022         6   # BR(~t_1 -> chi^0_1 t)
     2.35447356E-01    2     1000023         6   # BR(~t_1 -> chi^0_2 t)
     2.01009148E-01    2     1000025         6   # BR(~t_1 -> chi^0_3 t)
     4.75531285E-01    2     1000024         5   # BR(~t_1 -> chi^+_1 b)
#    BR                NDA      ID1      ID2       ID3
DECAY   2000006     2.33292452E+02   # ~t_2
#    BR                NDA      ID1      ID2
     5.23445315E-02    2     1000022         6   # BR(~t_2 -> chi^0_1 t)
     1.96735836E-01    2     1000023         6   # BR(~t_2 -> chi^0_2 t)
     1.47552351E-01    2     1000025         6   # BR(~t_2 -> chi^0_3 t)
     6.02594244E-02    2     1000035         6   # BR(~t_2 -> chi^0_4 t)
     5.48828427E-02    2     1000024         5   # BR(~t_2 -> chi^+_1 b)
     1.18968644E-01    2     1000037         5   # BR(~t_2 -> chi^+_2 b)
     6.09421028E-02    2     1000021         6   # BR(~t_2 -> ~g t)
     1.24004527E-01    2     1000006        23   # BR(~t_2 -> ~t_1 Z)
     1.84304929E-01    2     1000006        25   # BR(~t_2 -> ~t_1 h^0)
DECAY   1000024     2.67160471E-04   # chi^+_1
#    BR                NDA      ID1      ID2       ID3
     3.33923011E-01    3     1000022        -1         2   # BR(chi^+_1 -> chi^0_1 d_bar u)
     3.32852560E-01    3     1000022        -3         4   # BR(chi^+_1 -> chi^0_1 s_bar c)
     1.11307199E-01    3     1000022       -11        12   # BR(chi^+_1 -> chi^0_1 e^+ nu_e)
     1.11305420E-01    3     1000022       -13        14   # BR(chi^+_1 -> chi^0_1 mu^+ nu_mu)
     1.10611810E-01    3     1000022       -15        16   # BR(chi^+_1 -> chi^0_1 tau^+ nu_tau)
DECAY   1000037     2.60974989E+01   # chi^+_2
#    BR                NDA      ID1      ID2
     4.17991770E-02    2     1000022        24   # BR(chi^+_2 -> chi^0_1 W^+)
     1.59473071E-01    2     1000023        24   # BR(chi^+_2 -> chi^0_2 W^+)
     1.17597771E-01    2     1000025        24   # BR(chi^+_2 -> chi^0_3 W^+)
     3.07898466E-02    2          37   1000022   # BR(chi^+_2 -> H^+ chi^0_1)
     8.36491171E-02    2          37   1000023   # BR(chi^+_2 -> H^+ chi^0_2)
     5.92407676E-02    2          37   1000025   # BR(chi^+_2 -> H^+ chi^0_3)
     1.58916367E-01    2     1000024        23   # BR(chi^+_2 -> chi^+_1 Z)
     8.43168303E-02    2     1000024        36   # BR(chi^+_2 -> chi^+_1 A^0)
     1.59921208E-01    2     1000024        25   # BR(chi^+_2 -> chi^+_1 h^0)
     8.42834301E-02    2     1000024        35   # BR(chi^+_2 -> chi^+_1 H^0)
#    BR                NDA      ID1      ID2       ID3
     8.27773729E-03    3     1000024         6        -6   # BR(chi^+_2 -> chi^+_1 t t_bar)
     1.49194314E-03    3     1000022        -5         6   # BR(chi^+_2 -> chi^0_1 b_bar t)
     6.04162896E-03    3     1000023        -5         6   # BR(chi^+_2 -> chi^0_2 b_bar t)
     4.19883604E-03    3     1000025        -5         6   # BR(chi^+_2 -> chi^0_3 b_bar t)
DECAY   1000022     0.00000000E+00   # chi^0_1
DECAY   1000023     2.11000244E-04   # chi^0_2
#    BR                NDA      ID1      ID2
     1.07485653E-02    2     1000022        22   # BR(chi^0_2 -> chi^0_1 photon)
#    BR                NDA      ID1      ID2       ID3
     1.19009737E-01    3     1000022         2        -2   # BR(chi^0_2 -> chi^0_1 u u_bar)
     1.17936552E-01    3     1000022         4        -4   # BR(chi^0_2 -> chi^0_1 c c_bar)
     1.52593684E-01    3     1000022         1        -1   # BR(chi^0_2 -> chi^0_1 d d_bar)
     1.52587110E-01    3     1000022         3        -3   # BR(chi^0_2 -> chi^0_1 s s_bar)
     1.40424134E-01    3     1000022         5        -5   # BR(chi^0_2 -> chi^0_1 b b_bar)
     3.44353920E-02    3     1000022        11       -11   # BR(chi^0_2 -> chi^0_1 e^- e^+)
     3.44330099E-02    3     1000022        13       -13   # BR(chi^0_2 -> chi^0_1 mu^- mu^+)
     3.37704107E-02    3     1000022        15       -15   # BR(chi^0_2 -> chi^0_1 tau^- tau^+)
     2.04061406E-01    3     1000022        12       -12   # BR(chi^0_2 -> chi^0_1 nu_e nu_bar_e)
DECAY   1000025     3.95901360E-05   # chi^0_3
#    BR                NDA      ID1      ID2
     3.52705519E-03    2     1000022        22   # BR(chi^0_3 -> chi^0_1 photon)
     2.84203592E-02    2     1000023        22   # BR(chi^0_3 -> chi^0_2 photon)
#    BR                NDA      ID1      ID2       ID3
     1.52420705E-02    3     1000022         2        -2   # BR(chi^0_3 -> chi^0_1 u u_bar)
     1.51981596E-02    3     1000022         4        -4   # BR(chi^0_3 -> chi^0_1 c c_bar)
     1.95335799E-02    3     1000022         1        -1   # BR(chi^0_3 -> chi^0_1 d d_bar)
     1.95333384E-02    3     1000022         3        -3   # BR(chi^0_3 -> chi^0_1 s s_bar)
     1.90727205E-02    3     1000022         5        -5   # BR(chi^0_3 -> chi^0_1 b b_bar)
     4.40038281E-03    3     1000022        11       -11   # BR(chi^0_3 -> chi^0_1 e^- e^+)
     4.40030441E-03    3     1000022        13       -13   # BR(chi^0_3 -> chi^0_1 mu^- mu^+)
     4.37814385E-03    3     1000022        15       -15   # BR(chi^0_3 -> chi^0_1 tau^- tau^+)
     2.61356067E-02    3     1000022        12       -12   # BR(chi^0_3 -> chi^0_1 nu_e nu_bar_e)
     2.64949664E-02    3     1000023         2        -2   # BR(chi^0_3 -> chi^0_2 u u_bar)
     2.52168427E-02    3     1000023         4        -4   # BR(chi^0_3 -> chi^0_2 c c_bar)
     3.39719113E-02    3     1000023         1        -1   # BR(chi^0_3 -> chi^0_2 d d_bar)
     3.39637785E-02    3     1000023         3        -3   # BR(chi^0_3 -> chi^0_2 s s_bar)
     2.11664916E-02    3     1000023         5        -5   # BR(chi^0_3 -> chi^0_2 b b_bar)
     7.66656157E-03    3     1000023        11       -11   # BR(chi^0_3 -> chi^0_2 e^- e^+)
     7.66366244E-03    3     1000023        13       -13   # BR(chi^0_3 -> chi^0_2 mu^- mu^+)
     6.89627067E-03    3     1000023        15       -15   # BR(chi^0_3 -> chi^0_2 tau^- tau^+)
     4.54302170E-02    3     1000023        12       -12   # BR(chi^0_3 -> chi^0_2 nu_e nu_bar_e)
     1.06265657E-01    3     1000024         1        -2   # BR(chi^0_3 -> chi^+_1 d u_bar)
     1.06265657E-01    3    -1000024        -1         2   # BR(chi^0_3 -> chi^-_1 d_bar u)
     1.04466804E-01    3     1000024         3        -4   # BR(chi^0_3 -> chi^+_1 s c_bar)
     1.04466804E-01    3    -1000024        -3         4   # BR(chi^0_3 -> chi^-_1 s_bar c)
     3.54219591E-02    3     1000024        11       -12   # BR(chi^0_3 -> chi^+_1 e^- nu_bar_e)
     3.54219591E-02    3    -1000024       -11        12   # BR(chi^0_3 -> chi^-_1 e^+ nu_e)
     3.54190780E-02    3     1000024        13       -14   # BR(chi^0_3 -> chi^+_1 mu^- nu_bar_mu)
     3.54190780E-02    3    -1000024       -13        14   # BR(chi^0_3 -> chi^-_1 mu^+ nu_mu)
     3.42702907E-02    3     1000024        15       -16   # BR(chi^0_3 -> chi^+_1 tau^- nu_bar_tau)
     3.42702907E-02    3    -1000024       -15        16   # BR(chi^0_3 -> chi^-_1 tau^+ nu_tau)
DECAY   1000035     2.71473024E+01   # chi^0_4
#    BR                NDA      ID1      ID2
     1.53419201E-01    2     1000024       -24   # BR(chi^0_4 -> chi^+_1 W^-)
     1.53419201E-01    2    -1000024        24   # BR(chi^0_4 -> chi^-_1 W^+)
     8.05028075E-02    2          37  -1000024   # BR(chi^0_4 -> H^+ chi^-_1)
     8.05028075E-02    2         -37   1000024   # BR(chi^0_4 -> H^- chi^+_1)
     2.64791027E-02    2     1000022        23   # BR(chi^0_4 -> chi^0_1 Z)
     4.91847674E-02    2     1000023        23   # BR(chi^0_4 -> chi^0_2 Z)
     7.74673837E-02    2     1000025        23   # BR(chi^0_4 -> chi^0_3 Z)
     9.24881885E-03    2     1000022        36   # BR(chi^0_4 -> chi^0_1 A^0)
     2.85246426E-02    2     1000023        36   # BR(chi^0_4 -> chi^0_2 A^0)
     1.50475570E-02    2     1000025        36   # BR(chi^0_4 -> chi^0_3 A^0)
     2.17303558E-02    2     1000022        25   # BR(chi^0_4 -> chi^0_1 h^0)
     1.04416707E-01    2     1000023        25   # BR(chi^0_4 -> chi^0_2 h^0)
     6.62801575E-02    2     1000025        25   # BR(chi^0_4 -> chi^0_3 h^0)
     2.05458097E-02    2     1000022        35   # BR(chi^0_4 -> chi^0_1 H^0)
     5.23730220E-02    2     1000023        35   # BR(chi^0_4 -> chi^0_2 H^0)
     4.22893175E-02    2     1000025        35   # BR(chi^0_4 -> chi^0_3 H^0)
#    BR                NDA      ID1      ID2       ID3
     9.33626382E-04    3     1000022         6        -6   # BR(chi^0_4 -> chi^0_1 t t_bar)
     3.71816394E-03    3     1000023         6        -6   # BR(chi^0_4 -> chi^0_2 t t_bar)
     2.59343650E-03    3     1000025         6        -6   # BR(chi^0_4 -> chi^0_3 t t_bar)
     5.65927378E-03    3     1000024         5        -6   # BR(chi^0_4 -> chi^+_1 b t_bar)
     5.65927378E-03    3    -1000024        -5         6   # BR(chi^0_4 -> chi^-_1 b_bar t)
DECAY   1000021     2.28374005E+01   # ~g
#    BR                NDA      ID1      ID2
     4.91874905E-01    2     1000006        -6   # BR(~g -> ~t_1 t_bar)
     4.91874905E-01    2    -1000006         6   # BR(~g -> ~t^*_1 t)
     1.06783958E-04    2     1000023        21   # BR(~g -> chi^0_2 g)
#    BR                NDA      ID1      ID2       ID3
     5.75287625E-04    3     1000022         6        -6   # BR(~g -> chi^0_1 t t_bar)
     5.03362477E-04    3     1000022         5        -5   # BR(~g -> chi^0_1 b b_bar)
     2.23596271E-03    3     1000023         6        -6   # BR(~g -> chi^0_2 t t_bar)
     1.02767718E-03    3     1000023         5        -5   # BR(~g -> chi^0_2 b b_bar)
     1.70742814E-03    3     1000025         6        -6   # BR(~g -> chi^0_3 t t_bar)
     7.38971315E-04    3     1000025         5        -5   # BR(~g -> chi^0_3 b b_bar)
     4.14236153E-04    3     1000035         6        -6   # BR(~g -> chi^0_4 t t_bar)
     4.24893393E-04    3     1000035         5        -5   # BR(~g -> chi^0_4 b b_bar)
     3.29977680E-03    3     1000024         5        -6   # BR(~g -> chi^+_1 b t_bar)
     3.29977680E-03    3    -1000024        -5         6   # BR(~g -> chi^-_1 b_bar t)
     8.39600348E-04    3     1000037         5        -6   # BR(~g -> chi^+_2 b t_bar)
     8.39600348E-04    3    -1000037        -5         6   # BR(~g -> chi^-_2 b_bar t)
DECAY        25     3.92756853E-03   # Gamma(h0)
     2.43002770E-03   2        22        22   # BR(h0 -> photon photon)
     1.67379045E-03   2        22        23   # BR(h0 -> photon Z)
     3.24809099E-02   2        23        23   # BR(h0 -> Z Z)
     2.61090003E-01   2       -24        24   # BR(h0 -> W W)
     7.38287791E-02   2        21        21   # BR(h0 -> gluon gluon)
     4.85300932E-09   2       -11        11   # BR(h0 -> Electron electron)
     2.15871268E-04   2       -13        13   # BR(h0 -> Muon muon)
     6.22450831E-02   2       -15        15   # BR(h0 -> Tau tau)
     1.30731291E-07   2        -2         2   # BR(h0 -> Up up)
     2.53722611E-02   2        -4         4   # BR(h0 -> Charm charm)
     5.60546402E-07   2        -1         1   # BR(h0 -> Down down)
     2.02737462E-04   2        -3         3   # BR(h0 -> Strange strange)
     5.40459841E-01   2        -5         5   # BR(h0 -> Bottom bottom)
DECAY        35     8.22017323E+00   # Gamma(HH)
     1.24646322E-07   2        22        22   # BR(HH -> photon photon)
     9.06051846E-08   2        22        23   # BR(HH -> photon Z)
     2.82260152E-05   2        23        23   # BR(HH -> Z Z)
     4.06601418E-05   2       -24        24   # BR(HH -> W W)
     4.78404862E-05   2        21        21   # BR(HH -> gluon gluon)
     9.39288519E-09   2       -11        11   # BR(HH -> Electron electron)
     4.18065897E-04   2       -13        13   # BR(HH -> Muon muon)
     1.20718866E-01   2       -15        15   # BR(HH -> Tau tau)
     5.56882820E-13   2        -2         2   # BR(HH -> Up up)
     1.07995734E-07   2        -4         4   # BR(HH -> Charm charm)
     6.67590813E-03   2        -6         6   # BR(HH -> Top top)
     7.96268814E-07   2        -1         1   # BR(HH -> Down down)
     2.88021594E-04   2        -3         3   # BR(HH -> Strange strange)
     7.73782287E-01   2        -5         5   # BR(HH -> Bottom bottom)
     2.31845715E-03   2  -1000024   1000024   # BR(HH -> Chargino1 chargino1)
     2.47946084E-02   2   1000022   1000022   # BR(HH -> neutralino1 neutralino1)
     3.16365388E-02   2   1000022   1000023   # BR(HH -> neutralino1 neutralino2)
     1.43137718E-03   2   1000022   1000025   # BR(HH -> neutralino1 neutralino3)
     6.06814462E-06   2   1000023   1000023   # BR(HH -> neutralino2 neutralino2)
     1.97526716E-02   2   1000023   1000025   # BR(HH -> neutralino2 neutralino3)
     1.78547116E-02   2   1000025   1000025   # BR(HH -> neutralino3 neutralino3)
     2.04562507E-04   2        25        25   # BR(HH -> h0 h0)
DECAY        36     8.09593226E+00   # Gamma(A0)
     3.14333299E-07   2        22        22   # BR(A0 -> photon photon)
     1.46646763E-07   2        22        23   # BR(A0 -> photon Z)
     1.16477734E-04   2        21        21   # BR(A0 -> gluon gluon)
     9.35772702E-09   2       -11        11   # BR(A0 -> Electron electron)
     4.16500937E-04   2       -13        13   # BR(A0 -> Muon muon)
     1.20268786E-01   2       -15        15   # BR(A0 -> Tau tau)
     5.23383663E-13   2        -2         2   # BR(A0 -> Up up)
     1.01488845E-07   2        -4         4   # BR(A0 -> Charm charm)
     7.31769761E-03   2        -6         6   # BR(A0 -> Top top)
     7.93292957E-07   2        -1         1   # BR(A0 -> Down down)
     2.86945150E-04   2        -3         3   # BR(A0 -> Strange strange)
     7.70919331E-01   2        -5         5   # BR(A0 -> Bottom bottom)
     3.47628708E-03   2  -1000024   1000024   # BR(A0 -> Chargino1 chargino1)
     2.79379445E-02   2   1000022   1000022   # BR(A0 -> neutralino1 neutralino1)
     2.82334281E-02   2   1000022   1000023   # BR(A0 -> neutralino1 neutralino2)
     1.51031432E-03   2   1000022   1000025   # BR(A0 -> neutralino1 neutralino3)
     1.04907099E-05   2   1000023   1000023   # BR(A0 -> neutralino2 neutralino2)
     1.60396277E-02   2   1000023   1000025   # BR(A0 -> neutralino2 neutralino3)
     2.34223311E-02   2   1000025   1000025   # BR(A0 -> neutralino3 neutralino3)
     4.24735761E-05   2        23        25   # BR(A0 -> Z h0)
     3.89299445E-39   2        25        25   # BR(A0 -> h0 h0)
DECAY        37     8.14445478E+00   # Gamma(Hp)
     1.05545749E-08   2       -11        12   # BR(Hp -> Electron nu_e)
     4.51241032E-04   2       -13        14   # BR(Hp -> Muon nu_mu)
     1.27635806E-01   2       -15        16   # BR(Hp -> Tau nu_tau)
     7.79950658E-07   2        -1         2   # BR(Hp -> Down up)
     1.29741691E-05   2        -3         2   # BR(Hp -> Strange up)
     8.46998136E-06   2        -5         2   # BR(Hp -> Bottom up)
     4.15209465E-08   2        -1         4   # BR(Hp -> Down charm)
     2.81218070E-04   2        -3         4   # BR(Hp -> Strange charm)
     1.18609671E-03   2        -5         4   # BR(Hp -> Bottom charm)
     5.78566232E-07   2        -1         6   # BR(Hp -> Down top)
     1.29999063E-05   2        -3         6   # BR(Hp -> Strange top)
     7.71300723E-01   2        -5         6   # BR(Hp -> Bottom top)
     7.14347386E-02   2   1000022   1000024   # BR(Hp -> neutralino1 chargino1)
     1.24690000E-03   2   1000023   1000024   # BR(Hp -> neutralino2 chargino1)
     2.63841996E-02   2   1000024   1000025   # BR(Hp -> chargino1 neutralino3)
     4.32209819E-05   2        24        25   # BR(Hp -> W h0)
     4.75262375E-10   2        24        35   # BR(Hp -> W HH)
     4.93910536E-10   2        24        36   # BR(Hp -> W A0)
DECAY         6     2.43000000E+00   # top
#    BR                NDA      ID1      ID2
     1.00000000E+00    2           5        24   # BR(t -> b W)
Block HiggsBoundsInputHiggsCouplingsFermions
# ScalarNormEffCoupSq PseudoSNormEffCoupSq NP IP1 IP2 IP2
    9.71537208E-01    0.00000000E+00        3  25   5   5  # h0-b-b eff. coupling^2, normalised to SM
    5.07844894E+02    0.00000000E+00        3  35   5   5  # H0-b-b eff. coupling^2, normalised to SM
    0.00000000E+00    5.07816431E+02        3  36   5   5  # A0-b-b eff. coupling^2, normalised to SM
#
    1.00005605E+00    0.00000000E+00        3  25   6   6  # h0-t-t eff. coupling^2, normalised to SM
    1.91316615E-03    0.00000000E+00        3  35   6   6  # H0-t-t eff. coupling^2, normalised to SM
    0.00000000E+00    1.96921552E-03        3  36   6   6  # A0-t-t eff. coupling^2, normalised to SM
#
    9.71537208E-01    0.00000000E+00        3  25  15  15  # h0-tau-tau eff. coupling^2, normalised to SM
    5.07844894E+02    0.00000000E+00        3  35  15  15  # H0-tau-tau eff. coupling^2, normalised to SM
    0.00000000E+00    5.07816431E+02        3  36  15  15  # A0-tau-tau eff. coupling^2, normalised to SM
#
Block HiggsBoundsInputHiggsCouplingsBosons
    9.99999595E-01        3  25  24  24  # h0-W-W eff. coupling^2, normalised to SM
    4.04597916E-07        3  35  24  24  # H0-W-W eff. coupling^2, normalised to SM
    0.00000000E+00        3  36  24  24  # A0-W-W eff. coupling^2, normalised to SM
#
    9.99999595E-01        3  25  23  23  # h0-Z-Z eff. coupling^2, normalised to SM
    4.04597916E-07        3  35  23  23  # H0-Z-Z eff. coupling^2, normalised to SM
    0.00000000E+00        3  36  23  23  # A0-Z-Z eff. coupling^2, normalised to SM
#
    1.26308136E+00        3  25  21  21  # h0-g-g eff. coupling^2, normalised to SM
    6.76342774E-03        3  35  21  21  # H0-g-g eff. coupling^2, normalised to SM
    1.11727957E-01        3  36  21  21  # A0-g-g eff. coupling^2, normalised to SM
#
    0.00000000E+00        3  25  25  23  # h0-h0-Z eff. coupling^2, normalised to SM
    0.00000000E+00        3  35  25  23  # H0-h0-Z eff. coupling^2, normalised to SM
    4.04597916E-07        3  36  25  23  # A0-h0-Z eff. coupling^2, normalised to SM
    0.00000000E+00        3  35  35  23  # H0-H0-Z eff. coupling^2, normalised to SM
    9.99999595E-01        3  36  35  23  # A0-H0-Z eff. coupling^2, normalised to SM
    0.00000000E+00        3  36  36  23  # A0-A0-Z eff. coupling^2, normalised to SM
#
    0.00000000E+00        4  25  21  21  23  # h0-g-g-Z eff. coupling^2, normalised to SM
    0.00000000E+00        4  35  21  21  23  # H0-g-g-Z eff. coupling^2, normalised to SM
    0.00000000E+00        4  36  21  21  23  # A0-g-g-Z eff. coupling^2, normalised to SM
Block SPhenoLowEnergy  # low energy observables
    1    3.50448530E-04   # BR(b -> s gamma)
    2    1.58830680E-06   # BR(b -> s mu+ mu-)
    3    3.52677766E-05   # BR(b -> s nu nu)
    4    3.02536312E-15   # BR(Bd -> e+ e-)
    5    1.29239696E-10   # BR(Bd -> mu+ mu-)
    6    2.70326334E-08   # BR(Bd -> tau+ tau-)
    7    1.01786423E-13   # BR(Bs -> e+ e-)
    8    4.34830035E-09   # BR(Bs -> mu+ mu-)
    9    9.21575009E-07   # BR(Bs -> tau+ tau-)
   10    9.32036921E-05   # BR(B_u -> tau nu)
   11    9.62758457E-01   # BR(B_u -> tau nu)/BR(B_u -> tau nu)_SM
   12    5.42110010E-01   # |Delta(M_Bd)| [ps^-1] 
   13    1.93524048E+01   # |Delta(M_Bs)| [ps^-1] 
   14    0.00000000E+00   # neutron EDM according to the chiral quark model
   15    0.00000000E+00   # neutron EDM according to the relativistic quark-parton model
   16    2.15800869E-03   # epsilon_K
   17    2.28166954E-15   # Delta(M_K)
   18    2.48079653E-11   # BR(K^0 -> pi^0 nu nu)
   19    8.29246607E-11   # BR(K^+ -> pi^+ nu nu)
   20    2.10149670E-16   # Delta(g-2)_electron/2
   21    8.98455672E-12   # Delta(g-2)_muon/2
   22    2.54148481E-09   # Delta(g-2)_tau/2
   23    0.00000000E+00   # electric dipole moment of the electron
   24    0.00000000E+00   # electric dipole moment of the muon
   25    0.00000000E+00   # electric dipole moment of the tau
   26    0.00000000E+00   # Br(mu -> e gamma)
   27    0.00000000E+00   # Br(tau -> e gamma)
   28    0.00000000E+00   # Br(tau -> mu gamma)
   29    0.00000000E+00   # Br(mu -> 3 e)
   30    0.00000000E+00   # Br(tau -> 3 e)
   31    0.00000000E+00   # Br(tau -> 3 mu)
   39    5.32732149E-05   # Delta(rho_parameter)
   40    0.00000000E+00   # BR(Z -> e mu)
   41    0.00000000E+00   # BR(Z -> e tau)
   42    0.00000000E+00   # BR(Z -> mu tau)
Block FWCOEF Q=  1.60000000E+02  # Wilson coefficients at scale Q
#    id        order  M        value         comment
     0305 4422   00   0    -1.88819110E-01   # C7
     0305 4422   00   2    -2.17540594E-01   # C7
     0305 4322   00   2    -6.96077566E-04   # C7'
     0305 6421   00   0    -9.52278348E-02   # C8
     0305 6421   00   2    -1.35718229E-01   # C8
     0305 6321   00   2    -8.72524548E-04   # C8'
 03051111 4133   00   0     1.62383471E+00   # C9 e+e-
 03051111 4133   00   2     1.62422980E+00   # C9 e+e-
 03051111 4233   00   2     5.39873510E-05   # C9' e+e-
 03051111 4137   00   0    -4.44652682E+00   # C10 e+e-
 03051111 4137   00   2    -4.44636376E+00   # C10 e+e-
 03051111 4237   00   2    -4.00683404E-04   # C10' e+e-
 03051313 4133   00   0     1.62383471E+00   # C9 mu+mu-
 03051313 4133   00   2     1.62422973E+00   # C9 mu+mu-
 03051313 4233   00   2     5.39852703E-05   # C9' mu+mu-
 03051313 4137   00   0    -4.44652682E+00   # C10 mu+mu-
 03051313 4137   00   2    -4.44636383E+00   # C10 mu+mu-
 03051313 4237   00   2    -4.00681366E-04   # C10' mu+mu-
 03051212 4137   00   0     1.50535012E+00   # C11 nu_1 nu_1
 03051212 4137   00   2     1.50531589E+00   # C11 nu_1 nu_1
 03051212 4237   00   2     8.66978350E-05   # C11' nu_1 nu_1
 03051414 4137   00   0     1.50535012E+00   # C11 nu_2 nu_2
 03051414 4137   00   2     1.50531589E+00   # C11 nu_2 nu_2
 03051414 4237   00   2     8.66982830E-05   # C11' nu_2 nu_2
 03051616 4137   00   0     1.50535012E+00   # C11 nu_3 nu_3
 03051616 4137   00   2     1.50531589E+00   # C11 nu_3 nu_3
 03051616 4237   00   2     8.68245440E-05   # C11' nu_3 nu_3
Block IMFWCOEF Q=  1.60000000E+02  # Im(Wilson coefficients) at scale Q
#    id        order  M        value         comment
     0305 4422   00   0     3.85829194E-07   # C7
     0305 4422   00   2     5.56770573E-06   # C7
     0305 4322   00   2     1.40440700E-06   # C7'
     0305 6421   00   0     3.30488221E-07   # C8
     0305 6421   00   2    -2.99007881E-06   # C8
     0305 6321   00   2     5.42452996E-07   # C8'
 03051111 4133   00   2     5.47286382E-08   # C9 e+e-
 03051111 4233   00   2     2.39756344E-06   # C9' e+e-
 03051111 4137   00   2     1.13444130E-06   # C10 e+e-
 03051111 4237   00   2    -1.78135170E-05   # C10' e+e-
 03051313 4133   00   2     5.47278074E-08   # C9 mu+mu-
 03051313 4233   00   2     2.39756325E-06   # C9' mu+mu-
 03051313 4137   00   2     1.13444193E-06   # C10 mu+mu-
 03051313 4237   00   2    -1.78135176E-05   # C10' mu+mu-
 03051212 4137   00   2    -2.26843090E-07   # C11 nu_1 nu_1
 03051212 4237   00   2     3.85441456E-06   # C11' nu_1 nu_1
 03051414 4137   00   2    -2.26843060E-07   # C11 nu_2 nu_2
 03051414 4237   00   2     3.85441456E-06   # C11' nu_2 nu_2
 03051616 4137   00   2    -2.26834643E-07   # C11 nu_3 nu_3
 03051616 4237   00   2     3.85441455E-06   # C11' nu_3 nu_3
