BLOCK SPINFO
   1   SPheno
   2   v4.0.5be

BLOCK SPHENOINFO
   1   2
   2   2

BLOCK MODSEL
   1   0

BLOCK MINPAR
   3    57.648376
   4   -1

BLOCK EXTPAR
   0    1444.509
   1    1108.9076
   2   -450.64307
   3    3000
   11   -3531.3025
   12    1572.781
   13    242.007
   23   -447.41117
   25    58.197954
   26    2816.2254
   31    1008.5082
   32    1008.5082
   33    1009.8451
   34    826.31576
   35    826.31576
   36    1370.3975
   41    5000
   42    5000
   43    1360.0724
   44    5000
   45    5000
   46    1683.7726
   47    5000
   48    5000
   49    1157.5157

BLOCK SMINPUTS
   1    127.90897
   2    1.1663787e-05
   3    0.1184
   4    91.1876
   5    4.18
   6    173.2
   7    1.777
   8    0
   11    0.00051099893
   12    0
   13    0.10565837
   14    0
   21    0.005
   22    0.0025
   23    0.095
   24    1.27

BLOCK GAUGE Q=  1444.509
   1    0.35536298
   2    0.66519887
   3    1.219778

BLOCK YU Q=  1444.509
   1   1    8.3856098e-06
   2   2    0.0042598898
   3   3    1.013049

BLOCK YD Q=  1444.509
   1   1    0.00098066938
   2   2    0.018632718
   3   3    0.97251672

BLOCK YE Q=  1444.509
   1   1    0.00017113398
   2   2    0.035385079
   3   3    0.59511882

BLOCK AU Q=  1444.509
   1   1    0
   2   2    0
   3   3   -3531.3025

BLOCK AD Q=  1444.509
   1   1    0
   2   2    0
   3   3    1572.781

BLOCK AE Q=  1444.509
   1   1    0
   2   2    0
   3   3    242.007

BLOCK MSOFT Q=  1444.509
   1    1108.9076
   2   -450.64307
   3    3000
   21    7957818.1
   22   -165446.66
   31    1008.5082
   32    1008.5082
   33    1009.8451
   34    826.31576
   35    826.31576
   36    1370.3975
   41    5000
   42    5000
   43    1360.0724
   44    5000
   45    5000
   46    1683.7726
   47    5000
   48    5000
   49    1157.5157

BLOCK MASS
   6    173.2
   23    91.1876
   24    80.429995
   15    1.777
   25    124.698
   35    2810.3481
   36    2816.2254
   37    2814.8913
   1000001    5028.0392
   2000001    5017.3513
   1000002    5027.5968
   2000002    5018.8102
   1000003    5028.0498
   2000003    5017.3672
   1000004    5027.606
   2000004    5018.811
   1000005    1139.6383
   2000005    1331.1036
   1000006    1243.8906
   2000006    1677.4838
   1000011    1014.2292
   2000011    832.60106
   1000012    1010.7639
   1000013    1014.2318
   2000013    832.56938
   1000014    1010.7535
   1000015    1010.9376
   2000015    1368.1765
   1000016    1009.3393
   1000021    3186.7987
   1000022   -407.54039
   1000023    452.79199
   1000025   -525.36055
   1000035    1106.4498
   1000024    409.64139
   1000037    526.52319

BLOCK ALPHA
      -0.017402946

BLOCK HMIX Q=  1444.509
   1   -447.41117
   2    58.197954
   3    244.01604
   4    7931125.5

BLOCK STOPMIX
   1   1    0.90974381
   1   2    0.41517008
   2   1   -0.41517008
   2   2    0.90974381

BLOCK SBOTMIX
   1   1   -0.14878096
   1   2    0.98887018
   2   1   -0.98887018
   2   2   -0.14878096

BLOCK STAUMIX
   1   1   -0.99838039
   1   2    0.056891029
   2   1   -0.056891029
   2   2   -0.99838039

BLOCK NMIX
   1   1    0.015651468
   1   2    0.61480306
   1   3    0.58458395
   1   4   -0.52918223
   2   1    0.046847065
   2   2    0.060231557
   2   3   -0.70387984
   2   4   -0.70620867
   3   1    0.012868851
   3   2   -0.78637392
   3   3    0.40307134
   3   4   -0.46795721
   4   1    0.99869654
   4   2   -0.0023275468
   4   3    0.018662368
   4   4    0.047450204

BLOCK UMIX
   1   1   -0.57634962
   1   2   -0.81720323
   2   1   -0.81720323
   2   2    0.57634962

BLOCK VMIX
   1   1    0.67020268
   1   2    0.74217812
   2   1    0.74217812
   2   2   -0.67020268

BLOCK HIGGSBOUNDSINPUTHIGGSCOUPLINGSFERMIONS
       0, 3387.0019,3,36,15,15

BLOCK HIGGSBOUNDSINPUTHIGGSCOUPLINGSBOSONS
       0,4,36,21,21,23

BLOCK SPHENOLOWENERGY
   1    0.00041649234
   2    1.5890537e-06
   3    3.5221773e-05
   4    1.2222784e-15
   5    5.2133583e-11
   6    6.2870597e-09
   7    4.092512e-14
   8    1.7457222e-09
   9    2.195112e-07
   10    9.3263731e-05
   11    0.96337864
   12    0.54330984
   13    19.340913
   14    0
   15    0
   16    0.0021679585
   17    2.2817693e-15
   18    2.4795122e-11
   19    8.2886155e-11
   20    1.5000026e-14
   21    6.4129064e-10
   22    1.9077366e-07
   23    0
   24    0
   25    0
   26    0
   27    0
   28    0
   29    0
   30    0
   31    0
   39    8.4383775e-05
   40    0
   41    0
   42    0

BLOCK FWCOEF Q=  160
   305   4422   0   0   -0.18881911
   305   4422   0   2   -0.29501951
   305   4322   0   2   -0.00066818759
   305   6421   0   0   -0.095227835
   305   6421   0   2   -0.15387406
   305   6321   0   2   -0.00038138365
   3051111   4133   0   0    1.5915898
   3051111   4133   0   2    1.592465
   3051111   4233   0   2    0.00052651966
   3051111   4137   0   0   -4.4142819
   3051111   4137   0   2   -4.4096429
   3051111   4237   0   2   -0.0040995736
   3051313   4133   0   0    1.5915898
   3051313   4133   0   2    1.5924572
   3051313   4233   0   2    0.00052651293
   3051313   4137   0   0   -4.4142819
   3051313   4137   0   2   -4.4096507
   3051313   4237   0   2   -0.0040995872
   3051212   4137   0   0    1.5053501
   3051212   4137   0   2    1.5043658
   3051212   4237   0   2    0.0008935323
   3051414   4137   0   0    1.5053501
   3051414   4137   0   2    1.5043658
   3051414   4237   0   2    0.00089353264
   3051616   4137   0   0    1.5053501
   3051616   4137   0   2    1.5043659
   3051616   4237   0   2    0.00089363012

BLOCK IMFWCOEF Q=  160
   305   4422   0   0    3.8566162e-07
   305   4422   0   2    3.4308792e-05
   305   4322   0   2   -9.5226646e-06
   305   6421   0   0    3.3034468e-07
   305   6421   0   2    3.0785775e-05
   305   6321   0   2   -3.6955908e-06
   3051111   4133   0   2   -2.7131695e-06
   3051111   4233   0   2    1.0962306e-05
   3051111   4137   0   2    2.2071066e-05
   3051111   4237   0   2   -8.5376214e-05
   3051313   4133   0   2   -2.7132759e-06
   3051313   4233   0   2    1.0962217e-05
   3051313   4137   0   2    2.2071344e-05
   3051313   4237   0   2   -8.5376486e-05
   3051212   4137   0   2   -4.3049742e-06
   3051212   4237   0   2    1.8608372e-05
   3051414   4137   0   2   -4.3049689e-06
   3051414   4237   0   2    1.8608372e-05
   3051616   4137   0   2   -4.3033489e-06
   3051616   4237   0   2    1.8608372e-05

DECAY 23  2.4952


DECAY 24  2.085


DECAY 2000011  0.0053976934
    0.84365349   2    1000023    11
    0.10980195   2    1000022    11
    0.046499288   2    1000025    11

DECAY 1000011  7.9523939
    0.40010043   2   -1000037    12
    0.26139177   2   -1000024    12
    0.18260919   2    1000025    11
    0.15328254   2    1000022    11
    0.0026160656   2    1000023    11

DECAY 2000013  0.026258387
    0.36753656   2    1000023    13
    0.30336851   2   -1000024    14
    0.17860622   2    1000022    13
    0.094468101   2   -1000037    14
    0.056020616   2    1000025    13

DECAY 1000013  7.9693097
    0.39925369   2   -1000037    14
    0.26083811   2   -1000024    14
    0.18249636   2    1000025    13
    0.15372178   2    1000022    13
    0.0036170941   2    1000023    13

DECAY 1000015  12.576178
    0.2448682   2    1000022    15
    0.23248811   2   -1000037    16
    0.18833839   2   -1000024    16
    0.18012598   2    1000023    15
    0.15417932   2    1000025    15

DECAY 2000015  17.031489
    0.28493649   2   -1000024    16
    0.22406961   2    1000023    15
    0.16168529   2   -1000037    16
    0.14609528   2    1000022    15
    0.07918954   2    1000025    15
    0.04816505   2    1000035    15
    0.028967704   2    1000016   -24
    0.01393192   2    1000015    23
    0.012959125   2    1000015    25

DECAY 1000012  8.0380122
    0.34756344   2    1000024    11
    0.32373093   2    1000037    11
    0.18551646   2    1000025    12
    0.14275089   2    1000022    12
    0.00043828293   2    1000023    12

DECAY 1000014  8.054024
    0.34832082   2    1000024    13
    0.32363436   2    1000037    13
    0.18514292   2    1000025    14
    0.1424645   2    1000022    14
    0.0004374026   2    1000023    14

DECAY 1000016  12.580165
    0.4842904   2    1000024    15
    0.30632903   2    1000037    15
    0.11812002   2    1000025    16
    0.090981301   2    1000022    16
    0.00027924673   2    1000023    16

DECAY 2000001  143.48721
    0.98232531   2    1000021    1
    0.017623342   2    1000035    1

DECAY 1000001  207.84361
    0.6835131   2    1000021    1
    0.13911628   2   -1000037    2
    0.069806203   2   -1000024    2
    0.064791269   2    1000025    1
    0.039361095   2    1000022    1
    0.0031297642   2    1000035    1
    0.0002822902   2    1000023    1

DECAY 2000003  143.55687
    0.98186012   2    1000021    3
    0.017614932   2    1000035    3
    0.00015978962   2    1000023    3
    0.0001590731   2   -1000024    4

DECAY 1000003  207.88071
    0.68339639   2    1000021    3
    0.13909566   2   -1000037    4
    0.069798578   2   -1000024    4
    0.064806302   2    1000025    3
    0.039410364   2    1000022    3
    0.0031292656   2    1000035    3
    0.00036344387   2    1000023    3

DECAY 1000005  29.635817
    0.38113814   2   -1000024    6
    0.252746   2    1000023    5
    0.21707875   2    1000022    5
    0.094965835   2   -1000037    6
    0.054005601   2    1000025    5

DECAY 2000005  53.53958
    0.31527116   2   -1000037    6
    0.22784643   2   -1000024    6
    0.18258357   2    1000023    5
    0.14503069   2    1000022    5
    0.11642096   2    1000025    5
    0.0053735456   2    1000005    25
    0.0041887206   2    1000005    23
    0.0028509103   2    1000006   -24
    0.0004340128   2    1000035    5

DECAY 2000002  151.25013
    0.93291138   2    1000021    2
    0.066898713   2    1000035    2
    0.00015999008   2    1000023    2

DECAY 1000002  207.84031
    0.68330227   2    1000021    2
    0.11473652   2    1000037    1
    0.094385088   2    1000024    1
    0.064035471   2    1000025    2
    0.040078217   2    1000022    2
    0.0029698563   2    1000035    2
    0.00049257928   2    1000023    2

DECAY 2000004  151.25371
    0.93288941   2    1000021    4
    0.066897163   2    1000035    4
    0.00016586058   2    1000023    4

DECAY 1000004  207.87718
    0.68318538   2    1000021    4
    0.11477056   2    1000037    3
    0.094478254   2    1000024    3
    0.064026054   2    1000025    4
    0.040073618   2    1000022    4
    0.0029693514   2    1000035    4
    0.00049678166   2    1000023    4

DECAY 1000006  43.679505
    0.30424357   2    1000037    5
    0.23928697   2    1000024    5
    0.18677567   2    1000023    6
    0.14543531   2    1000025    6
    0.10569062   2    1000022    6
    0.015628335   2    1000022    4
    0.0021726173   3    1000022    24    5
    0.00058493687   2    1000005    24
    0.00018196728   2    1000023    4

DECAY 2000006  124.03356
    0.20548036   2    1000024    5
    0.20377837   2    2000005    24
    0.15718749   2    1000006    23
    0.12271412   2    1000023    6
    0.11190429   2    1000006    25
    0.10039605   2    1000022    6
    0.049006765   2    1000037    5
    0.026084231   2    1000025    6
    0.014891034   2    1000005    24
    0.0085572886   2    1000035    6

DECAY 1000024  6.4300777e-11
    0.58922273   3    1000022   -1    2
    0.19721095   3    1000022   -11    12
    0.19347164   3    1000022   -13    14
    0.020094679   3    1000022   -3    4

DECAY 1000037  1.1741282
    0.84221525   2    1000022    24
    0.1558254   2    1000024    23
    0.00065251745   3    1000023   -1    2
    0.00065202346   3    1000023   -3    4
    0.0002176358   3    1000023   -13    14
    0.0002176302   3    1000023   -11    12
    0.00021759534   3    1000023   -15    16

DECAY 1000022 -1


DECAY 1000023  0.00075369574
    0.12259407   3    1000022    12   -12
    0.091638115   3    1000022    1   -1
    0.091634011   3    1000022    3   -3
    0.086210749   3    1000022    5   -5
    0.071473   3    1000022    2   -2
    0.07079805   3    1000022    4   -4
    0.063319846   3    1000024    1   -2
    0.063319846   3   -1000024   -1    2
    0.063082495   3    1000024    3   -4
    0.063082495   3   -1000024   -3    4
    0.024598378   2    1000022    22
    0.021104329   3    1000024    13   -14
    0.021104329   3   -1000024   -13    14
    0.021103886   3    1000024    11   -12
    0.021103886   3   -1000024   -11    12
    0.020972041   3    1000024    15   -16
    0.020972041   3   -1000024   -15    16
    0.020660241   3    1000022    13   -13
    0.020659545   3    1000022    11   -11
    0.020568653   3    1000022    15   -15

DECAY 1000025  2.1250902
    0.49860246   2    1000024   -24
    0.49860246   2   -1000024    24
    0.00050428018   3    1000023    12   -12
    0.0003772753   3    1000023    1   -1
    0.00037727083   3    1000023    3   -3
    0.00037400903   3    1000023    5   -5
    0.00029422359   3    1000023    2   -2
    0.00029338214   3    1000023    4   -4
    0.00028991187   2    1000022    23

DECAY 1000035  5.5243776
    0.098820348   2    1000023    25
    0.094438835   2    2000013   -13
    0.094438835   2   -2000013    13
    0.094419808   2    2000011   -11
    0.094419808   2   -2000011    11
    0.08385349   2    1000024   -24
    0.08385349   2   -1000024    24
    0.071254183   2    1000022    23
    0.07005497   2    1000022    25
    0.039489991   2    1000037   -24
    0.039489991   2   -1000037    24
    0.035328408   2    1000025    23
    0.033885447   2    1000025    25
    0.020449048   2    1000023    23
    0.0035650198   2    1000016   -16
    0.0035650198   2   -1000016    16
    0.0034665687   2    1000014   -14
    0.0034665687   2   -1000014    14
    0.0034658507   2    1000012   -12
    0.0034658507   2   -1000012    12
    0.0034255498   2    1000015   -15
    0.0034255498   2   -1000015    15
    0.0031740336   2    1000011   -11
    0.0031740336   2   -1000011    11
    0.0031738639   2    1000013   -13
    0.0031738639   2   -1000013    13
    0.0013822106   3    1000024    5   -6
    0.0013822106   3   -1000024   -5    6
    0.00052709766   3    1000037    5   -6
    0.00052709766   3   -1000037   -5    6
    0.00049529529   3    1000023    6   -6
    0.00043505899   3    1000022    6   -6
    0.00013281448   3    1000023    5   -5
    0.00010759221   3    1000022    5   -5
    0.00010064214   3    1000025    6   -6

DECAY 1000021  279.76236
    0.12833852   2    1000005   -5
    0.12833852   2   -1000005    5
    0.11478596   2    2000005   -5
    0.11478596   2   -2000005    5
    0.10929855   2    1000006   -6
    0.10929855   2   -1000006    6
    0.097760774   2    2000006   -6
    0.097760774   2   -2000006    6
    0.049692732   2    1000006   -4
    0.049692732   2   -1000006    4

DECAY 25  0.0038317518
    0.57765528   2   -5    5
    0.2240628   2   -24    24
    0.07179245   2    21    21
    0.066687965   2   -15    15
    0.028553552   2   -4    4
    0.026961486   2    23    23
    0.0023586753   2    22    22
    0.0014782302   2    22    23
    0.00023127983   2   -13    13
    0.00021752605   2   -3    3
    6.0143838e-07   2   -1    1
    1.4714389e-07   2   -2    2
    5.1994349e-09   2   -11    11

DECAY 35  195.6912
    0.68274193   2   -5    5
    0.11081907   2   -15    15
    0.031869963   2   -1000024    1000024
    0.028296374   2   -1000024    1000037
    0.028296374   2   -1000037    1000024
    0.017436271   2   -1000037    1000037
    0.016120647   2    1000023    1000025
    0.014983214   2   -2000005    1000005
    0.014983214   2   -1000005    2000005
    0.013804294   2    1000022    1000022
    0.012157229   2    1000022    1000023
    0.010196596   2    1000025    1000025
    0.0048736155   2    1000023    1000035
    0.0034043019   2    1000022    1000035
    0.0028943107   2   -1000006    1000006
    0.002887786   2    1000025    1000035
    0.0024745147   2   -1000005    1000005
    0.00039077219   2    1000022    1000025
    0.00038164784   2   -13    13
    0.00033899561   2   -6    6
    0.00022315155   2   -3    3
    0.00017245457   2   -2000015    1000015
    0.00017245457   2   -1000015    2000015
    7.2851865e-05   2    1000023    1000023
    2.7191568e-06   2    1000035    1000035
    2.24764e-06   2   -1000015    1000015
    9.8130179e-07   2   -2000015    2000015
    6.7779483e-07   2    25    25
    6.1702792e-07   2   -1    1
    4.1869358e-07   2    21    21
    8.0164536e-08   2    23    23
    4.5010047e-08   2    22    23
    2.6402383e-08   2   -24    24
    1.0264127e-08   2   -2000011    2000011
    1.0197823e-08   2   -2000013    2000013
    8.5717499e-09   2   -11    11
    8.4424793e-09   2    22    22
    7.7177688e-09   2   -1000011    1000011
    7.4732249e-09   2   -1000013    1000013
    2.2934954e-09   2   -4    4
    9.6747e-10   2   -2000013    1000013
    9.6747e-10   2   -1000013    2000013
    2.2635214e-14   2   -2000011    1000011
    2.2635214e-14   2   -1000011    2000011
    1.1815981e-14   2   -2    2

DECAY 36  177.83955
    0.66604463   2   -5    5
    0.10809876   2   -15    15
    0.040285146   2   -1000024    1000024
    0.026159313   2   -1000024    1000037
    0.026159313   2   -1000037    1000024
    0.024219626   2   -1000037    1000037
    0.018584567   2   -2000005    1000005
    0.018584567   2   -1000005    2000005
    0.017563665   2    1000022    1000022
    0.014738225   2    1000023    1000025
    0.014005075   2    1000025    1000025
    0.011321555   2    1000022    1000023
    0.006851359   2    1000023    1000035
    0.0030868171   2    1000022    1000035
    0.0023876857   2    1000025    1000035
    0.00048000825   2    1000022    1000025
    0.0003722759   2   -13    13
    0.00035114903   2   -6    6
    0.00021761821   2   -3    3
    0.00019266565   2   -2000015    1000015
    0.00019266565   2   -1000015    2000015
    8.3473551e-05   2    1000023    1000023
    1.224398e-05   2    21    21
    6.7070296e-06   2    1000035    1000035
    6.0172611e-07   2   -1    1
    1.3807673e-07   2    23    25
    8.8913613e-08   2    22    23
    5.1812846e-08   2    22    22
    8.3612803e-09   2   -11    11
    2.320899e-09   2   -4    4
    1.0686653e-09   2   -2000013    1000013
    1.0686653e-09   2   -1000013    2000013
    4.3309848e-11   2    23    35
    2.4996181e-14   2   -2000011    1000011
    2.4996181e-14   2   -1000011    2000011
    1.1957815e-14   2   -2    2
    6.8140652e-37   2    25    25

DECAY 37  176.83459
    0.63451023   2   -5    6
    0.10579465   2   -15    16
    0.069736122   2   -1000005    1000006
    0.062902569   2    1000022    1000037
    0.054421008   2    1000024    1000025
    0.030244501   2    1000023    1000024
    0.028178909   2    1000023    1000037
    0.0065605746   2    1000024    1000035
    0.0056260809   2    1000035    1000037
    0.00094102504   2   -5    4
    0.00038681796   2   -2000015    1000016
    0.00037402191   2   -13    14
    0.0002210982   2   -3    4
    3.7060002e-05   2    1000022    1000024
    2.9237668e-05   2    1000025    1000037
    1.5955259e-05   2   -2000005    1000006
    1.0348095e-05   2   -3    2
    6.7198904e-06   2   -5    2
    1.5710039e-06   2   -1000015    1000016
    6.1380098e-07   2   -1    2
    5.9801352e-07   2   -3    6
    1.3876099e-07   2    24    25
    4.4595426e-08   2   -2000011    1000012
    4.4489312e-08   2   -2000013    1000014
    2.8757678e-08   2   -1    4
    1.2437887e-08   2   -1    6
    8.7484114e-09   2   -11    12
    1.9900564e-09   2   -1000013    1000014
    1.4898865e-11   2    24    35
    4.6539495e-14   2   -1000011    1000012

DECAY 6  2.43
    1   2    5    24

DECAY 15 -1
