BLOCK SPINFO
   1   SPheno
   2   v4.0.5be

BLOCK SPHENOINFO
   1   2
   2   2

BLOCK MODSEL
   1   0

BLOCK MINPAR
   3    37.628543
   4   -1

BLOCK EXTPAR
   0    1504.7027
   1   -1878.1653
   2    1098.6548
   3    3000
   11   -2210.5083
   12    1590.6025
   13   -684.19573
   23   -524.87636
   25    36.820292
   26    3787.5765
   31    1053.8566
   32    1053.8566
   33    506.38349
   34    1726.666
   35    1726.666
   36    1186.272
   41    5000
   42    5000
   43    1228.5141
   44    5000
   45    5000
   46    1862.4918
   47    5000
   48    5000
   49    1740.3115

BLOCK SMINPUTS
   1    127.90897
   2    1.1663787e-05
   3    0.1184
   4    91.1876
   5    4.18
   6    173.2
   7    1.777
   8    0
   11    0.00051099893
   12    0
   13    0.10565837
   14    0
   21    0.005
   22    0.0025
   23    0.095
   24    1.27

BLOCK GAUGE Q=  1504.7027
   1    0.35536298
   2    0.66519887
   3    1.219778

BLOCK YU Q=  1504.7027
   1   1    8.3874637e-06
   2   2    0.0042608316
   3   3    1.013273

BLOCK YD Q=  1504.7027
   1   1    0.0006205805
   2   2    0.01179103
   3   3    0.6154214

BLOCK YE Q=  1504.7027
   1   1    0.00010829584
   2   2    0.022392144
   3   3    0.37659903

BLOCK AU Q=  1504.7027
   1   1    0
   2   2    0
   3   3   -2210.5082

BLOCK AD Q=  1504.7027
   1   1    0
   2   2    0
   3   3    1590.6024

BLOCK AE Q=  1504.7027
   1   1    0
   2   2    0
   3   3   -684.19573

BLOCK MSOFT Q=  1504.7027
   1   -1878.1653
   2    1098.6548
   3    3000
   21    14076279
   22   -244729.46
   31    1053.8566
   32    1053.8566
   33    506.38349
   34    1726.666
   35    1726.666
   36    1186.272
   41    5000
   42    5000
   43    1228.5141
   44    5000
   45    5000
   46    1862.4918
   47    5000
   48    5000
   49    1740.3115

BLOCK MASS
   6    173.2
   23    91.1876
   24    80.429995
   15    1.777
   25    120.72963
   35    3785.6909
   36    3787.5765
   37    3786.9186
   1000001    5026.5786
   2000001    5016.8299
   1000002    5026.1238
   2000002    5019.1547
   1000003    5026.5838
   2000003    5016.837
   1000004    5026.1282
   2000004    5019.1555
   1000005    1229.0604
   2000005    1771.9621
   1000006    1214.3268
   2000006    1864.5148
   1000011    1070.3699
   2000011    1729.0454
   1000012    1066.9784
   1000013    1070.3788
   2000013    1729.0536
   1000014    1066.9883
   1000015    541.47257
   2000015    1193.8075
   1000016    535.93321
   1000021    3187.376
   1000022    528.43961
   1000023   -534.78862
   1000025    1142.6195
   1000035   -1876.3697
   1000024    530.68657
   1000037    1142.8032

BLOCK ALPHA
      -0.02661487

BLOCK HMIX Q=  1504.7027
   1   -524.87636
   2    36.820292
   3    244.03054
   4    14345736

BLOCK STOPMIX
   1   1    0.9872219
   1   2    0.15935158
   2   1   -0.15935158
   2   2    0.9872219

BLOCK SBOTMIX
   1   1   -0.99948109
   1   2    0.032211056
   2   1   -0.032211056
   2   2   -0.99948109

BLOCK STAUMIX
   1   1   -0.99963454
   1   2    0.027033162
   2   1   -0.027033162
   2   2   -0.99963454

BLOCK NMIX
   1   1    0.012350234
   1   2    0.090116609
   1   3    0.70752004
   1   4    0.70081514
   2   1    0.023496878
   2   2    0.035026133
   2   3   -0.70556082
   2   4    0.7073931
   3   1    0.0012552837
   3   2   -0.99531487
   3   3    0.039224659
   3   4    0.088363766
   4   1   -0.99964683
   4   2    0.00068680598
   4   3   -0.0077939526
   4   4    0.025396651

BLOCK UMIX
   1   1   -0.055690473
   1   2   -0.99844808
   2   1    0.99844808
   2   2   -0.055690473

BLOCK VMIX
   1   1   -0.12536912
   1   2    0.99211017
   2   1    0.99211017
   2   2    0.12536912

BLOCK HIGGSBOUNDSINPUTHIGGSCOUPLINGSFERMIONS
       0, 1355.7339,3,36,15,15

BLOCK HIGGSBOUNDSINPUTHIGGSCOUPLINGSBOSONS
       0,4,36,21,21,23

BLOCK SPHENOLOWENERGY
   1    0.00036554005
   2    1.5876551e-06
   3    3.5250475e-05
   4    2.2006758e-15
   5    9.4010806e-11
   6    1.971062e-08
   7    7.4231725e-14
   8    3.1711916e-09
   9    6.7368014e-07
   10    9.6143176e-05
   11    0.9931222
   12    0.54300735
   13    19.398208
   14    0
   15    0
   16    0.0021626184
   17    2.2817128e-15
   18    2.4788282e-11
   19    8.287985e-11
   20   -7.6252397e-15
   21   -3.2601617e-10
   22   -1.0737387e-07
   23    0
   24    0
   25    0
   26    0
   27    0
   28    0
   29    0
   30    0
   31    0
   39    7.8879152e-05
   40    0
   41    0
   42    0

BLOCK FWCOEF Q=  160
   305   4422   0   0   -0.18881911
   305   4422   0   2   -0.24147738
   305   4322   0   2   -0.00036318419
   305   6421   0   0   -0.095227835
   305   6421   0   2   -0.12214169
   305   6321   0   2   -0.00020061833
   3051111   4133   0   0    1.5923329
   3051111   4133   0   2    1.5938152
   3051111   4233   0   2    0.00022231552
   3051111   4137   0   0   -4.415025
   3051111   4137   0   2   -4.4131774
   3051111   4237   0   2   -0.0017280795
   3051313   4133   0   0    1.5923329
   3051313   4133   0   2    1.5938125
   3051313   4233   0   2    0.00022231472
   3051313   4137   0   0   -4.415025
   3051313   4137   0   2   -4.4131802
   3051313   4237   0   2   -0.001728082
   3051212   4137   0   0    1.5053501
   3051212   4137   0   2    1.5049584
   3051212   4237   0   2    0.00037658526
   3051414   4137   0   0    1.5053501
   3051414   4137   0   2    1.5049584
   3051414   4237   0   2    0.00037658529
   3051616   4137   0   0    1.5053501
   3051616   4137   0   2    1.5049577
   3051616   4237   0   2    0.00037659161

BLOCK IMFWCOEF Q=  160
   305   4422   0   0    3.8576673e-07
   305   4422   0   2   -2.7171855e-05
   305   4322   0   2   -5.0275766e-06
   305   6421   0   0    3.3043472e-07
   305   6421   0   2    1.4149124e-06
   305   6321   0   2   -1.6165845e-06
   3051111   4133   0   2    1.5448991e-07
   3051111   4233   0   2    4.3823033e-06
   3051111   4137   0   2   -7.4679627e-07
   3051111   4237   0   2   -3.4070525e-05
   3051313   4133   0   2    1.5442836e-07
   3051313   4233   0   2    4.3822914e-06
   3051313   4137   0   2   -7.4679301e-07
   3051313   4237   0   2   -3.4070571e-05
   3051212   4137   0   2    3.433615e-07
   3051212   4237   0   2    7.4246888e-06
   3051414   4137   0   2    3.4336062e-07
   3051414   4237   0   2    7.4246888e-06
   3051616   4137   0   2    3.3137752e-07
   3051616   4237   0   2    7.4246945e-06

DECAY 23  2.4952


DECAY 24  2.085


DECAY 1000011  0.047830849
    0.52693476   2    1000022    11
    0.34751737   2   -1000024    12
    0.12554786   2    1000023    11

DECAY 2000011  0.0050169086
    0.78193781   2    1000023    11
    0.21712824   2    1000022    11
    0.00086585746   2    1000025    11

DECAY 1000013  0.053882544
    0.5245361   2    1000022    13
    0.30849266   2   -1000024    14
    0.16697123   2    1000023    13

DECAY 2000013  0.033748497
    0.41801261   2   -1000024    14
    0.324316   2    1000023    13
    0.24253663   2    1000022    13
    0.014253917   2    1000013    25
    0.0005026843   2   -1000037    14
    0.00037815875   2    1000025    13

DECAY 1000015  0.0023354414
    0.79988331   2    1000022    15
    0.18412875   2    1000023    15
    0.015984251   2   -1000024    16

DECAY 2000015  5.1671312
    0.41587349   2   -1000024    16
    0.20937537   2    1000022    15
    0.20820897   2    1000023    15
    0.081219377   2    1000016   -24
    0.045619755   2    1000015    25
    0.039630068   2    1000015    23

DECAY 1000012  0.10361116
    0.80707789   2    1000024    11
    0.18008677   2    1000022    12
    0.012835341   2    1000023    12

DECAY 1000014  0.1096293
    0.81766453   2    1000024    13
    0.17020447   2    1000022    14
    0.012131003   2    1000023    14

DECAY 1000016  0.00065780345
    0.98067787   2    1000024    15
    0.019289152   2    1000022    16

DECAY 2000001  142.90039
    0.98549616   2    1000021    1
    0.014489784   2    1000035    1

DECAY 1000001  202.07771
    0.70192118   2    1000021    1
    0.19630881   2   -1000037    2
    0.097586575   2    1000025    1
    0.0025897155   2    1000035    1
    0.00082775593   2    1000022    1
    0.00066406887   2   -1000024    2
    0.00010189399   2    1000023    1

DECAY 2000003  142.92819
    0.98530967   2    1000021    3
    0.014487004   2    1000035    3

DECAY 1000003  202.09365
    0.70186848   2    1000021    3
    0.19629371   2   -1000037    4
    0.097579092   2    1000025    3
    0.0025895184   2    1000035    3
    0.00086128193   2    1000022    3
    0.00067265415   2   -1000024    4
    0.0001352683   2    1000023    3

DECAY 1000005  21.402435
    0.70774763   2   -1000024    6
    0.14618487   2    1000022    5
    0.14149024   2    1000023    5
    0.0045772555   2    1000025    5

DECAY 2000005  23.057086
    0.46955549   2   -1000024    6
    0.23918055   2    1000022    5
    0.23851552   2    1000023    5
    0.023972716   2    1000006   -24
    0.015018798   2    1000005    25
    0.011372494   2    1000005    23
    0.0015819444   2   -1000037    6
    0.00080248752   2    1000025    5

DECAY 2000002  149.36621
    0.94445561   2    1000021    2
    0.055492591   2    1000035    2

DECAY 1000002  202.07166
    0.70170785   2    1000021    2
    0.19380892   2    1000037    1
    0.097491124   2    1000025    2
    0.0033653359   2    1000024    1
    0.0025497514   2    1000035    2
    0.00091249105   2    1000022    2
    0.00016452873   2    1000023    2

DECAY 2000004  149.36977
    0.94443323   2    1000021    4
    0.055491267   2    1000035    4

DECAY 1000004  202.08745
    0.701655   2    1000021    4
    0.19379417   2    1000037    3
    0.097483678   2    1000025    4
    0.003431956   2    1000024    3
    0.0025495613   2    1000035    4
    0.00091672779   2    1000022    4
    0.00016890658   2    1000023    4

DECAY 1000006  21.280365
    0.33656402   2    1000023    6
    0.33642955   2    1000022    6
    0.31794524   2    1000024    5
    0.0058819687   2    1000037    5
    0.002440558   3    1000022    24    5
    0.00062685296   2    1000022    4
    0.00011181354   2    1000023    4

DECAY 2000006  106.19606
    0.28555748   2    1000024    5
    0.18573647   2    1000005    24
    0.15029548   2    1000023    6
    0.14614699   2    1000022    6
    0.12630916   2    1000006    25
    0.095112912   2    1000006    23
    0.0072405128   2    1000037    5
    0.0036008726   2    1000025    6

DECAY 1000024  5.0814283e-11
    0.53631212   3    1000022   -1    2
    0.1787966   3    1000022   -11    12
    0.1768432   3    1000022   -13    14
    0.10433731   3    1000022   -3    4
    0.0037107699   3    1000022   -15    16

DECAY 1000037  15.381679
    0.19611408   2    1000016   -15
    0.1955823   2   -1000015    16
    0.15091811   2    1000023    24
    0.14522608   2    1000022    24
    0.14465317   2    1000024    23
    0.14063683   2    1000024    25
    0.0052981729   2    1000012   -11
    0.0052968799   2    1000014   -13
    0.004911833   2   -1000011    12
    0.0049106642   2   -1000013    14
    0.0025177051   3    1000023   -5    6
    0.0022137355   3    1000022   -5    6
    0.0015433106   3    1000024    6   -6
    0.00017678531   3    1000024    5   -5

DECAY 1000022 -1


DECAY 1000023  9.1323316e-08
    0.61548217   2    1000022    22
    0.078210599   3    1000022    12   -12
    0.058370555   3    1000022    1   -1
    0.058218559   3    1000022    3   -3
    0.045523915   3    1000022    2   -2
    0.026344624   3    1000022    4   -4
    0.017716945   3    1000024    1   -2
    0.017716945   3   -1000024   -1    2
    0.013171579   3    1000022    11   -11
    0.013117889   3    1000022    13   -13
    0.011173011   3    1000024    3   -4
    0.011173011   3   -1000024   -3    4
    0.0059056814   3    1000024    11   -12
    0.0059056814   3   -1000024   -11    12
    0.0058862108   3    1000024    13   -14
    0.0058862108   3   -1000024   -13    14
    0.0053734253   3    1000022    15   -15
    0.0024114965   3    1000024    15   -16
    0.0024114965   3   -1000024   -15    16

DECAY 1000025  17.255872
    0.13149184   2    1000024   -24
    0.13149184   2   -1000024    24
    0.12400202   2    1000023    25
    0.11718246   2    1000023    23
    0.10754786   2    1000022    25
    0.087949969   2    1000016   -16
    0.087949969   2   -1000016    16
    0.086584856   2    1000015   -15
    0.086584856   2   -1000015    15
    0.017151964   2    1000022    23
    0.0023690789   2    1000012   -12
    0.0023690789   2   -1000012    12
    0.00236848   2    1000014   -14
    0.00236848   2   -1000014    14
    0.0021622042   2    1000011   -11
    0.0021622042   2   -1000011    11
    0.0021617061   2    1000013   -13
    0.0021617061   2   -1000013    13
    0.0015282645   3    1000024    5   -6
    0.0015282645   3   -1000024   -5    6
    0.00037675786   3    1000023    6   -6
    0.00035311835   3    1000022    6   -6

DECAY 1000035  18.243962
    0.091438227   2    2000015   -15
    0.091438227   2   -2000015    15
    0.067356529   2    1000024   -24
    0.067356529   2   -1000024    24
    0.054589086   2    1000016   -16
    0.054589086   2   -1000016    16
    0.054210309   2    1000015   -15
    0.054210309   2   -1000015    15
    0.052494869   2    1000022    23
    0.051487882   2    1000023    25
    0.045664671   2    1000022    25
    0.029631251   2    1000012   -12
    0.029631251   2   -1000012    12
    0.029630725   2    1000014   -14
    0.029630725   2   -1000014    14
    0.029300088   2    1000011   -11
    0.029300088   2   -1000011    11
    0.029299624   2    1000013   -13
    0.029299624   2   -1000013    13
    0.014918421   2    1000023    23
    0.0085833668   2    1000006   -6
    0.0085833668   2   -1000006    6
    0.0070346484   2    1000005   -5
    0.0070346484   2   -1000005    5
    0.0058769597   2    2000011   -11
    0.0058769597   2   -2000011    11
    0.0058763384   2    2000013   -13
    0.0058763384   2   -2000013    13
    0.0020510786   3    1000024    5   -6
    0.0020510786   3   -1000024   -5    6
    0.0013250072   3    1000023    6   -6
    0.0012605028   3    1000022    6   -6
    0.0010132394   2    2000005   -5
    0.0010132394   2   -2000005    5
    0.00021481541   2    1000037   -24
    0.00021481541   2   -1000037    24
    0.00020378012   2    1000025    23
    0.00016277439   2    1000025    25

DECAY 1000021  253.39142
    0.13494757   2    1000005   -5
    0.13494757   2   -1000005    5
    0.13046746   2    1000006   -6
    0.13046746   2   -1000006    6
    0.088854023   2    2000005   -5
    0.088854023   2   -2000005    5
    0.084324417   2    2000006   -6
    0.084324417   2   -2000006    6
    0.060631858   2    1000006   -4
    0.060631858   2   -1000006    4
    0.00044953132   3    1000037    5   -6
    0.00044953132   3   -1000037   -5    6
    0.00044902625   3    1000025    6   -6

DECAY 25  0.0033879784
    0.63476539   2   -5    5
    0.16356484   2   -24    24
    0.075253974   2    21    21
    0.072788367   2   -15    15
    0.031503674   2   -4    4
    0.018167862   2    23    23
    0.0023208544   2    22    22
    0.0011425577   2    22    23
    0.00025243643   2   -13    13
    0.00023922185   2   -3    3
    6.6142587e-07   2   -1    1
    1.623599e-07   2   -2    2
    5.6751106e-09   2   -11    11

DECAY 35  115.59669
    0.51926085   2   -5    5
    0.10443962   2   -1000024    1000037
    0.10443962   2   -1000037    1000024
    0.074013595   2   -15    15
    0.05467731   2    1000023    1000025
    0.05035634   2    1000022    1000025
    0.019888479   2   -2000005    1000005
    0.019888479   2   -1000005    2000005
    0.012716225   2    1000022    1000035
    0.010032249   2   -2000006    1000006
    0.010032249   2   -1000006    2000006
    0.0078116621   2    1000023    1000035
    0.0041490075   2   -1000024    1000024
    0.001382426   2   -2000015    1000015
    0.001382426   2   -1000015    2000015
    0.0012707419   2   -1000006    1000006
    0.0011268998   2   -6    6
    0.00097403196   2    1000022    1000022
    0.00055546773   2   -1000037    1000037
    0.00033093003   2   -2000006    2000006
    0.00028025005   2   -13    13
    0.00027817113   2    1000025    1000025
    0.0002426572   2    1000022    1000023
    0.00019392271   2   -3    3
    8.7709393e-05   2   -1000005    1000005
    7.2542544e-05   2    1000025    1000035
    6.1982762e-05   2    1000023    1000023
    3.6118841e-05   2   -2000005    2000005
    5.2250634e-06   2   -1000015    1000015
    4.1217262e-06   2   -2000015    2000015
    3.8898453e-06   2    25    25
    3.4978017e-06   2    21    21
    5.3616582e-07   2   -1    1
    1.5984246e-07   2    23    23
    5.0544431e-08   2    22    23
    3.6055317e-08   2   -1000011    1000011
    3.6024919e-08   2   -24    24
    3.5772086e-08   2   -1000013    1000013
    3.5158673e-08   2    22    22
    1.149469e-08   2   -2000011    2000011
    1.1411275e-08   2   -2000013    2000013
    1.0872852e-08   2   -4    4
    6.3427455e-09   2    1000035    1000035
    6.293753e-09   2   -11    11
    1.4932035e-09   2   -2000013    1000013
    1.4932035e-09   2   -1000013    2000013
    5.6034818e-14   2   -2    2
    3.4926356e-14   2   -2000011    1000011
    3.4926356e-14   2   -1000011    2000011

DECAY 36  110.88067
    0.50346095   2   -5    5
    0.1088378   2   -1000024    1000037
    0.1088378   2   -1000037    1000024
    0.071757026   2   -15    15
    0.056622699   2    1000022    1000025
    0.052890213   2    1000023    1000025
    0.020821235   2   -2000005    1000005
    0.020821235   2   -1000005    2000005
    0.013270916   2    1000023    1000035
    0.011539349   2   -2000006    1000006
    0.011539349   2   -1000006    2000006
    0.0082018755   2    1000022    1000035
    0.0044642679   2   -1000024    1000024
    0.0014455258   2   -2000015    1000015
    0.0014455258   2   -1000015    2000015
    0.0011563295   2   -6    6
    0.00098903807   2    1000022    1000022
    0.00069478986   2   -1000037    1000037
    0.00034847414   2    1000025    1000025
    0.00028112168   2    1000022    1000023
    0.0002717135   2   -13    13
    0.00018801442   2   -3    3
    7.7958958e-05   2    1000023    1000023
    2.7443746e-05   2    1000025    1000035
    7.7843707e-06   2    21    21
    6.7903885e-07   2    1000035    1000035
    5.1982818e-07   2   -1    1
    3.3209989e-07   2    23    25
    1.8738782e-08   2    22    23
    1.1062899e-08   2   -4    4
    6.10209e-09   2   -11    11
    1.5485743e-09   2   -2000013    1000013
    1.5485743e-09   2   -1000013    2000013
    1.275259e-09   2    22    22
    2.3617014e-13   2    23    35
    5.7016598e-14   2   -2    2
    3.6221309e-14   2   -2000011    1000011
    3.6221309e-14   2   -1000011    2000011
    9.0889953e-38   2    25    25

DECAY 37  114.2631
    0.49984764   2   -5    6
    0.10888866   2    1000022    1000037
    0.10697875   2    1000024    1000025
    0.10630958   2    1000023    1000037
    0.093844776   2   -15    16
    0.043684716   2   -2000005    1000006
    0.020650336   2    1000024    1000035
    0.013333603   2   -1000005    2000006
    0.0028056752   2   -2000015    1000016
    0.0014430409   2    1000023    1000024
    0.00074014835   2   -5    4
    0.0005661047   2   -1000005    1000006
    0.0003317747   2   -13    14
    0.00021813085   2    1000022    1000024
    0.00018055777   2   -3    4
    0.00010026871   2    1000035    1000037
    5.7856323e-05   2   -2000005    2000006
    8.4784424e-06   2   -3    2
    5.2854224e-06   2   -5    2
    1.8616514e-06   2   -1000015    1000016
    1.5529803e-06   2   -3    6
    5.011372e-07   2   -1    2
    3.2222598e-07   2    24    25
    1.4325712e-07   2   -1000011    1000012
    1.4285493e-07   2   -1000013    1000014
    5.8903551e-08   2   -1    6
    2.400142e-08   2   -1    4
    7.7602448e-09   2   -11    12
    3.0504257e-09   2   -2000013    1000014
    4.3246649e-10   2    1000025    1000037
    7.1351085e-14   2   -2000011    1000012
    3.3239095e-14   2    24    35

DECAY 6  2.43
    1   2    5    24

DECAY 15 -1
