BLOCK SPINFO
   1   SPheno
   2   v4.0.5be

BLOCK SPHENOINFO
   1   2
   2   2

BLOCK MODSEL
   1   0

BLOCK MINPAR
   3    31.192202
   4   -1

BLOCK EXTPAR
   0    1716.2027
   1   -20.51528
   2   -1130.8037
   3    3000
   11   -3564.8554
   12    710.79116
   13    1224.3667
   23   -583.75346
   25    30.343775
   26    306.13597
   31    1712.3001
   32    1712.3001
   33    999.23302
   34    1920.7057
   35    1920.7057
   36    314.39089
   41    5000
   42    5000
   43    1674.6984
   44    5000
   45    5000
   46    1805.0802
   47    5000
   48    5000
   49    1288.3291

BLOCK SMINPUTS
   1    127.90897
   2    1.1663787e-05
   3    0.1184
   4    91.1876
   5    4.18
   6    173.2
   7    1.777
   8    0
   11    0.00051099893
   12    0
   13    0.10565837
   14    0
   21    0.005
   22    0.0025
   23    0.095
   24    1.27

BLOCK GAUGE Q=  1716.2027
   1    0.35536298
   2    0.66519887
   3    1.219778

BLOCK YU Q=  1716.2027
   1   1    8.3889239e-06
   2   2    0.0042615734
   3   3    1.0134494

BLOCK YD Q=  1716.2027
   1   1    0.00051151233
   2   2    0.0097187343
   3   3    0.50725995

BLOCK YE Q=  1716.2027
   1   1    8.9262642e-05
   2   2    0.018456683
   3   3    0.31041105

BLOCK AU Q=  1716.2027
   1   1    0
   2   2    0
   3   3   -3564.8554

BLOCK AD Q=  1716.2027
   1   1    0
   2   2    0
   3   3    710.79123

BLOCK AE Q=  1716.2027
   1   1    0
   2   2    0
   3   3    1224.3667

BLOCK MSOFT Q=  1716.2027
   1   -20.51528
   2   -1130.8037
   3    3000
   21   -240230.18
   22   -299665.63
   31    1712.3001
   32    1712.3001
   33    999.23302
   34    1920.7057
   35    1920.7057
   36    314.39089
   41    5000
   42    5000
   43    1674.6984
   44    5000
   45    5000
   46    1805.0802
   47    5000
   48    5000
   49    1288.3291

BLOCK MASS
   6    173.2
   23    91.1876
   24    80.429995
   15    1.777
   25    123.98778
   35    306.19899
   36    306.13597
   37    319.45118
   1000001    5037.0676
   2000001    5027.2725
   1000002    5036.6204
   2000002    5028.5636
   1000003    5037.07
   2000003    5027.2747
   1000004    5036.6222
   2000004    5028.5641
   1000005    1322.1766
   2000005    1688.8409
   1000006    1576.4614
   2000006    1868.331
   1000011    1720.0748
   2000011    1923.2582
   1000012    1717.8812
   1000013    1720.0675
   2000013    1923.2477
   1000014    1717.8753
   1000015    310.02454
   2000015    1011.1168
   1000016    1006.9248
   1000021    3203.6707
   1000022   -20.069107
   1000023   -586.65957
   1000025    593.12484
   1000035   -1176.3963
   1000024    586.53324
   1000037    1176.5469

BLOCK ALPHA
      -0.042712852

BLOCK HMIX Q=  1716.2027
   1   -583.75346
   2    30.343775
   3    243.84884
   4    93719.233

BLOCK STOPMIX
   1   1    0.80192966
   1   2    0.59741846
   2   1   -0.59741846
   2   2    0.80192966

BLOCK SBOTMIX
   1   1   -0.041557561
   1   2    0.99913611
   2   1   -0.99913611
   2   2   -0.041557561

BLOCK STAUMIX
   1   1   -0.037200557
   1   2    0.99930782
   2   1   -0.99930782
   2   2   -0.037200557

BLOCK NMIX
   1   1    0.9971441
   1   2   -0.00042606961
   1   3   -0.075358481
   1   4    0.0049555572
   2   1    0.056768227
   2   2    0.098130246
   2   3    0.70453445
   2   4   -0.70055623
   3   1    0.049677486
   3   2   -0.030960325
   3   3    0.70404851
   3   4    0.70773533
   4   1   -0.0036270494
   4   2    0.99469178
   4   3   -0.047623473
   4   4    0.091143391

BLOCK UMIX
   1   1   -0.067345331
   1   2   -0.99772973
   2   1   -0.99772973
   2   2    0.067345331

BLOCK VMIX
   1   1    0.12896316
   1   2    0.99164938
   2   1    0.99164938
   2   2   -0.12896316

BLOCK HIGGSBOUNDSINPUTHIGGSCOUPLINGSFERMIONS
       0, 920.74466,3,36,15,15

BLOCK HIGGSBOUNDSINPUTHIGGSCOUPLINGSBOSONS
       0,4,36,21,21,23

BLOCK SPHENOLOWENERGY
   1    0.0005065553
   2    1.6056903e-06
   3    3.5237748e-05
   4    1.2718414e-15
   5    5.4312411e-11
   6    1.0247781e-08
   7    4.3312375e-14
   8    1.8496853e-09
   9    3.5577045e-07
   10    4.056548e-05
   11    0.41902587
   12    0.54268511
   13    19.199472
   14    0
   15    0
   16    0.0021637764
   17    2.2817863e-15
   18    2.4802272e-11
   19    8.290272e-11
   20    3.9332214e-15
   21    1.6815546e-10
   22    7.8172584e-08
   23    0
   24    0
   25    0
   26    0
   27    0
   28    0
   29    0
   30    0
   31    0
   39    7.379217e-05
   40    0
   41    0
   42    0

BLOCK FWCOEF Q=  160
   305   4422   0   0   -0.18881911
   305   4422   0   2   -0.36721367
   305   4322   0   2   -0.0029166101
   305   6421   0   0   -0.095227835
   305   6421   0   2   -0.25066354
   305   6321   0   2   -0.0026971898
   3051111   4133   0   0    1.5968491
   3051111   4133   0   2    1.5976613
   3051111   4233   0   2   -0.0002891327
   3051111   4137   0   0   -4.4195412
   3051111   4137   0   2   -4.4162965
   3051111   4237   0   2    0.0022404275
   3051313   4133   0   0    1.5968491
   3051313   4133   0   2    1.5976599
   3051313   4233   0   2   -0.00028932377
   3051313   4137   0   0   -4.4195412
   3051313   4137   0   2   -4.4162979
   3051313   4237   0   2    0.0022406178
   3051212   4137   0   0    1.5053501
   3051212   4137   0   2    1.5046518
   3051212   4237   0   2   -0.00048774482
   3051414   4137   0   0    1.5053501
   3051414   4137   0   2    1.5046518
   3051414   4237   0   2   -0.0004877032
   3051616   4137   0   0    1.5053501
   3051616   4137   0   2    1.5046525
   3051616   4237   0   2   -0.00047597649

BLOCK IMFWCOEF Q=  160
   305   4422   0   0    3.8575714e-07
   305   4422   0   2    1.2394131e-05
   305   4322   0   2   -4.8134149e-06
   305   6421   0   0    3.304265e-07
   305   6421   0   2    1.7857546e-05
   305   6321   0   2   -1.8113703e-06
   3051111   4133   0   2   -2.1676291e-06
   3051111   4233   0   2    3.2762325e-06
   3051111   4137   0   2    1.7979591e-05
   3051111   4237   0   2   -2.5306714e-05
   3051313   4133   0   2   -2.16762e-06
   3051313   4233   0   2    3.276228e-06
   3051313   4137   0   2    1.7979608e-05
   3051313   4237   0   2   -2.5306728e-05
   3051212   4137   0   2   -3.763855e-06
   3051212   4237   0   2    5.5090504e-06
   3051414   4137   0   2   -3.7638549e-06
   3051414   4237   0   2    5.5090504e-06
   3051616   4137   0   2   -3.7654095e-06
   3051616   4237   0   2    5.5090306e-06

DECAY 23  2.4952


DECAY 24  2.085


DECAY 1000011  8.6776564
    0.49186018   2   -1000037    12
    0.24711094   2    1000022    11
    0.24359298   2    1000035    11
    0.011242115   2    1000023    11
    0.0061805365   2   -1000024    12

DECAY 2000011  9.6516542
    0.9953174   2    1000022    11
    0.0026541395   2    1000023    11
    0.0020232791   2    1000025    11

DECAY 1000013  8.6866029
    0.49134425   2   -1000037    14
    0.246863   2    1000022    13
    0.24333818   2    1000035    13
    0.011750821   2    1000023    13
    0.0061741313   2   -1000024    14
    0.00052961678   2    1000025    13

DECAY 2000013  9.6730884
    0.99311415   2    1000022    13
    0.0031982865   2    1000023    13
    0.0025655853   2    1000025    13
    0.0011034214   2   -1000024    14

DECAY 1000015  1.5403027
    1   2    1000022    15

DECAY 2000015  4.9965439
    0.25364114   2    1000022    15
    0.21822257   2    1000015    36
    0.2148102   2    1000015    35
    0.090395304   2    1000023    15
    0.083464682   2    1000025    15
    0.070001718   2    1000015    23
    0.067505455   2    1000015    25
    0.0019589316   2   -1000024    16

DECAY 1000012  8.7014221
    0.48176629   2    1000037    11
    0.24691027   2    1000022    12
    0.24341873   2    1000035    12
    0.022558433   2    1000024    11
    0.0031174665   2    1000023    12
    0.0022288157   2    1000025    12

DECAY 1000014  8.710373
    0.48126571   2    1000037    13
    0.24665569   2    1000022    14
    0.2431648   2    1000035    14
    0.023573034   2    1000024    13
    0.0031142466   2    1000023    14
    0.0022265136   2    1000025    14

DECAY 1000016  5.0237482
    0.42864723   2    1000015    37
    0.25054104   2    1000022    16
    0.17947465   2    1000024    15
    0.13832364   2    1000015    24
    0.0017696415   2    1000023    16
    0.0012438086   2    1000025    16

DECAY 2000001  142.77217
    0.98034483   2    1000021    1
    0.019545775   2    1000022    1

DECAY 1000001  201.17335
    0.7008126   2    1000021    1
    0.19612618   2   -1000037    2
    0.097596325   2    1000035    1
    0.0034913483   2    1000022    1
    0.00097274199   2   -1000024    2
    0.00083091441   2    1000023    1
    0.00016988414   2    1000025    1

DECAY 2000003  142.79072
    0.98021904   2    1000021    3
    0.019543619   2    1000022    3

DECAY 1000003  201.18458
    0.70077471   2    1000021    3
    0.19611549   2   -1000037    4
    0.097591024   2    1000035    3
    0.0034914215   2    1000022    3
    0.00098133176   2   -1000024    4
    0.00085353188   2    1000023    3
    0.00019248887   2    1000025    3

DECAY 1000005  9.1725357
    0.44341889   2   -1000024    6
    0.23818492   2    1000023    5
    0.23204521   2    1000025    5
    0.086348224   2    1000022    5

DECAY 2000005  40.621983
    0.6253234   2   -1000024    6
    0.10237621   2   -1000037    6
    0.082194624   2    1000023    5
    0.081774119   2    1000025    5
    0.048257486   2    1000035    5
    0.037542599   2    1000006   -24
    0.0063757418   2    1000022    5
    0.0050306783   2    1000005    25
    0.0037774002   2    1000005    36
    0.0036874518   2    1000005    35
    0.0036602941   2    1000005    23

DECAY 2000002  151.32774
    0.92580655   2    1000021    2
    0.073781824   2    1000022    2
    0.00023267765   2    1000023    2
    0.0001780728   2    1000025    2

DECAY 1000002  201.16709
    0.70060309   2    1000021    2
    0.19372786   2    1000037    1
    0.097335555   2    1000035    2
    0.0035669923   2    1000024    1
    0.0034577981   2    1000022    2
    0.001256288   2    1000023    2

DECAY 2000004  151.33127
    0.92578495   2    1000021    4
    0.073780102   2    1000022    4
    0.00023840017   2    1000023    4
    0.00018392028   2    1000025    4

DECAY 1000004  201.17819
    0.70056508   2    1000021    4
    0.19371747   2    1000037    3
    0.097330258   2    1000035    4
    0.0036122316   2    1000024    3
    0.0034576084   2    1000022    4
    0.0012605484   2    1000023    4

DECAY 1000006  34.993659
    0.29827407   2    1000024    5
    0.28725697   2    1000025    6
    0.28402644   2    1000023    6
    0.065002175   2    1000037    5
    0.037770466   2    1000022    6
    0.025580339   2    1000035    6
    0.0018822314   2    1000005    24
    0.00020329573   3    1000022    24    5

DECAY 2000006  81.704812
    0.30510041   2    1000024    5
    0.20423309   2    1000025    6
    0.20224268   2    1000023    6
    0.12754052   2    1000006    23
    0.084538372   2    2000005    24
    0.03372128   2    1000022    6
    0.01753742   2    1000006    25
    0.013939787   2    1000037    5
    0.0064256934   2    1000035    6
    0.0040257181   2    1000005    24
    0.00069503208   2    1000005    37

DECAY 1000024  0.87024484
    0.44655487   2    1000022    24
    0.33706855   2   -1000015    16
    0.21361044   2    37    1000022
    0.0027624338   3    1000022   -5    6

DECAY 1000037  17.838726
    0.1413319   2    1000023    24
    0.13571057   2    1000024    25
    0.13393654   2    1000024    23
    0.13361145   2    1000025    24
    0.11245259   2    37    1000023
    0.10170415   2    1000024    36
    0.097901879   2    37    1000025
    0.097082109   2    1000024    35
    0.020440577   2    1000016   -15
    0.019771704   2   -2000015    16
    0.0018467325   3    1000025   -5    6
    0.0017982099   3    1000023   -5    6
    0.0011211133   3    1000024    6   -6
    0.00062115342   2    1000022    24
    0.00061722521   2    37    1000022

DECAY 1000022 -1


DECAY 1000023  0.85445599
    0.22442258   2    1000022    25
    0.19786262   2    1000022    23
    0.1746852   2    1000015   -15
    0.1746852   2   -1000015    15
    0.11604903   2    1000022    35
    0.11174159   2    1000022    36
    0.00053335333   3    1000022    6   -6

DECAY 1000025  0.88999822
    0.2550821   2    1000022    23
    0.18755329   2    1000022    25
    0.16809575   2    1000015   -15
    0.16809575   2   -1000015    15
    0.12878109   2    1000022    35
    0.091929577   2    1000022    36
    0.00045223054   3    1000022    6   -6

DECAY 1000035  20.217705
    0.12464955   2    1000024   -24
    0.12464955   2   -1000024    24
    0.11269492   2    1000025    23
    0.10907757   2    1000023    25
    0.097737785   2    37   -1000024
    0.097737785   2   -37    1000024
    0.094580713   2    1000025    35
    0.093914504   2    1000025    25
    0.078884332   2    1000023    35
    0.010996403   2    1000023    23
    0.0090923551   2    1000016   -16
    0.0090923551   2   -1000016    16
    0.008636938   2    2000015   -15
    0.008636938   2   -2000015    15
    0.0077359766   2    1000023    36
    0.0066127904   2    1000025    36
    0.0017667401   3    1000024    5   -6
    0.0017667401   3   -1000024   -5    6
    0.00032487791   3    1000025    6   -6
    0.00030636189   2    1000022    35
    0.0002997489   3    1000023    6   -6
    0.00026951363   2    1000022    23
    0.00024962388   2    1000022    36
    0.00022298818   2    1000022    25

DECAY 1000021  209.24737
    0.1560187   2    1000005   -5
    0.1560187   2   -1000005    5
    0.11811863   2    2000005   -5
    0.11811863   2   -2000005    5
    0.11356789   2    2000006   -6
    0.11356789   2   -2000006    6
    0.11213982   2    1000006   -6
    0.11213982   2   -1000006    6

DECAY 25  0.0058261092
    0.69856958   2   -5    5
    0.13661028   2   -24    24
    0.078942629   2   -15    15
    0.045315866   2    21    21
    0.018673277   2   -4    4
    0.016206089   2    23    23
    0.0027303225   2    1000022    1000022
    0.001514172   2    22    22
    0.0009101958   2    22    23
    0.00027092734   2   -13    13
    0.00025584745   2   -3    3
    7.0740178e-07   2   -1    1
    9.622959e-08   2   -2    2
    6.0907631e-09   2   -11    11

DECAY 35  6.2669509
    0.88662469   2   -5    5
    0.11090619   2   -15    15
    0.00071452466   2    25    25
    0.00060102387   2    1000022    1000022
    0.00036995646   2   -13    13
    0.00031444144   2    21    21
    0.00030275858   2   -3    3
    0.00011411174   2   -24    24
    5.1123945e-05   2    23    23
    8.371268e-07   2   -1    1
    2.1866851e-07   2    22    22
    5.9182104e-08   2    22    23
    5.7415415e-08   2   -4    4
    8.3147922e-09   2   -11    11
    2.9616359e-13   2   -2    2

DECAY 36  6.2324954
    0.88740255   2   -5    5
    0.11098854   2   -15    15
    0.00062158043   2    1000022    1000022
    0.00037017702   2   -13    13
    0.00030294577   2   -3    3
    0.00025245482   2    21    21
    6.0770698e-05   2    23    25
    8.3764429e-07   2   -1    1
    9.198125e-08   2    22    22
    3.0415265e-08   2   -4    4
    1.4029616e-08   2    22    23
    8.3197455e-09   2   -11    11
    1.5675933e-13   2   -2    2
    8.4044811e-36   2    25    25

DECAY 37  3.1815757
    0.80090554   2   -5    6
    0.19535428   2   -15    16
    0.0022916557   2   -5    4
    0.00069068923   2   -13    14
    0.00054179109   2   -3    4
    0.00016878252   2    24    25
    2.4583543e-05   2   -3    2
    1.6365298e-05   2   -5    2
    4.2132455e-06   2   -3    6
    1.5035815e-06   2   -1    2
    1.7540295e-07   2   -1    6
    1.7085689e-07   2    24    36
    1.6685846e-07   2    24    35
    7.1223588e-08   2   -1    4
    1.6155297e-08   2   -11    12

DECAY 6  2.43
    1   2    5    24

DECAY 15 -1
