BLOCK SPINFO
   1   SPheno
   2   v4.0.5be

BLOCK SPHENOINFO
   1   2
   2   2

BLOCK MODSEL
   1   0

BLOCK MINPAR
   3    25.467141
   4   -1

BLOCK EXTPAR
   0    1334.3615
   1    147.31928
   2   -839.27741
   3    3000
   11    4659.298
   12   -624.51173
   13   -549.69597
   23   -150.77981
   25    24.589742
   26    542.6536
   31    1162.4134
   32    1162.4134
   33    666.22872
   34    922.22808
   35    922.22808
   36    817.68999
   41    5000
   42    5000
   43    1910.7716
   44    5000
   45    5000
   46    1130.0162
   47    5000
   48    5000
   49    1311.491

BLOCK SMINPUTS
   1    127.90897
   2    1.1663787e-05
   3    0.1184
   4    91.1876
   5    4.18
   6    173.2
   7    1.777
   8    0
   11    0.00051099893
   12    0
   13    0.10565837
   14    0
   21    0.005
   22    0.0025
   23    0.095
   24    1.27

BLOCK GAUGE Q=  1334.3615
   1    0.35536298
   2    0.66519887
   3    1.219778

BLOCK YU Q=  1334.3615
   1   1    8.3913024e-06
   2   2    0.0042627817
   3   3    1.0137367

BLOCK YD Q=  1334.3615
   1   1    0.00041463275
   2   2    0.0078780223
   3   3    0.41118576

BLOCK YE Q=  1334.3615
   1   1    7.2356447e-05
   2   2    0.014961018
   3   3    0.25161972

BLOCK AU Q=  1334.3615
   1   1    0
   2   2    0
   3   3    4659.2981

BLOCK AD Q=  1334.3615
   1   1    0
   2   2    0
   3   3   -624.51173

BLOCK AE Q=  1334.3615
   1   1    0
   2   2    0
   3   3   -549.69597

BLOCK MSOFT Q=  1334.3615
   1    147.31928
   2   -839.27741
   3    3000
   21    273034.62
   22    27501.606
   31    1162.4134
   32    1162.4134
   33    666.22872
   34    922.22808
   35    922.22808
   36    817.68999
   41    5000
   42    5000
   43    1910.7716
   44    5000
   45    5000
   46    1130.0162
   47    5000
   48    5000
   49    1311.491

BLOCK MASS
   6    173.2
   23    91.1876
   24    80.429995
   15    1.777
   25    121.76485
   35    542.70587
   36    542.6536
   37    549.43319
   1000001    5025.3666
   2000001    5015.4516
   1000002    5024.9508
   2000002    5016.8255
   1000003    5025.3685
   2000003    5015.4545
   1000004    5024.9528
   2000004    5016.8263
   1000005    1303.6488
   2000005    1858.4944
   1000006    929.75114
   2000006    1915.0507
   1000011    1169.6458
   2000011    924.59181
   1000012    1166.6845
   1000013    1169.6422
   2000013    924.58317
   1000014    1166.6808
   1000015    677.65007
   2000015    817.84931
   1000016    672.99095
   1000021    3185.0929
   1000022    123.55469
   1000023   -153.54373
   1000025    185.31514
   1000035   -881.64231
   1000024    153.56149
   1000037    881.84034

BLOCK ALPHA
      -0.042904004

BLOCK HMIX Q=  1334.3615
   1   -150.77981
   2    24.589742
   3    244.08737
   4    294472.93

BLOCK STOPMIX
   1   1   -0.26795889
   1   2    0.96343035
   2   1   -0.96343035
   2   2   -0.26795889

BLOCK SBOTMIX
   1   1   -0.0041531211
   1   2    0.99999138
   2   1   -0.99999138
   2   2   -0.0041531211

BLOCK STAUMIX
   1   1   -0.99962428
   1   2    0.027409902
   2   1   -0.027409902
   2   2   -0.99962428

BLOCK NMIX
   1   1    0.7486055
   1   2    0.031138261
   1   3   -0.52204686
   1   4   -0.40753809
   2   1    0.10837862
   2   2    0.080532419
   2   3    0.70429341
   2   4   -0.69695006
   3   1    0.65408473
   3   2   -0.042698746
   3   3    0.48066264
   3   4    0.58250615
   4   1    0.0041288671
   4   2   -0.99535007
   4   3    0.020032278
   4   4   -0.094127068

BLOCK UMIX
   1   1   -0.02837637
   1   2   -0.99959731
   2   1   -0.99959731
   2   2    0.02837637

BLOCK VMIX
   1   1    0.1335056
   1   2    0.99104806
   2   1    0.99104806
   2   2   -0.1335056

BLOCK HIGGSBOUNDSINPUTHIGGSCOUPLINGSFERMIONS
       0, 604.65544,3,36,15,15

BLOCK HIGGSBOUNDSINPUTHIGGSCOUPLINGSBOSONS
       0,4,36,21,21,23

BLOCK SPHENOLOWENERGY
   1    0.00035299234
   2    1.5881557e-06
   3    3.5262225e-05
   4    4.2744538e-15
   5    1.8259231e-10
   6    3.7786596e-08
   7    1.4609635e-13
   8    6.2409757e-09
   9    1.3086566e-06
   10    8.6133652e-05
   11    0.88972765
   12    0.54306803
   13    19.368716
   14    0
   15    0
   16    0.0021621843
   17    2.2817213e-15
   18    2.4798067e-11
   19    8.2902216e-11
   20    5.1013837e-15
   21    2.1809582e-10
   22    6.1523274e-08
   23    0
   24    0
   25    0
   26    0
   27    0
   28    0
   29    0
   30    0
   31    0
   39    7.4154535e-05
   40    0
   41    0
   42    0

BLOCK FWCOEF Q=  160
   305   4422   0   0   -0.18881911
   305   4422   0   2   -0.21594252
   305   4322   0   2   -0.0011324738
   305   6421   0   0   -0.095227835
   305   6421   0   2   -0.15155039
   305   6321   0   2   -0.0014235108
   3051111   4133   0   0    1.5877649
   3051111   4133   0   2    1.5894575
   3051111   4233   0   2   -6.3609779e-05
   3051111   4137   0   0   -4.410457
   3051111   4137   0   2   -4.4096539
   3051111   4237   0   2    0.00050123284
   3051313   4133   0   0    1.5877649
   3051313   4133   0   2    1.5894556
   3051313   4233   0   2   -6.3625506e-05
   3051313   4137   0   0   -4.410457
   3051313   4137   0   2   -4.4096558
   3051313   4237   0   2    0.00050124794
   3051212   4137   0   0    1.5053501
   3051212   4137   0   2    1.5051896
   3051212   4237   0   2   -0.00010935573
   3051414   4137   0   0    1.5053501
   3051414   4137   0   2    1.5051896
   3051414   4237   0   2   -0.00010935233
   3051616   4137   0   0    1.5053501
   3051616   4137   0   2    1.5051896
   3051616   4237   0   2   -0.00010839595

BLOCK IMFWCOEF Q=  160
   305   4422   0   0    3.8584359e-07
   305   4422   0   2    1.1659367e-05
   305   4322   0   2    5.6018973e-06
   305   6421   0   0    3.3050055e-07
   305   6421   0   2    1.0606748e-05
   305   6321   0   2    2.532512e-06
   3051111   4133   0   2   -7.5362251e-07
   3051111   4233   0   2    1.9147236e-06
   3051111   4137   0   2    6.4020824e-06
   3051111   4237   0   2   -1.4991008e-05
   3051313   4133   0   2   -7.5364718e-07
   3051313   4233   0   2    1.9147207e-06
   3051313   4137   0   2    6.4020622e-06
   3051313   4237   0   2   -1.4991017e-05
   3051212   4137   0   2   -1.1601654e-06
   3051212   4237   0   2    3.2699833e-06
   3051414   4137   0   2   -1.1601653e-06
   3051414   4237   0   2    3.2699833e-06
   3051616   4137   0   2   -1.1594332e-06
   3051616   4237   0   2    3.2699657e-06

DECAY 23  2.4952


DECAY 24  2.085


DECAY 2000011  4.3940543
    0.57153685   2    1000022    11
    0.41671979   2    1000025    11
    0.011743193   2    1000023    11

DECAY 1000011  4.362189
    0.43928969   2   -1000037    12
    0.21707469   2    1000035    11
    0.21442694   2    1000022    11
    0.1055297   2    1000025    11
    0.021843303   2    1000023    11
    0.0018356697   2   -1000024    12

DECAY 2000013  4.4017868
    0.57077373   2    1000022    13
    0.41618141   2    1000025    13
    0.012160973   2    1000023    13
    0.00088373674   2   -1000024    14

DECAY 1000013  4.3671704
    0.43878017   2   -1000037    14
    0.2168229   2    1000035    13
    0.21449915   2    1000022    13
    0.10567116   2    1000025    13
    0.022389838   2    1000023    13
    0.0018335698   2   -1000024    14

DECAY 1000015  1.5897436
    0.4726311   2    1000022    15
    0.27304651   2    1000023    15
    0.24925703   2    1000025    15
    0.0050653528   2   -1000024    16

DECAY 2000015  5.7409584
    0.42633483   2    1000022    15
    0.31565122   2    1000025    15
    0.16606119   2   -1000024    16
    0.090349558   2    1000023    15
    0.00093906578   2    1000016   -24
    0.00033746991   2    1000015    25
    0.00032667088   2    1000015    23

DECAY 1000012  4.4063893
    0.4207039   2    1000037    11
    0.21337876   2    1000035    12
    0.17026512   2    1000025    12
    0.15495914   2    1000022    12
    0.040116524   2    1000024    11
    0.00057654424   2    1000023    12

DECAY 1000014  4.4113403
    0.42022361   2    1000037    13
    0.213135   2    1000035    14
    0.17007344   2    1000025    14
    0.15478472   2    1000022    14
    0.04120734   2    1000024    13
    0.00057589522   2    1000023    14

DECAY 1000016  1.6218195
    0.52735746   2    1000024    15
    0.23986526   2    1000025    16
    0.23193644   2    1000022    16
    0.00084083933   2    1000023    16

DECAY 2000001  143.75236
    0.98055763   2    1000021    1
    0.010902776   2    1000022    1
    0.0083107434   2    1000025    1
    0.00022842421   2    1000023    1

DECAY 1000001  205.03647
    0.69250966   2    1000021    1
    0.20251328   2   -1000037    2
    0.10054924   2    1000035    1
    0.0027258681   2    1000025    1
    0.0011247554   2    1000022    1
    0.00040378023   2    1000023    1
    0.0001734092   2   -1000024    2

DECAY 2000003  143.76499
    0.98047358   2    1000021    3
    0.010913518   2    1000022    3
    0.0083199135   2    1000025    3
    0.00024967107   2    1000023    3

DECAY 1000003  205.04469
    0.6924829   2    1000021    3
    0.2025054   2   -1000037    4
    0.10054527   2    1000035    3
    0.0027327121   2    1000025    3
    0.0011329256   2    1000022    3
    0.00041870549   2    1000023    3
    0.0001820868   2   -1000024    4

DECAY 1000005  9.0771035
    0.45238685   2   -1000024    6
    0.23398022   2    1000023    5
    0.17439169   2    1000022    5
    0.13912863   2    1000025    5

DECAY 2000005  188.49262
    0.69239135   2    1000006   -24
    0.19181334   2   -1000024    6
    0.055046889   2   -1000037    6
    0.02586778   2    1000035    5
    0.016383314   2    1000023    5
    0.0093487365   2    1000022    5
    0.0086438368   2    1000025    5
    0.00019887453   2    1000005    36
    0.00019859734   2    1000005    35

DECAY 2000002  152.28296
    0.92656772   2    1000021    2
    0.041179274   2    1000022    2
    0.031389306   2    1000025    2
    0.00086252739   2    1000023    2

DECAY 1000002  205.03597
    0.69230017   2    1000021    2
    0.19904595   2    1000037    1
    0.10024348   2    1000035    2
    0.0038382365   2    1000024    1
    0.0029135434   2    1000022    2
    0.0010730778   2    1000023    2
    0.00058554224   2    1000025    2

DECAY 2000004  152.28661
    0.92654572   2    1000021    4
    0.041180256   2    1000022    4
    0.031392599   2    1000025    4
    0.00086827824   2    1000023    4

DECAY 1000004  205.04412
    0.69227334   2    1000021    4
    0.19903815   2    1000037    3
    0.10023959   2    1000035    4
    0.0038681778   2    1000024    3
    0.0029148997   2    1000022    4
    0.001077333   2    1000023    4
    0.00058851528   2    1000025    4

DECAY 1000006  36.560245
    0.4764249   2    1000024    5
    0.23028581   2    1000023    6
    0.20855003   2    1000025    6
    0.084727168   2    1000022    6

DECAY 2000006  195.04911
    0.3592666   2    1000006    23
    0.33131189   2    1000006    25
    0.093776655   2    1000023    6
    0.055333087   2    1000025    6
    0.054687878   2    1000037    5
    0.041410198   2    1000022    6
    0.036749586   2    1000024    5
    0.026691648   2    1000035    6
    0.0006568124   2    1000005    37

DECAY 1000024  1.243876e-05
    0.33486668   3    1000022   -1    2
    0.33203282   3    1000022   -3    4
    0.1115858   3    1000022   -13    14
    0.11158552   3    1000022   -11    12
    0.10992918   3    1000022   -15    16

DECAY 1000037  11.77485
    0.16682068   2    1000023    24
    0.16452848   2    1000024    23
    0.15936928   2    1000024    25
    0.09975997   2    1000025    24
    0.066596245   2    1000022    24
    0.059545769   2    37    1000023
    0.056448012   2    1000016   -15
    0.055737042   2    1000024    36
    0.055181689   2    1000024    35
    0.055154555   2   -1000015    16
    0.030037435   2    37    1000022
    0.024287813   2    37    1000025
    0.0022495223   3    1000023   -5    6
    0.001849173   3    1000024    6   -6
    0.0014185024   3    1000025   -5    6
    0.000980041   3    1000022   -5    6

DECAY 1000022 -1


DECAY 1000023  2.8966144e-05
    0.20418752   3    1000022    12   -12
    0.15271878   3    1000022    1   -1
    0.15270182   3    1000022    3   -3
    0.12364738   3    1000022    5   -5
    0.11910996   3    1000022    2   -2
    0.11639454   3    1000022    4   -4
    0.034369787   3    1000022    11   -11
    0.034364251   3    1000022    13   -13
    0.032894372   3    1000022    15   -15
    0.029611577   2    1000022    22

DECAY 1000025  9.9073591e-05
    0.10997509   3    1000023    12   -12
    0.082221629   3    1000023    1   -1
    0.082213548   3    1000023    3   -3
    0.075735041   3    1000024    1   -2
    0.075735041   3   -1000024   -1    2
    0.075167875   3    1000024    3   -4
    0.075167875   3   -1000024   -3    4
    0.068179428   3    1000023    5   -5
    0.064124666   3    1000023    2   -2
    0.062824952   3    1000023    4   -4
    0.025256343   3    1000024    11   -12
    0.025256343   3   -1000024   -11    12
    0.025256312   3    1000024    13   -14
    0.025256312   3   -1000024   -13    14
    0.024931426   3    1000024    15   -16
    0.024931426   3   -1000024   -15    16
    0.018591825   3    1000023    11   -11
    0.018589143   3    1000023    13   -13
    0.017933005   3    1000023    15   -15
    0.015617276   2    1000023    22
    0.001320179   3    1000022    12   -12
    0.0013134905   2    1000022    22
    0.00092499196   3    1000022    5   -5
    0.00086725597   3    1000022    1   -1
    0.00086724179   3    1000022    3   -3
    0.00067968235   3    1000022    2   -2
    0.0006765927   3    1000022    4   -4
    0.00014236358   3    1000022    15   -15
    0.00012187395   3    1000022    13   -13
    0.00012177218   3    1000022    11   -11

DECAY 1000035  12.54827
    0.15899891   2    1000024   -24
    0.15899891   2   -1000024    24
    0.10420982   2    1000023    25
    0.068364359   2    1000025    23
    0.057108841   2    1000025    25
    0.055188017   2    37   -1000024
    0.055188017   2   -37    1000024
    0.045426545   2    1000023    23
    0.042091219   2    1000022    23
    0.038397635   2    1000023    35
    0.033369719   2    1000022    25
    0.026796914   2    1000016   -16
    0.026796914   2   -1000016    16
    0.02551315   2    1000015   -15
    0.02551315   2   -1000015    15
    0.023208543   2    1000022    35
    0.022533624   2    1000025    35
    0.013742527   2    1000023    36
    0.0078717764   2    1000022    36
    0.0042203205   2    1000025    36
    0.0024705199   3    1000024    5   -6
    0.0024705199   3   -1000024   -5    6
    0.00073061   3    1000023    6   -6
    0.00038943806   3    1000025    6   -6
    0.00032430818   3    1000022    6   -6

DECAY 1000021  224.93989
    0.18598758   2    1000006   -6
    0.18598758   2   -1000006    6
    0.14523517   2    1000005   -5
    0.14523517   2   -1000005    5
    0.091153104   2    2000005   -5
    0.091153104   2   -2000005    5
    0.077539505   2    2000006   -6
    0.077539505   2   -2000006    6

DECAY 25  0.003997089
    0.65982178   2   -5    5
    0.15600457   2   -24    24
    0.07485491   2   -15    15
    0.061026728   2    21    21
    0.026938068   2   -4    4
    0.017692563   2    23    23
    0.0020812848   2    22    22
    0.0010753391   2    22    23
    0.00025913762   2   -13    13
    0.0002447974   2   -3    3
    6.7683466e-07   2   -1    1
    1.388277e-07   2   -2    2
    5.8257478e-09   2   -11    11

DECAY 35  7.2427223
    0.81971344   2   -5    5
    0.10765571   2   -15    15
    0.016910875   2    1000022    1000023
    0.016774791   2    1000022    1000022
    0.0166266   2    1000023    1000025
    0.0098974377   2    1000025    1000025
    0.0068207758   2   -1000024    1000024
    0.0035137976   2   -6    6
    0.00057503663   2    1000022    1000025
    0.00048054775   2    25    25
    0.00036597975   2   -13    13
    0.00027086425   2   -3    3
    0.00013098891   2    21    21
    0.00012742446   2    1000023    1000023
    9.0777774e-05   2   -24    24
    4.3653945e-05   2    23    23
    7.4884368e-07   2   -1    1
    2.6627625e-07   2    22    22
    1.9139636e-07   2    22    23
    8.5507888e-08   2   -4    4
    8.2239994e-09   2   -11    11
    4.4099873e-13   2   -2    2

DECAY 36  7.1886713
    0.81492931   2   -5    5
    0.10702086   2   -15    15
    0.018639132   2    1000022    1000022
    0.014804124   2    1000022    1000023
    0.014779624   2    1000025    1000025
    0.012656219   2    1000023    1000025
    0.010177003   2   -1000024    1000024
    0.005003907   2   -6    6
    0.0008876652   2    1000022    1000025
    0.00036380511   2   -13    13
    0.00026925722   2   -3    3
    0.00021653498   2    1000023    1000023
    0.0001753523   2    21    21
    7.5586761e-05   2    23    25
    7.4440064e-07   2   -1    1
    5.2492152e-07   2    22    22
    2.6987701e-07   2    22    23
    7.0884053e-08   2   -4    4
    8.1751318e-09   2   -11    11
    3.6554764e-13   2   -2    2
    4.6219398e-37   2    25    25

DECAY 37  5.7477271
    0.78924456   2   -5    6
    0.12398398   2   -15    16
    0.058068056   2    1000022    1000024
    0.023005826   2    1000024    1000025
    0.0034326472   2    1000023    1000024
    0.0013922351   2   -5    4
    0.00043833646   2   -13    14
    0.00029980968   2   -3    4
    0.00010100243   2    24    25
    1.3723652e-05   2   -3    2
    9.9420977e-06   2   -5    2
    8.6144434e-06   2   -3    6
    8.3155323e-07   2   -1    2
    3.7886913e-07   2   -1    6
    4.2204224e-08   2   -1    4
    1.0252736e-08   2   -11    12
    3.3450355e-09   2    24    36
    3.2182859e-09   2    24    35

DECAY 6  2.43
    1   2    5    24

DECAY 15 -1
