BLOCK SPINFO
   1   SPheno
   2   v4.0.5be

BLOCK SPHENOINFO
   1   2
   2   2

BLOCK MODSEL
   1   0

BLOCK MINPAR
   3    52.067417
   4   -1

BLOCK EXTPAR
   0    1653.4418
   1   -21.33057
   2    114.69298
   3    3000
   11   -3334.9356
   12    500.27473
   13    1145.2427
   23   -453.32547
   25    51.873555
   26    605.79191
   31    1857.2725
   32    1857.2725
   33    1092.7428
   34    456.40094
   35    456.40094
   36    1825.1746
   41    5000
   42    5000
   43    1889.3803
   44    5000
   45    5000
   46    1491.6875
   47    5000
   48    5000
   49    1325.8192

BLOCK SMINPUTS
   1    127.90897
   2    1.1663787e-05
   3    0.1184
   4    91.1876
   5    4.18
   6    173.2
   7    1.777
   8    0
   11    0.00051099893
   12    0
   13    0.10565837
   14    0
   21    0.005
   22    0.0025
   23    0.095
   24    1.27

BLOCK GAUGE Q=  1653.4418
   1    0.35536298
   2    0.66519887
   3    1.219778

BLOCK YU Q=  1653.4418
   1   1    8.3859299e-06
   2   2    0.0042600524
   3   3    1.0130877

BLOCK YD Q=  1653.4418
   1   1    0.00087413294
   2   2    0.016608526
   3   3    0.86686596

BLOCK YE Q=  1653.4418
   1   1    0.00015254259
   2   2    0.03154097
   3   3    0.53046722

BLOCK AU Q=  1653.4418
   1   1    0
   2   2    0
   3   3   -3334.9356

BLOCK AD Q=  1653.4418
   1   1    0
   2   2    0
   3   3    500.27477

BLOCK AE Q=  1653.4418
   1   1    0
   2   2    0
   3   3    1145.2427

BLOCK MSOFT Q=  1653.4418
   1   -21.33057
   2    114.69298
   3    3000
   21    239585.1
   22   -159335.55
   31    1857.2725
   32    1857.2725
   33    1092.7428
   34    456.40094
   35    456.40094
   36    1825.1746
   41    5000
   42    5000
   43    1889.3803
   44    5000
   45    5000
   46    1491.6875
   47    5000
   48    5000
   49    1325.8192

BLOCK MASS
   6    173.2
   23    91.1876
   24    80.429995
   15    1.777
   25    125.28134
   35    605.47446
   36    605.79191
   37    614.62377
   1000001    5035.936
   2000001    5024.922
   1000002    5035.4779
   2000002    5025.9775
   1000003    5035.9419
   2000003    5024.93
   1000004    5035.4828
   2000004    5025.9781
   1000005    1336.8835
   2000005    1884.0348
   1000006    1419.4682
   2000006    1925.9818
   1000011    1860.6943
   2000011    463.19439
   1000012    1858.6149
   1000013    1860.6808
   2000013    463.14189
   1000014    1858.6009
   1000015    1087.7793
   2000015    1815.3101
   1000016    1085.4016
   1000021    3200.2213
   1000022   -20.819771
   1000023    122.07594
   1000025   -465.36214
   1000035    468.00615
   1000024    122.30602
   1000037    472.36636

BLOCK ALPHA
      -0.020449665

BLOCK HMIX Q=  1653.4418
   1   -453.32547
   2    51.873555
   3    243.88641
   4    366983.84

BLOCK STOPMIX
   1   1    0.29458148
   1   2    0.95562636
   2   1   -0.95562636
   2   2    0.29458148

BLOCK SBOTMIX
   1   1   -0.03295422
   1   2    0.99945686
   2   1   -0.99945686
   2   2   -0.03295422

BLOCK STAUMIX
   1   1   -0.99979159
   1   2    0.020414967
   2   1   -0.020414967
   2   2   -0.99979159

BLOCK NMIX
   1   1   -0.99529039
   1   2   -0.0042904192
   1   3    0.096654044
   1   4   -0.0060527438
   2   1   -0.013316818
   2   2   -0.98188215
   2   3   -0.1835441
   2   4   -0.045184834
   3   1    0.072288963
   3   2   -0.098451224
   3   3    0.69569256
   3   4   -0.7078796
   4   1   -0.063198226
   4   2    0.16185299
   4   3   -0.68773645
   4   4   -0.70486039

BLOCK UMIX
   1   1   -0.96632195
   1   2   -0.25733614
   2   1    0.25733614
   2   2   -0.96632195

BLOCK VMIX
   1   1   -0.99799419
   1   2    0.06330555
   2   1    0.06330555
   2   2    0.99799419

BLOCK HIGGSBOUNDSINPUTHIGGSCOUPLINGSFERMIONS
       0, 2690.8657,3,36,15,15

BLOCK HIGGSBOUNDSINPUTHIGGSCOUPLINGSBOSONS
       0,4,36,21,21,23

BLOCK SPHENOLOWENERGY
   1    0.00045356586
   2    1.5940946e-06
   3    3.5225698e-05
   4    1.1112518e-14
   5    4.7406128e-10
   6    6.1636436e-08
   7    3.7162047e-13
   8    1.585438e-08
   9    2.1236666e-06
   10    5.0982805e-05
   11    0.52663286
   12    0.54253214
   13    19.101386
   14    0
   15    0
   16    0.0021653054
   17    2.281786e-15
   18    2.4781612e-11
   19    8.2858968e-11
   20   -5.4785328e-15
   21   -2.342434e-10
   22   -1.41767e-07
   23    0
   24    0
   25    0
   26    0
   27    0
   28    0
   29    0
   30    0
   31    0
   39    8.312159e-05
   40    0
   41    0
   42    0

BLOCK FWCOEF Q=  160
   305   4422   0   0   -0.18881911
   305   4422   0   2   -0.32430669
   305   4322   0   2   -0.0017839508
   305   6421   0   0   -0.095227835
   305   6421   0   2   -0.19948026
   305   6321   0   2   -0.0015767812
   3051111   4133   0   0    1.5962047
   3051111   4133   0   2    1.5971983
   3051111   4233   0   2   -0.00019052921
   3051111   4137   0   0   -4.4188968
   3051111   4137   0   2   -4.4144486
   3051111   4237   0   2    0.0014812687
   3051313   4133   0   0    1.5962047
   3051313   4133   0   2    1.5971943
   3051313   4233   0   2   -0.00019072489
   3051313   4137   0   0   -4.4188968
   3051313   4137   0   2   -4.4144525
   3051313   4237   0   2    0.0014814545
   3051212   4137   0   0    1.5053501
   3051212   4137   0   2    1.5044006
   3051212   4237   0   2   -0.00032253819
   3051414   4137   0   0    1.5053501
   3051414   4137   0   2    1.5044006
   3051414   4237   0   2   -0.00032249624
   3051616   4137   0   0    1.5053501
   3051616   4137   0   2    1.504403
   3051616   4237   0   2   -0.00031067585

BLOCK IMFWCOEF Q=  160
   305   4422   0   0    3.8572129e-07
   305   4422   0   2   -2.3590543e-05
   305   4322   0   2   -9.5486735e-06
   305   6421   0   0    3.3039579e-07
   305   6421   0   2    1.349153e-05
   305   6321   0   2   -3.5977354e-06
   3051111   4133   0   2    5.3765808e-07
   3051111   4233   0   2    7.9692106e-06
   3051111   4137   0   2    1.2410615e-05
   3051111   4237   0   2   -6.16417e-05
   3051313   4133   0   2    5.376228e-07
   3051313   4233   0   2    7.969156e-06
   3051313   4137   0   2    1.241065e-05
   3051313   4237   0   2   -6.1641824e-05
   3051212   4137   0   2   -2.3596588e-06
   3051212   4237   0   2    1.3420809e-05
   3051414   4137   0   2   -2.3596579e-06
   3051414   4237   0   2    1.3420809e-05
   3051616   4137   0   2   -2.3174143e-06
   3051616   4237   0   2    1.3420782e-05

DECAY 23  2.4952


DECAY 24  2.085


DECAY 2000011  2.2965631
    0.99984437   2    1000022    11
    0.00015562101   2    1000023    11

DECAY 1000011  26.550394
    0.57111021   2   -1000024    12
    0.29912294   2    1000023    11
    0.088597219   2    1000022    11
    0.035758134   2   -1000037    12
    0.0044410125   2    1000035    11
    0.00097048776   2    1000025    11

DECAY 2000013  2.2971788
    0.99949941   2    1000022    13
    0.00027191429   2    1000023    13
    0.00022867143   2   -1000024    14

DECAY 1000013  26.583735
    0.57038974   2   -1000024    14
    0.29879191   2    1000023    13
    0.088498397   2    1000022    13
    0.035712959   2   -1000037    14
    0.0050102202   2    1000035    13
    0.001558406   2    1000025    13

DECAY 1000015  19.312645
    0.4550955   2   -1000024    16
    0.24870361   2    1000023    15
    0.10170573   2    1000025    15
    0.10066631   2    1000035    15
    0.074780859   2    1000022    15
    0.019047997   2   -1000037    16

DECAY 2000015  30.524352
    0.29833773   2    1000022    15
    0.27379056   2   -1000037    16
    0.14299859   2    1000025    15
    0.13966989   2    1000035    15
    0.04416044   2    1000016   -37
    0.022639867   2    1000015    36
    0.022606844   2    1000015    35
    0.017840714   2   -1000024    16
    0.014455231   2    1000016   -24
    0.0091360292   2    1000023    15
    0.0072334113   2    1000015    25
    0.0071306892   2    1000015    23

DECAY 1000012  26.603313
    0.60725829   2    1000024    11
    0.28967044   2    1000023    12
    0.085516826   2    1000022    12
    0.010321998   2    1000035    12
    0.0050757966   2    1000025    12
    0.0021566409   2    1000037    11

DECAY 1000014  26.635578
    0.60660881   2    1000024    13
    0.28931733   2    1000023    14
    0.085412591   2    1000022    14
    0.010309396   2    1000035    14
    0.0050695995   2    1000025    14
    0.0032822487   2    1000037    13

DECAY 1000016  19.356384
    0.49957767   2    1000024    15
    0.22862014   2    1000023    16
    0.1938495   2    1000037    15
    0.068604636   2    1000022    16
    0.006259054   2    1000035    16
    0.0030890078   2    1000025    16

DECAY 2000001  142.93871
    0.98037629   2    1000021    1
    0.019441343   2    1000022    1
    0.00010106417   2    1000025    1

DECAY 1000001  208.33859
    0.67812495   2    1000021    1
    0.19846085   2   -1000024    2
    0.10195806   2    1000023    1
    0.013844246   2   -1000037    2
    0.0031820913   2    1000022    1
    0.0031335161   2    1000035    1
    0.0012962853   2    1000025    1

DECAY 2000003  142.99364
    0.98000553   2    1000021    3
    0.019435702   2    1000022    3
    0.00019250972   2    1000025    3
    0.00017690476   2   -1000037    4
    0.00016663927   2    1000035    3

DECAY 1000003  208.36818
    0.67803163   2    1000021    3
    0.1984329   2   -1000024    4
    0.10194816   2    1000023    3
    0.013850869   2   -1000037    4
    0.0031945493   2    1000035    3
    0.0031828787   2    1000022    3
    0.0013590229   2    1000025    3

DECAY 1000005  31.268645
    0.42788128   2   -1000037    6
    0.23735069   2    1000025    5
    0.23048269   2    1000035    5
    0.048145161   2   -1000024    6
    0.030748515   2    1000022    5
    0.025391662   2    1000023    5

DECAY 2000005  114.22047
    0.30542914   2   -1000037    6
    0.26641114   2    1000006   -24
    0.13001365   2   -1000024    6
    0.10673083   2    1000025    5
    0.10559739   2    1000035    5
    0.075685857   2    1000023    5
    0.0040325933   2    1000022    5
    0.0035673876   2    1000005    25
    0.0025320116   2    1000005    23

DECAY 2000002  151.46522
    0.92591231   2    1000021    2
    0.073403085   2    1000022    2
    0.00038062293   2    1000025    2
    0.00029085408   2    1000035    2

DECAY 1000002  208.33431
    0.67791007   2    1000021    2
    0.21166866   2    1000024    1
    0.10294052   2    1000023    2
    0.0035054404   2    1000022    2
    0.0023713299   2    1000035    2
    0.00083809632   2    1000037    1
    0.00076588186   2    1000025    2

DECAY 2000004  151.46879
    0.92589052   2    1000021    4
    0.073401354   2    1000022    4
    0.00038650959   2    1000025    4
    0.00029670078   2    1000035    4

DECAY 1000004  208.36372
    0.67781657   2    1000021    4
    0.21164774   2    1000024    3
    0.10292609   2    1000023    4
    0.0035049489   2    1000022    4
    0.0023752682   2    1000035    4
    0.00095930477   2    1000037    3
    0.00077006622   2    1000025    4

DECAY 1000006  48.124061
    0.45087922   2    1000037    5
    0.23006778   2    1000025    6
    0.20224901   2    1000035    6
    0.057733434   2    1000022    6
    0.04064616   2    1000024    5
    0.018202239   2    1000023    6
    0.00020829513   2    1000023    4

DECAY 2000006  120.80164
    0.21137782   2    1000037    5
    0.15701526   2    1000035    6
    0.14714253   2    1000006    25
    0.14450544   2    1000006    23
    0.1382523   2    1000025    6
    0.1335202   2    1000024    5
    0.057436856   2    1000023    6
    0.0053931558   2    1000005    24
    0.0053564525   2    1000022    6

DECAY 1000024  0.00015748225
    0.99992179   2    1000022    24

DECAY 1000037  3.0127245
    0.32252524   2    1000023    24
    0.30676124   2    1000024    23
    0.26227909   2    1000024    25
    0.10690697   2    1000022    24
    0.00079102237   3    1000023   -5    6
    0.00036998571   3    1000022   -5    6
    0.0002934737   3    1000024    5   -5

DECAY 1000022 -1


DECAY 1000023  9.5674977e-05
    0.99946497   2    1000022    23
    0.00034463919   3    1000022    5   -5

DECAY 1000025  3.7131822
    0.27173418   2    1000024   -24
    0.27173418   2   -1000024    24
    0.20160587   2    1000023    23
    0.17882981   2    1000023    25
    0.037484081   2    1000022    25
    0.036581959   2    1000022    23
    0.0008709837   3    1000024    5   -6
    0.0008709837   3   -1000024   -5    6

DECAY 1000035  3.1258902
    0.31385677   2    1000024   -24
    0.31385677   2   -1000024    24
    0.18784295   2    1000023    25
    0.085233233   2    1000023    23
    0.055802157   2    1000022    23
    0.041623957   2    1000022    25
    0.00074373557   3    1000024    5   -6
    0.00074373557   3   -1000024   -5    6
    0.00011515035   3    1000023    5   -5

DECAY 1000021  203.52965
    0.15860795   2    1000005   -5
    0.15860795   2   -1000005    5
    0.13854836   2    1000006   -6
    0.13854836   2   -1000006    6
    0.10311922   2    2000006   -6
    0.10311922   2   -2000006    6
    0.099327188   2    2000005   -5
    0.099327188   2   -2000005    5
    0.00025239142   2    1000006   -4
    0.00025239142   2   -1000006    4

DECAY 25  0.0042635062
    0.59282838   2   -5    5
    0.21412275   2   -24    24
    0.06783779   2   -15    15
    0.065713462   2    21    21
    0.026064915   2    23    23
    0.025766233   2   -4    4
    0.0036592484   2    1000022    1000022
    0.0021473694   2    22    22
    0.0014004262   2    22    23
    0.00023564346   2   -13    13
    0.00022302264   2   -3    3
    6.1663813e-07   2   -1    1
    1.3277847e-07   2   -2    2
    5.2975224e-09   2   -11    11

DECAY 35  28.994416
    0.84712396   2   -5    5
    0.11072481   2   -15    15
    0.0090932336   2   -1000024    1000024
    0.0067756958   2   -1000024    1000037
    0.0067756958   2   -1000037    1000024
    0.0061327117   2    1000023    1000025
    0.0044252547   2    1000023    1000023
    0.0028726888   2    1000022    1000023
    0.0020168296   2    1000022    1000035
    0.0015585514   2    1000022    1000025
    0.00086951075   2    1000023    1000035
    0.000417232   2    1000022    1000022
    0.00039192556   2   -13    13
    0.00036139486   2   -6    6
    0.00031162207   2   -3    3
    0.00010802587   2    21    21
    3.3495318e-05   2    25    25
    3.7590069e-06   2   -24    24
    1.8810388e-06   2    23    23
    8.6165372e-07   2   -1    1
    6.3463585e-07   2    22    23
    2.0909083e-07   2    22    22
    8.8067401e-09   2   -11    11
    6.3387726e-09   2   -4    4
    3.2689995e-14   2   -2    2

DECAY 36  28.411133
    0.84542825   2   -5    5
    0.11050072   2   -15    15
    0.010560333   2   -1000024    1000024
    0.0066664089   2   -1000024    1000037
    0.0066664089   2   -1000037    1000024
    0.0056606198   2    1000023    1000035
    0.0051355158   2    1000023    1000023
    0.0028376981   2    1000022    1000023
    0.0022364952   2    1000022    1000025
    0.0014623333   2    1000022    1000035
    0.0010838198   2    1000023    1000025
    0.00049483614   2   -6    6
    0.00043032852   2    1000022    1000022
    0.00039112599   2   -13    13
    0.00031096388   2   -3    3
    0.00012952195   2    21    21
    3.23336e-06   2    23    25
    8.5983368e-07   2   -1    1
    4.6637784e-07   2    22    23
    5.2398107e-08   2    22    22
    8.7887725e-09   2   -11    11
    5.6724912e-09   2   -4    4
    2.9315669e-14   2   -2    2
    6.6550395e-41   2    25    25

DECAY 37  23.491302
    0.81006092   2   -5    6
    0.14184779   2   -15    16
    0.011697416   2    1000024    1000025
    0.011409071   2    1000023    1000037
    0.011204952   2    1000024    1000035
    0.007092647   2    1000022    1000024
    0.0044197092   2    1000022    1000037
    0.0013787245   2   -5    4
    0.00050149059   2   -13    14
    0.00035388661   2   -3    4
    1.6231828e-05   2   -3    2
    9.8455966e-06   2   -5    2
    4.1812467e-06   2    24    25
    1.0639653e-06   2    1000023    1000024
    9.9584436e-07   2   -3    6
    9.8235482e-07   2   -1    2
    4.5200119e-08   2   -1    4
    2.5599745e-08   2   -1    6
    1.1729918e-08   2   -11    12
    3.6618664e-09   2    24    35
    3.0700215e-09   2    24    36

DECAY 6  2.43
    1   2    5    24

DECAY 15 -1
