BLOCK SPINFO
   1   SPheno
   2   v4.0.5be

BLOCK SPHENOINFO
   1   2
   2   2

BLOCK MODSEL
   1   0

BLOCK MINPAR
   3    5.8384772
   4   -1

BLOCK EXTPAR
   0    1513.0339
   1   -60.181714
   2    369.1338
   3    3000
   11   -3559.1874
   12   -937.77741
   13   -1246.977
   23   -625.64852
   25    5.6037333
   26    1373.7155
   31    260.80027
   32    260.80027
   33    789.36366
   34    1496.0753
   35    1496.0753
   36    1741.076
   41    5000
   42    5000
   43    1538.8785
   44    5000
   45    5000
   46    1593.6742
   47    5000
   48    5000
   49    1192.6033

BLOCK SMINPUTS
   1    127.90897
   2    1.1663787e-05
   3    0.1184
   4    91.1876
   5    4.18
   6    173.2
   7    1.777
   8    0
   11    0.00051099893
   12    0
   13    0.10565837
   14    0
   21    0.005
   22    0.0025
   23    0.095
   24    1.27

BLOCK GAUGE Q=  1513.0339
   1    0.35536298
   2    0.66519887
   3    1.219778

BLOCK YU Q=  1513.0339
   1   1    8.5168272e-06
   2   2    0.0043265482
   3   3    1.0289011

BLOCK YD Q=  1513.0339
   1   1    9.5903739e-05
   2   2    0.0018221711
   3   3    0.095106458

BLOCK YE Q=  1513.0339
   1   1    1.6735904e-05
   2   2    0.0034604541
   3   3    0.058199146

BLOCK AU Q=  1513.0339
   1   1    0
   2   2    0
   3   3   -3559.1878

BLOCK AD Q=  1513.0339
   1   1    0
   2   2    0
   3   3   -937.77751

BLOCK AE Q=  1513.0339
   1   1    0
   2   2    0
   3   3   -1246.977

BLOCK MSOFT Q=  1513.0339
   1   -60.181714
   2    369.1338
   3    3000
   21    1433101
   22   -291061.26
   31    260.80027
   32    260.80027
   33    789.36366
   34    1496.0753
   35    1496.0753
   36    1741.076
   41    5000
   42    5000
   43    1538.8785
   44    5000
   45    5000
   46    1593.6742
   47    5000
   48    5000
   49    1192.6033

BLOCK MASS
   6    173.2
   23    91.1876
   24    80.429995
   15    1.777
   25    121.24953
   35    1373.9224
   36    1373.7155
   37    1376.2068
   1000001    5030.6021
   2000001    5019.8009
   1000002    5030.2
   2000002    5021.5857
   1000003    5030.6025
   2000003    5019.801
   1000004    5030.2004
   2000004    5021.5864
   1000005    1200.6115
   2000005    1519.8865
   1000006    1365.5251
   2000006    1676.4771
   1000011    275.3064
   2000011    1497.0443
   1000012    264.14954
   1000013    275.30586
   2000013    1497.0439
   1000014    264.14937
   1000015    794.17846
   2000015    1742.1434
   1000016    790.13021
   1000021    3190.4712
   1000022   -58.319619
   1000023    387.02094
   1000025   -640.14694
   1000035    642.43335
   1000024    387.32942
   1000037    646.42652

BLOCK ALPHA
      -0.17155351

BLOCK HMIX Q=  1513.0339
   1   -625.64852
   2    5.6037333
   3    243.98573
   4    1887094.4

BLOCK STOPMIX
   1   1    0.72746364
   1   2    0.68614624
   2   1   -0.68614624
   2   2    0.72746364

BLOCK SBOTMIX
   1   1   -0.0066917467
   1   2    0.99997761
   2   1   -0.99997761
   2   2   -0.0066917467

BLOCK STAUMIX
   1   1   -0.99999858
   1   2    0.0016879846
   2   1   -0.0016879846
   2   2   -0.99999858

BLOCK NMIX
   1   1   -0.99737429
   1   2   -0.0052919905
   1   3    0.069880444
   1   4   -0.018255027
   2   1    0.0053248751
   2   2    0.98160265
   2   3    0.17196557
   2   4    0.082799374
   3   1   -0.062435838
   3   2    0.063623287
   3   3   -0.70162452
   3   4    0.70694899
   4   1   -0.036303436
   4   2    0.17994532
   4   3   -0.68794448
   4   4   -0.7021639

BLOCK UMIX
   1   1   -0.97066117
   1   2   -0.24045142
   2   1    0.24045142
   2   2   -0.97066117

BLOCK VMIX
   1   1   -0.993323
   1   2    0.11536648
   2   1    0.11536648
   2   2    0.993323

BLOCK HIGGSBOUNDSINPUTHIGGSCOUPLINGSFERMIONS
       0, 31.401827,3,36,15,15

BLOCK HIGGSBOUNDSINPUTHIGGSCOUPLINGSBOSONS
       0,4,36,21,21,23

BLOCK SPHENOLOWENERGY
   1    0.00034949685
   2    1.5893673e-06
   3    3.5285611e-05
   4    2.5161422e-15
   5    1.0748675e-10
   6    2.2502142e-08
   7    8.4833241e-14
   8    3.6240737e-09
   9    7.6873359e-07
   10    9.669856e-05
   11    0.99885911
   12    0.54403196
   13    19.438274
   14    0
   15    0
   16    0.0021663159
   17    2.2817509e-15
   18    2.481598e-11
   19    8.2944561e-11
   20   -2.9294782e-15
   21   -1.2524437e-10
   22   -2.4411662e-08
   23    0
   24    0
   25    0
   26    0
   27    0
   28    0
   29    0
   30    0
   31    0
   39   -0.00013409736
   40    0
   41    0
   42    0

BLOCK FWCOEF Q=  160
   305   4422   0   0   -0.18881911
   305   4422   0   2   -0.2193303
   305   4322   0   2   -0.00048306236
   305   6421   0   0   -0.095227835
   305   6421   0   2   -0.12593001
   305   6321   0   2   -0.00053473599
   3051111   4133   0   0    1.5920405
   3051111   4133   0   2    1.5932649
   3051111   4233   0   2    3.9552051e-06
   3051111   4137   0   0   -4.4147326
   3051111   4137   0   2   -4.4160871
   3051111   4237   0   2   -2.9960893e-05
   3051313   4133   0   0    1.5920405
   3051313   4133   0   2    1.5932647
   3051313   4233   0   2    3.9552025e-06
   3051313   4137   0   0   -4.4147326
   3051313   4137   0   2   -4.4160872
   3051313   4237   0   2   -2.9960893e-05
   3051212   4137   0   0    1.5053501
   3051212   4137   0   2    1.5056937
   3051212   4237   0   2    6.5088582e-06
   3051414   4137   0   0    1.5053501
   3051414   4137   0   2    1.5056937
   3051414   4237   0   2    6.5088587e-06
   3051616   4137   0   0    1.5053501
   3051616   4137   0   2    1.5056924
   3051616   4237   0   2    6.5119111e-06

BLOCK IMFWCOEF Q=  160
   305   4422   0   0    3.8580987e-07
   305   4422   0   2   -4.5786985e-06
   305   4322   0   2   -1.1597295e-06
   305   6421   0   0    3.3047167e-07
   305   6421   0   2    1.6591332e-06
   305   6321   0   2   -4.4374209e-07
   3051111   4133   0   2   -2.2325185e-06
   3051111   4233   0   2    1.1902594e-07
   3051111   4137   0   2    1.0167304e-05
   3051111   4237   0   2   -9.1233199e-07
   3051313   4133   0   2   -2.2325259e-06
   3051313   4233   0   2    1.1902593e-07
   3051313   4137   0   2    1.0167305e-05
   3051313   4237   0   2   -9.1233202e-07
   3051212   4137   0   2   -1.3414775e-06
   3051212   4237   0   2    1.9846021e-07
   3051414   4137   0   2   -1.3414775e-06
   3051414   4237   0   2    1.9846021e-07
   3051616   4137   0   2   -1.3645695e-06
   3051616   4237   0   2    1.9851239e-07

DECAY 23  2.4952


DECAY 24  2.085


DECAY 1000011  0.32009806
    0.99999906   2    1000022    11

DECAY 2000011  7.4863207
    0.99647834   2    1000022    11
    0.0026154379   2    1000025    11
    0.00088141439   2    1000035    11

DECAY 1000013  0.3200974
    0.99999906   2    1000022    13

DECAY 2000013  7.4868285
    0.99641076   2    1000022    13
    0.0026308876   2    1000025    13
    0.00089634239   2    1000035    13

DECAY 1000015  6.8621568
    0.55760144   2   -1000024    16
    0.287226   2    1000023    15
    0.14596036   2    1000022    15
    0.006700541   2   -1000037    16
    0.0019885175   2    1000035    15
    0.00052314093   2    1000025    15

DECAY 2000015  8.9091054
    0.97525486   2    1000022    15
    0.0093202081   2   -1000037    16
    0.007730827   2    1000025    15
    0.0056552862   2    1000035    15
    0.00058533746   2   -1000024    16
    0.00056958051   2    1000016   -24
    0.00032471062   2    1000023    15
    0.00028150001   2    1000015    23
    0.00027768879   2    1000015    25

DECAY 1000012  0.29277542
    1   2    1000022    12

DECAY 1000014  0.2927752
    1   2    1000022    14

DECAY 1000016  6.8802544
    0.57600575   2    1000024    15
    0.27974564   2    1000023    16
    0.13913617   2    1000022    16
    0.0023070611   2    1000035    16
    0.0022441153   2    1000037    15
    0.00056127198   2    1000025    16

DECAY 2000001  143.56803
    0.98048804   2    1000021    1
    0.019412874   2    1000022    1

DECAY 1000001  208.16271
    0.68163534   2    1000021    1
    0.19807107   2   -1000024    2
    0.10108715   2    1000023    1
    0.011897153   2   -1000037    2
    0.0035766517   2    1000035    1
    0.0031575086   2    1000022    1
    0.00057512864   2    1000025    1

DECAY 2000003  143.56868
    0.98048366   2    1000021    3
    0.019412797   2    1000022    3

DECAY 1000003  208.16489
    0.6816284   2    1000021    3
    0.19806908   2   -1000024    4
    0.10108615   2    1000023    3
    0.011905663   2   -1000037    4
    0.0035773423   2    1000035    3
    0.0031574835   2    1000022    3
    0.00057588065   2    1000025    3

DECAY 1000005  0.88197978
    0.75420005   2    1000022    5
    0.10141304   2   -1000037    6
    0.062621813   2    1000025    5
    0.058373383   2    1000035    5
    0.015161193   2   -1000024    6
    0.0082305227   2    1000023    5

DECAY 2000005  44.276728
    0.48889363   2   -1000037    6
    0.2440132   2   -1000024    6
    0.12717522   2    1000023    5
    0.1270999   2    1000006   -24
    0.0055358841   2    1000035    5
    0.0044887717   2    1000022    5
    0.0026411762   2    1000025    5

DECAY 2000002  152.16164
    0.92633388   2    1000021    2
    0.073292048   2    1000022    2
    0.00027803169   2    1000025    2

DECAY 1000002  208.16101
    0.68143975   2    1000021    2
    0.20741239   2    1000024    1
    0.10147103   2    1000023    2
    0.0035570505   2    1000022    2
    0.0030974659   2    1000035    2
    0.0027385127   2    1000037    1
    0.00028379849   2    1000025    2

DECAY 2000004  152.16527
    0.92631186   2    1000021    4
    0.073290301   2    1000022    4
    0.00028396317   2    1000025    4

DECAY 1000004  208.16314
    0.68143274   2    1000021    4
    0.20741039   2    1000024    3
    0.10147004   2    1000023    4
    0.003557017   2    1000022    4
    0.0031017441   2    1000035    4
    0.0027399342   2    1000037    3
    0.00028814346   2    1000025    4

DECAY 1000006  32.464249
    0.22934304   2    1000025    6
    0.22379567   2    1000024    5
    0.21230056   2    1000037    5
    0.18608613   2    1000035    6
    0.105984   2    1000023    6
    0.042405347   2    1000022    6

DECAY 2000006  70.439431
    0.21880589   2    1000037    5
    0.216794   2    1000035    6
    0.18861593   2    1000006    23
    0.18208794   2    1000025    6
    0.076366372   2    2000005    24
    0.057265223   2    1000024    5
    0.0311634   2    1000022    6
    0.027803071   2    1000023    6
    0.00099209966   2    1000006    25
    0.00010607013   2    1000005    24

DECAY 1000024  1.7525851
    0.27462772   2    1000014   -13
    0.27462745   2    1000012   -11
    0.22438085   2   -1000013    14
    0.22437904   2   -1000011    12
    0.0019795141   2    1000022    24

DECAY 1000037  2.8377005
    0.2601376   2    1000023    24
    0.24892549   2    1000024    23
    0.23022855   2    1000024    25
    0.16314577   2    1000022    24
    0.038848454   2   -1000013    14
    0.038848386   2   -1000011    12
    0.0092784075   2    1000014   -13
    0.0092603447   2    1000012   -11
    0.001112006   3    1000022   -5    6
    0.00019413665   3    1000023   -5    6

DECAY 1000022 -1


DECAY 1000023  1.7404905
    0.13376447   2    1000014   -14
    0.13376447   2   -1000014    14
    0.13376417   2    1000012   -12
    0.13376417   2   -1000012    12
    0.11573127   2    1000013   -13
    0.11573127   2   -1000013    13
    0.1157305   2    1000011   -11
    0.1157305   2   -1000011    11
    0.0020124695   2    1000022    23

DECAY 1000025  4.3625875
    0.29315724   2    1000023    25
    0.20529371   2    1000024   -24
    0.20529371   2   -1000024    24
    0.19480253   2    1000023    23
    0.065164906   2    1000022    25
    0.026290814   2    1000022    23
    0.0020908663   2    1000014   -14
    0.0020908663   2   -1000014    14
    0.0020908652   2    1000012   -12
    0.0020908652   2   -1000012    12
    0.00030274549   3    1000024    5   -6
    0.00030274549   3   -1000024   -5    6
    0.00020228653   2    1000013   -13
    0.00020228653   2   -1000013    13
    0.00019654343   2    1000011   -11
    0.00019654343   2   -1000011    11
    0.00013764749   3    1000022    6   -6

DECAY 1000035  2.9382165
    0.25544361   2    1000024   -24
    0.25544361   2   -1000024    24
    0.20657887   2    1000023    25
    0.11211419   2    1000022    23
    0.050664072   2    1000022    25
    0.033286576   2    1000023    23
    0.013202071   2    1000014   -14
    0.013202071   2   -1000014    14
    0.013202064   2    1000012   -12
    0.013202064   2   -1000012    12
    0.0082746082   2    1000013   -13
    0.0082746082   2   -1000013    13
    0.0082661694   2    1000011   -11
    0.0082661694   2   -1000011    11
    0.00019675336   3    1000022    6   -6
    0.00017226875   3    1000024    5   -6
    0.00017226875   3   -1000024   -5    6

DECAY 1000021  237.35898
    0.14658757   2    1000005   -5
    0.14658757   2   -1000005    5
    0.1194122   2    2000006   -6
    0.1194122   2   -2000006    6
    0.11888198   2    2000005   -5
    0.11888198   2   -2000005    5
    0.11498836   2    1000006   -6
    0.11498836   2   -1000006    6

DECAY 25  0.0034869186
    0.63163692   2   -5    5
    0.1686906   2   -24    24
    0.073079773   2    21    21
    0.072215996   2   -15    15
    0.03062197   2   -4    4
    0.01893349   2    23    23
    0.0022732153   2    22    22
    0.0011614892   2    22    23
    0.00089814374   2    1000022    1000022
    0.00025044932   2   -13    13
    0.00023713684   2   -3    3
    6.5565906e-07   2   -1    1
    1.5781396e-07   2   -2    2
    5.6304305e-09   2   -11    11

DECAY 35  10.627352
    0.20860886   2   -1000024    1000037
    0.20860886   2   -1000037    1000024
    0.15355822   2   -6    6
    0.10072555   2    1000023    1000025
    0.093493813   2    1000023    1000035
    0.057366978   2    1000022    1000035
    0.055940485   2   -5    5
    0.040177285   2   -1000024    1000024
    0.027089551   2    1000022    1000025
    0.020039089   2    1000023    1000023
    0.011716867   2    1000022    1000023
    0.0090038976   2   -15    15
    0.007311091   2    1000025    1000035
    0.0014638705   2    25    25
    0.0014126729   2    1000035    1000035
    0.0012198325   2    1000022    1000022
    0.0011067247   2   -1000037    1000037
    0.00021227165   2    23    23
    0.00019985989   2    1000025    1000025
    0.00019147955   2   -24    24
    9.0995864e-05   2    21    21
    4.7575518e-05   2   -1000011    1000011
    4.7566013e-05   2   -1000013    1000013
    3.0657449e-05   2   -13    13
    2.0962048e-05   2   -3    3
    2.1041424e-06   2   -4    4
    6.1698583e-07   2    22    23
    6.3244048e-08   2    22    22
    5.7954657e-08   2   -1    1
    6.8871492e-10   2   -11    11
    1.0848843e-11   2   -2    2

DECAY 36  10.673183
    0.20761551   2   -1000024    1000037
    0.20761551   2   -1000037    1000024
    0.15861849   2   -6    6
    0.10209313   2    1000023    1000025
    0.091722139   2    1000023    1000035
    0.060788646   2    1000022    1000025
    0.054618121   2   -5    5
    0.041051825   2   -1000024    1000024
    0.024530403   2    1000022    1000035
    0.020281475   2    1000023    1000023
    0.010022764   2    1000022    1000023
    0.0087902882   2   -15    15
    0.0047304249   2    1000035    1000035
    0.0026186804   2    1000025    1000025
    0.0015726365   2   -1000037    1000037
    0.001465918   2    1000022    1000022
    0.0013684038   2    1000025    1000035
    0.00028372119   2    23    25
    0.00015876963   2    21    21
    2.9928974e-05   2   -13    13
    2.0464215e-05   2   -3    3
    2.0280506e-06   2   -4    4
    6.0378055e-07   2    22    23
    6.2829362e-08   2    22    22
    5.6578326e-08   2   -1    1
    6.7234959e-10   2   -11    11
    1.0458073e-11   2   -2    2
    2.5226448e-41   2    25    25

DECAY 37  10.60821
    0.23193806   2    1000023    1000037
    0.21922017   2    1000024    1000035
    0.21575429   2    1000024    1000025
    0.21288726   2   -5    6
    0.08358608   2    1000022    1000037
    0.021952676   2    1000022    1000024
    0.0088437171   2   -15    16
    0.0039576438   2    1000025    1000037
    0.0008314894   2    1000035    1000037
    0.00028792122   2    24    25
    0.00022734195   2   -3    6
    0.00018583902   2   -1000011    1000012
    0.00018582573   2   -1000013    1000014
    7.7277419e-05   2   -5    4
    3.1265779e-05   2   -13    14
    2.0831929e-05   2   -3    4
    1.0425721e-05   2   -1    6
    8.6862477e-07   2   -3    2
    5.5181816e-07   2   -5    2
    3.0686426e-07   2    1000023    1000024
    1.0013656e-07   2   -1    4
    5.1966535e-08   2   -1    2
    7.3130984e-10   2   -11    12
    1.2294823e-11   2    24    36
    7.9709243e-12   2    24    35

DECAY 6  2.43
    1   2    5    24

DECAY 15 -1
