BLOCK SPINFO
   1   SPheno
   2   v4.0.5be

BLOCK SPHENOINFO
   1   2
   2   2

BLOCK MODSEL
   1   0

BLOCK MINPAR
   3    13.752569
   4    1

BLOCK EXTPAR
   0    1321.8267
   1    899.69944
   2   -691.31068
   3    3000
   11   -2180.5171
   12   -1145.3353
   13    581.58126
   23    599.9463
   25    13.249033
   26    331.01725
   31    1997.3612
   32    1997.3612
   33    1799.6256
   34    1706.7275
   35    1706.7275
   36    1651.1373
   41    5000
   42    5000
   43    1191.6915
   44    5000
   45    5000
   46    1594.1135
   47    5000
   48    5000
   49    1929.8032

BLOCK SMINPUTS
   1    127.90897
   2    1.1663787e-05
   3    0.1184
   4    91.1876
   5    4.18
   6    173.2
   7    1.777
   8    0
   11    0.00051099893
   12    0
   13    0.10565837
   14    0
   21    0.005
   22    0.0025
   23    0.095
   24    1.27

BLOCK GAUGE Q=  1321.8267
   1    0.35536298
   2    0.66519887
   3    1.219778

BLOCK YU Q=  1321.8267
   1   1    8.4082203e-06
   2   2    0.0042713759
   3   3    1.0157805

BLOCK YD Q=  1321.8267
   1   1    0.00022385589
   2   2    0.0042532619
   3   3    0.2219949

BLOCK YE Q=  1321.8267
   1   1    3.906449e-05
   2   2    0.0080772975
   3   3    0.13584686

BLOCK AU Q=  1321.8267
   1   1    0
   2   2    0
   3   3   -2180.5171

BLOCK AD Q=  1321.8267
   1   1    0
   2   2    0
   3   3   -1145.3354

BLOCK AE Q=  1321.8267
   1   1    0
   2   2    0
   3   3    581.58126

BLOCK MSOFT Q=  1321.8267
   1    899.69944
   2   -691.31068
   3    3000
   21   -260812.87
   22   -347940.12
   31    1997.3612
   32    1997.3612
   33    1799.6256
   34    1706.7275
   35    1706.7275
   36    1651.1373
   41    5000
   42    5000
   43    1191.6915
   44    5000
   45    5000
   46    1594.1135
   47    5000
   48    5000
   49    1929.8032

BLOCK MASS
   6    173.2
   23    91.1876
   24    80.429995
   15    1.777
   25    120.80326
   35    331.36563
   36    331.01725
   37    341.02738
   1000001    5020.7707
   2000001    5010.6329
   1000002    5020.3254
   2000002    5012.027
   1000003    5020.7717
   2000003    5010.6337
   1000004    5020.3263
   2000004    5012.028
   1000005    1145.3048
   2000005    1941.8365
   1000006    1113.4832
   2000006    1569.1534
   1000011    2002.1692
   2000011    1709.2376
   1000012    2000.2257
   1000013    2002.1686
   2000013    1709.236
   1000014    2000.2249
   1000015    1653.1618
   2000015    1804.2743
   1000016    1802.0777
   1000021    3176.085
   1000022   -587.64034
   1000023    604.46519
   1000025   -746.36521
   1000035    905.79374
   1000024    589.74134
   1000037    746.81471

BLOCK ALPHA
      -0.087580989

BLOCK HMIX Q=  1321.8267
   1    599.9463
   2    13.249033
   3    244.14831
   4    109572.42

BLOCK STOPMIX
   1   1    0.96503647
   1   2    0.26211565
   2   1   -0.26211565
   2   2    0.96503647

BLOCK SBOTMIX
   1   1    0.99996434
   1   2    0.0084447848
   2   1   -0.0084447848
   2   2    0.99996434

BLOCK STAUMIX
   1   1    0.024923173
   1   2    0.99968937
   2   1   -0.99968937
   2   2    0.024923173

BLOCK NMIX
   1   1    0.017705822
   1   2    0.34692885
   1   3   -0.6749308
   1   4   -0.65099561
   2   1    0.1117455
   2   2    0.045504871
   2   3    0.70266794
   2   4   -0.70121324
   3   1   -0.0069737706
   3   2    0.93677497
   3   3    0.21549327
   3   4    0.27562051
   4   1    0.99355464
   4   2   -0.0047252269
   4   3   -0.065489073
   4   4    0.092401509

BLOCK UMIX
   1   1   -0.30831433
   1   2    0.95128454
   2   1   -0.95128454
   2   2   -0.30831433

BLOCK VMIX
   1   1    0.39385318
   1   2    0.91917336
   2   1    0.91917336
   2   2   -0.39385318

BLOCK HIGGSBOUNDSINPUTHIGGSCOUPLINGSFERMIONS
       0, 175.53689,3,36,15,15

BLOCK HIGGSBOUNDSINPUTHIGGSCOUPLINGSBOSONS
       0,4,36,21,21,23

BLOCK SPHENOLOWENERGY
   1    0.00043427047
   2    1.5908306e-06
   3    3.5230945e-05
   4    2.5531692e-15
   5    1.0906839e-10
   6    2.2826622e-08
   7    8.5875105e-14
   8    3.6685788e-09
   9    7.779652e-07
   10    8.8453475e-05
   11    0.91369053
   12    0.54366293
   13    19.402342
   14    0
   15    0
   16    0.0021643012
   17    2.2817408e-15
   18    2.4798717e-11
   19    8.2895856e-11
   20   -2.1482769e-15
   21   -9.1845581e-11
   22   -2.8891421e-08
   23    0
   24    0
   25    0
   26    0
   27    0
   28    0
   29    0
   30    0
   31    0
   39    5.1455456e-05
   40    0
   41    0
   42    0

BLOCK FWCOEF Q=  160
   305   4422   0   0   -0.18881911
   305   4422   0   2   -0.29737392
   305   4322   0   2   -0.0023987377
   305   6421   0   0   -0.095227835
   305   6421   0   2   -0.21395051
   305   6321   0   2   -0.0024469807
   3051111   4133   0   0    1.5872723
   3051111   4133   0   2    1.588483
   3051111   4233   0   2   -5.4069995e-05
   3051111   4137   0   0   -4.4099644
   3051111   4137   0   2   -4.406126
   3051111   4237   0   2    0.00042581639
   3051313   4133   0   0    1.5872723
   3051313   4133   0   2    1.5884828
   3051313   4233   0   2   -5.4075866e-05
   3051313   4137   0   0   -4.4099644
   3051313   4137   0   2   -4.4061262
   3051313   4237   0   2    0.00042582222
   3051212   4137   0   0    1.5053501
   3051212   4137   0   2    1.5045224
   3051212   4237   0   2   -9.2902315e-05
   3051414   4137   0   0    1.5053501
   3051414   4137   0   2    1.5045224
   3051414   4237   0   2   -9.2901034e-05
   3051616   4137   0   0    1.5053501
   3051616   4137   0   2    1.5045225
   3051616   4237   0   2   -9.2540182e-05

BLOCK IMFWCOEF Q=  160
   305   4422   0   0    3.8584322e-07
   305   4422   0   2   -7.4829217e-06
   305   4322   0   2    1.6191712e-06
   305   6421   0   0    3.3050023e-07
   305   6421   0   2   -4.4371402e-06
   305   6321   0   2    5.6975038e-07
   3051111   4133   0   2   -1.405037e-06
   3051111   4233   0   2    5.3995358e-07
   3051111   4137   0   2    1.4058284e-05
   3051111   4237   0   2   -4.2204898e-06
   3051313   4133   0   2   -1.4050362e-06
   3051313   4233   0   2    5.3995337e-07
   3051313   4137   0   2    1.4058286e-05
   3051313   4237   0   2   -4.2204904e-06
   3051212   4137   0   2   -2.884171e-06
   3051212   4237   0   2    9.207541e-07
   3051414   4137   0   2   -2.8841709e-06
   3051414   4237   0   2    9.207541e-07
   3051616   4137   0   2   -2.8819007e-06
   3051616   4237   0   2    9.2075389e-07

DECAY 23  2.4952


DECAY 24  2.085


DECAY 2000011  4.4692194
    0.9811013   2    1000035    11
    0.018369038   2    1000023    11
    0.00046843701   2    1000022    11

DECAY 1000011  21.463514
    0.55071645   2   -1000037    12
    0.26500582   2    1000025    11
    0.071871055   2    1000035    11
    0.065101522   2   -1000024    12
    0.043551654   2    1000022    11
    0.0037534937   2    1000023    11

DECAY 2000013  4.472602
    0.9803583   2    1000035    13
    0.01854241   2    1000023    13
    0.0006438018   2    1000022    13
    0.00034836287   2   -1000024    14

DECAY 1000013  21.465677
    0.55066069   2   -1000037    14
    0.26498324   2    1000025    13
    0.071864078   2    1000035    13
    0.065094935   2   -1000024    14
    0.043593207   2    1000022    13
    0.0038025178   2    1000023    13

DECAY 1000015  5.0215862
    0.79924026   2    1000035    15
    0.089976764   2   -1000024    16
    0.060392804   2    1000023    15
    0.046137099   2    1000022    15
    0.0028262074   2   -1000037    16
    0.0014268611   2    1000025    15

DECAY 2000015  18.440081
    0.53669132   2   -1000037    16
    0.25947697   2    1000025    15
    0.066995395   2    1000035    15
    0.063241347   2   -1000024    16
    0.055598033   2    1000022    15
    0.0176981   2    1000023    15
    0.00015797734   2    1000015    25
    0.00014084915   2    1000015    23

DECAY 1000012  21.499102
    0.5124928   2    1000037    11
    0.26838008   2    1000025    12
    0.10591823   2    1000024    11
    0.074206781   2    1000035    12
    0.03893402   2    1000022    12

DECAY 1000014  21.501231
    0.51245005   2    1000037    13
    0.26835334   2    1000025    14
    0.10599899   2    1000024    13
    0.074199379   2    1000035    14
    0.038930145   2    1000022    14

DECAY 1000016  18.491628
    0.49949386   2    1000037    15
    0.2604154   2    1000025    16
    0.13198835   2    1000024    15
    0.068703365   2    1000035    16
    0.039014089   2    1000022    16
    0.00031688168   2    1000015    24

DECAY 2000001  144.15273
    0.98183292   2    1000021    1
    0.017924875   2    1000035    1
    0.00023533621   2    1000023    1

DECAY 1000001  206.75429
    0.68965851   2    1000021    1
    0.184985   2   -1000037    2
    0.089935372   2    1000025    1
    0.019763748   2   -1000024    2
    0.012288232   2    1000022    1
    0.0033010647   2    1000035    1

DECAY 2000003  144.15631
    0.98180914   2    1000021    3
    0.017924484   2    1000035    3
    0.00024131088   2    1000023    3

DECAY 1000003  206.75793
    0.68964689   2    1000021    3
    0.18498314   2   -1000037    4
    0.0899342   2    1000025    3
    0.019770594   2   -1000024    4
    0.012291876   2    1000022    3
    0.0033010427   2    1000035    3

DECAY 1000005  16.555134
    0.56492902   2   -1000024    6
    0.28994565   2   -1000037    6
    0.089711412   2    1000025    5
    0.036409178   2    1000022    5
    0.017559691   2    1000023    5
    0.0014450541   2    1000035    5

DECAY 2000005  4.6591075
    0.2956927   2   -1000024    6
    0.16674295   2    1000023    5
    0.15094505   2    1000022    5
    0.14205913   2    1000035    5
    0.068225931   2    1000006   -37
    0.038449032   2    1000005    36
    0.037823689   2    1000005    35
    0.032365053   2   -1000037    6
    0.021148787   2    1000006   -24
    0.017052598   2    1000005    25
    0.016029223   2    1000025    5
    0.010352816   2    1000005    23
    0.002909391   2    2000006   -37
    0.00020365021   2    2000006   -24

DECAY 2000002  152.15768
    0.93113325   2    1000021    2
    0.067948872   2    1000035    2
    0.00089202106   2    1000023    2

DECAY 1000002  206.74942
    0.68945033   2    1000021    2
    0.17269458   2    1000037    1
    0.08945319   2    1000025    2
    0.032249311   2    1000024    1
    0.012742269   2    1000022    2
    0.0029662927   2    1000035    2
    0.0004440301   2    1000023    2

DECAY 2000004  152.16125
    0.93111166   2    1000021    4
    0.067947393   2    1000035    4
    0.00089769916   2    1000023    4

DECAY 1000004  206.75299
    0.68943863   2    1000021    4
    0.17269241   2    1000037    3
    0.089452251   2    1000025    4
    0.032256442   2    1000024    3
    0.012745711   2    1000022    4
    0.0029663091   2    1000035    4
    0.00044823721   2    1000023    4

DECAY 1000006  13.746463
    0.3304767   2    1000023    6
    0.30841055   2    1000022    6
    0.23722325   2    1000037    5
    0.08793691   2    1000025    6
    0.034715413   2    1000024    5
    0.00094135593   2    1000035    6
    0.00029494018   3    1000022    24    5

DECAY 2000006  87.897198
    0.2471482   2    1000024    5
    0.19813879   2    1000005    24
    0.13133315   2    1000023    6
    0.13065205   2    1000022    6
    0.13037493   2    1000006    25
    0.10992548   2    1000006    23
    0.019965275   2    1000035    6
    0.010908943   2    1000037    5
    0.0071467223   2    1000005    37
    0.0065433966   2    1000025    6
    0.0047484857   2    1000006    36
    0.003114574   2    1000006    35

DECAY 1000024  1.2987259e-10
    0.55216798   3    1000022   -1    2
    0.18412261   3    1000022   -11    12
    0.1818167   3    1000022   -13    14
    0.080505047   3    1000022   -3    4
    0.001387664   3    1000022   -15    16

DECAY 1000037  2.2192525
    0.47433567   2    1000022    24
    0.20418961   2    1000024    23
    0.18763362   2    1000023    24
    0.133823   2    1000024    25

DECAY 1000022 -1


DECAY 1000023  6.3812227e-06
    0.17088907   2    1000022    22
    0.12826475   3    1000022    12   -12
    0.095915493   3    1000022    1   -1
    0.095880381   3    1000022    3   -3
    0.074806954   3    1000022    2   -2
    0.069370734   3    1000022    4   -4
    0.045580169   3    1000022    5   -5
    0.043780504   3    1000024    1   -2
    0.043780504   3   -1000024   -1    2
    0.042213057   3    1000024    3   -4
    0.042213057   3   -1000024   -3    4
    0.021641959   3    1000022    11   -11
    0.021629487   3    1000022    13   -13
    0.018418933   3    1000022    15   -15
    0.014592415   3    1000024    11   -12
    0.014592415   3   -1000024   -11    12
    0.014588897   3    1000024    13   -14
    0.014588897   3   -1000024   -13    14
    0.01362616   3    1000024    15   -16
    0.01362616   3   -1000024   -15    16

DECAY 1000025  3.9357703
    0.27908986   2    1000024   -24
    0.27908986   2   -1000024    24
    0.24171183   2    1000023    23
    0.12584362   2    1000023    25
    0.071141614   2    1000022    25
    0.0030756184   2    1000022    23

DECAY 1000035  2.4596259
    0.24114552   2    1000022    23
    0.20299233   2    1000024   -24
    0.20299233   2   -1000024    24
    0.18653117   2    1000023    25
    0.14207661   2    1000022    25
    0.0071973815   2    1000025    23
    0.006935408   2    1000023    23
    0.0035367066   2    1000037   -24
    0.0035367066   2   -1000037    24
    0.0011336425   2    1000025    25
    0.00062862022   3    1000024    5   -6
    0.00062862022   3   -1000024   -5    6
    0.00040154378   3    1000022    5   -5
    0.00014340333   3    1000023    5   -5

DECAY 1000021  233.26294
    0.15250703   2    1000005   -5
    0.15250703   2   -1000005    5
    0.14516345   2    1000006   -6
    0.14516345   2   -1000006    6
    0.12319976   2    2000006   -6
    0.12319976   2   -2000006    6
    0.079024446   2    2000005   -5
    0.079024446   2   -2000005    5

DECAY 25  0.0045159675
    0.70060032   2   -5    5
    0.12372897   2   -24    24
    0.080000052   2   -15    15
    0.055167308   2    21    21
    0.023588234   2   -4    4
    0.013763352   2    23    23
    0.0017480459   2    22    22
    0.0008626303   2    22    23
    0.00027762724   2   -13    13
    0.0002626102   2   -3    3
    7.2607944e-07   2   -1    1
    1.2156587e-07   2   -2    2
    6.2414331e-09   2   -11    11

DECAY 35  1.0647742
    0.86625064   2   -5    5
    0.12203852   2   -15    15
    0.0078002999   2    25    25
    0.0017862354   2   -24    24
    0.00080920784   2    23    23
    0.00054990341   2    21    21
    0.00042399145   2   -13    13
    0.00033790886   2   -3    3
    1.6930972e-06   2   -4    4
    9.3421772e-07   2   -1    1
    5.0327485e-07   2    22    22
    1.5835542e-07   2    22    23
    9.5290054e-09   2   -11    11
    8.7350018e-12   2   -2    2

DECAY 36  1.0506016
    0.87460743   2   -5    5
    0.12317089   2   -15    15
    0.0011401156   2    23    25
    0.00042787362   2   -13    13
    0.00034105859   2   -3    3
    0.00031007169   2    21    21
    1.0898106e-06   2   -4    4
    9.4292578e-07   2   -1    1
    4.5238583e-07   2    22    22
    7.0536282e-08   2    22    23
    9.6162548e-09   2   -11    11
    5.6242153e-12   2   -2    2
    8.305999e-35   2    25    25

DECAY 37  0.67375424
    0.80311667   2   -5    6
    0.19143765   2   -15    16
    0.0022383714   2    24    25
    0.0019010948   2   -5    4
    0.00067683659   2   -13    14
    0.00047841411   2   -3    4
    0.00010891166   2   -3    6
    2.1653097e-05   2   -3    2
    1.3576135e-05   2   -5    2
    4.9780105e-06   2   -1    6
    1.3224057e-06   2   -1    2
    1.9608544e-07   2    24    36
    1.6437615e-07   2    24    35
    1.4197886e-07   2   -1    4
    1.5831281e-08   2   -11    12

DECAY 6  2.43
    1   2    5    24

DECAY 15 -1
