BLOCK SPINFO
   1   SPheno
   2   v4.0.5be

BLOCK SPHENOINFO
   1   2
   2   2

BLOCK MODSEL
   1   0

BLOCK MINPAR
   3    24.704052
   4    1

BLOCK EXTPAR
   0    4394.5709
   1    1070.9022
   2   -4570.0692
   3    2746.9293
   11   -4224.9471
   12    2174.4593
   13    2329.1002
   23    3472.8887
   25    23.595973
   26    4191.0671
   31    2181.5343
   32    2181.5343
   33    2208.9679
   34    4466.3767
   35    4466.3767
   36    2350.9535
   41    2149.9638
   42    2149.9638
   43    3794.7594
   44    4996.8405
   45    4996.8405
   46    4924.6305
   47    4670.8425
   48    4670.8425
   49    1467.0472

BLOCK SMINPUTS
   1    127.90897
   2    1.1663787e-05
   3    0.1184
   4    91.1876
   5    4.18
   6    173.2
   7    1.777
   8    0
   11    0.00051099893
   12    0
   13    0.10565837
   14    0
   21    0.005
   22    0.0025
   23    0.095
   24    1.27

BLOCK GAUGE Q=  4394.5709
   1    0.35536298
   2    0.66519887
   3    1.219778

BLOCK YU Q=  4394.5709
   1   1    8.3918982e-06
   2   2    0.0042630843
   3   3    1.0138087

BLOCK YD Q=  4394.5709
   1   1    0.00039790404
   2   2    0.0075601767
   3   3    0.39459612

BLOCK YE Q=  4394.5709
   1   1    6.9437164e-05
   2   2    0.014357403
   3   3    0.2414679

BLOCK AU Q=  4394.5709
   1   1    0
   2   2    0
   3   3   -4224.9497

BLOCK AD Q=  4394.5709
   1   1    0
   2   2    0
   3   3    2174.4578

BLOCK AE Q=  4394.5709
   1   1    0
   2   2    0
   3   3    2329.0998

BLOCK MSOFT Q=  4394.5709
   1    1070.9022
   2   -4570.0692
   3    2746.9293
   21    5201384.3
   22   -11744616
   31    2181.5343
   32    2181.5343
   33    2208.9679
   34    4466.3767
   35    4466.3767
   36    2350.9535
   41    2149.9638
   42    2149.9638
   43    3794.7594
   44    4996.8405
   45    4996.8405
   46    4924.6305
   47    4670.8425
   48    4670.8425
   49    1467.0472

BLOCK MASS
   6    173.2
   23    91.1876
   24    80.429995
   15    1.777
   25    122.42368
   35    4191.0868
   36    4191.0671
   37    4192.1393
   1000001    2373.0004
   2000001    4754.8352
   1000002    2371.7046
   2000002    5076.6923
   1000003    2372.9998
   2000003    4754.833
   1000004    2371.7042
   2000004    5076.6917
   1000005    1677.1155
   2000005    3916.6591
   1000006    3912.8586
   2000006    4935.5869
   1000011    2229.7639
   2000011    4473.2821
   1000012    2227.9877
   1000013    2229.7571
   2000013    4473.2656
   1000014    2227.9839
   1000015    2246.0549
   2000015    2361.1956
   1000016    2252.2702
   1000021    3024.0594
   1000022    1061.594
   1000023   -3488.5489
   1000025    3491.8362
   1000035   -4498.0143
   1000024    3489.0133
   1000037    4498.0626

BLOCK ALPHA
      -0.04049607

BLOCK HMIX Q=  4394.5709
   1    3472.8887
   2    23.595973
   3    242.85447
   4    17565044

BLOCK STOPMIX
   1   1    0.9977452
   1   2    0.067115768
   2   1   -0.067115768
   2   2    0.9977452

BLOCK SBOTMIX
   1   1    0.011344199
   1   2    0.99993565
   2   1   -0.99993565
   2   2    0.011344199

BLOCK STAUMIX
   1   1    0.96681971
   1   2    0.25545967
   2   1   -0.25545967
   2   2    0.96681971

BLOCK NMIX
   1   1   -0.99988725
   1   2   -7.8899946e-05
   1   3   -0.014196489
   1   4    0.0048919506
   2   1    0.0065726319
   2   2    0.050270842
   2   3   -0.70646018
   2   4   -0.7059346
   3   1    0.013497401
   3   2   -0.0071142091
   3   3   -0.70695177
   3   4    0.70709717
   4   1   -0.00031368402
   4   2    0.99871028
   4   3    0.030523192
   4   4    0.040571075

BLOCK UMIX
   1   1   -0.044928871
   1   2    0.99899019
   2   1   -0.99899019
   2   2   -0.044928871

BLOCK VMIX
   1   1    0.059217408
   1   2    0.99824511
   2   1    0.99824511
   2   2   -0.059217408

BLOCK HIGGSBOUNDSINPUTHIGGSCOUPLINGSFERMIONS
       0, 556.76994,3,36,15,15

BLOCK HIGGSBOUNDSINPUTHIGGSCOUPLINGSBOSONS
       0,4,36,21,21,23

BLOCK SPHENOLOWENERGY
   1    0.0003208667
   2    1.5904913e-06
   3    3.5260399e-05
   4    2.3365755e-15
   5    9.9815801e-11
   6    2.0892477e-08
   7    7.8201757e-14
   8    3.3407752e-09
   9    7.0852673e-07
   10    9.6626282e-05
   11    0.9981125
   12    0.54173726
   13    19.355637
   14    0
   15    0
   16    0.0021563904
   17    2.2816489e-15
   18    2.4806066e-11
   19    8.2915534e-11
   20   -3.7935471e-16
   21   -1.6218231e-11
   22   -3.3838686e-09
   23    0
   24    0
   25    0
   26    0
   27    0
   28    0
   29    0
   30    0
   31    0
   39    5.3037302e-05
   40    0
   41    0
   42    0

BLOCK FWCOEF Q=  160
   305   4422   0   0   -0.18881911
   305   4422   0   2   -0.18859758
   305   4322   0   2    2.5540437e-05
   305   6421   0   0   -0.095227835
   305   6421   0   2   -0.099841137
   305   6321   0   2   -6.6180853e-05
   3051111   4133   0   0    1.6297685
   3051111   4133   0   2    1.6298609
   3051111   4233   0   2    9.5072944e-05
   3051111   4137   0   0   -4.4524606
   3051111   4137   0   2   -4.4515856
   3051111   4237   0   2   -0.00069933728
   3051313   4133   0   0    1.6297685
   3051313   4133   0   2    1.6298606
   3051313   4233   0   2    9.5072913e-05
   3051313   4137   0   0   -4.4524606
   3051313   4137   0   2   -4.4515859
   3051313   4237   0   2   -0.00069933734
   3051212   4137   0   0    1.5053501
   3051212   4137   0   2    1.505161
   3051212   4237   0   2    0.00015111704
   3051414   4137   0   0    1.5053501
   3051414   4137   0   2    1.505161
   3051414   4237   0   2    0.00015111705
   3051616   4137   0   0    1.5053501
   3051616   4137   0   2    1.505161
   3051616   4237   0   2    0.00015111785

BLOCK IMFWCOEF Q=  160
   305   4422   0   0    3.8585254e-07
   305   4422   0   2    8.5077317e-06
   305   4322   0   2    1.7961606e-06
   305   6421   0   0    3.3050822e-07
   305   6421   0   2   -2.7629882e-05
   305   6321   0   2    6.1583287e-07
   3051111   4133   0   2   -4.83586e-07
   3051111   4233   0   2    1.8620926e-06
   3051111   4137   0   2    5.461545e-06
   3051111   4237   0   2   -1.3699842e-05
   3051313   4133   0   2   -4.8358351e-07
   3051313   4233   0   2    1.8620923e-06
   3051313   4137   0   2    5.4615464e-06
   3051313   4237   0   2   -1.3699844e-05
   3051212   4137   0   2   -1.1807214e-06
   3051212   4237   0   2    2.9603475e-06
   3051414   4137   0   2   -1.1807216e-06
   3051414   4237   0   2    2.9603475e-06
   3051616   4137   0   2   -1.1806866e-06
   3051616   4237   0   2    2.9603476e-06

DECAY 23  2.4952


DECAY 24  2.085


DECAY 1000011  1.675176
    1   2    1000022    11

DECAY 2000011  20.012389
    0.99996131   2    1000022    11

DECAY 1000013  1.6751662
    1   2    1000022    13

DECAY 2000013  20.022055
    0.99947416   2    1000022    13
    0.00020683163   2    1000013    25
    0.00014025209   2   -1000024    14
    0.0001011052   2    1000025    13

DECAY 1000015  2.0482083
    1   2    1000022    15

DECAY 2000015  7.3519451
    0.97487103   2    1000022    15
    0.017847392   2    1000016   -24
    0.0072815757   2    1000015    23

DECAY 1000012  1.671289
    1   2    1000022    12

DECAY 1000014  1.6712828
    1   2    1000022    14

DECAY 1000016  1.7108564
    0.99999999   2    1000022    16

DECAY 1000001  0.21166602
    1   2    1000022    1

DECAY 2000001  135.4941
    0.98231561   2    1000021    1
    0.017683388   2    1000022    1

DECAY 1000003  0.21166619
    1   2    1000022    3

DECAY 2000003  135.49724
    0.98229115   2    1000021    3
    0.017682975   2    1000022    3

DECAY 1000005  0.33681381
    1   2    1000022    5

DECAY 2000005  59.534966
    0.84686728   2    1000021    5
    0.061868668   2    1000005    25
    0.050744842   2   -1000024    6
    0.023991028   2    1000005    23
    0.0078757819   2    1000022    5
    0.004359759   2    1000023    5
    0.0042926374   2    1000025    5

DECAY 1000002  0.21180985
    1   2    1000022    2

DECAY 2000002  177.16379
    0.94149096   2    1000021    2
    0.058505028   2    1000022    2

DECAY 1000004  0.21180963
    1   2    1000022    4

DECAY 2000004  177.16468
    0.94148552   2    1000021    4
    0.058504715   2    1000022    4

DECAY 1000006  56.936703
    0.8779605   2    1000021    6
    0.049773231   2    1000005    24
    0.025859385   2    1000023    6
    0.024935046   2    1000025    6
    0.0091154315   2    1000022    6
    0.008914242   2    1000024    5
    0.0033092965   3    1000022    24    5

DECAY 2000006  252.22394
    0.59322232   2    1000021    6
    0.099943368   2    1000024    5
    0.073455224   2    2000005    24
    0.056562235   2    1000006    25
    0.050273869   2    1000023    6
    0.050200637   2    1000025    6
    0.039375637   2    1000022    6
    0.036832903   2    1000006    23
    0.00012997099   2    1000005    24

DECAY 1000024  13.7386
    0.70185266   2   -1000005    6
    0.17660738   2    1000022    24
    0.051316341   2    1000016   -15
    0.037765234   2   -2000015    16
    0.0099589664   3    1000022   -5    6
    0.0070975778   2   -1000015    16
    0.0035276329   2    1000004   -3
    0.0034030239   2    1000002   -1
    0.0019954413   2   -1000003    4
    0.001955047   2   -1000001    2
    0.0015569608   2    1000014   -13
    0.001374793   2    1000012   -11
    0.00078965491   2   -1000013    14
    0.00078964829   2   -1000011    12

DECAY 1000037  219.01006
    0.14096051   2   -1000001    2
    0.14096049   2   -1000003    4
    0.14086895   2    1000004   -3
    0.14086887   2    1000002   -1
    0.051325929   2   -1000013    14
    0.051325726   2   -1000011    12
    0.051302557   2    1000014   -13
    0.051302388   2    1000012   -11
    0.050589148   2    1000016   -15
    0.047109784   2   -1000015    16
    0.026084809   2    1000024    25
    0.024326041   2    1000024    23
    0.024270804   2    1000025    24
    0.021604262   2    1000023    24
    0.016133841   2    1000006   -5
    0.014457797   2   -2000005    6
    0.0034834826   2   -2000015    16
    0.0010210498   3    1000023   -5    6
    0.00099562051   3    1000024    6   -6
    0.0008056868   3    1000025   -5    6

DECAY 1000022 -1


DECAY 1000023  14.693371
    0.32609712   2    1000005   -5
    0.32609712   2   -1000005    5
    0.13370512   2    1000022    23
    0.10497668   2    1000022    25
    0.025574375   2    1000015   -15
    0.025574375   2   -1000015    15
    0.018911955   2    2000015   -15
    0.018911955   2   -2000015    15
    0.0061362811   3    1000022    6   -6
    0.0012178748   2    1000004   -4
    0.0012178748   2   -1000004    4
    0.0011997194   2    1000002   -2
    0.0011997194   2   -1000002    2
    0.0011493627   2    1000003   -3
    0.0011493627   2   -1000003    3
    0.0010911269   2    1000001   -1
    0.0010911269   2   -1000001    1
    0.00061377375   2    1000013   -13
    0.00061377375   2   -1000013    13
    0.00052872884   2    1000011   -11
    0.00052872884   2   -1000011    11
    0.00040054828   2    1000014   -14
    0.00040054828   2   -1000014    14
    0.00040054639   2    1000012   -12
    0.00040054639   2   -1000012    12
    0.00038854331   2    1000016   -16
    0.00038854331   2   -1000016    16

DECAY 1000025  13.286594
    0.36103948   2    1000005   -5
    0.36103948   2   -1000005    5
    0.1372211   2    1000022    25
    0.035306595   2    1000022    23
    0.025696963   2    1000015   -15
    0.025696963   2   -1000015    15
    0.022887311   2    2000015   -15
    0.022887311   2   -2000015    15
    0.0073546225   3    1000022    6   -6
    0.00011039565   2    1000003   -3
    0.00011039565   2   -1000003    3

DECAY 1000035  227.33609
    0.06790869   2    1000004   -4
    0.06790869   2   -1000004    4
    0.067908629   2    1000002   -2
    0.067908629   2   -1000002    2
    0.067866699   2    1000003   -3
    0.067866699   2   -1000003    3
    0.067866659   2    1000001   -1
    0.067866659   2   -1000001    1
    0.029163405   2    1000025    25
    0.025597294   2    1000024   -24
    0.025597294   2   -1000024    24
    0.024742519   2    1000014   -14
    0.024742519   2   -1000014    14
    0.024742464   2    1000012   -12
    0.024742464   2   -1000012    12
    0.024700341   2    1000013   -13
    0.024700341   2   -1000013    13
    0.024700225   2    1000011   -11
    0.024700225   2   -1000011    11
    0.024669813   2    1000023    25
    0.02439112   2    1000016   -16
    0.02439112   2   -1000016    16
    0.022683758   2    1000015   -15
    0.022683758   2   -1000015    15
    0.021847299   2    1000025    23
    0.007926359   2    1000006   -6
    0.007926359   2   -1000006    6
    0.0076234213   2    2000005   -5
    0.0076234213   2   -2000005    5
    0.0016692109   2    2000015   -15
    0.0016692109   2   -2000015    15
    0.0010192364   3    1000024    5   -6
    0.0010192364   3   -1000024   -5    6
    0.00049282039   3    1000025    6   -6
    0.00043675518   2    1000023    23
    0.00041699856   3    1000023    6   -6

DECAY 1000021  95.869978
    0.22381005   2    1000005   -5
    0.22381005   2   -1000005    5
    0.069164254   2    1000002   -2
    0.069164254   2   -1000002    2
    0.069164233   2    1000004   -4
    0.069164233   2   -1000004    4
    0.068922977   2    1000003   -3
    0.068922977   2   -1000003    3
    0.068922862   2    1000001   -1
    0.068922862   2   -1000001    1

DECAY 25  0.003563972
    0.61124971   2   -5    5
    0.18833041   2   -24    24
    0.074277095   2    21    21
    0.070097857   2   -15    15
    0.030301107   2   -4    4
    0.02164554   2    23    23
    0.0023405627   2    22    22
    0.0012841938   2    22    23
    0.00024312391   2   -13    13
    0.00022960215   2   -3    3
    6.3482674e-07   2   -1    1
    1.5615732e-07   2   -2    2
    5.4657297e-09   2   -11    11

DECAY 35  19.874512
    0.76969476   2   -5    5
    0.21941965   2   -15    15
    0.0096867193   2   -6    6
    0.00076218244   2   -13    13
    0.00031568616   2   -3    3
    5.8563897e-05   2    1000022    1000022
    5.4285203e-05   2   -1000005    1000005
    3.5005857e-06   2    25    25
    2.6592368e-06   2    21    21
    8.7271959e-07   2   -1    1
    8.2761954e-07   2    23    23
    1.6568412e-07   2   -24    24
    1.0740476e-07   2   -4    4
    1.7116131e-08   2   -11    11
    2.561411e-09   2    22    22
    1.1530268e-09   2    22    23
    5.5343704e-13   2   -2    2

DECAY 36  19.136352
    0.7707829   2   -5    5
    0.21971183   2   -15    15
    0.0083158932   2   -6    6
    0.00076319277   2   -13    13
    0.00031612276   2   -3    3
    8.7033474e-05   2    1000022    1000022
    2.0037319e-05   2    21    21
    1.9092719e-06   2    23    25
    8.7393457e-07   2   -1    1
    9.0073946e-08   2   -4    4
    6.2341721e-08   2    22    22
    3.9672476e-08   2    22    23
    1.7139069e-08   2   -11    11
    4.6413934e-13   2   -2    2
    9.8053258e-36   2    25    25

DECAY 37  22.52004
    0.77039233   2   -5    6
    0.22719474   2   -15    16
    0.0011259585   2   -5    4
    0.00080321425   2   -13    14
    0.00026051301   2   -3    4
    0.00018155431   2   -1000005    1000004
    1.6949151e-05   2   -3    6
    1.2240259e-05   2   -3    2
    8.0405029e-06   2   -5    2
    1.6241635e-06   2    24    25
    1.2964853e-06   2   -1000005    1000002
    7.5956133e-07   2   -1    6
    7.2232139e-07   2   -1    2
    4.0778175e-08   2   -1    4
    1.8787265e-08   2   -11    12
    8.5663711e-14   2    24    36
    7.8081831e-14   2    24    35

DECAY 6  2.43
    1   2    5    24

DECAY 15 -1
