BLOCK SPINFO
   1   SPheno
   2   v4.0.5be

BLOCK SPHENOINFO
   1   2
   2   2

BLOCK MODSEL
   1   0

BLOCK MINPAR
   3    7.5712487
   4   -1

BLOCK EXTPAR
   0    1070.9291
   1   -336.98787
   2   -332.86125
   3    3000
   11   -3211.7207
   12    1693.0706
   13    899.60863
   23   -1598.4046
   25    7.2930334
   26    986.32384
   31    1974.419
   32    1974.419
   33    1430.9204
   34    382.5942
   35    382.5942
   36    731.24524
   41    5000
   42    5000
   43    1342.0906
   44    5000
   45    5000
   46    1099.6565
   47    5000
   48    5000
   49    1174.7973

BLOCK SMINPUTS
   1    127.90897
   2    1.1663787e-05
   3    0.1184
   4    91.1876
   5    4.18
   6    173.2
   7    1.777
   8    0
   11    0.00051099893
   12    0
   13    0.10565837
   14    0
   21    0.005
   22    0.0025
   23    0.095
   24    1.27

BLOCK GAUGE Q=  1070.9291
   1    0.35536298
   2    0.66519887
   3    1.219778

BLOCK YU Q=  1070.9291
   1   1    8.4628229e-06
   2   2    0.004299114
   3   3    1.022377

BLOCK YD Q=  1070.9291
   1   1    0.00012402342
   2   2    0.002356445
   3   3    0.12299237

BLOCK YE Q=  1070.9291
   1   1    2.1642994e-05
   2   2    0.0044750847
   3   3    0.075263562

BLOCK AU Q=  1070.9291
   1   1    0
   2   2    0
   3   3   -3211.7206

BLOCK AD Q=  1070.9291
   1   1    0
   2   2    0
   3   3    1693.0705

BLOCK AE Q=  1070.9291
   1   1    0
   2   2    0
   3   3    899.60863

BLOCK MSOFT Q=  1070.9291
   1   -336.98787
   2   -332.86125
   3    3000
   21   -1600199.4
   22   -2517676.1
   31    1974.419
   32    1974.419
   33    1430.9204
   34    382.5942
   35    382.5942
   36    731.24524
   41    5000
   42    5000
   43    1342.0906
   44    5000
   45    5000
   46    1099.6565
   47    5000
   48    5000
   49    1174.7973

BLOCK MASS
   6    173.2
   23    91.1876
   24    80.429995
   15    1.777
   25    120.46618
   35    985.96895
   36    986.32384
   37    989.75646
   1000001    5011.7994
   2000001    5001.075
   1000002    5011.3814
   2000002    5002.5234
   1000003    5011.8004
   2000003    5001.0751
   1000004    5011.3822
   2000004    5002.5247
   1000005    1099.132
   2000005    1247.2687
   1000006    859.20465
   2000006    1334.8265
   1000011    1978.4579
   2000011    388.12681
   1000012    1976.5665
   1000013    1978.4578
   2000013    388.12656
   1000014    1976.5663
   1000015    733.81393
   2000015    1434.1745
   1000016    1431.6026
   1000021    3159.7617
   1000022   -335.8114
   1000023   -355.94611
   1000025    1589.1441
   1000035   -1591.75
   1000024    356.09294
   1000037    1592.1342

BLOCK ALPHA
      -0.1341949

BLOCK HMIX Q=  1070.9291
   1   -1598.4046
   2    7.2930334
   3    244.31446
   4    972834.71

BLOCK STOPMIX
   1   1    0.45156264
   1   2    0.89223942
   2   1   -0.89223942
   2   2    0.45156264

BLOCK SBOTMIX
   1   1   -0.098083675
   1   2    0.99517817
   2   1   -0.99517817
   2   2   -0.098083675

BLOCK STAUMIX
   1   1   -0.014591495
   1   2    0.99989354
   2   1   -0.99989354
   2   2   -0.014591495

BLOCK NMIX
   1   1    0.99822491
   1   2   -0.048788356
   1   3   -0.032448924
   1   4    0.010667153
   2   1    0.050585801
   2   2    0.99726406
   2   3    0.051112662
   2   4   -0.017116274
   3   1    0.014196848
   3   2   -0.024792259
   3   3    0.7064811
   3   4    0.70715504
   4   1    0.028045513
   4   2   -0.049693405
   4   3    0.70513759
   4   4   -0.70677082

BLOCK UMIX
   1   1   -0.99722619
   1   2   -0.074430681
   2   1   -0.074430681
   2   2    0.99722619

BLOCK VMIX
   1   1    0.99968864
   1   2    0.024952625
   2   1    0.024952625
   2   2   -0.99968864

BLOCK HIGGSBOUNDSINPUTHIGGSCOUPLINGSFERMIONS
       0, 53.188336,3,36,15,15

BLOCK HIGGSBOUNDSINPUTHIGGSCOUPLINGSBOSONS
       0,4,36,21,21,23

BLOCK SPHENOLOWENERGY
   1    0.00036382126
   2    1.5882003e-06
   3    3.5271328e-05
   4    2.6132482e-15
   5    1.11635e-10
   6    2.3370091e-08
   7    8.8119644e-14
   8    3.7644686e-09
   9    7.9848554e-07
   10    9.6430681e-05
   11    0.99609201
   12    0.54406234
   13    19.438329
   14    0
   15    0
   16    0.0021673483
   17    2.2817616e-15
   18    2.482291e-11
   19    8.2954771e-11
   20    6.6929911e-16
   21    2.8614363e-11
   22    1.8251461e-08
   23    0
   24    0
   25    0
   26    0
   27    0
   28    0
   29    0
   30    0
   31    0
   39   -4.7112718e-05
   40    0
   41    0
   42    0

BLOCK FWCOEF Q=  160
   305   4422   0   0   -0.18881911
   305   4422   0   2   -0.23323331
   305   4322   0   2   -0.00072255702
   305   6421   0   0   -0.095227835
   305   6421   0   2   -0.14153783
   305   6321   0   2   -0.00080326641
   3051111   4133   0   0    1.5797375
   3051111   4133   0   2    1.5804955
   3051111   4233   0   2    5.0090358e-07
   3051111   4137   0   0   -4.4024296
   3051111   4137   0   2   -4.4025404
   3051111   4237   0   2   -3.3902229e-06
   3051313   4133   0   0    1.5797375
   3051313   4133   0   2    1.5804954
   3051313   4233   0   2    5.0088459e-07
   3051313   4137   0   0   -4.4024296
   3051313   4137   0   2   -4.4025405
   3051313   4237   0   2   -3.3902071e-06
   3051212   4137   0   0    1.5053501
   3051212   4137   0   2    1.505388
   3051212   4237   0   2    7.3064465e-07
   3051414   4137   0   0    1.5053501
   3051414   4137   0   2    1.505388
   3051414   4237   0   2    7.3064853e-07
   3051616   4137   0   0    1.5053501
   3051616   4137   0   2    1.5053888
   3051616   4237   0   2    7.3142138e-07

BLOCK IMFWCOEF Q=  160
   305   4422   0   0    3.8578879e-07
   305   4422   0   2    2.31713e-06
   305   4322   0   2   -1.1553711e-06
   305   6421   0   0    3.3045361e-07
   305   6421   0   2    4.592248e-06
   305   6321   0   2   -5.3246116e-07
   3051111   4133   0   2   -1.6238829e-06
   3051111   4233   0   2    1.3451579e-07
   3051111   4137   0   2    2.0519e-05
   3051111   4237   0   2   -1.0585055e-06
   3051313   4133   0   2   -1.6238827e-06
   3051313   4233   0   2    1.3451577e-07
   3051313   4137   0   2    2.0519001e-05
   3051313   4237   0   2   -1.0585055e-06
   3051212   4137   0   2   -4.2245758e-06
   3051212   4237   0   2    2.3114663e-07
   3051414   4137   0   2   -4.2245758e-06
   3051414   4237   0   2    2.3114663e-07
   3051616   4137   0   2   -4.2105981e-06
   3051616   4237   0   2    2.3114093e-07

DECAY 23  2.4952


DECAY 24  2.085


DECAY 2000011  0.12295558
    0.99897455   2    1000022    11
    0.0010254502   2    1000023    11

DECAY 1000011  26.712076
    0.60706642   2   -1000024    12
    0.32024846   2    1000023    11
    0.07217553   2    1000022    11
    0.00044857199   2   -1000037    12

DECAY 2000013  0.12295443
    0.99897436   2    1000022    13
    0.001025464   2    1000023    13

DECAY 1000013  26.712423
    0.60705849   2   -1000024    14
    0.32024435   2    1000023    13
    0.072174613   2    1000022    13
    0.00044856598   2   -1000037    14

DECAY 1000015  2.3046105
    0.99632052   2    1000022    15
    0.0028149539   2    1000023    15
    0.00086452807   2   -1000024    16

DECAY 2000015  18.370517
    0.6014959   2   -1000024    16
    0.31735779   2    1000023    15
    0.072097194   2    1000022    15
    0.0045473787   2    1000015    23
    0.0045017367   2    1000015    25

DECAY 1000012  26.732494
    0.60894137   2    1000024    11
    0.28681273   2    1000023    12
    0.1039851   2    1000022    12
    0.00016816998   2    1000035    12

DECAY 1000014  26.732597
    0.60893907   2    1000024    13
    0.28681158   2    1000023    14
    0.10398469   2    1000022    14
    0.00016816918   2    1000035    14

DECAY 1000016  18.378997
    0.6031338   2    1000024    15
    0.28407651   2    1000023    16
    0.10372483   2    1000022    16
    0.0090648627   2    1000015    24

DECAY 2000001  145.25995
    0.9809553   2    1000021    1
    0.018980651   2    1000022    1

DECAY 1000001  209.75823
    0.68465234   2    1000021    1
    0.20706144   2   -1000024    2
    0.10167741   2    1000023    1
    0.0053491101   2    1000022    1
    0.00094191058   2   -1000037    2
    0.00025427574   2    1000035    1

DECAY 2000003  145.26084
    0.98094929   2    1000021    3
    0.018980538   2    1000022    3

DECAY 1000003  209.76029
    0.68464614   2    1000021    3
    0.20705942   2   -1000024    4
    0.10167645   2    1000023    3
    0.0053490616   2    1000022    3
    0.0009490311   2   -1000037    4
    0.00025533031   2    1000035    3

DECAY 1000005  0.72904928
    0.69143978   2    1000022    5
    0.12324397   2   -1000024    6
    0.11929838   2    1000006   -24
    0.066017867   2    1000023    5

DECAY 2000005  49.56948
    0.72901359   2    1000006   -24
    0.17428646   2   -1000024    6
    0.090170123   2    1000023    5
    0.0048712881   2    1000022    5
    0.00096739018   2    1000005    25
    0.00069114751   2    1000005    23

DECAY 2000002  153.71345
    0.92798951   2    1000021    2
    0.07176838   2    1000022    2
    0.00018409748   2    1000023    2

DECAY 1000002  209.75254
    0.68446314   2    1000021    2
    0.20807323   2    1000024    1
    0.10541227   2    1000023    2
    0.0017334675   2    1000022    2
    0.00016985658   2    1000035    2
    0.00010585751   2    1000037    1

DECAY 2000004  153.7165
    0.92797159   2    1000021    4
    0.071766968   2    1000022    4
    0.00018409726   2    1000023    4

DECAY 1000004  209.75451
    0.68445684   2    1000021    4
    0.20807133   2    1000024    3
    0.10541129   2    1000023    4
    0.0017334521   2    1000022    4
    0.0001733927   2    1000035    4
    0.00010797321   2    1000037    3

DECAY 1000006  2.3361863
    0.42835847   2    1000022    6
    0.38656788   2    1000024    5
    0.18506429   2    1000023    6

DECAY 2000006  52.202427
    0.47660836   2    1000006    23
    0.26317893   2    1000006    25
    0.16057739   2    1000024    5
    0.078335955   2    1000023    6
    0.011651601   2    1000022    6
    0.0065702469   2    1000005    24
    0.0030775218   2    2000005    24

DECAY 1000024  1.3883536e-07
    0.33656784   3    1000022   -1    2
    0.33027417   3    1000022   -3    4
    0.11234149   3    1000022   -11    12
    0.11233141   3    1000022   -13    14
    0.10848508   3    1000022   -15    16

DECAY 1000037  43.82275
    0.46165923   2    1000006   -5
    0.13962418   2   -2000005    6
    0.087320244   2    1000023    24
    0.087000167   2    1000024    25
    0.082102791   2    1000024    23
    0.032384659   2    37    1000023
    0.022488856   2    1000022    24
    0.021473948   2    1000024    35
    0.021455552   2    1000024    36
    0.020406923   2    2000006   -5
    0.009460996   2   -1000005    6
    0.0071816548   2    37    1000022
    0.0033713189   3    1000024    6   -6
    0.002213768   3    1000023   -5    6
    0.0012382909   2   -1000015    16
    0.00049972125   3    1000022   -5    6

DECAY 1000022 -1


DECAY 1000023  2.1345836e-10
    0.44087377   3    1000022    13   -13
    0.44083664   3    1000022    11   -11
    0.036300779   3    1000022    5   -5
    0.018703661   3    1000022    1   -1
    0.018699904   3    1000022    3   -3
    0.014186939   3    1000022    2   -2
    0.01357007   3    1000022    4   -4
    0.011715036   2    1000022    22
    0.0026174758   3    1000022    15   -15
    0.0024957188   3    1000022    12   -12

DECAY 1000025  48.883972
    0.30581655   2    1000006   -6
    0.30581655   2   -1000006    6
    0.073708412   2    1000024   -24
    0.073708412   2   -1000024    24
    0.05590415   2    1000023    23
    0.034947703   2    1000023    25
    0.0231928   2    1000023    35
    0.022708274   2    1000022    23
    0.018802365   2    37   -1000024
    0.018802365   2   -37    1000024
    0.014222428   2    2000006   -6
    0.014222428   2   -2000006    6
    0.012391891   2    1000022    25
    0.0083575297   2    1000022    35
    0.0026032175   2    1000023    36
    0.002461287   3    1000024    5   -6
    0.002461287   3   -1000024   -5    6
    0.001923764   2    1000005   -5
    0.001923764   2   -1000005    5
    0.0011474595   2    2000005   -5
    0.0011474595   2   -2000005    5
    0.001052919   2    1000022    36
    0.0010203159   3    1000023    6   -6
    0.00057177641   2    1000015   -15
    0.00057177641   2   -1000015    15
    0.00037563189   3    1000022    6   -6

DECAY 1000035  49.795767
    0.31732807   2    1000006   -6
    0.31732807   2   -1000006    6
    0.072877428   2    1000024   -24
    0.072877428   2   -1000024    24
    0.05863979   2    1000023    25
    0.026864693   2    37   -1000024
    0.026864693   2   -37    1000024
    0.020786771   2    1000022    25
    0.014621335   2    2000006   -6
    0.014621335   2   -2000006    6
    0.013608829   2    1000023    23
    0.013156883   2    1000023    35
    0.0056825833   2    1000022    23
    0.0047377874   2    1000022    35
    0.0044755108   2    1000023    36
    0.0021541646   3    1000024    5   -6
    0.0021541646   3   -1000024   -5    6
    0.0018350539   2    1000005   -5
    0.0018350539   2   -1000005    5
    0.0018077764   2    1000022    36
    0.0012850026   3    1000023    6   -6
    0.0012467418   2    2000005   -5
    0.0012467418   2   -2000005    5
    0.00058601982   2    1000015   -15
    0.00058601982   2   -1000015    15
    0.00046784853   3    1000022    6   -6

DECAY 1000021  281.57925
    0.12881603   2    1000006   -6
    0.12881603   2   -1000006    6
    0.12839451   2    1000005   -5
    0.12839451   2   -1000005    5
    0.1239002   2    2000006   -6
    0.1239002   2   -2000006    6
    0.11828338   2    2000005   -5
    0.11828338   2   -2000005    5
    0.0002838868   3    1000025    6   -6
    0.00026874479   3    1000035    6   -6
    0.00025681528   3    1000037    5   -6
    0.00025681528   3   -1000037   -5    6

DECAY 25  0.0034610162
    0.64871955   2   -5    5
    0.15529872   2   -24    24
    0.073895212   2   -15    15
    0.070310666   2    21    21
    0.030740366   2   -4    4
    0.017159411   2    23    23
    0.0022803381   2    22    22
    0.0010956251   2    22    23
    0.00025630206   2   -13    13
    0.0002429751   2   -3    3
    6.7180159e-07   2   -1    1
    1.5842681e-07   2   -2    2
    5.7620194e-09   2   -11    11

DECAY 35  1.7463484
    0.48117899   2   -5    5
    0.42299113   2   -6    6
    0.067594802   2   -15    15
    0.0096067775   2   -1000024    1000024
    0.0075560134   2    25    25
    0.0065470185   2    1000022    1000022
    0.0013058681   2    1000022    1000023
    0.0012908227   2   -24    24
    0.00094674572   2    23    23
    0.00029012843   2    21    21
    0.00023377966   2   -13    13
    0.0001655029   2   -3    3
    0.00010871093   2   -1000011    1000011
    0.00010864713   2   -1000013    1000013
    6.5084424e-05   2    1000023    1000023
    5.1843292e-06   2   -4    4
    2.1673742e-06   2    22    22
    2.1616378e-06   2    22    23
    4.5758701e-07   2   -1    1
    5.2523554e-09   2   -11    11
    2.6730393e-11   2   -2    2

DECAY 36  1.8384841
    0.45101107   2   -5    5
    0.44705747   2   -6    6
    0.063343098   2   -15    15
    0.019835389   2   -1000024    1000024
    0.013507814   2    1000022    1000022
    0.0027369407   2    1000022    1000023
    0.0013185324   2    23    25
    0.00066325361   2    21    21
    0.00021907169   2   -13    13
    0.00015508148   2   -3    3
    0.00013862887   2    1000023    1000023
    4.7805475e-06   2   -4    4
    4.7087464e-06   2    22    23
    3.7201226e-06   2    22    22
    4.2877343e-07   2   -1    1
    4.921907e-09   2   -11    11
    2.4652084e-11   2   -2    2
    8.4466292e-36   2    25    25

DECAY 37  1.6033111
    0.91636415   2   -5    6
    0.070768221   2   -15    16
    0.0092037126   2    1000023    1000024
    0.0015377299   2    24    25
    0.00070165415   2   -5    4
    0.00064939928   2   -3    6
    0.00031454699   2    1000022    1000024
    0.00025019236   2   -13    14
    0.00016740324   2   -3    4
    2.9774258e-05   2   -1    6
    7.4439778e-06   2   -3    2
    5.0104818e-06   2   -5    2
    4.4730776e-07   2   -1    2
    3.0828663e-07   2   -1    4
    5.8520254e-09   2   -11    12
    6.5915339e-10   2    24    35
    4.031673e-10   2    24    36

DECAY 6  2.43
    1   2    5    24

DECAY 15 -1
