BLOCK SPINFO
   1   SPheno
   2   v4.0.5be

BLOCK SPHENOINFO
   1   2
   2   2

BLOCK MODSEL
   1   0

BLOCK MINPAR
   3    35.285935
   4   -1

BLOCK EXTPAR
   0    2608.4724
   1    4784.8582
   2    550.66342
   3    2582.7608
   11    4137.7249
   12    5341.4156
   13   -2611.1088
   23   -588.33902
   25    34.482087
   26    1768.3515
   31    4010.8086
   32    4010.8086
   33    3608.5455
   34    1731.645
   35    1731.645
   36    2805.0485
   41    2778.318
   42    2778.318
   43    2035.1756
   44    1744.72
   45    1744.72
   46    3275.813
   47    2766.8916
   48    2766.8916
   49    865.42301

BLOCK SMINPUTS
   1    127.90897
   2    1.1663787e-05
   3    0.1184
   4    91.1876
   5    4.18
   6    173.2
   7    1.777
   8    0
   11    0.00051099893
   12    0
   13    0.10565837
   14    0
   21    0.005
   22    0.0025
   23    0.095
   24    1.27

BLOCK GAUGE Q=  2608.4724
   1    0.35536298
   2    0.66519887
   3    1.219778

BLOCK YU Q=  2608.4724
   1   1    8.3878972e-06
   2   2    0.0042610518
   3   3    1.0133253

BLOCK YD Q=  2608.4724
   1   1    0.00058120172
   2   2    0.011042833
   3   3    0.57636998

BLOCK YE Q=  2608.4724
   1   1    0.00010142395
   2   2    0.020971256
   3   3    0.35270203

BLOCK AU Q=  2608.4724
   1   1    0
   2   2    0
   3   3    4137.7249

BLOCK AD Q=  2608.4724
   1   1    0
   2   2    0
   3   3    5341.4157

BLOCK AE Q=  2608.4724
   1   1    0
   2   2    0
   3   3   -2611.1087

BLOCK MSOFT Q=  2608.4724
   1    4784.8582
   2    550.66342
   3    2582.7608
   21    3117608.6
   22   -231560.09
   31    4010.8086
   32    4010.8086
   33    3608.5455
   34    1731.645
   35    1731.645
   36    2805.0485
   41    2778.318
   42    2778.318
   43    2035.1756
   44    1744.72
   45    1744.72
   46    3275.813
   47    2766.8916
   48    2766.8916
   49    865.42301

BLOCK MASS
   6    173.2
   23    91.1876
   24    80.429995
   15    1.777
   25    125.47981
   35    1767.6025
   36    1768.3515
   37    1770.038
   1000001    2876.2005
   2000001    2856.4726
   1000002    2875.0923
   2000002    1868.1374
   1000003    2876.1988
   2000003    2856.4657
   1000004    2875.0893
   2000004    1868.1368
   1000005    964.58651
   2000005    2088.0141
   1000006    2079.4748
   2000006    3272.0418
   1000011    4020.3729
   2000011    1732.2118
   1000012    4019.1757
   1000013    4020.3625
   2000013    1732.1869
   1000014    4019.1653
   1000015    2802.5584
   2000015    3613.5066
   1000016    3612.1947
   1000021    2730.0034
   1000022    535.74464
   1000023   -596.93831
   1000025    644.61652
   1000035    4735.8481
   1000024    536.72072
   1000037    646.36873

BLOCK ALPHA
      -0.02850956

BLOCK HMIX Q=  2608.4724
   1   -588.33902
   2    34.482087
   3    243.38535
   4    3127067

BLOCK STOPMIX
   1   1   -0.9961713
   1   2    0.087422798
   2   1   -0.087422798
   2   2   -0.9961713

BLOCK SBOTMIX
   1   1   -0.021085439
   1   2    0.99977768
   2   1   -0.99977768
   2   2   -0.021085439

BLOCK STAUMIX
   1   1   -0.0059785266
   1   2    0.99998213
   2   1   -0.99998213
   2   2   -0.0059785266

BLOCK NMIX
   1   1    0.0045540206
   1   2   -0.73891822
   1   3   -0.50273314
   1   4   -0.44859615
   2   1    0.0060563775
   2   2   -0.049752228
   2   3    0.70470068
   2   4   -0.70773229
   3   1    0.00591909
   3   2    0.67195571
   3   3   -0.50065494
   3   4   -0.54569691
   4   1    0.99995377
   4   2   -0.00031101368
   4   3    0.00098499092
   4   4    0.0095596811

BLOCK UMIX
   1   1   -0.7158114
   1   2   -0.69829366
   2   1    0.69829366
   2   2   -0.7158114

BLOCK VMIX
   1   1   -0.78151955
   1   2    0.62388075
   2   1    0.62388075
   2   2    0.78151955

BLOCK HIGGSBOUNDSINPUTHIGGSCOUPLINGSFERMIONS
       0, 1189.0143,3,36,15,15

BLOCK HIGGSBOUNDSINPUTHIGGSCOUPLINGSBOSONS
       0,4,36,21,21,23

BLOCK SPHENOLOWENERGY
   1    0.00032276446
   2    1.5889185e-06
   3    3.5229692e-05
   4    3.5392565e-15
   5    1.5118875e-10
   6    3.1401317e-08
   7    1.2340962e-13
   8    5.2718951e-09
   9    1.1087697e-06
   10    9.4817417e-05
   11    0.97942761
   12    0.54198934
   13    19.364234
   14    0
   15    0
   16    0.0021575305
   17    2.2816632e-15
   18    2.4787242e-11
   19    8.2868293e-11
   20   -1.5633162e-15
   21   -6.6835772e-11
   22   -2.3570764e-08
   23    0
   24    0
   25    0
   26    0
   27    0
   28    0
   29    0
   30    0
   31    0
   39    7.9750777e-05
   40    0
   41    0
   42    0

BLOCK FWCOEF Q=  160
   305   4422   0   0   -0.18881911
   305   4422   0   2   -0.18974957
   305   4322   0   2   -8.7054983e-05
   305   6421   0   0   -0.095227835
   305   6421   0   2   -0.10458504
   305   6321   0   2   -0.00023823972
   3051111   4133   0   0    1.6118051
   3051111   4133   0   2    1.6122173
   3051111   4233   0   2    0.00025233049
   3051111   4137   0   0   -4.4344972
   3051111   4137   0   2   -4.4306098
   3051111   4237   0   2   -0.0019050965
   3051313   4133   0   0    1.6118051
   3051313   4133   0   2    1.6122169
   3051313   4233   0   2    0.0002523287
   3051313   4137   0   0   -4.4344972
   3051313   4137   0   2   -4.4306102
   3051313   4237   0   2   -0.0019050964
   3051212   4137   0   0    1.5053501
   3051212   4137   0   2    1.5045158
   3051212   4237   0   2    0.00041333744
   3051414   4137   0   0    1.5053501
   3051414   4137   0   2    1.5045158
   3051414   4237   0   2    0.0004133377
   3051616   4137   0   0    1.5053501
   3051616   4137   0   2    1.504516
   3051616   4237   0   2    0.00041341062

BLOCK IMFWCOEF Q=  160
   305   4422   0   0    3.8585137e-07
   305   4422   0   2   -5.1885223e-05
   305   4322   0   2    3.6993573e-06
   305   6421   0   0    3.3050722e-07
   305   6421   0   2    2.4400948e-05
   305   6321   0   2    2.3350171e-06
   3051111   4133   0   2    6.72246e-07
   3051111   4233   0   2    5.7806346e-06
   3051111   4137   0   2    8.7662215e-06
   3051111   4237   0   2   -4.3664685e-05
   3051313   4133   0   2    6.7223831e-07
   3051313   4233   0   2    5.780624e-06
   3051313   4137   0   2    8.7662349e-06
   3051313   4237   0   2   -4.3664706e-05
   3051212   4137   0   2   -1.7344204e-06
   3051212   4237   0   2    9.4736606e-06
   3051414   4137   0   2   -1.7344201e-06
   3051414   4237   0   2    9.4736606e-06
   3051616   4137   0   2   -1.730902e-06
   3051616   4237   0   2    9.4736609e-06

DECAY 23  2.4952


DECAY 24  2.085


DECAY 2000011  0.00062243417
    0.39853765   2    1000023    11
    0.36372638   2    1000025    11
    0.23729281   2    1000022    11
    0.00022694825   2   -1000024    12
    0.00021621304   2   -1000037    12

DECAY 1000011  50.823529
    0.34420092   2   -1000024    12
    0.32222873   2   -1000037    12
    0.18220921   2    1000022    11
    0.15064058   2    1000025    11
    0.00072055265   2    1000023    11

DECAY 2000013  0.024211595
    0.2516412   2    1000023    13
    0.24943408   2   -1000024    14
    0.23763447   2   -1000037    14
    0.13548628   2    1000022    13
    0.12580397   2    1000025    13

DECAY 1000013  50.857345
    0.3439711   2   -1000024    14
    0.32201356   2   -1000037    14
    0.18225629   2    1000022    13
    0.15070447   2    1000025    13
    0.0010485572   2    1000023    13

DECAY 1000015  12.655807
    0.25374531   2   -1000024    16
    0.24776196   2    1000023    15
    0.24621166   2   -1000037    16
    0.13163658   2    1000022    15
    0.12064449   2    1000025    15

DECAY 2000015  53.733224
    0.28829262   2   -1000024    16
    0.27223974   2   -1000037    16
    0.19287822   2    1000022    15
    0.16636777   2    1000025    15
    0.078897523   2    1000023    15
    0.00066259037   2    1000015    23
    0.00066153252   2    1000015    25

DECAY 1000012  50.852647
    0.40992746   2    1000024    11
    0.25698006   2    1000037    11
    0.18446011   2    1000022    12
    0.14769825   2    1000025    12
    0.00093411763   2    1000023    12

DECAY 1000014  50.886143
    0.4099817   2    1000024    13
    0.25714601   2    1000037    13
    0.18433818   2    1000022    14
    0.1476006   2    1000025    14
    0.00093350011   2    1000023    14

DECAY 1000016  53.768103
    0.42301636   2    1000024    15
    0.29545704   2    1000037    15
    0.15544522   2    1000022    16
    0.12397164   2    1000025    16
    0.0013242314   2    1000015    24
    0.00078550405   2    1000023    16

DECAY 2000001  1.6906705
    0.9998996   2    1000021    1

DECAY 1000001  37.069653
    0.32602094   2   -1000024    2
    0.30025941   2   -1000037    2
    0.17413175   2    1000022    1
    0.13866238   2    1000025    1
    0.060117284   2    1000021    1
    0.00080823832   2    1000023    1

DECAY 2000003  1.7031403
    0.9924739   2    1000021    3
    0.0018793556   2    1000023    3
    0.0018767764   2   -1000037    4
    0.001846399   2   -1000024    4
    0.00097536792   2    1000022    3
    0.00094820441   2    1000025    3

DECAY 1000003  37.076902
    0.32596629   2   -1000024    4
    0.30021676   2   -1000037    4
    0.17414195   2    1000022    3
    0.13867742   2    1000025    3
    0.060104175   2    1000021    3
    0.00089340461   2    1000023    3

DECAY 1000005  4.5158981
    0.2926888   2   -1000024    6
    0.26626556   2    1000023    5
    0.17942348   2    1000022    5
    0.158138   2   -1000037    6
    0.10348416   2    1000025    5

DECAY 2000005  71.678104
    0.41626567   2   -1000037    6
    0.29398174   2   -1000024    6
    0.1016205   2    1000022    5
    0.088400937   2    1000025    5
    0.081087629   2    1000023    5
    0.0094033562   2    1000005    25
    0.0092401685   2    1000005    23

DECAY 2000002  0.00030967863
    0.39838355   2    1000023    2
    0.36628492   2    1000025    2
    0.23532476   2    1000022    2

DECAY 1000002  37.098287
    0.3881516   2    1000024    1
    0.23937881   2    1000037    1
    0.17315871   2    1000022    2
    0.13936224   2    1000025    2
    0.059208672   2    1000021    2
    0.00073997449   2    1000023    2

DECAY 2000004  0.0013925028
    0.28414302   2    1000023    4
    0.22935282   2    1000037    3
    0.19333119   2    1000025    4
    0.15876367   2    1000024    3
    0.13440929   2    1000022    4

DECAY 1000004  37.105371
    0.38816253   2    1000024    3
    0.23941905   2    1000037    3
    0.17313025   2    1000022    4
    0.13934338   2    1000025    4
    0.059192161   2    1000021    4
    0.00075262679   2    1000023    4

DECAY 1000006  74.268236
    0.23744054   2    1000023    6
    0.20517911   2    1000025    6
    0.18242596   2    1000037    5
    0.1820688   2    1000024    5
    0.13656045   2    1000022    6
    0.028554561   2    1000022    4
    0.017415519   2    1000005    24
    0.010235119   3    1000022    24    5
    0.00011994554   2    1000023    4

DECAY 2000006  235.88059
    0.1596278   2    2000005    24
    0.14469448   2    1000037    5
    0.13217308   2    1000023    6
    0.13104371   2    1000006    25
    0.11946892   2    1000024    5
    0.099722812   2    1000021    6
    0.080422145   2    1000006    23
    0.069713949   2    1000025    6
    0.060917064   2    1000022    6
    0.0019552612   2    1000005    37
    0.00026077575   2    1000005    24

DECAY 1000024  2.2728114e-12
    0.71353379   2    1000022    211
    0.14734739   3    1000022   -11    12
    0.13911881   3    1000022   -13    14

DECAY 1000037  0.33300083
    0.64887562   2    1000022    24
    0.34819017   2    1000024    23
    0.00097932564   3    1000023   -1    2
    0.00097676902   3    1000023   -3    4
    0.00032644023   3    1000023   -11    12
    0.00032643658   3    1000023   -13    14
    0.00032485049   3    1000023   -15    16

DECAY 1000022 -1


DECAY 1000023  0.0074275345
    0.12054911   3    1000024    1   -2
    0.12054911   3   -1000024   -1    2
    0.12037106   3    1000024    3   -4
    0.12037106   3   -1000024   -3    4
    0.054700929   3    1000022    12   -12
    0.040899644   3    1000022    1   -1
    0.040898779   3    1000022    3   -3
    0.040183096   3    1000024    11   -12
    0.040183096   3   -1000024   -11    12
    0.040182866   3    1000024    13   -14
    0.040182866   3   -1000024   -13    14
    0.040078686   3    1000024    15   -16
    0.040078686   3   -1000024   -15    16
    0.039799489   3    1000022    5   -5
    0.031903002   3    1000022    2   -2
    0.031756971   3    1000022    4   -4
    0.0097064194   2    1000022    22
    0.0092302876   3    1000022    11   -11
    0.0092300074   3    1000022    13   -13
    0.0091448313   3    1000022    15   -15

DECAY 1000025  0.44083686
    0.49914267   2    1000024   -24
    0.49914267   2   -1000024    24
    0.00037857307   2    1000022    23
    0.00025994   3    1000023    12   -12
    0.0001944001   3    1000023    1   -1
    0.00019439239   3    1000023    3   -3
    0.00018285219   3    1000023    5   -5
    0.0001515918   3    1000023    2   -2
    0.00015032096   3    1000023    4   -4

DECAY 1000035  146.02041
    0.077454946   2    2000004   -4
    0.077454946   2   -2000004    4
    0.077454943   2    2000002   -2
    0.077454943   2   -2000002    2
    0.061132776   2    2000013   -13
    0.061132776   2   -2000013    13
    0.061132231   2    2000011   -11
    0.061132231   2   -2000011    11
    0.034400982   2    1000015   -15
    0.034400982   2   -1000015    15
    0.028820282   2    2000006   -6
    0.028820282   2   -2000006    6
    0.024937398   2    1000005   -5
    0.024937398   2   -1000005    5
    0.014270591   2    1000037   -24
    0.014270591   2   -1000037    24
    0.013416455   2    1000023    25
    0.013129032   2    1000023    23
    0.010992206   2    2000003   -3
    0.010992206   2   -2000003    3
    0.010992145   2    2000001   -1
    0.010992145   2   -2000001    1
    0.0090501054   2    1000023    35
    0.007849306   2    37   -1000037
    0.007849306   2   -37    1000037
    0.0076107483   2    1000025    25
    0.0075526389   2    1000024   -24
    0.0075526389   2   -1000024    24
    0.0073582572   2    37   -1000024
    0.0073582572   2   -37    1000024
    0.0056176212   2    1000023    36
    0.0056041395   2    1000006   -6
    0.0056041395   2   -1000006    6
    0.0052586813   2    1000025    35
    0.005221853   2    1000025    23
    0.0049904098   2    1000022    35
    0.004432648   2    2000005   -5
    0.004432648   2   -2000005    5
    0.0044125334   2    1000022    25
    0.0035670329   2    1000016   -16
    0.0035670329   2   -1000016    16
    0.00355182   2    2000015   -15
    0.00355182   2   -2000015    15
    0.003426654   2    1000022    23
    0.0027141076   2    1000003   -3
    0.0027141076   2   -1000003    3
    0.0027141038   2    1000001   -1
    0.0027141038   2   -1000001    1
    0.0026976443   2    1000004   -4
    0.0026976443   2   -1000004    4
    0.0026976353   2    1000002   -2
    0.0026976353   2   -1000002    2
    0.0026567987   2    1000022    36
    0.0024384225   2    1000025    36
    0.0015960287   2    1000014   -14
    0.0015960287   2   -1000014    14
    0.001595986   2    1000012   -12
    0.001595986   2   -1000012    12
    0.0015874344   2    1000013   -13
    0.0015874344   2   -1000013    13
    0.0015873923   2    1000011   -11
    0.0015873923   2   -1000011    11
    0.0012116422   3    1000023    6   -6
    0.00089313066   3    1000037    5   -6
    0.00089313066   3   -1000037   -5    6
    0.00073374421   3    1000025    6   -6
    0.00051507498   3    1000024    5   -6
    0.00051507498   3   -1000024   -5    6
    0.00044950352   3    1000022    6   -6

DECAY 1000021  143.40377
    0.2158253   2    1000005   -5
    0.2158253   2   -1000005    5
    0.079662836   2    2000004   -4
    0.079662836   2   -2000004    4
    0.079662813   2    2000002   -2
    0.079662813   2   -2000002    2
    0.050805779   2    1000006   -6
    0.050805779   2   -1000006    6
    0.048513424   2    2000005   -5
    0.048513424   2   -2000005    5
    0.024225821   2    1000006   -4
    0.024225821   2   -1000006    4
    0.00020522892   3    1000024    3   -4
    0.00020522892   3   -1000024   -3    4
    0.00020516437   3    1000024    1   -2
    0.00020516437   3   -1000024   -1    2
    0.00015053546   3    1000037    3   -4
    0.00015053546   3   -1000037   -3    4
    0.00015047223   3    1000037    1   -2
    0.00015047223   3   -1000037   -1    2
    0.00010350423   3    1000023    6   -6

DECAY 25  0.0039728393
    0.56806662   2   -5    5
    0.23460583   2   -24    24
    0.071502324   2    21    21
    0.065150356   2   -15    15
    0.028669872   2    23    23
    0.027716269   2   -4    4
    0.0023242548   2    22    22
    0.0015250952   2    22    23
    0.00022594789   2   -13    13
    0.00021269775   2   -3    3
    5.8808554e-07   2   -1    1
    1.4282715e-07   2   -2    2
    5.0795534e-09   2   -11    11

DECAY 35  53.229391
    0.67332517   2   -5    5
    0.081339657   2   -15    15
    0.05129633   2   -1000024    1000037
    0.05129633   2   -1000037    1000024
    0.04202586   2   -1000024    1000024
    0.029342982   2    1000022    1000023
    0.02018949   2    1000022    1000022
    0.018435522   2    1000023    1000025
    0.017828715   2   -1000037    1000037
    0.010480271   2    1000025    1000025
    0.002093221   2    1000022    1000025
    0.0016740467   2   -6    6
    0.00028132788   2   -13    13
    0.00020302962   2   -3    3
    0.00015391188   2    1000023    1000023
    2.9422888e-05   2    21    21
    2.4688591e-06   2    25    25
    7.8854307e-07   2    23    23
    5.6125566e-07   2   -1    1
    4.9917412e-07   2   -24    24
    2.6961885e-07   2    22    23
    9.9845422e-08   2    22    22
    2.1706578e-08   2   -4    4
    6.3194937e-09   2   -11    11
    1.1188613e-13   2   -2    2

DECAY 36  51.417811
    0.66566628   2   -5    5
    0.080415873   2   -15    15
    0.060047258   2   -1000024    1000024
    0.037737166   2   -1000024    1000037
    0.037737166   2   -1000037    1000024
    0.032697653   2   -1000037    1000037
    0.028593182   2    1000022    1000022
    0.021022073   2    1000022    1000023
    0.01945516   2    1000025    1000025
    0.011046776   2    1000023    1000025
    0.0031677112   2    1000022    1000025
    0.0015777676   2   -6    6
    0.00032383369   2    1000023    1000023
    0.00027813155   2   -13    13
    0.00020071276   2   -3    3
    3.1437142e-05   2    21    21
    1.083177e-06   2    23    25
    5.5485088e-07   2   -1    1
    1.4282771e-07   2    22    23
    1.9548903e-08   2   -4    4
    1.6093915e-08   2    22    22
    6.2476887e-09   2   -11    11
    1.0076822e-13   2   -2    2
    5.1089772e-39   2    25    25

DECAY 37  53.425505
    0.67511903   2   -5    6
    0.084096644   2    1000022    1000037
    0.082495799   2   -15    16
    0.076929455   2    1000024    1000025
    0.054945183   2    1000023    1000024
    0.024885032   2    1000023    1000037
    0.0010060415   2   -5    4
    0.00029165248   2   -13    14
    0.0001846571   2   -3    4
    2.6337178e-05   2    1000025    1000037
    8.5939633e-06   2   -3    2
    7.1841796e-06   2   -5    2
    1.8322727e-06   2   -3    6
    1.0473941e-06   2    24    25
    8.9268683e-07   2    1000022    1000024
    5.1225353e-07   2   -1    2
    7.1732396e-08   2   -1    6
    2.4436183e-08   2   -1    4
    6.8217819e-09   2   -11    12
    2.1812931e-12   2    24    35
    3.474279e-13   2    24    36

DECAY 6  2.43
    1   2    5    24

DECAY 15 -1
