BLOCK SPINFO
   1   SPheno
   2   v4.0.5be

BLOCK SPHENOINFO
   1   2
   2   2

BLOCK MODSEL
   1   0

BLOCK MINPAR
   3    52.095905
   4   -1

BLOCK EXTPAR
   0    1643.5238
   1    41.09064
   2    1921.4621
   3    3000
   11   -3100.5381
   12    1608.3544
   13   -212.10062
   23   -153.36058
   25    51.833798
   26    434.12133
   31    1175.1707
   32    1175.1707
   33    112.47687
   34    776.09116
   35    776.09116
   36    828.74528
   41    5000
   42    5000
   43    1818.7361
   44    5000
   45    5000
   46    1521.6244
   47    5000
   48    5000
   49    983.16425

BLOCK SMINPUTS
   1    127.90897
   2    1.1663787e-05
   3    0.1184
   4    91.1876
   5    4.18
   6    173.2
   7    1.777
   8    0
   11    0.00051099893
   12    0
   13    0.10565837
   14    0
   21    0.005
   22    0.0025
   23    0.095
   24    1.27

BLOCK GAUGE Q=  1643.5238
   1    0.35536298
   2    0.66519887
   3    1.219778

BLOCK YU Q=  1643.5238
   1   1    8.3859323e-06
   2   2    0.0042600536
   3   3    1.013088

BLOCK YD Q=  1643.5238
   1   1    0.00087346323
   2   2    0.016595801
   3   3    0.86620182

BLOCK YE Q=  1643.5238
   1   1    0.00015242572
   2   2    0.031516805
   3   3    0.53006081

BLOCK AU Q=  1643.5238
   1   1    0
   2   2    0
   3   3   -3100.538

BLOCK AD Q=  1643.5238
   1   1    0
   2   2    0
   3   3    1608.3544

BLOCK AE Q=  1643.5238
   1   1    0
   2   2    0
   3   3   -212.10062

BLOCK MSOFT Q=  1643.5238
   1    41.09064
   2    1921.4621
   3    3000
   21    214108.62
   22    9213.4517
   31    1175.1707
   32    1175.1707
   33    112.47687
   34    776.09116
   35    776.09116
   36    828.74528
   41    5000
   42    5000
   43    1818.7361
   44    5000
   45    5000
   46    1521.6244
   47    5000
   48    5000
   49    983.16425

BLOCK MASS
   6    173.2
   23    91.1876
   24    80.429995
   15    1.777
   25    123.02677
   35    434.0321
   36    434.12133
   37    446.12979
   1000001    5031.9263
   2000001    5024.2032
   1000002    5031.4821
   2000002    5025.56
   1000003    5031.9314
   2000003    5024.2121
   1000004    5031.4871
   2000004    5025.5607
   1000005    966.73725
   2000005    1820.0012
   1000006    1445.9591
   2000006    1868.0822
   1000011    1191.9568
   2000011    778.7949
   1000012    1188.9197
   1000013    1191.941
   2000013    778.75268
   1000014    1188.9035
   1000015    174.60441
   2000015    824.49214
   1000016    164.29755
   1000021    3199.7259
   1000022    37.9639
   1000023    161.31096
   1000025   -162.11089
   1000035    1958.8407
   1000024    155.16827
   1000037    1958.9566

BLOCK ALPHA
      -0.021678114

BLOCK HMIX Q=  1643.5238
   1   -153.36058
   2    51.833798
   3    243.90823
   4    188461.33

BLOCK STOPMIX
   1   1    0.34247389
   1   2    0.93952734
   2   1   -0.93952734
   2   2    0.34247389

BLOCK SBOTMIX
   1   1   -0.0096563667
   1   2    0.99995338
   2   1   -0.99995338
   2   2   -0.0096563667

BLOCK STAUMIX
   1   1   -0.99979945
   1   2    0.020026635
   2   1   -0.020026635
   2   2   -0.99979945

BLOCK NMIX
   1   1    0.95428879
   1   2   -0.002612857
   1   3   -0.29139691
   1   4   -0.066437279
   2   1   -0.25315613
   2   2   -0.03056082
   2   3   -0.66977449
   2   4   -0.6974096
   3   1   -0.15888388
   3   2    0.027443637
   3   3   -0.68299619
   3   4    0.71240366
   4   1    0.00088363617
   4   2   -0.99915267
   4   3    0.0024884456
   4   4    0.04107275

BLOCK UMIX
   1   1   -0.0035394744
   1   2   -0.99999374
   2   1    0.99999374
   2   2   -0.0035394744

BLOCK VMIX
   1   1   -0.058193481
   1   2    0.99830532
   2   1    0.99830532
   2   2    0.058193481

BLOCK HIGGSBOUNDSINPUTHIGGSCOUPLINGSFERMIONS
       0, 2686.7426,3,36,15,15

BLOCK HIGGSBOUNDSINPUTHIGGSCOUPLINGSBOSONS
       0,4,36,21,21,23

BLOCK SPHENOLOWENERGY
   1    0.00049090929
   2    1.6044302e-06
   3    3.5280358e-05
   4    9.0022598e-15
   5    3.8403135e-10
   6    4.9569913e-08
   7    3.0292726e-13
   8    1.2923554e-08
   9    1.7202377e-06
   10    3.2719119e-05
   11    0.33797598
   12    0.54225557
   13    19.061788
   14    0
   15    0
   16    0.0021623357
   17    2.2817969e-15
   18    2.4808251e-11
   19    8.2928154e-11
   20   -6.7154388e-15
   21   -2.8710062e-10
   22   -1.5625537e-07
   23    0
   24    0
   25    0
   26    0
   27    0
   28    0
   29    0
   30    0
   31    0
   39    9.4032856e-05
   40    0
   41    0
   42    0

BLOCK FWCOEF Q=  160
   305   4422   0   0   -0.18881911
   305   4422   0   2   -0.35758786
   305   4322   0   2   -0.0023404571
   305   6421   0   0   -0.095227835
   305   6421   0   2   -0.22701093
   305   6321   0   2   -0.0020769819
   3051111   4133   0   0    1.5959868
   3051111   4133   0   2    1.5977995
   3051111   4233   0   2   -0.00047337043
   3051111   4137   0   0   -4.4186789
   3051111   4137   0   2   -4.4195734
   3051111   4237   0   2    0.0036746173
   3051313   4133   0   0    1.5959868
   3051313   4133   0   2    1.5977938
   3051313   4233   0   2   -0.00047390195
   3051313   4137   0   0   -4.4186789
   3051313   4137   0   2   -4.4195792
   3051313   4237   0   2    0.0036751378
   3051212   4137   0   0    1.5053501
   3051212   4137   0   2    1.5055493
   3051212   4237   0   2   -0.00080013283
   3051414   4137   0   0    1.5053501
   3051414   4137   0   2    1.5055493
   3051414   4237   0   2   -0.00080001765
   3051616   4137   0   0    1.5053501
   3051616   4137   0   2    1.5055487
   3051616   4237   0   2   -0.00076756467

BLOCK IMFWCOEF Q=  160
   305   4422   0   0    3.857884e-07
   305   4422   0   2   -2.5520031e-05
   305   4322   0   2   -9.5611182e-06
   305   6421   0   0    3.3045328e-07
   305   6421   0   2    7.3001106e-06
   305   6321   0   2   -3.4734724e-06
   3051111   4133   0   2    3.6154113e-07
   3051111   4233   0   2    8.0251093e-06
   3051111   4137   0   2   -1.7923075e-06
   3051111   4237   0   2   -6.2077893e-05
   3051313   4133   0   2    3.6148364e-07
   3051313   4233   0   2    8.0250548e-06
   3051313   4137   0   2   -1.7923633e-06
   3051313   4237   0   2   -6.2078045e-05
   3051212   4137   0   2    4.5732609e-07
   3051212   4237   0   2    1.351647e-05
   3051414   4137   0   2    4.5732589e-07
   3051414   4237   0   2    1.351647e-05
   3051616   4137   0   2    4.4395651e-07
   3051616   4237   0   2    1.3516399e-05

DECAY 23  2.4952


DECAY 24  2.085


DECAY 2000011  3.8668095
    0.91720838   2    1000022    11
    0.059410671   2    1000023    11
    0.023380861   2    1000025    11

DECAY 1000011  1.5026437
    0.89632167   2    1000022    11
    0.092498036   2    1000023    11
    0.011095753   2    1000025    11

DECAY 2000013  3.8949743
    0.91086048   2    1000022    13
    0.060599694   2    1000023    13
    0.024896341   2    1000025    13
    0.0036434814   2   -1000024    14

DECAY 1000013  1.5254953
    0.8841913   2    1000022    13
    0.097787323   2    1000023    13
    0.017868346   2    1000025    13

DECAY 1000015  0.27748272
    0.93121284   2    1000022    15
    0.03700471   2    1000023    15
    0.031688674   2    1000025    15

DECAY 2000015  13.331565
    0.32144573   2   -1000024    16
    0.30914182   2    1000022    15
    0.16254638   2    1000023    15
    0.15708506   2    1000025    15
    0.014848902   2    1000016   -37
    0.0098356775   2    1000016   -24
    0.0075406819   2    1000015    35
    0.0075256659   2    1000015    36
    0.0052407829   2    1000015    25
    0.0047893087   2    1000015    23

DECAY 1000012  1.5243209
    0.89956913   2    1000022    12
    0.041717059   2    1000025    12
    0.036246956   2    1000023    12
    0.022466851   2    1000024    11

DECAY 1000014  1.5470011
    0.88636868   2    1000022    14
    0.041104854   2    1000025    14
    0.036811442   2    1000024    13
    0.035715026   2    1000023    14

DECAY 1000016  0.18101032
    0.9399662   2    1000022    16
    0.059941744   2    1000024    15

DECAY 2000001  142.92251
    0.98037875   2    1000021    1
    0.017870624   2    1000022    1
    0.0012554292   2    1000023    1
    0.00049465407   2    1000025    1

DECAY 1000001  189.46337
    0.74379344   2    1000021    1
    0.1682985   2   -1000037    2
    0.084037775   2    1000035    1
    0.0034799986   2    1000022    1
    0.00036259079   2    1000025    1

DECAY 2000003  142.97824
    0.98000308   2    1000021    3
    0.017879993   2    1000022    3
    0.0013408972   2    1000023    3
    0.00058384325   2    1000025    3
    0.00019217206   2   -1000024    4

DECAY 1000003  189.49324
    0.743679   2    1000021    3
    0.16827229   2   -1000037    4
    0.084024675   2    1000035    3
    0.003491773   2    1000022    3
    0.00043007875   2    1000025    3

DECAY 1000005  26.99965
    0.47284889   2   -1000024    6
    0.2355295   2    1000025    5
    0.22737986   2    1000023    5
    0.064241746   2    1000022    5

DECAY 2000005  98.392688
    0.3642094   2   -1000024    6
    0.22822477   2    1000006   -24
    0.12722399   2    1000025    5
    0.12213573   2    1000023    5
    0.065548048   2    1000005    36
    0.0654936   2    1000005    35
    0.025416113   2    1000022    5
    0.0010428314   2    1000005    25
    0.00070551162   2    1000005    23

DECAY 2000002  151.47901
    0.92593234   2    1000021    2
    0.067462755   2    1000022    2
    0.0047384417   2    1000023    2
    0.0018664202   2    1000025    2

DECAY 1000002  189.45524
    0.74358141   2    1000021    2
    0.16771247   2    1000037    1
    0.083975747   2    1000035    2
    0.0032722205   2    1000022    2
    0.00079061629   2    1000024    1
    0.00066744644   2    1000023    2

DECAY 2000004  151.48263
    0.92591022   2    1000021    4
    0.067461192   2    1000022    4
    0.004744148   2    1000023    4
    0.001872438   2    1000025    4

DECAY 1000004  189.48503
    0.74346692   2    1000021    4
    0.16768639   2    1000037    3
    0.083962697   2    1000035    4
    0.0032717512   2    1000022    4
    0.00093530896   2    1000024    3
    0.00067199338   2    1000023    4

DECAY 1000006  60.200355
    0.47466468   2    1000024    5
    0.24277955   2    1000025    6
    0.21591461   2    1000023    6
    0.049034561   2    1000022    6
    0.017381133   2    1000005    37

DECAY 2000006  101.51578
    0.27375224   2    1000024    5
    0.18720005   2    1000023    6
    0.17788206   2    1000025    6
    0.1354738   2    1000006    23
    0.11650382   2    1000006    25
    0.10365552   2    1000005    37
    0.0041393262   2    1000022    6
    0.0013931848   2    1000005    24

DECAY 1000024  0.060255371
    0.99953053   2    1000022    24
    0.00046903358   3    1000022   -15    16

DECAY 1000037  64.548409
    0.13139709   2   -1000015    16
    0.13126404   2    1000016   -15
    0.066265053   2    1000025    24
    0.065844445   2    1000024    23
    0.065577677   2    1000024    25
    0.065023574   2    1000023    24
    0.060570437   2    1000024    35
    0.060530601   2    1000024    36
    0.055605202   2    37    1000025
    0.054267742   2    37    1000023
    0.053118056   2    1000014   -13
    0.053116366   2    1000012   -11
    0.052980334   2   -1000013    14
    0.05297869   2   -1000011    12
    0.010106158   2    37    1000022
    0.0055844812   3    1000024    6   -6
    0.0055539895   2    1000006   -5
    0.00339594   3    1000025   -5    6
    0.0032391045   3    1000023   -5    6
    0.0030841489   2    2000006   -5
    0.00028206091   2    1000022    24
    0.00016190084   3    1000022   -5    6

DECAY 1000022 -1


DECAY 1000023  0.028571764
    0.92462319   2    1000022    23
    0.07411746   2    1000022    25
    0.001164583   3    1000022    15   -15

DECAY 1000025  0.07878728
    0.93784213   2    1000022    23
    0.061651242   2    1000022    25
    0.00042738134   3    1000022    15   -15

DECAY 1000035  65.352657
    0.065487466   2    1000024   -24
    0.065487466   2   -1000024    24
    0.064990651   2    1000016   -16
    0.064990651   2   -1000016    16
    0.064716974   2    1000015   -15
    0.064716974   2   -1000015    15
    0.059475973   2    37   -1000024
    0.059475973   2   -37    1000024
    0.039759499   2    1000025    25
    0.036777694   2    1000025    23
    0.035932526   2    1000023    25
    0.032758344   2    1000023    35
    0.031145425   2    1000025    35
    0.027930803   2    1000023    23
    0.02629638   2    1000014   -14
    0.02629638   2   -1000014    14
    0.026295545   2    1000012   -12
    0.026295545   2   -1000012    12
    0.026090328   2    1000013   -13
    0.026090328   2   -1000013    13
    0.026089516   2    1000011   -11
    0.026089516   2   -1000011    11
    0.023916853   2    1000025    36
    0.021243968   2    1000023    36
    0.0052538756   2    1000022    35
    0.0047810737   2    1000022    36
    0.0036942532   2    2000005   -5
    0.0036942532   2   -2000005    5
    0.0028415575   3    1000024    5   -6
    0.0028415575   3   -1000024   -5    6
    0.0024335301   2    1000006   -6
    0.0024335301   2   -1000006    6
    0.001698138   3    1000025    6   -6
    0.0016350879   3    1000023    6   -6
    0.00015693603   2    1000022    23
    0.00010377999   2    1000022    25

DECAY 1000021  223.32492
    0.17511295   2    1000005   -5
    0.17511295   2   -1000005    5
    0.12233734   2    1000006   -6
    0.12233734   2   -1000006    6
    0.10134942   2    2000006   -6
    0.10134942   2   -2000006    6
    0.097028176   2    2000005   -5
    0.097028176   2   -2000005    5
    0.0039413371   2    1000006   -4
    0.0039413371   2   -1000006    4
    0.00011200671   3    1000037    5   -6
    0.00011200671   3   -1000037   -5    6

DECAY 25  0.0047837828
    0.58847972   2   -5    5
    0.14994409   2   -24    24
    0.096465937   2    1000022    1000022
    0.066562598   2   -15    15
    0.055284252   2    21    21
    0.022608661   2   -4    4
    0.017445705   2    23    23
    0.0017498311   2    22    22
    0.0010063411   2    22    23
    0.00023163734   2   -13    13
    0.00022049747   2   -3    3
    6.0965131e-07   2   -1    1
    1.1651227e-07   2   -2    2
    5.2074902e-09   2   -11    11

DECAY 35  19.705183
    0.8748099   2   -5    5
    0.1048658   2   -15    15
    0.0069053798   2    1000022    1000025
    0.0063915737   2    1000022    1000023
    0.0037644762   2    1000022    1000022
    0.0012789384   2    1000023    1000025
    0.00039936074   2   -13    13
    0.00032921313   2   -3    3
    0.0003079568   2    1000025    1000025
    0.00027852553   2    1000023    1000023
    0.00022590701   2   -1000024    1000024
    0.00019205497   2    21    21
    0.00015723929   2   -6    6
    5.0133541e-05   2    25    25
    2.820464e-05   2   -1000015    1000015
    7.1011235e-06   2   -24    24
    3.2846627e-06   2    23    23
    9.1022127e-07   2   -1    1
    1.1807071e-07   2    22    22
    3.4297537e-08   2    22    23
    8.9747144e-09   2   -11    11
    7.0044823e-09   2   -4    4
    3.6128657e-14   2   -2    2

DECAY 36  19.374355
    0.87412979   2   -5    5
    0.10478465   2   -15    15
    0.0069087453   2    1000022    1000023
    0.0066394373   2    1000022    1000025
    0.0038791563   2    1000022    1000022
    0.00074639823   2    1000025    1000025
    0.00059654217   2    1000023    1000025
    0.00056419842   2    1000023    1000023
    0.00045611355   2   -1000024    1000024
    0.00039900451   2   -13    13
    0.00035141272   2   -6    6
    0.00032890776   2   -3    3
    0.00020896149   2    21    21
    5.5858673e-06   2    23    25
    9.0937689e-07   2   -1    1
    1.252726e-07   2    22    22
    4.8798557e-08   2    22    23
    8.9667072e-09   2   -11    11
    5.4957381e-09   2   -4    4
    2.8373198e-14   2   -2    2
    6.436732e-37   2    25    25

DECAY 37  14.860626
    0.80813513   2   -5    6
    0.16293449   2   -15    16
    0.024400837   2    1000022    1000024
    0.00170939   2    1000023    1000024
    0.0016083371   2   -5    4
    0.00057604939   2   -13    14
    0.00040486126   2   -3    4
    0.00018144899   2    1000024    1000025
    1.8476249e-05   2   -3    2
    1.1485369e-05   2   -5    2
    8.8247822e-06   2   -1000015    1000016
    8.4201647e-06   2    24    25
    1.123585e-06   2   -1    2
    9.916656e-07   2   -3    6
    5.1452623e-08   2   -1    4
    2.603984e-08   2   -1    6
    2.3094038e-08   2    24    35
    2.2257495e-08   2    24    36
    1.3473857e-08   2   -11    12

DECAY 6  2.43
    1   2    5    24

DECAY 15 -1
