BLOCK SPINFO
   1   SPheno
   2   v4.0.5be

BLOCK SPHENOINFO
   1   2
   2   2

BLOCK MODSEL
   1   0

BLOCK MINPAR
   3    19.012137
   4    1

BLOCK EXTPAR
   0    1926.7568
   1   -1628.676
   2   -547.3202
   3    3000
   11    4050.8581
   12    1392.293
   13    1056.3636
   23    276.67264
   25    18.235883
   26    4338.5484
   31    1467.9807
   32    1467.9807
   33    1368.7423
   34    393.26103
   35    393.26103
   36    1490.9598
   41    5000
   42    5000
   43    1942.8123
   44    5000
   45    5000
   46    1935.7514
   47    5000
   48    5000
   49    877.83871

BLOCK SMINPUTS
   1    127.90897
   2    1.1663787e-05
   3    0.1184
   4    91.1876
   5    4.18
   6    173.2
   7    1.777
   8    0
   11    0.00051099893
   12    0
   13    0.10565837
   14    0
   21    0.005
   22    0.0025
   23    0.095
   24    1.27

BLOCK GAUGE Q=  1926.7568
   1    0.35536298
   2    0.66519887
   3    1.219778

BLOCK YU Q=  1926.7568
   1   1    8.396969e-06
   2   2    0.0042656602
   3   3    1.0144213

BLOCK YD Q=  1926.7568
   1   1    0.00030770148
   2   2    0.0058463282
   3   3    0.30514345

BLOCK YE Q=  1926.7568
   1   1    5.3696159e-05
   2   2    0.011102663
   3   3    0.18672852

BLOCK AU Q=  1926.7568
   1   1    0
   2   2    0
   3   3    4050.8582

BLOCK AD Q=  1926.7568
   1   1    0
   2   2    0
   3   3    1392.293

BLOCK AE Q=  1926.7568
   1   1    0
   2   2    0
   3   3    1056.3636

BLOCK MSOFT Q=  1926.7568
   1   -1628.676
   2   -547.3202
   3    3000
   21    18644065
   22    73292.142
   31    1467.9807
   32    1467.9807
   33    1368.7423
   34    393.26103
   35    393.26103
   36    1490.9598
   41    5000
   42    5000
   43    1942.8123
   44    5000
   45    5000
   46    1935.7514
   47    5000
   48    5000
   49    877.83871

BLOCK MASS
   6    173.2
   23    91.1876
   24    80.429995
   15    1.777
   25    126.04791
   35    4337.7959
   36    4338.5484
   37    4338.7592
   1000001    5045.6096
   2000001    5034.4733
   1000002    5045.149
   2000002    5036.1799
   1000003    5045.6103
   2000003    5034.4742
   1000004    5045.1497
   2000004    5036.1803
   1000005    948.80478
   2000005    1965.2938
   1000006    1784.0159
   2000006    2080.9184
   1000011    1474.7494
   2000011    408.0545
   1000012    1472.2479
   1000013    1474.7507
   2000013    408.06792
   1000014    1472.2492
   1000015    1375.9923
   2000015    1497.8305
   1000016    1373.3993
   1000021    3220.6638
   1000022   -269.56522
   1000023    284.24755
   1000025   -594.92231
   1000035   -1619.3393
   1000024    274.26812
   1000037    595.32471

BLOCK ALPHA
      -0.052610708

BLOCK HMIX Q=  1926.7568
   1    276.67264
   2    18.235883
   3    243.70793
   4    18823002

BLOCK STOPMIX
   1   1   -0.64424072
   1   2    0.76482278
   2   1   -0.76482278
   2   2   -0.64424072

BLOCK SBOTMIX
   1   1    0.0027112504
   1   2    0.99999633
   2   1   -0.99999633
   2   2    0.0027112504

BLOCK STAUMIX
   1   1    0.99979797
   1   2    0.020100073
   2   1   -0.020100073
   2   2    0.99979797

BLOCK NMIX
   1   1   -0.021515106
   1   2    0.1675617
   1   3   -0.71082458
   1   4   -0.68278005
   2   1    0.017566043
   2   2   -0.069988675
   2   3   -0.6997362
   2   4    0.71074768
   3   1   -0.0070454827
   3   2   -0.98337189
   3   3   -0.071311804
   3   4   -0.16686736
   4   1    0.99958936
   4   2   -0.0020946579
   4   3   -0.0035057357
   4   4   -0.028362417

BLOCK UMIX
   1   1   -0.10281406
   1   2    0.99470059
   2   1   -0.99470059
   2   2   -0.10281406

BLOCK VMIX
   1   1    0.23997677
   1   2    0.97077863
   2   1    0.97077863
   2   2   -0.23997677

BLOCK HIGGSBOUNDSINPUTHIGGSCOUPLINGSFERMIONS
       0, 332.54743,3,36,15,15

BLOCK HIGGSBOUNDSINPUTHIGGSCOUPLINGSBOSONS
       0,4,36,21,21,23

BLOCK SPHENOLOWENERGY
   1    0.00033728698
   2    1.5874502e-06
   3    3.5226741e-05
   4    2.5134187e-15
   5    1.0737046e-10
   6    2.2481242e-08
   7    8.44328e-14
   8    3.606969e-09
   9    7.6521941e-07
   10    9.6689805e-05
   11    0.99876867
   12    0.54277832
   13    19.393413
   14    0
   15    0
   16    0.0021608592
   17    2.2816944e-15
   18    2.4776629e-11
   19    8.2850825e-11
   20   -3.9506373e-15
   21   -1.6890362e-10
   22   -5.4040764e-08
   23    0
   24    0
   25    0
   26    0
   27    0
   28    0
   29    0
   30    0
   31    0
   39    5.1328779e-05
   40    0
   41    0
   42    0

BLOCK FWCOEF Q=  160
   305   4422   0   0   -0.18881911
   305   4422   0   2   -0.20869083
   305   4322   0   2   -0.00019796677
   305   6421   0   0   -0.095227835
   305   6421   0   2   -0.10759384
   305   6321   0   2   -0.00014735976
   3051111   4133   0   0    1.6007021
   3051111   4133   0   2    1.601613
   3051111   4233   0   2    6.4129849e-05
   3051111   4137   0   0   -4.4233942
   3051111   4137   0   2   -4.4191381
   3051111   4237   0   2   -0.00049138465
   3051313   4133   0   0    1.6007021
   3051313   4133   0   2    1.6016124
   3051313   4233   0   2    6.4129776e-05
   3051313   4137   0   0   -4.4233942
   3051313   4137   0   2   -4.4191387
   3051313   4237   0   2   -0.00049138479
   3051212   4137   0   0    1.5053501
   3051212   4137   0   2    1.5044407
   3051212   4237   0   2    0.00010688365
   3051414   4137   0   0    1.5053501
   3051414   4137   0   2    1.5044407
   3051414   4237   0   2    0.00010688365
   3051616   4137   0   0    1.5053501
   3051616   4137   0   2    1.5044408
   3051616   4237   0   2    0.00010688393

BLOCK IMFWCOEF Q=  160
   305   4422   0   0    3.8580529e-07
   305   4422   0   2   -7.959239e-06
   305   4322   0   2   -2.3477699e-06
   305   6421   0   0    3.3046775e-07
   305   6421   0   2   -8.4106068e-06
   305   6321   0   2   -1.0176841e-06
   3051111   4133   0   2    4.7960094e-08
   3051111   4233   0   2    1.2309422e-06
   3051111   4137   0   2    1.2963302e-06
   3051111   4237   0   2   -9.4343406e-06
   3051313   4133   0   2    4.7938444e-08
   3051313   4233   0   2    1.230941e-06
   3051313   4137   0   2    1.2963417e-06
   3051313   4237   0   2   -9.4343434e-06
   3051212   4137   0   2    6.9507459e-09
   3051212   4237   0   2    2.0521081e-06
   3051414   4137   0   2    6.9511017e-09
   3051414   4237   0   2    2.0521081e-06
   3051616   4137   0   2    8.3175888e-09
   3051616   4237   0   2    2.0521088e-06

DECAY 23  2.4952


DECAY 24  2.085


DECAY 2000011  0.00046912241
    0.64262936   2    1000022    11
    0.3573558   2    1000023    11

DECAY 1000011  13.731554
    0.6554093   2   -1000037    12
    0.32290895   2    1000025    11
    0.010757528   2    1000022    11
    0.009314571   2   -1000024    12
    0.0016096448   2    1000023    11

DECAY 2000013  0.0010572252
    0.43686818   2    1000022    13
    0.28161012   2    1000023    13
    0.2815217   2   -1000024    14

DECAY 1000013  13.734997
    0.6552461   2   -1000037    14
    0.32282956   2    1000025    13
    0.01087908   2    1000022    13
    0.009312246   2   -1000024    14
    0.0017287909   2    1000023    13

DECAY 1000015  12.973005
    0.60938563   2   -1000037    16
    0.30053901   2    1000025    15
    0.04574304   2    1000022    15
    0.034214214   2    1000023    15
    0.010118111   2   -1000024    16

DECAY 2000015  1.9438757
    0.48649508   2   -1000024    16
    0.24810084   2    1000022    15
    0.24712234   2    1000023    15
    0.011475887   2   -1000037    16
    0.0056913709   2    1000025    15
    0.00085149944   2    1000016   -24
    0.00026298536   2    1000015    23

DECAY 1000012  13.827113
    0.61807884   2    1000037    11
    0.31485281   2    1000025    12
    0.050296918   2    1000024    11
    0.014034904   2    1000022    12
    0.0027365262   2    1000023    12

DECAY 1000014  13.83049
    0.61793067   2    1000037    13
    0.31477643   2    1000025    14
    0.050525551   2    1000024    13
    0.014031491   2    1000022    14
    0.0027358608   2    1000023    14

DECAY 1000016  13.074271
    0.57520627   2    1000037    15
    0.29280844   2    1000025    16
    0.11561299   2    1000024    15
    0.013703598   2    1000022    16
    0.0026686992   2    1000023    16

DECAY 2000001  140.9449
    0.98396775   2    1000021    1
    0.016015865   2    1000035    1

DECAY 1000001  205.21724
    0.68143605   2    1000021    1
    0.20822882   2   -1000037    2
    0.10150078   2    1000025    1
    0.0031608902   2    1000022    1
    0.002824158   2    1000035    1
    0.0022744043   2   -1000024    2
    0.00057490013   2    1000023    1

DECAY 2000003  140.95177
    0.98392038   2    1000021    3
    0.016015087   2    1000035    3

DECAY 1000003  205.22254
    0.68141882   2    1000021    3
    0.20822399   2   -1000037    4
    0.10149826   2    1000025    3
    0.0031691832   2    1000022    3
    0.0028240859   2    1000035    3
    0.0022826752   2   -1000024    4
    0.00058299733   2    1000023    3

DECAY 1000005  2.8176984
    0.47742702   2   -1000024    6
    0.26693616   2    1000022    5
    0.25286424   2    1000023    5
    0.0017325647   2   -1000037    6
    0.0010400231   2    1000025    5

DECAY 2000005  71.371962
    0.50315139   2   -1000024    6
    0.22892736   2   -1000037    6
    0.11771453   2    1000006   -24
    0.096710614   2    1000025    5
    0.028176054   2    1000022    5
    0.02458976   2    1000023    5
    0.0004055335   2    1000035    5
    0.00020641217   2    1000005    25
    0.00011835372   2    1000005    23

DECAY 2000002  147.90559
    0.93885925   2    1000021    2
    0.061078768   2    1000035    2

DECAY 1000002  205.21236
    0.68121895   2    1000021    2
    0.19831928   2    1000037    1
    0.10201268   2    1000025    2
    0.012390045   2    1000024    1
    0.0028843585   2    1000022    2
    0.0026940019   2    1000035    2
    0.00048067665   2    1000023    2

DECAY 2000004  147.90918
    0.93883627   2    1000021    4
    0.061077278   2    1000035    4

DECAY 1000004  205.21759
    0.68120165   2    1000021    4
    0.19831443   2    1000037    3
    0.1020103   2    1000025    4
    0.012406133   2    1000024    3
    0.0028884166   2    1000022    4
    0.0026939406   2    1000035    4
    0.00048513446   2    1000023    4

DECAY 1000006  65.773889
    0.39673415   2    1000024    5
    0.2833605   2    1000023    6
    0.28063221   2    1000022    6
    0.022676706   2    1000037    5
    0.015837266   2    1000025    6
    0.00050363858   3    1000022    24    5
    0.00016334638   2    1000022    4

DECAY 2000006  85.131487
    0.22277885   2    1000023    6
    0.19311146   2    1000022    6
    0.1738062   2    1000037    5
    0.14849325   2    1000024    5
    0.14010738   2    1000006    23
    0.09066307   2    1000025    6
    0.019687872   2    2000005    24
    0.0066819735   2    1000006    25
    0.0045173621   2    1000035    6
    0.00015257941   2    1000005    24

DECAY 1000024  8.5035721e-09
    0.39395268   3    1000022   -1    2
    0.27736553   3    1000022   -3    4
    0.13133945   3    1000022   -11    12
    0.13101208   3    1000022   -13    14
    0.066330254   3    1000022   -15    16

DECAY 1000037  4.1910901
    0.27860895   2    1000022    24
    0.25484633   2    1000023    24
    0.24988718   2    1000024    23
    0.21533368   2    1000024    25
    0.0008237172   3    1000022   -5    6
    0.00049880015   3    1000023   -5    6

DECAY 1000022 -1


DECAY 1000023  2.6353962e-06
    0.17526199   2    1000022    22
    0.167554   3    1000022    12   -12
    0.12528141   3    1000022    1   -1
    0.12522092   3    1000022    3   -3
    0.097709509   3    1000022    2   -2
    0.088468073   3    1000022    4   -4
    0.045531377   3    1000022    5   -5
    0.028269293   3    1000022    11   -11
    0.028249043   3    1000022    13   -13
    0.022863702   3    1000022    15   -15
    0.0166163   3    1000024    1   -2
    0.0166163   3   -1000024   -1    2
    0.015351618   3    1000024    3   -4
    0.015351618   3   -1000024   -3    4
    0.005539   3    1000024    11   -12
    0.005539   3   -1000024   -11    12
    0.0055360001   3    1000024    13   -14
    0.0055360001   3   -1000024   -13    14
    0.0047524282   3    1000024    15   -16
    0.0047524282   3   -1000024   -15    16

DECAY 1000025  5.4727458
    0.2335336   2    1000024   -24
    0.2335336   2   -1000024    24
    0.1883293   2    1000023    23
    0.18436068   2    1000023    25
    0.12993263   2    1000022    25
    0.028698454   2    1000022    23
    0.00077188782   3    1000024    5   -6
    0.00077188782   3   -1000024   -5    6

DECAY 1000035  20.832299
    0.17113378   2    2000011   -11
    0.17113378   2   -2000011    11
    0.17113225   2    2000013   -13
    0.17113225   2   -2000013    13
    0.046390639   2    1000024   -24
    0.046390639   2   -1000024    24
    0.035892163   2    1000023    25
    0.032390825   2    1000023    23
    0.028046624   2    1000005   -5
    0.028046624   2   -1000005    5
    0.025942689   2    1000022    25
    0.018206821   2    1000022    23
    0.004716212   2    1000037   -24
    0.004716212   2   -1000037    24
    0.004070574   2    2000015   -15
    0.004070574   2   -2000015    15
    0.0038734977   2    1000016   -16
    0.0038734977   2   -1000016    16
    0.0037415827   2    1000015   -15
    0.0037415827   2   -1000015    15
    0.0036066704   2    1000025    25
    0.0015308311   3    1000024    5   -6
    0.0015308311   3   -1000024   -5    6
    0.00147858   2    1000012   -12
    0.00147858   2   -1000012    12
    0.0014785553   2    1000014   -14
    0.0014785553   2   -1000014    14
    0.001408753   2    1000011   -11
    0.001408753   2   -1000011    11
    0.0014087272   2    1000013   -13
    0.0014087272   2   -1000013    13
    0.00098328501   3    1000023    6   -6
    0.00091031095   2    1000025    23
    0.00085690121   3    1000022    6   -6
    0.00015798111   3    1000037    5   -6
    0.00015798111   3   -1000037   -5    6

DECAY 1000021  198.45914
    0.20029576   2    1000005   -5
    0.20029576   2   -1000005    5
    0.13247454   2    1000006   -6
    0.13247454   2   -1000006    6
    0.094615919   2    2000005   -5
    0.094615919   2   -2000005    5
    0.066264981   2    2000006   -6
    0.066264981   2   -2000006    6
    0.0061683842   2    1000006   -4
    0.0061683842   2   -1000006    4
    0.00014638875   3    1000035    6   -6

DECAY 25  0.0040120798
    0.55557063   2   -5    5
    0.24642972   2   -24    24
    0.071599094   2    21    21
    0.064055726   2   -15    15
    0.030449471   2    23    23
    0.027541545   2   -4    4
    0.0023363641   2    22    22
    0.0015857754   2    22    23
    0.0002221118   2   -13    13
    0.00020883212   2   -3    3
    5.7739922e-07   2   -1    1
    1.4192487e-07   2   -2    2
    4.9933071e-09   2   -11    11

DECAY 35  74.526131
    0.20895161   2   -1000024    1000037
    0.20895161   2   -1000037    1000024
    0.19088702   2   -5    5
    0.11321759   2    1000022    1000025
    0.099047938   2    1000023    1000025
    0.040741971   2   -15    15
    0.031938184   2   -1000024    1000024
    0.026228075   2    1000022    1000035
    0.023229308   2    1000023    1000035
    0.0097371881   2    1000022    1000022
    0.0095724771   2   -1000006    1000006
    0.0068382299   2   -1000037    1000037
    0.0064084313   2   -2000005    1000005
    0.0064084313   2   -1000005    2000005
    0.0048808909   2   -6    6
    0.0040592349   2   -2000006    2000006
    0.0033470344   2    1000025    1000025
    0.0013454522   2    1000023    1000023
    0.0010855637   2    1000022    1000023
    0.00096173653   2   -2000015    1000015
    0.00096173653   2   -1000015    2000015
    0.00041815696   2    1000025    1000035
    0.00027018069   2   -2000006    1000006
    0.00027018069   2   -1000006    2000006
    0.00014054275   2   -13    13
    8.1734348e-05   2   -3    3
    8.8548247e-06   2    25    25
    2.3457319e-06   2   -2000015    2000015
    1.8068431e-06   2    21    21
    1.0640154e-06   2   -1000015    1000015
    8.4827305e-07   2   -2000005    2000005
    8.3913599e-07   2    1000035    1000035
    5.7909677e-07   2    23    23
    2.8629454e-07   2   -1000005    1000005
    2.2597337e-07   2   -1    1
    1.6864095e-07   2   -2000011    2000011
    1.6835642e-07   2   -2000013    2000013
    1.4580762e-07   2   -1000011    1000011
    1.454775e-07   2   -1000013    1000013
    1.1153166e-07   2   -24    24
    9.9428144e-08   2    22    23
    7.24367e-08   2   -4    4
    4.128193e-08   2    22    22
    3.1561525e-09   2   -11    11
    7.3268907e-10   2   -2000013    1000013
    7.3268907e-10   2   -1000013    2000013
    3.7338483e-13   2   -2    2
    1.7137679e-14   2   -2000011    1000011
    1.7137679e-14   2   -1000011    2000011

DECAY 36  73.731628
    0.21360871   2   -1000024    1000037
    0.21360871   2   -1000037    1000024
    0.18361391   2   -5    5
    0.11907107   2    1000023    1000025
    0.097231946   2    1000022    1000025
    0.039189239   2   -15    15
    0.029895322   2   -1000024    1000024
    0.025916245   2    1000023    1000035
    0.024205826   2    1000022    1000035
    0.0081686108   2    1000022    1000022
    0.0074622157   2   -2000006    1000006
    0.0074622157   2   -1000006    2000006
    0.0064778703   2   -2000005    1000005
    0.0064778703   2   -1000005    2000005
    0.0047428494   2   -6    6
    0.004583742   2   -1000037    1000037
    0.0022710749   2    1000025    1000025
    0.0018246194   2    1000022    1000023
    0.0017137575   2    1000023    1000023
    0.00097370837   2   -2000015    1000015
    0.00097370837   2   -1000015    2000015
    0.00030539167   2    1000025    1000035
    0.00013518608   2   -13    13
    7.8618055e-05   2   -3    3
    5.5970484e-06   2    21    21
    1.3539955e-06   2    23    25
    2.8742392e-07   2    1000035    1000035
    2.1735823e-07   2   -1    1
    6.9886054e-08   2   -4    4
    5.8790375e-08   2    22    23
    4.0891309e-09   2    22    22
    3.0358068e-09   2   -11    11
    7.4010342e-10   2   -2000013    1000013
    7.4010342e-10   2   -1000013    2000013
    3.6024354e-13   2   -2    2
    1.7311096e-14   2   -2000011    1000011
    1.7311096e-14   2   -1000011    2000011
    4.0667787e-38   2    25    25

DECAY 37  74.342337
    0.23663561   2    1000022    1000037
    0.22449048   2    1000024    1000025
    0.21728022   2    1000023    1000037
    0.19747424   2   -5    6
    0.048541276   2    1000024    1000035
    0.042187771   2   -15    16
    0.0088964114   2   -1000005    2000006
    0.0074892003   2    1000023    1000024
    0.0063029434   2   -2000005    1000006
    0.0041257816   2   -1000005    1000006
    0.0026887152   2   -2000005    2000006
    0.0019330852   2   -2000015    1000016
    0.00073925637   2    1000035    1000037
    0.00068829484   2    1000022    1000024
    0.00028398194   2   -5    4
    0.00014914878   2   -13    14
    7.5510303e-05   2   -3    4
    8.8490448e-06   2   -3    6
    3.5475325e-06   2   -3    2
    2.0279229e-06   2   -5    2
    1.3434668e-06   2    24    25
    6.6440977e-07   2   -2000011    1000012
    6.6400964e-07   2   -2000013    1000014
    4.0069646e-07   2   -1    6
    3.1508884e-07   2    1000025    1000037
    2.0932912e-07   2   -1    2
    3.7106903e-08   2   -1000015    1000016
    1.3465493e-08   2   -1    4
    3.4886054e-09   2   -11    12
    1.4497288e-09   2   -1000013    1000014
    3.3909173e-14   2   -1000011    1000012

DECAY 6  2.43
    1   2    5    24

DECAY 15 -1
