BLOCK SPINFO
   1   SPheno
   2   v4.0.5be

BLOCK SPHENOINFO
   1   2
   2   2

BLOCK MODSEL
   1   0

BLOCK MINPAR
   3    47.530581
   4   -1

BLOCK EXTPAR
   0    2919.0123
   1   -1380.4456
   2   -4218.9987
   3    1171.4808
   11    4095.3787
   12    3958.4597
   13   -1063.2116
   23   -2276.1659
   25    49.725573
   26    3185.4486
   31    2810.6058
   32    2810.6058
   33    3036.7551
   34    1389.4296
   35    1389.4296
   36    4275.6734
   41    2323.0645
   42    2323.0645
   43    3091.8086
   44    3949.3663
   45    3949.3663
   46    2808.376
   47    2032.5547
   48    2032.5547
   49    2044.2655

BLOCK SMINPUTS
   1    127.90897
   2    1.1663787e-05
   3    0.1184
   4    91.1876
   5    4.18
   6    173.2
   7    1.777
   8    0
   11    0.00051099893
   12    0
   13    0.10565837
   14    0
   21    0.005
   22    0.0025
   23    0.095
   24    1.27

BLOCK GAUGE Q=  2919.0123
   1    0.35536298
   2    0.66519887
   3    1.219778

BLOCK YU Q=  2919.0123
   1   1    8.3860674e-06
   2   2    0.0042601222
   3   3    1.0131043

BLOCK YD Q=  2919.0123
   1   1    0.00083795055
   2   2    0.015921061
   3   3    0.83098437

BLOCK YE Q=  2919.0123
   1   1    0.0001462285
   2   2    0.030235416
   3   3    0.50850995

BLOCK AU Q=  2919.0123
   1   1    0
   2   2    0
   3   3    4095.3787

BLOCK AD Q=  2919.0123
   1   1    0
   2   2    0
   3   3    3958.4591

BLOCK AE Q=  2919.0123
   1   1    0
   2   2    0
   3   3   -1063.2115

BLOCK MSOFT Q=  2919.0123
   1   -1380.4456
   2   -4218.9987
   3    1171.4808
   21    6004727.5
   22   -4998565.3
   31    2810.6058
   32    2810.6058
   33    3036.7551
   34    1389.4296
   35    1389.4296
   36    4275.6734
   41    2323.0645
   42    2323.0645
   43    3091.8086
   44    3949.3663
   45    3949.3663
   46    2808.376
   47    2032.5547
   48    2032.5547
   49    2044.2655

BLOCK MASS
   6    173.2
   23    91.1876
   24    80.429995
   15    1.777
   25    122.33285
   35    3177.2612
   36    3185.4486
   37    3179.5423
   1000001    2396.2584
   2000001    2082.7459
   1000002    2394.9529
   2000002    3994.5446
   1000003    2396.2525
   2000003    2082.709
   1000004    2394.9359
   2000004    3994.5442
   1000005    2029.5397
   2000005    3059.9409
   1000006    2762.3848
   2000006    3084.5206
   1000011    2834.4003
   2000011    1403.4
   1000012    2832.8673
   1000013    2834.3756
   2000013    1403.3496
   1000014    2832.8379
   1000015    3054.0577
   2000015    4264.2268
   1000016    3052.2144
   1000021    1396.4708
   1000022   -1368.3375
   1000023   -2255.2252
   1000025    2256.7671
   1000035   -4157.5531
   1000024    2254.6366
   1000037    4157.6056

BLOCK ALPHA
      -0.021185458

BLOCK HMIX Q=  2919.0123
   1   -2276.1659
   2    49.725573
   3    243.24838
   4    10147083

BLOCK STOPMIX
   1   1   -0.29964956
   1   2    0.95404934
   2   1   -0.95404934
   2   2   -0.29964956

BLOCK SBOTMIX
   1   1   -0.083574982
   1   2    0.99650149
   2   1   -0.99650149
   2   2   -0.083574982

BLOCK STAUMIX
   1   1   -0.9997443
   1   2    0.022612757
   2   1   -0.022612757
   2   2   -0.9997443

BLOCK NMIX
   1   1    0.9992896
   1   2   -0.00058340063
   1   3   -0.031977741
   1   4    0.019934541
   2   1    0.036711079
   2   2    0.029603183
   2   3    0.7064068
   2   4   -0.70623324
   3   1    0.0085094821
   3   2   -0.0083294881
   3   3    0.70692318
   3   4    0.7071901
   4   1    0.00043310393
   4   2   -0.99952685
   4   3    0.015049358
   4   4   -0.026821604

BLOCK UMIX
   1   1   -0.021546646
   1   2   -0.99976784
   2   1   -0.99976784
   2   2    0.021546646

BLOCK VMIX
   1   1    0.038239169
   1   2    0.99926862
   2   1    0.99926862
   2   2   -0.038239169

BLOCK HIGGSBOUNDSINPUTHIGGSCOUPLINGSFERMIONS
       0, 2472.6326,3,36,15,15

BLOCK HIGGSBOUNDSINPUTHIGGSCOUPLINGSBOSONS
       0,4,36,21,21,23

BLOCK SPHENOLOWENERGY
   1    0.00030789881
   2    1.5931844e-06
   3    3.5273064e-05
   4    4.6367237e-15
   5    1.9805743e-10
   6    4.0418897e-08
   7    1.6374429e-13
   8    6.9944878e-09
   9    1.4449882e-06
   10    9.5883983e-05
   11    0.99044484
   12    0.54179091
   13    19.383604
   14    0
   15    0
   16    0.0021568087
   17    2.2816548e-15
   18    2.4810982e-11
   19    8.2934569e-11
   20    1.3666242e-15
   21    5.8422217e-11
   22    1.6898206e-08
   23    0
   24    0
   25    0
   26    0
   27    0
   28    0
   29    0
   30    0
   31    0
   39    7.4386887e-05
   40    0
   41    0
   42    0

BLOCK FWCOEF Q=  160
   305   4422   0   0   -0.18881911
   305   4422   0   2   -0.17588205
   305   4322   0   2    0.00038583557
   305   6421   0   0   -0.095227835
   305   6421   0   2   -0.081954805
   305   6321   0   2    0.0003120842
   3051111   4133   0   0    1.6163909
   3051111   4133   0   2    1.6169769
   3051111   4233   0   2    0.00029754086
   3051111   4137   0   0   -4.439083
   3051111   4137   0   2   -4.4395187
   3051111   4237   0   2   -0.0022353904
   3051313   4133   0   0    1.6163909
   3051313   4133   0   2    1.616975
   3051313   4233   0   2    0.00029753936
   3051313   4137   0   0   -4.439083
   3051313   4137   0   2   -4.4395205
   3051313   4237   0   2   -0.0022353919
   3051212   4137   0   0    1.5053501
   3051212   4137   0   2    1.5054446
   3051212   4237   0   2    0.00048449701
   3051414   4137   0   0    1.5053501
   3051414   4137   0   2    1.5054446
   3051414   4237   0   2    0.00048449713
   3051616   4137   0   0    1.5053501
   3051616   4137   0   2    1.5054446
   3051616   4237   0   2    0.00048453288

BLOCK IMFWCOEF Q=  160
   305   4422   0   0    3.8589499e-07
   305   4422   0   2   -2.9514298e-05
   305   4322   0   2    8.8979031e-06
   305   6421   0   0    3.3054458e-07
   305   6421   0   2    0.00016024167
   305   6321   0   2    8.2445827e-06
   3051111   4133   0   2    1.6453812e-06
   3051111   4233   0   2    6.3386046e-06
   3051111   4137   0   2   -9.2715902e-06
   3051111   4237   0   2   -4.7624184e-05
   3051313   4133   0   2    1.6453627e-06
   3051313   4233   0   2    6.3385887e-06
   3051313   4137   0   2   -9.2716084e-06
   3051313   4237   0   2   -4.7624221e-05
   3051212   4137   0   2    2.0092899e-06
   3051212   4237   0   2    1.0322033e-05
   3051414   4137   0   2    2.0092896e-06
   3051414   4237   0   2    1.0322033e-05
   3051616   4137   0   2    2.0098647e-06
   3051616   4237   0   2    1.0322033e-05

DECAY 23  2.4952


DECAY 24  2.085


DECAY 2000011  0.017144775
    1   2    1000022    11

DECAY 1000011  2.0923725
    0.99729733   2    1000022    11
    0.0019443554   2    1000023    11
    0.00074669487   2   -1000024    12

DECAY 2000013  0.017096969
    1   2    1000022    13

DECAY 1000013  2.111768
    0.98813297   2    1000022    13
    0.0059147048   2    2000013    25
    0.0035667497   2    1000023    13
    0.0016457906   2    1000025    13
    0.00073978616   2   -1000024    14

DECAY 1000015  5.7173827
    0.43075007   2    1000022    15
    0.28496327   2    1000023    15
    0.28281936   2    1000025    15
    0.0014672968   2   -1000024    16

DECAY 2000015  46.085662
    0.37355817   2    1000022    15
    0.2465036   2   -1000024    16
    0.12347628   2    1000023    15
    0.12339043   2    1000025    15
    0.06743019   2    1000016   -24
    0.033503555   2    1000015    23
    0.032133239   2    1000015    25

DECAY 1000012  2.0986906
    0.99745417   2    1000022    12
    0.0023347967   2    1000024    11
    0.00013148273   2    1000025    12

DECAY 1000014  2.1055593
    0.99417748   2    1000022    14
    0.0056121895   2    1000024    13
    0.00013104302   2    1000025    14

DECAY 1000016  5.6975529
    0.56992296   2    1000024    15
    0.42994819   2    1000022    16

DECAY 2000001  50.184457
    0.9925257   2    1000021    1
    0.0074743019   2    1000022    1

DECAY 1000001  82.638593
    0.99814978   2    1000021    1
    0.0018475664   2    1000022    1

DECAY 2000003  50.180663
    0.99252559   2    1000021    3
    0.0074744119   2    1000022    3

DECAY 1000003  82.639368
    0.99813293   2    1000021    3
    0.001847607   2    1000022    3

DECAY 1000005  44.731584
    0.99200991   2    1000021    5
    0.0079900915   2    1000022    5

DECAY 2000005  201.57427
    0.75127996   2    1000021    5
    0.063674769   2   -1000024    6
    0.058207602   2    1000005    23
    0.048732985   2    1000006   -24
    0.033413906   2    1000005    25
    0.021696688   2    1000025    5
    0.021680664   2    1000023    5
    0.0013134293   2    1000022    5

DECAY 1000002  82.499345
    0.99816929   2    1000021    2
    0.0018236519   2    1000022    2

DECAY 2000002  249.88792
    0.97220416   2    1000021    2
    0.027772314   2    1000022    2

DECAY 1000004  82.497592
    0.99816728   2    1000021    4
    0.0018236481   2    1000022    4

DECAY 2000004  249.88913
    0.97219896   2    1000021    4
    0.027772171   2    1000022    4

DECAY 1000006  130.40956
    0.86870636   2    1000021    6
    0.047238368   2    1000024    5
    0.026318627   2    1000025    6
    0.026127448   2    1000023    6
    0.025004723   2    1000022    6
    0.0065989318   2    1000005    24

DECAY 2000006  215.37156
    0.7334022   2    1000021    6
    0.10650812   2    1000005    24
    0.043755237   2    1000024    5
    0.032611649   2    1000006    25
    0.027677109   2    1000023    6
    0.027434488   2    1000025    6
    0.025922751   2    1000006    23
    0.0026884446   2    1000022    6

DECAY 1000024  2.7382128
    0.51538822   2    1000022    24
    0.46827583   2   -1000005    6
    0.011872586   3    1000022   -5    6
    0.0028084688   2   -2000013    14
    0.0015014541   3    1000021   -5    6
    0.00013396623   2   -2000003    4

DECAY 1000037  184.06559
    0.13296825   2    1000004   -3
    0.13296635   2    1000002   -1
    0.1329557   2   -1000003    4
    0.13295512   2   -1000001    2
    0.060806645   2   -2000005    6
    0.056843792   2    2000006   -5
    0.046730993   2    1000024    25
    0.044832946   2    1000024    23
    0.044782154   2    1000025    24
    0.043484594   2    1000023    24
    0.028494065   2    1000014   -13
    0.02849302   2    1000012   -11
    0.028468866   2   -1000013    14
    0.028468007   2   -1000011    12
    0.021107513   2    1000016   -15
    0.021038096   2   -1000015    16
    0.0055385774   2    1000006   -5
    0.0036688593   3    1000024    6   -6
    0.0024396605   3    1000025   -5    6
    0.002334043   3    1000023   -5    6
    0.00054986551   2   -1000005    6

DECAY 1000022 -1


DECAY 1000023  2.9751143
    0.39995953   2    1000022    25
    0.2813383   2    1000005   -5
    0.2813383   2   -1000005    5
    0.024321459   2    1000022    23
    0.0047138022   3    1000022    6   -6
    0.0022557563   2    2000013   -13
    0.0022557563   2   -2000013    13
    0.0013247694   3    1000021    6   -6
    0.00096370879   2    2000011   -11
    0.00096370879   2   -2000011    11
    0.00033148504   3    1000021    5   -5

DECAY 1000025  4.1671923
    0.32435293   2    1000022    23
    0.26341062   2    1000022    25
    0.20293729   2    1000005   -5
    0.20293729   2   -1000005    5
    0.0030514267   3    1000022    6   -6
    0.00096284796   2    2000013   -13
    0.00096284796   2   -2000013    13
    0.00095207081   3    1000021    6   -6
    0.00024107016   3    1000021    5   -5

DECAY 1000035  191.73503
    0.063845489   2    1000004   -4
    0.063845489   2   -1000004    4
    0.063844566   2    1000002   -2
    0.063844566   2   -1000002    2
    0.063795451   2    1000003   -3
    0.063795451   2   -1000003    3
    0.06379512   2    1000001   -1
    0.06379512   2   -1000001    1
    0.044053787   2    1000024   -24
    0.044053787   2   -1000024    24
    0.041497924   2    1000023    25
    0.039347454   2    1000025    23
    0.038215443   2    1000025    25
    0.0299987   2    2000005   -5
    0.0299987   2   -2000005    5
    0.027665365   2    2000006   -6
    0.027665365   2   -2000006    6
    0.013689772   2    1000014   -14
    0.013689772   2   -1000014    14
    0.013689281   2    1000012   -12
    0.013689281   2   -1000012    12
    0.013651388   2    1000013   -13
    0.013651388   2   -1000013    13
    0.013650961   2    1000011   -11
    0.013650961   2   -1000011    11
    0.010138683   2    1000016   -16
    0.010138683   2   -1000016    16
    0.010091381   2    1000015   -15
    0.010091381   2   -1000015    15
    0.0031061257   2    1000023    23
    0.0027216338   2    1000006   -6
    0.0027216338   2   -1000006    6
    0.0023702028   3    1000024    5   -6
    0.0023702028   3   -1000024   -5    6
    0.0016607684   3    1000023    6   -6
    0.0015487352   3    1000025    6   -6
    0.00027072563   2    1000005   -5
    0.00027072563   2   -1000005    5

DECAY 1000021  1.0017454e-10
    0.31677542   3    1000022    5   -5
    0.26819978   3    1000022    3   -3
    0.26816034   3    1000022    1   -1
    0.053434267   3    1000022    2   -2
    0.051839937   3    1000022    4   -4
    0.04159026   2    1000022    21

DECAY 25  0.0036054589
    0.6183981   2   -5    5
    0.18429604   2   -24    24
    0.072392968   2    21    21
    0.069913908   2   -15    15
    0.029813797   2   -4    4
    0.021142886   2    23    23
    0.0023083971   2    22    22
    0.0012589999   2    22    23
    0.00024252295   2   -13    13
    0.00023158242   2   -3    3
    6.4029385e-07   2   -1    1
    1.5364589e-07   2   -2    2
    5.452222e-09   2   -11    11

DECAY 35  351.48368
    0.95133261   2   -5    5
    0.047492496   2   -15    15
    0.00069052222   2   -6    6
    0.00029288093   2   -3    3
    0.00016675738   2   -13    13
    2.0758316e-05   2    21    21
    2.3111684e-06   2    1000022    1000022
    8.0903383e-07   2   -1    1
    3.9133212e-07   2    23    23
    3.1179726e-07   2    25    25
    1.0964675e-07   2   -24    24
    1.2031783e-08   2    22    23
    1.0900885e-08   2    22    22
    8.1733251e-09   2   -4    4
    3.745181e-09   2   -11    11
    3.3601873e-09   2   -1000011    1000011
    3.2753749e-09   2   -1000013    1000013
    4.2128321e-14   2   -2    2

DECAY 36  288.54706
    0.9515574   2   -5    5
    0.047476622   2   -15    15
    0.00047519362   2   -6    6
    0.00029290667   2   -3    3
    0.00016670473   2   -13    13
    1.7324008e-05   2    21    21
    1.219293e-05   2    1000022    1000022
    8.156833e-07   2    23    25
    8.0910391e-07   2   -1    1
    9.7744624e-09   2    22    22
    8.7311249e-09   2    22    23
    5.4182735e-09   2   -4    4
    3.7440144e-09   2   -11    11
    1.4025258e-10   2    23    35
    2.7923116e-14   2   -2    2
    6.4659573e-36   2    25    25

DECAY 37  334.51648
    0.95520399   2   -5    6
    0.042942624   2   -15    16
    0.0014164552   2   -5    4
    0.00026068329   2   -3    4
    0.0001518175   2   -13    14
    1.2217798e-05   2   -3    2
    1.0114952e-05   2   -5    2
    7.2272548e-07   2   -1    2
    7.0005418e-07   2    24    25
    6.222527e-07   2   -3    6
    3.3872646e-08   2   -1    4
    1.0812036e-08   2   -1    6
    3.551027e-09   2   -11    12
    2.5131918e-13   2    24    35

DECAY 6  2.43
    1   2    5    24

DECAY 15 -1
