BLOCK SPINFO
   1   SPheno
   2   v4.0.5be

BLOCK SPHENOINFO
   1   2
   2   2

BLOCK MODSEL
   1   0

BLOCK MINPAR
   3    29.095357
   4   -1

BLOCK EXTPAR
   0    2105.7811
   1    944.16925
   2    4917.4045
   3    1432.2262
   11   -4825.8268
   12   -5502.5345
   13   -1870.9775
   23   -935.75363
   25    28.167073
   26    927.97541
   31    3499.22
   32    3499.22
   33    1727.8435
   34    2808.8322
   35    2808.8322
   36    4417.4042
   41    4012.876
   42    4012.876
   43    951.97211
   44    4342.7913
   45    4342.7913
   46    4302.0953
   47    1054.3163
   48    1054.3163
   49    2571.163

BLOCK SMINPUTS
   1    127.90897
   2    1.1663787e-05
   3    0.1184
   4    91.1876
   5    4.18
   6    173.2
   7    1.777
   8    0
   11    0.00051099893
   12    0
   13    0.10565837
   14    0
   21    0.005
   22    0.0025
   23    0.095
   24    1.27

BLOCK GAUGE Q=  2105.7811
   1    0.35536298
   2    0.66519887
   3    1.219778

BLOCK YU Q=  2105.7811
   1   1    8.3896544e-06
   2   2    0.0042619444
   3   3    1.0135376

BLOCK YD Q=  2105.7811
   1   1    0.0004748605
   2   2    0.0090223494
   3   3    0.47091281

BLOCK YE Q=  2105.7811
   1   1    8.2866629e-05
   2   2    0.017134191
   3   3    0.2881689

BLOCK AU Q=  2105.7811
   1   1    0
   2   2    0
   3   3   -4825.8267

BLOCK AD Q=  2105.7811
   1   1    0
   2   2    0
   3   3   -5502.5371

BLOCK AE Q=  2105.7811
   1   1    0
   2   2    0
   3   3   -1870.9774

BLOCK MSOFT Q=  2105.7811
   1    944.16925
   2    4917.4045
   3    1432.2262
   21    129440.83
   22   -1014094.7
   31    3499.22
   32    3499.22
   33    1727.8435
   34    2808.8322
   35    2808.8322
   36    4417.4042
   41    4012.876
   42    4012.876
   43    951.97211
   44    4342.7913
   45    4342.7913
   46    4302.0953
   47    1054.3163
   48    1054.3163
   49    2571.163

BLOCK MASS
   6    173.2
   23    91.1876
   24    80.429995
   15    1.777
   25    124.09892
   35    927.96494
   36    927.97541
   37    932.34056
   1000001    4056.279
   2000001    1139.4294
   1000002    4055.6629
   2000002    4390.2161
   1000003    4056.278
   2000003    1139.431
   1000004    4055.662
   2000004    4390.216
   1000005    1031.7103
   2000005    2574.8645
   1000006    1026.1369
   2000006    4321.3668
   1000011    3502.2981
   2000011    2804.6388
   1000012    3501.0413
   1000013    3502.2936
   2000013    2804.6311
   1000014    3501.0376
   1000015    1708.7369
   2000015    4414.1392
   1000016    1706.7168
   1000021    1633.8401
   1000022    916.94914
   1000023   -949.72429
   1000025    976.07938
   1000035    4879.3589
   1000024    948.40946
   1000037    4879.4289

BLOCK ALPHA
      -0.035338634

BLOCK HMIX Q=  2105.7811
   1   -935.75363
   2    28.167073
   3    243.66526
   4    861138.35

BLOCK STOPMIX
   1   1    0.99923513
   1   2    0.039104369
   2   1   -0.039104369
   2   2    0.99923513

BLOCK SBOTMIX
   1   1   -0.99997034
   1   2    0.0077021866
   2   1   -0.0077021866
   2   2   -0.99997034

BLOCK STAUMIX
   1   1   -0.99999682
   1   2    0.0025218075
   2   1   -0.0025218075
   2   2   -0.99999682

BLOCK NMIX
   1   1   -0.71578427
   1   2    0.0096158789
   1   3    0.50247334
   1   4    0.48485149
   2   1    0.016631012
   2   2   -0.010193626
   2   3    0.70651032
   2   4   -0.70743386
   3   1    0.69812339
   3   2    0.010358222
   3   3    0.49835321
   3   4    0.51396549
   4   1    0.0001789194
   4   2   -0.99984816
   4   3    0.0027922983
   4   4    0.01719997

BLOCK UMIX
   1   1   -0.0039606101
   1   2   -0.99999216
   2   1    0.99999216
   2   2   -0.0039606101

BLOCK VMIX
   1   1   -0.024365237
   1   2    0.99970312
   2   1    0.99970312
   2   2    0.024365237

BLOCK HIGGSBOUNDSINPUTHIGGSCOUPLINGSFERMIONS
       0, 793.38402,3,36,15,15

BLOCK HIGGSBOUNDSINPUTHIGGSCOUPLINGSBOSONS
       0,4,36,21,21,23

BLOCK SPHENOLOWENERGY
   1    0.00038796052
   2    1.5903105e-06
   3    3.5301644e-05
   4    1.7438342e-15
   5    7.4491772e-11
   6    1.5428281e-08
   7    6.0166819e-14
   8    2.5702391e-09
   9    5.4012325e-07
   10    8.999147e-05
   11    0.92957743
   12    0.54209236
   13    19.320993
   14    0
   15    0
   16    0.0021586231
   17    2.2816782e-15
   18    2.4826131e-11
   19    8.2970752e-11
   20   -6.86109e-16
   21   -2.9333127e-11
   22   -1.3751734e-08
   23    0
   24    0
   25    0
   26    0
   27    0
   28    0
   29    0
   30    0
   31    0
   39    6.7133428e-05
   40    0
   41    0
   42    0

BLOCK FWCOEF Q=  160
   305   4422   0   0   -0.18881911
   305   4422   0   2   -0.26052616
   305   4322   0   2   -0.0010727581
   305   6421   0   0   -0.095227835
   305   6421   0   2   -0.15244849
   305   6321   0   2   -0.00077638179
   3051111   4133   0   0    1.6040515
   3051111   4133   0   2    1.6052037
   3051111   4233   0   2    0.00027323162
   3051111   4137   0   0   -4.4267436
   3051111   4137   0   2   -4.4299828
   3051111   4237   0   2   -0.0020938678
   3051313   4133   0   0    1.6040515
   3051313   4133   0   2    1.6052035
   3051313   4233   0   2    0.00027322645
   3051313   4137   0   0   -4.4267436
   3051313   4137   0   2   -4.429983
   3051313   4237   0   2   -0.0020938637
   3051212   4137   0   0    1.5053501
   3051212   4137   0   2    1.5060536
   3051212   4237   0   2    0.00045508939
   3051414   4137   0   0    1.5053501
   3051414   4137   0   2    1.5060536
   3051414   4237   0   2    0.00045509045
   3051616   4137   0   0    1.5053501
   3051616   4137   0   2    1.5060523
   3051616   4237   0   2    0.00045538884

BLOCK IMFWCOEF Q=  160
   305   4422   0   0    3.8576273e-07
   305   4422   0   2   -5.1804828e-05
   305   4322   0   2   -5.7817613e-06
   305   6421   0   0    3.3043129e-07
   305   6421   0   2    0.00010160996
   305   6321   0   2    1.7260048e-06
   3051111   4133   0   2    3.4079646e-06
   3051111   4233   0   2    6.9969326e-06
   3051111   4137   0   2   -6.1179088e-06
   3051111   4237   0   2   -5.3602855e-05
   3051313   4133   0   2    3.4079623e-06
   3051313   4233   0   2    6.9969274e-06
   3051313   4137   0   2   -6.1179116e-06
   3051313   4237   0   2   -5.3602869e-05
   3051212   4137   0   2    1.319487e-06
   3051212   4237   0   2    1.1650246e-05
   3051414   4137   0   2    1.3194868e-06
   3051414   4237   0   2    1.1650246e-05
   3051616   4137   0   2    1.2965891e-06
   3051616   4237   0   2    1.1650247e-05

DECAY 23  2.4952


DECAY 24  2.085


DECAY 2000011  11.067408
    0.5203671   2    1000022    11
    0.47935681   2    1000025    11
    0.00027606208   2    1000023    11

DECAY 1000011  3.7856995
    0.50895766   2    1000025    11
    0.4909266   2    1000022    11
    0.00010970183   2   -1000024    12

DECAY 2000013  11.09306
    0.51945975   2    1000022    13
    0.47852889   2    1000025    13
    0.0011582388   2   -1000024    14
    0.00085312377   2    1000023    13

DECAY 1000013  3.8035168
    0.50770969   2    1000025    13
    0.4898033   2    1000022    13
    0.002310157   2    1000023    13
    0.00010918776   2   -1000024    14

DECAY 1000015  2.3844186
    0.37416439   2    1000022    15
    0.3435847   2    1000025    15
    0.28217379   2    1000023    15

DECAY 2000015  36.058775
    0.33501718   2    1000022    15
    0.3168453   2    1000025    15
    0.18398296   2   -1000024    16
    0.091991613   2    1000023    15
    0.029663279   2    1000016   -37
    0.014834861   2    1000015    36
    0.014832545   2    1000015    35
    0.0063395554   2    1000016   -24
    0.0033283375   2    1000015    25
    0.0031643617   2    1000015    23

DECAY 1000012  3.7980753
    0.54086809   2    1000022    12
    0.45372811   2    1000025    12
    0.0041363731   2    1000024    11
    0.0012674286   2    1000023    12

DECAY 1000014  3.8156271
    0.53837938   2    1000022    14
    0.45164033   2    1000025    14
    0.0087186959   2    1000024    13
    0.0012615968   2    1000023    14

DECAY 1000016  2.3842659
    0.56687931   2    1000024    15
    0.24499533   2    1000022    16
    0.18757882   2    1000025    16
    0.00054654381   2    1000023    16

DECAY 2000001  0.062454244
    0.6480278   2    1000022    1
    0.35169819   2    1000025    1
    0.00026628977   2    1000023    1

DECAY 1000001  225.22267
    0.99773054   2    1000021    1
    0.0013412217   2    1000022    1
    0.00091372344   2    1000025    1

DECAY 2000003  0.062804911
    0.64538002   2    1000022    3
    0.35022126   2    1000025    3
    0.0027723629   2   -1000024    4
    0.0016263623   2    1000023    3

DECAY 1000003  225.2299
    0.99769809   2    1000021    3
    0.0013477953   2    1000022    3
    0.00092010052   2    1000025    3

DECAY 1000005  0.12134978
    0.46203356   2    1000022    5
    0.43492245   2    1000023    5
    0.10304399   2    1000025    5

DECAY 2000005  159.37108
    0.45509646   2    1000021    5
    0.2126631   2    1000006   -37
    0.10663141   2    1000005    36
    0.10660416   2    1000005    35
    0.052711345   2   -1000024    6
    0.026568172   2    1000023    5
    0.017098453   2    1000022    5
    0.016329122   2    1000025    5
    0.0025572222   2    1000006   -24
    0.0024697365   2    1000005    25
    0.0012708206   2    1000005    23

DECAY 1000002  225.18132
    0.99764475   2    1000021    2
    0.0012760961   2    1000025    2
    0.00099126601   2    1000022    2

DECAY 2000002  266.1066
    0.96650045   2    1000021    2
    0.017265314   2    1000022    2
    0.016224973   2    1000025    2

DECAY 1000004  225.18832
    0.99761302   2    1000021    4
    0.0012775659   2    1000025    4
    0.00099262446   2    1000022    4
    0.0001101753   2    1000024    3

DECAY 2000004  266.1094
    0.96648998   2    1000021    4
    0.017266368   2    1000022    4
    0.016226267   2    1000025    4

DECAY 1000006  0.098443291
    0.99989749   2    1000024    5

DECAY 2000006  583.67008
    0.42620494   2    1000021    6
    0.13666405   2    1000024    5
    0.12047213   2    1000005    24
    0.087053772   2    1000006    25
    0.068359113   2    1000023    6
    0.060244049   2    1000006    23
    0.044670948   2    1000025    6
    0.038544091   2    1000022    6
    0.0088435418   2    1000005    37
    0.0044219804   2    1000006    36
    0.0043888845   2    1000006    35
    0.00013021581   2    2000005    37

DECAY 1000024  2.2122176e-05
    0.33474498   3    1000022   -1    2
    0.33220392   3    1000022   -3    4
    0.11158244   3    1000022   -11    12
    0.11158205   3    1000022   -13    14
    0.10988661   3    1000022   -15    16

DECAY 1000037  282.23167
    0.20750119   2    1000006   -5
    0.20742278   2   -1000005    6
    0.058581302   2    1000016   -15
    0.058575263   2   -1000015    16
    0.037982888   2    1000024    23
    0.037955728   2    1000023    24
    0.036913831   2    1000024    25
    0.036128216   2    1000024    36
    0.036117996   2    1000024    35
    0.034123636   2    37    1000023
    0.02180522   2    1000004   -3
    0.021805177   2    1000002   -1
    0.021788181   2   -1000003    4
    0.021788168   2   -1000001    2
    0.020458091   2    1000025    24
    0.018132339   2    37    1000022
    0.018047217   2    37    1000025
    0.017902512   2    1000014   -13
    0.017902431   2    1000012   -11
    0.017885597   2   -1000013    14
    0.017885498   2   -1000011    12
    0.017339135   2    1000022    24
    0.0069988304   3    1000024    6   -6
    0.0040442171   3    1000023   -5    6
    0.0019693726   3    1000022   -5    6
    0.0019620985   3    1000025   -5    6
    0.00090836817   3    1000021   -5    6

DECAY 1000022 -1


DECAY 1000023  7.089498e-05
    0.19886303   3    1000022    12   -12
    0.14869989   3    1000022    1   -1
    0.14868728   3    1000022    3   -3
    0.12482649   3    1000022    5   -5
    0.1159743   3    1000022    2   -2
    0.11377957   3    1000022    4   -4
    0.049813151   2    1000022    22
    0.033556861   3    1000022    11   -11
    0.033552034   3    1000022    13   -13
    0.032247139   3    1000022    15   -15

DECAY 1000025  4.9742982e-05
    0.096566477   3    1000023    12   -12
    0.081139346   3    1000024    1   -2
    0.081139346   3   -1000024   -1    2
    0.080329037   3    1000024    3   -4
    0.080329037   3   -1000024   -3    4
    0.072213821   3    1000023    1   -1
    0.072203908   3    1000023    3   -3
    0.06013216   2    1000023    22
    0.056319266   3    1000023    2   -2
    0.054645744   3    1000023    4   -4
    0.054532136   3    1000023    5   -5
    0.02704624   3    1000024    11   -12
    0.02704624   3   -1000024   -11    12
    0.02704613   3    1000024    13   -14
    0.02704613   3   -1000024   -13    14
    0.026510815   3    1000024    15   -16
    0.026510815   3   -1000024   -15    16
    0.016296814   3    1000023    11   -11
    0.016293091   3    1000023    13   -13
    0.01529426   3    1000023    15   -15
    0.0011167317   3    1000022    5   -5
    0.00013170758   2    1000022    22

DECAY 1000035  287.42958
    0.10224841   2    1000005   -5
    0.10224841   2   -1000005    5
    0.10146108   2    1000006   -6
    0.10146108   2   -1000006    6
    0.037443488   2    1000024   -24
    0.037443488   2   -1000024    24
    0.035450169   2    37   -1000024
    0.035450169   2   -37    1000024
    0.028773993   2    1000016   -16
    0.028773993   2   -1000016    16
    0.028743734   2    1000015   -15
    0.028743734   2   -1000015    15
    0.027423705   2    1000023    25
    0.024496448   2    1000023    23
    0.022250884   2    1000023    35
    0.013011072   2    1000025    25
    0.01292758   2    1000025    35
    0.012756861   2    1000022    35
    0.011289823   2    1000023    36
    0.010752342   2    1000022    25
    0.010706326   2    1000004   -4
    0.010706326   2   -1000004    4
    0.010706321   2    1000002   -2
    0.010706321   2   -1000002    2
    0.01069317   2    1000003   -3
    0.01069317   2   -1000003    3
    0.010693148   2    1000001   -1
    0.010693148   2   -1000001    1
    0.0087929497   2    1000014   -14
    0.0087929497   2   -1000014    14
    0.0087929102   2    1000012   -12
    0.0087929102   2   -1000012    12
    0.0087762073   2    1000013   -13
    0.0087762073   2   -1000013    13
    0.0087761587   2    1000011   -11
    0.0087761587   2   -1000011    11
    0.0067520515   2    1000025    23
    0.0059415334   2    1000022    23
    0.005051478   2    1000022    36
    0.0047960636   2    1000025    36
    0.0044752337   3    1000024    5   -6
    0.0044752337   3   -1000024   -5    6
    0.0041319234   3    1000023    6   -6
    0.0020391987   3    1000022    6   -6
    0.0020136373   3    1000025    6   -6
    0.00063294168   3    1000021    5   -5
    0.00059545942   3    1000021    6   -6

DECAY 1000021  59.881448
    0.14599749   2    1000005   -5
    0.14599749   2   -1000005    5
    0.14038482   2    1000006   -6
    0.14038482   2   -1000006    6
    0.10653704   2    2000001   -1
    0.10653704   2   -2000001    1
    0.10653646   2    2000003   -3
    0.10653646   2   -2000003    3
    0.00027310724   3    1000024    5   -6
    0.00027310724   3   -1000024   -5    6
    0.00022098434   3    1000022    6   -6
    0.00021107851   3    1000023    6   -6

DECAY 25  0.0038919272
    0.59713677   2   -5    5
    0.20697493   2   -24    24
    0.07072297   2    21    21
    0.068441167   2   -15    15
    0.028010566   2   -4    4
    0.02460841   2    23    23
    0.0022666645   2    22    22
    0.0013752871   2    22    23
    0.00023754507   2   -13    13
    0.00022491697   2   -3    3
    6.2187405e-07   2   -1    1
    1.4434767e-07   2   -2    2
    5.3402887e-09   2   -11    11

DECAY 35  12.001078
    0.87137773   2   -5    5
    0.12452012   2   -15    15
    0.0030532529   2   -6    6
    0.00044302789   2   -13    13
    0.00035912186   2   -3    3
    0.0001662643   2    25    25
    4.7481599e-05   2    21    21
    1.8910103e-05   2   -24    24
    1.3002986e-05   2    23    23
    9.9298462e-07   2   -1    1
    5.125522e-08   2   -4    4
    2.7628066e-08   2    22    22
    1.2646173e-08   2    22    23
    9.9537425e-09   2   -11    11
    2.6433056e-13   2   -2    2

DECAY 36  11.725942
    0.87107262   2   -5    5
    0.12447313   2   -15    15
    0.0035332936   2   -6    6
    0.00044285352   2   -13    13
    0.00035897973   2   -3    3
    9.8078829e-05   2    21    21
    1.9827756e-05   2    23    25
    9.9259122e-07   2   -1    1
    1.1487707e-07   2    22    22
    5.0544782e-08   2   -4    4
    4.8706691e-08   2    22    23
    9.9498235e-09   2   -11    11
    2.6080859e-13   2   -2    2
    1.3311512e-37   2    25    25

DECAY 37  10.477376
    0.84708336   2   -5    6
    0.15064746   2   -15    16
    0.0013124772   2   -5    4
    0.00053259603   2   -13    14
    0.0003669226   2   -3    4
    2.267751e-05   2    24    25
    1.6930403e-05   2   -3    2
    9.3724725e-06   2   -5    2
    6.8355826e-06   2   -3    6
    1.0183431e-06   2   -1    2
    2.9048222e-07   2   -1    6
    4.9687084e-08   2   -1    4
    1.2457477e-08   2   -11    12
    2.0739496e-10   2    24    35
    2.0492987e-10   2    24    36

DECAY 6  2.43
    1   2    5    24

DECAY 15 -1
