BLOCK SPINFO
   1   SPheno
   2   v4.0.5be

BLOCK SPHENOINFO
   1   2
   2   2

BLOCK MODSEL
   1   0

BLOCK MINPAR
   3    17.348723
   4   -1

BLOCK EXTPAR
   0    1401.3252
   1    517.88558
   2   -295.68837
   3    3000
   11    3610.3449
   12   -733.64132
   13    1756.5298
   23   -118.44597
   25    16.675335
   26    1221.3602
   31    232.96773
   32    232.96773
   33    1826.2947
   34    1731.7777
   35    1731.7777
   36    1962.1881
   41    5000
   42    5000
   43    1713.7571
   44    5000
   45    5000
   46    1287.7075
   47    5000
   48    5000
   49    989.03413

BLOCK SMINPUTS
   1    127.90897
   2    1.1663787e-05
   3    0.1184
   4    91.1876
   5    4.18
   6    173.2
   7    1.777
   8    0
   11    0.00051099893
   12    0
   13    0.10565837
   14    0
   21    0.005
   22    0.0025
   23    0.095
   24    1.27

BLOCK GAUGE Q=  1401.3252
   1    0.35536298
   2    0.66519887
   3    1.219778

BLOCK YU Q=  1401.3252
   1   1    8.3994348e-06
   2   2    0.0042669129
   3   3    1.0147192

BLOCK YD Q=  1401.3252
   1   1    0.00028145235
   2   2    0.0053475946
   3   3    0.27911254

BLOCK YE Q=  1401.3252
   1   1    4.9115493e-05
   2   2    0.010155526
   3   3    0.17079924

BLOCK AU Q=  1401.3252
   1   1    0
   2   2    0
   3   3    3610.3449

BLOCK AD Q=  1401.3252
   1   1    0
   2   2    0
   3   3   -733.64132

BLOCK AE Q=  1401.3252
   1   1    0
   2   2    0
   3   3    1756.5298

BLOCK MSOFT Q=  1401.3252
   1    517.88558
   2   -295.68837
   3    3000
   21    1480107.2
   22    59657.708
   31    232.96773
   32    232.96773
   33    1826.2947
   34    1731.7777
   35    1731.7777
   36    1962.1881
   41    5000
   42    5000
   43    1713.7571
   44    5000
   45    5000
   46    1287.7075
   47    5000
   48    5000
   49    989.03413

BLOCK MASS
   6    173.2
   23    91.1876
   24    80.429995
   15    1.777
   25    125.99116
   35    1221.2171
   36    1221.3602
   37    1224.1591
   1000001    5026.9709
   2000001    5016.111
   1000002    5026.539
   2000002    5017.6648
   1000003    5026.972
   2000003    5016.1122
   1000004    5026.54
   2000004    5017.6656
   1000005    959.8536
   2000005    1673.5584
   1000006    1131.4349
   2000006    1735.5947
   1000011    246.46807
   2000011    1733.6657
   1000012    233.09407
   1000013    246.46261
   2000013    1733.6628
   1000014    233.09104
   1000015    1829.9566
   2000015    1963.1633
   1000016    1827.9101
   1000021    3185.3479
   1000022   -109.91445
   1000023    129.93515
   1000025   -336.47636
   1000035    520.74407
   1000024    114.5449
   1000037    337.20477

BLOCK ALPHA
      -0.058521039

BLOCK HMIX Q=  1401.3252
   1   -118.44597
   2    16.675335
   3    244.01242
   4    1491720.7

BLOCK STOPMIX
   1   1   -0.33716366
   1   2    0.94144605
   2   1   -0.94144605
   2   2   -0.33716366

BLOCK SBOTMIX
   1   1   -0.0014183711
   1   2    0.99999899
   2   1   -0.99999899
   2   2   -0.0014183711

BLOCK STAUMIX
   1   1   -0.99991568
   1   2    0.012985973
   2   1   -0.012985973
   2   2   -0.99991568

BLOCK NMIX
   1   1   -0.048279606
   1   2   -0.26728267
   1   3   -0.71911222
   1   4    0.63961447
   2   1    0.077022971
   2   2    0.12221944
   2   3   -0.68539565
   2   4   -0.71369649
   3   1    0.014403867
   3   2   -0.95579738
   3   3    0.11330412
   3   4   -0.27093554
   4   1    0.99575553
   4   2   -0.0085872762
   4   3    0.016510817
   4   4    0.09013646

BLOCK UMIX
   1   1   -0.16264324
   1   2   -0.98668494
   2   1   -0.98668494
   2   2    0.16264324

BLOCK VMIX
   1   1    0.39212117
   1   2    0.91991358
   2   1    0.91991358
   2   2   -0.39212117

BLOCK HIGGSBOUNDSINPUTHIGGSCOUPLINGSFERMIONS
       0, 278.0668,3,36,15,15

BLOCK HIGGSBOUNDSINPUTHIGGSCOUPLINGSBOSONS
       0,4,36,21,21,23

BLOCK SPHENOLOWENERGY
   1    0.00032489155
   2    1.587392e-06
   3    3.5200092e-05
   4    2.8025963e-15
   5    1.1972364e-10
   6    2.5054848e-08
   7    9.4839538e-14
   8    4.0515391e-09
   9    8.5910738e-07
   10    9.5711913e-05
   11    0.98866741
   12    0.54327525
   13    19.406949
   14    0
   15    0
   16    0.0021625945
   17    2.2817132e-15
   18    2.4759334e-11
   19    8.2808111e-11
   20    1.4927028e-14
   21    6.3818645e-10
   22    3.5391371e-08
   23    0
   24    0
   25    0
   26    0
   27    0
   28    0
   29    0
   30    0
   31    0
   39    0.0001094218
   40    0
   41    0
   42    0

BLOCK FWCOEF Q=  160
   305   4422   0   0   -0.18881911
   305   4422   0   2   -0.18958526
   305   4322   0   2   -0.00034686948
   305   6421   0   0   -0.095227835
   305   6421   0   2   -0.1145886
   305   6321   0   2   -0.00053757003
   3051111   4133   0   0    1.5893872
   3051111   4133   0   2    1.5906209
   3051111   4233   0   2    1.9889087e-05
   3051111   4137   0   0   -4.4120793
   3051111   4137   0   2   -4.4050793
   3051111   4237   0   2   -0.0001537415
   3051313   4133   0   0    1.5893872
   3051313   4133   0   2    1.5906192
   3051313   4233   0   2    1.988882e-05
   3051313   4137   0   0   -4.4120793
   3051313   4137   0   2   -4.405081
   3051313   4237   0   2   -0.0001537414
   3051212   4137   0   0    1.5053501
   3051212   4137   0   2    1.5038698
   3051212   4237   0   2    3.3520639e-05
   3051414   4137   0   0    1.5053501
   3051414   4137   0   2    1.5038698
   3051414   4237   0   2    3.3520691e-05
   3051616   4137   0   0    1.5053501
   3051616   4137   0   2    1.5038661
   3051616   4237   0   2    3.3535373e-05

BLOCK IMFWCOEF Q=  160
   305   4422   0   0    3.8583201e-07
   305   4422   0   2    8.2963413e-06
   305   4322   0   2    2.6542896e-06
   305   6421   0   0    3.3049063e-07
   305   6421   0   2    4.998436e-06
   305   6321   0   2    1.04065e-06
   3051111   4133   0   2   -1.8025284e-06
   3051111   4233   0   2    8.5307588e-07
   3051111   4137   0   2    7.6387671e-06
   3051111   4237   0   2   -6.6429732e-06
   3051313   4133   0   2   -1.8026e-06
   3051313   4233   0   2    8.530754e-07
   3051313   4137   0   2    7.6387976e-06
   3051313   4237   0   2   -6.6429756e-06
   3051212   4137   0   2   -8.9547233e-07
   3051212   4237   0   2    1.4485141e-06
   3051414   4137   0   2   -8.9547227e-07
   3051414   4237   0   2    1.4485141e-06
   3051616   4137   0   2   -9.6084701e-07
   3051616   4237   0   2    1.4485153e-06

DECAY 23  2.4952


DECAY 24  2.085


DECAY 1000011  0.11017714
    0.54278197   2    1000022    11
    0.32019865   2   -1000024    12
    0.13701268   2    1000023    11

DECAY 2000011  7.2219115
    0.9899036   2    1000035    11
    0.0070756399   2    1000023    11
    0.0027889945   2    1000022    11
    0.0002317531   2    1000025    11

DECAY 1000013  0.11046495
    0.54289019   2    1000022    13
    0.31934952   2   -1000024    14
    0.13775361   2    1000023    13

DECAY 2000013  7.2289426
    0.98893857   2    1000035    13
    0.0072973315   2    1000023    13
    0.0030386759   2    1000022    13
    0.00047487777   2   -1000024    14
    0.00023737542   2    1000025    13

DECAY 1000015  25.631807
    0.57028965   2   -1000037    16
    0.26383604   2    1000025    15
    0.072722958   2    1000035    15
    0.048581271   2    1000022    15
    0.02740367   2    1000023    15
    0.017166412   2   -1000024    16

DECAY 2000015  10.79872
    0.78273054   2    1000035    15
    0.10030803   2   -1000024    16
    0.055041583   2    1000022    15
    0.054924728   2    1000023    15
    0.0044887051   2   -1000037    16
    0.0023445289   2    1000025    15

DECAY 1000012  0.22091011
    0.82170972   2    1000024    11
    0.16378807   2    1000022    12
    0.014502212   2    1000023    12

DECAY 1000014  0.22116319
    0.82191881   2    1000024    13
    0.1635961   2    1000022    14
    0.01448509   2    1000023    14

DECAY 1000016  25.685789
    0.49570482   2    1000037    15
    0.27140619   2    1000025    16
    0.13544751   2    1000024    15
    0.07726838   2    1000035    16
    0.018135088   2    1000022    16
    0.0020380212   2    1000023    16

DECAY 2000001  143.73651
    0.980931   2    1000021    1
    0.01890408   2    1000035    1
    0.00011545603   2    1000023    1

DECAY 1000001  208.61911
    0.68127163   2    1000021    1
    0.20465639   2   -1000037    2
    0.096541651   2    1000025    1
    0.0070906324   2    1000022    1
    0.0056053971   2   -1000024    2
    0.0035872898   2    1000035    1
    0.0012470104   2    1000023    1

DECAY 2000003  143.74232
    0.98089222   2    1000021    3
    0.018903325   2    1000035    3
    0.0001247396   2    1000023    3

DECAY 1000003  208.6239
    0.68125652   2    1000021    3
    0.20465307   2   -1000037    4
    0.096539628   2    1000025    3
    0.0070975345   2    1000022    3
    0.0056126415   2   -1000024    4
    0.0035872118   2    1000035    3
    0.001253395   2    1000023    3

DECAY 1000005  3.0484208
    0.43147407   2   -1000024    6
    0.24654395   2    1000022    5
    0.22182958   2    1000023    5
    0.086811925   2    1000035    5
    0.0086894287   2   -1000037    6
    0.0046510455   2    1000025    5

DECAY 2000005  112.35608
    0.49886603   2    1000006   -24
    0.25278363   2   -1000024    6
    0.16310182   2   -1000037    6
    0.055720195   2    1000025    5
    0.016170214   2    1000022    5
    0.011480472   2    1000023    5
    0.001853875   2    1000035    5

DECAY 2000002  152.12446
    0.9279069   2    1000021    2
    0.071470026   2    1000035    2
    0.00043639773   2    1000023    2
    0.00017152806   2    1000022    2

DECAY 1000002  208.61748
    0.68106133   2    1000021    2
    0.17788027   2    1000037    1
    0.095503281   2    1000025    2
    0.032579276   2    1000024    1
    0.0080639258   2    1000022    2
    0.0029548518   2    1000035    2
    0.0019570626   2    1000023    2

DECAY 2000004  152.12811
    0.92788478   2    1000021    4
    0.071468414   2    1000035    4
    0.00044246279   2    1000023    4
    0.00017640601   2    1000022    4

DECAY 1000004  208.6222
    0.68104616   2    1000021    4
    0.17787664   2    1000037    3
    0.09550174   2    1000025    4
    0.032591836   2    1000024    3
    0.0080673146   2    1000022    4
    0.0029548528   2    1000035    4
    0.0019614604   2    1000023    4

DECAY 1000006  45.025259
    0.46183493   2    1000024    5
    0.25701552   2    1000023    6
    0.22357235   2    1000022    6
    0.037364226   2    1000035    6
    0.011844539   2    1000037    5
    0.0083567595   2    1000025    6

DECAY 2000006  117.83667
    0.27891039   2    1000006    23
    0.22000115   2    1000006    25
    0.14388804   2    1000023    6
    0.1373771   2    1000037    5
    0.11048568   2    1000022    6
    0.085510125   2    1000025    6
    0.020918581   2    1000024    5
    0.002891249   2    1000035    6

DECAY 1000024  8.2013454e-09
    0.39370216   3    1000022   -1    2
    0.27414266   3    1000022   -3    4
    0.13382615   3    1000022   -11    12
    0.13348356   3    1000022   -13    14
    0.064845467   3    1000022   -15    16

DECAY 1000037  3.7155541
    0.20093836   2    1000022    24
    0.17596528   2    1000023    24
    0.16061897   2    1000024    23
    0.10935926   2    1000024    25
    0.092174139   2    1000014   -13
    0.092169718   2    1000012   -11
    0.084373203   2   -1000013    14
    0.084364628   2   -1000011    12

DECAY 1000022 -1


DECAY 1000023  1.0095168e-05
    0.16727071   3    1000022    12   -12
    0.1245337   3    1000022    1   -1
    0.12450166   3    1000022    3   -3
    0.097128998   3    1000022    2   -2
    0.092104959   3    1000022    4   -4
    0.074925705   3    1000022    5   -5
    0.046506102   2    1000022    22
    0.032665175   3    1000024    1   -2
    0.032665175   3   -1000024   -1    2
    0.031591602   3    1000024    3   -4
    0.031591602   3   -1000024   -3    4
    0.027681752   3    1000022    11   -11
    0.027671986   3    1000022    13   -13
    0.025086151   3    1000022    15   -15
    0.010921609   3    1000024    11   -12
    0.010921609   3   -1000024   -11    12
    0.010918939   3    1000024    13   -14
    0.010918939   3   -1000024   -13    14
    0.01019681   3    1000024    15   -16
    0.01019681   3   -1000024   -15    16

DECAY 1000025  4.4702108
    0.19514374   2    1000024   -24
    0.19514374   2   -1000024    24
    0.15430649   2    1000023    23
    0.074913736   2    1000023    25
    0.06626056   2    1000022    25
    0.041599292   2    1000014   -14
    0.041599292   2   -1000014    14
    0.0415973   2    1000012   -12
    0.0415973   2   -1000012    12
    0.031986133   2    1000013   -13
    0.031986133   2   -1000013    13
    0.031982431   2    1000011   -11
    0.031982431   2   -1000011    11
    0.019807401   2    1000022    23

DECAY 1000035  3.0359575
    0.10624924   2    1000024   -24
    0.10624924   2   -1000024    24
    0.071813995   2    1000022    25
    0.070526364   2    1000014   -14
    0.070526364   2   -1000014    14
    0.070525447   2    1000012   -12
    0.070525447   2   -1000012    12
    0.069231835   2    1000022    23
    0.067876548   2    1000023    25
    0.062263402   2    1000013   -13
    0.062263402   2   -1000013    13
    0.062261827   2    1000011   -11
    0.062261827   2   -1000011    11
    0.038383719   2    1000023    23
    0.002751389   2    1000025    23
    0.001891416   2    1000037   -24
    0.001891416   2   -1000037    24
    0.0017244309   2    1000025    25
    0.00035741465   3    1000024    5   -6
    0.00035741465   3   -1000024   -5    6

DECAY 1000021  246.90046
    0.15783992   2    1000005   -5
    0.15783992   2   -1000005    5
    0.15712222   2    1000006   -6
    0.15712222   2   -1000006    6
    0.10007455   2    2000005   -5
    0.10007455   2   -2000005    5
    0.084859301   2    2000006   -6
    0.084859301   2   -2000006    6

DECAY 25  0.0040885969
    0.56473194   2   -5    5
    0.24040248   2   -24    24
    0.068854631   2    21    21
    0.064918889   2   -15    15
    0.029672187   2    23    23
    0.027063545   2   -4    4
    0.0023504718   2    22    22
    0.001567525   2    22    23
    0.00022601042   2   -13    13
    0.00021158541   2   -3    3
    5.8501033e-07   2   -1    1
    1.3946203e-07   2   -2    2
    5.0809533e-09   2   -11    11

DECAY 35  19.929066
    0.25235349   2   -5    5
    0.17875763   2   -1000024    1000037
    0.17875763   2   -1000037    1000024
    0.11116466   2    1000023    1000025
    0.080384469   2    1000022    1000025
    0.074921112   2   -1000024    1000024
    0.038797483   2   -15    15
    0.023729623   2    1000022    1000035
    0.022544453   2    1000023    1000035
    0.014540593   2    1000022    1000022
    0.0086035111   2   -6    6
    0.0053303011   2   -1000037    1000037
    0.0037441428   2    1000022    1000023
    0.0029741462   2    1000025    1000025
    0.0019985004   2    1000023    1000023
    0.0009676824   2    1000025    1000035
    0.00014039191   2   -13    13
    0.00011576926   2    25    25
    8.9907586e-05   2   -3    3
    1.9539373e-05   2   -24    24
    1.8526406e-05   2    23    23
    8.2339276e-06   2    1000035    1000035
    7.5283469e-06   2    21    21
    3.4148324e-06   2   -1000011    1000011
    3.4098549e-06   2   -1000013    1000013
    7.1939293e-07   2    22    23
    3.0348526e-07   2    22    22
    2.4856555e-07   2   -1    1
    1.2272425e-07   2   -4    4
    3.153997e-09   2   -11    11
    6.3277759e-13   2   -2    2

DECAY 36  19.759722
    0.24697645   2   -5    5
    0.17131536   2   -1000024    1000037
    0.17131536   2   -1000037    1000024
    0.10768876   2    1000022    1000025
    0.085233635   2   -1000024    1000024
    0.079375289   2    1000023    1000025
    0.037970767   2   -15    15
    0.024984443   2    1000022    1000035
    0.022008291   2    1000023    1000035
    0.018519034   2    1000022    1000022
    0.013701908   2   -1000037    1000037
    0.0088814225   2   -6    6
    0.0072434733   2    1000025    1000025
    0.0021906434   2    1000022    1000023
    0.0016477613   2    1000023    1000023
    0.00064950045   2    1000025    1000035
    0.00013740095   2   -13    13
    8.7989561e-05   2   -3    3
    3.7686335e-05   2    21    21
    2.5643075e-05   2    23    25
    7.539885e-06   2    1000035    1000035
    8.1919025e-07   2    22    23
    4.6629259e-07   2    22    22
    2.4326282e-07   2   -1    1
    1.1598312e-07   2   -4    4
    3.086804e-09   2   -11    11
    5.9813388e-13   2   -2    2
    1.1574898e-37   2    25    25

DECAY 37  19.386129
    0.24678956   2    1000022    1000037
    0.24575915   2   -5    6
    0.20356681   2    1000024    1000025
    0.18805314   2    1000023    1000037
    0.044179635   2    1000024    1000035
    0.038008041   2   -15    16
    0.0273218   2    1000023    1000024
    0.0040378547   2    1000022    1000024
    0.0016301522   2    1000035    1000037
    0.00035940254   2   -5    4
    0.00013437247   2   -13    14
    8.167864e-05   2   -3    4
    2.6424945e-05   2    24    25
    1.3623215e-05   2   -1000011    1000012
    1.3616075e-05   2   -1000013    1000014
    1.2714361e-05   2   -3    6
    4.8570475e-06   2    1000025    1000037
    3.7780651e-06   2   -3    2
    2.5665084e-06   2   -5    2
    5.7784551e-07   2   -1    6
    2.26302e-07   2   -1    2
    1.5915155e-08   2   -1    4
    3.142986e-09   2   -11    12
    1.5439544e-11   2    24    35
    1.2034598e-11   2    24    36

DECAY 6  2.43
    1   2    5    24

DECAY 15 -1
