BLOCK SPINFO
   1   SPheno
   2   v4.0.5be

BLOCK SPHENOINFO
   1   2
   2   2

BLOCK MODSEL
   1   0

BLOCK MINPAR
   3    59.148763
   4    1

BLOCK EXTPAR
   0    3678.0821
   1    1217.3311
   2    3353.241
   3    1887.9934
   11    4294.7366
   12   -331.25029
   13    4995.1128
   23    3155.9875
   25    58.079904
   26    2807.8535
   31    4074.3744
   32    4074.3744
   33    1906.8962
   34    3055.4191
   35    3055.4191
   36    4748.2104
   41    1012.8596
   42    1012.8596
   43    4396.7725
   44    3664.9462
   45    3664.9462
   46    3011.4012
   47    4833.1465
   48    4833.1465
   49    4053.3497

BLOCK SMINPUTS
   1    127.90897
   2    1.1663787e-05
   3    0.1184
   4    91.1876
   5    4.18
   6    173.2
   7    1.777
   8    0
   11    0.00051099893
   12    0
   13    0.10565837
   14    0
   21    0.005
   22    0.0025
   23    0.095
   24    1.27

BLOCK GAUGE Q=  3678.0821
   1    0.35536298
   2    0.66519887
   3    1.219778

BLOCK YU Q=  3678.0821
   1   1    8.3856148e-06
   2   2    0.0042598923
   3   3    1.0130496

BLOCK YD Q=  3678.0821
   1   1    0.00097868075
   2   2    0.018594934
   3   3    0.97054463

BLOCK YE Q=  3678.0821
   1   1    0.00017078695
   2   2    0.035313324
   3   3    0.59391202

BLOCK AU Q=  3678.0821
   1   1    0
   2   2    0
   3   3    4294.7366

BLOCK AD Q=  3678.0821
   1   1    0
   2   2    0
   3   3   -331.2503

BLOCK AE Q=  3678.0821
   1   1    0
   2   2    0
   3   3    4995.1128

BLOCK MSOFT Q=  3678.0821
   1    1217.3311
   2    3353.241
   3    1887.9934
   21   -1909416.7
   22   -9829613.5
   31    4074.3744
   32    4074.3744
   33    1906.8962
   34    3055.4191
   35    3055.4191
   36    4748.2104
   41    1012.8596
   42    1012.8596
   43    4396.7725
   44    3664.9462
   45    3664.9462
   46    3011.4012
   47    4833.1465
   48    4833.1465
   49    4053.3497

BLOCK MASS
   6    173.2
   23    91.1876
   24    80.429995
   15    1.777
   25    122.586
   35    2807.108
   36    2807.8535
   37    2808.2717
   1000001    1242.8563
   2000001    4892.9933
   1000002    1240.3723
   2000002    3725.0888
   1000003    1242.8552
   2000003    4892.9854
   1000004    1240.372
   2000004    3725.0883
   1000005    4088.2295
   2000005    4427.8174
   1000006    3054.2276
   2000006    4429.3647
   1000011    4095.3681
   2000011    3064.5931
   1000012    4094.1863
   1000013    4095.3201
   2000013    3064.5241
   1000014    4094.1314
   1000015    1939.7201
   2000015    4696.6962
   1000016    1940.604
   1000021    2139.2429
   1000022    1208.3747
   1000023    3141.4918
   1000025   -3156.3725
   1000035    3353.4934
   1000024    3141.5572
   1000037    3353.594

BLOCK ALPHA
      -0.0169754

BLOCK HMIX Q=  3678.0821
   1    3155.9875
   2    58.079904
   3    243.02537
   4    7884041.2

BLOCK STOPMIX
   1   1   -0.053464855
   1   2    0.99856973
   2   1   -0.99856973
   2   2   -0.053464855

BLOCK SBOTMIX
   1   1    0.10546819
   1   2    0.99442268
   2   1   -0.99442268
   2   2    0.10546819

BLOCK STAUMIX
   1   1    0.99984801
   1   2    0.017434401
   2   1   -0.017434401
   2   2    0.99984801

BLOCK NMIX
   1   1    0.99983714
   1   2   -0.00023167864
   1   3    0.016776164
   1   4   -0.0066477924
   2   1    0.015664645
   2   2    0.3418991
   2   3   -0.66637679
   2   4    0.66242102
   3   1   -0.0071591103
   3   2    0.0082504027
   3   3    0.70699812
   3   4    0.70713106
   4   1    0.0053900387
   4   2   -0.93970042
   4   3   -0.23625028
   4   4    0.24722432

BLOCK UMIX
   1   1   -0.26342751
   1   2    0.96467919
   2   1    0.96467919
   2   2    0.26342751

BLOCK VMIX
   1   1   -0.27930512
   1   2    0.9602024
   2   1    0.9602024
   2   2    0.27930512

BLOCK HIGGSBOUNDSINPUTHIGGSCOUPLINGSFERMIONS
       0, 3373.2752,3,36,15,15

BLOCK HIGGSBOUNDSINPUTHIGGSCOUPLINGSBOSONS
       0,4,36,21,21,23

BLOCK SPHENOLOWENERGY
   1    0.00033421902
   2    1.588702e-06
   3    3.5253079e-05
   4    3.2255095e-15
   5    1.3779101e-10
   6    2.8903212e-08
   7    1.0773577e-13
   8    4.602498e-09
   9    9.7816173e-07
   10    9.3364346e-05
   11    0.96441795
   12    0.54227675
   13    19.359066
   14    0
   15    0
   16    0.0021592088
   17    2.2816804e-15
   18    2.4801392e-11
   19    8.2899869e-11
   20    1.2363652e-15
   21    5.2854961e-11
   22    2.5423523e-08
   23    0
   24    0
   25    0
   26    0
   27    0
   28    0
   29    0
   30    0
   31    0
   39    7.4703707e-05
   40    0
   41    0
   42    0

BLOCK FWCOEF Q=  160
   305   4422   0   0   -0.18881911
   305   4422   0   2   -0.20362515
   305   4322   0   2   -0.00052925428
   305   6421   0   0   -0.095227835
   305   6421   0   2   -0.11053545
   305   6321   0   2   -0.00050333252
   3051111   4133   0   0    1.6250108
   3051111   4133   0   2    1.6250766
   3051111   4233   0   2    9.9701544e-05
   3051111   4137   0   0   -4.4477029
   3051111   4137   0   2   -4.4461078
   3051111   4237   0   2   -0.00073961965
   3051313   4133   0   0    1.6250108
   3051313   4133   0   2    1.6250752
   3051313   4233   0   2    9.9699655e-05
   3051313   4137   0   0   -4.4477029
   3051313   4137   0   2   -4.4461092
   3051313   4237   0   2   -0.00073961873
   3051212   4137   0   0    1.5053501
   3051212   4137   0   2    1.5050052
   3051212   4237   0   2    0.00015999366
   3051414   4137   0   0    1.5053501
   3051414   4137   0   2    1.5050052
   3051414   4237   0   2    0.00015999401
   3051616   4137   0   0    1.5053501
   3051616   4137   0   2    1.5050049
   3051616   4237   0   2    0.00016009151

BLOCK IMFWCOEF Q=  160
   305   4422   0   0    3.8567411e-07
   305   4422   0   2    1.140914e-05
   305   4322   0   2   -6.9667901e-06
   305   6421   0   0    3.3035538e-07
   305   6421   0   2   -2.059631e-05
   305   6321   0   2   -5.7286435e-06
   3051111   4133   0   2   -1.2337557e-06
   3051111   4233   0   2    3.4493617e-06
   3051111   4137   0   2    1.0538267e-05
   3051111   4237   0   2   -2.5595825e-05
   3051313   4133   0   2   -1.2337419e-06
   3051313   4233   0   2    3.4493569e-06
   3051313   4137   0   2    1.0538282e-05
   3051313   4237   0   2   -2.5595838e-05
   3051212   4137   0   2   -2.2764595e-06
   3051212   4237   0   2    5.5368641e-06
   3051414   4137   0   2   -2.2764596e-06
   3051414   4237   0   2    5.5368641e-06
   3051616   4137   0   2   -2.2810324e-06
   3051616   4237   0   2    5.536864e-06

DECAY 23  2.4952


DECAY 24  2.085


DECAY 2000011  10.978979
    1   2    1000022    11

DECAY 1000011  10.439723
    0.41021817   2    1000022    11
    0.34879162   2   -1000037    12
    0.16450891   2    1000035    11
    0.040590124   2   -1000024    12
    0.035885553   2    1000023    11

DECAY 2000013  10.978564
    1   2    1000022    13

DECAY 1000013  10.468842
    0.40907282   2    1000022    13
    0.34778419   2   -1000037    14
    0.16409334   2    1000035    13
    0.040474035   2   -1000024    14
    0.036511913   2    1000023    13
    0.0012585781   2    2000013    25
    0.00080511751   2    1000025    13

DECAY 1000015  0.91505245
    1   2    1000022    15

DECAY 2000015  64.451001
    0.31912103   2    1000022    15
    0.18931237   2    1000016   -24
    0.14372538   2   -1000024    16
    0.094640248   2    1000015    23
    0.090449042   2    1000015    25
    0.076906625   2    1000025    15
    0.068422104   2    1000023    15
    0.0097858568   2   -1000037    16
    0.0076373546   2    1000035    15

DECAY 1000012  10.435281
    0.41094155   2    1000022    12
    0.34479735   2    1000037    11
    0.16616933   2    1000035    12
    0.045561541   2    1000024    11
    0.032488803   2    1000023    12

DECAY 1000014  10.451215
    0.4103074   2    1000022    14
    0.34430369   2    1000037    13
    0.16589562   2    1000035    14
    0.04701558   2    1000024    13
    0.032436343   2    1000023    14

DECAY 1000016  0.91432917
    1   2    1000022    16

DECAY 1000001  0.00052055358
    1   2    1000022    1

DECAY 2000001  255.0893
    0.99055911   2    1000021    1
    0.00943939   2    1000022    1

DECAY 1000003  0.00052049353
    1   2    1000022    3

DECAY 2000003  255.11788
    0.99044502   2    1000021    3
    0.0094383451   2    1000022    3

DECAY 1000005  196.8698
    0.86467668   2    1000021    5
    0.059720208   2   -1000024    6
    0.031653286   2    1000025    5
    0.030451834   2    1000023    5
    0.0099573428   2    1000022    5
    0.001476011   2    1000035    5
    0.001422788   2   -1000037    6
    0.00064184876   2    1000006   -24

DECAY 2000005  285.85438
    0.71829886   2    1000021    5
    0.083685734   2    1000006   -24
    0.069421915   2   -1000024    6
    0.035183455   2    1000025    5
    0.032060503   2    1000023    5
    0.03159735   2   -1000037    6
    0.015027303   2    1000035    5
    0.0097041001   2    1000005    25
    0.003259512   2    1000005    23
    0.0017612727   2    1000022    5

DECAY 1000002  0.00044770435
    1   2    1000022    2

DECAY 2000002  138.72984
    0.95200608   2    1000021    2
    0.047992386   2    1000022    2

DECAY 1000004  0.00044726573
    1   2    1000022    4

DECAY 2000004  138.72991
    0.9520046   2    1000021    4
    0.047992332   2    1000022    4

DECAY 1000006  64.758844
    0.92623588   2    1000021    6
    0.073676441   2    1000022    6

DECAY 2000006  293.94896
    0.6992711   2    1000021    6
    0.072846646   2    1000006    25
    0.068797476   2    1000024    5
    0.041089914   2    1000006    23
    0.036343926   2    1000025    6
    0.033496651   2    1000023    6
    0.024787268   2    1000037    5
    0.014766932   2    1000035    6
    0.0066509757   2    1000005    24
    0.001949112   2    1000022    6

DECAY 1000024  15.841539
    0.27397933   2    1000016   -15
    0.14691463   2    1000004   -3
    0.14555952   2    1000002   -1
    0.12936202   2   -1000003    4
    0.12928571   2   -1000001    2
    0.12611496   2    1000022    24
    0.025903464   2   -1000015    16
    0.016383878   2    1000006   -5
    0.0062458741   3    1000022   -5    6
    0.00015071168   3    1000021   -5    6

DECAY 1000037  142.04504
    0.21589705   2   -1000003    4
    0.21589689   2   -1000001    2
    0.21418221   2    1000004   -3
    0.21416982   2    1000002   -1
    0.044898802   2    1000016   -15
    0.042447843   2   -1000015    16
    0.021397606   2    1000023    24
    0.012047617   2    1000025    24
    0.0083371467   2    1000024    23
    0.0073229762   2    1000024    25
    0.0020568129   2    1000006   -5
    0.0011423953   2    1000022    24

DECAY 1000022 -1


DECAY 1000023  20.746903
    0.10736301   2    1000015   -15
    0.10736301   2   -1000015    15
    0.084658348   2    1000004   -4
    0.084658348   2   -1000004    4
    0.084629877   2    1000002   -2
    0.084629877   2   -1000002    2
    0.082285829   2    1000003   -3
    0.082285829   2   -1000003    3
    0.081792622   2    1000001   -1
    0.081792622   2   -1000001    1
    0.0712188   2    1000022    25
    0.01447549   2    1000022    23
    0.014176673   2    1000016   -16
    0.014176673   2   -1000016    16
    0.0026678503   3    1000022    6   -6
    0.0013823445   3    1000021    6   -6
    0.00020704072   3    1000022    5   -5
    0.0001290893   3    1000021    5   -5

DECAY 1000025  7.8195768
    0.27407266   2    1000015   -15
    0.27407266   2   -1000015    15
    0.23386945   2    1000022    23
    0.19943084   2    1000022    25
    0.0080290334   3    1000022    6   -6
    0.0050429078   3    1000021    6   -6
    0.0016588937   2    1000003   -3
    0.0016588937   2   -1000003    3
    0.00065245406   3    1000022    5   -5
    0.00040020365   3    1000021    5   -5
    0.00017674722   2    1000001   -1
    0.00017674722   2   -1000001    1
    0.00017102776   2    1000004   -4
    0.00017102776   2   -1000004    4
    0.00011105101   3    1000022    15   -15

DECAY 1000035  135.06974
    0.1079457   2    1000003   -3
    0.1079457   2   -1000003    3
    0.10793516   2    1000001   -1
    0.10793516   2   -1000001    1
    0.10763197   2    1000004   -4
    0.10763197   2   -1000004    4
    0.10763179   2    1000002   -2
    0.10763179   2   -1000002    2
    0.023122046   2    1000015   -15
    0.023122046   2   -1000015    15
    0.021476291   2    1000016   -16
    0.021476291   2   -1000016    16
    0.020872717   2    1000025    23
    0.0078194131   2    1000025    25
    0.006216767   2    1000023    25
    0.0045344544   2    1000024   -24
    0.0045344544   2   -1000024    24
    0.0014308445   2    1000022    25
    0.0012517751   2    1000006   -6
    0.0012517751   2   -1000006    6
    0.00033753015   2    1000022    23

DECAY 1000021  111.38339
    0.12525348   2    1000004   -4
    0.12525348   2   -1000004    4
    0.12525347   2    1000002   -2
    0.12525347   2   -1000002    2
    0.12474557   2    1000003   -3
    0.12474557   2   -1000003    3
    0.12474533   2    1000001   -1
    0.12474533   2   -1000001    1

DECAY 25  0.0035929858
    0.60948668   2   -5    5
    0.19019616   2   -24    24
    0.074021572   2    21    21
    0.070158883   2   -15    15
    0.030101887   2   -4    4
    0.021932053   2    23    23
    0.00233555   2    22    22
    0.0012941255   2    22    23
    0.00024325888   2   -13    13
    0.00022903987   2   -3    3
    6.3327577e-07   2   -1    1
    1.5513111e-07   2   -2    2
    5.4687627e-09   2   -11    11

DECAY 35  99.386107
    0.73256164   2   -5    5
    0.26624098   2   -15    15
    0.00084226753   2   -13    13
    0.0002663749   2   -3    3
    6.9506279e-05   2   -6    6
    8.301569e-06   2    21    21
    7.2973548e-06   2    25    25
    2.1043652e-06   2    1000022    1000022
    7.3686055e-07   2   -1    1
    2.3133655e-07   2    23    23
    1.3530876e-07   2   -1000001    1000001
    1.3507732e-07   2   -1000003    1000003
    9.2515135e-08   2   -1000002    1000002
    9.242297e-08   2   -1000004    1000004
    7.6309569e-08   2   -24    24
    1.8917253e-08   2   -11    11
    8.1121477e-09   2    22    22
    7.0374068e-09   2    22    23
    1.0855371e-10   2   -4    4
    5.5504948e-16   2   -2    2

DECAY 36  92.567785
    0.73253372   2   -5    5
    0.26625282   2   -15    15
    0.00084229697   2   -13    13
    0.00026635838   2   -3    3
    8.0697393e-05   2   -6    6
    1.3580951e-05   2    21    21
    9.3664185e-06   2    1000022    1000022
    7.3681883e-07   2   -1    1
    3.8644246e-07   2    23    25
    1.8917997e-08   2   -11    11
    1.5160487e-08   2    22    22
    5.6732396e-09   2    22    23
    1.5221457e-10   2   -4    4
    7.7914146e-16   2   -2    2
    1.2849883e-40   2    25    25

DECAY 37  81.814715
    0.75754836   2   -5    6
    0.24015642   2   -15    16
    0.0011232699   2   -5    4
    0.00084903876   2   -13    14
    0.00029805137   2   -3    4
    1.3949288e-05   2   -3    2
    8.0213067e-06   2   -5    2
    9.9550974e-07   2   -3    6
    8.2753069e-07   2   -1    2
    4.3774052e-07   2    24    25
    2.5933519e-07   2   -1000001    1000002
    2.5863517e-07   2   -1000003    1000004
    3.8849709e-08   2   -1    4
    2.5453138e-08   2   -1    6
    1.9859105e-08   2   -11    12
    1.3854799e-08   2   -1000003    1000002
    1.3849837e-08   2   -1000001    1000004
    3.5512947e-14   2    24    35

DECAY 6  2.43
    1   2    5    24

DECAY 15 -1
