BLOCK SPINFO
   1   SPheno
   2   v4.0.5be

BLOCK SPHENOINFO
   1   2
   2   2

BLOCK MODSEL
   1   0

BLOCK MINPAR
   3    23.483069
   4   -1

BLOCK EXTPAR
   0    1560.2733
   1    145.4714
   2   -1628.1861
   3    3000
   11   -4649.5196
   12    1466.2353
   13    193.61856
   23   -811.59492
   25    22.729922
   26    3525.9438
   31    1944.2913
   32    1944.2913
   33    1671.5374
   34    496.02251
   35    496.02251
   36    1173.6197
   41    5000
   42    5000
   43    1474.566
   44    5000
   45    5000
   46    1806.8276
   47    5000
   48    5000
   49    1121.5566

BLOCK SMINPUTS
   1    127.90897
   2    1.1663787e-05
   3    0.1184
   4    91.1876
   5    4.18
   6    173.2
   7    1.777
   8    0
   11    0.00051099893
   12    0
   13    0.10565837
   14    0
   21    0.005
   22    0.0025
   23    0.095
   24    1.27

BLOCK GAUGE Q=  1560.2733
   1    0.35536298
   2    0.66519887
   3    1.219778

BLOCK YU Q=  1560.2733
   1   1    8.3924824e-06
   2   2    0.0042633811
   3   3    1.0138793

BLOCK YD Q=  1560.2733
   1   1    0.00038332631
   2   2    0.0072831999
   3   3    0.38013958

BLOCK YE Q=  1560.2733
   1   1    6.6893244e-05
   2   2    0.013831401
   3   3    0.23262142

BLOCK AU Q=  1560.2733
   1   1    0
   2   2    0
   3   3   -4649.5191

BLOCK AD Q=  1560.2733
   1   1    0
   2   2    0
   3   3    1466.2351

BLOCK AE Q=  1560.2733
   1   1    0
   2   2    0
   3   3    193.61857

BLOCK MSOFT Q=  1560.2733
   1    145.4714
   2   -1628.1861
   3    3000
   21    11766325
   22   -602712.03
   31    1944.2913
   32    1944.2913
   33    1671.5374
   34    496.02251
   35    496.02251
   36    1173.6197
   41    5000
   42    5000
   43    1474.566
   44    5000
   45    5000
   46    1806.8276
   47    5000
   48    5000
   49    1121.5566

BLOCK MASS
   6    173.2
   23    91.1876
   24    80.429995
   15    1.777
   25    121.5536
   35    3526.6012
   36    3525.9438
   37    3527.9655
   1000001    5031.1087
   2000001    5022.7407
   1000002    5030.6811
   2000002    5024.4864
   1000003    5031.111
   2000003    5022.7422
   1000004    5030.6826
   2000004    5024.487
   1000005    1140.3023
   2000005    1469.1302
   1000006    1346.8041
   2000006    1807.5776
   1000011    1955.0233
   2000011    496.3721
   1000012    1953.0745
   1000013    1955.0234
   2000013    496.38655
   1000014    1953.0743
   1000015    1174.765
   2000015    1684.6243
   1000016    1682.1781
   1000021    3196.522
   1000022    145.10734
   1000023   -818.94142
   1000025    823.31882
   1000035   -1679.295
   1000024    818.99798
   1000037    1679.4254

BLOCK ALPHA
      -0.042616836

BLOCK HMIX Q=  1560.2733
   1   -811.59492
   2    22.729922
   3    243.93817
   4    12432279

BLOCK STOPMIX
   1   1    0.87740781
   1   2    0.47974528
   2   1   -0.47974528
   2   2    0.87740781

BLOCK SBOTMIX
   1   1   -0.055461676
   1   2    0.99846082
   2   1   -0.99846082
   2   2   -0.055461676

BLOCK STAUMIX
   1   1   -0.023172453
   1   2    0.99973148
   2   1   -0.99973148
   2   2   -0.023172453

BLOCK NMIX
   1   1    0.99843795
   1   2    0.00029397408
   1   3   -0.055344084
   1   4   -0.0076556909
   2   1    0.033717513
   2   2    0.06706537
   2   3    0.70604675
   2   4   -0.70417565
   3   1    0.044522165
   3   2   -0.021465332
   3   3    0.70526112
   3   4    0.70722257
   4   1   -0.0016030888
   4   2    0.99751761
   4   3   -0.032276476
   4   4    0.062564127

BLOCK UMIX
   1   1   -0.045586389
   1   2   -0.9989604
   2   1   -0.9989604
   2   2    0.045586389

BLOCK VMIX
   1   1    0.088462724
   1   2    0.99607949
   2   1    0.99607949
   2   2   -0.088462724

BLOCK HIGGSBOUNDSINPUTHIGGSCOUPLINGSFERMIONS
       0, 516.64935,3,36,15,15

BLOCK HIGGSBOUNDSINPUTHIGGSCOUPLINGSBOSONS
       0,4,36,21,21,23

BLOCK SPHENOLOWENERGY
   1    0.00035947777
   2    1.5878786e-06
   3    3.5258496e-05
   4    2.3425574e-15
   5    1.0007165e-10
   6    2.0964446e-08
   7    7.9380188e-14
   8    3.3911277e-09
   9    7.1981277e-07
   10    9.6459152e-05
   11    0.99638611
   12    0.54305125
   13    19.401125
   14    0
   15    0
   16    0.0021634472
   17    2.2817209e-15
   18    2.4823837e-11
   19    8.2951352e-11
   20    1.8205686e-15
   21    7.7829206e-11
   22    2.4953149e-08
   23    0
   24    0
   25    0
   26    0
   27    0
   28    0
   29    0
   30    0
   31    0
   39    7.253833e-05
   40    0
   41    0
   42    0

BLOCK FWCOEF Q=  160
   305   4422   0   0   -0.18881911
   305   4422   0   2   -0.23328949
   305   4322   0   2   -0.00034653054
   305   6421   0   0   -0.095227835
   305   6421   0   2   -0.12320301
   305   6321   0   2   -0.00022861282
   3051111   4133   0   0    1.5933002
   3051111   4133   0   2    1.5942032
   3051111   4233   0   2    0.00010823991
   3051111   4137   0   0   -4.4159923
   3051111   4137   0   2   -4.4149188
   3051111   4237   0   2   -0.00084074928
   3051313   4133   0   0    1.5933002
   3051313   4133   0   2    1.5942024
   3051313   4233   0   2    0.00010823974
   3051313   4137   0   0   -4.4159923
   3051313   4137   0   2   -4.4149195
   3051313   4237   0   2   -0.00084074958
   3051212   4137   0   0    1.5053501
   3051212   4137   0   2    1.5051217
   3051212   4237   0   2    0.00018315822
   3051414   4137   0   0    1.5053501
   3051414   4137   0   2    1.5051217
   3051414   4237   0   2    0.00018315822
   3051616   4137   0   0    1.5053501
   3051616   4137   0   2    1.5051216
   3051616   4237   0   2    0.00018315916

BLOCK IMFWCOEF Q=  160
   305   4422   0   0    3.8572977e-07
   305   4422   0   2    7.0114311e-06
   305   4322   0   2   -4.5249235e-06
   305   6421   0   0    3.3040306e-07
   305   6421   0   2    1.8782694e-05
   305   6321   0   2   -1.8737027e-06
   3051111   4133   0   2   -3.0503298e-06
   3051111   4233   0   2    2.1135019e-06
   3051111   4137   0   2    2.5610178e-05
   3051111   4237   0   2   -1.6418808e-05
   3051313   4133   0   2   -3.0503197e-06
   3051313   4233   0   2    2.1134993e-06
   3051313   4137   0   2    2.5610193e-05
   3051313   4237   0   2   -1.6418814e-05
   3051212   4137   0   2   -5.4761554e-06
   3051212   4237   0   2    3.5768872e-06
   3051414   4137   0   2   -5.4761554e-06
   3051414   4237   0   2    3.5768872e-06
   3051616   4137   0   2   -5.4772009e-06
   3051616   4237   0   2    3.5768827e-06

DECAY 23  2.4952


DECAY 24  2.085


DECAY 2000011  2.0795014
    1   2    1000022    11

DECAY 1000011  4.2576852
    0.56930545   2    1000022    11
    0.27703164   2   -1000037    12
    0.13799952   2    1000035    11
    0.0099455707   2    1000023    11
    0.0057104429   2   -1000024    12

DECAY 2000013  2.07959
    1   2    1000022    13

DECAY 1000013  4.2633319
    0.56855669   2    1000022    13
    0.27666485   2   -1000037    14
    0.13781683   2    1000035    13
    0.010524138   2    1000023    13
    0.0057028799   2   -1000024    14
    0.00059483769   2    1000025    13
    0.00013977595   2    2000013    25

DECAY 1000015  6.380351
    0.89509706   2    1000022    15
    0.052540825   2   -1000024    16
    0.026539881   2    1000023    15
    0.025822232   2    1000025    15

DECAY 2000015  3.3976948
    0.6135119   2    1000022    15
    0.16347088   2    1000023    15
    0.15473576   2    1000025    15
    0.033119543   2    1000015    23
    0.031340418   2    1000015    25
    0.003575336   2   -1000024    16
    0.00016545447   2   -1000037    16

DECAY 1000012  4.2742686
    0.56527124   2    1000022    12
    0.27102059   2    1000037    11
    0.13625529   2    1000035    12
    0.021381097   2    1000024    11
    0.0032872416   2    1000023    12
    0.0027845369   2    1000025    12

DECAY 1000014  4.2793035
    0.5646061   2    1000022    14
    0.27070173   2    1000037    13
    0.13609478   2    1000035    14
    0.022532754   2    1000024    13
    0.0032833733   2    1000023    14
    0.0027812601   2    1000025    14

DECAY 1000016  3.4358128
    0.6033411   2    1000022    16
    0.32559994   2    1000024    15
    0.065427787   2    1000015    24
    0.0030186562   2    1000023    16
    0.0025516819   2    1000025    16

DECAY 2000001  143.14811
    0.98044641   2    1000021    1
    0.019495485   2    1000022    1

DECAY 1000001  194.40454
    0.72642205   2    1000021    1
    0.17950326   2   -1000037    2
    0.089547277   2    1000035    1
    0.0035829545   2    1000022    1
    0.00044867637   2   -1000024    2
    0.00040253624   2    1000023    1

DECAY 2000003  143.15828
    0.98037784   2    1000021    3
    0.019494219   2    1000022    3

DECAY 1000003  194.41155
    0.72639708   2    1000021    3
    0.17949697   2   -1000037    4
    0.089544127   2    1000035    3
    0.0035829102   2    1000022    3
    0.00045744768   2   -1000024    4
    0.00041539042   2    1000023    3
    0.00010607665   2    1000025    3

DECAY 1000005  1.9370948
    0.32809071   2    1000022    5
    0.28056327   2   -1000024    6
    0.19991102   2    1000023    5
    0.19143499   2    1000025    5

DECAY 2000005  18.773702
    0.70558435   2   -1000024    6
    0.15316505   2    1000006   -24
    0.053405923   2    1000023    5
    0.053196311   2    1000025    5
    0.014321848   2    1000005    25
    0.010525418   2    1000022    5
    0.0098011003   2    1000005    23

DECAY 2000002  151.73069
    0.92618479   2    1000021    2
    0.073596579   2    1000022    2
    0.00013881997   2    1000025    2

DECAY 1000002  194.39777
    0.7262184   2    1000021    2
    0.17845284   2    1000037    1
    0.089436528   2    1000035    2
    0.0036065476   2    1000022    2
    0.001689569   2    1000024    1
    0.00057634606   2    1000023    2

DECAY 2000004  151.73414
    0.9261638   2    1000021    4
    0.073594906   2    1000022    4
    0.00014449386   2    1000025    4

DECAY 1000004  194.40462
    0.7261933   2    1000021    4
    0.17844668   2    1000037    3
    0.089433405   2    1000035    4
    0.0036064215   2    1000022    4
    0.0017152583   2    1000024    3
    0.00058073262   2    1000023    4

DECAY 1000006  11.791184
    0.32779678   2    1000023    6
    0.32054483   2    1000025    6
    0.2708923   2    1000024    5
    0.071912218   2    1000022    6
    0.0059112826   2    1000005    24
    0.0024516418   2    1000022    4
    0.00032313603   3    1000022    24    5
    0.00016781609   2    1000023    4

DECAY 2000006  126.02635
    0.26195258   2    2000005    24
    0.23390703   2    1000006    23
    0.15647049   2    1000024    5
    0.11838374   2    1000006    25
    0.1004889   2    1000025    6
    0.099969971   2    1000023    6
    0.023707726   2    1000022    6
    0.0048133526   2    1000005    24
    0.00030621097   2    1000037    5

DECAY 1000024  0.53384241
    0.98721192   2    1000022    24
    0.011577087   3    1000022   -5    6
    0.001166091   2   -2000013    14

DECAY 1000037  17.44164
    0.20664831   2    1000024    25
    0.20437505   2    1000023    24
    0.19879227   2    1000024    23
    0.19850544   2    1000025    24
    0.14266075   2    1000006   -5
    0.03276043   2   -2000005    6
    0.0052760036   3    1000024    6   -6
    0.0050441203   3    1000025   -5    6
    0.0045222938   3    1000023   -5    6
    0.00078598536   2    1000022    24
    0.00026874585   2   -1000005    6
    0.00014194836   3    1000022   -15    16

DECAY 1000022 -1


DECAY 1000023  0.7013815
    0.50588678   2    1000022    25
    0.4850645   2    1000022    23
    0.0027470207   3    1000022    6   -6
    0.0017784815   2    2000013   -13
    0.0017784815   2   -2000013    13
    0.0013346912   2    2000011   -11
    0.0013346912   2   -2000011    11

DECAY 1000025  0.50993049
    0.59442181   2    1000022    25
    0.38780743   2    1000022    23
    0.0038777604   2    2000013   -13
    0.0038777604   2   -2000013    13
    0.0034121488   3    1000022    6   -6
    0.003257709   2    2000011   -11
    0.003257709   2   -2000011    11

DECAY 1000035  20.716274
    0.17136092   2    1000024   -24
    0.17136092   2   -1000024    24
    0.15788342   2    1000023    25
    0.15534416   2    1000025    23
    0.1342769   2    1000025    25
    0.061138523   2    1000006   -6
    0.061138523   2   -1000006    6
    0.029378074   2    2000005   -5
    0.029378074   2   -2000005    5
    0.015802794   2    1000023    23
    0.0040569387   3    1000024    5   -6
    0.0040569387   3   -1000024   -5    6
    0.0018620065   3    1000023    6   -6
    0.0016631337   3    1000025    6   -6
    0.00039079295   2    1000022    23
    0.00032023469   2    1000022    25
    0.00013358108   2    1000005   -5
    0.00013358108   2   -1000005    5
    0.00010117225   3    1000022    12   -12

DECAY 1000021  247.37731
    0.145712   2    1000005   -5
    0.145712   2   -1000005    5
    0.1189365   2    2000005   -5
    0.1189365   2   -2000005    5
    0.11488927   2    1000006   -6
    0.11488927   2   -1000006    6
    0.09989294   2    2000006   -6
    0.09989294   2   -2000006    6
    0.020361101   2    1000006   -4
    0.020361101   2   -1000006    4

DECAY 25  0.0034590711
    0.62439223   2   -5    5
    0.17602429   2   -24    24
    0.073343773   2    21    21
    0.071424207   2   -15    15
    0.030882096   2   -4    4
    0.019878018   2    23    23
    0.0023538632   2    22    22
    0.00121866   2    22    23
    0.00024774058   2   -13    13
    0.00023430494   2   -3    3
    6.4783047e-07   2   -1    1
    1.5915343e-07   2   -2    2
    5.5695306e-09   2   -11    11

DECAY 35  63.321596
    0.40290429   2   -5    5
    0.11909454   2   -1000024    1000037
    0.11909454   2   -1000037    1000024
    0.081470517   2    1000025    1000035
    0.066061365   2   -15    15
    0.046729091   2   -1000006    1000006
    0.037630417   2    1000023    1000035
    0.030356262   2    1000022    1000025
    0.027553332   2    1000022    1000023
    0.015074315   2   -2000005    1000005
    0.015074315   2   -1000005    2000005
    0.014888086   2   -2000006    1000006
    0.014888086   2   -1000006    2000006
    0.004091804   2   -6    6
    0.0026974458   2   -1000024    1000024
    0.00042826525   2    1000023    1000023
    0.00038287831   2    1000022    1000022
    0.00035723156   2    1000025    1000025
    0.00023841356   2   -1000005    1000005
    0.00022557705   2   -13    13
    0.00020226936   2    1000022    1000035
    0.0001446947   2   -2000005    2000005
    0.0001353062   2   -3    3
    8.8613765e-05   2    25    25
    5.0170125e-05   2   -1000037    1000037
    3.6421801e-05   2   -2000015    1000015
    3.6421801e-05   2   -1000015    2000015
    2.5203388e-05   2    1000035    1000035
    2.2005288e-05   2    21    21
    1.6267739e-05   2    1000023    1000025
    4.1900899e-07   2    23    23
    3.7411303e-07   2   -1    1
    2.5102191e-07   2   -1000015    1000015
    1.3527804e-07   2   -1000011    1000011
    1.3474484e-07   2   -1000013    1000013
    1.2348896e-07   2    22    23
    1.0292457e-07   2   -24    24
    4.0487037e-08   2    22    22
    3.6301216e-08   2   -4    4
    6.8703917e-09   2   -2000013    1000013
    6.8703917e-09   2   -1000013    2000013
    5.066096e-09   2   -11    11
    2.6166397e-09   2   -2000015    2000015
    1.8708673e-13   2   -2    2
    1.6069937e-13   2   -2000011    1000011
    1.6069937e-13   2   -1000011    2000011

DECAY 36  63.161781
    0.38580846   2   -5    5
    0.11851379   2   -1000024    1000037
    0.11851379   2   -1000037    1000024
    0.081136656   2    1000023    1000035
    0.063274271   2   -15    15
    0.047602031   2   -2000006    1000006
    0.047602031   2   -1000006    2000006
    0.037723841   2    1000025    1000035
    0.031403775   2    1000022    1000023
    0.026667987   2    1000022    1000025
    0.01530875   2   -2000005    1000005
    0.01530875   2   -1000005    2000005
    0.0046688019   2   -6    6
    0.0037448835   2   -1000024    1000024
    0.00064414233   2    1000023    1000023
    0.00049063773   2   -1000037    1000037
    0.00038347443   2    1000025    1000025
    0.00037745233   2    1000022    1000022
    0.00024619683   2    1000035    1000035
    0.00021606084   2   -13    13
    0.00014941258   2    1000022    1000035
    0.00012960339   2   -3    3
    3.6594725e-05   2   -2000015    1000015
    3.6594725e-05   2   -1000015    2000015
    9.1330415e-06   2    21    21
    1.4111865e-06   2    1000023    1000025
    7.7975413e-07   2    23    25
    3.5834703e-07   2   -1    1
    1.6962973e-07   2    22    23
    9.6206434e-08   2    22    22
    4.1292237e-08   2   -4    4
    6.875677e-09   2   -2000013    1000013
    6.875677e-09   2   -1000013    2000013
    4.8523347e-09   2   -11    11
    2.1282633e-13   2   -2    2
    1.6082278e-13   2   -2000011    1000011
    1.6082278e-13   2   -1000011    2000011
    3.6448812e-37   2    25    25

DECAY 37  58.379486
    0.39045053   2   -5    6
    0.13082645   2    1000023    1000037
    0.12969854   2    1000024    1000035
    0.12895682   2    1000025    1000037
    0.066645228   2   -15    16
    0.063941828   2    1000022    1000024
    0.036482182   2   -1000005    1000006
    0.035795643   2   -2000005    2000006
    0.013298025   2   -2000005    1000006
    0.0016977154   2   -1000005    2000006
    0.00057281689   2   -5    4
    0.00047359003   2    1000024    1000025
    0.00038169369   2    1000022    1000037
    0.00031124713   2    1000023    1000024
    0.00023561463   2   -13    14
    0.00013422991   2   -3    4
    7.9573092e-05   2   -1000015    1000016
    6.295973e-06   2   -3    2
    6.2509455e-06   2   -3    6
    4.0905029e-06   2   -5    2
    8.4546618e-07   2    24    25
    3.7243989e-07   2   -1    2
    2.7755197e-07   2   -1    6
    9.7521899e-08   2   -2000015    1000016
    1.9957105e-08   2   -1    4
    1.4783167e-08   2   -1000013    1000014
    5.5110507e-09   2   -11    12
    4.9375281e-10   2    1000035    1000037
    7.8765999e-13   2    24    36
    3.4577861e-13   2   -1000011    1000012
    1.102481e-13   2    24    35

DECAY 6  2.43
    1   2    5    24

DECAY 15 -1
