BLOCK SPINFO
   1   SPheno
   2   v4.0.5be

BLOCK SPHENOINFO
   1   2
   2   2

BLOCK MODSEL
   1   0

BLOCK MINPAR
   3    32.485635
   4    1

BLOCK EXTPAR
   0    2571.6588
   1   -4946.4347
   2    884.79814
   3    3428.0551
   11   -2639.9722
   12   -2270.2087
   13   -4370.4952
   23    436.70106
   25    31.444391
   26    1381.3801
   31    1154.1436
   32    1154.1436
   33    3867.6241
   34    3747.3555
   35    3747.3555
   36    4052.8247
   41    3038.6767
   42    3038.6767
   43    2498.8943
   44    3258.0327
   45    3258.0327
   46    2521.4479
   47    1536.7851
   48    1536.7851
   49    1916.0761

BLOCK SMINPUTS
   1    127.90897
   2    1.1663787e-05
   3    0.1184
   4    91.1876
   5    4.18
   6    173.2
   7    1.777
   8    0
   11    0.00051099893
   12    0
   13    0.10565837
   14    0
   21    0.005
   22    0.0025
   23    0.095
   24    1.27

BLOCK GAUGE Q=  2571.6588
   1    0.35536298
   2    0.66519887
   3    1.219778

BLOCK YU Q=  2571.6588
   1   1    8.388611e-06
   2   2    0.0042614144
   3   3    1.0134116

BLOCK YD Q=  2571.6588
   1   1    0.00053004591
   2   2    0.010070872
   3   3    0.52563945

BLOCK YE Q=  2571.6588
   1   1    9.2496888e-05
   2   2    0.019125423
   3   3    0.32165815

BLOCK AU Q=  2571.6588
   1   1    0
   2   2    0
   3   3   -2639.9742

BLOCK AD Q=  2571.6588
   1   1    0
   2   2    0
   3   3   -2270.2087

BLOCK AE Q=  2571.6588
   1   1    0
   2   2    0
   3   3   -4370.4942

BLOCK MSOFT Q=  2571.6588
   1   -4946.4347
   2    884.79814
   3    3428.0551
   21    1756904.1
   22   -51925.472
   31    1154.1436
   32    1154.1436
   33    3867.6241
   34    3747.3555
   35    3747.3555
   36    4052.8247
   41    3038.6767
   42    3038.6767
   43    2498.8943
   44    3258.0327
   45    3258.0327
   46    2521.4479
   47    1536.7851
   48    1536.7851
   49    1916.0761

BLOCK MASS
   6    173.2
   23    91.1876
   24    80.429995
   15    1.777
   25    121.55683
   35    1381.0638
   36    1381.3801
   37    1384.0021
   1000001    3146.4658
   2000001    1649.7559
   1000002    3145.4277
   2000002    3352.9779
   1000003    3146.464
   2000003    1649.7516
   1000004    3145.4259
   2000004    3352.9775
   1000005    2012.1802
   2000005    2575.5038
   1000006    2497.9754
   2000006    2647.5156
   1000011    1161.7786
   2000011    3753.4084
   1000012    1158.6468
   1000013    1161.7665
   2000013    3753.3926
   1000014    1158.6342
   1000015    3873.6963
   2000015    4054.1146
   1000016    3872.4515
   1000021    3487.2927
   1000022    432.10001
   1000023   -441.80101
   1000025    929.59174
   1000035   -4906.3691
   1000024    434.20101
   1000037    929.79404

BLOCK ALPHA
      -0.031140832

BLOCK HMIX Q=  2571.6588
   1    436.70106
   2    31.444391
   3    243.42819
   4    1908210.9

BLOCK STOPMIX
   1   1    0.69009051
   1   2    0.72372308
   2   1   -0.72372308
   2   2    0.69009051

BLOCK SBOTMIX
   1   1    0.014175735
   1   2    0.99989952
   2   1   -0.99989952
   2   2    0.014175735

BLOCK STAUMIX
   1   1    0.99974688
   1   2    0.022498439
   2   1   -0.022498439
   2   2    0.99974688

BLOCK NMIX
   1   1   -0.0058130748
   1   2   -0.11825572
   1   3    0.70721634
   1   4   -0.6970128
   2   1   -0.006599853
   2   2   -0.040306885
   2   3   -0.70480265
   2   4   -0.70822668
   3   1   -0.00085586594
   3   2    0.99216477
   3   3    0.055660035
   3   4   -0.11184945
   4   1    0.99996096
   4   2   -0.0001042929
   4   3   -0.00049287407
   4   4   -0.0088220521

BLOCK UMIX
   1   1   -0.079023433
   1   2    0.99687276
   2   1    0.99687276
   2   2    0.079023433

BLOCK VMIX
   1   1   -0.15887197
   1   2    0.98729919
   2   1    0.98729919
   2   2    0.15887197

BLOCK HIGGSBOUNDSINPUTHIGGSCOUPLINGSFERMIONS
       0, 988.74974,3,36,15,15

BLOCK HIGGSBOUNDSINPUTHIGGSCOUPLINGSBOSONS
       0,4,36,21,21,23

BLOCK SPHENOLOWENERGY
   1    0.00032759359
   2    1.5891048e-06
   3    3.5245756e-05
   4    2.9003213e-15
   5    1.238975e-10
   6    2.5879524e-08
   7    9.7251998e-14
   8    4.1545732e-09
   9    8.7942011e-07
   10    9.3876178e-05
   11    0.96970498
   12    0.54215642
   13    19.356242
   14    0
   15    0
   16    0.0021581772
   17    2.2816707e-15
   18    2.4792808e-11
   19    8.2889063e-11
   20    5.4440682e-15
   21    2.3275885e-10
   22    1.9242672e-08
   23    0
   24    0
   25    0
   26    0
   27    0
   28    0
   29    0
   30    0
   31    0
   39    7.1558467e-05
   40    0
   41    0
   42    0

BLOCK FWCOEF Q=  160
   305   4422   0   0   -0.18881911
   305   4422   0   2   -0.19329488
   305   4322   0   2   -0.00013698794
   305   6421   0   0   -0.095227835
   305   6421   0   2   -0.11463815
   305   6321   0   2   -0.00040988878
   3051111   4133   0   0    1.6112068
   3051111   4133   0   2    1.6118114
   3051111   4233   0   2    8.2199143e-05
   3051111   4137   0   0   -4.4338989
   3051111   4137   0   2   -4.4315325
   3051111   4237   0   2   -0.00062143861
   3051313   4133   0   0    1.6112068
   3051313   4133   0   2    1.6118101
   3051313   4233   0   2    8.2197037e-05
   3051313   4137   0   0   -4.4338989
   3051313   4137   0   2   -4.4315338
   3051313   4237   0   2   -0.00062143738
   3051212   4137   0   0    1.5053501
   3051212   4137   0   2    1.504848
   3051212   4237   0   2    0.00013484766
   3051414   4137   0   0    1.5053501
   3051414   4137   0   2    1.504848
   3051414   4237   0   2    0.00013484809
   3051616   4137   0   0    1.5053501
   3051616   4137   0   2    1.5048474
   3051616   4237   0   2    0.00013496861

BLOCK IMFWCOEF Q=  160
   305   4422   0   0    3.8583688e-07
   305   4422   0   2    1.7305186e-05
   305   4322   0   2    5.2340679e-06
   305   6421   0   0    3.304948e-07
   305   6421   0   2   -1.5862539e-06
   305   6321   0   2    2.0370436e-06
   3051111   4133   0   2    1.2131908e-07
   3051111   4233   0   2    3.0045892e-06
   3051111   4137   0   2   -8.9858628e-07
   3051111   4237   0   2   -2.2735779e-05
   3051313   4133   0   2    1.2126836e-07
   3051313   4233   0   2    3.004587e-06
   3051313   4137   0   2   -8.9857177e-07
   3051313   4237   0   2   -2.2735792e-05
   3051212   4137   0   2    3.9804809e-07
   3051212   4237   0   2    4.9334985e-06
   3051414   4137   0   2    3.9804813e-07
   3051414   4237   0   2    4.9334985e-06
   3051616   4137   0   2    3.8802212e-07
   3051616   4237   0   2    4.9334992e-06

DECAY 23  2.4952


DECAY 24  2.085


DECAY 1000011  2.0747651
    0.63304965   2   -1000037    12
    0.3137391   2    1000025    11
    0.026952435   2    1000022    11
    0.022788345   2   -1000024    12
    0.0034704707   2    1000023    11

DECAY 2000011  0.0014329219
    0.55780754   2    1000023    11
    0.43326028   2    1000022    11
    0.0084957074   2    1000025    11
    0.00043129337   2   -1000024    12

DECAY 1000013  2.0808171
    0.63115497   2   -1000037    14
    0.31280229   2    1000025    13
    0.028381305   2    1000022    13
    0.022721675   2   -1000024    14
    0.0049397547   2    1000023    13

DECAY 2000013  0.054743049
    0.48264993   2   -1000024    14
    0.25565288   2    1000023    13
    0.25431167   2    1000022    13
    0.0030462629   2    1000013    25
    0.0027450603   2   -1000037    14
    0.0015842825   2    1000025    13

DECAY 1000015  53.231362
    0.56410437   2   -1000037    16
    0.27956749   2    1000025    15
    0.078441511   2    1000022    15
    0.072844208   2    1000023    15
    0.005042416   2   -1000024    16

DECAY 2000015  16.33655
    0.49214145   2   -1000024    16
    0.24868323   2    1000023    15
    0.24708604   2    1000022    15
    0.0072080207   2   -1000037    16
    0.0035758368   2    1000025    15
    0.00068089243   2    1000016   -24
    0.00032733721   2    1000015    25
    0.00029718554   2    1000015    23

DECAY 1000012  2.143511
    0.58790674   2    1000037    11
    0.29759935   2    1000025    12
    0.088757209   2    1000024    11
    0.023382091   2    1000022    12
    0.0023546047   2    1000023    12

DECAY 1000014  2.1495314
    0.58621163   2    1000037    13
    0.29673922   2    1000025    14
    0.091385003   2    1000024    13
    0.023316184   2    1000022    14
    0.002347967   2    1000023    14

DECAY 1000016  53.27173
    0.55475576   2    1000037    15
    0.27996739   2    1000025    16
    0.16071762   2    1000024    15
    0.0041375157   2    1000022    16
    0.00042171311   2    1000023    16

DECAY 2000001  7.7840534e-05
    0.49518545   2    1000023    1
    0.39827547   2    1000022    1
    0.10198615   2   -1000024    2
    0.0042084912   2    1000025    1
    0.00034443785   2   -1000037    2

DECAY 1000001  34.658751
    0.66154161   2   -1000037    2
    0.32778184   2    1000025    1
    0.0052857131   2    1000022    1
    0.0048024868   2   -1000024    2
    0.00058835083   2    1000023    1

DECAY 2000003  0.0058124766
    0.49304983   2   -1000024    4
    0.25313416   2    1000022    3
    0.25127024   2    1000023    3
    0.0016651681   2   -1000037    4
    0.00088060488   2    1000025    3

DECAY 1000003  34.665945
    0.66140456   2   -1000037    4
    0.32771406   2    1000025    3
    0.0053725172   2    1000022    3
    0.0048321468   2   -1000024    4
    0.00067543494   2    1000023    3

DECAY 1000005  19.906534
    0.49441048   2   -1000024    6
    0.2538958   2    1000022    5
    0.24981432   2    1000023    5
    0.0012417776   2   -1000037    6
    0.00063763085   2    1000025    5

DECAY 2000005  88.379023
    0.54247956   2   -1000024    6
    0.20723514   2   -1000037    6
    0.096081124   2    1000025    5
    0.07700962   2    1000022    5
    0.07526824   2    1000023    5
    0.0011758997   2    1000005    25
    0.00075042033   2    1000005    23

DECAY 1000002  34.713111
    0.64758453   2    1000037    1
    0.32691832   2    1000025    2
    0.01937424   2    1000024    1
    0.0054633051   2    1000022    2
    0.00065961192   2    1000023    2

DECAY 2000002  0.00056435378
    0.55812828   2    1000023    2
    0.43358145   2    1000022    2
    0.0082822587   2    1000025    2

DECAY 1000004  34.720258
    0.64745174   2    1000037    3
    0.32685115   2    1000025    4
    0.019544481   2    1000024    3
    0.0054774085   2    1000022    4
    0.00067522739   2    1000023    4

DECAY 2000004  0.0029009207
    0.39350523   2    1000024    3
    0.31088546   2    1000023    4
    0.28056354   2    1000022    4
    0.0089810445   2    1000037    3
    0.0060643451   2    1000025    4

DECAY 1000006  90.951669
    0.39347932   2    1000024    5
    0.26737869   2    1000022    6
    0.2611141   2    1000023    6
    0.046311498   2    1000037    5
    0.026390412   2    1000025    6
    0.0048608434   3    1000022    24    5
    0.00046314406   2    1000005    24

DECAY 2000006  97.162543
    0.26746826   2    1000024    5
    0.26113068   2    1000023    6
    0.24047291   2    1000022    6
    0.14365957   2    1000037    5
    0.075546997   2    1000025    6
    0.01066929   2    1000006    23
    0.0010054298   2    1000005    24

DECAY 1000024  2.4357554e-11
    0.56677185   3    1000022   -1    2
    0.18895714   3    1000022   -11    12
    0.1862441   3    1000022   -13    14
    0.057767237   3    1000022   -3    4
    0.00025966974   3    1000022   -15    16

DECAY 1000037  7.8594099
    0.26361652   2    1000023    24
    0.24868344   2    1000022    24
    0.24729987   2    1000024    23
    0.23491445   2    1000024    25
    0.0023336664   3    1000022   -5    6
    0.0021851755   3    1000023   -5    6
    0.00094749748   3    1000024    6   -6

DECAY 1000022 -1


DECAY 1000023  3.6259944e-07
    0.3660909   2    1000022    22
    0.090440969   3    1000022    12   -12
    0.067627476   3    1000022    1   -1
    0.067532544   3    1000022    3   -3
    0.052744086   3    1000022    2   -2
    0.05055101   3    1000024    1   -2
    0.05055101   3   -1000024   -1    2
    0.042437835   3    1000024    3   -4
    0.042437835   3   -1000024   -3    4
    0.039465282   3    1000022    4   -4
    0.016850527   3    1000024    11   -12
    0.016850527   3   -1000024   -11    12
    0.016829587   3    1000024    13   -14
    0.016829587   3   -1000024   -13    14
    0.015260708   3    1000022    11   -11
    0.015227088   3    1000022    13   -13
    0.012025745   3    1000024    15   -16
    0.012025745   3   -1000024   -15    16
    0.0080808253   3    1000022    15   -15
    0.00014072107   3    1000022    5   -5

DECAY 1000025  9.2338977
    0.21643465   2    1000024   -24
    0.21643465   2   -1000024    24
    0.20190605   2    1000023    23
    0.17512433   2    1000022    25
    0.16358935   2    1000023    25
    0.022134343   2    1000022    23
    0.0019690754   3    1000024    5   -6
    0.0019690754   3   -1000024   -5    6
    0.00022200948   3    1000022    6   -6
    0.00018239589   3    1000023    6   -6

DECAY 1000035  118.43392
    0.042027964   2    1000006   -6
    0.042027964   2   -1000006    6
    0.039416304   2    2000004   -4
    0.039416304   2   -2000004    4
    0.039416285   2    2000002   -2
    0.039416285   2   -2000002    2
    0.035936775   2    2000006   -6
    0.035936775   2   -2000006    6
    0.027289148   2    2000003   -3
    0.027289148   2   -2000003    3
    0.027289112   2    2000001   -1
    0.027289112   2   -2000001    1
    0.025350688   2    1000024   -24
    0.025350688   2   -1000024    24
    0.023997344   2    1000005   -5
    0.023997344   2   -1000005    5
    0.023205623   2    1000014   -14
    0.023205623   2   -1000014    14
    0.023205563   2    1000012   -12
    0.023205563   2   -1000012    12
    0.023172681   2    1000013   -13
    0.023172681   2   -1000013    13
    0.023172624   2    1000011   -11
    0.023172624   2   -1000011    11
    0.021593216   2    37   -1000024
    0.021593216   2   -37    1000024
    0.017903447   2    2000013   -13
    0.017903447   2   -2000013    13
    0.017903021   2    2000011   -11
    0.017903021   2   -2000011    11
    0.015857912   2    1000022    25
    0.014436864   2    1000023    25
    0.013995552   2    1000022    23
    0.013879583   2    1000023    35
    0.012299482   2    1000022    35
    0.011530942   2    1000023    23
    0.010469947   2    2000015   -15
    0.010469947   2   -2000015    15
    0.0094861016   2    1000022    36
    0.0082631022   2    1000023    36
    0.0045601721   2    2000005   -5
    0.0045601721   2   -2000005    5
    0.0037003058   2    1000016   -16
    0.0037003058   2   -1000016    16
    0.0036944344   2    1000015   -15
    0.0036944344   2   -1000015    15
    0.0030094496   2    1000003   -3
    0.0030094496   2   -1000003    3
    0.0030094448   2    1000001   -1
    0.0030094448   2   -1000001    1
    0.0030051732   2    1000004   -4
    0.0030051732   2   -1000004    4
    0.0030051707   2    1000002   -2
    0.0030051707   2   -1000002    2
    0.0020295291   3    1000024    5   -6
    0.0020295291   3   -1000024   -5    6
    0.0016116691   3    1000023    6   -6
    0.0015985977   3    1000022    6   -6
    0.00049011876   2    1000037   -24
    0.00049011876   2   -1000037    24
    0.00033487845   2    1000025    25
    0.00031283858   2    1000025    23
    0.00013516634   2    37   -1000037
    0.00013516634   2   -37    1000037

DECAY 1000021  248.91547
    0.12492385   2    2000003   -3
    0.12492385   2   -2000003    3
    0.12492348   2    2000001   -1
    0.12492348   2   -2000001    1
    0.092255418   2    1000005   -5
    0.092255418   2   -1000005    5
    0.045133236   2    2000006   -6
    0.045133236   2   -2000006    6
    0.042849016   2    2000005   -5
    0.042849016   2   -2000005    5
    0.03876419   2    1000006   -6
    0.03876419   2   -1000006    6
    0.0072084007   2    1000004   -4
    0.0072084007   2   -1000004    4
    0.0072083751   2    1000002   -2
    0.0072083751   2   -1000002    2
    0.0071669776   2    1000003   -3
    0.0071669776   2   -1000003    3
    0.0071669056   2    1000001   -1
    0.0071669056   2   -1000001    1
    0.0011834206   2    2000002   -2
    0.0011834206   2   -2000002    2
    0.0011833775   2    2000004   -4
    0.0011833775   2   -2000004    4

DECAY 25  0.003528755
    0.62804784   2   -5    5
    0.17261129   2   -24    24
    0.073583803   2    21    21
    0.071866642   2   -15    15
    0.030421582   2   -4    4
    0.019493866   2    23    23
    0.0022966142   2    22    22
    0.0011925235   2    22    23
    0.00024953865   2   -13    13
    0.00023548416   2   -3    3
    6.5108858e-07   2   -1    1
    1.5678062e-07   2   -2    2
    5.6099533e-09   2   -11    11

DECAY 35  22.611187
    0.75601976   2   -5    5
    0.13498146   2   -15    15
    0.033048475   2   -1000024    1000037
    0.033048475   2   -1000037    1000024
    0.02858614   2    1000023    1000025
    0.0064967129   2   -1000024    1000024
    0.0024490516   2    1000022    1000025
    0.0018619294   2   -6    6
    0.0017189056   2    1000022    1000022
    0.00078595808   2    1000022    1000023
    0.00049956247   2   -13    13
    0.00027484403   2   -3    3
    0.00017688614   2    1000023    1000023
    2.5672991e-05   2    21    21
    1.7927535e-05   2    25    25
    3.7136144e-06   2    23    23
    3.3263011e-06   2   -24    24
    7.5983213e-07   2   -1    1
    2.6223367e-07   2    22    23
    1.4051994e-07   2    22    22
    2.6671984e-08   2   -4    4
    1.1222582e-08   2   -11    11
    1.3751419e-13   2   -2    2

DECAY 36  22.145791
    0.75047902   2   -5    5
    0.13399662   2   -15    15
    0.03216809   2   -1000024    1000037
    0.03216809   2   -1000037    1000024
    0.030984758   2    1000022    1000025
    0.011589471   2   -1000024    1000024
    0.0032341317   2    1000022    1000022
    0.0019841917   2    1000023    1000025
    0.0019164259   2   -6    6
    0.00049585823   2   -13    13
    0.00038382771   2    1000022    1000023
    0.00027282548   2   -3    3
    0.00026757065   2    1000023    1000023
    5.23313e-05   2    21    21
    5.0909466e-06   2    23    25
    7.5425121e-07   2   -1    1
    5.5293278e-07   2    22    23
    3.4787985e-07   2    22    22
    2.5719936e-08   2   -4    4
    1.1139364e-08   2   -11    11
    1.3257512e-13   2   -2    2
    4.6440243e-36   2    25    25

DECAY 37  21.826104
    0.75647048   2   -5    6
    0.13382502   2   -15    16
    0.03683466   2    1000022    1000037
    0.035315887   2    1000024    1000025
    0.032547082   2    1000023    1000037
    0.0028124185   2    1000023    1000024
    0.00113575   2   -5    4
    0.00047312046   2   -13    14
    0.00029997977   2    1000022    1000024
    0.00025555067   2   -3    4
    1.1855364e-05   2   -3    2
    8.1104374e-06   2   -5    2
    5.2112368e-06   2    24    25
    3.9543691e-06   2   -3    6
    7.0893905e-07   2   -1    2
    1.6460105e-07   2   -1    6
    3.4338877e-08   2   -1    4
    1.1066337e-08   2   -11    12
    1.3634754e-11   2    24    35
    7.7165301e-12   2    24    36

DECAY 6  2.43
    1   2    5    24

DECAY 15 -1
