BLOCK SPINFO
   1   SPheno
   2   v4.0.5be

BLOCK SPHENOINFO
   1   2
   2   2

BLOCK MODSEL
   1   0

BLOCK MINPAR
   3    34.980809
   4   -1

BLOCK EXTPAR
   0    1648.3005
   1    209.68109
   2    267.70703
   3    3000
   11   -2401.0803
   12    1711.0319
   13   -1575.2738
   23   -721.69335
   25    34.168075
   26    411.36929
   31    960.1946
   32    960.1946
   33    1057.5424
   34    1960.5913
   35    1960.5913
   36    1402.1979
   41    5000
   42    5000
   43    1920.2338
   44    5000
   45    5000
   46    1416.3685
   47    5000
   48    5000
   49    1410.5177

BLOCK SMINPUTS
   1    127.90897
   2    1.1663787e-05
   3    0.1184
   4    91.1876
   5    4.18
   6    173.2
   7    1.777
   8    0
   11    0.00051099893
   12    0
   13    0.10565837
   14    0
   21    0.005
   22    0.0025
   23    0.095
   24    1.27

BLOCK GAUGE Q=  1648.3005
   1    0.35536298
   2    0.66519887
   3    1.219778

BLOCK YU Q=  1648.3005
   1   1    8.3879622e-06
   2   2    0.0042610848
   3   3    1.0133332

BLOCK YD Q=  1648.3005
   1   1    0.00057591345
   2   2    0.010942356
   3   3    0.57112567

BLOCK YE Q=  1648.3005
   1   1    0.00010050111
   2   2    0.020780442
   3   3    0.34949284

BLOCK AU Q=  1648.3005
   1   1    0
   2   2    0
   3   3   -2401.0832

BLOCK AD Q=  1648.3005
   1   1    0
   2   2    0
   3   3    1711.0341

BLOCK AE Q=  1648.3005
   1   1    0
   2   2    0
   3   3   -1575.2733

BLOCK MSOFT Q=  1648.3005
   1    209.68109
   2    267.70703
   3    3000
   21   -327804.59
   22   -482872.08
   31    960.1946
   32    960.1946
   33    1057.5424
   34    1960.5913
   35    1960.5913
   36    1402.1979
   41    5000
   42    5000
   43    1920.2338
   44    5000
   45    5000
   46    1416.3685
   47    5000
   48    5000
   49    1410.5177

BLOCK MASS
   6    173.2
   23    91.1876
   24    80.429995
   15    1.777
   25    121.83228
   35    411.42536
   36    411.36929
   37    421.82979
   1000001    5034.4434
   2000001    5023.4914
   1000002    5033.9857
   2000002    5025.1026
   1000003    5034.4469
   2000003    5023.4945
   1000004    5033.9882
   2000004    5025.1032
   1000005    1430.6292
   2000005    1933.0367
   1000006    1390.7518
   2000006    1953.5439
   1000011    963.67807
   2000011    1962.4158
   1000012    960.00919
   1000013    963.67142
   2000013    1962.4039
   1000014    960.0046
   1000015    1056.9681
   2000015    1396.7112
   1000016    1054.7525
   1000021    3198.157
   1000022    208.74583
   1000023    284.42736
   1000025   -730.03677
   1000035    733.77265
   1000024    284.61155
   1000037    735.83034

BLOCK ALPHA
      -0.033230132

BLOCK HMIX Q=  1648.3005
   1   -721.69335
   2    34.168075
   3    243.91954
   4    169224.69

BLOCK STOPMIX
   1   1    0.1874414
   1   2    0.98227579
   2   1   -0.98227579
   2   2    0.1874414

BLOCK SBOTMIX
   1   1   -0.040202166
   1   2    0.99919157
   2   1   -0.99919157
   2   2   -0.040202166

BLOCK STAUMIX
   1   1   -0.99880999
   1   2    0.048770953
   2   1   -0.048770953
   2   2   -0.99880999

BLOCK NMIX
   1   1    0.99734119
   1   2   -0.016420556
   1   3   -0.068634025
   1   4   -0.018173573
   2   1   -0.025692452
   2   2   -0.99088245
   2   3   -0.12435281
   2   4   -0.045036044
   3   1   -0.034574798
   3   2    0.057012739
   3   3   -0.70342984
   3   4    0.70763026
   4   1   -0.058779453
   4   2    0.12096232
   4   3   -0.69642818
   4   4   -0.70491197

BLOCK UMIX
   1   1   -0.98415698
   1   2   -0.17729928
   2   1    0.17729928
   2   2   -0.98415698

BLOCK VMIX
   1   1   -0.99792928
   1   2    0.064320632
   2   1    0.064320632
   2   2    0.99792928

BLOCK HIGGSBOUNDSINPUTHIGGSCOUPLINGSFERMIONS
       0, 1167.4573,3,36,15,15

BLOCK HIGGSBOUNDSINPUTHIGGSCOUPLINGSBOSONS
       0,4,36,21,21,23

BLOCK SPHENOLOWENERGY
   1    0.0004625969
   2    1.5951485e-06
   3    3.5220329e-05
   4    1.2401915e-15
   5    5.2936003e-11
   6    8.5386904e-09
   7    4.1974278e-14
   8    1.7917154e-09
   9    2.9580176e-07
   10    5.4705045e-05
   11    0.56508217
   12    0.54292996
   13    19.237866
   14    0
   15    0
   16    0.0021643994
   17    2.281775e-15
   18    2.4773749e-11
   19    8.2842546e-11
   20   -1.2349687e-14
   21   -5.27998e-10
   22   -1.36401e-07
   23    0
   24    0
   25    0
   26    0
   27    0
   28    0
   29    0
   30    0
   31    0
   39    8.3196819e-05
   40    0
   41    0
   42    0

BLOCK FWCOEF Q=  160
   305   4422   0   0   -0.18881911
   305   4422   0   2   -0.32875003
   305   4322   0   2   -0.0022587711
   305   6421   0   0   -0.095227835
   305   6421   0   2   -0.21820185
   305   6321   0   2   -0.0021418404
   3051111   4133   0   0    1.5955117
   3051111   4133   0   2    1.5963941
   3051111   4233   0   2   -0.00026573076
   3051111   4137   0   0   -4.4182038
   3051111   4137   0   2   -4.4131839
   3051111   4237   0   2    0.0020636984
   3051313   4133   0   0    1.5955117
   3051313   4133   0   2    1.5963909
   3051313   4233   0   2   -0.00026586121
   3051313   4137   0   0   -4.4182038
   3051313   4137   0   2   -4.4131871
   3051313   4237   0   2    0.0020638273
   3051212   4137   0   0    1.5053501
   3051212   4137   0   2    1.5042816
   3051212   4237   0   2   -0.00044940721
   3051414   4137   0   0    1.5053501
   3051414   4137   0   2    1.5042816
   3051414   4237   0   2   -0.00044937884
   3051616   4137   0   0    1.5053501
   3051616   4137   0   2    1.5042814
   3051616   4237   0   2   -0.0004413851

BLOCK IMFWCOEF Q=  160
   305   4422   0   0    3.8576077e-07
   305   4422   0   2   -1.7714326e-05
   305   4322   0   2   -5.12777e-06
   305   6421   0   0    3.3042961e-07
   305   6421   0   2    6.9643877e-06
   305   6321   0   2   -1.8276838e-06
   3051111   4133   0   2   -5.0453285e-07
   3051111   4233   0   2    3.2195197e-06
   3051111   4137   0   2    5.9567576e-06
   3051111   4237   0   2   -2.4915131e-05
   3051313   4133   0   2   -5.0458664e-07
   3051313   4233   0   2    3.2195138e-06
   3051313   4137   0   2    5.9567728e-06
   3051313   4237   0   2   -2.4915155e-05
   3051212   4137   0   2   -8.5647734e-07
   3051212   4237   0   2    5.4254477e-06
   3051414   4137   0   2   -8.5647606e-07
   3051414   4237   0   2    5.4254477e-06
   3051616   4137   0   2   -8.6040303e-07
   3051616   4237   0   2    5.4254502e-06

DECAY 23  2.4952


DECAY 24  2.085


DECAY 1000011  11.494144
    0.5955863   2   -1000024    12
    0.31037484   2    1000023    11
    0.089382849   2    1000022    11
    0.0040337648   2   -1000037    12
    0.00052271333   2    1000035    11

DECAY 2000011  9.6275557
    0.99582477   2    1000022    11
    0.002618309   2    1000035    11
    0.00090892193   2    1000025    11
    0.00064796318   2    1000023    11

DECAY 1000013  11.495629
    0.59550371   2   -1000024    14
    0.31034132   2    1000023    13
    0.089373596   2    1000022    13
    0.0040330604   2   -1000037    14
    0.00058415706   2    1000035    13
    0.00016415809   2    1000025    13

DECAY 2000013  9.6534906
    0.99315118   2    1000022    13
    0.003237847   2    1000035    13
    0.0015478962   2    1000025    13
    0.0012492961   2   -1000037    14
    0.00067209633   2    1000023    13

DECAY 1000015  13.819028
    0.56485669   2   -1000024    16
    0.29671683   2    1000023    15
    0.085178995   2    1000022    15
    0.024927491   2    1000025    15
    0.024195595   2    1000035    15
    0.0041243996   2   -1000037    16

DECAY 2000015  10.899814
    0.61099887   2    1000022    15
    0.1623402   2   -1000037    16
    0.082905312   2    1000025    15
    0.082552502   2    1000035    15
    0.029428837   2    1000016   -24
    0.014126126   2    1000015    25
    0.014047073   2    1000015    23
    0.0021025315   2   -1000024    16
    0.0014985495   2    1000023    15

DECAY 1000012  11.543176
    0.6065608   2    1000024    11
    0.29085853   2    1000023    12
    0.10022523   2    1000022    12
    0.0014691091   2    1000035    12
    0.00051539874   2    1000037    11
    0.00037093865   2    1000025    12

DECAY 1000014  11.544678
    0.60649702   2    1000024    13
    0.29081877   2    1000023    14
    0.10021161   2    1000022    14
    0.0014688715   2    1000035    14
    0.00063284579   2    1000037    13
    0.00037087889   2    1000025    14

DECAY 1000016  13.823537
    0.58015393   2    1000024    15
    0.27573185   2    1000023    16
    0.09352402   2    1000022    16
    0.047994847   2    1000037    15
    0.0020760596   2    1000035    16
    0.0005192956   2    1000025    16

DECAY 2000001  143.02614
    0.98046192   2    1000021    1
    0.019437422   2    1000022    1

DECAY 1000001  208.05875
    0.67947736   2    1000021    1
    0.20499675   2   -1000024    2
    0.10294763   2    1000023    1
    0.0064129268   2   -1000037    2
    0.0039954898   2    1000022    1
    0.0017624686   2    1000035    1
    0.00040738637   2    1000025    1

DECAY 2000003  143.04934
    0.98030513   2    1000021    3
    0.019434674   2    1000022    3
    0.00010373606   2    1000035    3

DECAY 1000003  208.07237
    0.67943464   2    1000021    3
    0.20498347   2   -1000024    4
    0.10294184   2    1000023    3
    0.0064208852   2   -1000037    4
    0.003995501   2    1000022    3
    0.0017890533   2    1000035    3
    0.00043461349   2    1000025    3

DECAY 1000005  10.782094
    0.4105322   2   -1000037    6
    0.23149211   2    1000025    5
    0.22367673   2    1000035    5
    0.076473485   2    1000022    5
    0.038265507   2   -1000024    6
    0.019559976   2    1000023    5

DECAY 2000005  86.001046
    0.34011854   2   -1000037    6
    0.2174115   2    1000006   -24
    0.17864603   2   -1000024    6
    0.093025098   2    1000023    5
    0.053783806   2    1000035    5
    0.053694695   2    1000025    5
    0.021628488   2    1000006   -37
    0.01435054   2    1000005    36
    0.014204591   2    1000005    35
    0.0051165109   2    1000005    25
    0.0040514981   2    1000005    23
    0.0039686906   2    1000022    5

DECAY 2000002  151.58046
    0.92623601   2    1000021    2
    0.073385635   2    1000022    2
    0.00024499331   2    1000035    2

DECAY 1000002  208.05273
    0.67926809   2    1000021    2
    0.21076104   2    1000024    1
    0.10486002   2    1000023    2
    0.0027571897   2    1000022    2
    0.00124559   2    1000035    2
    0.00084408985   2    1000037    1
    0.00026397438   2    1000025    2

DECAY 2000004  151.58394
    0.92621476   2    1000021    4
    0.07338395   2    1000022    4
    0.00025069308   2    1000035    4

DECAY 1000004  208.06616
    0.67922517   2    1000021    4
    0.21074934   2    1000024    3
    0.1048533   2    1000023    4
    0.0027570156   2    1000022    4
    0.0012496821   2    1000035    4
    0.0008973423   2    1000037    3
    0.00026814593   2    1000025    4

DECAY 1000006  31.162449
    0.4524414   2    1000037    5
    0.21294159   2    1000025    6
    0.20107645   2    1000035    6
    0.090242257   2    1000022    6
    0.029246393   2    1000024    5
    0.013848805   2    1000023    6
    0.00019545335   2    1000023    4

DECAY 2000006  91.112061
    0.17137058   2    1000024    5
    0.1700582   2    1000035    6
    0.15992579   2    1000025    6
    0.13515815   2    1000006    25
    0.11243667   2    1000037    5
    0.10865069   2    1000006    23
    0.082317175   2    1000023    6
    0.025840867   2    1000005    37
    0.012011736   2    1000006    36
    0.010636837   2    1000006    35
    0.0083439671   2    1000005    24
    0.0032493402   2    1000022    6

DECAY 1000024  1.2892634e-05
    0.33935619   3    1000022   -1    2
    0.33914998   3    1000022   -3    4
    0.10813002   3    1000022   -15    16
    0.10668278   3    1000022   -13    14
    0.10668104   3    1000022   -11    12

DECAY 1000037  6.0931775
    0.23946695   2    1000023    24
    0.22874729   2    1000024    23
    0.21980659   2    1000024    25
    0.073900837   2    1000024    36
    0.073462077   2    1000022    24
    0.071202589   2    1000024    35
    0.065957805   2    37    1000023
    0.024861523   2    37    1000022
    0.0015798444   3    1000023   -5    6
    0.00058318043   3    1000022   -5    6
    0.00041301025   3    1000024    6   -6

DECAY 1000022 -1


DECAY 1000023  8.4567833e-07
    0.20270272   3    1000022    5   -5
    0.16995857   3    1000022    3   -3
    0.16995117   3    1000022    1   -1
    0.132462   3    1000022    2   -2
    0.1321388   3    1000022    4   -4
    0.1192371   3    1000022    12   -12
    0.026773964   3    1000022    15   -15
    0.020720838   3    1000022    13   -13
    0.020707566   3    1000022    11   -11
    0.0053472831   2    1000022    22

DECAY 1000025  7.351173
    0.20154593   2    1000024   -24
    0.20154593   2   -1000024    24
    0.17320426   2    1000023    25
    0.16400772   2    1000023    23
    0.053678069   2    1000022    23
    0.050950957   2    1000022    25
    0.044986093   2    1000023    35
    0.040621619   2    37   -1000024
    0.040621619   2   -37    1000024
    0.020040867   2    1000022    35
    0.0032819094   2    1000022    36
    0.0017671135   3    1000024    5   -6
    0.0017671135   3   -1000024   -5    6
    0.001747407   2    1000023    36

DECAY 1000035  5.9645133
    0.23889551   2    1000024   -24
    0.23889551   2   -1000024    24
    0.18153829   2    1000023    25
    0.06375378   2    1000023    35
    0.060448721   2    37   -1000024
    0.060448721   2   -37    1000024
    0.053828489   2    1000022    25
    0.043567929   2    1000023    23
    0.027474256   2    1000022    35
    0.022049112   2    1000022    23
    0.0035762416   2    1000022    36
    0.0021143592   2    1000023    36
    0.001599232   3    1000024    5   -6
    0.001599232   3   -1000024   -5    6

DECAY 1000021  197.26117
    0.15356811   2    1000005   -5
    0.15356811   2   -1000005    5
    0.14978982   2    1000006   -6
    0.14978982   2   -1000006    6
    0.099699528   2    2000006   -6
    0.099699528   2   -2000006    6
    0.096622027   2    2000005   -5
    0.096622027   2   -2000005    5
    0.00017255955   2    1000006   -4
    0.00017255955   2   -1000006    4

DECAY 25  0.004425928
    0.68037804   2   -5    5
    0.1419606   2   -24    24
    0.07583061   2   -15    15
    0.058086144   2    21    21
    0.024285401   2   -4    4
    0.016121795   2    23    23
    0.0018445749   2    22    22
    0.00097580528   2    22    23
    0.00026283265   2   -13    13
    0.000253371   2   -3    3
    7.0055131e-07   2   -1    1
    1.2515641e-07   2   -2    2
    5.9088157e-09   2   -11    11

DECAY 35  9.555717
    0.89443739   2   -5    5
    0.10358491   2   -15    15
    0.00063074314   2   -6    6
    0.00040036155   2    25    25
    0.00035712951   2   -13    13
    0.00031449928   2   -3    3
    0.00021214597   2    21    21
    4.2324761e-05   2   -24    24
    1.9497728e-05   2    23    23
    8.6958808e-07   2   -1    1
    8.7205519e-08   2    22    22
    3.2759669e-08   2   -4    4
    8.0257933e-09   2   -11    11
    7.4087537e-09   2    22    23
    1.6896809e-13   2   -2    2

DECAY 36  9.4584728
    0.89385542   2   -5    5
    0.10351018   2   -15    15
    0.0017091122   2   -6    6
    0.00035684491   2   -13    13
    0.0003142396   2   -3    3
    0.0002203666   2    21    21
    3.243563e-05   2    23    25
    8.6886997e-07   2   -1    1
    2.7007883e-07   2    22    23
    2.3270913e-07   2    22    22
    2.4407888e-08   2   -4    4
    8.019395e-09   2   -11    11
    1.2622784e-13   2   -2    2
    1.431144e-35   2    25    25

DECAY 37  6.5034013
    0.83847048   2   -5    6
    0.15872176   2   -15    16
    0.0017375169   2   -5    4
    0.00056115756   2   -13    14
    0.00041857288   2   -3    4
    5.4574589e-05   2    24    25
    1.9083227e-05   2   -3    2
    1.2407884e-05   2   -5    2
    3.042129e-06   2   -3    6
    1.1617238e-06   2   -1    2
    1.2029347e-07   2   -1    6
    5.4391545e-08   2   -1    4
    2.551217e-08   2    24    36
    2.4837594e-08   2    24    35
    1.3125535e-08   2   -11    12

DECAY 6  2.43
    1   2    5    24

DECAY 15 -1
