BLOCK SPINFO
   1   SPheno
   2   v4.0.5be

BLOCK SPHENOINFO
   1   2
   2   2

BLOCK MODSEL
   1   0

BLOCK MINPAR
   3    10.52917
   4    1

BLOCK EXTPAR
   0    2894.7867
   1    272.45733
   2   -3679.702
   3    3184.1423
   11    3725.2749
   12   -2835.8551
   13   -6917.647
   23    1942.598
   25    10.029944
   26    4015.8334
   31    1776.471
   32    1776.471
   33    3667.9436
   34    294.32042
   35    294.32042
   36    1616.807
   41    2633.6276
   42    2633.6276
   43    2561.742
   44    4942.7281
   45    4942.7281
   46    3076.4276
   47    1472.8422
   48    1472.8422
   49    1121.4606

BLOCK SMINPUTS
   1    127.90897
   2    1.1663787e-05
   3    0.1184
   4    91.1876
   5    4.18
   6    173.2
   7    1.777
   8    0
   11    0.00051099893
   12    0
   13    0.10565837
   14    0
   21    0.005
   22    0.0025
   23    0.095
   24    1.27

BLOCK GAUGE Q=  2894.7867
   1    0.35536298
   2    0.66519887
   3    1.219778

BLOCK YU Q=  2894.7867
   1   1    8.425941e-06
   2   2    0.004280378
   3   3    1.0179213

BLOCK YD Q=  2894.7867
   1   1    0.00016982326
   2   2    0.003226642
   3   3    0.16841146

BLOCK YE Q=  2894.7867
   1   1    2.9635401e-05
   2   2    0.0061276611
   3   3    0.10305718

BLOCK AU Q=  2894.7867
   1   1    0
   2   2    0
   3   3    3725.2749

BLOCK AD Q=  2894.7867
   1   1    0
   2   2    0
   3   3   -2835.8552

BLOCK AE Q=  2894.7867
   1   1    0
   2   2    0
   3   3   -6917.647

BLOCK MSOFT Q=  2894.7867
   1    272.45733
   2   -3679.702
   3    3184.1423
   21    12034073
   22   -3464273.2
   31    1776.471
   32    1776.471
   33    3667.9436
   34    294.32042
   35    294.32042
   36    1616.807
   41    2633.6276
   42    2633.6276
   43    2561.742
   44    4942.7281
   45    4942.7281
   46    3076.4276
   47    1472.8422
   48    1472.8422
   49    1121.4606

BLOCK MASS
   6    173.2
   23    91.1876
   24    80.429995
   15    1.777
   25    121.0455
   35    4015.9472
   36    4015.8334
   37    4016.9607
   1000001    2779.4011
   2000001    1618.4975
   1000002    2778.2761
   2000002    5007.6023
   1000003    2779.401
   2000003    1618.4973
   1000004    2778.276
   2000004    5007.6019
   1000005    1284.3822
   2000005    2685.9475
   1000006    2672.5722
   2000006    3135.4775
   1000011    1806.0906
   2000011    274.6507
   1000012    1803.9793
   1000013    1806.0904
   2000013    274.64443
   1000014    1803.9787
   1000015    1614.9983
   2000015    3690.0403
   1000016    3688.7512
   1000021    3308.4532
   1000022    267.88413
   1000023   -1962.1062
   1000025    1964.9351
   1000035   -3642.1649
   1000024    1962.867
   1000037    3642.2347

BLOCK ALPHA
      -0.094820409

BLOCK HMIX Q=  2894.7867
   1    1942.598
   2    10.029944
   3    243.30683
   4    16126918

BLOCK STOPMIX
   1   1   -0.9840154
   1   2    0.17808341
   2   1   -0.17808341
   2   2   -0.9840154

BLOCK SBOTMIX
   1   1    0.0080654405
   1   2    0.99996747
   2   1   -0.99996747
   2   2    0.0080654405

BLOCK STAUMIX
   1   1    0.0041746531
   1   2    0.99999129
   2   1   -0.99999129
   2   2    0.0041746531

BLOCK NMIX
   1   1   -0.99971678
   1   2   -0.0001482411
   1   3   -0.023194556
   1   4    0.0053243403
   2   1    0.012636423
   2   2    0.028908927
   2   3   -0.70700963
   2   4   -0.7064998
   3   1    0.020164095
   3   2   -0.010752928
   3   3   -0.70670677
   3   4    0.70713741
   4   1   -0.0002968227
   4   2    0.9995242
   4   3    0.012842395
   4   4    0.028042081

BLOCK UMIX
   1   1   -0.018460878
   1   2    0.99982958
   2   1   -0.99982958
   2   2   -0.018460878

BLOCK VMIX
   1   1    0.040058317
   1   2    0.99919734
   2   1    0.99919734
   2   2   -0.040058317

BLOCK HIGGSBOUNDSINPUTHIGGSCOUPLINGSFERMIONS
       0, 100.59978,3,36,15,15

BLOCK HIGGSBOUNDSINPUTHIGGSCOUPLINGSBOSONS
       0,4,36,21,21,23

BLOCK SPHENOLOWENERGY
   1    0.0003260689
   2    1.5901452e-06
   3    3.5264177e-05
   4    2.6501022e-15
   5    1.1320937e-10
   6    2.3699839e-08
   7    8.9138927e-14
   8    3.8080125e-09
   9    8.0773328e-07
   10    9.6764343e-05
   11    0.99953862
   12    0.5422038
   13    19.373185
   14    0
   15    0
   16    0.0021582729
   17    2.281668e-15
   18    2.4805333e-11
   19    8.2920291e-11
   20   -3.4309824e-16
   21   -1.4668406e-11
   22   -3.7983744e-09
   23    0
   24    0
   25    0
   26    0
   27    0
   28    0
   29    0
   30    0
   31    0
   39   -3.1254938e-05
   40    0
   41    0
   42    0

BLOCK FWCOEF Q=  160
   305   4422   0   0   -0.18881911
   305   4422   0   2   -0.19509573
   305   4322   0   2   -0.00012547527
   305   6421   0   0   -0.095227835
   305   6421   0   2   -0.10209146
   305   6321   0   2   -0.00013585692
   3051111   4133   0   0    1.6149264
   3051111   4133   0   2    1.6154047
   3051111   4233   0   2    1.5059429e-05
   3051111   4137   0   0   -4.4376185
   3051111   4137   0   2   -4.4370928
   3051111   4237   0   2   -0.00011325813
   3051313   4133   0   0    1.6149264
   3051313   4133   0   2    1.6154046
   3051313   4233   0   2    1.5059426e-05
   3051313   4137   0   0   -4.4376185
   3051313   4137   0   2   -4.4370929
   3051313   4237   0   2   -0.00011325814
   3051212   4137   0   0    1.5053501
   3051212   4137   0   2    1.5052365
   3051212   4237   0   2    2.4553982e-05
   3051414   4137   0   0    1.5053501
   3051414   4137   0   2    1.5052365
   3051414   4237   0   2    2.4553982e-05
   3051616   4137   0   0    1.5053501
   3051616   4137   0   2    1.5052367
   3051616   4237   0   2    2.4554107e-05

BLOCK IMFWCOEF Q=  160
   305   4422   0   0    3.8580442e-07
   305   4422   0   2    8.9722747e-07
   305   4322   0   2   -8.6287142e-07
   305   6421   0   0    3.30467e-07
   305   6421   0   2   -5.5326497e-06
   305   6321   0   2   -5.5876731e-07
   3051111   4133   0   2    7.0764803e-07
   3051111   4233   0   2    3.0004927e-07
   3051111   4137   0   2   -3.9124435e-06
   3051111   4237   0   2   -2.2569255e-06
   3051313   4133   0   2    7.0764777e-07
   3051313   4233   0   2    3.0004922e-07
   3051313   4137   0   2   -3.912444e-06
   3051313   4237   0   2   -2.2569256e-06
   3051212   4137   0   2    8.5433838e-07
   3051212   4237   0   2    4.892972e-07
   3051414   4137   0   2    8.5433836e-07
   3051414   4237   0   2    4.892972e-07
   3051616   4137   0   2    8.5821221e-07
   3051616   4237   0   2    4.8929888e-07

DECAY 23  2.4952


DECAY 24  2.085


DECAY 2000011  0.0032666951
    1   2    1000022    11

DECAY 1000011  2.1699869
    0.99999999   2    1000022    11

DECAY 2000013  0.0032603564
    1   2    1000022    13

DECAY 1000013  2.1707392
    0.99965363   2    1000022    13
    0.00034637   2    2000013    25

DECAY 1000015  7.6702276
    1   2    1000022    15

DECAY 2000015  5.346981
    0.85782676   2    1000022    15
    0.039428935   2    1000023    15
    0.037425005   2    1000025    15
    0.02934019   2    1000015    23
    0.028948019   2    1000015    25
    0.0040245839   2   -1000037    16
    0.0020152853   2    1000035    15
    0.00099122593   2   -1000024    16

DECAY 1000012  2.164817
    1   2    1000022    12

DECAY 1000014  2.1648162
    1   2    1000022    14

DECAY 1000016  5.3591104
    0.85457659   2    1000022    16
    0.079733612   2    1000024    15
    0.058501445   2    1000015    24
    0.0037960403   2    1000037    15
    0.0019073405   2    1000035    16
    0.00076485588   2    1000023    16
    0.00072011877   2    1000025    16

DECAY 2000001  0.85428162
    1   2    1000022    1

DECAY 1000001  0.38482022
    0.98723209   2    1000022    1
    0.0056858973   2    1000023    1
    0.0054443655   2   -1000024    2
    0.0016369887   2    1000025    1

DECAY 2000003  0.85428159
    1   2    1000022    3

DECAY 1000003  0.38530771
    0.98598376   2    1000022    3
    0.0060916111   2   -1000024    4
    0.0058656424   2    1000023    3
    0.0018213561   2    1000025    3
    0.00023762864   2    2000003    25

DECAY 1000005  0.65628581
    1   2    1000022    5

DECAY 2000005  12.772384
    0.89952548   2   -1000024    6
    0.030585977   2    1000005    25
    0.028708708   2    1000022    5
    0.015297239   2    1000005    23
    0.013011857   2    1000023    5
    0.01287074   2    1000025    5

DECAY 1000002  0.39399917
    0.96704344   2    1000022    2
    0.024988068   2    1000024    1
    0.0075707787   2    1000023    2
    0.00039771391   2    1000025    2

DECAY 2000002  136.62437
    0.91862978   2    1000021    2
    0.081337033   2    1000022    2

DECAY 1000004  0.39439911
    0.96606242   2    1000022    4
    0.025328988   2    1000024    3
    0.0078895374   2    1000023    4
    0.00071905611   2    1000025    4

DECAY 2000004  136.62688
    0.91861216   2    1000021    4
    0.081335522   2    1000022    4

DECAY 1000006  13.882865
    0.43927399   2    1000023    6
    0.43445018   2    1000025    6
    0.057522098   2    1000024    5
    0.036434816   2    1000022    6
    0.026651997   2    1000005    24
    0.0056389246   3    1000022    24    5

DECAY 2000006  79.614565
    0.28768285   2    1000024    5
    0.15001219   2    2000005    24
    0.14090927   2    1000025    6
    0.14069782   2    1000023    6
    0.1184945   2    1000006    25
    0.083960503   2    1000022    6
    0.077930666   2    1000006    23
    0.00031219908   2    1000005    24

DECAY 1000024  2.0013599
    0.68729624   2    1000022    24
    0.2743617   2   -1000005    6
    0.02672621   3    1000022   -5    6
    0.010819672   2   -1000015    16
    0.00035199275   2   -2000013    14
    0.00017594248   2    1000014   -13
    0.00016715822   2    1000012   -11

DECAY 1000037  113.67483
    0.085222393   2    1000006   -5
    0.085068949   2   -2000005    6
    0.080193454   2    1000014   -13
    0.080193415   2    1000012   -11
    0.080172733   2   -1000013    14
    0.08017272   2   -1000011    12
    0.073855689   2    1000004   -3
    0.073855676   2    1000002   -1
    0.07378256   2   -1000001    2
    0.073782459   2   -1000003    4
    0.054024132   2    1000024    25
    0.050028689   2    1000024    23
    0.049889435   2    1000025    24
    0.04828963   2    1000023    24
    0.0036591651   3    1000024    6   -6
    0.00361916   3    1000023   -5    6
    0.0024709579   3    1000025   -5    6
    0.0016100671   2    2000006   -5

DECAY 1000022 -1


DECAY 1000023  2.2164584
    0.44618799   2    1000022    23
    0.28285555   2    1000022    25
    0.1225191   2    1000005   -5
    0.1225191   2   -1000005    5
    0.014016133   3    1000022    6   -6
    0.0049008066   2    1000015   -15
    0.0049008066   2   -1000015    15
    0.00050015849   2    2000013   -13
    0.00050015849   2   -2000013    13
    0.00034135214   2    2000011   -11
    0.00034135214   2   -2000011    11

DECAY 1000025  1.9187765
    0.48007765   2    1000022    25
    0.20308558   2    1000022    23
    0.14187302   2    1000005   -5
    0.14187302   2   -1000005    5
    0.016840377   3    1000022    6   -6
    0.0057833694   2    1000015   -15
    0.0057833694   2   -1000015    15
    0.0011891253   2    2000013   -13
    0.0011891253   2   -2000013    13
    0.0010055873   2    2000011   -11
    0.0010055873   2   -2000011    11

DECAY 1000035  122.10358
    0.065189153   2    1000025    25
    0.047910324   2    1000024   -24
    0.047910324   2   -1000024    24
    0.044419477   2    1000023    25
    0.040942237   2    2000005   -5
    0.040942237   2   -2000005    5
    0.040366871   2    1000006   -6
    0.040366871   2   -1000006    6
    0.040237004   2    1000025    23
    0.037363501   2    1000014   -14
    0.037363501   2   -1000014    14
    0.037363485   2    1000012   -12
    0.037363485   2   -1000012    12
    0.037282954   2    1000013   -13
    0.037282954   2   -1000013    13
    0.037282948   2    1000011   -11
    0.037282948   2   -1000011    11
    0.034393269   2    1000004   -4
    0.034393269   2   -1000004    4
    0.03439326   2    1000002   -2
    0.03439326   2   -1000002    2
    0.034323031   2    1000003   -3
    0.034323031   2   -1000003    3
    0.034323023   2    1000001   -1
    0.034323023   2   -1000001    1
    0.0055662462   2    1000023    23
    0.0035917155   3    1000024    5   -6
    0.0035917155   3   -1000024   -5    6
    0.0023006303   3    1000025    6   -6
    0.0016303988   3    1000023    6   -6
    0.00073210585   2    2000006   -6
    0.00073210585   2   -2000006    6

DECAY 1000021  242.4671
    0.14565521   2    1000005   -5
    0.14565521   2   -1000005    5
    0.11685332   2    2000003   -3
    0.11685332   2   -2000003    3
    0.11685329   2    2000001   -1
    0.11685329   2   -2000001    1
    0.026109897   2    1000006   -6
    0.026109897   2   -1000006    6
    0.023472329   2    2000005   -5
    0.023472329   2   -2000005    5
    0.017552693   2    1000002   -2
    0.017552693   2   -1000002    2
    0.017552655   2    1000004   -4
    0.017552655   2   -1000004    4
    0.017484749   2    1000003   -3
    0.017484749   2   -1000003    3
    0.017484742   2    1000001   -1
    0.017484742   2   -1000001    1
    0.0019009152   3    1000025    6   -6

DECAY 25  0.0034207938
    0.630775   2   -5    5
    0.16798935   2   -24    24
    0.074991486   2    21    21
    0.07223029   2   -15    15
    0.031259666   2   -4    4
    0.018777662   2    23    23
    0.0023173892   2    22    22
    0.0011707191   2    22    23
    0.00025051723   2   -13    13
    0.00023709931   2   -3    3
    6.5555676e-07   2   -1    1
    1.6110154e-07   2   -2    2
    5.6319603e-09   2   -11    11

DECAY 35  8.6378976
    0.42312093   2   -5    5
    0.20377169   2    1000022    1000023
    0.12226463   2   -6    6
    0.11617586   2    1000022    1000025
    0.099203337   2   -15    15
    0.016960469   2   -2000005    1000005
    0.016960469   2   -1000005    2000005
    0.00052201485   2    1000022    1000022
    0.00033557213   2   -13    13
    0.00024419398   2    25    25
    0.00016329701   2   -3    3
    0.00011090573   2   -1000024    1000024
    2.1348646e-05   2   -1000005    1000005
    2.093227e-05   2    21    21
    1.9608358e-05   2    23    23
    1.9561652e-05   2    1000023    1000023
    1.6800968e-05   2   -1000015    1000015
    1.1365174e-05   2    1000025    1000025
    9.3321083e-06   2    1000022    1000035
    4.4020248e-06   2   -1000011    1000011
    4.3954167e-06   2   -1000013    1000013
    4.1225317e-06   2   -24    24
    3.2029825e-06   2   -2000013    2000013
    3.2025852e-06   2   -2000011    2000011
    2.2629785e-06   2    1000023    1000025
    1.7486311e-06   2   -4    4
    1.0082983e-06   2   -1000001    1000001
    1.0078283e-06   2   -1000003    1000003
    4.5148753e-07   2   -1    1
    3.0659682e-07   2   -2000013    1000013
    3.0659682e-07   2   -1000013    2000013
    2.3343823e-07   2    22    22
    8.6648348e-08   2    22    23
    7.536053e-09   2   -11    11
    9.0133761e-12   2   -2    2
    7.1713454e-12   2   -2000011    1000011
    7.1713454e-12   2   -1000011    2000011

DECAY 36  8.4747859
    0.41964148   2   -5    5
    0.20620999   2    1000022    1000025
    0.11948621   2    1000022    1000023
    0.11860285   2   -6    6
    0.098352431   2   -15    15
    0.017282606   2   -2000005    1000005
    0.017282606   2   -1000005    2000005
    0.0014653249   2   -1000024    1000024
    0.00059199528   2    1000022    1000022
    0.00033269937   2   -13    13
    0.00027019448   2    1000025    1000025
    0.00020888782   2    1000023    1000023
    0.00016192567   2   -3    3
    6.2841749e-05   2    21    21
    4.2322125e-05   2    23    25
    1.7105926e-06   2    1000022    1000035
    1.6835187e-06   2   -4    4
    4.4769717e-07   2   -1    1
    4.4710775e-07   2    1000023    1000025
    4.3379564e-07   2    22    22
    3.1201056e-07   2   -2000013    1000013
    3.1201056e-07   2   -1000013    2000013
    2.8161046e-07   2    22    23
    7.47164e-09   2   -11    11
    8.6780535e-12   2   -2    2
    7.2979591e-12   2   -2000011    1000011
    7.2979591e-12   2   -1000011    2000011
    6.2562714e-36   2    25    25

DECAY 37  8.8692933
    0.5532826   2   -5    6
    0.312875   2    1000022    1000024
    0.10041352   2   -15    16
    0.0318176   2   -1000005    1000006
    0.000588809   2   -5    4
    0.00035499754   2   -13    14
    0.00022294867   2   -3    6
    0.00015065965   2   -3    4
    8.1118479e-05   2    1000023    1000024
    6.0021102e-05   2    1000024    1000025
    5.3898758e-05   2   -1000005    1000004
    4.0487787e-05   2    24    25
    1.2279068e-05   2   -2000013    1000014
    1.2278535e-05   2   -2000011    1000012
    1.0860556e-05   2    1000022    1000037
    1.021529e-05   2   -1    6
    6.9863047e-06   2   -3    2
    4.2046813e-06   2   -5    2
    5.9151705e-07   2   -1000013    1000014
    4.1258956e-07   2   -1    2
    3.8489312e-07   2   -1000005    1000002
    1.1242737e-07   2   -1    4
    8.3034294e-09   2   -11    12
    1.3835639e-11   2   -1000011    1000012
    2.7946144e-13   2    24    36
    1.6418029e-13   2    24    35

DECAY 6  2.43
    1   2    5    24

DECAY 15 -1
