BLOCK SPINFO
   1   SPheno
   2   v4.0.5be

BLOCK SPHENOINFO
   1   2
   2   2

BLOCK MODSEL
   1   0

BLOCK MINPAR
   3    34.537803
   4   -1

BLOCK EXTPAR
   0    3545.1953
   1   -165.54564
   2    3036.0307
   3    2965.0219
   11    3496.2977
   12   -3446.8085
   13    4220.8557
   23   -254.49993
   25    33.412573
   26    4820.7883
   31    2125.0978
   32    2125.0978
   33    454.06236
   34    564.38115
   35    564.38115
   36    1594.9208
   41    2741.4746
   42    2741.4746
   43    4218.5372
   44    2108.8309
   45    2108.8309
   46    2868.5344
   47    3518.5999
   48    3518.5999
   49    567.20959

BLOCK SMINPUTS
   1    127.90897
   2    1.1663787e-05
   3    0.1184
   4    91.1876
   5    4.18
   6    173.2
   7    1.777
   8    0
   11    0.00051099893
   12    0
   13    0.10565837
   14    0
   21    0.005
   22    0.0025
   23    0.095
   24    1.27

BLOCK GAUGE Q=  3545.1953
   1    0.35536298
   2    0.66519887
   3    1.219778

BLOCK YU Q=  3545.1953
   1   1    8.3881264e-06
   2   2    0.0042611682
   3   3    1.013353

BLOCK YD Q=  3545.1953
   1   1    0.00056319026
   2   2    0.010700615
   3   3    0.55850826

BLOCK YE Q=  3545.1953
   1   1    9.828082e-05
   2   2    0.020321356
   3   3    0.34177178

BLOCK AU Q=  3545.1953
   1   1    0
   2   2    0
   3   3    3496.2977

BLOCK AD Q=  3545.1953
   1   1    0
   2   2    0
   3   3   -3446.8085

BLOCK AE Q=  3545.1953
   1   1    0
   2   2    0
   3   3    4220.8557

BLOCK MSOFT Q=  3545.1953
   1   -165.54564
   2    3036.0307
   3    2965.0219
   21    23337553
   22    128514.19
   31    2125.0978
   32    2125.0978
   33    454.06236
   34    564.38115
   35    564.38115
   36    1594.9208
   41    2741.4746
   42    2741.4746
   43    4218.5372
   44    2108.8309
   45    2108.8309
   46    2868.5344
   47    3518.5999
   48    3518.5999
   49    567.20959

BLOCK MASS
   6    173.2
   23    91.1876
   24    80.429995
   15    1.777
   25    122.04788
   35    4819.2979
   36    4820.7883
   37    4820.1561
   1000001    2908.1026
   2000001    3622.2913
   1000002    2907.019
   2000002    2263.7452
   1000003    2908.0989
   2000003    3622.2853
   1000004    2907.0154
   2000004    2263.7444
   1000005    866.19654
   2000005    4278.8722
   1000006    2934.3308
   2000006    4283.2286
   1000011    2158.1007
   2000011    579.47312
   1000012    2156.2198
   1000013    2158.0867
   2000013    579.39409
   1000014    2156.2058
   1000015    535.93393
   2000015    1590.76
   1000016    534.14943
   1000021    3164.5891
   1000022   -154.82805
   1000023    266.82349
   1000025   -275.84273
   1000035    3045.1092
   1000024    265.71736
   1000037    3045.3271

BLOCK ALPHA
      -0.028972535

BLOCK HMIX Q=  3545.1953
   1   -254.49993
   2    33.412573
   3    243.07585
   4    23240000

BLOCK STOPMIX
   1   1   -0.045584843
   1   2    0.99896047
   2   1   -0.99896047
   2   2   -0.045584843

BLOCK SBOTMIX
   1   1   -0.00058305135
   1   2    0.99999983
   2   1   -0.99999983
   2   2   -0.00058305135

BLOCK STAUMIX
   1   1   -0.99995401
   1   2    0.0095902802
   2   1   -0.0095902802
   2   2   -0.99995401

BLOCK NMIX
   1   1    0.95784201
   1   2    0.0038095799
   1   3   -0.24601262
   1   4    0.14833054
   2   1   -0.071125556
   2   2   -0.019100134
   2   3   -0.70344976
   2   4   -0.70691921
   3   1    0.27835174
   3   2   -0.016664979
   3   3    0.66680904
   3   4   -0.6910921
   4   1    0.00036887856
   4   2   -0.99967142
   4   3    0.0013868769
   4   4    0.025592773

BLOCK UMIX
   1   1   -0.001957489
   1   2   -0.99999808
   2   1    0.99999808
   2   2   -0.001957489

BLOCK VMIX
   1   1   -0.036168042
   1   2    0.99934572
   2   1    0.99934572
   2   2    0.036168042

BLOCK HIGGSBOUNDSINPUTHIGGSCOUPLINGSFERMIONS
       0, 1116.4001,3,36,15,15

BLOCK HIGGSBOUNDSINPUTHIGGSCOUPLINGSBOSONS
       0,4,36,21,21,23

BLOCK SPHENOLOWENERGY
   1    0.00031860527
   2    1.590282e-06
   3    3.5246822e-05
   4    2.7583756e-15
   5    1.1783439e-10
   6    2.465431e-08
   7    9.3647548e-14
   8    4.00061e-09
   9    8.4807441e-07
   10    9.6521028e-05
   11    0.99702526
   12    0.54217001
   13    19.370811
   14    0
   15    0
   16    0.0021581041
   17    2.2816667e-15
   18    2.4796322e-11
   19    8.2892978e-11
   20   -1.9378931e-15
   21   -8.2887786e-11
   22   -4.6844131e-09
   23    0
   24    0
   25    0
   26    0
   27    0
   28    0
   29    0
   30    0
   31    0
   39    6.5167202e-05
   40    0
   41    0
   42    0

BLOCK FWCOEF Q=  160
   305   4422   0   0   -0.18881911
   305   4422   0   2   -0.18652254
   305   4322   0   2    9.1904758e-05
   305   6421   0   0   -0.095227835
   305   6421   0   2   -0.096361484
   305   6321   0   2    1.7374567e-06
   3051111   4133   0   0    1.622575
   3051111   4133   0   2    1.6230673
   3051111   4233   0   2    0.00013108358
   3051111   4137   0   0   -4.4452671
   3051111   4137   0   2   -4.443062
   3051111   4237   0   2   -0.00097452828
   3051313   4133   0   0    1.622575
   3051313   4133   0   2    1.6230664
   3051313   4233   0   2    0.00013108313
   3051313   4137   0   0   -4.4452671
   3051313   4137   0   2   -4.4430629
   3051313   4237   0   2   -0.00097452894
   3051212   4137   0   0    1.5053501
   3051212   4137   0   2    1.5048737
   3051212   4237   0   2    0.00021089949
   3051414   4137   0   0    1.5053501
   3051414   4137   0   2    1.5048737
   3051414   4237   0   2    0.0002108995
   3051616   4137   0   0    1.5053501
   3051616   4137   0   2    1.5048734
   3051616   4237   0   2    0.00021089789

BLOCK IMFWCOEF Q=  160
   305   4422   0   0    3.8582772e-07
   305   4422   0   2   -8.7020505e-06
   305   4322   0   2    2.6438057e-06
   305   6421   0   0    3.3048696e-07
   305   6421   0   2    6.9985683e-06
   305   6321   0   2    1.4291271e-06
   3051111   4133   0   2   -5.4831521e-07
   3051111   4233   0   2    2.5906321e-06
   3051111   4137   0   2    4.8626792e-06
   3051111   4237   0   2   -1.9262911e-05
   3051313   4133   0   2   -5.4830499e-07
   3051313   4233   0   2    2.5906247e-06
   3051313   4137   0   2    4.8626908e-06
   3051313   4237   0   2   -1.9262923e-05
   3051212   4137   0   2   -1.0378474e-06
   3051212   4237   0   2    4.1687711e-06
   3051414   4137   0   2   -1.0378476e-06
   3051414   4237   0   2    4.1687711e-06
   3051616   4137   0   2   -1.0429838e-06
   3051616   4237   0   2    4.1687103e-06

DECAY 23  2.4952


DECAY 24  2.085


DECAY 2000011  2.4476097
    0.94113262   2    1000022    11
    0.055130755   2    1000025    11
    0.0037365988   2    1000023    11

DECAY 1000011  2.6887464
    0.92921156   2    1000022    11
    0.059594259   2    1000025    11
    0.011167924   2    1000023    11

DECAY 2000013  2.4530984
    0.93896266   2    1000022    13
    0.055504684   2    1000025    13
    0.0043226407   2    1000023    13
    0.0012100109   2   -1000024    14

DECAY 1000013  2.7060397
    0.9236594   2    1000022    13
    0.062032076   2    1000025    13
    0.014240359   2    1000023    13

DECAY 1000015  1.2661829
    0.46810287   2    1000022    15
    0.27886209   2    1000023    15
    0.25293458   2    1000025    15
    0.00010045618   2   -1000024    16

DECAY 2000015  15.152109
    0.48855114   2    1000022    15
    0.23050543   2   -1000024    16
    0.14111643   2    1000025    15
    0.11661542   2    1000023    15
    0.011486537   2    1000016   -24
    0.0060149256   2    1000015    25
    0.0057101141   2    1000015    23

DECAY 1000012  2.701424
    0.89691589   2    1000022    12
    0.092953198   2    1000025    12
    0.0089145369   2    1000024    11
    0.001216375   2    1000023    12

DECAY 1000014  2.7185865
    0.89124775   2    1000022    14
    0.092365744   2    1000025    14
    0.015177823   2    1000024    13
    0.0012086876   2    1000023    14

DECAY 1000016  1.2507107
    0.5651415   2    1000024    15
    0.4068375   2    1000022    16
    0.027642962   2    1000025    16
    0.00037804502   2    1000023    16

DECAY 1000001  0.40970712
    0.86385737   2    1000022    1
    0.13461354   2    1000025    1
    0.0012936371   2    1000023    1
    0.00023545284   2   -1000024    2

DECAY 2000001  18.039338
    0.88837462   2    1000021    1
    0.10247655   2    1000022    1
    0.0085859652   2    1000025    1
    0.00056160376   2    1000023    1

DECAY 1000003  0.41723457
    0.84922448   2    1000022    3
    0.13909778   2    1000025    3
    0.0089740072   2    1000023    3
    0.0027037268   2   -1000024    4

DECAY 2000003  18.055255
    0.88757112   2    1000021    3
    0.10241354   2    1000022    3
    0.0087786529   2    1000025    3
    0.00078418199   2    1000023    3
    0.00045210388   2   -1000024    4

DECAY 1000005  8.8488013
    0.45067697   2   -1000024    6
    0.24641386   2    1000023    5
    0.22125494   2    1000025    5
    0.081654224   2    1000022    5

DECAY 2000005  212.78165
    0.4057706   2   -1000024    6
    0.32574419   2    1000021    5
    0.076944301   2    1000006   -24
    0.061277867   2    1000023    5
    0.055423409   2    1000025    5
    0.043203214   2   -1000037    6
    0.021547887   2    1000035    5
    0.0099730843   2    1000022    5

DECAY 2000002  4.9997878
    0.91899481   2    1000022    2
    0.076031282   2    1000025    2
    0.004973905   2    1000023    2

DECAY 1000002  0.44609717
    0.86721575   2    1000022    2
    0.073833277   2    1000024    1
    0.030493897   2    1000025    2
    0.028457078   2    1000023    2

DECAY 2000004  5.0013696
    0.91870701   2    1000022    4
    0.076082198   2    1000025    4
    0.0050519667   2    1000023    4
    0.00015882061   2    1000024    3

DECAY 1000004  0.45362187
    0.85287882   2    1000022    4
    0.086924882   2    1000024    3
    0.031074882   2    1000025    4
    0.029121412   2    1000023    4

DECAY 1000006  123.58239
    0.47479486   2    1000024    5
    0.2376592   2    1000023    6
    0.22725171   2    1000025    6
    0.060289777   2    1000022    6

DECAY 2000006  220.62984
    0.31474048   2    1000021    6
    0.19574595   2    1000023    6
    0.18917985   2    1000025    6
    0.12119251   2    1000024    5
    0.069510888   2    1000006    25
    0.041437893   2    1000037    5
    0.037283526   2    1000006    23
    0.020784714   2    1000035    6
    0.010051751   2    1000022    6

DECAY 1000024  0.19411866
    0.99999938   2    1000022    24

DECAY 1000037  66.144491
    0.19026856   2   -1000015    16
    0.19012295   2    1000016   -15
    0.099843285   2    1000024    25
    0.093558218   2    1000023    24
    0.0930011   2    1000024    23
    0.087972751   2    1000025    24
    0.050329641   2    1000014   -13
    0.050328329   2    1000012   -11
    0.05021868   2   -1000013    14
    0.050217366   2   -1000011    12
    0.0086904553   3    1000024    6   -6
    0.0056171218   3    1000023   -5    6
    0.0054208176   3    1000025   -5    6
    0.004965031   2    1000022    24
    0.0047846908   2    1000004   -3
    0.004784447   2    1000002   -1
    0.0047176742   2   -1000003    4
    0.0047176403   2   -1000001    2
    0.0003005508   3    1000022   -5    6

DECAY 1000022 -1


DECAY 1000023  0.18306344
    0.99997478   2    1000022    23

DECAY 1000025  0.011395924
    0.99921107   2    1000022    23
    0.00053563027   3    1000022    5   -5

DECAY 1000035  67.2227
    0.093626767   2    1000016   -16
    0.093626767   2   -1000016    16
    0.093503129   2    1000015   -15
    0.093503129   2   -1000015    15
    0.091478985   2    1000024   -24
    0.091478985   2   -1000024    24
    0.058406805   2    1000025    25
    0.055007232   2    1000023    25
    0.048315067   2    1000025    23
    0.040927994   2    1000023    23
    0.024778201   2    1000014   -14
    0.024778201   2   -1000014    14
    0.024777555   2    1000012   -12
    0.024777555   2   -1000012    12
    0.02467184   2    1000013   -13
    0.02467184   2   -1000013    13
    0.024671194   2    1000011   -11
    0.024671194   2   -1000011    11
    0.0050164911   3    1000024    5   -6
    0.0050164911   3   -1000024   -5    6
    0.0039814597   3    1000023    6   -6
    0.0038320953   3    1000025    6   -6
    0.0031023262   2    1000022    25
    0.0024278736   2    1000022    23
    0.0023480127   2    1000004   -4
    0.0023480127   2   -1000004    4
    0.0023479973   2    1000002   -2
    0.0023479973   2   -1000002    2
    0.0023128629   2    1000003   -3
    0.0023128629   2   -1000003    3
    0.002312742   2    1000001   -1
    0.002312742   2   -1000001    1
    0.00019863596   3    1000022    6   -6

DECAY 1000021  135.33367
    0.29616449   2    1000005   -5
    0.29616449   2   -1000005    5
    0.082515667   2    2000004   -4
    0.082515667   2   -2000004    4
    0.082515608   2    2000002   -2
    0.082515608   2   -2000002    2
    0.0084393489   2    1000004   -4
    0.0084393489   2   -1000004    4
    0.0084392158   2    1000002   -2
    0.0084392158   2   -1000002    2
    0.0083715749   2    1000003   -3
    0.0083715749   2   -1000003    3
    0.0083713453   2    1000001   -1
    0.0083713453   2   -1000001    1
    0.0048967893   2    1000006   -6
    0.0048967893   2   -1000006    6
    0.00011791727   3    1000024    5   -6
    0.00011791727   3   -1000024   -5    6

DECAY 25  0.0035238716
    0.61663431   2   -5    5
    0.18266704   2   -24    24
    0.074572972   2    21    21
    0.070664855   2   -15    15
    0.030564726   2   -4    4
    0.020835347   2    23    23
    0.0023307704   2    22    22
    0.0012523945   2    22    23
    0.00024507631   2   -13    13
    0.00023169851   2   -3    3
    6.4062333e-07   2   -1    1
    1.5751701e-07   2   -2    2
    5.5096273e-09   2   -11    11

DECAY 35  107.69296
    0.58214856   2   -5    5
    0.096470897   2   -15    15
    0.064961948   2   -1000024    1000037
    0.064961948   2   -1000037    1000024
    0.035857048   2   -2000015    1000015
    0.035857048   2   -1000015    2000015
    0.030481683   2    1000023    1000035
    0.029889594   2    1000025    1000035
    0.023714967   2    1000022    1000023
    0.013816728   2    1000022    1000025
    0.0061659684   2    1000022    1000022
    0.0047640263   2    1000025    1000025
    0.0046605364   2    1000022    1000035
    0.0036500329   2    1000023    1000025
    0.0014279181   2   -6    6
    0.00050969295   2   -1000024    1000024
    0.00035637819   2   -13    13
    0.00021223764   2   -3    3
    5.9368688e-05   2    1000023    1000023
    1.597523e-05   2   -1000015    1000015
    1.1979893e-05   2   -2000015    2000015
    2.8628633e-06   2    21    21
    7.2864921e-07   2   -1000005    1000005
    5.867496e-07   2   -1    1
    5.6455536e-07   2    25    25
    1.013884e-07   2   -1000002    1000002
    1.0133349e-07   2   -1000004    1000004
    9.2853273e-08   2    23    23
    2.730563e-08   2   -1000011    1000011
    2.7106707e-08   2   -1000013    1000013
    2.1222694e-08   2   -4    4
    2.0448657e-08   2   -2000011    2000011
    2.0332423e-08   2   -2000013    2000013
    1.5957617e-08   2   -24    24
    8.0029653e-09   2   -11    11
    6.3961709e-09   2    22    23
    4.6277048e-09   2    22    22
    3.4659705e-10   2   -2000013    1000013
    3.4659705e-10   2   -1000013    2000013
    1.0940587e-13   2   -2    2
    8.1069427e-15   2   -2000011    1000011
    8.1069427e-15   2   -1000011    2000011

DECAY 36  103.35748
    0.57054466   2   -5    5
    0.094544562   2   -15    15
    0.067764275   2   -1000024    1000037
    0.067764275   2   -1000037    1000024
    0.037367761   2   -2000015    1000015
    0.037367761   2   -1000015    2000015
    0.035397087   2    1000023    1000035
    0.02785043   2    1000025    1000035
    0.02179424   2    1000022    1000023
    0.016492943   2    1000022    1000025
    0.0069485647   2    1000022    1000022
    0.005670986   2    1000025    1000025
    0.0045907317   2    1000022    1000035
    0.0034146876   2    1000023    1000025
    0.0013325582   2   -6    6
    0.00053382145   2   -1000024    1000024
    0.00034926776   2   -13    13
    0.00020799711   2   -3    3
    5.5706845e-05   2    1000023    1000023
    6.8191061e-06   2    21    21
    5.7502988e-07   2   -1    1
    2.5548532e-07   2    23    25
    1.9756692e-08   2   -4    4
    7.8432711e-09   2   -11    11
    3.937873e-09   2    22    23
    3.8612488e-09   2    22    22
    3.6072847e-10   2   -2000013    1000013
    3.6072847e-10   2   -1000013    2000013
    1.0184971e-13   2   -2    2
    7.8173005e-14   2    23    35
    8.4374765e-15   2   -2000011    1000011
    8.4374765e-15   2   -1000011    2000011
    1.9926696e-39   2    25    25

DECAY 37  109.73669
    0.57937576   2   -5    6
    0.10478378   2   -15    16
    0.070416184   2   -2000015    1000016
    0.063815274   2    1000024    1000035
    0.063289675   2    1000023    1000037
    0.055578673   2    1000025    1000037
    0.047138667   2    1000022    1000024
    0.0089003404   2    1000022    1000037
    0.003667777   2    1000024    1000025
    0.00085825399   2   -5    4
    0.00079821094   2   -1000005    1000006
    0.00054396249   2    1000023    1000024
    0.00037044793   2   -13    14
    0.00024036523   2   -1000005    2000004
    0.00019300458   2   -3    4
    9.3689358e-06   2   -1000015    1000016
    9.0861639e-06   2   -3    2
    6.1288179e-06   2   -5    2
    2.2610078e-06   2   -3    6
    1.7164554e-06   2   -1000005    2000002
    5.3547093e-07   2   -1    2
    2.4059633e-07   2    24    25
    9.0472379e-08   2   -1    6
    7.8973119e-08   2   -2000011    1000012
    7.8812822e-08   2   -2000013    1000014
    2.5960546e-08   2   -1    4
    8.6648155e-09   2   -11    12
    6.7563513e-10   2   -1000013    1000014
    6.6466937e-12   2   -1000005    1000004
    1.5803076e-14   2   -1000011    1000012
    2.4895528e-19   2   -1000005    1000002

DECAY 6  2.43
    1   2    5    24

DECAY 15 -1
