BLOCK SPINFO
   1   SPheno
   2   v4.0.5be

BLOCK SPHENOINFO
   1   2
   2   2

BLOCK MODSEL
   1   0

BLOCK MINPAR
   3    32.506534
   4    1

BLOCK EXTPAR
   0    1547.8137
   1    687.80308
   2   -3228.3328
   3    1539.0735
   11   -4685.055
   12    4695.7331
   13   -745.25022
   23    4605.4191
   25    31.537902
   26    2682.9544
   31    2575.6253
   32    2575.6253
   33    2244.162
   34    1761.0596
   35    1761.0596
   36    2226.7779
   41    4679.4439
   42    4679.4439
   43    3381.3011
   44    4090.1571
   45    4090.1571
   46    653.98203
   47    2462.2021
   48    2462.2021
   49    2404.494

BLOCK SMINPUTS
   1    127.90897
   2    1.1663787e-05
   3    0.1184
   4    91.1876
   5    4.18
   6    173.2
   7    1.777
   8    0
   11    0.00051099893
   12    0
   13    0.10565837
   14    0
   21    0.005
   22    0.0025
   23    0.095
   24    1.27

BLOCK GAUGE Q=  1547.8137
   1    0.35536298
   2    0.66519887
   3    1.219778

BLOCK YU Q=  1547.8137
   1   1    8.3885859e-06
   2   2    0.0042614016
   3   3    1.0134086

BLOCK YD Q=  1547.8137
   1   1    0.00053162059
   2   2    0.010100791
   3   3    0.52720104

BLOCK YE Q=  1547.8137
   1   1    9.2771681e-05
   2   2    0.019182241
   3   3    0.32261374

BLOCK AU Q=  1547.8137
   1   1    0
   2   2    0
   3   3   -4685.0559

BLOCK AD Q=  1547.8137
   1   1    0
   2   2    0
   3   3    4695.7303

BLOCK AE Q=  1547.8137
   1   1    0
   2   2    0
   3   3   -745.25019

BLOCK MSOFT Q=  1547.8137
   1    687.80308
   2   -3228.3328
   3    1539.0735
   21   -13943253
   22   -21199339
   31    2575.6253
   32    2575.6253
   33    2244.162
   34    1761.0596
   35    1761.0596
   36    2226.7779
   41    4679.4439
   42    4679.4439
   43    3381.3011
   44    4090.1571
   45    4090.1571
   46    653.98203
   47    2462.2021
   48    2462.2021
   49    2404.494

BLOCK MASS
   6    173.2
   23    91.1876
   24    80.429995
   15    1.777
   25    123.3222
   35    2682.8353
   36    2682.9544
   37    2683.7667
   1000001    4720.7721
   2000001    2496.3127
   1000002    4720.2772
   2000002    4126.4791
   1000003    4720.7714
   2000003    2496.3136
   1000004    4720.2764
   2000004    4126.4798
   1000005    2437.085
   2000005    3357.1876
   1000006    712.14027
   2000006    3364.1227
   1000011    2581.945
   2000011    1761.2372
   1000012    2580.3908
   1000013    2581.9255
   2000013    1761.1659
   1000014    2580.3608
   1000015    2170.4842
   2000015    2279.6889
   1000016    2238.9708
   1000021    1769.749
   1000022    689.37589
   1000023   -3284.4892
   1000025    4589.5834
   1000035   -4591.0882
   1000024    3284.4414
   1000037    4591.6327

BLOCK ALPHA
      -0.030917568

BLOCK HMIX Q=  1547.8137
   1    4605.4191
   2    31.537902
   3    244.03081
   4    7198244.3

BLOCK STOPMIX
   1   1    0.06563404
   1   2    0.99784376
   2   1   -0.99784376
   2   2    0.06563404

BLOCK SBOTMIX
   1   1    0.050523239
   1   2    0.99872289
   2   1   -0.99872289
   2   2    0.050523239

BLOCK STAUMIX
   1   1    0.60708931
   1   2    0.7946336
   2   1   -0.7946336
   2   2    0.60708931

BLOCK NMIX
   1   1   -0.99994104
   1   2   -7.064688e-05
   1   3   -0.010642983
   1   4    0.0021557246
   2   1    0.00022391988
   2   2    0.99924161
   2   3   -0.032126915
   2   4   -0.022000131
   3   1    0.0090503339
   3   2   -0.0071667074
   3   3   -0.70704129
   3   4    0.70707803
   4   1    0.0059972113
   4   2   -0.03827307
   4   3   -0.70636195
   4   4   -0.70678993

BLOCK UMIX
   1   1   -0.99891388
   1   2    0.046594633
   2   1   -0.046594633
   2   2   -0.99891388

BLOCK VMIX
   1   1    0.99948025
   1   2    0.032237174
   2   1    0.032237174
   2   2   -0.99948025

BLOCK HIGGSBOUNDSINPUTHIGGSCOUPLINGSFERMIONS
       0, 994.63924,3,36,15,15

BLOCK HIGGSBOUNDSINPUTHIGGSCOUPLINGSBOSONS
       0,4,36,21,21,23

BLOCK SPHENOLOWENERGY
   1    0.00031561081
   2    1.5911807e-06
   3    3.5262021e-05
   4    2.1221376e-15
   5    9.0654585e-11
   6    1.8935682e-08
   7    7.1403057e-14
   8    3.0503129e-09
   9    6.4561874e-07
   10    9.6298068e-05
   11    0.99472217
   12    0.54169083
   13    19.351722
   14    0
   15    0
   16    0.0021564584
   17    2.2816501e-15
   18    2.4814059e-11
   19    8.2929397e-11
   20   -3.9000398e-16
   21   -1.6674174e-11
   22   -5.1484751e-09
   23    0
   24    0
   25    0
   26    0
   27    0
   28    0
   29    0
   30    0
   31    0
   39    6.8929738e-05
   40    0
   41    0
   42    0

BLOCK FWCOEF Q=  160
   305   4422   0   0   -0.18881911
   305   4422   0   2   -0.18284064
   305   4322   0   2    3.6930197e-05
   305   6421   0   0   -0.095227835
   305   6421   0   2   -0.094732297
   305   6321   0   2   -7.0394414e-05
   3051111   4133   0   0    1.5932014
   3051111   4133   0   2    1.592971
   3051111   4233   0   2    1.900332e-05
   3051111   4137   0   0   -4.4158935
   3051111   4137   0   2   -4.4151611
   3051111   4237   0   2   -0.00014775926
   3051313   4133   0   0    1.5932014
   3051313   4133   0   2    1.5929697
   3051313   4233   0   2    1.9003113e-05
   3051313   4137   0   0   -4.4158935
   3051313   4137   0   2   -4.4151625
   3051313   4237   0   2   -0.00014775912
   3051212   4137   0   0    1.5053501
   3051212   4137   0   2    1.5051909
   3051212   4237   0   2    3.2193224e-05
   3051414   4137   0   0    1.5053501
   3051414   4137   0   2    1.5051909
   3051414   4237   0   2    3.2193264e-05
   3051616   4137   0   0    1.5053501
   3051616   4137   0   2    1.5051909
   3051616   4237   0   2    3.2204727e-05

BLOCK IMFWCOEF Q=  160
   305   4422   0   0    3.8591303e-07
   305   4422   0   2    4.4977591e-06
   305   4322   0   2    3.2439545e-06
   305   6421   0   0    3.3056003e-07
   305   6421   0   2   -2.5656632e-05
   305   6321   0   2    2.0874115e-06
   3051111   4133   0   2   -2.2418006e-06
   3051111   4233   0   2    8.7800076e-07
   3051111   4137   0   2    1.7964805e-05
   3051111   4237   0   2   -6.8307231e-06
   3051313   4133   0   2   -2.2417919e-06
   3051313   4233   0   2    8.7800041e-07
   3051313   4137   0   2    1.7964813e-05
   3051313   4237   0   2   -6.8307241e-06
   3051212   4137   0   2   -3.9071504e-06
   3051212   4237   0   2    1.4882573e-06
   3051414   4137   0   2   -3.9071504e-06
   3051414   4237   0   2    1.4882573e-06
   3051616   4137   0   2   -3.9073711e-06
   3051616   4237   0   2    1.4882572e-06

DECAY 23  2.4952


DECAY 24  2.085


DECAY 2000011  6.3449242
    1   2    1000022    11

DECAY 1000011  2.7978024
    0.99999987   2    1000022    11

DECAY 2000013  6.3444815
    1   2    1000022    13

DECAY 1000013  2.8136498
    0.9943584   2    1000022    13
    0.0056415972   2    2000013    25

DECAY 1000015  6.4108289
    1   2    1000022    15

DECAY 2000015  5.0720767
    0.97479485   2    1000022    15
    0.025175096   2    1000015    23

DECAY 1000012  2.7941242
    0.99999927   2    1000022    12

DECAY 1000014  2.7940817
    0.99999927   2    1000022    14

DECAY 1000016  2.305507
    0.99918986   2    1000022    16
    0.00040510214   3    1000015   -4    3
    0.00040504318   3    1000015   -2    1

DECAY 2000001  49.938006
    0.97618914   2    1000021    1
    0.023810865   2    1000022    1

DECAY 1000001  292.44028
    0.94121426   2    1000021    1
    0.037745714   2   -1000024    2
    0.018882705   2    1000023    1
    0.0021560511   2    1000022    1

DECAY 2000003  49.938093
    0.97618916   2    1000021    3
    0.023810843   2    1000022    3

DECAY 1000003  292.44349
    0.94120369   2    1000021    3
    0.037745237   2   -1000024    4
    0.01888249   2    1000023    3
    0.0021560306   2    1000022    3

DECAY 1000005  44.23934
    0.97199958   2    1000021    5
    0.026135409   2    1000022    5
    0.0018650087   2    1000006   -24

DECAY 2000005  245.76404
    0.56213411   2    1000021    5
    0.39127439   2    1000006   -24
    0.030847048   2    1000005    25
    0.013902035   2    1000005    23
    0.0017334448   2    1000022    5
    0.00010897082   2    1000023    5

DECAY 2000002  225.62199
    0.96140933   2    1000021    2
    0.038590672   2    1000022    2

DECAY 1000002  292.39847
    0.94118563   2    1000021    2
    0.037775104   2    1000024    1
    0.01887901   2    1000023    2
    0.0021595382   2    1000022    2

DECAY 2000004  225.62198
    0.96140933   2    1000021    4
    0.03859067   2    1000022    4

DECAY 1000004  292.39834
    0.94118552   2    1000021    4
    0.037775113   2    1000024    3
    0.018878996   2    1000023    4
    0.0021595383   2    1000022    4

DECAY 1000006  1.3041711e-07
    1   2    1000022    4

DECAY 2000006  258.23974
    0.52718675   2    1000021    6
    0.2567666   2    1000006    25
    0.18701811   2    1000006    23
    0.027041829   2    1000005    24
    0.0017341916   2    1000022    6
    0.00025251147   2    1000024    5

DECAY 1000024  16.858455
    0.24556684   2    1000016   -15
    0.14013942   2   -2000015    16
    0.12551668   2    1000014   -13
    0.12550708   2    1000012   -11
    0.12488428   2   -1000013    14
    0.12487817   2   -1000011    12
    0.10607748   2   -1000015    16
    0.0039579958   2   -1000005    6
    0.0023218519   3    1000021   -5    6
    0.00065653558   2    1000006   -5
    0.00015368663   3    1000021   -3    4
    0.00015368643   3    1000021   -1    2
    0.00011584373   2    1000022    24

DECAY 1000037  223.01823
    0.60022232   2    1000006   -5
    0.13317111   2   -2000005    6
    0.08964006   2   -1000005    6
    0.036645292   2    2000006   -5
    0.031142978   2    1000024    25
    0.029290148   2    1000023    24
    0.027370347   2    1000024    23
    0.016237623   2    1000022    24
    0.012413507   2    1000016   -15
    0.0069523711   2   -1000015    16
    0.0056417298   2   -2000015    16
    0.0052060849   2    37    1000022
    0.0017310714   3    1000024    6   -6
    0.0017114802   3    1000022   -5    6
    0.0015665494   3    1000023   -5    6
    0.00065289879   3    1000021   -5    6

DECAY 1000022 -1


DECAY 1000023  16.888963
    0.12243047   2    1000016   -16
    0.12243047   2   -1000016    16
    0.070115389   2    2000015   -15
    0.070115389   2   -2000015    15
    0.062606769   2    1000014   -14
    0.062606769   2   -1000014    14
    0.062602068   2    1000012   -12
    0.062602068   2   -1000012    12
    0.062392099   2    1000013   -13
    0.062392099   2   -1000013    13
    0.062388911   2    1000011   -11
    0.062388911   2   -1000011    11
    0.052944185   2    1000015   -15
    0.052944185   2   -1000015    15
    0.0019393594   2    1000005   -5
    0.0019393594   2   -1000005    5
    0.0017434222   3    1000021    5   -5
    0.0012080765   3    1000021    6   -6
    0.00038703539   2    1000006   -6
    0.00038703539   2   -1000006    6
    0.0003865459   2    1000006   -4
    0.0003865459   2   -1000006    4
    0.00011006283   3    1000021    4   -4
    0.00011006269   3    1000021    2   -2
    0.00010997849   3    1000021    3   -3
    0.00010997836   3    1000021    1   -1

DECAY 1000025  228.83777
    0.29513729   2    1000006   -6
    0.29513729   2   -1000006    6
    0.063922318   2    2000006   -6
    0.063922318   2   -2000006    6
    0.042819893   2    1000005   -5
    0.042819893   2   -1000005    5
    0.033448014   2    1000023    25
    0.026644382   2    1000024   -24
    0.026644382   2   -1000024    24
    0.024616127   2    1000023    23
    0.017997133   2    2000005   -5
    0.017997133   2   -2000005    5
    0.0086311472   2    1000022    25
    0.0061143752   2    1000015   -15
    0.0061143752   2   -1000015    15
    0.0060255989   2    2000015   -15
    0.0060255989   2   -2000015    15
    0.0048347276   2    1000022    23
    0.0035384638   2    1000022    35
    0.0018205128   3    1000022    6   -6
    0.0015547728   2    1000022    36
    0.0012078915   3    1000024    5   -6
    0.0012078915   3   -1000024   -5    6
    0.00099944397   3    1000023    6   -6
    0.00065953718   3    1000021    6   -6

DECAY 1000035  223.53693
    0.30370257   2    1000006   -6
    0.30370257   2   -1000006    6
    0.065848416   2    2000006   -6
    0.065848416   2   -2000006    6
    0.043623321   2    1000005   -5
    0.043623321   2   -1000005    5
    0.03015706   2    1000023    25
    0.024598652   2    1000024   -24
    0.024598652   2   -1000024    24
    0.018528998   2    2000005   -5
    0.018528998   2   -2000005    5
    0.011247593   2    1000022    23
    0.0078089175   2    1000022    25
    0.0065338097   2    2000015   -15
    0.0065338097   2   -2000015    15
    0.0058872521   2    1000015   -15
    0.0058872521   2   -1000015    15
    0.0040891357   2    1000022    35
    0.0018495241   3    1000022    6   -6
    0.0015248229   3    1000024    5   -6
    0.0015248229   3   -1000024   -5    6
    0.0013989886   2    1000022    36
    0.00091614791   3    1000023    6   -6
    0.00088070641   2    1000023    23
    0.00068084007   3    1000021    6   -6

DECAY 1000021  35.542889
    0.49959976   2    1000006   -6
    0.49959976   2   -1000006    6
    0.00043043177   3    1000022    6   -6
    0.00017182195   2    1000006   -4
    0.00017182195   2   -1000006    4

DECAY 25  0.0036770605
    0.60006342   2   -5    5
    0.20146362   2   -24    24
    0.072370035   2    21    21
    0.068882313   2   -15    15
    0.029472618   2   -4    4
    0.023580598   2    23    23
    0.0023481252   2    22    22
    0.0013545349   2    22    23
    0.00023890214   2   -13    13
    0.00022505858   2   -3    3
    6.2226266e-07   2   -1    1
    1.5188446e-07   2   -2    2
    5.3708059e-09   2   -11    11

DECAY 35  23.814526
    0.7052144   2   -5    5
    0.1884043   2   -15    15
    0.10314225   2   -1000006    1000006
    0.0021912719   2   -6    6
    0.00066149288   2   -13    13
    0.00028666312   2   -3    3
    7.0577113e-05   2    25    25
    1.5235497e-05   2    1000022    1000022
    6.3883089e-06   2    21    21
    4.6974476e-06   2    23    23
    1.647534e-06   2   -24    24
    7.9252082e-07   2   -1    1
    9.7239781e-08   2   -4    4
    9.2473991e-08   2    22    22
    9.0112921e-08   2    22    23
    1.4857334e-08   2   -11    11
    5.0143201e-13   2   -2    2

DECAY 36  20.588604
    0.78744577   2   -5    5
    0.21034374   2   -15    15
    0.0010851983   2   -6    6
    0.00073851891   2   -13    13
    0.00032007104   2   -3    3
    3.2964365e-05   2    21    21
    2.4442533e-05   2    1000022    1000022
    8.2202713e-06   2    23    25
    8.8487797e-07   2   -1    1
    7.1707206e-08   2   -4    4
    5.960353e-08   2    22    22
    3.6742868e-08   2    22    23
    1.6587258e-08   2   -11    11
    3.6979436e-13   2   -2    2
    2.8790299e-36   2    25    25

DECAY 37  28.898387
    0.80161441   2   -5    6
    0.19624908   2   -15    16
    0.0011842663   2   -5    4
    0.00069381067   2   -13    14
    0.00022726248   2   -3    4
    1.0628755e-05   2   -3    2
    8.4568843e-06   2   -5    2
    5.8664341e-06   2    24    25
    5.3179047e-06   2   -3    6
    6.3014059e-07   2   -1    2
    2.2851929e-07   2   -1    6
    3.1482422e-08   2   -1    4
    1.6228304e-08   2   -11    12

DECAY 6  2.43
    1   2    5    24

DECAY 15 -1
