BLOCK SPINFO
   1   SPheno
   2   v4.0.5be

BLOCK SPHENOINFO
   1   2
   2   2

BLOCK MODSEL
   1   0

BLOCK MINPAR
   3    21.176892
   4    1

BLOCK EXTPAR
   0    1286.5971
   1   -243.81096
   2    1156.283
   3    3000
   11   -2359.6198
   12   -1189.1357
   13   -1410.4377
   23    242.61087
   25    20.470093
   26    1993.9074
   31    626.88911
   32    626.88911
   33    555.79421
   34    1101.7306
   35    1101.7306
   36    236.53582
   41    5000
   42    5000
   43    1401.7522
   44    5000
   45    5000
   46    1309.8913
   47    5000
   48    5000
   49    959.55858

BLOCK SMINPUTS
   1    127.90897
   2    1.1663787e-05
   3    0.1184
   4    91.1876
   5    4.18
   6    173.2
   7    1.777
   8    0
   11    0.00051099893
   12    0
   13    0.10565837
   14    0
   21    0.005
   22    0.0025
   23    0.095
   24    1.27

BLOCK GAUGE Q=  1286.5971
   1    0.35536298
   2    0.66519887
   3    1.219778

BLOCK YU Q=  1286.5971
   1   1    8.3943708e-06
   2   2    0.0042643404
   3   3    1.0141074

BLOCK YD Q=  1286.5971
   1   1    0.00034529334
   2   2    0.0065605735
   3   3    0.3424228

BLOCK YE Q=  1286.5971
   1   1    6.0256213e-05
   2   2    0.012459074
   3   3    0.20954112

BLOCK AU Q=  1286.5971
   1   1    0
   2   2    0
   3   3   -2359.6197

BLOCK AD Q=  1286.5971
   1   1    0
   2   2    0
   3   3   -1189.1357

BLOCK AE Q=  1286.5971
   1   1    0
   2   2    0
   3   3   -1410.4377

BLOCK MSOFT Q=  1286.5971
   1   -243.81096
   2    1156.283
   3    3000
   21    3906310.5
   22   -35464.685
   31    626.88911
   32    626.88911
   33    555.79421
   34    1101.7306
   35    1101.7306
   36    236.53582
   41    5000
   42    5000
   43    1401.7522
   44    5000
   45    5000
   46    1309.8913
   47    5000
   48    5000
   49    959.55858

BLOCK MASS
   6    173.2
   23    91.1876
   24    80.429995
   15    1.777
   25    121.4408
   35    1993.662
   36    1993.9074
   37    1995.7637
   1000001    5018.3729
   2000001    5009.4584
   1000002    5017.9293
   2000002    5010.9073
   1000003    5018.3746
   2000003    5009.4607
   1000004    5017.931
   2000004    5010.9084
   1000005    891.27729
   2000005    1358.329
   1000006    1150.4454
   2000006    1438.862
   1000011    643.42193
   2000011    1103.7069
   1000012    638.11503
   1000013    643.41848
   2000013    1103.7026
   1000014    638.11241
   1000015    239.87458
   2000015    573.34839
   1000016    566.97908
   1000021    3173.5658
   1000022   -217.00607
   1000023    245.11454
   1000025   -277.06239
   1000035    1196.4354
   1000024    245.43863
   1000037    1196.6166

BLOCK ALPHA
      -0.047450126

BLOCK HMIX Q=  1286.5971
   1    242.61087
   2    20.470093
   3    244.16497
   4    3975666.6

BLOCK STOPMIX
   1   1    0.53372991
   1   2    0.845655
   2   1   -0.845655
   2   2    0.53372991

BLOCK SBOTMIX
   1   1    0.013545767
   1   2    0.99990825
   2   1   -0.99990825
   2   2    0.013545767

BLOCK STAUMIX
   1   1    0.042993426
   1   2    0.99907535
   2   1   -0.99907535
   2   2    0.042993426

BLOCK NMIX
   1   1    0.72847955
   1   2    0.02416251
   1   3    0.51699375
   1   4    0.44883313
   2   1   -0.06688141
   2   2   -0.06224641
   2   3    0.70645515
   2   4   -0.70183573
   3   1   -0.68179142
   3   2    0.028690835
   3   3    0.48303866
   3   4    0.54864465
   4   1    0.0022097003
   4   2   -0.9973557
   4   3   -0.017670373
   4   4    0.070459078

BLOCK UMIX
   1   1   -0.025005835
   1   2    0.99968731
   2   1    0.99968731
   2   2    0.025005835

BLOCK VMIX
   1   1   -0.099788559
   1   2    0.99500866
   2   1    0.99500866
   2   2    0.099788559

BLOCK HIGGSBOUNDSINPUTHIGGSCOUPLINGSFERMIONS
       0, 419.02469,3,36,15,15

BLOCK HIGGSBOUNDSINPUTHIGGSCOUPLINGSBOSONS
       0,4,36,21,21,23

BLOCK SPHENOLOWENERGY
   1    0.00030084678
   2    1.5940534e-06
   3    3.5255158e-05
   4    2.6671016e-15
   5    1.1393548e-10
   6    2.3847596e-08
   7    8.9792389e-14
   8    3.8359259e-09
   9    8.1352346e-07
   10    9.6216942e-05
   11    0.99388417
   12    0.54312909
   13    19.403436
   14    0
   15    0
   16    0.0021618012
   17    2.2817045e-15
   18    2.4789725e-11
   19    8.2883459e-11
   20    4.2812042e-15
   21    1.8302721e-10
   22   -1.2244337e-07
   23    0
   24    0
   25    0
   26    0
   27    0
   28    0
   29    0
   30    0
   31    0
   39    7.0026222e-05
   40    0
   41    0
   42    0

BLOCK FWCOEF Q=  160
   305   4422   0   0   -0.18881911
   305   4422   0   2   -0.16220523
   305   4322   0   2   -2.7784851e-05
   305   6421   0   0   -0.095227835
   305   6421   0   2   -0.093518791
   305   6321   0   2   -0.00022649322
   3051111   4133   0   0    1.5863976
   3051111   4133   0   2    1.5885671
   3051111   4233   0   2    4.8511772e-05
   3051111   4137   0   0   -4.4090897
   3051111   4137   0   2   -4.4076429
   3051111   4237   0   2   -0.00037941393
   3051313   4133   0   0    1.5863976
   3051313   4133   0   2    1.5885654
   3051313   4233   0   2    4.8511586e-05
   3051313   4137   0   0   -4.4090897
   3051313   4137   0   2   -4.4076446
   3051313   4237   0   2   -0.00037941414
   3051212   4137   0   0    1.5053501
   3051212   4137   0   2    1.5050461
   3051212   4237   0   2    8.2779398e-05
   3051414   4137   0   0    1.5053501
   3051414   4137   0   2    1.5050461
   3051414   4237   0   2    8.2779419e-05
   3051616   4137   0   0    1.5053501
   3051616   4137   0   2    1.5050471
   3051616   4237   0   2    8.2785249e-05

BLOCK IMFWCOEF Q=  160
   305   4422   0   0    3.8583978e-07
   305   4422   0   2    1.4051218e-05
   305   4322   0   2    3.703562e-06
   305   6421   0   0    3.3049729e-07
   305   6421   0   2   -5.9721783e-07
   305   6321   0   2    1.238521e-06
   3051111   4133   0   2   -6.8671236e-08
   3051111   4233   0   2    1.2252912e-06
   3051111   4137   0   2    5.2510437e-07
   3051111   4237   0   2   -9.5981929e-06
   3051313   4133   0   2   -6.8693523e-08
   3051313   4233   0   2    1.2252896e-06
   3051313   4137   0   2    5.2508629e-07
   3051313   4237   0   2   -9.5981985e-06
   3051212   4137   0   2    5.2532624e-08
   3051212   4237   0   2    2.0942088e-06
   3051414   4137   0   2    5.253237e-08
   3051414   4237   0   2    2.0942088e-06
   3051616   4137   0   2    5.1391171e-08
   3051616   4237   0   2    2.0942064e-06

DECAY 23  2.4952


DECAY 24  2.085


DECAY 1000011  0.61403898
    0.61888802   2    1000022    11
    0.34454525   2    1000025    11
    0.032355287   2    1000023    11
    0.0042114275   2   -1000024    12

DECAY 2000011  5.0055126
    0.54337609   2    1000022    11
    0.45214481   2    1000025    11
    0.0044790837   2    1000023    11

DECAY 1000013  0.61548216
    0.61811464   2    1000022    13
    0.34422907   2    1000025    13
    0.033454769   2    1000023    13
    0.0042015148   2   -1000024    14

DECAY 2000013  5.0116967
    0.54287034   2    1000022    13
    0.45172474   2    1000025    13
    0.0047803978   2    1000023    13
    0.0006141092   2   -1000024    14

DECAY 1000015  0.022225635
    1   2    1000022    15

DECAY 2000015  0.94478358
    0.42725581   2    1000022    15
    0.26095687   2    1000025    15
    0.19220638   2    1000023    15
    0.061389335   2    1000015    23
    0.057724893   2    1000015    25
    0.00046669774   2   -1000024    16

DECAY 1000012  0.62023337
    0.47184142   2    1000022    12
    0.4603693   2    1000025    12
    0.065475439   2    1000024    11
    0.0023138362   2    1000023    12

DECAY 1000014  0.62165644
    0.47075836   2    1000022    14
    0.45931181   2    1000025    14
    0.06762131   2    1000024    13
    0.0023085234   2    1000023    14

DECAY 1000016  0.93937144
    0.38211671   2    1000024    15
    0.25783996   2    1000022    16
    0.23765246   2    1000025    16
    0.12115585   2    1000015    24
    0.0012350123   2    1000023    16

DECAY 2000001  144.49641
    0.98073862   2    1000021    1
    0.010232927   2    1000022    1
    0.0089420818   2    1000025    1

DECAY 1000001  202.29706
    0.70511082   2    1000021    1
    0.19412878   2   -1000037    2
    0.096691923   2    1000035    1
    0.0024450508   2    1000025    1
    0.0012121566   2    1000022    1
    0.0002753694   2    1000023    1
    0.00013589679   2   -1000024    2

DECAY 2000003  144.50517
    0.98068086   2    1000021    3
    0.010240192   2    1000022    3
    0.0089484113   2    1000025    3
    0.00010090265   2    1000023    3

DECAY 1000003  202.30334
    0.70508985   2    1000021    3
    0.19412292   2   -1000037    4
    0.096688971   2    1000035    3
    0.0024498891   2    1000025    3
    0.0012177592   2    1000022    3
    0.00028588164   2    1000023    3
    0.000144733   2   -1000024    4

DECAY 1000005  3.8098941
    0.42234993   2   -1000024    6
    0.23356478   2    1000023    5
    0.19332653   2    1000022    5
    0.15075876   2    1000025    5

DECAY 2000005  36.945668
    0.67202232   2   -1000024    6
    0.23243027   2    1000006   -24
    0.040378887   2    1000023    5
    0.02289717   2    1000022    5
    0.022307977   2    1000025    5
    0.0080998691   2    1000035    5
    0.0011277858   2    1000005    25
    0.0007357179   2    1000005    23

DECAY 2000002  153.00008
    0.927216   2    1000021    2
    0.038667926   2    1000022    2
    0.033790159   2    1000025    2
    0.00032559424   2    1000023    2

DECAY 1000002  202.29226
    0.70489911   2    1000021    2
    0.19229942   2    1000037    1
    0.096531154   2    1000035    2
    0.0025758323   2    1000022    2
    0.0021640692   2    1000024    1
    0.0009328809   2    1000025    2
    0.00059754223   2    1000023    2

DECAY 2000004  153.00373
    0.92719418   2    1000021    4
    0.038669398   2    1000022    4
    0.033792877   2    1000025    4
    0.00033139702   2    1000023    4

DECAY 1000004  202.29847
    0.70487805   2    1000021    4
    0.1922936   2    1000037    3
    0.09652827   2    1000035    4
    0.0025775513   2    1000022    4
    0.0021850679   2    1000024    3
    0.00093554023   2    1000025    4
    0.00060192023   2    1000023    4

DECAY 1000006  38.211965
    0.44890426   2    1000024    5
    0.25138277   2    1000023    6
    0.20468576   2    1000025    6
    0.094831461   2    1000022    6

DECAY 2000006  48.699746
    0.27830144   2    1000023    6
    0.17554476   2    1000024    5
    0.16958116   2    1000006    23
    0.16632014   2    1000022    6
    0.12903459   2    1000025    6
    0.050407897   2    1000006    25
    0.021060973   2    1000037    5
    0.0085090248   2    1000035    6
    0.0012350697   2    1000005    24

DECAY 1000024  0.00025100146
    0.86188235   2   -1000015    16
    0.046296598   3    1000022   -1    2
    0.045866864   3    1000022   -3    4
    0.015414308   3    1000022   -11    12
    0.015413629   3    1000022   -13    14
    0.015126246   3    1000022   -15    16

DECAY 1000037  27.835724
    0.11265973   2    1000016   -15
    0.11210737   2   -2000015    16
    0.096493587   2    1000023    24
    0.096123724   2    1000024    23
    0.095936968   2    1000014   -13
    0.095936345   2    1000012   -11
    0.095560298   2   -1000013    14
    0.095559465   2   -1000011    12
    0.094654045   2    1000024    25
    0.053039753   2    1000025    24
    0.044302442   2    1000022    24
    0.0024513979   3    1000024    6   -6
    0.0022967186   3    1000023   -5    6
    0.0011027171   3    1000025   -5    6
    0.00095724328   3    1000022   -5    6
    0.00052292384   2    1000006   -5
    0.00021488207   2   -1000015    16

DECAY 1000022 -1


DECAY 1000023  0.00019364572
    0.43307497   2    1000015   -15
    0.43307497   2   -1000015    15
    0.027220292   3    1000022    12   -12
    0.020366114   3    1000022    1   -1
    0.020363521   3    1000022    3   -3
    0.015978029   3    1000022    5   -5
    0.015883968   3    1000022    2   -2
    0.01546975   3    1000022    4   -4
    0.0050591576   2    1000022    22
    0.004582277   3    1000022    11   -11
    0.0045814168   3    1000022    13   -13
    0.0043455288   3    1000022    15   -15

DECAY 1000025  0.04237611
    0.49765782   2    1000015   -15
    0.49765782   2   -1000015    15
    0.00055153936   3    1000024    1   -2
    0.00055153936   3   -1000024   -1    2
    0.0005474919   3    1000024    3   -4
    0.0005474919   3   -1000024   -3    4
    0.0002770005   3    1000023    12   -12
    0.00020701661   3    1000023    1   -1
    0.00020699654   3    1000023    3   -3
    0.00018406053   3    1000024    11   -12
    0.00018406053   3   -1000024   -11    12
    0.00018405399   3    1000024    13   -14
    0.00018405399   3   -1000024   -13    14
    0.00017699453   3    1000024    15   -16
    0.00017699453   3   -1000024   -15    16
    0.00017231426   3    1000023    5   -5
    0.00016145281   3    1000023    2   -2
    0.00015822957   3    1000023    4   -4

DECAY 1000035  28.715794
    0.094253522   2    1000024   -24
    0.094253522   2   -1000024    24
    0.066977622   2    1000023    25
    0.054973343   2    1000016   -16
    0.054973343   2   -1000016    16
    0.053936893   2    2000015   -15
    0.053936893   2   -2000015    15
    0.046810279   2    1000014   -14
    0.046810279   2   -1000014    14
    0.046809974   2    1000012   -12
    0.046809974   2   -1000012    12
    0.045972647   2    1000013   -13
    0.045972647   2   -1000013    13
    0.045972247   2    1000011   -11
    0.045972247   2   -1000011    11
    0.038639632   2    1000025    23
    0.031817283   2    1000025    25
    0.030691862   2    1000022    23
    0.024566743   2    1000023    23
    0.024504257   2    1000022    25
    0.0018204477   3    1000024    5   -6
    0.0018204477   3   -1000024   -5    6
    0.00074488976   3    1000023    6   -6
    0.00035698974   3    1000025    6   -6
    0.00032806974   3    1000022    6   -6
    0.00010364782   2    1000015   -15
    0.00010364782   2   -1000015    15

DECAY 1000021  272.86564
    0.14603777   2    1000005   -5
    0.14603777   2   -1000005    5
    0.12182067   2    2000006   -6
    0.12182067   2   -2000006    6
    0.11506061   2    1000006   -6
    0.11506061   2   -1000006    6
    0.11485081   2    2000005   -5
    0.11485081   2   -2000005    5
    0.0011187677   2    1000006   -4
    0.0011187677   2   -1000006    4
    0.0010126188   3    1000037    5   -6
    0.0010126188   3   -1000037   -5    6

DECAY 25  0.0034842647
    0.62742049   2   -5    5
    0.17253215   2   -24    24
    0.074022098   2    21    21
    0.071824295   2   -15    15
    0.030769127   2   -4    4
    0.019439384   2    23    23
    0.0023120898   2    22    22
    0.0011951069   2    22    23
    0.00024901956   2   -13    13
    0.00023542813   2   -3    3
    6.5093478e-07   2   -1    1
    1.5857198e-07   2   -2    2
    5.5982852e-09   2   -11    11

DECAY 35  25.590785
    0.40020687   2   -5    5
    0.1310682   2   -1000024    1000037
    0.1310682   2   -1000037    1000024
    0.07487862   2   -15    15
    0.047929508   2    1000022    1000035
    0.04562288   2    1000023    1000035
    0.038245896   2    1000025    1000035
    0.022472864   2    1000025    1000025
    0.022382077   2    1000022    1000022
    0.021038521   2    1000023    1000025
    0.019449277   2    1000022    1000023
    0.015432416   2   -2000015    1000015
    0.015432416   2   -1000015    2000015
    0.006742639   2   -6    6
    0.0060306791   2   -1000024    1000024
    0.0010494428   2    1000022    1000025
    0.00025986046   2   -13    13
    0.0002299531   2    1000023    1000023
    0.00015250252   2   -1000015    1000015
    0.00015216243   2   -3    3
    0.00010470981   2   -2000015    2000015
    2.3851253e-05   2    25    25
    6.837654e-06   2    21    21
    5.1551546e-06   2    23    23
    2.7454671e-06   2   -24    24
    9.1333367e-07   2   -1000011    1000011
    9.1120861e-07   2   -1000013    1000013
    4.2067829e-07   2   -1    1
    1.2211328e-07   2    22    23
    9.697423e-08   2   -4    4
    7.1422167e-08   2    22    22
    5.8370501e-09   2   -11    11
    1.9951075e-09   2   -2000013    1000013
    1.9951075e-09   2   -1000013    2000013
    4.9993147e-13   2   -2    2
    4.6665847e-14   2   -2000011    1000011
    4.6665847e-14   2   -1000011    2000011

DECAY 36  25.218652
    0.39399621   2   -5    5
    0.13260037   2   -1000024    1000037
    0.13260037   2   -1000037    1000024
    0.087077965   2    1000023    1000035
    0.07371503   2   -15    15
    0.027430353   2    1000022    1000035
    0.024549943   2    1000023    1000025
    0.022099021   2    1000022    1000023
    0.020171603   2    1000022    1000022
    0.019863415   2    1000025    1000025
    0.019041876   2    1000025    1000035
    0.015790195   2   -2000015    1000015
    0.015790195   2   -1000015    2000015
    0.0068178673   2   -1000024    1000024
    0.0066200686   2   -6    6
    0.0010961424   2    1000022    1000025
    0.00029921233   2    1000023    1000023
    0.00025582099   2   -13    13
    0.00014979859   2   -3    3
    2.6465051e-05   2    21    21
    7.0589753e-06   2    23    25
    4.1414201e-07   2   -1    1
    2.9197247e-07   2    22    23
    2.1356351e-07   2    22    22
    9.2375518e-08   2   -4    4
    5.7463275e-09   2   -11    11
    1.9939054e-09   2   -2000013    1000013
    1.9939054e-09   2   -1000013    2000013
    4.7625082e-13   2   -2    2
    4.6637648e-14   2   -2000011    1000011
    4.6637648e-14   2   -1000011    2000011
    1.4212836e-37   2    25    25

DECAY 37  25.360918
    0.40703529   2   -5    6
    0.13434093   2    1000023    1000037
    0.13302397   2    1000024    1000035
    0.075788845   2    1000022    1000037
    0.070577039   2   -15    16
    0.057597519   2    1000025    1000037
    0.053656977   2    1000022    1000024
    0.033889129   2    1000024    1000025
    0.031406851   2   -1000015    1000016
    0.001625978   2    1000023    1000024
    0.00059522024   2   -5    4
    0.00024951525   2   -13    14
    0.00014009502   2   -3    4
    3.629309e-05   2   -2000015    1000016
    1.0416138e-05   2   -3    6
    7.0491935e-06   2    24    25
    6.5259121e-06   2   -3    2
    4.2504878e-06   2   -5    2
    3.6122699e-06   2   -1000011    1000012
    3.6092633e-06   2   -1000013    1000014
    4.6835071e-07   2   -1    6
    3.8843217e-07   2   -1    2
    2.237005e-08   2   -1    4
    5.8361876e-09   2   -11    12
    4.1331443e-09   2   -2000013    1000014
    2.1996169e-12   2    24    35
    1.1826163e-12   2    24    36
    9.667591e-14   2   -2000011    1000012

DECAY 6  2.43
    1   2    5    24

DECAY 15 -1
