# SUSY Les Houches Accord 2 - MSSM spectrum + Decays
# SPheno v4.0.5be
# W. Porod, Comput. Phys. Commun. 153 (2003) 275-315, hep-ph/0301101;
# W. Porod, F.~Staub, Comput. Phys. Commun. 183 (2012) 2458
#                     arXiv:1104.1573 [hep-ph] 
# in case of problems send email to porod@physik.uni-wuerzburg.de
# Created: 20.12.2022,  15:47
Block SPINFO         # Program information
     1   SPheno      # spectrum calculator
     2   v4.0.5be    # version number
#
Block SPhenoINFO     # SPheno specific information
    1      2         # using 2-loop RGEs
    2      2         # using pole masses for boundary conditions at mZ
Block MODSEL  # Model selection
    1    0    # general MSSM
Block MINPAR  # Input parameters
    3    4.99744008E+01  # tanb at m_Z    
    4    1.00000000E+00  # Sign(mu)
Block EXTPAR  # non-universal input parameters
    0    2.94054905E+03  # scale for input parameters
    1   -1.91516759E+03  # M_1
    2    6.46609109E+02  # M_2
    3    4.12112764E+03  # M_3
   11   -6.48712482E+03  # A_t
   12   -1.62180578E+03  # A_b
   13    5.09094825E+02  # A_tau
   23    3.10474167E+02  # mu
   25    4.94538774E+01  # tan(beta)
   26    4.15497271E+03  # m_A, pole mass
   31    1.00000000E+04  # M_L11
   32    1.00000000E+04  # M_L22
   33    1.00000000E+04  # M_L33
   34    1.00000000E+04  # M_E11
   35    1.00000000E+04  # M_E22
   36    1.00000000E+04  # M_E33
   41    1.00000000E+04  # M_Q11
   42    1.00000000E+04  # M_Q22
   43    3.86367608E+03  # M_Q33
   44    1.00000000E+04  # M_U11
   45    1.00000000E+04  # M_U22
   46    2.19488132E+03  # M_U33
   47    1.00000000E+04  # M_D11
   48    1.00000000E+04  # M_D22
   49    3.43550399E+03  # M_D33
Block SMINPUTS  # SM parameters
         1     1.27908970E+02  # alpha_em^-1(MZ)^MSbar
         2     1.16637870E-05  # G_mu [GeV^-2]
         3     1.18400000E-01  # alpha_s(MZ)^MSbar
         4     9.11876000E+01  # m_Z(pole)
         5     4.18000000E+00  # m_b(m_b), MSbar
         6     1.73200000E+02  # m_t(pole)
         7     1.77700000E+00  # m_tau(pole)
         8     0.00000000E+00  # m_nu_3
        11     5.10998930E-04  # m_e(pole)
        12     0.00000000E+00  # m_nu_1
        13     1.05658372E-01  # m_muon(pole)
        14     0.00000000E+00  # m_nu_2
        21     5.00000000E-03  # m_d(2 GeV), MSbar
        22     2.50000000E-03  # m_u(2 GeV), MSbar
        23     9.50000000E-02  # m_s(2 GeV), MSbar
        24     1.27000000E+00  # m_c(m_c), MSbar
Block gauge Q=  2.94054905E+03  # (SUSY scale)
   1    3.55362975E-01  # g'(Q)^DRbar
   2    6.65198874E-01  # g(Q)^DRbar
   3    1.21977796E+00  # g3(Q)^DRbar
Block Yu Q=  2.94054905E+03  # (SUSY scale)
  1  1     8.38608607E-06   # Y_u(Q)^DRbar
  2  2     4.26013173E-03   # Y_c(Q)^DRbar
  3  3     1.01310656E+00   # Y_t(Q)^DRbar
Block Yd Q=  2.94054905E+03  # (SUSY scale)
  1  1     8.33373931E-04   # Y_d(Q)^DRbar
  2  2     1.58341047E-02   # Y_s(Q)^DRbar
  3  3     8.26445798E-01   # Y_b(Q)^DRbar
Block Ye Q=  2.94054905E+03  # (SUSY scale)
  1  1     1.45429845E-04   # Y_e(Q)^DRbar
  2  2     3.00702795E-02   # Y_mu(Q)^DRbar
  3  3     5.05732634E-01   # Y_tau(Q)^DRbar
Block Au Q=  2.94054905E+03  # (SUSY scale)
  1  1     0.00000000E+00   # A_u(Q)^DRbar
  2  2     0.00000000E+00   # A_c(Q)^DRbar
  3  3    -6.48712501E+03   # A_t(Q)^DRbar
Block Ad Q=  2.94054905E+03  # (SUSY scale)
  1  1     0.00000000E+00   # A_d(Q)^DRbar
  2  2     0.00000000E+00   # A_s(Q)^DRbar
  3  3    -1.62180558E+03   # A_b(Q)^DRbar
Block Ae Q=  2.94054905E+03  # (SUSY scale)
  1  1     0.00000000E+00   # A_e(Q)^DRbar
  2  2     0.00000000E+00   # A_mu(Q)^DRbar
  3  3     5.09094828E+02   # A_tau(Q)^DRbar
Block MSOFT Q=  2.94054905E+03  # soft SUSY breaking masses at Q
   1   -1.91516759E+03  # M_1
   2    6.46609109E+02  # M_2
   3    4.12112764E+03  # M_3
  21    1.69453065E+07  # M^2_(H,d)
  22   -3.42636090E+03  # M^2_(H,u)
  31    1.00000000E+04  # M_(L,11)
  32    1.00000000E+04  # M_(L,22)
  33    1.00000000E+04  # M_(L,33)
  34    1.00000000E+04  # M_(E,11)
  35    1.00000000E+04  # M_(E,22)
  36    1.00000000E+04  # M_(E,33)
  41    1.00000000E+04  # M_(Q,11)
  42    1.00000000E+04  # M_(Q,22)
  43    3.86367608E+03  # M_(Q,33)
  44    1.00000000E+04  # M_(U,11)
  45    1.00000000E+04  # M_(U,22)
  46    2.19488132E+03  # M_(U,33)
  47    1.00000000E+04  # M_(D,11)
  48    1.00000000E+04  # M_(D,22)
  49    3.43550399E+03  # M_(D,33)
Block MASS  # Mass spectrum
#   PDG code      mass          particle
         6     1.73200000E+02  # m_t(pole)
        23     9.11876000E+01  # m_Z(pole)
        24     8.04299946E+01  # W+
        15     1.77700000E+00  # m_tau(pole)
        25     1.27701138E+02  # h0
        35     4.15265242E+03  # H0
        36     4.15497271E+03  # A0
        37     4.15261438E+03  # H+
   1000001     1.00837800E+04  # ~d_L
   2000001     1.00596224E+04  # ~d_R
   1000002     1.00835070E+04  # ~u_L
   2000002     1.00624407E+04  # ~u_R
   1000003     1.00837920E+04  # ~s_L
   2000003     1.00596437E+04  # ~s_R
   1000004     1.00835189E+04  # ~c_L
   2000004     1.00624423E+04  # ~c_R
   1000005     3.52078488E+03  # ~b_1
   2000005     3.89859317E+03  # ~b_2
   1000006     2.21070506E+03  # ~t_1
   2000006     3.91134433E+03  # ~t_2
   1000011     1.00209746E+04  # ~e_L-
   2000011     1.00079294E+04  # ~e_R-
   1000012     1.00202138E+04  # ~nu_eL
   1000013     1.00210311E+04  # ~mu_L-
   2000013     1.00080381E+04  # ~mu_R-
   1000014     1.00202697E+04  # ~nu_muL
   1000015     1.00361656E+04  # ~tau_1-
   2000015     1.00395056E+04  # ~tau_2-
   1000016     1.00360809E+04  # ~nu_tauL
   1000021     4.54373574E+03  # ~g
   1000022     3.01654421E+02  # ~chi_10
   1000023     3.12093358E+02  # ~chi_20
   1000025     7.15602477E+02  # ~chi_30
   1000035     1.93644325E+03  # ~chi_40
   1000024     3.04243757E+02  # ~chi_1+
   1000037     7.15620413E+02  # ~chi_2+
# Higgs mixing
Block alpha # Effective Higgs mixing angle
          -2.00388281E-02   # alpha
Block Hmix Q=  2.94054905E+03  # Higgs mixing parameters
   1    3.10474167E+02  # mu
   2    4.94538774E+01  # tan[beta](Q)
   3    2.43244656E+02  # v(Q)
   4    1.72637982E+07  # m^2_A(Q)
Block stopmix # stop mixing matrix
   1  1     8.92365448E-02   # Re[R_st(1,1)]
   1  2     9.96010461E-01   # Re[R_st(1,2)]
   2  1    -9.96010461E-01   # Re[R_st(2,1)]
   2  2     8.92365448E-02   # Re[R_st(2,2)]
Block sbotmix # sbottom mixing matrix
   1  1     1.48326530E-02   # Re[R_sb(1,1)]
   1  2     9.99889990E-01   # Re[R_sb(1,2)]
   2  1    -9.99889990E-01   # Re[R_sb(2,1)]
   2  2     1.48326530E-02   # Re[R_sb(2,2)]
Block staumix # stau mixing matrix
   1  1     8.96577310E-01   # Re[R_sta(1,1)]
   1  2     4.42887262E-01   # Re[R_sta(1,2)]
   2  1    -4.42887262E-01   # Re[R_sta(2,1)]
   2  2     8.96577310E-01   # Re[R_sta(2,2)]
Block Nmix # neutralino mixing matrix
   1  1     1.40098289E-02   # Re[N(1,1)]
   1  2     1.42899087E-01   # Re[N(1,2)]
   1  3    -7.08462284E-01   # Re[N(1,3)]
   1  4     6.90988255E-01   # Re[N(1,4)]
   2  1    -1.89692739E-02   # Re[N(2,1)]
   2  2    -5.51248136E-02   # Re[N(2,2)]
   2  3    -7.02902480E-01   # Re[N(2,3)]
   2  4    -7.08893169E-01   # Re[N(2,4)]
   3  1     2.37519961E-03   # Re[N(3,1)]
   3  2    -9.88200696E-01   # Re[N(3,2)]
   3  3    -6.32350918E-02   # Re[N(3,3)]
   3  4     1.39481420E-01   # Re[N(3,4)]
   4  1     9.99719085E-01   # Re[N(4,1)]
   4  2    -7.00692366E-04   # Re[N(4,2)]
   4  3    -3.25883374E-03   # Re[N(4,3)]
   4  4    -2.34657040E-02   # Re[N(4,4)]
Block Umix # chargino mixing matrix
   1  1    -8.99803553E-02   # Re[U(1,1)]
   1  2     9.95943540E-01   # Re[U(1,2)]
   2  1     9.95943540E-01   # Re[U(2,1)]
   2  2     8.99803553E-02   # Re[U(2,2)]
Block Vmix # chargino mixing matrix
   1  1    -1.98597594E-01   # Re[V(1,1)]
   1  2     9.80081117E-01   # Re[V(1,2)]
   2  1     9.80081117E-01   # Re[V(2,1)]
   2  2     1.98597594E-01   # Re[V(2,2)]
DECAY        23     2.49520000E+00   # Z
DECAY        24     2.08500000E+00   # W
DECAY   2000011     4.65933996E+01   # ~e^-_R
#    BR                NDA      ID1      ID2
     2.11491783E-04    2     1000022        11   # BR(~e^-_R -> chi^0_1 e^-)
     3.87641780E-04    2     1000023        11   # BR(~e^-_R -> chi^0_2 e^-)
     9.99394749E-01    2     1000035        11   # BR(~e^-_R -> chi^0_4 e^-)
DECAY   1000011     1.42660312E+02   # ~e^-_L
#    BR                NDA      ID1      ID2
     6.97948536E-03    2     1000022        11   # BR(~e^-_L -> chi^0_1 e^-)
     1.31415703E-03    2     1000023        11   # BR(~e^-_L -> chi^0_2 e^-)
     2.98087379E-01    2     1000025        11   # BR(~e^-_L -> chi^0_3 e^-)
     8.15101334E-02    2     1000035        11   # BR(~e^-_L -> chi^0_4 e^-)
     4.99728761E-03    2    -1000024        12   # BR(~e^-_L -> chi^-_1 nu_e)
     6.07111557E-01    2    -1000037        12   # BR(~e^-_L -> chi^-_2 nu_e)
#    BR                NDA      ID1      ID2       ID3
DECAY   2000013     4.69533543E+01   # ~mu^-_R
#    BR                NDA      ID1      ID2
     2.13084648E-03    2     1000022        13   # BR(~mu^-_R -> chi^0_1 mu^-)
     2.27537177E-03    2     1000023        13   # BR(~mu^-_R -> chi^0_2 mu^-)
     9.91745657E-01    2     1000035        13   # BR(~mu^-_R -> chi^0_4 mu^-)
     3.79624084E-03    2    -1000024        14   # BR(~mu^-_R -> chi^-_1 nu_mu)
DECAY   1000013     1.42841061E+02   # ~mu^-_L
#    BR                NDA      ID1      ID2
     7.60295710E-03    2     1000022        13   # BR(~mu^-_L -> chi^0_1 mu^-)
     1.93480520E-03    2     1000023        13   # BR(~mu^-_L -> chi^0_2 mu^-)
     2.97716895E-01    2     1000025        13   # BR(~mu^-_L -> chi^0_3 mu^-)
     8.14075340E-02    2     1000035        13   # BR(~mu^-_L -> chi^0_4 mu^-)
     4.99099236E-03    2    -1000024        14   # BR(~mu^-_L -> chi^-_1 nu_mu)
     6.06346816E-01    2    -1000037        14   # BR(~mu^-_L -> chi^-_2 nu_mu)
#    BR                NDA      ID1      ID2       ID3
DECAY   1000015     1.85058512E+02   # ~tau^-_1
#    BR                NDA      ID1      ID2
     1.62113865E-01    2     1000022        15   # BR(~tau^-_1 -> chi^0_1 tau^-)
     1.30476146E-01    2     1000023        15   # BR(~tau^-_1 -> chi^0_2 tau^-)
     1.73474770E-01    2     1000025        15   # BR(~tau^-_1 -> chi^0_3 tau^-)
     9.97961753E-02    2     1000035        15   # BR(~tau^-_1 -> chi^0_4 tau^-)
     8.24763278E-02    2    -1000024        16   # BR(~tau^-_1 -> chi^-_1 nu_tau)
     3.51662715E-01    2    -1000037        16   # BR(~tau^-_1 -> chi^-_2 nu_tau)
#    BR                NDA      ID1      ID2       ID3
DECAY   2000015     1.57534200E+02   # ~tau^-_2
#    BR                NDA      ID1      ID2
     1.40821415E-01    2     1000022        15   # BR(~tau^-_2 -> chi^0_1 tau^-)
     1.67791824E-01    2     1000023        15   # BR(~tau^-_2 -> chi^0_2 tau^-)
     6.91686433E-02    2     1000025        15   # BR(~tau^-_2 -> chi^0_3 tau^-)
     2.53366096E-01    2     1000035        15   # BR(~tau^-_2 -> chi^0_4 tau^-)
     2.28671063E-01    2    -1000024        16   # BR(~tau^-_2 -> chi^-_1 nu_tau)
     1.40180960E-01    2    -1000037        16   # BR(~tau^-_2 -> chi^-_2 nu_tau)
#    BR                NDA      ID1      ID2       ID3
DECAY   1000012     1.42665622E+02   # ~nu_e
#    BR                NDA      ID1      ID2
     5.65855044E-03    2     1000022        12   # BR(~nu_e -> chi^0_1 nu_e)
     6.24553679E-04    2     1000023        12   # BR(~nu_e -> chi^0_2 nu_e)
     2.99587967E-01    2     1000025        12   # BR(~nu_e -> chi^0_3 nu_e)
     8.19287822E-02    2     1000035        12   # BR(~nu_e -> chi^0_4 nu_e)
     2.43409859E-02    2     1000024        11   # BR(~nu_e -> chi^+_1 e^-)
     5.87859161E-01    2     1000037        11   # BR(~nu_e -> chi^+_2 e^-)
#    BR                NDA      ID1      ID2       ID3
DECAY   1000014     1.42846348E+02   # ~nu_mu
#    BR                NDA      ID1      ID2
     5.65142302E-03    2     1000022        14   # BR(~nu_mu -> chi^0_1 nu_mu)
     6.23767002E-04    2     1000023        14   # BR(~nu_mu -> chi^0_2 nu_mu)
     2.99210638E-01    2     1000025        14   # BR(~nu_mu -> chi^0_3 nu_mu)
     8.18256552E-02    2     1000035        14   # BR(~nu_mu -> chi^0_4 nu_mu)
     2.55596387E-02    2     1000024        13   # BR(~nu_mu -> chi^+_1 mu^-)
     5.87128878E-01    2     1000037        13   # BR(~nu_mu -> chi^+_2 mu^-)
#    BR                NDA      ID1      ID2       ID3
DECAY   1000016     1.93867806E+02   # ~nu_tau
#    BR                NDA      ID1      ID2
     4.17069553E-03    2     1000022        16   # BR(~nu_tau -> chi^0_1 nu_tau)
     4.60334200E-04    2     1000023        16   # BR(~nu_tau -> chi^0_2 nu_tau)
     2.20820424E-01    2     1000025        16   # BR(~nu_tau -> chi^0_3 nu_tau)
     6.04009497E-02    2     1000035        16   # BR(~nu_tau -> chi^0_4 nu_tau)
     2.78735562E-01    2     1000024        15   # BR(~nu_tau -> chi^+_1 tau^-)
     4.35412035E-01    2     1000037        15   # BR(~nu_tau -> chi^+_2 tau^-)
DECAY   2000001     5.08304998E+02   # ~d_R
#    BR                NDA      ID1      ID2
     1.02394885E-02    2     1000035         1   # BR(~d_R -> chi^0_4 d)
     9.89753771E-01    2     1000021         1   # BR(~d_R -> ~g d)
DECAY   1000001     6.38676204E+02   # ~d_L
#    BR                NDA      ID1      ID2
     1.36761453E-03    2     1000022         1   # BR(~d_L -> chi^0_1 d)
     1.85837485E-04    2     1000023         1   # BR(~d_L -> chi^0_2 d)
     6.72391802E-02    2     1000025         1   # BR(~d_L -> chi^0_3 d)
     2.05909108E-03    2     1000035         1   # BR(~d_L -> chi^0_4 d)
     1.12325960E-03    2    -1000024         2   # BR(~d_L -> chi^-_1 u)
     1.36477048E-01    2    -1000037         2   # BR(~d_L -> chi^-_2 u)
     7.91547969E-01    2     1000021         1   # BR(~d_L -> ~g d)
DECAY   2000003     5.08407053E+02   # ~s_R
#    BR                NDA      ID1      ID2
     1.02374592E-02    2     1000035         3   # BR(~s_R -> chi^0_4 s)
     9.89559336E-01    2     1000021         3   # BR(~s_R -> ~g s)
DECAY   1000003     6.38731276E+02   # ~s_L
#    BR                NDA      ID1      ID2
     1.40684120E-03    2     1000022         3   # BR(~s_L -> chi^0_1 s)
     2.24545536E-04    2     1000023         3   # BR(~s_L -> chi^0_2 s)
     6.72337761E-02    2     1000025         3   # BR(~s_L -> chi^0_3 s)
     2.05891716E-03    2     1000035         3   # BR(~s_L -> chi^0_4 s)
     1.12862802E-03    2    -1000024         4   # BR(~s_L -> chi^-_1 c)
     1.36465671E-01    2    -1000037         4   # BR(~s_L -> chi^-_2 c)
     7.91481621E-01    2     1000021         3   # BR(~s_L -> ~g s)
DECAY   1000005     9.49538311E+01   # ~b_1
#    BR                NDA      ID1      ID2
     2.49990629E-01    2     1000022         5   # BR(~b_1 -> chi^0_1 b)
     2.44772431E-01    2     1000023         5   # BR(~b_1 -> chi^0_2 b)
     1.39485895E-03    2     1000025         5   # BR(~b_1 -> chi^0_3 b)
     1.00593590E-02    2     1000035         5   # BR(~b_1 -> chi^0_4 b)
     4.90852904E-01    2    -1000024         6   # BR(~b_1 -> chi^-_1 t)
     2.80876694E-03    2    -1000037         6   # BR(~b_1 -> chi^-_2 t)
     1.21050575E-04    2     1000006       -24   # BR(~b_1 -> ~t_1 W^-)
DECAY   2000005     2.78923615E+02   # ~b_2
#    BR                NDA      ID1      ID2
     9.50794886E-02    2     1000022         5   # BR(~b_2 -> chi^0_1 b)
     9.29019795E-02    2     1000023         5   # BR(~b_2 -> chi^0_2 b)
     5.70352844E-02    2     1000025         5   # BR(~b_2 -> chi^0_3 b)
     1.12033596E-03    2     1000035         5   # BR(~b_2 -> chi^0_4 b)
     2.70117880E-01    2    -1000024         6   # BR(~b_2 -> chi^-_1 t)
     1.25464250E-01    2    -1000037         6   # BR(~b_2 -> chi^-_2 t)
     3.58062735E-01    2     1000006       -24   # BR(~b_2 -> ~t_1 W^-)
     1.26931275E-04    2     1000005        25   # BR(~b_2 -> ~b_1 h^0)
DECAY   2000002     5.24220690E+02   # ~u_R
#    BR                NDA      ID1      ID2
     3.97272819E-02    2     1000035         2   # BR(~u_R -> chi^0_4 u)
     9.60248685E-01    2     1000021         2   # BR(~u_R -> ~g u)
DECAY   1000002     6.38669953E+02   # ~u_L
#    BR                NDA      ID1      ID2
     1.46640107E-03    2     1000022         2   # BR(~u_L -> chi^0_1 u)
     2.37387713E-04    2     1000023         2   # BR(~u_L -> chi^0_2 u)
     6.71229644E-02    2     1000025         2   # BR(~u_L -> chi^0_3 u)
     2.02688338E-03    2     1000035         2   # BR(~u_L -> chi^0_4 u)
     5.47195197E-03    2     1000024         1   # BR(~u_L -> chi^+_1 d)
     1.32161965E-01    2     1000037         1   # BR(~u_L -> chi^+_2 d)
     7.91512447E-01    2     1000021         2   # BR(~u_L -> ~g u)
DECAY   2000004     5.24228075E+02   # ~c_R
#    BR                NDA      ID1      ID2
     3.97267301E-02    2     1000035         4   # BR(~c_R -> chi^0_4 c)
     9.60235409E-01    2     1000021         4   # BR(~c_R -> ~g c)
DECAY   1000004     6.38724982E+02   # ~c_L
#    BR                NDA      ID1      ID2
     1.46899203E-03    2     1000022         4   # BR(~c_L -> chi^0_1 c)
     2.40226001E-04    2     1000023         4   # BR(~c_L -> chi^0_2 c)
     6.71173728E-02    2     1000025         4   # BR(~c_L -> chi^0_3 c)
     2.02671461E-03    2     1000035         4   # BR(~c_L -> chi^0_4 c)
     5.54923320E-03    2     1000024         3   # BR(~c_L -> chi^+_1 s)
     1.32151369E-01    2     1000037         3   # BR(~c_L -> chi^+_2 s)
     7.91446092E-01    2     1000021         4   # BR(~c_L -> ~g c)
DECAY   1000006     8.61689730E+01   # ~t_1
#    BR                NDA      ID1      ID2
     2.40843536E-01    2     1000022         6   # BR(~t_1 -> chi^0_1 t)
     2.50059872E-01    2     1000023         6   # BR(~t_1 -> chi^0_2 t)
     3.97274048E-03    2     1000025         6   # BR(~t_1 -> chi^0_3 t)
     2.21666759E-03    2     1000035         6   # BR(~t_1 -> chi^0_4 t)
     4.94596196E-01    2     1000024         5   # BR(~t_1 -> chi^+_1 b)
     8.29027966E-03    2     1000037         5   # BR(~t_1 -> chi^+_2 b)
#    BR                NDA      ID1      ID2       ID3
DECAY   2000006     3.02308261E+02   # ~t_2
#    BR                NDA      ID1      ID2
     1.23304043E-01    2     1000022         6   # BR(~t_2 -> chi^0_1 t)
     1.30158324E-01    2     1000023         6   # BR(~t_2 -> chi^0_2 t)
     5.93969431E-02    2     1000025         6   # BR(~t_2 -> chi^0_3 t)
     1.05395570E-03    2     1000035         6   # BR(~t_2 -> chi^0_4 t)
     1.71373487E-01    2     1000024         5   # BR(~t_2 -> chi^+_1 b)
     1.08401325E-01    2     1000037         5   # BR(~t_2 -> chi^+_2 b)
     1.88104477E-04    2     1000005        24   # BR(~t_2 -> ~b_1 W^+)
     1.66889546E-01    2     1000006        23   # BR(~t_2 -> ~t_1 Z)
     2.39234272E-01    2     1000006        25   # BR(~t_2 -> ~t_1 h^0)
DECAY   1000024     1.12197518E-10   # chi^+_1
#    BR                NDA      ID1      ID2       ID3
     5.01882287E-01    3     1000022        -1         2   # BR(chi^+_1 -> chi^0_1 d_bar u)
     1.52179950E-01    3     1000022        -3         4   # BR(chi^+_1 -> chi^0_1 s_bar c)
     1.67294175E-01    3     1000022       -11        12   # BR(chi^+_1 -> chi^0_1 e^+ nu_e)
     1.65914049E-01    3     1000022       -13        14   # BR(chi^+_1 -> chi^0_1 mu^+ nu_mu)
     1.27295398E-02    3     1000022       -15        16   # BR(chi^+_1 -> chi^0_1 tau^+ nu_tau)
DECAY   1000037     6.00906095E+00   # chi^+_2
#    BR                NDA      ID1      ID2
     2.51690409E-01    2     1000022        24   # BR(chi^+_2 -> chi^0_1 W^+)
     2.73918537E-01    2     1000023        24   # BR(chi^+_2 -> chi^0_2 W^+)
     2.49518905E-01    2     1000024        23   # BR(chi^+_2 -> chi^+_1 Z)
     2.21988889E-01    2     1000024        25   # BR(chi^+_2 -> chi^+_1 h^0)
#    BR                NDA      ID1      ID2       ID3
     1.84638974E-04    3     1000024         6        -6   # BR(chi^+_2 -> chi^+_1 t t_bar)
     1.36692724E-03    3     1000022        -5         6   # BR(chi^+_2 -> chi^0_1 b_bar t)
     1.33111504E-03    3     1000023        -5         6   # BR(chi^+_2 -> chi^0_2 b_bar t)
DECAY   1000022     0.00000000E+00   # chi^0_1
DECAY   1000023     7.56189896E-07   # chi^0_2
#    BR                NDA      ID1      ID2
     2.57815406E-01    2     1000022        22   # BR(chi^0_2 -> chi^0_1 photon)
#    BR                NDA      ID1      ID2       ID3
     6.35094247E-02    3     1000022         2        -2   # BR(chi^0_2 -> chi^0_1 u u_bar)
     5.21203729E-02    3     1000022         4        -4   # BR(chi^0_2 -> chi^0_1 c c_bar)
     8.14316187E-02    3     1000022         1        -1   # BR(chi^0_2 -> chi^0_1 d d_bar)
     8.13533939E-02    3     1000022         3        -3   # BR(chi^0_2 -> chi^0_1 s s_bar)
     6.68657891E-03    3     1000022         5        -5   # BR(chi^0_2 -> chi^0_1 b b_bar)
     1.83767965E-02    3     1000022        11       -11   # BR(chi^0_2 -> chi^0_1 e^- e^+)
     1.83489969E-02    3     1000022        13       -13   # BR(chi^0_2 -> chi^0_1 mu^- mu^+)
     1.19766459E-02    3     1000022        15       -15   # BR(chi^0_2 -> chi^0_1 tau^- tau^+)
     1.08897648E-01    3     1000022        12       -12   # BR(chi^0_2 -> chi^0_1 nu_e nu_bar_e)
     5.33295782E-02    3     1000024         1        -2   # BR(chi^0_2 -> chi^+_1 d u_bar)
     5.33295782E-02    3    -1000024        -1         2   # BR(chi^0_2 -> chi^-_1 d_bar u)
     4.69612333E-02    3     1000024         3        -4   # BR(chi^0_2 -> chi^+_1 s c_bar)
     4.69612333E-02    3    -1000024        -3         4   # BR(chi^0_2 -> chi^-_1 s_bar c)
     1.77765217E-02    3     1000024        11       -12   # BR(chi^0_2 -> chi^+_1 e^- nu_bar_e)
     1.77765217E-02    3    -1000024       -11        12   # BR(chi^0_2 -> chi^-_1 e^+ nu_e)
     1.77605257E-02    3     1000024        13       -14   # BR(chi^0_2 -> chi^+_1 mu^- nu_bar_mu)
     1.77605257E-02    3    -1000024       -13        14   # BR(chi^0_2 -> chi^-_1 mu^+ nu_mu)
     1.39136999E-02    3     1000024        15       -16   # BR(chi^0_2 -> chi^+_1 tau^- nu_bar_tau)
     1.39136999E-02    3    -1000024       -15        16   # BR(chi^0_2 -> chi^-_1 tau^+ nu_tau)
DECAY   1000025     7.04694967E+00   # chi^0_3
#    BR                NDA      ID1      ID2
     2.22954951E-01    2     1000024       -24   # BR(chi^0_3 -> chi^+_1 W^-)
     2.22954951E-01    2    -1000024        24   # BR(chi^0_3 -> chi^-_1 W^+)
     2.76686913E-02    2     1000022        23   # BR(chi^0_3 -> chi^0_1 Z)
     2.04751000E-01    2     1000023        23   # BR(chi^0_3 -> chi^0_2 Z)
     1.58822976E-01    2     1000022        25   # BR(chi^0_3 -> chi^0_1 h^0)
     1.60424177E-01    2     1000023        25   # BR(chi^0_3 -> chi^0_2 h^0)
#    BR                NDA      ID1      ID2       ID3
     1.17698776E-03    3     1000024         5        -6   # BR(chi^0_3 -> chi^+_1 b t_bar)
     1.17698776E-03    3    -1000024        -5         6   # BR(chi^0_3 -> chi^-_1 b_bar t)
DECAY   1000035     5.57356883E+00   # chi^0_4
#    BR                NDA      ID1      ID2
     2.25427779E-01    2     1000024       -24   # BR(chi^0_4 -> chi^+_1 W^-)
     2.25427779E-01    2    -1000024        24   # BR(chi^0_4 -> chi^-_1 W^+)
     4.36388662E-03    2     1000037       -24   # BR(chi^0_4 -> chi^+_2 W^-)
     4.36388662E-03    2    -1000037        24   # BR(chi^0_4 -> chi^-_2 W^+)
     1.41573741E-01    2     1000022        23   # BR(chi^0_4 -> chi^0_1 Z)
     8.44581876E-02    2     1000023        23   # BR(chi^0_4 -> chi^0_2 Z)
     3.47598128E-03    2     1000025        23   # BR(chi^0_4 -> chi^0_3 Z)
     1.42925281E-01    2     1000022        25   # BR(chi^0_4 -> chi^0_1 h^0)
     1.38261260E-01    2     1000023        25   # BR(chi^0_4 -> chi^0_2 h^0)
     3.33171314E-03    2     1000025        25   # BR(chi^0_4 -> chi^0_3 h^0)
#    BR                NDA      ID1      ID2       ID3
     4.69154539E-03    3     1000022         6        -6   # BR(chi^0_4 -> chi^0_1 t t_bar)
     4.73233014E-03    3     1000023         6        -6   # BR(chi^0_4 -> chi^0_2 t t_bar)
     8.27231769E-03    3     1000024         5        -6   # BR(chi^0_4 -> chi^+_1 b t_bar)
     8.27231769E-03    3    -1000024        -5         6   # BR(chi^0_4 -> chi^-_1 b_bar t)
     1.36994688E-04    3     1000037         5        -6   # BR(chi^0_4 -> chi^+_2 b t_bar)
     1.36994688E-04    3    -1000037        -5         6   # BR(chi^0_4 -> chi^-_2 b_bar t)
DECAY   1000021     1.17279786E+02   # ~g
#    BR                NDA      ID1      ID2
     1.56946085E-03    2     1000006        -4   # BR(~g -> ~t_1 c_bar)
     1.56946085E-03    2    -1000006         4   # BR(~g -> ~t^*_1 c)
     3.27745623E-01    2     1000006        -6   # BR(~g -> ~t_1 t_bar)
     3.27745623E-01    2    -1000006         6   # BR(~g -> ~t^*_1 t)
     3.91240479E-02    2     2000006        -6   # BR(~g -> ~t_2 t_bar)
     3.91240479E-02    2    -2000006         6   # BR(~g -> ~t^*_2 t)
     9.15385284E-02    2     1000005        -5   # BR(~g -> ~b_1 b_bar)
     9.15385284E-02    2    -1000005         5   # BR(~g -> ~b^*_1 b)
     3.99132734E-02    2     2000005        -5   # BR(~g -> ~b_2 b_bar)
     3.99132734E-02    2    -2000005         5   # BR(~g -> ~b^*_2 b)
#    BR                NDA      ID1      ID2       ID3
DECAY        25     4.26376485E-03   # Gamma(h0)
     2.34007009E-03   2        22        22   # BR(h0 -> photon photon)
     1.72243178E-03   2        22        23   # BR(h0 -> photon Z)
     3.49897546E-02   2        23        23   # BR(h0 -> Z Z)
     2.74534311E-01   2       -24        24   # BR(h0 -> W W)
     7.01130750E-02   2        21        21   # BR(h0 -> gluon gluon)
     4.75860263E-09   2       -11        11   # BR(h0 -> Electron electron)
     2.11672532E-04   2       -13        13   # BR(h0 -> Muon muon)
     6.10360956E-02   2       -15        15   # BR(h0 -> Tau tau)
     1.34779863E-07   2        -2         2   # BR(h0 -> Up up)
     2.61559738E-02   2        -4         4   # BR(h0 -> Charm charm)
     5.48740190E-07   2        -1         1   # BR(h0 -> Down down)
     1.98467100E-04   2        -3         3   # BR(h0 -> Strange strange)
     5.28697461E-01   2        -5         5   # BR(h0 -> Bottom bottom)
DECAY        35     1.81943471E+02   # Gamma(HH)
     3.04078078E-09   2        22        22   # BR(HH -> photon photon)
     1.71956880E-08   2        22        23   # BR(HH -> photon Z)
     5.71624194E-08   2        23        23   # BR(HH -> Z Z)
     1.15641094E-08   2       -24        24   # BR(HH -> W W)
     4.71315643E-06   2        21        21   # BR(HH -> gluon gluon)
     8.88873660E-09   2       -11        11   # BR(HH -> Electron electron)
     3.95814881E-04   2       -13        13   # BR(HH -> Muon muon)
     1.14322051E-01   2       -15        15   # BR(HH -> Tau tau)
     2.67297813E-14   2        -2         2   # BR(HH -> Up up)
     5.18566784E-09   2        -4         4   # BR(HH -> Charm charm)
     3.57812250E-04   2        -6         6   # BR(HH -> Top top)
     6.18628549E-07   2        -1         1   # BR(HH -> Down down)
     2.23767125E-04   2        -3         3   # BR(HH -> Strange strange)
     6.04633970E-01   2        -5         5   # BR(HH -> Bottom bottom)
     8.64696847E-03   2  -1000024   1000024   # BR(HH -> Chargino1 chargino1)
     8.28412329E-02   2  -1000024   1000037   # BR(HH -> Chargino1 chargino2)
     8.28412329E-02   2  -1000037   1000024   # BR(HH -> Chargino2 chargino1)
     1.61753812E-03   2  -1000037   1000037   # BR(HH -> Chargino2 chargino2)
     2.11828895E-03   2   1000022   1000022   # BR(HH -> neutralino1 neutralino1)
     5.67435625E-04   2   1000022   1000023   # BR(HH -> neutralino1 neutralino2)
     3.87792379E-02   2   1000022   1000025   # BR(HH -> neutralino1 neutralino3)
     8.51286792E-03   2   1000022   1000035   # BR(HH -> neutralino1 neutralino4)
     2.15247044E-04   2   1000023   1000023   # BR(HH -> neutralino2 neutralino2)
     4.53408939E-02   2   1000023   1000025   # BR(HH -> neutralino2 neutralino3)
     7.64663015E-03   2   1000023   1000035   # BR(HH -> neutralino2 neutralino4)
     8.17843259E-04   2   1000025   1000025   # BR(HH -> neutralino3 neutralino3)
     1.15356310E-04   2   1000025   1000035   # BR(HH -> neutralino3 neutralino4)
     4.29154725E-08   2   1000035   1000035   # BR(HH -> neutralino4 neutralino4)
     3.33135958E-07   2        25        25   # BR(HH -> h0 h0)
DECAY        36     1.70371334E+02   # Gamma(A0)
     3.70389586E-08   2        22        22   # BR(A0 -> photon photon)
     5.87172247E-08   2        22        23   # BR(A0 -> photon Z)
     7.62159334E-06   2        21        21   # BR(A0 -> gluon gluon)
     8.65227191E-09   2       -11        11   # BR(A0 -> Electron electron)
     3.85275872E-04   2       -13        13   # BR(A0 -> Muon muon)
     1.11278200E-01   2       -15        15   # BR(A0 -> Tau tau)
     2.38840465E-14   2        -2         2   # BR(A0 -> Up up)
     4.63346649E-09   2        -4         4   # BR(A0 -> Charm charm)
     3.20509262E-04   2        -6         6   # BR(A0 -> Top top)
     6.02111492E-07   2        -1         1   # BR(A0 -> Down down)
     2.17792806E-04   2        -3         3   # BR(A0 -> Strange strange)
     5.88509140E-01   2        -5         5   # BR(A0 -> Bottom bottom)
     9.80935533E-03   2  -1000024   1000024   # BR(A0 -> Chargino1 chargino1)
     8.79656734E-02   2  -1000024   1000037   # BR(A0 -> Chargino1 chargino2)
     8.79656734E-02   2  -1000037   1000024   # BR(A0 -> Chargino2 chargino1)
     2.27462852E-03   2  -1000037   1000037   # BR(A0 -> Chargino2 chargino2)
     2.49932391E-03   2   1000022   1000022   # BR(A0 -> neutralino1 neutralino1)
     5.09168989E-04   2   1000022   1000023   # BR(A0 -> neutralino1 neutralino2)
     4.69035909E-02   2   1000022   1000025   # BR(A0 -> neutralino1 neutralino3)
     8.29466451E-03   2   1000022   1000035   # BR(A0 -> neutralino1 neutralino4)
     2.17076663E-04   2   1000023   1000023   # BR(A0 -> neutralino2 neutralino2)
     4.25890758E-02   2   1000023   1000025   # BR(A0 -> neutralino2 neutralino3)
     9.01262576E-03   2   1000023   1000035   # BR(A0 -> neutralino2 neutralino4)
     1.14617036E-03   2   1000025   1000025   # BR(A0 -> neutralino3 neutralino3)
     9.34106326E-05   2   1000025   1000035   # BR(A0 -> neutralino3 neutralino4)
     1.76112067E-07   2   1000035   1000035   # BR(A0 -> neutralino4 neutralino4)
     1.34376852E-07   2        23        25   # BR(A0 -> Z h0)
     4.33679241E-13   2        23        35   # BR(A0 -> Z HH)
     2.52215485E-41   2        25        25   # BR(A0 -> h0 h0)
DECAY        37     1.86013819E+02   # Gamma(Hp)
     9.22002758E-09   2       -11        12   # BR(Hp -> Electron nu_e)
     3.94184976E-04   2       -13        14   # BR(Hp -> Muon nu_mu)
     1.11497964E-01   2       -15        16   # BR(Hp -> Tau nu_tau)
     5.59483932E-07   2        -1         2   # BR(Hp -> Down up)
     9.47969019E-06   2        -3         2   # BR(Hp -> Strange up)
     6.49452765E-06   2        -5         2   # BR(Hp -> Bottom up)
     2.64258811E-08   2        -1         4   # BR(Hp -> Down charm)
     2.01669789E-04   2        -3         4   # BR(Hp -> Strange charm)
     9.09466396E-04   2        -5         4   # BR(Hp -> Bottom charm)
     2.23170474E-08   2        -1         6   # BR(Hp -> Down top)
     7.87217563E-07   2        -3         6   # BR(Hp -> Strange top)
     6.13247511E-01   2        -5         6   # BR(Hp -> Bottom top)
     3.39263569E-04   2   1000022   1000024   # BR(Hp -> neutralino1 chargino1)
     8.81995766E-02   2   1000022   1000037   # BR(Hp -> neutralino1 chargino2)
     2.73786975E-03   2   1000023   1000024   # BR(Hp -> neutralino2 chargino1)
     8.25382139E-02   2   1000023   1000037   # BR(Hp -> neutralino2 chargino2)
     8.40838830E-02   2   1000024   1000025   # BR(Hp -> chargino1 neutralino3)
     1.52728492E-08   2   1000025   1000037   # BR(Hp -> neutralino3 chargino2)
     1.56328971E-02   2   1000024   1000035   # BR(Hp -> chargino1 neutralino4)
     1.99983248E-04   2   1000035   1000037   # BR(Hp -> neutralino4 chargino2)
     1.22906383E-07   2        24        25   # BR(Hp -> W h0)
DECAY         6     2.43000000E+00   # top
#    BR                NDA      ID1      ID2
     1.00000000E+00    2           5        24   # BR(t -> b W)
Block HiggsBoundsInputHiggsCouplingsFermions
# ScalarNormEffCoupSq PseudoSNormEffCoupSq NP IP1 IP2 IP2
    9.82346592E-01    0.00000000E+00        3  25   5   5  # h0-b-b eff. coupling^2, normalised to SM
    2.44570364E+03    0.00000000E+00        3  35   5   5  # H0-b-b eff. coupling^2, normalised to SM
    0.00000000E+00    2.44568599E+03        3  36   5   5  # A0-b-b eff. coupling^2, normalised to SM
#
    1.00000722E+00    0.00000000E+00        3  25   6   6  # h0-t-t eff. coupling^2, normalised to SM
    4.01665053E-04    0.00000000E+00        3  35   6   6  # H0-t-t eff. coupling^2, normalised to SM
    0.00000000E+00    4.08883235E-04        3  36   6   6  # A0-t-t eff. coupling^2, normalised to SM
#
    9.82346592E-01    0.00000000E+00        3  25  15  15  # h0-tau-tau eff. coupling^2, normalised to SM
    2.44570364E+03    0.00000000E+00        3  35  15  15  # H0-tau-tau eff. coupling^2, normalised to SM
    0.00000000E+00    2.44568599E+03        3  36  15  15  # A0-tau-tau eff. coupling^2, normalised to SM
#
Block HiggsBoundsInputHiggsCouplingsBosons
    9.99999968E-01        3  25  24  24  # h0-W-W eff. coupling^2, normalised to SM
    3.21405914E-08        3  35  24  24  # H0-W-W eff. coupling^2, normalised to SM
    0.00000000E+00        3  36  24  24  # A0-W-W eff. coupling^2, normalised to SM
#
    9.99999968E-01        3  25  23  23  # h0-Z-Z eff. coupling^2, normalised to SM
    3.21405914E-08        3  35  23  23  # H0-Z-Z eff. coupling^2, normalised to SM
    0.00000000E+00        3  36  23  23  # A0-Z-Z eff. coupling^2, normalised to SM
#
    1.25431039E+00        3  25  21  21  # h0-g-g eff. coupling^2, normalised to SM
    1.10373244E-02        3  35  21  21  # H0-g-g eff. coupling^2, normalised to SM
    1.33124954E-01        3  36  21  21  # A0-g-g eff. coupling^2, normalised to SM
#
    0.00000000E+00        3  25  25  23  # h0-h0-Z eff. coupling^2, normalised to SM
    0.00000000E+00        3  35  25  23  # H0-h0-Z eff. coupling^2, normalised to SM
    3.21405914E-08        3  36  25  23  # A0-h0-Z eff. coupling^2, normalised to SM
    0.00000000E+00        3  35  35  23  # H0-H0-Z eff. coupling^2, normalised to SM
    9.99999968E-01        3  36  35  23  # A0-H0-Z eff. coupling^2, normalised to SM
    0.00000000E+00        3  36  36  23  # A0-A0-Z eff. coupling^2, normalised to SM
#
    0.00000000E+00        4  25  21  21  23  # h0-g-g-Z eff. coupling^2, normalised to SM
    0.00000000E+00        4  35  21  21  23  # H0-g-g-Z eff. coupling^2, normalised to SM
    0.00000000E+00        4  36  21  21  23  # A0-g-g-Z eff. coupling^2, normalised to SM
Block SPhenoLowEnergy  # low energy observables
    1    2.98664040E-04   # BR(b -> s gamma)
    2    1.59429565E-06   # BR(b -> s mu+ mu-)
    3    3.52607458E-05   # BR(b -> s nu nu)
    4    3.62017545E-15   # BR(Bd -> e+ e-)
    5    1.54645028E-10   # BR(Bd -> mu+ mu-)
    6    3.20996499E-08   # BR(Bd -> tau+ tau-)
    7    1.21400482E-13   # BR(Bs -> e+ e-)
    8    5.18606885E-09   # BR(Bs -> mu+ mu-)
    9    1.09092222E-06   # BR(Bs -> tau+ tau-)
   10    9.61265788E-05   # BR(B_u -> tau nu)
   11    9.92950757E-01   # BR(B_u -> tau nu)/BR(B_u -> tau nu)_SM
   12    5.41965813E-01   # |Delta(M_Bd)| [ps^-1] 
   13    1.93573861E+01   # |Delta(M_Bs)| [ps^-1] 
   14    0.00000000E+00   # neutron EDM according to the chiral quark model
   15    0.00000000E+00   # neutron EDM according to the relativistic quark-parton model
   16    2.15741114E-03   # epsilon_K
   17    2.28165992E-15   # Delta(M_K)
   18    2.48052707E-11   # BR(K^0 -> pi^0 nu nu)
   19    8.29173745E-11   # BR(K^+ -> pi^+ nu nu)
   20    3.72062718E-16   # Delta(g-2)_electron/2
   21    1.59070875E-11   # Delta(g-2)_muon/2
   22    4.51795095E-09   # Delta(g-2)_tau/2
   23    0.00000000E+00   # electric dipole moment of the electron
   24    0.00000000E+00   # electric dipole moment of the muon
   25    0.00000000E+00   # electric dipole moment of the tau
   26    0.00000000E+00   # Br(mu -> e gamma)
   27    0.00000000E+00   # Br(tau -> e gamma)
   28    0.00000000E+00   # Br(tau -> mu gamma)
   29    0.00000000E+00   # Br(mu -> 3 e)
   30    0.00000000E+00   # Br(tau -> 3 e)
   31    0.00000000E+00   # Br(tau -> 3 mu)
   39    6.97990746E-05   # Delta(rho_parameter)
   40    0.00000000E+00   # BR(Z -> e mu)
   41    0.00000000E+00   # BR(Z -> e tau)
   42    0.00000000E+00   # BR(Z -> mu tau)
Block FWCOEF Q=  1.60000000E+02  # Wilson coefficients at scale Q
#    id        order  M        value         comment
     0305 4422   00   0    -1.88819110E-01   # C7
     0305 4422   00   2    -1.62053795E-01   # C7
     0305 4322   00   2     1.24317444E-04   # C7'
     0305 6421   00   0    -9.52278348E-02   # C8
     0305 6421   00   2    -8.38509842E-02   # C8
     0305 6321   00   2    -1.76904123E-05   # C8'
 03051111 4133   00   0     1.61663969E+00   # C9 e+e-
 03051111 4133   00   2     1.61703500E+00   # C9 e+e-
 03051111 4233   00   2     5.27191256E-04   # C9' e+e-
 03051111 4137   00   0    -4.43933179E+00   # C10 e+e-
 03051111 4137   00   2    -4.43861562E+00   # C10 e+e-
 03051111 4237   00   2    -3.95913093E-03   # C10' e+e-
 03051313 4133   00   0     1.61663969E+00   # C9 mu+mu-
 03051313 4133   00   2     1.61703466E+00   # C9 mu+mu-
 03051313 4233   00   2     5.27190833E-04   # C9' mu+mu-
 03051313 4137   00   0    -4.43933179E+00   # C10 mu+mu-
 03051313 4137   00   2    -4.43861596E+00   # C10 mu+mu-
 03051313 4237   00   2    -3.95913133E-03   # C10' mu+mu-
 03051212 4137   00   0     1.50535012E+00   # C11 nu_1 nu_1
 03051212 4137   00   2     1.50519645E+00   # C11 nu_1 nu_1
 03051212 4237   00   2     8.58050841E-04   # C11' nu_1 nu_1
 03051414 4137   00   0     1.50535012E+00   # C11 nu_2 nu_2
 03051414 4137   00   2     1.50519645E+00   # C11 nu_2 nu_2
 03051414 4237   00   2     8.58050888E-04   # C11' nu_2 nu_2
 03051616 4137   00   0     1.50535012E+00   # C11 nu_3 nu_3
 03051616 4137   00   2     1.50519645E+00   # C11 nu_3 nu_3
 03051616 4237   00   2     8.58064209E-04   # C11' nu_3 nu_3
Block IMFWCOEF Q=  1.60000000E+02  # Im(Wilson coefficients) at scale Q
#    id        order  M        value         comment
     0305 4422   00   0     3.85849261E-07   # C7
     0305 4422   00   2     1.25525254E-05   # C7
     0305 4322   00   2     3.57494936E-06   # C7'
     0305 6421   00   0     3.30505410E-07   # C8
     0305 6421   00   2    -7.03660966E-06   # C8
     0305 6321   00   2     1.47196796E-06   # C8'
 03051111 4133   00   2    -7.28667435E-08   # C9 e+e-
 03051111 4233   00   2     1.00688574E-05   # C9' e+e-
 03051111 4137   00   2     4.61912935E-06   # C10 e+e-
 03051111 4237   00   2    -7.56180136E-05   # C10' e+e-
 03051313 4133   00   2    -7.28724171E-08   # C9 mu+mu-
 03051313 4233   00   2     1.00688537E-05   # C9' mu+mu-
 03051313 4137   00   2     4.61913432E-06   # C10 mu+mu-
 03051313 4237   00   2    -7.56180246E-05   # C10' mu+mu-
 03051212 4137   00   2    -9.73711041E-07   # C11 nu_1 nu_1
 03051212 4237   00   2     1.63884708E-05   # C11' nu_1 nu_1
 03051414 4137   00   2    -9.73710786E-07   # C11 nu_2 nu_2
 03051414 4237   00   2     1.63884708E-05   # C11' nu_2 nu_2
 03051616 4137   00   2    -9.73640047E-07   # C11 nu_3 nu_3
 03051616 4237   00   2     1.63884708E-05   # C11' nu_3 nu_3
