BLOCK SPINFO
   1   SPheno
   2   v4.0.5be

BLOCK SPHENOINFO
   1   2
   2   2

BLOCK MODSEL
   1   0

BLOCK MINPAR
   3    50.029339
   4    1

BLOCK EXTPAR
   0    1775.758
   1    992.86511
   2    572.86568
   3    3000
   11   -2214.7005
   12   -830.26145
   13   -783.78153
   23    172.71065
   25    49.454973
   26    473.98872
   31    1375.5345
   32    1375.5345
   33    339.92832
   34    546.02206
   35    546.02206
   36    1881.908
   41    5000
   42    5000
   43    1571.9976
   44    5000
   45    5000
   46    1970.4991
   47    5000
   48    5000
   49    954.51252

BLOCK SMINPUTS
   1    127.90897
   2    1.1663787e-05
   3    0.1184
   4    91.1876
   5    4.18
   6    173.2
   7    1.777
   8    0
   11    0.00051099893
   12    0
   13    0.10565837
   14    0
   21    0.005
   22    0.0025
   23    0.095
   24    1.27

BLOCK GAUGE Q=  1775.758
   1    0.35536298
   2    0.66519887
   3    1.219778

BLOCK YU Q=  1775.758
   1   1    8.386086e-06
   2   2    0.0042601317
   3   3    1.0131066

BLOCK YD Q=  1775.758
   1   1    0.00083339239
   2   2    0.015834455
   3   3    0.8264641

BLOCK YE Q=  1775.758
   1   1    0.00014543307
   2   2    0.030070946
   3   3    0.50574384

BLOCK AU Q=  1775.758
   1   1    0
   2   2    0
   3   3   -2214.7028

BLOCK AD Q=  1775.758
   1   1    0
   2   2    0
   3   3   -830.26099

BLOCK AE Q=  1775.758
   1   1    0
   2   2    0
   3   3   -783.78094

BLOCK MSOFT Q=  1775.758
   1    992.86511
   2    572.86568
   3    3000
   21    242507.27
   22    20498.744
   31    1375.5345
   32    1375.5345
   33    339.92832
   34    546.02206
   35    546.02206
   36    1881.908
   41    5000
   42    5000
   43    1571.9976
   44    5000
   45    5000
   46    1970.4991
   47    5000
   48    5000
   49    954.51252

BLOCK MASS
   6    173.2
   23    91.1876
   24    80.429995
   15    1.777
   25    121.53848
   35    473.94673
   36    473.98872
   37    485.46962
   1000001    5038.921
   2000001    5028.1266
   1000002    5038.4554
   2000002    5029.2319
   1000003    5038.9248
   2000003    5028.1331
   1000004    5038.4591
   2000004    5029.2324
   1000005    967.55168
   2000005    1597.0595
   1000006    1578.6972
   2000006    1997.417
   1000011    1380.4482
   2000011    558.19663
   1000012    1377.7645
   1000013    1380.434
   2000013    558.14369
   1000014    1377.7502
   1000015    345.58687
   2000015    1877.0751
   1000016    342.30469
   1000021    3206.7839
   1000022    166.55724
   1000023   -180.40296
   1000025    612.32888
   1000035    986.68665
   1000024    172.0086
   1000037    612.76149

BLOCK ALPHA
      -0.022224824

BLOCK HMIX Q=  1775.758
   1    172.71065
   2    49.454973
   3    243.84242
   4    224665.3

BLOCK STOPMIX
   1   1    0.9761712
   1   2    0.21700179
   2   1   -0.21700179
   2   2    0.9761712

BLOCK SBOTMIX
   1   1    0.013449777
   1   2    0.99990955
   2   1   -0.99990955
   2   2    0.013449777

BLOCK STAUMIX
   1   1    0.99998775
   1   2    0.0049500451
   2   1   -0.0049500451
   2   2    0.99998775

BLOCK NMIX
   1   1    0.037748439
   1   2   -0.12946141
   1   3    0.7178422
   1   4   -0.68302078
   2   1    0.026565087
   2   2   -0.072644827
   2   3   -0.69482322
   2   4   -0.7150089
   3   1   -0.016662122
   3   2   -0.98887256
   3   3   -0.042843718
   3   4    0.14148447
   4   1    0.99879514
   4   2   -0.0096715861
   4   3   -0.0093645331
   4   4    0.047191533

BLOCK UMIX
   1   1   -0.061719529
   1   2    0.99809353
   2   1    0.99809353
   2   2    0.061719529

BLOCK VMIX
   1   1   -0.20391724
   1   2    0.97898813
   2   1    0.97898813
   2   2    0.20391724

BLOCK HIGGSBOUNDSINPUTHIGGSCOUPLINGSFERMIONS
       0, 2445.7944,3,36,15,15

BLOCK HIGGSBOUNDSINPUTHIGGSCOUPLINGSBOSONS
       0,4,36,21,21,23

BLOCK SPHENOLOWENERGY
   1    0.00036057097
   2    1.5861845e-06
   3    3.5230624e-05
   4    7.6594033e-15
   5    3.271247e-10
   6    6.4098995e-08
   7    2.5176642e-13
   8    1.0753084e-08
   9    2.1430375e-06
   10    5.1460555e-05
   11    0.53156783
   12    0.54215665
   13    19.172283
   14    0
   15    0
   16    0.0021594504
   17    2.2817481e-15
   18    2.4777571e-11
   19    8.2852691e-11
   20    1.1587989e-14
   21    4.9539044e-10
   22    3.6602308e-07
   23    0
   24    0
   25    0
   26    0
   27    0
   28    0
   29    0
   30    0
   31    0
   39    8.9771172e-05
   40    0
   41    0
   42    0

BLOCK FWCOEF Q=  160
   305   4422   0   0   -0.18881911
   305   4422   0   2   -0.22190006
   305   4322   0   2   -0.0013069403
   305   6421   0   0   -0.095227835
   305   6421   0   2   -0.16422579
   305   6321   0   2   -0.0016513071
   3051111   4133   0   0    1.5986694
   3051111   4133   0   2    1.5997935
   3051111   4233   0   2   -0.0003467957
   3051111   4137   0   0   -4.4213615
   3051111   4137   0   2   -4.4173608
   3051111   4237   0   2    0.0026833876
   3051313   4133   0   0    1.5986694
   3051313   4133   0   2    1.5997899
   3051313   4233   0   2   -0.00034714107
   3051313   4137   0   0   -4.4213615
   3051313   4137   0   2   -4.4173644
   3051313   4237   0   2    0.0026837221
   3051212   4137   0   0    1.5053501
   3051212   4137   0   2    1.5044963
   3051212   4237   0   2   -0.00058392619
   3051414   4137   0   0    1.5053501
   3051414   4137   0   2    1.5044963
   3051414   4237   0   2   -0.00058385169
   3051616   4137   0   0    1.5053501
   3051616   4137   0   2    1.5044958
   3051616   4237   0   2   -0.00056285401

BLOCK IMFWCOEF Q=  160
   305   4422   0   0    3.8583629e-07
   305   4422   0   2    3.7123824e-05
   305   4322   0   2    6.3803847e-06
   305   6421   0   0    3.304943e-07
   305   6421   0   2   -4.8543274e-06
   305   6321   0   2    1.938203e-06
   3051111   4133   0   2    1.0433991e-08
   3051111   4233   0   2    7.6311883e-06
   3051111   4137   0   2    1.575446e-06
   3051111   4237   0   2   -5.8772403e-05
   3051313   4133   0   2    1.0390439e-08
   3051313   4233   0   2    7.6311307e-06
   3051313   4137   0   2    1.5754343e-06
   3051313   4237   0   2   -5.8772546e-05
   3051212   4137   0   2   -4.9328234e-08
   3051212   4237   0   2    1.2789354e-05
   3051414   4137   0   2   -4.9327971e-08
   3051414   4237   0   2    1.2789354e-05
   3051616   4137   0   2   -5.9198851e-08
   3051616   4237   0   2    1.278938e-05

DECAY 23  2.4952


DECAY 24  2.085


DECAY 2000011  0.0049044186
    0.67627025   2    1000022    11
    0.32369067   2    1000023    11

DECAY 1000011  12.242541
    0.63755515   2   -1000037    12
    0.3187941   2    1000025    11
    0.032590396   2    1000035    11
    0.0057573141   2    1000022    11
    0.0036646744   2   -1000024    12
    0.0016383702   2    1000023    11

DECAY 2000013  0.021277081
    0.38505443   2   -1000024    14
    0.35760516   2    1000022    13
    0.25734041   2    1000023    13

DECAY 1000013  12.266481
    0.63629791   2   -1000037    14
    0.31816799   2    1000025    13
    0.032525086   2    1000035    13
    0.0067589729   2    1000022    13
    0.0036574823   2   -1000024    14
    0.0025794747   2    1000023    13

DECAY 1000015  1.0041389
    0.54251581   2    1000022    15
    0.45013412   2    1000023    15
    0.0073500657   2   -1000024    16

DECAY 2000015  26.869963
    0.34790722   2   -1000024    16
    0.18341559   2    1000035    15
    0.18044412   2    1000022    15
    0.16889839   2    1000023    15
    0.054945362   2    1000016   -37
    0.027554846   2    1000015    36
    0.027525528   2    1000015    35
    0.0036851137   2    1000016   -24
    0.0018356209   2    1000015    23
    0.0017535366   2    1000015    25
    0.0013204352   2   -1000037    16
    0.00071423829   2    1000025    15

DECAY 1000012  12.320147
    0.60716835   2    1000037    11
    0.30440603   2    1000025    12
    0.039669406   2    1000024    11
    0.034470422   2    1000035    12
    0.010700327   2    1000022    12
    0.0035854629   2    1000023    12

DECAY 1000014  12.343872
    0.60599408   2    1000037    13
    0.3038147   2    1000025    14
    0.041530727   2    1000024    13
    0.034402306   2    1000035    14
    0.010679644   2    1000022    14
    0.003578532   2    1000023    14

DECAY 1000016  1.0613782
    0.97590257   2    1000024    15
    0.018513762   2    1000022    16
    0.0055836631   2    1000023    16

DECAY 2000001  142.27855
    0.98175588   2    1000021    1
    0.018195892   2    1000035    1

DECAY 1000001  206.05602
    0.68333556   2    1000021    1
    0.20815522   2   -1000037    2
    0.10155558   2    1000025    1
    0.0035005817   2    1000035    1
    0.0019920128   2    1000022    1
    0.00081812166   2   -1000024    2
    0.00064291971   2    1000023    1

DECAY 2000003  142.32913
    0.98141173   2    1000021    3
    0.018189468   2    1000035    3
    0.00017513572   2   -1000024    4
    0.00011864769   2    1000022    3

DECAY 1000003  206.08328
    0.68324706   2    1000021    3
    0.20812821   2   -1000037    4
    0.10154245   2    1000025    3
    0.0035001317   2    1000035    3
    0.0020542854   2    1000022    3
    0.00082645208   2   -1000024    4
    0.00070140454   2    1000023    3

DECAY 1000005  23.764365
    0.48167155   2   -1000024    6
    0.26930105   2    1000022    5
    0.2483755   2    1000023    5
    0.00040168197   2   -1000037    6
    0.00025021762   2    1000025    5

DECAY 2000005  70.166834
    0.42442456   2   -1000024    6
    0.16301343   2   -1000037    6
    0.1572296   2    1000022    5
    0.1464076   2    1000023    5
    0.071422664   2    1000025    5
    0.016958814   2    1000005    36
    0.016933873   2    1000005    35
    0.0013687306   2    1000035    5
    0.0013648888   2    1000005    25
    0.00087583604   2    1000005    23

DECAY 2000002  150.1828
    0.93085039   2    1000021    2
    0.068970488   2    1000035    2
    0.00010632817   2    1000022    2

DECAY 1000002  206.05057
    0.68311854   2    1000021    2
    0.20024821   2    1000037    1
    0.10277444   2    1000025    2
    0.0089303411   2    1000024    1
    0.0028154507   2    1000035    2
    0.0016178755   2    1000022    2
    0.00049514775   2    1000023    2

DECAY 2000004  150.18642
    0.93082795   2    1000021    4
    0.068968859   2    1000035    4
    0.00011195277   2    1000022    4

DECAY 1000004  206.07776
    0.68302998   2    1000021    4
    0.2002224   2    1000037    3
    0.10276113   2    1000025    4
    0.0090500357   2    1000024    3
    0.0028150977   2    1000035    4
    0.0016217692   2    1000022    4
    0.00049958224   2    1000023    4

DECAY 1000006  69.751871
    0.33804271   2    1000024    5
    0.22731428   2    1000023    6
    0.21303666   2    1000022    6
    0.11425519   2    1000037    5
    0.066650036   2    1000025    6
    0.027149904   2    1000005    37
    0.010026843   3    1000022    24    5
    0.0015663946   2    1000005    24
    0.0014683656   2    1000035    6
    0.00037518862   2    1000022    4
    0.00011442191   2    1000023    4

DECAY 2000006  106.9156
    0.33447118   2    1000024    5
    0.18565371   2    1000023    6
    0.1664618   2    1000022    6
    0.10525812   2    2000005    24
    0.068983713   2    1000006    25
    0.055872353   2    1000006    23
    0.035920395   2    1000037    5
    0.024145998   2    1000035    6
    0.017836064   2    1000025    6
    0.0052049814   2    1000005    37
    0.0001916961   2    1000005    24

DECAY 1000024  5.8883337e-09
    0.37903523   3    1000022   -1    2
    0.29169944   3    1000022   -3    4
    0.1263596   3    1000022   -11    12
    0.12612953   3    1000022   -13    14
    0.076776201   3    1000022   -15    16

DECAY 1000037  7.6913464
    0.18323114   2    1000023    24
    0.16909191   2    1000024    23
    0.1647494   2    1000022    24
    0.16236532   2   -1000015    16
    0.15928889   2    1000016   -15
    0.15360845   2    1000024    25
    0.0034138138   3    1000024    5   -5
    0.0017912238   3    1000022   -5    6
    0.0015074807   3    1000023   -5    6
    0.00041162409   3    1000024    15   -15
    0.00020950389   3    1000024    6   -6
    0.00018905099   3    1000022   -15    16
    0.00013691117   3    1000023   -15    16

DECAY 1000022 -1


DECAY 1000023  1.9841686e-06
    0.16063669   3    1000022    12   -12
    0.14960665   2    1000022    22
    0.12003593   3    1000022    1   -1
    0.11997072   3    1000022    3   -3
    0.093618204   3    1000022    2   -2
    0.083712717   3    1000022    4   -4
    0.038307292   3    1000022    5   -5
    0.027733995   3    1000024    1   -2
    0.027733995   3   -1000024   -1    2
    0.027086301   3    1000022    11   -11
    0.027066202   3    1000022    13   -13
    0.024811798   3    1000024    3   -4
    0.024811798   3   -1000024   -3    4
    0.022959241   3    1000022    15   -15
    0.0092451001   3    1000024    11   -12
    0.0092451001   3   -1000024   -11    12
    0.0092382458   3    1000024    13   -14
    0.0092382458   3   -1000024   -13    14
    0.0074708883   3    1000024    15   -16
    0.0074708883   3   -1000024   -15    16

DECAY 1000025  8.3639445
    0.16747737   2    1000024   -24
    0.16747737   2   -1000024    24
    0.12722514   2    1000023    23
    0.10342871   2    1000023    25
    0.098535814   2    1000022    25
    0.074555946   2    1000015   -15
    0.074555946   2   -1000015    15
    0.073132979   2    1000016   -16
    0.073132979   2   -1000016    16
    0.033442159   2    1000022    23
    0.0018365465   3    1000022    5   -5
    0.001552021   3    1000024    5   -6
    0.001552021   3   -1000024   -5    6
    0.0013269088   3    1000023    5   -5
    0.00022188414   3    1000022    15   -15
    0.00015950923   3    1000023    15   -15
    0.00014549439   3    1000024    15   -16
    0.00014549439   3   -1000024   -15    16

DECAY 1000035  10.688864
    0.10698141   2    2000013   -13
    0.10698141   2   -2000013    13
    0.10696232   2    2000011   -11
    0.10696232   2   -2000011    11
    0.054376255   2    1000024   -24
    0.054376255   2   -1000024    24
    0.046390826   2    1000016   -16
    0.046390826   2   -1000016    16
    0.045158683   2    1000023    23
    0.042932682   2    1000015   -15
    0.042932682   2   -1000015    15
    0.03773888   2    1000023    25
    0.036390159   2    1000022    25
    0.03033379   2    37   -1000024
    0.03033379   2   -37    1000024
    0.025365735   2    1000023    35
    0.02412241   2    1000022    35
    0.0184051   2    1000022    23
    0.010586066   2    1000022    36
    0.0087038886   2    1000023    36
    0.0048865924   2    1000037   -24
    0.0048865924   2   -1000037    24
    0.0047143055   2    1000025    25
    0.00086999139   3    1000024    5   -6
    0.00086999139   3   -1000024   -5    6
    0.00037353774   3    1000023    6   -6
    0.00035861495   3    1000022    6   -6
    0.0003022048   2    1000025    23
    0.00010917415   2    1000005   -5
    0.00010917415   2   -1000005    5

DECAY 1000021  235.14795
    0.16674421   2    1000005   -5
    0.16674421   2   -1000005    5
    0.11413846   2    2000005   -5
    0.11413846   2   -2000005    5
    0.10861226   2    1000006   -6
    0.10861226   2   -1000006    6
    0.080729829   2    2000006   -6
    0.080729829   2   -2000006    6
    0.029619397   2    1000006   -4
    0.029619397   2   -1000006    4

DECAY 25  0.0040582722
    0.66300912   2   -5    5
    0.1497772   2   -24    24
    0.076923107   2   -15    15
    0.063397513   2    21    21
    0.026443042   2   -4    4
    0.016908836   2    23    23
    0.0019937987   2    22    22
    0.0010345809   2    22    23
    0.00026409424   2   -13    13
    0.00024788262   2   -3    3
    6.8536366e-07   2   -1    1
    1.3627677e-07   2   -2    2
    5.9371836e-09   2   -11    11

DECAY 35  19.189665
    0.84931104   2   -5    5
    0.14502169   2   -15    15
    0.0031369359   2   -1000024    1000024
    0.00092000577   2    1000022    1000022
    0.00045884119   2   -13    13
    0.00032700017   2   -3    3
    0.00023343826   2    1000023    1000023
    0.00020650653   2   -6    6
    0.00017210174   2    21    21
    0.00016332989   2    1000022    1000023
    3.5914272e-05   2    25    25
    8.0801675e-06   2   -24    24
    3.7749382e-06   2    23    23
    9.0405274e-07   2   -1    1
    2.3966378e-07   2    22    22
    1.7626861e-07   2    22    23
    1.0311125e-08   2   -11    11
    7.4689439e-09   2   -4    4
    3.8522522e-14   2   -2    2

DECAY 36  18.946546
    0.84525132   2   -5    5
    0.14432923   2   -15    15
    0.0066061723   2   -1000024    1000024
    0.0019290423   2    1000022    1000022
    0.00049523015   2    1000023    1000023
    0.00045659648   2   -13    13
    0.00035010494   2   -6    6
    0.00032539083   2   -3    3
    0.0001913919   2    21    21
    5.7571411e-05   2    1000022    1000023
    6.5591735e-06   2    23    25
    8.9960338e-07   2   -1    1
    3.1459173e-07   2    22    22
    1.6329095e-07   2    22    23
    1.026068e-08   2   -11    11
    5.76477e-09   2   -4    4
    2.9709108e-14   2   -2    2
    1.4797769e-37   2    25    25

DECAY 37  15.007874
    0.83421072   2   -5    6
    0.16191098   2   -15    16
    0.0015741689   2   -5    4
    0.0011296085   2    1000023    1000024
    0.000572428   2   -13    14
    0.00038643772   2   -3    4
    0.00017509884   2    1000022    1000024
    1.7659497e-05   2   -3    2
    1.1241341e-05   2   -5    2
    9.3325674e-06   2    24    25
    1.1202527e-06   2   -3    6
    1.0721414e-06   2   -1    2
    4.9229525e-08   2   -1    4
    3.1756209e-08   2   -1    6
    1.7997973e-08   2    24    35
    1.7673314e-08   2    24    36
    1.3389152e-08   2   -11    12

DECAY 6  2.43
    1   2    5    24

DECAY 15 -1
