BLOCK DCINFO
   1   SDECAY/HDECAY
   2   1.3b /3.4

BLOCK SPINFO
   1   SOFTSUSY
   2   3.4.0

BLOCK MODSEL
   1   0

BLOCK SMINPUTS
   1    127.90897
   2    1.1663787e-05
   3    0.1184
   4    91.1876
   5    4.18
   6    173.2
   7    1.777

BLOCK MINPAR
   3    8.28

BLOCK EXTPAR
   0   -1
   1   -3231.5
   2   -2073.78
   3    2974.36
   11    5535.78
   12    1022.71
   13   -1885.2
   23   -795.67
   26    2998.09
   31    797.69
   32    797.69
   33    3290.17
   34    1070.64
   35    1070.64
   36    1803.16
   41    2646.39
   42    2646.39
   43    3535.86
   44    732.14
   45    732.14
   46    3894.12
   47    1458.69
   48    1458.69
   49    601.53

BLOCK MASS
   24    80.40472
   25    127.08555
   35    2998.2096
   36    2998.09
   37    2999.3119
   5    4.8187603
   1000001    2798.041
   2000001    1647.1514
   1000002    2797.0914
   2000002    1021.2653
   1000003    2798.041
   2000003    1647.1514
   1000004    2797.0914
   2000004    1021.2653
   1000005    915.15716
   2000005    3595.5725
   1000006    3564.3011
   2000006    3890.2296
   1000011    855.60666
   2000011    1096.6412
   1000012    851.79466
   1000013    855.60666
   2000013    1096.6412
   1000014    851.79466
   1000015    1820.7368
   2000015    3307.3024
   1000016    3306.0657
   1000021    3104.4891
   1000022   -821.47575
   1000023    826.15841
   1000025   -2101.9272
   1000035   -3164.676
   1000024    823.23619
   1000037    2102.1009

BLOCK NMIX
   1   1   -0.014995671
   1   2    0.048415647
   1   3    0.70739689
   1   4   -0.70499695
   2   1    0.0068072268
   2   2   -0.016534633
   2   3    0.70643125
   2   4    0.70755576
   3   1    0.0020216231
   3   2    0.99868971
   3   3   -0.022591197
   3   4    0.045873887
   4   1    0.99986234
   4   2   -0.0011805566
   4   3    0.0058455285
   4   4   -0.015483266

BLOCK UMIX
   1   1    0.032009037
   1   2    0.99948758
   2   1   -0.99948758
   2   2    0.032009037

BLOCK VMIX
   1   1   -0.065010437
   1   2   -0.99788458
   2   1    0.99788458
   2   2   -0.065010437

BLOCK STOPMIX
   1   1    0.95098659
   1   2   -0.30923213
   2   1    0.30923213
   2   2    0.95098659

BLOCK SBOTMIX
   1   1   -0.0014128687
   1   2    0.999999
   2   1   -0.999999
   2   2   -0.0014128687

BLOCK STAUMIX
   1   1   -0.0010775887
   1   2    0.99999942
   2   1   -0.99999942
   2   2   -0.0010775887

BLOCK ALPHA
      -0.12696907

BLOCK HMIX Q=  3709.995
   1   -809.16961
   2    7.8541116
   3    241.96849
   4    9162933.9

BLOCK GAUGE Q=  3709.995
   1    0.36607233
   2    0.63756659
   3    1.0079899

BLOCK AU Q=  3709.995
   1   1    0
   2   2    0
   3   3    5535.78

BLOCK AD Q=  3709.995
   1   1    0
   2   2    0
   3   3    1022.71

BLOCK AE Q=  3709.995
   1   1    0
   2   2    0
   3   3   -1885.2

BLOCK YU Q=  3709.995
   1   1    0
   2   2    0
   3   3    0.83723594

BLOCK YD Q=  3709.995
   1   1    0
   2   2    0
   3   3    0.10956441

BLOCK YE Q=  3709.995
   1   1    0
   2   2    0
   3   3    0.081558276

BLOCK MSOFT Q=  3709.995
   1   -3231.5
   2   -2073.78
   3    2974.36
   21    8095342.3
   22   -266226.84
   31    797.69
   32    797.69
   33    3290.17
   34    1070.64
   35    1070.64
   36    1803.16
   41    2646.39
   42    2646.39
   43    3535.86
   44    732.13995
   45    732.13995
   46    3894.12
   47    1458.69
   48    1458.69
   49    601.52994

BLOCK HIGGSBOUNDSINPUTHIGGSCOUPLINGSFERMIONS
       0, 61.687068,3,36,15,15

BLOCK HIGGSBOUNDSINPUTHIGGSCOUPLINGSBOSONS
       0,4,36,21,21,23

DECAY 6  1.4309432
    1   2    5    24

DECAY 1000021  226.77349
    0.11532649   2    1000005   -5
    0.11532649   2   -1000005    5
    0.11066764   2    2000002   -2
    0.11066764   2   -2000002    2
    0.11066763   2    2000004   -4
    0.11066763   2   -2000004    4
    0.071837232   2    2000001   -1
    0.071837232   2   -2000001    1
    0.071837232   2    2000003   -3
    0.071837232   2   -2000003    3
    0.0049303766   2    1000002   -2
    0.0049303766   2   -1000002    2
    0.0049303169   2    1000004   -4
    0.0049303169   2   -1000004    4
    0.0049015389   2    1000001   -1
    0.0049015389   2   -1000001    1
    0.0049015389   2    1000003   -3
    0.0049015389   2   -1000003    3

DECAY 1000006  75.256543
    0.3015403   2    1000023    6
    0.29606267   2    1000022    6
    0.13866554   2    1000037    5
    0.10797252   2    1000021    6
    0.083992043   2    1000024    5
    0.070353666   2    1000025    6
    0.00086060703   2    1000035    6
    0.00055265741   2    1000005    24

DECAY 2000006  147.13688
    0.29383359   2    1000024    5
    0.20337123   2    1000021    6
    0.1641729   2    1000022    6
    0.16412791   2    1000023    6
    0.065961684   2    2000005    24
    0.040954094   2    1000006    23
    0.036763648   2    1000006    25
    0.01628316   2    1000037    5
    0.0081895853   2    1000025    6
    0.0063019794   2    1000035    6
    4.0209906e-05   2    1000005    24

DECAY 1000005  0.0078382792
    0.52503796   2    1000022    5
    0.47496204   2    1000023    5

DECAY 2000005  77.018154
    0.57877073   2   -1000024    6
    0.1651943   2   -1000037    6
    0.1629931   2    1000021    5
    0.081520897   2    1000025    5
    0.0054513139   2    1000022    5
    0.0050468339   2    1000023    5
    0.00035538823   2    1000035    5
    0.00034958028   2    1000005    25
    0.0003178527   2    1000005    23

DECAY 1000002  6.4766179
    0.65581395   2    1000037    1
    0.32882988   2    1000025    2
    0.012062781   2    1000024    1
    0.0029627346   2    1000022    2
    0.00033065375   2    1000023    2

DECAY 2000002  8.5931029e-05
    0.83066986   2    1000022    2
    0.16416763   2    1000023    2
    0.0038102651   3    2    5   -1000005
    0.00037103012   3    2   -5    1000005
    0.00032749521   3    2    24   -1000024
    0.0001155159   3    2    23    1000023
    8.4581787e-05   3    2    23    1000022
    7.843267e-05   3    2   -12    1000012
    7.7911321e-05   3    2   -14    1000014
    7.579218e-05   3    2   -13    1000013
    7.5516377e-05   3    2   -11    1000011
    5.8731986e-05   3    2    25    1000022
    5.1807828e-05   3    2   -24    1000024
    9.1633954e-06   3    2    25    1000023
    7.3401891e-06   3    2    11   -1000011
    7.2460438e-06   3    2    13   -1000013
    5.8603977e-06   3    2    14   -1000014
    5.8224603e-06   3    2    12   -1000012

DECAY 1000001  6.4468323
    0.66231646   2   -1000037    2
    0.3305131   2    1000025    1
    0.0037755663   2    1000022    1
    0.0029391193   2   -1000024    2
    0.0004557524   2    1000023    1

DECAY 2000001  0.0041711405
    0.40780214   3    1    5   -1000005
    0.20338562   3    1    4   -2000004
    0.20288456   3    1    2   -2000002
    0.06992572   3    1   -5    1000005
    0.037665958   3    1   -4    2000004
    0.037121742   3    1   -2    2000002
    0.030128007   2    1000022    1
    0.0061618035   2    1000023    1
    0.0011773758   3    1    24   -1000024
    0.00056574456   3    1    23    1000023
    0.0005425135   3    1    25    1000022
    0.00034439022   3    1   -11    1000011
    0.0003418969   3    1   -14    1000014
    0.00034134549   3    1   -13    1000013
    0.00034103383   3    1   -12    1000012
    0.00026848772   3    1   -24    1000024
    0.00026386069   3    1    11   -2000011
    0.00026309351   3    1    13   -2000013
    8.0455214e-05   3    1    25    1000023
    7.8705094e-05   3    1    23    1000022
    5.5963112e-05   3    1    11   -1000011
    5.5850433e-05   3    1    13   -1000013
    5.2004962e-05   3    1    12   -1000012
    5.1295324e-05   3    1    14   -1000014
    5.0300392e-05   3    1   -13    2000013
    5.0130175e-05   3    1   -11    2000011

DECAY 1000004  6.5066508
    0.65564835   2    1000037    3
    0.32874778   2    1000025    4
    0.01225734   2    1000024    3
    0.0030105432   2    1000022    4
    0.00033598189   2    1000023    4

DECAY 2000004  8.1643871e-05
    0.8305468   2    1000022    4
    0.16404998   2    1000023    4
    0.0039826627   3    4    5   -1000005
    0.00039032936   3    4   -5    1000005
    0.00034367552   3    4    24   -1000024
    0.00012160864   3    4    23    1000023
    8.8875012e-05   3    4    23    1000022
    8.2423823e-05   3    4   -12    1000012
    8.1517448e-05   3    4   -14    1000014
    7.9598137e-05   3    4   -13    1000013
    7.8662365e-05   3    4   -11    1000011
    6.2102641e-05   3    4    25    1000022
    5.4522158e-05   3    4   -24    1000024
    9.6374656e-06   3    4    25    1000023
    7.7951963e-06   3    4    11   -1000011
    7.6784698e-06   3    4    13   -1000013
    6.0903531e-06   3    4    14   -1000014
    6.0440544e-06   3    4    12   -1000012

DECAY 1000003  6.4762014
    0.6622368   2   -1000037    4
    0.33047625   2    1000025    3
    0.0038369339   2    1000022    3
    0.002986865   2   -1000024    4
    0.0004631498   2    1000023    3

DECAY 2000003  0.004169425
    0.40796992   3    3    5   -1000005
    0.20356764   3    3    4   -2000004
    0.20285531   3    3    2   -2000002
    0.06995449   3    3   -5    1000005
    0.037803774   3    3   -4    2000004
    0.037137015   3    3   -2    2000002
    0.029705474   2    1000022    3
    0.0060750677   2    1000023    3
    0.0011820335   3    3    24   -1000024
    0.0005652578   3    3    23    1000023
    0.00054273671   3    3    25    1000022
    0.00034453192   3    3   -11    1000011
    0.00034210952   3    3   -12    1000012
    0.00034203757   3    3   -14    1000014
    0.00034148594   3    3   -13    1000013
    0.00026883803   3    3   -24    1000024
    0.00026396925   3    3    11   -2000011
    0.00026320176   3    3    13   -2000013
    8.0488317e-05   3    3    25    1000023
    7.8737476e-05   3    3    23    1000022
    5.6074878e-05   3    3    13   -1000013
    5.5986137e-05   3    3    11   -1000011
    5.2026359e-05   3    3    12   -1000012
    5.1318827e-05   3    3    14   -1000014
    5.0321087e-05   3    3   -13    2000013
    5.01508e-05   3    3   -11    2000011

DECAY 1000011  7.5105827e-05
    0.52017373   2   -1000024    12
    0.44621813   2    1000022    11
    0.033608139   2    1000023    11

DECAY 2000011  0.00030513518
    0.82999925   2    1000022    11
    0.16607173   2    1000023    11
    0.0013681805   3    11    24   -1000024
    0.00041289896   3    11    23    1000023
    0.00040742598   3    11    25    1000022
    0.00026801891   3    11   -14    1000014
    0.00026778623   3    11   -12    1000012
    0.00026523982   3    11   -13    1000013
    0.00026130386   3    11   -11    1000011
    0.00022828898   3    11   -24    1000024
    0.00017725586   3    11    23    1000022
    8.5581741e-05   3    11    5   -1000005
    6.8340202e-05   3    11    25    1000023
    2.7325921e-05   3    11    11   -1000011
    2.704113e-05   3    11    13   -1000013
    2.2652255e-05   3    11    14   -1000014
    2.2511006e-05   3    11    12   -1000012
    8.8806541e-06   3    11   -5    1000005
    4.6638345e-06   3    11    2   -2000002
    4.595668e-06   3    11    4   -2000004
    5.1786883e-07   3    11   -2    2000002
    5.1236307e-07   3    11   -4    2000004

DECAY 1000013  7.5105643e-05
    0.52017501   2   -1000024    14
    0.446217   2    1000022    13
    0.033607998   2    1000023    13

DECAY 2000013  0.00030513771
    0.82999229   2    1000022    13
    0.16607034   2    1000023    13
    0.0013700372   3    13    24   -1000024
    0.00041633661   3    13    23    1000023
    0.00040811082   3    13    25    1000022
    0.00026878356   3    13   -14    1000014
    0.00026724983   3    13   -12    1000012
    0.00026590617   3    13   -11    1000011
    0.00026446748   3    13   -13    1000013
    0.0002288901   3    13   -24    1000024
    0.0001767366   3    13    23    1000022
    8.5082896e-05   3    13    5   -1000005
    6.767764e-05   3    13    25    1000023
    2.7257201e-05   3    13    11   -1000011
    2.7028124e-05   3    13    13   -1000013
    2.2477392e-05   3    13    14   -1000014
    2.2370555e-05   3    13    12   -1000012
    8.738022e-06   3    13   -5    1000005
    4.6071002e-06   3    13    2   -2000002
    4.5972686e-06   3    13    4   -2000004
    5.099337e-07   3    13   -2    2000002
    5.0567333e-07   3    13   -4    2000004

DECAY 1000015  0.30641132
    0.49744932   2   -1000024    16
    0.25428052   2    1000022    15
    0.24827016   2    1000023    15

DECAY 2000015  14.711243
    0.64518809   2   -1000037    16
    0.32290855   2    1000025    15
    0.014360276   2    1000022    15
    0.013182822   2    1000023    15
    0.0021244964   2    1000035    15
    0.0016249794   2   -1000024    16
    0.0003105798   2    1000015    23
    0.00030021005   2    1000015    25

DECAY 1000012  0.00018636643
    0.67903259   2    1000024    11
    0.29381909   2    1000022    12
    0.027148321   2    1000023    12

DECAY 1000014  0.00018636553
    0.67903105   2    1000024    13
    0.2938205   2    1000022    14
    0.027148451   2    1000023    14

DECAY 1000016  14.736617
    0.64113285   2    1000037    15
    0.32040195   2    1000025    16
    0.032832364   2    1000024    15
    0.0025968869   2    1000022    16
    0.0021033415   2    1000035    16
    0.00059937362   2   -1000015   -24
    0.00033323691   2    1000023    16

DECAY 1000024  1.1245738e-11
    0.59984938   3    1000022    2   -1
    0.20007531   3    1000022   -11    12
    0.20007531   3    1000022   -13    14

DECAY 1000037  42.344528
    0.13962943   2    1000012   -11
    0.13962943   2    1000014   -13
    0.13958511   2   -1000011    12
    0.13958511   2   -1000013    14
    0.11276603   2    1000024    25
    0.11203254   2    1000024    23
    0.10857008   2    1000023    24
    0.10819547   2    1000022    24
    6.6692418e-06   2   -1000005    6
    1.1403899e-07   2   -1000015    16

DECAY 1000022 -1


DECAY 1000023  2.3906583e-09
    0.14376043   3    1000022   -1    1
    0.14376043   3    1000022   -3    3
    0.11067198   3    1000022   -2    2
    0.11067198   3    1000022   -4    4
    0.066203171   3    1000022   -12    12
    0.066203171   3    1000022   -14    14
    0.066182643   3    1000022   -16    16
    0.035289342   3    1000024   -2    1
    0.035289342   3   -1000024   -1    2
    0.035289342   3    1000024   -4    3
    0.035289342   3   -1000024   -3    4
    0.033089492   3    1000022   -11    11
    0.033089492   3    1000022   -13    13
    0.02691986   2    1000022    22
    0.011764758   3    1000024   -12    11
    0.011764758   3   -1000024    12   -11
    0.011764758   3    1000024   -14    13
    0.011764758   3   -1000024    14   -13
    0.0077480017   3    1000022   -15    15
    0.0017414714   3    1000024   -16    15
    0.0017414714   3   -1000024    16   -15

DECAY 1000025  42.337646
    0.1091275   2    1000024   -24
    0.1091275   2   -1000024    24
    0.10037656   2    1000022    25
    0.099857363   2    1000023    23
    0.069844241   2    1000011   -11
    0.069844241   2   -1000011    11
    0.069844241   2    1000013   -13
    0.069844241   2   -1000013    13
    0.069766007   2    1000012   -12
    0.069766007   2   -1000012    12
    0.069766007   2    1000014   -14
    0.069766007   2   -1000014    14
    0.011613999   2    1000022    23
    0.011446115   2    1000023    25
    3.4199405e-06   2    1000005   -5
    3.4199405e-06   2   -1000005    5
    4.216814e-07   2    2000002   -2
    4.216814e-07   2   -2000002    2
    4.216812e-07   2    2000004   -4
    4.216812e-07   2   -2000004    4
    2.8653336e-07   2    2000011   -11
    2.8653336e-07   2   -2000011    11
    2.8653336e-07   2    2000013   -13
    2.8653336e-07   2   -2000013    13
    9.1098562e-08   2    1000015   -15
    9.1098562e-08   2   -1000015    15
    2.7308401e-08   2    2000001   -1
    2.7308401e-08   2   -2000001    1
    2.7308401e-08   2    2000003   -3
    2.7308401e-08   2   -2000003    3

DECAY 1000035  102.62452
    0.084551527   2    2000002   -2
    0.084551527   2   -2000002    2
    0.084551521   2    2000004   -4
    0.084551521   2   -2000004    4
    0.063636887   2    2000011   -11
    0.063636887   2   -2000011    11
    0.063636887   2    2000013   -13
    0.063636887   2   -2000013    13
    0.036784448   2    1000015   -15
    0.036784448   2   -1000015    15
    0.023005833   2    1000005   -5
    0.023005833   2   -1000005    5
    0.021030334   2    1000024   -24
    0.021030334   2   -1000024    24
    0.018866083   2    1000022    25
    0.018356617   2    1000023    23
    0.017751119   2    1000012   -12
    0.017751119   2   -1000012    12
    0.017751119   2    1000014   -14
    0.017751119   2   -1000014    14
    0.017581044   2    1000011   -11
    0.017581044   2   -1000011    11
    0.017581044   2    1000013   -13
    0.017581044   2   -1000013    13
    0.014061344   2    2000001   -1
    0.014061344   2   -2000001    1
    0.014061344   2    2000003   -3
    0.014061344   2   -2000003    3
    0.0039105287   2    1000023    25
    0.0037292193   2    1000022    23
    0.00033131612   2    1000001   -1
    0.00033131612   2   -1000001    1
    0.00033131612   2    1000003   -3
    0.00033131612   2   -1000003    3
    0.00032478267   2    1000002   -2
    0.00032478267   2   -1000002    2
    0.00032477997   2    1000004   -4
    0.00032477997   2   -1000004    4
    0.00018432165   2    1000025    25
    0.00017702596   2    1000037   -24
    0.00017702596   2   -1000037    24
    5.8880812e-06   2    1000025    23

DECAY 25  0.0042593305
    0.55594603   2    5   -5
    0.24641255   2    24   -24
    0.078534691   2    21    21
    0.062081581   2   -15    15
    0.031800934   2    23    23
    0.020632959   2    4   -4
    0.0023722231   2    22    22
    0.0017601928   2    22    23
    0.00023911803   2    3   -3
    0.00021972665   2   -13    13

DECAY 35  8.5983563
    0.25311007   2    5   -5
    0.22916475   2    6   -6
    0.15513661   2    1000024   -1000037
    0.15513661   2    1000037   -1000024
    0.14668459   2    1000023    1000025
    0.044146926   2   -15    15
    0.0063030369   2    1000024   -1000024
    0.0054460532   2    1000022    1000025
    0.0020691751   2    1000022    1000022
    0.0012855114   2    1000022    1000023
    0.00043717087   2    1000023    1000023
    0.00039913661   2    25    25
    0.00015314248   2   -13    13
    0.0001087548   2    24   -24
    0.0001042067   2    3   -3
    9.8771913e-05   2    21    21
    5.4256758e-05   2    23    23
    4.5592334e-05   2    1000012   -1000012
    4.5592334e-05   2    1000014   -1000014
    1.4011908e-05   2    1000011   -1000011
    1.4011908e-05   2    1000013   -1000013
    1.071057e-05   2    2000002   -2000002
    1.071057e-05   2    2000004   -2000004
    7.4816106e-06   2    2000011   -2000011
    7.4816106e-06   2    2000013   -2000013
    2.480475e-06   2    1000005   -1000005
    2.3319004e-06   2    4   -4
    6.6286703e-07   2    22    22
    1.6448926e-07   2    23    22

DECAY 36  8.6664524
    0.25124445   2    5   -5
    0.22816629   2    6   -6
    0.15251525   2    1000024   -1000037
    0.15251525   2    1000037   -1000024
    0.14919459   2    1000022    1000025
    0.043802046   2   -15    15
    0.011508885   2    1000024   -1000024
    0.0049092123   2    1000023    1000025
    0.004891188   2    1000022    1000022
    0.00037277351   2    1000023    1000023
    0.00029458788   2    1000022    1000023
    0.00021703746   2    21    21
    0.00015194602   2   -13    13
    0.00010928679   2    23    25
    0.00010351059   2    3   -3
    2.3229149e-06   2    4   -4
    1.115691e-06   2    22    22
    2.6947689e-07   2    23    22

DECAY 37  8.5863838
    0.48333635   2    6   -5
    0.15887049   2    1000037    1000022
    0.1571445   2    1000024    1000025
    0.15318955   2    1000037    1000023
    0.044228521   2   -15    16
    0.0022366705   2    1000024    1000023
    0.00043262081   2    4   -5
    0.00015342544   2   -13    14
    0.00011051016   2    24    25
    0.00010505438   2    4   -3
    7.2793584e-05   2    1000024    1000022
    5.4987032e-05   2   -1000011    1000012
    5.4987032e-05   2   -1000013    1000014
    5.2230688e-06   2    2   -3
    4.3261653e-06   2    2   -5
    4.1739427e-13   2    24    36

DECAY 5 -1


DECAY 15 -1


DECAY 23  2.4952


DECAY 24  2.085
