BLOCK SPINFO
   1   SPheno
   2   v4.0.5be

BLOCK SPHENOINFO
   1   2
   2   2

BLOCK MODSEL
   1   0

BLOCK MINPAR
   3    41.88496
   4   -1

BLOCK EXTPAR
   0    1695.0221
   1    1895.53
   2   -646.11772
   3    3000
   11    2205.4278
   12   -265.59005
   13    410.79328
   23   -269.38506
   25    41.255564
   26    4311.2634
   31    1503.0257
   32    1503.0257
   33    1951.4894
   34    605.23796
   35    605.23796
   36    951.03594
   41    5000
   42    5000
   43    1528.533
   44    5000
   45    5000
   46    1850.1404
   47    5000
   48    5000
   49    811.72121

BLOCK SMINPUTS
   1    127.90897
   2    1.1663787e-05
   3    0.1184
   4    91.1876
   5    4.18
   6    173.2
   7    1.777
   8    0
   11    0.00051099893
   12    0
   13    0.10565837
   14    0
   21    0.005
   22    0.0025
   23    0.095
   24    1.27

BLOCK GAUGE Q=  1695.0221
   1    0.35536298
   2    0.66519887
   3    1.219778

BLOCK YU Q=  1695.0221
   1   1    8.3868348e-06
   2   2    0.0042605121
   3   3    1.013197

BLOCK YD Q=  1695.0221
   1   1    0.0006952818
   2   2    0.013210354
   3   3    0.68950168

BLOCK YE Q=  1695.0221
   1   1    0.00012133176
   2   2    0.025087559
   3   3    0.42193148

BLOCK AU Q=  1695.0221
   1   1    0
   2   2    0
   3   3    2205.4278

BLOCK AD Q=  1695.0221
   1   1    0
   2   2    0
   3   3   -265.59004

BLOCK AE Q=  1695.0221
   1   1    0
   2   2    0
   3   3    410.79328

BLOCK MSOFT Q=  1695.0221
   1    1895.53
   2   -646.11772
   3    3000
   21    18495547
   22    3900.7587
   31    1503.0257
   32    1503.0257
   33    1951.4894
   34    605.23796
   35    605.23796
   36    951.03594
   41    5000
   42    5000
   43    1528.533
   44    5000
   45    5000
   46    1850.1404
   47    5000
   48    5000
   49    811.72121

BLOCK MASS
   6    173.2
   23    91.1876
   24    80.429995
   15    1.777
   25    121.24116
   35    4307.5626
   36    4311.2634
   37    4308.7985
   1000001    5035.2701
   2000001    5024.4351
   1000002    5034.8048
   2000002    5026.5542
   1000003    5035.2752
   2000003    5024.4435
   1000004    5034.8096
   2000004    5026.5549
   1000005    858.13228
   2000005    1559.7508
   1000006    1532.2223
   2000006    1875.1196
   1000011    1510.8714
   2000011    609.31931
   1000012    1508.3615
   1000013    1510.8853
   2000013    609.39886
   1000014    1508.3749
   1000015    967.80369
   2000015    1960.8814
   1000016    1958.7685
   1000021    3201.3169
   1000022   -258.24414
   1000023    268.68603
   1000025   -694.99752
   1000035    1888.3137
   1000024    261.08894
   1000037    695.22986

BLOCK ALPHA
      -0.02390166

BLOCK HMIX Q=  1695.0221
   1   -269.38506
   2    41.255564
   3    243.89474
   4    18586992

BLOCK STOPMIX
   1   1   -0.9579498
   1   2    0.28693586
   2   1   -0.28693586
   2   2   -0.9579498

BLOCK SBOTMIX
   1   1   -0.018083258
   1   2    0.99983648
   2   1   -0.99983648
   2   2   -0.018083258

BLOCK STAUMIX
   1   1   -0.0070669803
   1   2    0.99997503
   2   1   -0.99997503
   2   2   -0.0070669803

BLOCK NMIX
   1   1   -0.014365876
   1   2   -0.13599978
   1   3   -0.71012282
   1   4    0.69066871
   2   1    0.018562382
   2   2    0.05885788
   2   3   -0.70185148
   2   4   -0.70964476
   3   1    0.0023519877
   3   2   -0.98895869
   3   3    0.055882128
   3   4   -0.13723107
   4   1    0.99972173
   4   2   -0.0007204802
   4   3    0.0026958154
   4   4    0.023424042

BLOCK UMIX
   1   1   -0.079528355
   1   2   -0.9968326
   2   1   -0.9968326
   2   2    0.079528355

BLOCK VMIX
   1   1    0.19546517
   1   2    0.98071064
   2   1    0.98071064
   2   2   -0.19546517

BLOCK HIGGSBOUNDSINPUTHIGGSCOUPLINGSFERMIONS
       0, 1702.0215,3,36,15,15

BLOCK HIGGSBOUNDSINPUTHIGGSCOUPLINGSBOSONS
       0,4,36,21,21,23

BLOCK SPHENOLOWENERGY
   1    0.00030417479
   2    1.5905866e-06
   3    3.5199001e-05
   4    2.66447e-15
   5    1.1382265e-10
   6    2.3798152e-08
   7    9.0621997e-14
   8    3.8713514e-09
   9    8.2007228e-07
   10    9.6337632e-05
   11    0.99513086
   12    0.542657
   13    19.387896
   14    0
   15    0
   16    0.0021599239
   17    2.2816853e-15
   18    2.4757883e-11
   19    8.2805603e-11
   20    1.051352e-14
   21    4.4954629e-10
   22    9.6325491e-08
   23    0
   24    0
   25    0
   26    0
   27    0
   28    0
   29    0
   30    0
   31    0
   39    8.9866149e-05
   40    0
   41    0
   42    0

BLOCK FWCOEF Q=  160
   305   4422   0   0   -0.18881911
   305   4422   0   2   -0.168088
   305   4322   0   2    8.1464784e-05
   305   6421   0   0   -0.095227835
   305   6421   0   2   -0.089996403
   305   6321   0   2   -3.5154054e-05
   3051111   4133   0   0    1.5967182
   3051111   4133   0   2    1.5980266
   3051111   4233   0   2    0.00026651617
   3051111   4137   0   0   -4.4194103
   3051111   4137   0   2   -4.412514
   3051111   4237   0   2   -0.0020562807
   3051313   4133   0   0    1.5967182
   3051313   4133   0   2    1.5980244
   3051313   4233   0   2    0.00026651418
   3051313   4137   0   0   -4.4194103
   3051313   4137   0   2   -4.4125162
   3051313   4237   0   2   -0.002056285
   3051212   4137   0   0    1.5053501
   3051212   4137   0   2    1.5038619
   3051212   4237   0   2    0.00044766508
   3051414   4137   0   0    1.5053501
   3051414   4137   0   2    1.5038619
   3051414   4237   0   2    0.0004476651
   3051616   4137   0   0    1.5053501
   3051616   4137   0   2    1.5038616
   3051616   4237   0   2    0.00044767082

BLOCK IMFWCOEF Q=  160
   305   4422   0   0    3.8584347e-07
   305   4422   0   2    2.2562607e-05
   305   4322   0   2    2.6867486e-06
   305   6421   0   0    3.3050045e-07
   305   6421   0   2    1.4278832e-05
   305   6321   0   2    9.9734655e-07
   3051111   4133   0   2    3.0632691e-07
   3051111   4233   0   2    5.1810766e-06
   3051111   4137   0   2   -7.206894e-07
   3051111   4237   0   2   -3.9981974e-05
   3051313   4133   0   2    3.0625916e-07
   3051313   4233   0   2    5.1810435e-06
   3051313   4137   0   2   -7.2064335e-07
   3051313   4237   0   2   -3.9982052e-05
   3051212   4137   0   2    3.8534646e-07
   3051212   4237   0   2    8.7043171e-06
   3051414   4137   0   2    3.8534795e-07
   3051414   4237   0   2    8.7043171e-06
   3051616   4137   0   2    3.805828e-07
   3051616   4237   0   2    8.7043151e-06

DECAY 23  2.4952


DECAY 24  2.085


DECAY 2000011  0.0011100288
    0.61674763   2    1000023    11
    0.3831459   2    1000022    11
    0.0001064716   2   -1000024    12

DECAY 1000011  12.482494
    0.65787489   2   -1000037    12
    0.32305525   2    1000025    11
    0.010364168   2    1000022    11
    0.006342641   2   -1000024    12
    0.0023630414   2    1000023    11

DECAY 2000013  0.011193612
    0.45151621   2   -1000024    14
    0.27914257   2    1000023    13
    0.26934122   2    1000022    13

DECAY 1000013  12.500744
    0.65692701   2   -1000037    14
    0.32259256   2    1000025    13
    0.011068473   2    1000022    13
    0.006333447   2   -1000024    14
    0.0030586034   2    1000023    13

DECAY 1000015  5.8733069
    0.49943642   2   -1000024    16
    0.25474005   2    1000022    15
    0.24486634   2    1000023    15
    0.00063989401   2   -1000037    16
    0.00031730347   2    1000025    15

DECAY 2000015  26.672832
    0.49188575   2   -1000037    16
    0.24210855   2    1000025    15
    0.13288613   2    1000022    15
    0.12508937   2    1000023    15
    0.0035178121   2   -1000024    16
    0.0020491797   2    1000015    23
    0.0019770303   2    1000015    25
    0.00048617249   2    1000035    15

DECAY 1000012  12.555454
    0.63088476   2    1000037    11
    0.32170217   2    1000025    12
    0.038020963   2    1000024    11
    0.0082046365   2    1000022    12
    0.0011874698   2    1000023    12

DECAY 1000014  12.573413
    0.63000147   2    1000037    13
    0.32124859   2    1000025    14
    0.039371151   2    1000024    13
    0.0081929992   2    1000022    14
    0.0011857856   2    1000023    14

DECAY 1000016  26.726317
    0.47531795   2    1000037    15
    0.27259002   2    1000024    15
    0.2416773   2    1000025    16
    0.0051290966   2    1000022    16
    0.0040813231   2    1000015    24
    0.00074387889   2    1000023    16
    0.00046043522   2    1000035    16

DECAY 2000001  142.02131
    0.98543071   2    1000021    1
    0.014557684   2    1000035    1

DECAY 1000001  205.5995
    0.68618492   2    1000021    1
    0.20613882   2   -1000037    2
    0.10153615   2    1000025    1
    0.0025434395   2    1000035    1
    0.0019095258   2    1000022    1
    0.001356249   2   -1000024    2
    0.00033089054   2    1000023    1

DECAY 2000003  142.05679
    0.98519077   2    1000021    3
    0.014554089   2    1000035    3
    0.00012136149   2   -1000024    4

DECAY 1000003  205.61924
    0.68612161   2    1000021    3
    0.20611959   2   -1000037    4
    0.10152676   2    1000025    3
    0.0025431999   2    1000035    3
    0.0019518769   2    1000022    3
    0.0013645734   2   -1000024    4
    0.00037238469   2    1000023    3

DECAY 1000005  12.61981
    0.47308021   2   -1000024    6
    0.26944485   2    1000022    5
    0.25732973   2    1000023    5
    0.00014520579   2    1000025    5

DECAY 2000005  56.605678
    0.49714355   2   -1000024    6
    0.17369699   2   -1000037    6
    0.12582584   2    1000022    5
    0.12141195   2    1000023    5
    0.076942975   2    1000025    5
    0.0025199774   2    1000005    25
    0.0024587062   2    1000005    23

DECAY 2000002  148.45455
    0.9442119   2    1000021    2
    0.055746272   2    1000035    2

DECAY 1000002  205.59451
    0.68596605   2    1000021    2
    0.19950987   2    1000037    1
    0.10135666   2    1000025    2
    0.0081925007   2    1000024    1
    0.0025022746   2    1000035    2
    0.0020584917   2    1000022    2
    0.00041415787   2    1000023    2

DECAY 2000004  148.45816
    0.94418895   2    1000021    4
    0.055744929   2    1000035    4

DECAY 1000004  205.61415
    0.68590266   2    1000021    4
    0.19949154   2    1000037    3
    0.1013472   2    1000025    4
    0.0082755078   2    1000024    3
    0.0025020411   2    1000035    4
    0.0020624981   2    1000022    4
    0.000418549   2    1000023    4

DECAY 1000006  57.192939
    0.30188669   2    1000024    5
    0.2631663   2    1000023    6
    0.25987729   2    1000022    6
    0.10946839   2    1000037    5
    0.054197221   2    1000025    6
    0.0062275005   3    1000022    24    5
    0.0040565793   2    1000005    24
    0.00093311794   2    1000022    4
    0.00018691522   2    1000023    4

DECAY 2000006  92.194681
    0.34066364   2    1000024    5
    0.19068562   2    1000023    6
    0.1759046   2    1000022    6
    0.10578388   2    2000005    24
    0.062238668   2    1000006    25
    0.060352024   2    1000006    23
    0.042843903   2    1000037    5
    0.020887298   2    1000025    6
    0.00064037023   2    1000005    24

DECAY 1000024  5.5975022e-10
    0.47958932   3    1000022   -1    2
    0.18079794   3    1000022   -3    4
    0.15988002   3    1000022   -11    12
    0.15879149   3    1000022   -13    14
    0.020941226   3    1000022   -15    16

DECAY 1000037  5.9873642
    0.26560741   2    1000022    24
    0.25658222   2    1000023    24
    0.25052746   2    1000024    23
    0.22403288   2    1000024    25
    0.0014736612   3    1000022   -5    6
    0.0014606917   3    1000023   -5    6
    0.00030718331   3    1000024    6   -6

DECAY 1000022 -1


DECAY 1000023  5.6247476e-07
    0.29484493   2    1000022    22
    0.14560623   3    1000022    12   -12
    0.10887786   3    1000022    1   -1
    0.10877333   3    1000022    3   -3
    0.084915677   3    1000022    2   -2
    0.069694631   3    1000022    4   -4
    0.024568898   3    1000022    11   -11
    0.024533544   3    1000022    13   -13
    0.020187856   3    1000024    1   -2
    0.020187856   3   -1000024   -1    2
    0.017622814   3    1000024    3   -4
    0.017622814   3   -1000024   -3    4
    0.016139672   3    1000022    15   -15
    0.0091411295   3    1000022    5   -5
    0.0067293646   3    1000024    11   -12
    0.0067293646   3   -1000024   -11    12
    0.0067230515   3    1000024    13   -14
    0.0067230515   3   -1000024   -13    14
    0.0051889635   3    1000024    15   -16
    0.0051889635   3   -1000024   -15    16

DECAY 1000025  7.1188895
    0.23317684   2    1000024   -24
    0.23317684   2   -1000024    24
    0.19377513   2    1000023    23
    0.15224211   2    1000022    25
    0.1516754   2    1000023    25
    0.032703973   2    1000022    23
    0.001542707   3    1000024    5   -6
    0.001542707   3   -1000024   -5    6

DECAY 1000035  29.237477
    0.13015623   2    2000011   -11
    0.13015623   2   -2000011    11
    0.13014834   2    2000013   -13
    0.13014834   2   -2000013    13
    0.088159891   2    1000015   -15
    0.088159891   2   -1000015    15
    0.040186361   2    1000024   -24
    0.040186361   2   -1000024    24
    0.034010459   2    1000005   -5
    0.034010459   2   -1000005    5
    0.026011473   2    1000022    25
    0.024899555   2    1000023    25
    0.024281526   2    1000022    23
    0.016021623   2    1000023    23
    0.0057444967   2    1000006   -6
    0.0057444967   2   -1000006    6
    0.0053253406   2    1000012   -12
    0.0053253406   2   -1000012    12
    0.005325008   2    1000014   -14
    0.005325008   2   -1000014    14
    0.0052346624   2    1000011   -11
    0.0052346624   2   -1000011    11
    0.0052343195   2    1000013   -13
    0.0052343195   2   -1000013    13
    0.0013826946   2    2000005   -5
    0.0013826946   2   -2000005    5
    0.0012974397   3    1000024    5   -6
    0.0012974397   3   -1000024   -5    6
    0.00077854217   3    1000023    6   -6
    0.00076164949   3    1000022    6   -6
    0.00072257274   2    1000037   -24
    0.00072257274   2   -1000037    24
    0.00059217315   2    1000025    25
    0.00057721838   2    1000025    23

DECAY 1000021  258.92026
    0.15765254   2    1000005   -5
    0.15765254   2   -1000005    5
    0.11684508   2    1000006   -6
    0.11684508   2   -1000006    6
    0.10640959   2    2000005   -5
    0.10640959   2   -2000005    5
    0.071508211   2    2000006   -6
    0.071508211   2   -2000006    6
    0.047486055   2    1000006   -4
    0.047486055   2   -1000006    4

DECAY 25  0.0034507208
    0.62891145   2   -5    5
    0.17029833   2   -24    24
    0.074788253   2    21    21
    0.071829853   2   -15    15
    0.031070696   2   -4    4
    0.019110724   2    23    23
    0.0023224927   2    22    22
    0.0011824715   2    22    23
    0.00024916647   2   -13    13
    0.00023574288   2   -3    3
    6.5180546e-07   2   -1    1
    1.6012695e-07   2   -2    2
    5.6015911e-09   2   -11    11

DECAY 35  176.75729
    0.60456001   2   -5    5
    0.089898338   2   -1000024    1000037
    0.089898338   2   -1000037    1000024
    0.08795319   2   -15    15
    0.048958144   2    1000023    1000025
    0.042402087   2    1000022    1000025
    0.009409139   2    1000022    1000035
    0.0088505968   2    1000023    1000035
    0.0082387537   2   -1000024    1000024
    0.0018306528   2    1000022    1000022
    0.0011696541   2   -1000037    1000037
    0.00085679924   2   -2000005    1000005
    0.00085679924   2   -1000005    2000005
    0.00073002673   2   -2000006    1000006
    0.00073002673   2   -1000006    2000006
    0.00067419817   2   -6    6
    0.00059153799   2    1000025    1000025
    0.00042158615   2    1000022    1000023
    0.00037974366   2   -1000006    1000006
    0.00030743886   2   -13    13
    0.00027056538   2   -2000015    1000015
    0.00027056538   2   -1000015    2000015
    0.00025931227   2    1000023    1000023
    0.00021079352   2   -2000006    2000006
    0.00017732252   2   -3    3
    8.6636909e-05   2    1000025    1000035
    3.7238634e-06   2    21    21
    2.4824613e-06   2   -1000005    1000005
    5.1731542e-07   2   -2000005    2000005
    4.902295e-07   2   -1    1
    8.6755918e-08   2    25    25
    6.6122635e-08   2    1000035    1000035
    6.305831e-08   2    23    23
    4.3922465e-08   2   -1000015    1000015
    3.9659136e-08   2   -2000015    2000015
    1.6865162e-08   2    22    23
    1.4418897e-08   2   -2000011    2000011
    1.4301291e-08   2   -2000013    2000013
    1.2504163e-08   2   -1000011    1000011
    1.2367357e-08   2   -1000013    1000013
    1.2239964e-08   2   -24    24
    8.1224276e-09   2   -4    4
    6.9040834e-09   2   -11    11
    5.0375371e-09   2    22    22
    2.8747981e-10   2   -2000013    1000013
    2.8747981e-10   2   -1000013    2000013
    4.1865374e-14   2   -2    2
    6.7241934e-15   2   -2000011    1000011
    6.7241934e-15   2   -1000011    2000011

DECAY 36  164.87995
    0.58506894   2   -5    5
    0.095973424   2   -1000024    1000037
    0.095973424   2   -1000037    1000024
    0.085113618   2   -15    15
    0.051775442   2    1000022    1000025
    0.045907985   2    1000023    1000025
    0.0099114518   2    1000023    1000035
    0.0097139264   2    1000022    1000035
    0.0093430578   2   -1000024    1000024
    0.0021874016   2    1000022    1000022
    0.0017377744   2   -1000037    1000037
    0.0011000234   2   -2000006    1000006
    0.0011000234   2   -1000006    2000006
    0.00091942639   2   -2000005    1000005
    0.00091942639   2   -1000005    2000005
    0.00087504034   2    1000025    1000025
    0.00062704156   2   -6    6
    0.00036224081   2    1000022    1000023
    0.00029751374   2   -13    13
    0.0002900942   2   -2000015    1000015
    0.0002900942   2   -1000015    2000015
    0.00025670803   2    1000023    1000023
    0.00017158234   2   -3    3
    7.6148509e-05   2    1000025    1000035
    7.3191823e-06   2    21    21
    4.743529e-07   2   -1    1
    1.5543326e-07   2    23    25
    1.3993512e-07   2    1000035    1000035
    5.5924229e-08   2    22    23
    3.5192524e-08   2    22    22
    7.4630561e-09   2   -4    4
    6.6812534e-09   2   -11    11
    3.0779997e-10   2   -2000013    1000013
    3.0779997e-10   2   -1000013    2000013
    4.6262723e-12   2    23    35
    3.8467833e-14   2   -2    2
    7.1994733e-15   2   -2000011    1000011
    7.1994733e-15   2   -1000011    2000011
    9.6389811e-39   2    25    25

DECAY 37  176.2918
    0.606157   2   -5    6
    0.097295919   2    1000022    1000037
    0.092842426   2    1000024    1000025
    0.091371342   2    1000023    1000037
    0.085750297   2   -15    16
    0.01814627   2    1000024    1000035
    0.002486533   2    1000023    1000024
    0.0020871432   2   -1000005    1000006
    0.0011908604   2   -2000005    2000006
    0.00089880001   2   -5    4
    0.00054299896   2   -1000015    1000016
    0.0004108327   2    1000022    1000024
    0.00030315781   2   -13    14
    0.00016275187   2   -3    4
    0.0001592082   2    1000035    1000037
    9.8950655e-05   2   -1000005    2000006
    7.964977e-05   2   -2000005    1000006
    7.653201e-06   2   -3    2
    6.4183585e-06   2   -5    2
    9.9776924e-07   2   -3    6
    4.5151039e-07   2   -1    2
    1.451654e-07   2    24    25
    5.6812278e-08   2   -2000011    1000012
    5.6646688e-08   2   -2000013    1000014
    3.4627824e-08   2   -1    6
    2.1485744e-08   2   -1    4
    1.1676472e-08   2    1000025    1000037
    7.0908926e-09   2   -11    12
    5.6838464e-10   2   -1000013    1000014
    5.4356214e-10   2   -2000015    1000016
    2.2267066e-14   2    24    35
    1.3294303e-14   2   -1000011    1000012

DECAY 6  2.43
    1   2    5    24

DECAY 15 -1
