BLOCK SPINFO
   1   SPheno
   2   v4.0.5be

BLOCK SPHENOINFO
   1   2
   2   2

BLOCK MODSEL
   1   0

BLOCK MINPAR
   3    46.515448
   4    1

BLOCK EXTPAR
   0    1690.5331
   1   -46.494275
   2   -1754.5625
   3    3000
   11   -4750.8199
   12   -209.38028
   13   -205.78035
   23    1500.5985
   25    45.453439
   26    3280.5108
   31    1853.1577
   32    1853.1577
   33    476.56245
   34    1979.8804
   35    1979.8804
   36    1172.8371
   41    5000
   42    5000
   43    1653.4468
   44    5000
   45    5000
   46    1825.8289
   47    5000
   48    5000
   49    1067.1709

BLOCK SMINPUTS
   1    127.90897
   2    1.1663787e-05
   3    0.1184
   4    91.1876
   5    4.18
   6    173.2
   7    1.777
   8    0
   11    0.00051099893
   12    0
   13    0.10565837
   14    0
   21    0.005
   22    0.0025
   23    0.095
   24    1.27

BLOCK GAUGE Q=  1690.5331
   1    0.35536298
   2    0.66519887
   3    1.219778

BLOCK YU Q=  1690.5331
   1   1    8.386401e-06
   2   2    0.0042602917
   3   3    1.0131446

BLOCK YD Q=  1690.5331
   1   1    0.00076598915
   2   2    0.014553794
   3   3    0.75962121

BLOCK YE Q=  1690.5331
   1   1    0.00013367071
   2   2    0.027638863
   3   3    0.4648402

BLOCK AU Q=  1690.5331
   1   1    0
   2   2    0
   3   3   -4750.8196

BLOCK AD Q=  1690.5331
   1   1    0
   2   2    0
   3   3   -209.38034

BLOCK AE Q=  1690.5331
   1   1    0
   2   2    0
   3   3   -205.78035

BLOCK MSOFT Q=  1690.5331
   1   -46.494275
   2   -1754.5625
   3    3000
   21    8552262.7
   22   -2198272.7
   31    1853.1577
   32    1853.1577
   33    476.56245
   34    1979.8804
   35    1979.8804
   36    1172.8371
   41    5000
   42    5000
   43    1653.4468
   44    5000
   45    5000
   46    1825.8289
   47    5000
   48    5000
   49    1067.1709

BLOCK MASS
   6    173.2
   23    91.1876
   24    80.429995
   15    1.777
   25    122.30908
   35    3276.5689
   36    3280.5108
   37    3278.9639
   1000001    5035.527
   2000001    5027.0487
   1000002    5035.091
   2000002    5028.9055
   1000003    5035.5381
   2000003    5027.0451
   1000004    5035.0937
   2000004    5028.906
   1000005    1099.4665
   2000005    1667.4202
   1000006    1510.436
   2000006    1892.104
   1000011    1866.5658
   2000011    1981.1648
   1000012    1864.5291
   1000013    1866.5326
   2000013    1981.1781
   1000014    1864.5248
   1000015    499.35443
   2000015    1177.1027
   1000016    506.20976
   1000021    3204.5826
   1000022   -46.605188
   1000023   -1493.2405
   1000025    1502.3265
   1000035   -1807.0549
   1000024    1493.3764
   1000037    1807.2678

BLOCK ALPHA
      -0.021567287

BLOCK HMIX Q=  1690.5331
   1    1500.5985
   2    45.453439
   3    243.85942
   4    10761751

BLOCK STOPMIX
   1   1    0.79705134
   1   2    0.60391155
   2   1   -0.60391155
   2   2    0.79705134

BLOCK SBOTMIX
   1   1    0.075307224
   1   2    0.99716038
   2   1   -0.99716038
   2   2    0.075307224

BLOCK STAUMIX
   1   1    0.99509027
   1   2    0.098971461
   2   1   -0.098971461
   2   2    0.99509027

BLOCK NMIX
   1   1   -0.99956
   1   2   -7.9996602e-05
   1   3   -0.029661259
   1   4   -8.4681979e-05
   2   1    0.020752295
   2   2    0.17773475
   2   3   -0.69783455
   2   4   -0.69354642
   3   1    0.020908252
   3   2   -0.017275799
   3   3   -0.70656312
   3   4    0.70713008
   4   1   -0.0034628173
   4   2    0.98392678
   4   3    0.11364731
   4   4    0.13769676

BLOCK UMIX
   1   1   -0.15552874
   1   2    0.98783137
   2   1   -0.98783137
   2   2   -0.15552874

BLOCK VMIX
   1   1    0.18968553
   1   2    0.9818449
   2   1    0.9818449
   2   2   -0.18968553

BLOCK HIGGSBOUNDSINPUTHIGGSCOUPLINGSFERMIONS
       0, 2066.0151,3,36,15,15

BLOCK HIGGSBOUNDSINPUTHIGGSCOUPLINGSBOSONS
       0,4,36,21,21,23

BLOCK SPHENOLOWENERGY
   1    0.00027724962
   2    1.599343e-06
   3    3.5257581e-05
   4    1.7532282e-15
   5    7.4894959e-11
   6    1.562838e-08
   7    5.8623294e-14
   8    2.5043548e-09
   9    5.2959311e-07
   10    9.6251117e-05
   11    0.99423719
   12    0.54177633
   13    19.354168
   14    0
   15    0
   16    0.0021566025
   17    2.281652e-15
   18    2.4820556e-11
   19    8.2943699e-11
   20   -3.4780957e-15
   21   -1.4870017e-10
   22   -9.3085492e-08
   23    0
   24    0
   25    0
   26    0
   27    0
   28    0
   29    0
   30    0
   31    0
   39    9.3058431e-05
   40    0
   41    0
   42    0

BLOCK FWCOEF Q=  160
   305   4422   0   0   -0.18881911
   305   4422   0   2   -0.13530814
   305   4322   0   2    0.00031629744
   305   6421   0   0   -0.095227835
   305   6421   0   2   -0.06789001
   305   6321   0   2    4.6848194e-05
   3051111   4133   0   0    1.5967633
   3051111   4133   0   2    1.5973368
   3051111   4233   0   2    0.00036556081
   3051111   4137   0   0   -4.4194554
   3051111   4137   0   2   -4.4183759
   3051111   4237   0   2   -0.0028263614
   3051313   4133   0   0    1.5967633
   3051313   4133   0   2    1.5973339
   3051313   4233   0   2    0.00036555957
   3051313   4137   0   0   -4.4194554
   3051313   4137   0   2   -4.4183788
   3051313   4237   0   2   -0.0028263638
   3051212   4137   0   0    1.5053501
   3051212   4137   0   2    1.5051197
   3051212   4237   0   2    0.00061529466
   3051414   4137   0   0    1.5053501
   3051414   4137   0   2    1.5051197
   3051414   4237   0   2    0.00061529474
   3051616   4137   0   0    1.5053501
   3051616   4137   0   2    1.5051185
   3051616   4237   0   2    0.00061531369

BLOCK IMFWCOEF Q=  160
   305   4422   0   0    3.8593687e-07
   305   4422   0   2   -5.2218735e-06
   305   4322   0   2    7.5439637e-06
   305   6421   0   0    3.3058045e-07
   305   6421   0   2   -3.6580704e-05
   305   6321   0   2    3.3309636e-06
   3051111   4133   0   2   -2.7297107e-06
   3051111   4233   0   2    7.3243388e-06
   3051111   4137   0   2    2.2621062e-05
   3051111   4237   0   2   -5.6635018e-05
   3051313   4133   0   2   -2.7296888e-06
   3051313   4233   0   2    7.3243237e-06
   3051313   4137   0   2    2.2621103e-05
   3051313   4237   0   2   -5.6635068e-05
   3051212   4137   0   2   -4.837647e-06
   3051212   4237   0   2    1.232938e-05
   3051414   4137   0   2   -4.8376474e-06
   3051414   4237   0   2    1.232938e-05
   3051616   4137   0   2   -4.8585981e-06
   3051616   4237   0   2    1.2329314e-05

DECAY 23  2.4952


DECAY 24  2.085


DECAY 1000011  2.5237925
    0.92734291   2    1000022    11
    0.024838985   2   -1000037    12
    0.020398263   2   -1000024    12
    0.015042648   2    1000023    11
    0.012362124   2    1000035    11

DECAY 2000011  9.9364558
    0.99984005   2    1000022    11

DECAY 1000013  2.5272056
    0.92608385   2    1000022    13
    0.024778521   2   -1000037    14
    0.020367772   2   -1000024    14
    0.015726851   2    1000023    13
    0.012332924   2    1000035    13
    0.00071008666   2    1000025    13

DECAY 2000013  9.9475098
    0.99873837   2    1000022    13
    0.00055072664   2   -1000024    14
    0.00035542196   2    1000023    13
    0.00035197889   2    1000025    13

DECAY 1000015  0.64282929
    1   2    1000022    15

DECAY 2000015  17.651711
    0.33061412   2    1000022    15
    0.32515574   2    1000016   -24
    0.18137407   2    1000015    25
    0.16285606   2    1000015    23

DECAY 1000012  2.5297458
    0.92359492   2    1000022    12
    0.030002675   2    1000024    11
    0.022877783   2    1000037    11
    0.01161528   2    1000035    12
    0.011586343   2    1000023    12
    0.00032299478   2    1000025    12

DECAY 1000014  2.5332883
    0.92230125   2    1000022    14
    0.03136614   2    1000024    13
    0.022842822   2    1000037    13
    0.011597332   2    1000035    14
    0.01156992   2    1000023    14
    0.00032253678   2    1000025    14

DECAY 1000016  0.62440852
    0.99999996   2    1000022    16

DECAY 2000001  142.63947
    0.98032972   2    1000021    1
    0.019655244   2    1000022    1

DECAY 1000001  192.01221
    0.73284663   2    1000021    1
    0.1709775   2   -1000037    2
    0.084926527   2    1000035    1
    0.0046452097   2   -1000024    2
    0.0036531792   2    1000022    1
    0.0029085896   2    1000023    1

DECAY 2000003  142.67414
    0.98008886   2    1000021    3
    0.019650584   2    1000022    3
    0.0001204391   2   -1000024    4

DECAY 1000003  192.03262
    0.73277477   2    1000021    3
    0.17096025   2   -1000037    4
    0.084918904   2    1000035    3
    0.0046522539   2   -1000024    4
    0.0036528959   2    1000022    3
    0.0029529062   2    1000023    3

DECAY 1000005  0.63797739
    1   2    1000022    5

DECAY 2000005  14.035952
    0.51890915   2    1000006   -24
    0.29794661   2    1000005    25
    0.10983867   2    1000005    23
    0.025972205   2    1000023    5
    0.024319986   2    1000025    5
    0.015998835   2    1000022    5
    0.0070145492   2   -1000024    6

DECAY 2000002  151.25359
    0.92577503   2    1000021    2
    0.074170789   2    1000022    2

DECAY 1000002  192.00207
    0.73264908   2    1000021    2
    0.1688971   2    1000037    1
    0.084706693   2    1000035    2
    0.0069093789   2    1000024    1
    0.0036596285   2    1000022    2
    0.0031605249   2    1000023    2

DECAY 2000004  151.25659
    0.9257566   2    1000021    4
    0.074169313   2    1000022    4

DECAY 1000004  192.02141
    0.73257648   2    1000021    4
    0.16888222   2    1000037    3
    0.084698307   2    1000035    4
    0.0069981725   2    1000024    3
    0.0036592614   2    1000022    4
    0.0031640367   2    1000023    4

DECAY 1000006  2.2324727
    0.59567946   2    1000022    6
    0.37030596   2    1000005    24
    0.027626208   2    1000022    4
    0.0030023396   2    1000024    5
    0.0019760749   3    1000022    24    5
    0.0010113258   3   -1000015    16    5
    0.00038337834   3    1000016   -15    5

DECAY 2000006  58.966563
    0.39529872   2    1000006    23
    0.25705748   2    2000005    24
    0.087861721   2    1000024    5
    0.059922544   2    1000023    6
    0.055296423   2    1000025    6
    0.051852155   2    1000006    25
    0.046207944   2    1000022    6
    0.046201327   2    1000005    24
    0.0003016871   2    1000037    5

DECAY 1000024  9.7772866
    0.55815192   2   -1000005    6
    0.26954101   2    1000016   -15
    0.099076804   2    1000022    24
    0.043480112   2   -2000015    16
    0.026394028   2   -1000015    16
    0.0033532619   3    1000022   -5    6

DECAY 1000037  22.533949
    0.29268444   2    1000016   -15
    0.28467063   2   -1000015    16
    0.10191871   2    1000023    24
    0.090505767   2    1000006   -5
    0.073303781   2    1000024    25
    0.072890882   2    1000024    23
    0.071222599   2    1000025    24
    0.0051013815   2   -1000005    6
    0.0049624495   2   -2000015    16
    0.0019870484   2    1000022    24
    0.00029621075   3    1000023   -5    6
    0.00020057121   3    1000025   -5    6

DECAY 1000022 -1


DECAY 1000023  9.668638
    0.27802536   2    1000005   -5
    0.27802536   2   -1000005    5
    0.14330559   2    1000015   -15
    0.14330559   2   -1000015    15
    0.0497957   2    1000022    23
    0.046722403   2    1000022    25
    0.022071651   2    2000015   -15
    0.022071651   2   -2000015    15
    0.0073944131   2    1000016   -16
    0.0073944131   2   -1000016    16
    0.0018523932   3    1000022    6   -6

DECAY 1000025  9.6214457
    0.28888609   2    1000005   -5
    0.28888609   2   -1000005    5
    0.13158018   2    1000015   -15
    0.13158018   2   -1000015    15
    0.053556726   2    1000022    25
    0.05284138   2    1000022    23
    0.025161723   2    2000015   -15
    0.025161723   2   -2000015    15
    0.0018753458   3    1000022    6   -6
    0.00021849645   2    1000016   -16
    0.00021849645   2   -1000016    16

DECAY 1000035  25.543467
    0.12848079   2    1000016   -16
    0.12848079   2   -1000016    16
    0.12556628   2    1000015   -15
    0.12556628   2   -1000015    15
    0.082115469   2    1000025    23
    0.074902698   2    1000024   -24
    0.074902698   2   -1000024    24
    0.073904026   2    1000025    25
    0.063199007   2    1000023    25
    0.044877151   2    1000006   -6
    0.044877151   2   -1000006    6
    0.010443327   2    2000005   -5
    0.010443327   2   -2000005    5
    0.0022631795   2    2000015   -15
    0.0022631795   2   -2000015    15
    0.0022290879   2    1000005   -5
    0.0022290879   2   -1000005    5
    0.00088543059   2    1000022    23
    0.0008584784   2    1000022    25
    0.0007344102   2    1000023    23
    0.00026488429   3    1000024    5   -6
    0.00026488429   3   -1000024   -5    6

DECAY 1000021  237.4346
    0.15542351   2    1000005   -5
    0.15542351   2   -1000005    5
    0.10628951   2    2000005   -5
    0.10628951   2   -2000005    5
    0.1045207   2    1000006   -6
    0.1045207   2   -1000006    6
    0.09775541   2    2000006   -6
    0.09775541   2   -2000006    6
    0.035423809   2    1000006   -4
    0.035423809   2   -1000006    4
    0.00023113713   3    1000025    6   -6
    0.00021707363   3    1000023    6   -6

DECAY 25  0.0035457164
    0.61407393   2   -5    5
    0.18690675   2   -24    24
    0.072755964   2    21    21
    0.070421054   2   -15    15
    0.030287997   2   -4    4
    0.021432061   2    23    23
    0.0023646029   2    22    22
    0.0012793728   2    22    23
    0.00024414465   2   -13    13
    0.00023067331   2   -3    3
    2.6522678e-06   2    1000022    1000022
    6.3778765e-07   2   -1    1
    1.5608935e-07   2   -2    2
    5.4886777e-09   2   -11    11

DECAY 35  49.254834
    0.58198646   2   -5    5
    0.20405107   2   -15    15
    0.11961122   2   -1000006    1000006
    0.025005924   2    1000022    1000023
    0.023503661   2    1000022    1000025
    0.014112244   2   -1000024    1000037
    0.014112244   2   -1000037    1000024
    0.0082371187   2    1000025    1000035
    0.0019329803   2   -1000024    1000024
    0.0014333303   2    1000023    1000025
    0.0012777122   2   -6    6
    0.00082927132   2   -13    13
    0.00074210984   2    1000023    1000023
    0.00051730801   2   -2000005    1000005
    0.00051730801   2   -1000005    2000005
    0.00045438086   2   -3    3
    0.0003567792   2    25    25
    0.00032485516   2   -2000015    1000015
    0.00032485516   2   -1000015    2000015
    0.00026503218   2    1000022    1000035
    0.00016033181   2    1000023    1000035
    0.00012816905   2    1000022    1000022
    5.0449766e-05   2    21    21
    1.9040678e-05   2   -1000005    1000005
    1.6265646e-05   2   -1000015    1000015
    1.3685182e-05   2   -2000015    2000015
    1.3485594e-05   2    1000025    1000025
    1.25622e-06   2   -1    1
    7.00377e-07   2    23    23
    1.8865304e-07   2   -24    24
    1.3841401e-07   2    22    22
    1.1836213e-07   2    22    23
    5.013592e-08   2   -4    4
    1.8624503e-08   2   -11    11
    2.5856359e-13   2   -2    2

DECAY 36  41.849956
    0.64720314   2   -5    5
    0.2269872   2   -15    15
    0.029255652   2    1000022    1000025
    0.028015192   2    1000022    1000023
    0.015677702   2    1000023    1000035
    0.015433597   2   -1000024    1000037
    0.015433597   2   -1000037    1000024
    0.012332039   2   -1000024    1000024
    0.0046593185   2    1000023    1000023
    0.00092294724   2   -13    13
    0.00062770877   2   -2000005    1000005
    0.00062770877   2   -1000005    2000005
    0.00054574794   2   -6    6
    0.00050575412   2   -3    3
    0.00040073603   2   -2000015    1000015
    0.00040073603   2   -1000015    2000015
    0.00032083737   2    1000023    1000025
    0.00027590533   2    1000022    1000035
    0.00015102737   2    1000022    1000022
    0.00010951967   2    1000025    1000025
    8.9049382e-05   2    1000025    1000035
    2.0998121e-05   2    21    21
    1.4402303e-06   2    23    25
    1.398254e-06   2   -1    1
    7.9194206e-07   2    22    23
    2.0933615e-07   2    22    22
    3.3590037e-08   2   -4    4
    2.0728341e-08   2   -11    11
    2.4979173e-11   2    23    35
    1.733007e-13   2   -2    2
    1.8466601e-37   2    25    25

DECAY 37  69.900372
    0.71406585   2   -5    6
    0.202977   2   -15    16
    0.034354323   2    1000022    1000024
    0.013303178   2   -2000005    1000006
    0.010815252   2    1000023    1000037
    0.010480697   2    1000024    1000035
    0.0066775408   2    1000025    1000037
    0.0026114649   2   -1000005    2000006
    0.0016695517   2    1000024    1000025
    0.0010577964   2   -5    4
    0.00071759607   2   -13    14
    0.00047314434   2   -2000015    1000016
    0.00035333772   2    1000022    1000037
    0.00029892476   2   -3    4
    7.655651e-05   2   -1000005    1000006
    3.549417e-05   2    1000023    1000024
    1.4014577e-05   2   -3    2
    7.5537576e-06   2   -5    2
    7.276991e-06   2   -1000015    1000016
    1.6503921e-06   2   -3    6
    8.6150141e-07   2    24    25
    8.2878043e-07   2   -1    2
    5.5353076e-08   2   -1    6
    3.9248802e-08   2   -1    4
    1.6784647e-08   2   -11    12
    1.5346242e-12   2    24    35

DECAY 6  2.43
    1   2    5    24

DECAY 15 -1
