BLOCK SPINFO
   1   SPheno
   2   v4.0.5be

BLOCK SPHENOINFO
   1   2
   2   2

BLOCK MODSEL
   1   0

BLOCK MINPAR
   3    7.757975
   4    1

BLOCK EXTPAR
   0    4302.6731
   1   -916.20934
   2    2093.5814
   3    4614.1148
   11    7668.8357
   12   -4490.098
   13   -6769.2239
   23    2122.8178
   25    7.3468859
   26    3143.448
   31    3075.7347
   32    3075.7347
   33    1373.9564
   34    1164.5537
   35    1164.5537
   36    3494.2023
   41    2325.6358
   42    2325.6358
   43    3726.4949
   44    1563.5778
   45    1563.5778
   46    4835.0959
   47    3793.0813
   48    3793.0813
   49    4750.2491

BLOCK SMINPUTS
   1    127.90897
   2    1.1663787e-05
   3    0.1184
   4    91.1876
   5    4.18
   6    173.2
   7    1.777
   8    0
   11    0.00051099893
   12    0
   13    0.10565837
   14    0
   21    0.005
   22    0.0025
   23    0.095
   24    1.27

BLOCK GAUGE Q=  4302.6731
   1    0.35536298
   2    0.66519887
   3    1.219778

BLOCK YU Q=  4302.6731
   1   1    8.4616823e-06
   2   2    0.0042985346
   3   3    1.0222392

BLOCK YD Q=  4302.6731
   1   1    0.00012492238
   2   2    0.0023735252
   3   3    0.12388386

BLOCK YE Q=  4302.6731
   1   1    2.1799869e-05
   2   2    0.0045075215
   3   3    0.075809096

BLOCK AU Q=  4302.6731
   1   1    0
   2   2    0
   3   3    7668.8319

BLOCK AD Q=  4302.6731
   1   1    0
   2   2    0
   3   3   -4490.0975

BLOCK AE Q=  4302.6731
   1   1    0
   2   2    0
   3   3   -6769.2263

BLOCK MSOFT Q=  4302.6731
   1   -916.20934
   2    2093.5814
   3    4614.1148
   21    5000048.3
   22   -4058199.1
   31    3075.7347
   32    3075.7347
   33    1373.9564
   34    1164.5537
   35    1164.5537
   36    3494.2023
   41    2325.6358
   42    2325.6358
   43    3726.4949
   44    1563.5778
   45    1563.5778
   46    4835.0959
   47    3793.0813
   48    3793.0813
   49    4750.2491

BLOCK MASS
   6    173.2
   23    91.1876
   24    80.429995
   15    1.777
   25    124.91862
   35    3143.5509
   36    3143.448
   37    3144.7372
   1000001    2564.3568
   2000001    3967.2371
   1000002    2563.1587
   2000002    1819.9487
   1000003    2564.3564
   2000003    3967.2367
   1000004    2563.1584
   2000004    1819.9487
   1000005    3859.5596
   2000005    4896.6091
   1000006    3846.5828
   2000006    4812.8421
   1000011    3094.5494
   2000011    1169.5811
   1000012    3093.1621
   1000013    3094.5486
   2000013    1169.5786
   1000014    3093.161
   1000015    1413.6743
   2000015    3495.9868
   1000016    1411.2211
   1000021    4715.2295
   1000022   -900.56887
   1000023    2068.1343
   1000025   -2142.8419
   1000035    2191.5029
   1000024    2068.2965
   1000037    2191.615

BLOCK ALPHA
      -0.12848973

BLOCK HMIX Q=  4302.6731
   1    2122.8178
   2    7.3468859
   3    242.86224
   4    9881265.3

BLOCK STOPMIX
   1   1   -0.99326175
   1   2    0.11589262
   2   1   -0.11589262
   2   2   -0.99326175

BLOCK SBOTMIX
   1   1    0.99998966
   1   2    0.0045474915
   2   1   -0.0045474915
   2   2    0.99998966

BLOCK STAUMIX
   1   1    0.99999234
   1   2    0.0039136362
   2   1   -0.0039136362
   2   2    0.99999234

BLOCK NMIX
   1   1    0.99969987
   1   2    0.00011460369
   1   3    0.02342933
   1   4    0.0071567838
   2   1   -0.0072509875
   2   2   -0.78349196
   2   3    0.44552549
   2   4   -0.43312216
   3   1    0.021625429
   3   2   -0.01114387
   3   3   -0.70667717
   3   4   -0.70711776
   4   1   -0.0089403687
   4   2    0.62130198
   4   3    0.54914977
   4   4   -0.55887248

BLOCK UMIX
   1   1   -0.77240135
   1   2    0.63513475
   2   1    0.63513475
   2   2    0.77240135

BLOCK VMIX
   1   1   -0.7863452
   1   2    0.61778737
   2   1    0.61778737
   2   2    0.7863452

BLOCK HIGGSBOUNDSINPUTHIGGSCOUPLINGSFERMIONS
       0, 53.976732,3,36,15,15

BLOCK HIGGSBOUNDSINPUTHIGGSCOUPLINGSBOSONS
       0,4,36,21,21,23

BLOCK SPHENOLOWENERGY
   1    0.00032716883
   2    1.5898798e-06
   3    3.5263533e-05
   4    2.6309067e-15
   5    1.1238935e-10
   6    2.3527954e-08
   7    8.8529176e-14
   8    3.7819638e-09
   9    8.021989e-07
   10    9.6768662e-05
   11    0.99958323
   12    0.54205923
   13    19.367998
   14    0
   15    0
   16    0.0021575623
   17    2.2816608e-15
   18    2.4808031e-11
   19    8.2921192e-11
   20    1.6695494e-16
   21    7.1377541e-12
   22    2.917929e-09
   23    0
   24    0
   25    0
   26    0
   27    0
   28    0
   29    0
   30    0
   31    0
   39   -0.00012721101
   40    0
   41    0
   42    0

BLOCK FWCOEF Q=  160
   305   4422   0   0   -0.18881911
   305   4422   0   2   -0.19600185
   305   4322   0   2   -0.00014695531
   305   6421   0   0   -0.095227835
   305   6421   0   2   -0.1040495
   305   6321   0   2   -0.00017724847
   3051111   4133   0   0    1.6287443
   3051111   4133   0   2    1.6288607
   3051111   4233   0   2    1.4599799e-05
   3051111   4137   0   0   -4.4514364
   3051111   4137   0   2   -4.45083
   3051111   4237   0   2   -0.00010783276
   3051313   4133   0   0    1.6287443
   3051313   4133   0   2    1.6288607
   3051313   4233   0   2    1.4599798e-05
   3051313   4137   0   0   -4.4514364
   3051313   4137   0   2   -4.45083
   3051313   4237   0   2   -0.00010783276
   3051212   4137   0   0    1.5053501
   3051212   4137   0   2    1.5052229
   3051212   4237   0   2    2.3307244e-05
   3051414   4137   0   0    1.5053501
   3051414   4137   0   2    1.5052229
   3051414   4237   0   2    2.3307244e-05
   3051616   4137   0   0    1.5053501
   3051616   4137   0   2    1.5052227
   3051616   4237   0   2    2.3307293e-05

BLOCK IMFWCOEF Q=  160
   305   4422   0   0    3.8580726e-07
   305   4422   0   2    3.4739006e-06
   305   4322   0   2   -4.2031521e-07
   305   6421   0   0    3.3046943e-07
   305   6421   0   2   -6.8818044e-07
   305   6321   0   2   -2.904829e-07
   3051111   4133   0   2   -4.733214e-07
   3051111   4233   0   2    2.8666003e-07
   3051111   4137   0   2    4.8045591e-06
   3051111   4237   0   2   -2.1171607e-06
   3051313   4133   0   2   -4.7332141e-07
   3051313   4233   0   2    2.8666002e-07
   3051313   4137   0   2    4.8045593e-06
   3051313   4237   0   2   -2.1171607e-06
   3051212   4137   0   2   -9.7008946e-07
   3051212   4237   0   2    4.5760755e-07
   3051414   4137   0   2   -9.7008946e-07
   3051414   4237   0   2    4.5760755e-07
   3051616   4137   0   2   -9.7251507e-07
   3051616   4237   0   2    4.5760802e-07

DECAY 23  2.4952


DECAY 24  2.085


DECAY 2000011  0.97342005
    1   2    1000022    11

DECAY 1000011  14.833459
    0.3354066   2   -1000024    12
    0.21951301   2    1000022    11
    0.18404495   2   -1000037    12
    0.17430843   2    1000023    11
    0.086726971   2    1000035    11

DECAY 2000013  0.97340617
    1   2    1000022    13

DECAY 1000013  14.834031
    0.33539329   2   -1000024    14
    0.21950451   2    1000022    13
    0.18403761   2   -1000037    14
    0.17430648   2    1000023    13
    0.086729973   2    1000035    13

DECAY 1000015  0.6269746
    1   2    1000022    15

DECAY 2000015  16.128797
    0.94877891   2    1000022    15
    0.016149029   2    1000016   -24
    0.0080518749   2    1000015    23
    0.0074793024   2    1000015    25
    0.0057595618   2   -1000037    16
    0.0050316034   2    1000025    15
    0.0038780994   2   -1000024    16
    0.0029412549   2    1000035    15
    0.0019303675   2    1000023    15

DECAY 1000012  14.830879
    0.34702714   2    1000024    11
    0.21922809   2    1000022    12
    0.17376666   2    1000037    11
    0.17060085   2    1000023    12
    0.089249349   2    1000035    12
    0.00012790588   2    1000025    12

DECAY 1000014  14.831197
    0.34702924   2    1000024    13
    0.21922328   2    1000022    14
    0.17377537   2    1000037    13
    0.17059693   2    1000023    14
    0.089247272   2    1000035    14
    0.00012790292   2    1000025    14

DECAY 1000016  0.62224213
    1   2    1000022    16

DECAY 1000001  3.7437133
    0.43934908   2   -1000024    2
    0.22541542   2    1000023    1
    0.17677528   2   -1000037    2
    0.085060715   2    1000035    1
    0.073337778   2    1000022    1

DECAY 2000001  1.9919691
    0.99966457   2    1000022    1
    0.00026099662   2    1000025    1

DECAY 1000003  3.7438014
    0.43933631   2   -1000024    4
    0.22541117   2    1000023    3
    0.17679057   2   -1000037    4
    0.085060672   2    1000035    3
    0.073336062   2    1000022    3

DECAY 2000003  1.9924502
    0.99942317   2    1000022    3
    0.00031670334   2    1000025    3

DECAY 1000005  63.911879
    0.47862854   2   -1000037    6
    0.37498727   2   -1000024    6
    0.084572817   2    1000023    5
    0.049842499   2    1000035    5
    0.0075378772   2    1000022    5
    0.0044309948   2    1000025    5

DECAY 2000005  6.7673069
    0.37688425   2    1000022    5
    0.30180599   2    1000021    5
    0.087740639   2   -1000037    6
    0.07232562   2    1000025    5
    0.056658989   2   -1000024    6
    0.044322327   2    1000035    5
    0.027855872   2    1000023    5
    0.01339856   2    1000006   -24
    0.012455603   2    1000005    25
    0.006552147   2    1000005    23

DECAY 2000002  2.3162042
    1   2    1000022    2

DECAY 1000002  3.755369
    0.45215142   2    1000024    1
    0.22531028   2    1000023    2
    0.1658103   2    1000037    1
    0.083468373   2    1000035    2
    0.073245143   2    1000022    2

DECAY 2000004  2.3161996
    1   2    1000022    4

DECAY 1000004  3.7554681
    0.45214174   2    1000024    3
    0.22530298   2    1000023    4
    0.16580983   2    1000037    3
    0.083475859   2    1000035    4
    0.073243128   2    1000022    4

DECAY 1000006  64.029355
    0.29823833   2    1000025    6
    0.25923522   2    1000035    6
    0.16424942   2    1000023    6
    0.14204261   2    1000037    5
    0.12395277   2    1000024    5
    0.009289232   2    1000022    6
    0.0029924258   3    1000022    24    5

DECAY 2000006  246.18585
    0.18611216   2    1000005    24
    0.1599322   2    1000006    25
    0.13776473   2    1000037    5
    0.12925753   2    1000025    6
    0.12235683   2    1000024    5
    0.094919685   2    1000006    23
    0.069601963   2    1000035    6
    0.06012507   2    1000023    6
    0.039929827   2    1000022    6

DECAY 1000024  3.568248
    0.45469778   2    1000016   -15
    0.4324534   2   -1000015    16
    0.10740849   2    1000022    24
    0.0053587846   3    1000022   -5    6

DECAY 1000037  4.2463222
    0.31212207   2   -1000015    16
    0.30288955   2    1000016   -15
    0.17565332   2    1000022    24
    0.12000812   2    1000023    24
    0.080296265   2    1000024    23
    0.0086829974   3    1000022   -5    6

DECAY 1000022 -1


DECAY 1000023  4.0006001
    0.20210987   2    1000015   -15
    0.20210987   2   -1000015    15
    0.19746471   2    1000016   -16
    0.19746471   2   -1000016    16
    0.12408194   2    1000022    25
    0.073936593   2    1000022    23
    0.0026122742   3    1000022    6   -6

DECAY 1000025  1.1915121
    0.69335172   2    1000022    25
    0.20864734   2    1000022    23
    0.018556787   3    1000022    6   -6
    0.01635184   2    1000015   -15
    0.01635184   2   -1000015    15
    0.0055201977   3    1000024    1   -2
    0.0055201977   3   -1000024   -1    2
    0.0055164692   3    1000024    3   -4
    0.0055164692   3   -1000024   -3    4
    0.001840111   3    1000024    11   -12
    0.001840111   3   -1000024   -11    12
    0.001840104   3    1000024    13   -14
    0.001840104   3   -1000024   -13    14
    0.0018377567   3    1000024    15   -16
    0.0018377567   3   -1000024   -15    16
    0.0013801473   3    1000023    12   -12
    0.0011309549   2    2000013   -13
    0.0011309549   2   -2000013    13
    0.0010415643   2    2000011   -11
    0.0010415643   2   -2000011    11
    0.0010319738   3    1000023    1   -1
    0.0010319623   3    1000023    3   -3
    0.0010080655   3    1000023    5   -5
    0.00080493851   3    1000023    2   -2
    0.00080282272   3    1000023    4   -4
    0.00065380624   2    1000016   -16
    0.00065380624   2   -1000016    16
    0.00025805544   2    2000004   -4
    0.00025805544   2   -2000004    4
    0.00025482384   2    1000023    22
    0.0002329048   3    1000023    11   -11
    0.00023290033   3    1000023    13   -13
    0.00023156216   3    1000023    15   -15
    0.00021877321   2    2000002   -2
    0.00021877321   2   -2000002    2

DECAY 1000035  5.005477
    0.1787894   2    1000022    25
    0.12939679   2    1000016   -16
    0.12939679   2   -1000016    16
    0.12718966   2    1000015   -15
    0.12718966   2   -1000015    15
    0.11754573   2    1000022    23
    0.092811441   2    1000024   -24
    0.092811441   2   -1000024    24
    0.0043869513   3    1000022    6   -6

DECAY 1000021  534.5479
    0.094550282   2    2000002   -2
    0.094550282   2   -2000002    2
    0.094550281   2    2000004   -4
    0.094550281   2   -2000004    4
    0.064796295   2    1000004   -4
    0.064796295   2   -1000004    4
    0.064796289   2    1000002   -2
    0.064796289   2   -1000002    2
    0.064745487   2    1000003   -3
    0.064745487   2   -1000003    3
    0.064745473   2    1000001   -1
    0.064745473   2   -1000001    1
    0.015092873   2    1000006   -6
    0.015092873   2   -1000006    6
    0.014216759   2    1000005   -5
    0.014216759   2   -1000005    5
    0.011139036   2    2000003   -3
    0.011139036   2   -2000003    3
    0.011139028   2    2000001   -1
    0.011139028   2   -2000001    1

DECAY 25  0.003864252
    0.5737876   2   -5    5
    0.22741485   2   -24    24
    0.072627088   2    21    21
    0.066037493   2   -15    15
    0.028362111   2   -4    4
    0.027485149   2    23    23
    0.0023475455   2    22    22
    0.0014928666   2    22    23
    0.00022901831   2   -13    13
    0.00021553385   2   -3    3
    5.9592909e-07   2   -1    1
    1.4615688e-07   2   -2    2
    5.1485868e-09   2   -11    11

DECAY 35  4.3931782
    0.44000979   2   -5    5
    0.39277999   2   -6    6
    0.092255672   2   -15    15
    0.041181693   2    1000022    1000023
    0.023348469   2    1000022    1000035
    0.0079837482   2    1000022    1000025
    0.001041465   2    25    25
    0.00052278824   2    1000022    1000022
    0.00031292051   2   -13    13
    0.00016946636   2   -3    3
    0.00012068066   2    23    23
    8.7202972e-05   2    21    21
    3.7526849e-05   2   -1000015    1000015
    3.4282204e-05   2   -24    24
    1.5802936e-05   2   -1000004    1000004
    1.5798803e-05   2   -1000002    1000002
    1.362689e-05   2   -1000011    1000011
    1.3619082e-05   2   -1000013    1000013
    4.5686293e-06   2   -4    4
    5.0191669e-07   2    22    22
    4.6855394e-07   2   -1    1
    1.1868477e-07   2    22    23
    7.0279239e-09   2   -11    11
    2.3547696e-11   2   -2    2

DECAY 36  4.2758472
    0.44164507   2   -5    5
    0.38964341   2   -6    6
    0.092597994   2   -15    15
    0.064116127   2    1000022    1000025
    0.0087081368   2    1000022    1000023
    0.0016955812   2    1000022    1000035
    0.00068935708   2    1000022    1000022
    0.00031408506   2   -13    13
    0.00020871273   2    23    25
    0.00020571727   2    21    21
    0.00017010006   2   -3    3
    4.4636498e-06   2   -4    4
    5.9316391e-07   2    22    22
    4.7030524e-07   2   -1    1
    1.8114201e-07   2    22    23
    7.0540806e-09   2   -11    11
    2.3006867e-11   2   -2    2
    3.2552379e-37   2    25    25

DECAY 37  4.6211463
    0.84465308   2   -5    6
    0.081908056   2   -15    16
    0.047366947   2    1000022    1000024
    0.024090298   2    1000022    1000037
    0.00063153027   2   -3    6
    0.00059335458   2   -5    4
    0.0002895742   2   -13    14
    0.00019346561   2    24    25
    0.00015051325   2   -3    4
    8.2507036e-05   2   -1000015    1000016
    2.895503e-05   2   -1    6
    6.788662e-06   2   -3    2
    4.2371014e-06   2   -5    2
    4.0202605e-07   2   -1    2
    2.8328717e-07   2   -1    4
    6.7731707e-09   2   -11    12
    1.0492211e-12   2    24    36
    6.9206545e-13   2    24    35

DECAY 6  2.43
    1   2    5    24

DECAY 15 -1
