BLOCK SPINFO
   1   SPheno
   2   v4.0.5be

BLOCK SPHENOINFO
   1   2
   2   2

BLOCK MODSEL
   1   0

BLOCK MINPAR
   3    55.762963
   4    1

BLOCK EXTPAR
   0    1645.9469
   1   -372.85704
   2    1218.8565
   3    3000
   11   -3531.5906
   12   -971.90317
   13   -632.57971
   23    942.06529
   25    55.312938
   26    2350.0381
   31    1298.0172
   32    1298.0172
   33    878.66161
   34    1864.2385
   35    1864.2385
   36    1568.2256
   41    5000
   42    5000
   43    1765.8962
   44    5000
   45    5000
   46    1585.3276
   47    5000
   48    5000
   49    1088.3078

BLOCK SMINPUTS
   1    127.90897
   2    1.1663787e-05
   3    0.1184
   4    91.1876
   5    4.18
   6    173.2
   7    1.777
   8    0
   11    0.00051099893
   12    0
   13    0.10565837
   14    0
   21    0.005
   22    0.0025
   23    0.095
   24    1.27

BLOCK GAUGE Q=  1645.9469
   1    0.35536298
   2    0.66519887
   3    1.219778

BLOCK YU Q=  1645.9469
   1   1    8.3857422e-06
   2   2    0.004259957
   3   3    1.013065

BLOCK YD Q=  1645.9469
   1   1    0.0009320699
   2   2    0.017709328
   3   3    0.92432127

BLOCK YE Q=  1645.9469
   1   1    0.00016265301
   2   2    0.033631484
   3   3    0.56562624

BLOCK AU Q=  1645.9469
   1   1    0
   2   2    0
   3   3   -3531.5907

BLOCK AD Q=  1645.9469
   1   1    0
   2   2    0
   3   3   -971.90261

BLOCK AE Q=  1645.9469
   1   1    0
   2   2    0
   3   3   -632.57972

BLOCK MSOFT Q=  1645.9469
   1   -372.85704
   2    1218.8565
   3    3000
   21    4743182
   22   -850287.07
   31    1298.0172
   32    1298.0172
   33    878.66161
   34    1864.2385
   35    1864.2385
   36    1568.2256
   41    5000
   42    5000
   43    1765.8962
   44    5000
   45    5000
   46    1585.3276
   47    5000
   48    5000
   49    1088.3078

BLOCK MASS
   6    173.2
   23    91.1876
   24    80.429995
   15    1.777
   25    124.10278
   35    2347.8188
   36    2350.0381
   37    2350.2766
   1000001    5034.0221
   2000001    5024.5625
   1000002    5033.5747
   2000002    5025.9668
   1000003    5034.0316
   2000003    5024.5659
   1000004    5033.5793
   2000004    5025.9674
   1000005    1096.9699
   2000005    1763.2951
   1000006    1473.6985
   2000006    1838.3281
   1000011    1310.0131
   2000011    1866.5389
   1000012    1307.2397
   1000013    1309.9858
   2000013    1866.497
   1000014    1307.2206
   1000015    886.70433
   2000015    1559.1816
   1000016    887.71413
   1000021    3199.6997
   1000022   -372.09212
   1000023    936.26205
   1000025   -949.3035
   1000035    1271.1003
   1000024    937.53441
   1000037    1271.2797

BLOCK ALPHA
      -0.01801277

BLOCK HMIX Q=  1645.9469
   1    942.06529
   2    55.312938
   3    243.89488
   4    5522679.2

BLOCK STOPMIX
   1   1    0.4679869
   1   2    0.8837354
   2   1   -0.8837354
   2   2    0.4679869

BLOCK SBOTMIX
   1   1    0.05465603
   1   2    0.99850524
   2   1   -0.99850524
   2   2    0.05465603

BLOCK STAUMIX
   1   1    0.99813688
   1   2    0.061014564
   2   1   -0.061014564
   2   2    0.99813688

BLOCK NMIX
   1   1   -0.99826163
   1   2   -0.00094135913
   1   3   -0.055173059
   1   4   -0.020706679
   2   1   -0.024124804
   2   2   -0.17527584
   2   3    0.69938552
   2   4   -0.69250001
   3   1   -0.053633752
   3   2    0.02497462
   3   3    0.70459052
   3   4    0.70714347
   4   1    0.0038901923
   4   2   -0.98420209
   4   3   -0.10662096
   4   4    0.14129075

BLOCK UMIX
   1   1   -0.15028128
   1   2    0.98864328
   2   1    0.98864328
   2   2    0.15028128

BLOCK VMIX
   1   1   -0.19950877
   1   2    0.97989604
   2   1    0.97989604
   2   2    0.19950877

BLOCK HIGGSBOUNDSINPUTHIGGSCOUPLINGSFERMIONS
       0, 3059.5211,3,36,15,15

BLOCK HIGGSBOUNDSINPUTHIGGSCOUPLINGSBOSONS
       0,4,36,21,21,23

BLOCK SPHENOLOWENERGY
   1    0.00026914981
   2    1.6027735e-06
   3    3.5274248e-05
   4    2.9515487e-15
   5    1.2607695e-10
   6    2.5830923e-08
   7    9.8589117e-14
   8    4.2114079e-09
   9    8.7503277e-07
   10    9.5076958e-05
   11    0.98210858
   12    0.54199156
   13    19.351948
   14    0
   15    0
   16    0.0021572562
   17    2.2816609e-15
   18    2.4807728e-11
   19    8.2925098e-11
   20    6.9726398e-15
   21    2.9808895e-10
   22    8.108803e-08
   23    0
   24    0
   25    0
   26    0
   27    0
   28    0
   29    0
   30    0
   31    0
   39    7.7477967e-05
   40    0
   41    0
   42    0

BLOCK FWCOEF Q=  160
   305   4422   0   0   -0.18881911
   305   4422   0   2   -0.12283985
   305   4322   0   2    0.00036763421
   305   6421   0   0   -0.095227835
   305   6421   0   2   -0.06822742
   305   6321   0   2   -1.2454107e-05
   3051111   4133   0   0    1.596174
   3051111   4133   0   2    1.5973958
   3051111   4233   0   2    0.00040308387
   3051111   4137   0   0   -4.4188662
   3051111   4137   0   2   -4.4194097
   3051111   4237   0   2   -0.0031173863
   3051313   4133   0   0    1.596174
   3051313   4133   0   2    1.5973898
   3051313   4233   0   2    0.00040307922
   3051313   4137   0   0   -4.4188662
   3051313   4137   0   2   -4.4194157
   3051313   4237   0   2   -0.0031173913
   3051212   4137   0   0    1.5053501
   3051212   4137   0   2    1.5054776
   3051212   4237   0   2    0.00067874454
   3051414   4137   0   0    1.5053501
   3051414   4137   0   2    1.5054776
   3051414   4237   0   2    0.00067874509
   3051616   4137   0   0    1.5053501
   3051616   4137   0   2    1.5054775
   3051616   4237   0   2    0.00067889895

BLOCK IMFWCOEF Q=  160
   305   4422   0   0    3.8591694e-07
   305   4422   0   2    3.5384436e-05
   305   4322   0   2    9.848774e-06
   305   6421   0   0    3.3056338e-07
   305   6421   0   2   -1.0554295e-05
   305   6321   0   2    3.9502661e-06
   3051111   4133   0   2   -2.6825722e-07
   3051111   4233   0   2    9.1319254e-06
   3051111   4137   0   2    2.8216262e-06
   3051111   4237   0   2   -7.0649133e-05
   3051313   4133   0   2   -2.6834536e-07
   3051313   4233   0   2    9.1318886e-06
   3051313   4137   0   2    2.821587e-06
   3051313   4237   0   2   -7.0649268e-05
   3051212   4137   0   2   -4.6211527e-07
   3051212   4237   0   2    1.5382378e-05
   3051414   4137   0   2   -4.6211538e-07
   3051414   4237   0   2    1.5382378e-05
   3051616   4137   0   2   -4.6394392e-07
   3051616   4237   0   2    1.5382371e-05

DECAY 23  2.4952


DECAY 24  2.085


DECAY 1000011  1.5590028
    0.89213407   2    1000022    11
    0.039754809   2   -1000024    12
    0.031339564   2    1000023    11
    0.024540542   2   -1000037    12
    0.012219689   2    1000035    11

DECAY 2000011  8.6359571
    0.99792426   2    1000022    11
    0.0017169016   2    1000025    11
    0.00035404431   2    1000023    11

DECAY 1000013  1.5656963
    0.88834426   2    1000022    13
    0.039580576   2   -1000024    14
    0.03340203   2    1000023    13
    0.024402291   2   -1000037    14
    0.012152118   2    1000035    13
    0.002118725   2    1000025    13

DECAY 2000013  8.6848167
    0.99229748   2    1000022    13
    0.0030267603   2    1000025    13
    0.002642537   2   -1000024    14
    0.0016769659   2    1000023    13
    0.00030435681   2    1000013    25

DECAY 1000015  0.78834288
    1   2    1000022    15

DECAY 2000015  20.324324
    0.34065866   2    1000022    15
    0.18959406   2   -1000024    16
    0.14247231   2    1000016   -24
    0.097230005   2    1000025    15
    0.095500924   2    1000023    15
    0.070733261   2    1000015    23
    0.059785205   2    1000015    25
    0.0026781987   2   -1000037    16
    0.00134738   2    1000035    15

DECAY 1000012  1.5739942
    0.87490969   2    1000022    12
    0.068634994   2    1000024    11
    0.022865982   2    1000023    12
    0.020668312   2    1000037    11
    0.010572485   2    1000035    12
    0.0023485399   2    1000025    12

DECAY 1000014  1.5806753
    0.87119437   2    1000022    14
    0.072620962   2    1000024    13
    0.022767594   2    1000023    14
    0.020561704   2    1000037    13
    0.01051695   2    1000035    14
    0.0023384259   2    1000025    14

DECAY 1000016  0.75240158
    1   2    1000022    16

DECAY 2000001  142.93276
    0.98059172   2    1000021    1
    0.019343752   2    1000022    1

DECAY 1000001  200.19414
    0.70502976   2    1000021    1
    0.18964282   2   -1000037    2
    0.094107364   2    1000035    1
    0.0046584838   2   -1000024    2
    0.0034228214   2    1000022    1
    0.0030158367   2    1000023    1
    0.00012291441   2    1000025    1

DECAY 2000003  142.9913
    0.98019283   2    1000021    3
    0.019336504   2    1000022    3
    0.0001996286   2   -1000024    4
    0.00015368849   2    1000025    3
    0.00011056193   2    1000023    3

DECAY 1000003  200.22611
    0.70492213   2    1000021    3
    0.18961336   2   -1000037    4
    0.094094142   2    1000035    3
    0.0046658288   2   -1000024    4
    0.003422752   2    1000022    3
    0.0030866605   2    1000023    3
    0.00019513337   2    1000025    3

DECAY 1000005  1.8031607
    0.37672383   2    1000023    5
    0.3215034   2    1000025    5
    0.30177278   2    1000022    5

DECAY 2000005  61.904658
    0.31940968   2    1000006   -24
    0.27233745   2   -1000024    6
    0.12235248   2    1000023    5
    0.12187297   2    1000025    5
    0.06732367   2   -1000037    6
    0.042426185   2    1000005    25
    0.029986605   2    1000035    5
    0.020059249   2    1000005    23
    0.0042317207   2    1000022    5

DECAY 2000002  151.4036
    0.92669368   2    1000021    2
    0.073066836   2    1000022    2
    0.00019830248   2    1000025    2

DECAY 1000002  200.1874
    0.70482097   2    1000021    2
    0.18628707   2    1000037    1
    0.093835328   2    1000035    2
    0.008210133   2    1000024    1
    0.0034958973   2    1000022    2
    0.0033261086   2    1000023    2

DECAY 2000004  151.40697
    0.92667303   2    1000021    4
    0.073065211   2    1000022    4
    0.00020386355   2    1000025    4

DECAY 1000004  200.21872
    0.70471281   2    1000021    4
    0.18626128   2    1000037    3
    0.093820939   2    1000035    4
    0.0083512862   2    1000024    3
    0.0034953567   2    1000022    4
    0.0033296228   2    1000023    4

DECAY 1000006  21.300622
    0.51712814   2    1000024    5
    0.19386353   2    1000023    6
    0.17746441   2    1000025    6
    0.10183325   2    1000022    6
    0.005521886   2    1000005    24
    0.0018496019   2    1000037    5
    0.00098617193   2    1000035    6
    0.00093808594   2    1000022    4
    0.00038432529   2    1000023    4

DECAY 2000006  68.961514
    0.22489213   2    1000024    5
    0.21689236   2    1000006    23
    0.1526833   2    1000025    6
    0.13932968   2    1000023    6
    0.10837359   2    1000006    25
    0.067254793   2    1000037    5
    0.03746713   2    1000005    24
    0.036892334   2    1000035    6
    0.016214689   2    1000022    6

DECAY 1000024  0.61719319
    0.93151308   2    1000022    24
    0.054267462   2    1000016   -15
    0.011149477   3    1000022   -5    6
    0.0030149819   2   -1000015    16

DECAY 1000037  10.29789
    0.19845185   2    1000025    24
    0.18284228   2    1000023    24
    0.17404486   2    1000024    23
    0.16107325   2    1000024    25
    0.13911883   2    1000016   -15
    0.13732838   2   -1000015    16
    0.0052268909   2    1000022    24
    0.00060797968   3    1000023   -5    6
    0.00056444128   3    1000025   -5    6
    0.00037481842   2   -1000005    6
    0.0001095457   3    1000022   -5    6
    0.00010470135   3    1000022   -13    14
    0.00010467444   3    1000022   -11    12

DECAY 1000022 -1


DECAY 1000023  0.96920931
    0.49668321   2    1000022    23
    0.46580829   2    1000022    25
    0.017466963   2    1000015   -15
    0.017466963   2   -1000015    15
    0.0011380475   3    1000022    6   -6
    0.00057207131   2    1000016   -16
    0.00057207131   2   -1000016    16
    0.00024828932   3    1000022    5   -5

DECAY 1000025  0.60562
    0.74061421   2    1000022    25
    0.17609752   2    1000022    23
    0.040110741   2    1000015   -15
    0.040110741   2   -1000015    15
    0.0022315606   3    1000022    6   -6
    0.00044363864   3    1000022    5   -5
    0.00015637271   2    1000016   -16
    0.00015637271   2   -1000016    16

DECAY 1000035  11.936238
    0.17220114   2    1000025    23
    0.1538415   2    1000024   -24
    0.1538415   2   -1000024    24
    0.13498606   2    1000023    25
    0.1331641   2    1000025    25
    0.05982332   2    1000016   -16
    0.05982332   2   -1000016    16
    0.059335515   2    1000015   -15
    0.059335515   2   -1000015    15
    0.0035079869   2    1000022    23
    0.0033453787   2    1000023    23
    0.0032181143   2    1000022    25
    0.0011136778   2    1000005   -5
    0.0011136778   2   -1000005    5
    0.00053169309   3    1000024    5   -6
    0.00053169309   3   -1000024   -5    6

DECAY 1000021  227.22221
    0.16224583   2    1000005   -5
    0.16224583   2   -1000005    5
    0.11448662   2    1000006   -6
    0.11448662   2   -1000006    6
    0.10551559   2    2000006   -6
    0.10551559   2   -2000006    6
    0.10108841   2    2000005   -5
    0.10108841   2   -2000005    5
    0.014236285   2    1000006   -4
    0.014236285   2   -1000006    4
    0.0023278431   3    1000024    5   -6
    0.0023278431   3   -1000024   -5    6

DECAY 25  0.0037732715
    0.58819288   2   -5    5
    0.21357199   2   -24    24
    0.07212519   2    21    21
    0.067611551   2   -15    15
    0.028883717   2   -4    4
    0.025394742   2    23    23
    0.0023438979   2    22    22
    0.0014202189   2    22    23
    0.00023447538   2   -13    13
    0.00022057397   2   -3    3
    6.0986262e-07   2   -1    1
    1.4884715e-07   2   -2    2
    5.2712803e-09   2   -11    11

DECAY 35  87.539744
    0.68283441   2   -5    5
    0.22013268   2   -15    15
    0.024079792   2   -1000024    1000037
    0.024079792   2   -1000037    1000024
    0.02032637   2    1000025    1000035
    0.01177623   2    1000022    1000023
    0.0087174033   2    1000022    1000025
    0.0027103672   2    1000023    1000035
    0.0022943964   2   -1000024    1000024
    0.00078343993   2    1000023    1000023
    0.00071506044   2   -13    13
    0.00059503125   2    1000023    1000025
    0.00032981723   2   -6    6
    0.00032168844   2   -3    3
    0.00015510961   2    1000022    1000022
    6.8168896e-05   2    1000025    1000025
    4.4666154e-05   2   -1000015    1000015
    2.6598106e-05   2    21    21
    6.4639912e-06   2    1000022    1000035
    9.8012636e-07   2    25    25
    8.8930793e-07   2   -1    1
    2.2524615e-07   2    23    23
    1.2124165e-07   2    22    23
    9.5049872e-08   2   -24    24
    8.3500571e-08   2    22    22
    1.6061035e-08   2   -11    11
    5.6997679e-09   2   -4    4
    2.9372623e-14   2   -2    2

DECAY 36  81.655605
    0.67840688   2   -5    5
    0.21873933   2   -15    15
    0.023101114   2   -1000024    1000037
    0.023101114   2   -1000037    1000024
    0.020412027   2    1000023    1000035
    0.011946805   2    1000022    1000025
    0.009939904   2    1000022    1000023
    0.0070449059   2   -1000024    1000024
    0.0029445258   2    1000025    1000035
    0.0024387084   2    1000023    1000023
    0.00071059393   2   -13    13
    0.00031967974   2   -3    3
    0.00028290796   2   -6    6
    0.0002035049   2    1000023    1000025
    0.00019375623   2    1000025    1000025
    0.00018006384   2    1000022    1000022
    2.4277105e-05   2    21    21
    8.0620344e-06   2    1000022    1000035
    8.8375413e-07   2   -1    1
    4.3022055e-07   2    22    23
    3.4319104e-07   2    23    25
    1.6407959e-07   2    22    22
    1.5960736e-08   2   -11    11
    4.9427522e-09   2   -4    4
    7.2391132e-13   2    23    35
    2.5468126e-14   2   -2    2
    6.4921641e-37   2    25    25

DECAY 37  99.758956
    0.76809696   2   -5    6
    0.14650545   2   -15    16
    0.022102806   2    1000023    1000037
    0.021456073   2    1000024    1000035
    0.020133243   2    1000025    1000037
    0.018527928   2    1000022    1000024
    0.0011485544   2    1000024    1000025
    0.0011403946   2   -5    4
    0.00051794931   2   -13    14
    0.00026060742   2   -3    4
    5.3517393e-05   2    1000023    1000024
    2.1491469e-05   2   -1000015    1000016
    1.2817238e-05   2    1000022    1000037
    1.2171471e-05   2   -3    2
    8.1435965e-06   2   -5    2
    8.1890355e-07   2   -3    6
    7.2254741e-07   2   -1    2
    2.8128388e-07   2    24    25
    3.3831e-08   2   -1    4
    1.998586e-08   2   -1    6
    1.2114888e-08   2   -11    12
    1.2232455e-12   2    24    35

DECAY 6  2.43
    1   2    5    24

DECAY 15 -1
