BLOCK SPINFO
   1   SPheno
   2   v4.0.5be

BLOCK SPHENOINFO
   1   2
   2   2

BLOCK MODSEL
   1   0

BLOCK MINPAR
   3    16.527406
   4   -1

BLOCK EXTPAR
   0    2556.4889
   1   -1398.1027
   2    2149.6774
   3    2203.9331
   11   -7869.3761
   12   -4115.4217
   13   -1961.3002
   23   -1696.7286
   25    15.843609
   26    3558.6452
   31    3850.0859
   32    3850.0859
   33    3239.9804
   34    1830.7226
   35    1830.7226
   36    1910.7963
   41    1865.8299
   42    1865.8299
   43    2174.7216
   44    1238.0231
   45    1238.0231
   46    3122.0278
   47    1354.806
   48    1354.806
   49    2745.2574

BLOCK SMINPUTS
   1    127.90897
   2    1.1663787e-05
   3    0.1184
   4    91.1876
   5    4.18
   6    173.2
   7    1.777
   8    0
   11    0.00051099893
   12    0
   13    0.10565837
   14    0
   21    0.005
   22    0.0025
   23    0.095
   24    1.27

BLOCK GAUGE Q=  2556.4889
   1    0.35536298
   2    0.66519887
   3    1.219778

BLOCK YU Q=  2556.4889
   1   1    8.4010561e-06
   2   2    0.0042677365
   3   3    1.0149151

BLOCK YD Q=  2556.4889
   1   1    0.0002674658
   2   2    0.0050818502
   3   3    0.26524226

BLOCK YE Q=  2556.4889
   1   1    4.6674738e-05
   2   2    0.0096508556
   3   3    0.16231151

BLOCK AU Q=  2556.4889
   1   1    0
   2   2    0
   3   3   -7869.3754

BLOCK AD Q=  2556.4889
   1   1    0
   2   2    0
   3   3   -4115.4209

BLOCK AE Q=  2556.4889
   1   1    0
   2   2    0
   3   3   -1961.3002

BLOCK MSOFT Q=  2556.4889
   1   -1398.1027
   2    2149.6774
   3    2203.9331
   21    9659402.9
   22   -2801329.6
   31    3850.0859
   32    3850.0859
   33    3239.9804
   34    1830.7226
   35    1830.7226
   36    1910.7963
   41    1865.8299
   42    1865.8299
   43    2174.7216
   44    1238.0231
   45    1238.0231
   46    3122.0278
   47    1354.806
   48    1354.806
   49    2745.2574

BLOCK MASS
   6    173.2
   23    91.1876
   24    80.429995
   15    1.777
   25    121.44328
   35    3558.4744
   36    3558.6452
   37    3559.8163
   1000001    2000.1593
   2000001    1484.9925
   1000002    1998.6576
   2000002    1378.3428
   1000003    2000.1589
   2000003    1484.9912
   1000004    1998.6571
   2000004    1378.343
   1000005    2232.1404
   2000005    2818.0942
   1000006    2174.59
   2000006    3005.4563
   1000011    3861.4082
   2000011    1835.45
   1000012    3860.2286
   1000013    3861.406
   2000013    1835.4481
   1000014    3860.2265
   1000015    1914.5439
   2000015    3252.4228
   1000016    3251.0549
   1000021    2319.2505
   1000022   -1376.7053
   1000023    1706.3774
   1000025   -1716.7676
   1000035    2170.4028
   1000024    1707.8492
   1000037    2170.6083

BLOCK ALPHA
      -0.060493711

BLOCK HMIX Q=  2556.4889
   1   -1696.7286
   2    15.843609
   3    243.38811
   4    12663956

BLOCK STOPMIX
   1   1    0.96970644
   1   2    0.24427326
   2   1   -0.24427326
   2   2    0.96970644

BLOCK SBOTMIX
   1   1   -0.9998885
   1   2    0.014932975
   2   1   -0.014932975
   2   2   -0.9998885

BLOCK STAUMIX
   1   1   -0.0062825853
   1   2    0.99998026
   2   1   -0.99998026
   2   2   -0.0062825853

BLOCK NMIX
   1   1    0.99523583
   1   2    0.0014701207
   1   3   -0.075224252
   1   4    0.062006381
   2   1   -0.0093535506
   2   2   -0.11205153
   2   3   -0.70398073
   2   4   -0.70126179
   3   1    0.097041521
   3   2   -0.015163707
   3   3    0.702889
   3   4   -0.70448566
   4   1   -0.0010463993
   4   2    0.99358561
   4   3   -0.068552852
   4   4   -0.089928062

BLOCK UMIX
   1   1   -0.097460674
   1   2   -0.99523938
   2   1    0.99523938
   2   2   -0.097460674

BLOCK VMIX
   1   1   -0.12776002
   1   2    0.99180511
   2   1    0.99180511
   2   2    0.12776002

BLOCK HIGGSBOUNDSINPUTHIGGSCOUPLINGSFERMIONS
       0, 251.01996,3,36,15,15

BLOCK HIGGSBOUNDSINPUTHIGGSCOUPLINGSBOSONS
       0,4,36,21,21,23

BLOCK SPHENOLOWENERGY
   1    0.0003413084
   2    1.59099e-06
   3    3.5308323e-05
   4    2.4412565e-15
   5    1.0428787e-10
   6    2.1841365e-08
   7    8.3510875e-14
   8    3.5675873e-09
   9    7.5703568e-07
   10    9.6640787e-05
   11    0.99826233
   12    0.54232448
   13    19.376103
   14    0
   15    0
   16    0.0021590934
   17    2.2816771e-15
   18    2.4847525e-11
   19    8.3002595e-11
   20   -5.1543583e-16
   21   -2.2036588e-11
   22   -6.7522718e-09
   23    0
   24    0
   25    0
   26    0
   27    0
   28    0
   29    0
   30    0
   31    0
   39    0.00011797281
   40    0
   41    0
   42    0

BLOCK FWCOEF Q=  160
   305   4422   0   0   -0.18881911
   305   4422   0   2   -0.21318163
   305   4322   0   2   -0.00053487276
   305   6421   0   0   -0.095227835
   305   6421   0   2   -0.11054904
   305   6321   0   2   -0.00029226242
   3051111   4133   0   0    1.6106366
   3051111   4133   0   2    1.6116106
   3051111   4233   0   2    0.00014376194
   3051111   4137   0   0   -4.4333287
   3051111   4137   0   2   -4.4371585
   3051111   4237   0   2   -0.0010909463
   3051313   4133   0   0    1.6106366
   3051313   4133   0   2    1.6116104
   3051313   4233   0   2    0.0001437619
   3051313   4137   0   0   -4.4333287
   3051313   4137   0   2   -4.4371586
   3051313   4237   0   2   -0.0010909464
   3051212   4137   0   0    1.5053501
   3051212   4137   0   2    1.506187
   3051212   4237   0   2    0.00023675782
   3051414   4137   0   0    1.5053501
   3051414   4137   0   2    1.506187
   3051414   4237   0   2    0.00023675782
   3051616   4137   0   0    1.5053501
   3051616   4137   0   2    1.5061868
   3051616   4237   0   2    0.0002367581

BLOCK IMFWCOEF Q=  160
   305   4422   0   0    3.8574764e-07
   305   4422   0   2   -4.4855186e-05
   305   4322   0   2   -7.9445638e-06
   305   6421   0   0    3.3041836e-07
   305   6421   0   2    4.7993389e-05
   305   6321   0   2   -3.03859e-06
   3051111   4133   0   2   -6.070838e-07
   3051111   4233   0   2    2.6573965e-06
   3051111   4137   0   2    2.0390905e-05
   3051111   4237   0   2   -2.016511e-05
   3051313   4133   0   2   -6.070901e-07
   3051313   4233   0   2    2.657396e-06
   3051313   4137   0   2    2.0390901e-05
   3051313   4237   0   2   -2.0165111e-05
   3051212   4137   0   2   -4.322354e-06
   3051212   4237   0   2    4.3762442e-06
   3051414   4137   0   2   -4.322354e-06
   3051414   4237   0   2    4.3762442e-06
   3051616   4137   0   2   -4.3253441e-06
   3051616   4237   0   2    4.3762441e-06

DECAY 23  2.4952


DECAY 24  2.085


DECAY 2000011  1.7490633
    0.9992139   2    1000022    11
    0.00077760352   2    1000025    11

DECAY 1000011  27.651082
    0.56970297   2   -1000037    12
    0.28363585   2    1000035    11
    0.13312033   2    1000022    11
    0.0075552849   2   -1000024    12
    0.0054532689   2    1000023    11
    0.00053230102   2    1000025    11

DECAY 2000013  1.7491746
    0.99914671   2    1000022    13
    0.00079238714   2    1000025    13

DECAY 1000013  27.656189
    0.56959682   2   -1000037    14
    0.28358353   2    1000035    13
    0.13309672   2    1000022    13
    0.0075538811   2   -1000024    14
    0.0055353223   2    1000023    13
    0.00061449373   2    1000025    13

DECAY 1000015  2.3092104
    0.96312482   2    1000022    15
    0.018048642   2   -1000024    16
    0.0096596356   2    1000025    15
    0.0091669055   2    1000023    15

DECAY 2000015  17.209156
    0.50700326   2   -1000037    16
    0.25257916   2    1000035    15
    0.1596045   2    1000022    15
    0.031647576   2    1000023    15
    0.026143961   2    1000025    15
    0.0080318849   2   -1000024    16
    0.007553695   2    1000015    25
    0.0074359641   2    1000015    23

DECAY 1000012  27.657046
    0.56516388   2    1000037    11
    0.28396635   2    1000035    12
    0.13156406   2    1000022    12
    0.012972588   2    1000024    11
    0.0045580795   2    1000023    12
    0.0017750409   2    1000025    12

DECAY 1000014  27.66162
    0.56507061   2    1000037    13
    0.28391895   2    1000035    14
    0.13154219   2    1000022    14
    0.013136184   2    1000024    13
    0.0045573209   2    1000023    14
    0.0017747454   2    1000025    14

DECAY 1000016  17.212145
    0.50265614   2    1000037    15
    0.25246336   2    1000035    16
    0.15740788   2    1000022    16
    0.06567429   2    1000024    15
    0.014855735   2    1000015    24
    0.0050014475   2    1000023    16
    0.0019411494   2    1000025    16

DECAY 2000001  0.01621597
    1   2    1000022    1

DECAY 1000001  0.096178234
    0.78304082   2    1000022    1
    0.12764104   2   -1000024    2
    0.082632997   2    1000023    1
    0.0066805249   2    1000025    1

DECAY 2000003  0.016215799
    1   2    1000022    3

DECAY 1000003  0.096458382
    0.78078466   2    1000022    3
    0.12773701   2   -1000024    4
    0.08279096   2    1000023    3
    0.0070226676   2    1000025    3
    0.0016646993   2    2000003    25

DECAY 1000005  7.6363451
    0.90782786   2   -1000024    6
    0.038155038   2    1000023    5
    0.033745119   2    1000025    5
    0.016520021   2    1000022    5
    0.0037519658   2    1000035    5

DECAY 2000005  27.683372
    0.83687985   2    1000021    5
    0.055938846   2   -1000024    6
    0.032931244   2    1000022    5
    0.028174625   2    1000025    5
    0.028095565   2    1000023    5
    0.0074556422   2    1000006   -24
    0.0068360414   2    1000005    25
    0.0030562485   2    1000005    23
    0.00041970348   2   -1000037    6
    0.00021223748   2    1000035    5

DECAY 2000002  1.7125743e-05
    1   2    1000022    2

DECAY 1000002  0.10685667
    0.72605195   2    1000022    2
    0.195684   2    1000024    1
    0.078238698   2    1000023    2

DECAY 2000004  8.7551638e-06
    1   2    1000022    4

DECAY 1000004  0.10697887
    0.72521778   2    1000022    4
    0.19616684   2    1000024    3
    0.078353812   2    1000023    4
    0.00025699038   2    1000025    4

DECAY 1000006  6.2388669
    0.39546886   2    1000023    6
    0.39292555   2    1000025    6
    0.17785195   2    1000024    5
    0.025160233   2    1000022    6
    0.0070315925   2    1000022    4
    0.0011710899   2    1000023    4
    0.00039071806   3    1000022    24    5

DECAY 2000006  319.83109
    0.30549086   2    1000005    24
    0.23381323   2    1000006    25
    0.17203458   2    1000006    23
    0.1041699   2    1000021    6
    0.078553479   2    1000024    5
    0.04356496   2    1000025    6
    0.043403619   2    1000023    6
    0.013651178   2    1000022    6
    0.0035225872   2    1000037    5
    0.0017946029   2    1000035    6

DECAY 1000024  0.74144053
    0.99716079   2    1000022    24
    0.002583188   3    1000022   -5    6
    0.00014969851   2    2000004   -3
    0.0001046406   2   -2000003    4

DECAY 1000037  12.211494
    0.19980281   2    1000025    24
    0.1948528   2    1000024    25
    0.19017375   2    1000023    24
    0.18950913   2    1000024    23
    0.05345571   2    1000004   -3
    0.053455295   2    1000002   -1
    0.052928222   2   -1000001    2
    0.052926456   2   -1000003    4
    0.0075633689   2    1000022    24
    0.0024952718   3    1000025   -5    6
    0.0019357486   3    1000023   -5    6
    0.00064241151   3    1000024    6   -6
    0.00021086737   3    1000022   -5    6

DECAY 1000022 -1


DECAY 1000023  1.2032048
    0.61498259   2    1000022    23
    0.38461948   2    1000022    25

DECAY 1000025  0.66184374
    0.94215129   2    1000022    25
    0.010996033   2    1000022    23
    0.010431377   2    2000004   -4
    0.010431377   2   -2000004    4
    0.010335113   2    2000002   -2
    0.010335113   2   -2000002    2
    0.001359727   2    2000003   -3
    0.001359727   2   -2000003    3
    0.0012970235   2    2000001   -1
    0.0012970235   2   -2000001    1

DECAY 1000035  15.316722
    0.19492991   2    1000025    25
    0.15676654   2    1000025    23
    0.15464211   2    1000024   -24
    0.15464211   2   -1000024    24
    0.15205821   2    1000023    25
    0.021330476   2    1000002   -2
    0.021330476   2   -1000002    2
    0.021329823   2    1000004   -4
    0.021329823   2   -1000004    4
    0.020990064   2    1000003   -3
    0.020990064   2   -1000003    3
    0.020989948   2    1000001   -1
    0.020989948   2   -1000001    1
    0.0060995311   2    1000022    25
    0.0056882292   2    1000022    23
    0.0029248258   2    1000023    23
    0.001322406   3    1000024    5   -6
    0.001322406   3   -1000024   -5    6
    0.00010976402   3    1000025    6   -6
    0.00010579033   3    1000023    6   -6

DECAY 1000021  124.13828
    0.11567657   2    2000002   -2
    0.11567657   2   -2000002    2
    0.11567647   2    2000004   -4
    0.11567647   2   -2000004    4
    0.096261226   2    2000003   -3
    0.096261226   2   -2000003    3
    0.096260979   2    2000001   -1
    0.096260979   2   -2000001    1
    0.018313341   2    1000002   -2
    0.018313341   2   -1000002    2
    0.018313279   2    1000004   -4
    0.018313279   2   -1000004    4
    0.018154847   2    1000003   -3
    0.018154847   2   -1000003    3
    0.018154807   2    1000001   -1
    0.018154807   2   -1000001    1
    0.0016145143   2    1000006   -4
    0.0016145143   2   -1000006    4
    0.0015027625   2    1000005   -5
    0.0015027625   2   -1000005    5

DECAY 25  0.0034408048
    0.62457789   2   -5    5
    0.17476052   2   -24    24
    0.074524162   2    21    21
    0.071465203   2   -15    15
    0.030935262   2   -4    4
    0.01969144   2    23    23
    0.0023521215   2    22    22
    0.001210077   2    22    23
    0.00024787498   2   -13    13
    0.0002346355   2   -3    3
    6.4874366e-07   2   -1    1
    1.5942814e-07   2   -2    2
    5.5725534e-09   2   -11    11

DECAY 35  14.17933
    0.73639553   2   -5    5
    0.13126897   2   -15    15
    0.082584614   2    1000022    1000023
    0.031559571   2   -6    6
    0.014503292   2    1000022    1000025
    0.0011326125   2   -1000024    1000024
    0.00082166119   2    1000022    1000022
    0.00045842558   2   -13    13
    0.00041779721   2    1000023    1000023
    0.00037379729   2   -3    3
    0.00011699954   2    1000025    1000025
    0.00010934037   2    1000023    1000025
    7.7435423e-05   2    1000022    1000035
    7.5436115e-05   2    25    25
    4.2139515e-05   2   -2000004    1000004
    4.2139515e-05   2   -1000004    2000004
    6.7244528e-06   2   -1000004    1000004
    6.722678e-06   2   -1000002    1000002
    2.1163652e-06   2    23    23
    1.5757736e-06   2    21    21
    1.0337326e-06   2   -1    1
    5.9137082e-07   2   -4    4
    5.1413181e-07   2   -24    24
    2.7108126e-07   2   -1000001    1000001
    2.7028871e-07   2   -1000003    1000003
    1.6409491e-07   2    22    23
    1.3202025e-07   2    22    22
    5.4324242e-08   2   -2000003    1000003
    5.4324242e-08   2   -1000003    2000003
    1.0295389e-08   2   -11    11
    1.6329113e-10   2   -2000002    1000002
    1.6329113e-10   2   -1000002    2000002
    1.5054208e-10   2   -2000001    1000001
    1.5054208e-10   2   -1000001    2000001
    3.0481035e-12   2   -2    2

DECAY 36  14.075793
    0.72504453   2   -5    5
    0.12923436   2   -15    15
    0.076151439   2    1000022    1000025
    0.034424713   2   -6    6
    0.016500703   2    1000022    1000023
    0.0098695653   2   -1000024    1000024
    0.0034123746   2    1000023    1000023
    0.0026338962   2    1000022    1000022
    0.0017504078   2    1000025    1000025
    0.00045131781   2   -13    13
    0.00036797693   2   -3    3
    4.2455357e-05   2   -2000004    1000004
    4.2455357e-05   2   -1000004    2000004
    3.3618111e-05   2    1000023    1000025
    3.2793137e-05   2    21    21
    3.9935944e-06   2    23    25
    1.0176317e-06   2   -1    1
    6.3556738e-07   2   -4    4
    6.2075417e-07   2    1000022    1000035
    6.0906981e-07   2    22    23
    4.0145685e-07   2    22    22
    5.5400852e-08   2   -2000003    1000003
    5.5400852e-08   2   -1000003    2000003
    1.0135864e-08   2   -11    11
    1.6451502e-10   2   -2000002    1000002
    1.6451502e-10   2   -1000002    2000002
    1.5352513e-10   2   -2000001    1000001
    1.5352513e-10   2   -1000001    2000001
    3.2762392e-12   2   -2    2
    2.0830407e-36   2    25    25

DECAY 37  13.290049
    0.74459592   2   -5    6
    0.14632066   2   -15    16
    0.10643479   2    1000022    1000024
    0.0010480121   2   -5    4
    0.00051729569   2   -13    14
    0.00044926814   2    1000024    1000025
    0.00036351052   2   -3    4
    9.0269183e-05   2    1000022    1000037
    7.9848284e-05   2    1000023    1000024
    5.463939e-05   2   -3    6
    1.7036142e-05   2   -3    2
    1.2647333e-05   2   -2000003    1000004
    7.4838816e-06   2   -5    2
    4.2357644e-06   2    24    25
    2.4812661e-06   2   -1    6
    1.0077212e-06   2   -1    2
    6.7662767e-07   2   -2000001    1000004
    1.0987219e-07   2   -1000003    2000004
    6.978756e-08   2   -1    4
    1.20996e-08   2   -11    12
    1.0523067e-08   2   -1000005    1000004
    5.8853307e-09   2   -1000003    2000002
    3.0499063e-10   2   -1000001    2000002
    6.6449486e-11   2   -2000001    1000002
    3.1269977e-11   2   -1000003    1000004
    1.6289181e-11   2   -1000001    2000004
    3.5533391e-12   2   -2000003    1000002
    3.1278064e-12   2   -1000003    1000006
    4.4566586e-13   2    24    35
    2.2563311e-13   2    24    36
    4.6359697e-15   2   -1000001    1000004
    3.9753053e-16   2   -1000001    1000006
    3.9414798e-16   2   -1000005    1000002
    8.7854722e-18   2   -1000003    1000002
    4.5528392e-19   2   -1000001    1000002

DECAY 6  2.43
    1   2    5    24

DECAY 15 -1
