BLOCK SPINFO
   1   SPheno
   2   v4.0.5be

BLOCK SPHENOINFO
   1   2
   2   2

BLOCK MODSEL
   1   0

BLOCK MINPAR
   3    15.713992
   4   -1

BLOCK EXTPAR
   0    3605.217
   1   -739.45255
   2   -778.92113
   3    4867.7381
   11   -3724.1565
   12    3525.0491
   13    3248.2319
   23   -3068.471
   25    15.005685
   26    3273.5237
   31    3236.3042
   32    3236.3042
   33    3630.1366
   34    2944.0872
   35    2944.0872
   36    4172.9053
   41    3058.9382
   42    3058.9382
   43    3401.9299
   44    2409.1597
   45    2409.1597
   46    3594.2179
   47    1083.2878
   48    1083.2878
   49    4440.0371

BLOCK SMINPUTS
   1    127.90897
   2    1.1663787e-05
   3    0.1184
   4    91.1876
   5    4.18
   6    173.2
   7    1.777
   8    0
   11    0.00051099893
   12    0
   13    0.10565837
   14    0
   21    0.005
   22    0.0025
   23    0.095
   24    1.27

BLOCK GAUGE Q=  3605.217
   1    0.35536298
   2    0.66519887
   3    1.219778

BLOCK YU Q=  3605.217
   1   1    8.4029693e-06
   2   2    0.0042687084
   3   3    1.0151462

BLOCK YD Q=  3605.217
   1   1    0.00025337797
   2   2    0.0048141814
   3   3    0.25127155

BLOCK YE Q=  3605.217
   1   1    4.4216309e-05
   2   2    0.0091425303
   3   3    0.15376232

BLOCK AU Q=  3605.217
   1   1    0
   2   2    0
   3   3   -3724.1593

BLOCK AD Q=  3605.217
   1   1    0
   2   2    0
   3   3    3525.0513

BLOCK AE Q=  3605.217
   1   1    0
   2   2    0
   3   3    3248.2311

BLOCK MSOFT Q=  3605.217
   1   -739.45255
   2   -778.92113
   3    4867.7381
   21    1139787
   22   -9188363.5
   31    3236.3042
   32    3236.3042
   33    3630.1366
   34    2944.0872
   35    2944.0872
   36    4172.9053
   41    3058.9382
   42    3058.9382
   43    3401.9299
   44    2409.1597
   45    2409.1597
   46    3594.2179
   47    1083.2878
   48    1083.2878
   49    4440.0371

BLOCK MASS
   6    173.2
   23    91.1876
   24    80.429995
   15    1.777
   25    121.79852
   35    3273.5199
   36    3273.5237
   37    3274.8415
   1000001    3212.4847
   2000001    1267.6635
   1000002    3211.4617
   2000002    2553.8093
   1000003    3212.484
   2000003    1267.6614
   1000004    3211.4609
   2000004    2553.8094
   1000005    3530.6181
   2000005    4566.0309
   1000006    3505.3544
   2000006    3707.9246
   1000011    3242.4104
   2000011    2950.8834
   1000012    3241.0514
   1000013    3242.4091
   2000013    2950.8762
   1000014    3241.0481
   1000015    3635.9764
   2000015    4177.4153
   1000016    3634.9709
   1000021    4841.5044
   1000022   -732.45548
   1000023   -822.43963
   1000025    3079.1635
   1000035   -3080.4999
   1000024    822.54481
   1000037    3080.9978

BLOCK ALPHA
      -0.06370872

BLOCK HMIX Q=  3605.217
   1   -3068.471
   2    15.005685
   3    243.0693
   4    10715958

BLOCK STOPMIX
   1   1    0.93154806
   1   2    0.36361822
   2   1   -0.36361822
   2   2    0.93154806

BLOCK SBOTMIX
   1   1   -0.99989825
   1   2    0.014265253
   2   1   -0.014265253
   2   2   -0.99989825

BLOCK STAUMIX
   1   1   -0.99978625
   1   2    0.020674989
   2   1   -0.020674989
   2   2   -0.99978625

BLOCK NMIX
   1   1    0.99985492
   1   2   -0.0047742026
   1   3   -0.015663359
   1   4    0.00469107
   2   1    0.0052433743
   2   2    0.99957209
   2   3    0.027412975
   2   4   -0.0087559288
   3   1    0.0076933772
   3   2   -0.013233012
   3   3    0.70691424
   3   4    0.70713362
   4   1    0.014263903
   4   2   -0.025646146
   4   3    0.70659426
   4   4   -0.70701016

BLOCK UMIX
   1   1   -0.99924431
   1   2   -0.038869077
   2   1   -0.038869077
   2   2    0.99924431

BLOCK VMIX
   1   1    0.99992257
   1   2    0.012443869
   2   1    0.012443869
   2   2   -0.99992257

BLOCK HIGGSBOUNDSINPUTHIGGSCOUPLINGSFERMIONS
       0, 225.17058,3,36,15,15

BLOCK HIGGSBOUNDSINPUTHIGGSCOUPLINGSBOSONS
       0,4,36,21,21,23

BLOCK SPHENOLOWENERGY
   1    0.00032799757
   2    1.5895139e-06
   3    3.5257775e-05
   4    2.5428184e-15
   5    1.0862637e-10
   6    2.274324e-08
   7    8.5847424e-14
   8    3.6674011e-09
   9    7.7800153e-07
   10    9.6653775e-05
   11    0.9983965
   12    0.54193798
   13    19.363069
   14    0
   15    0
   16    0.0021570704
   17    2.2816558e-15
   18    2.4804274e-11
   19    8.2912207e-11
   20    6.1210091e-16
   21    2.6169169e-11
   22    6.2606561e-09
   23    0
   24    0
   25    0
   26    0
   27    0
   28    0
   29    0
   30    0
   31    0
   39    2.4812257e-05
   40    0
   41    0
   42    0

BLOCK FWCOEF Q=  160
   305   4422   0   0   -0.18881911
   305   4422   0   2   -0.1971208
   305   4322   0   2   -0.00016776116
   305   6421   0   0   -0.095227835
   305   6421   0   2   -0.10411128
   305   6321   0   2   -0.00017775491
   3051111   4133   0   0    1.6226672
   3051111   4133   0   2    1.6227393
   3051111   4233   0   2    2.5579331e-05
   3051111   4137   0   0   -4.4453593
   3051111   4137   0   2   -4.4441866
   3051111   4237   0   2   -0.00019081399
   3051313   4133   0   0    1.6226672
   3051313   4133   0   2    1.6227392
   3051313   4233   0   2    2.5579323e-05
   3051313   4137   0   0   -4.4453593
   3051313   4137   0   2   -4.4441867
   3051313   4237   0   2   -0.00019081399
   3051212   4137   0   0    1.5053501
   3051212   4137   0   2    1.5051006
   3051212   4237   0   2    4.1300097e-05
   3051414   4137   0   0    1.5053501
   3051414   4137   0   2    1.5051006
   3051414   4237   0   2    4.1300098e-05
   3051616   4137   0   0    1.5053501
   3051616   4137   0   2    1.5051006
   3051616   4237   0   2    4.1300397e-05

BLOCK IMFWCOEF Q=  160
   305   4422   0   0    3.8579766e-07
   305   4422   0   2    2.0014863e-06
   305   4322   0   2   -9.645274e-07
   305   6421   0   0    3.3046121e-07
   305   6421   0   2    2.8133797e-06
   305   6321   0   2   -5.1683673e-07
   3051111   4133   0   2   -4.4247025e-07
   3051111   4233   0   2    5.5570989e-07
   3051111   4137   0   2    4.9807463e-06
   3051111   4237   0   2   -4.1442354e-06
   3051313   4133   0   2   -4.4247094e-07
   3051313   4233   0   2    5.5570984e-07
   3051313   4137   0   2    4.9807476e-06
   3051313   4237   0   2   -4.1442356e-06
   3051212   4137   0   2   -9.9878668e-07
   3051212   4237   0   2    8.9697901e-07
   3051414   4137   0   2   -9.9878665e-07
   3051414   4237   0   2    8.9697901e-07
   3051616   4137   0   2   -1.0000223e-06
   3051616   4237   0   2    8.9697855e-07

DECAY 23  2.4952


DECAY 24  2.085


DECAY 2000011  13.052926
    0.99997343   2    1000022    11

DECAY 1000011  41.105388
    0.60697086   2   -1000024    12
    0.30539974   2    1000023    11
    0.087618169   2    1000022    11

DECAY 2000013  13.052896
    0.99997271   2    1000022    13

DECAY 1000013  41.105799
    0.60696449   2   -1000024    14
    0.30539662   2    1000023    13
    0.087617279   2    1000022    13

DECAY 1000015  47.521911
    0.6054101   2   -1000024    16
    0.30463628   2    1000023    15
    0.087024551   2    1000022    15
    0.0014361955   2    1000025    15
    0.0014306646   2    1000035    15

DECAY 2000015  21.115961
    0.93321436   2    1000022    15
    0.019449415   2   -1000037    16
    0.0139056   2    1000016   -24
    0.0097669021   2    1000035    15
    0.0097391844   2    1000025    15
    0.0068460768   2    1000015    23
    0.0067207595   2    1000015    25
    0.00021939014   2   -1000024    16
    0.00013831595   2    1000023    15

DECAY 1000012  41.108316
    0.60742703   2    1000024    11
    0.30181264   2    1000023    12
    0.090754761   2    1000022    12

DECAY 1000014  41.108318
    0.60742635   2    1000024    13
    0.30181222   2    1000023    14
    0.090754641   2    1000022    14

DECAY 1000016  47.528434
    0.60602508   2    1000024    15
    0.30109088   2    1000023    16
    0.089989415   2    1000022    16
    0.0028569669   2    1000037    15

DECAY 2000001  0.31397124
    0.99997921   2    1000022    1

DECAY 1000001  37.394449
    0.65934629   2   -1000024    2
    0.32928527   2    1000023    1
    0.011358573   2    1000022    1

DECAY 2000003  0.31397024
    0.99997781   2    1000022    3

DECAY 1000003  37.395011
    0.65933588   2   -1000024    4
    0.32928025   2    1000023    3
    0.011358409   2    1000022    3

DECAY 1000005  46.015816
    0.59972699   2   -1000024    6
    0.30136739   2    1000023    5
    0.082994034   2   -1000037    6
    0.010405025   2    1000022    5
    0.0027590661   2    1000025    5
    0.0027474971   2    1000035    5

DECAY 2000005  7.7037011
    0.3138118   2    1000022    5
    0.2221071   2   -1000037    6
    0.11073913   2    1000025    5
    0.1106226   2    1000035    5
    0.10190427   2    1000006   -24
    0.077034061   2    1000005    25
    0.054953223   2    1000005    23
    0.0088156468   2    2000006   -24

DECAY 2000002  4.8021497
    0.99997377   2    1000022    2

DECAY 1000002  37.415279
    0.65960499   2    1000024    1
    0.33019919   2    1000023    2
    0.010193447   2    1000022    2

DECAY 2000004  4.8021469
    0.99997373   2    1000022    4

DECAY 1000004  37.415281
    0.65960478   2    1000024    3
    0.33019894   2    1000023    4
    0.010193439   2    1000022    4

DECAY 1000006  44.595542
    0.52825769   2    1000024    5
    0.26334386   2    1000023    6
    0.10139909   2    1000023    4
    0.028737695   2    1000022    6
    0.028010631   2    1000035    6
    0.028001273   2    1000025    6
    0.016048889   2    1000037    5
    0.0031150376   2    1000022    4
    0.0030858311   3    1000022    24    5

DECAY 2000006  33.498597
    0.19995918   2    1000022    6
    0.18901624   2    1000037    5
    0.12807743   2    1000024    5
    0.12313771   2    1000025    6
    0.11968745   2    1000035    6
    0.078797991   2    1000005    24
    0.063791474   2    1000023    6
    0.050760303   2    1000006    23
    0.046772221   2    1000006    25

DECAY 1000024  0.00019627221
    0.99999838   2    1000022    24

DECAY 1000037  23.634614
    0.30183039   2    1000024    25
    0.28257024   2    1000023    24
    0.28019858   2    1000024    23
    0.091289508   2    1000022    24
    0.025966596   3    1000024    6   -6
    0.013432122   3    1000023   -5    6
    0.0044574111   3    1000022   -5    6
    0.00015207984   3    1000024    5   -5

DECAY 1000022 -1


DECAY 1000023  4.6911483e-08
    0.16788479   3    1000022    5   -5
    0.16776888   3    1000022    3   -3
    0.16776724   3    1000022    1   -1
    0.15334178   3    1000022    12   -12
    0.13145416   3    1000022    4   -4
    0.13129609   3    1000022    2   -2
    0.027497555   3    1000022    15   -15
    0.025859527   3    1000022    13   -13
    0.025858022   3    1000022    11   -11
    0.0012719542   2    1000022    22

DECAY 1000025  26.797398
    0.2473503   2    1000024   -24
    0.2473503   2   -1000024    24
    0.19439505   2    1000023    23
    0.16313651   2    1000023    25
    0.064531783   2    1000022    23
    0.046238353   2    1000022    25
    0.013061721   3    1000024    5   -6
    0.013061721   3   -1000024   -5    6
    0.0080830823   3    1000023    6   -6
    0.0025886446   3    1000022    6   -6

DECAY 1000035  23.381939
    0.28350105   2    1000024   -24
    0.28350105   2   -1000024    24
    0.24100779   2    1000023    25
    0.068309587   2    1000022    25
    0.059274116   2    1000023    23
    0.021489223   2    1000022    23
    0.014034626   3    1000024    5   -6
    0.014034626   3   -1000024   -5    6
    0.011051682   3    1000023    6   -6
    0.0034956338   3    1000022    6   -6

DECAY 1000021  677.56318
    0.091749919   2    2000003   -3
    0.091749919   2   -2000003    3
    0.091749874   2    2000001   -1
    0.091749874   2   -2000001    1
    0.055090969   2    2000002   -2
    0.055090969   2   -2000002    2
    0.055090961   2    2000004   -4
    0.055090961   2   -2000004    4
    0.033165069   2    1000004   -4
    0.033165069   2   -1000004    4
    0.033165049   2    1000002   -2
    0.033165049   2   -1000002    2
    0.033131872   2    1000003   -3
    0.033131872   2   -1000003    3
    0.033131849   2    1000001   -1
    0.033131849   2   -1000001    1
    0.023185486   2    1000005   -5
    0.023185486   2   -1000005    5
    0.021379155   2    1000006   -6
    0.021379155   2   -1000006    6
    0.020011337   2    2000006   -6
    0.020011337   2   -2000006    6
    0.0078498166   2    1000006   -4
    0.0078498166   2   -1000006    4
    0.0012919378   2    2000005   -5
    0.0012919378   2   -2000005    5

DECAY 25  0.0035049661
    0.62082284   2   -5    5
    0.1785866   2   -24    24
    0.074500671   2    21    21
    0.071109459   2   -15    15
    0.030671396   2   -4    4
    0.020267395   2    23    23
    0.0023309402   2    22    22
    0.0012296688   2    22    23
    0.00024663917   2   -13    13
    0.00023357774   2   -3    3
    6.4582012e-07   2   -1    1
    1.580673e-07   2   -2    2
    5.544766e-09   2   -11    11

DECAY 35  12.929795
    0.81952736   2   -5    5
    0.12894955   2   -15    15
    0.046490214   2   -6    6
    0.0021726044   2   -1000024    1000024
    0.0010587852   2    1000023    1000023
    0.00065132768   2    1000022    1000023
    0.00044766949   2   -13    13
    0.00043890287   2   -3    3
    0.00014209906   2    25    25
    0.00010009697   2    1000022    1000022
    1.251152e-05   2    23    23
    3.3740905e-06   2   -24    24
    2.4418781e-06   2    21    21
    1.2135825e-06   2   -1    1
    6.958957e-07   2   -4    4
    4.1369168e-07   2   -1000001    1000001
    4.1259991e-07   2   -1000003    1000003
    2.2428496e-07   2    22    23
    8.8397207e-08   2    22    22
    1.0054139e-08   2   -11    11
    3.5873965e-12   2   -2    2

DECAY 36  12.610172
    0.8178988   2   -5    5
    0.12869403   2   -15    15
    0.046760611   2   -6    6
    0.003116333   2   -1000024    1000024
    0.001518775   2    1000023    1000023
    0.00091947686   2    1000022    1000023
    0.00044678139   2   -13    13
    0.00043802351   2   -3    3
    0.00013917989   2    1000022    1000022
    4.3037416e-05   2    21    21
    2.2316916e-05   2    23    25
    1.211151e-06   2   -1    1
    6.9187346e-07   2   -4    4
    4.8155675e-07   2    22    23
    2.4277665e-07   2    22    22
    1.0034104e-08   2   -11    11
    3.5667823e-12   2   -2    2
    3.2331247e-35   2    25    25

DECAY 37  12.287117
    0.86458459   2   -5    6
    0.13161598   2   -15    16
    0.001582093   2    1000022    1000024
    0.0012196691   2   -5    4
    0.00046530942   2   -13    14
    0.00041634618   2   -3    4
    6.0650008e-05   2   -3    6
    2.294342e-05   2    24    25
    1.9494937e-05   2   -3    2
    8.7096897e-06   2   -5    2
    2.7533935e-06   2   -1    6
    1.1539859e-06   2   -1    2
    2.1914439e-07   2    1000023    1000024
    7.9085334e-08   2   -1    4
    1.0883636e-08   2   -11    12
    4.4670823e-13   2    24    35
    4.4036553e-13   2    24    36

DECAY 6  2.43
    1   2    5    24

DECAY 15 -1
