BLOCK SPINFO
   1   SPheno
   2   v4.0.5be

BLOCK SPHENOINFO
   1   2
   2   2

BLOCK MODSEL
   1   0

BLOCK MINPAR
   3    54.526885
   4    1

BLOCK EXTPAR
   0    2296.6048
   1   -1852.8931
   2    2379.2315
   3    2171.1574
   11    3538.0494
   12    1664.0051
   13   -5963.3248
   23    119.07049
   25    54.058525
   26    2415.0588
   31    2684.4227
   32    2684.4227
   33    3542.5778
   34    3769.7761
   35    3769.7761
   36    4638.1013
   41    4983.7536
   42    4983.7536
   43    1850.0426
   44    4921.7131
   45    4921.7131
   46    2760.0595
   47    2581.1527
   48    2581.1527
   49    2071.1214

BLOCK SMINPUTS
   1    127.90897
   2    1.1663787e-05
   3    0.1184
   4    91.1876
   5    4.18
   6    173.2
   7    1.777
   8    0
   11    0.00051099893
   12    0
   13    0.10565837
   14    0
   21    0.005
   22    0.0025
   23    0.095
   24    1.27

BLOCK GAUGE Q=  2296.6048
   1    0.35536298
   2    0.66519887
   3    1.219778

BLOCK YU Q=  2296.6048
   1   1    8.3858066e-06
   2   2    0.0042599897
   3   3    1.0130728

BLOCK YD Q=  2296.6048
   1   1    0.00091093896
   2   2    0.01730784
   3   3    0.903366

BLOCK YE Q=  2296.6048
   1   1    0.00015896551
   2   2    0.032869026
   3   3    0.55280294

BLOCK AU Q=  2296.6048
   1   1    0
   2   2    0
   3   3    3538.0494

BLOCK AD Q=  2296.6048
   1   1    0
   2   2    0
   3   3    1664.0051

BLOCK AE Q=  2296.6048
   1   1    0
   2   2    0
   3   3   -5963.3248

BLOCK MSOFT Q=  2296.6048
   1   -1852.8931
   2    2379.2315
   3    2171.1574
   21    5869099.3
   22    50550.158
   31    2684.4227
   32    2684.4227
   33    3542.5778
   34    3769.7761
   35    3769.7761
   36    4638.1013
   41    4983.7536
   42    4983.7536
   43    1850.0426
   44    4921.7131
   45    4921.7131
   46    2760.0595
   47    2581.1527
   48    2581.1527
   49    2071.1214

BLOCK MASS
   6    173.2
   23    91.1876
   24    80.429995
   15    1.777
   25    123.89302
   35    2414.2455
   36    2415.0588
   37    2417.0216
   1000001    5039.5741
   2000001    2650.0067
   1000002    5039.0734
   2000002    4969.2817
   1000003    5039.5713
   2000003    2650.0055
   1000004    5039.0706
   2000004    4969.2818
   1000005    1923.4294
   2000005    2129.5762
   1000006    1911.9294
   2000006    2758.6761
   1000011    2701.3869
   2000011    3772.5596
   1000012    2699.7974
   1000013    2701.3651
   2000013    3772.5155
   1000014    2699.7757
   1000015    3559.0885
   2000015    4633.4488
   1000016    3557.7907
   1000021    2420.6001
   1000022    126.42168
   1000023   -127.84505
   1000025   -1856.8185
   1000035    2430.5242
   1000024    127.08405
   1000037    2430.5996

BLOCK ALPHA
      -0.01841532

BLOCK HMIX Q=  2296.6048
   1    119.07049
   2    54.058525
   3    243.54092
   4    5832509

BLOCK STOPMIX
   1   1   -0.99281811
   1   2    0.11963358
   2   1   -0.11963358
   2   2   -0.99281811

BLOCK SBOTMIX
   1   1    0.99994048
   1   2    0.010910817
   2   1   -0.010910817
   2   2    0.99994048

BLOCK STAUMIX
   1   1    0.99999692
   1   2    0.0024832231
   2   1   -0.0024832231
   2   2    0.99999692

BLOCK NMIX
   1   1   -0.015981619
   1   2   -0.024636481
   1   3    0.70865602
   1   4   -0.70494275
   2   1    0.017755868
   2   2    0.021607294
   2   3    0.70554965
   2   4    0.70810843
   3   1    0.99971456
   3   2   -0.00042807917
   3   3   -0.0012017444
   3   4   -0.023857447
   4   1    0.00034961792
   4   2   -0.99946285
   4   3   -0.002214447
   4   4    0.03269539

BLOCK UMIX
   1   1   -0.0031328774
   1   2    0.99999509
   2   1    0.99999509
   2   2    0.0031328774

BLOCK VMIX
   1   1   -0.046244989
   1   2    0.99893013
   2   1    0.99893013
   2   2    0.046244989

BLOCK HIGGSBOUNDSINPUTHIGGSCOUPLINGSFERMIONS
       0, 2922.3241,3,36,15,15

BLOCK HIGGSBOUNDSINPUTHIGGSCOUPLINGSBOSONS
       0,4,36,21,21,23

BLOCK SPHENOLOWENERGY
   1    0.00035905427
   2    1.5869453e-06
   3    3.5236507e-05
   4    2.0743947e-15
   5    8.8615781e-11
   6    1.8549863e-08
   7    6.8748238e-14
   8    2.9369197e-09
   9    6.2275481e-07
   10    9.4021558e-05
   11    0.9712067
   12    0.54241531
   13    19.368622
   14    0
   15    0
   16    0.0021594641
   17    2.2816834e-15
   18    2.4794644e-11
   19    8.2888995e-11
   20    3.2025105e-15
   21    1.3691772e-10
   22    2.9890912e-08
   23    0
   24    0
   25    0
   26    0
   27    0
   28    0
   29    0
   30    0
   31    0
   39    8.4005303e-05
   40    0
   41    0
   42    0

BLOCK FWCOEF Q=  160
   305   4422   0   0   -0.18881911
   305   4422   0   2   -0.23259237
   305   4322   0   2   -0.00039674011
   305   6421   0   0   -0.095227835
   305   6421   0   2   -0.12368806
   305   6321   0   2   -0.00033761878
   3051111   4133   0   0    1.6080538
   3051111   4133   0   2    1.6090108
   3051111   4233   0   2    0.00056717596
   3051111   4137   0   0   -4.4307459
   3051111   4137   0   2   -4.4276602
   3051111   4237   0   2   -0.0043078572
   3051313   4133   0   0    1.6080538
   3051313   4133   0   2    1.6090091
   3051313   4233   0   2    0.00056717211
   3051313   4137   0   0   -4.4307459
   3051313   4137   0   2   -4.4276618
   3051313   4237   0   2   -0.0043078616
   3051212   4137   0   0    1.5053501
   3051212   4137   0   2    1.5046821
   3051212   4237   0   2    0.00093543903
   3051414   4137   0   0    1.5053501
   3051414   4137   0   2    1.5046821
   3051414   4237   0   2    0.00093543949
   3051616   4137   0   0    1.5053501
   3051616   4137   0   2    1.5046821
   3051616   4237   0   2    0.00093556835

BLOCK IMFWCOEF Q=  160
   305   4422   0   0    3.8580343e-07
   305   4422   0   2    3.5058029e-05
   305   4322   0   2   -3.8837655e-06
   305   6421   0   0    3.3046615e-07
   305   6421   0   2   -1.9268273e-05
   305   6321   0   2   -1.9374573e-06
   3051111   4133   0   2   -3.3928607e-07
   3051111   4233   0   2    1.1932309e-05
   3051111   4137   0   2    5.1615102e-06
   3051111   4237   0   2   -9.0652108e-05
   3051313   4133   0   2   -3.3928389e-07
   3051313   4233   0   2    1.1932279e-05
   3051313   4137   0   2    5.1615236e-06
   3051313   4237   0   2   -9.0652226e-05
   3051212   4137   0   2   -1.0844363e-06
   3051212   4237   0   2    1.9684849e-05
   3051414   4137   0   2   -1.0844366e-06
   3051414   4237   0   2    1.9684849e-05
   3051616   4137   0   2   -1.0833723e-06
   3051616   4237   0   2    1.9684849e-05

DECAY 23  2.4952


DECAY 24  2.085


DECAY 1000011  2.2601929
    0.41691891   2    1000025    11
    0.38154931   2   -1000037    12
    0.19060094   2    1000035    11
    0.0057645229   2    1000022    11
    0.0050635115   2    1000023    11
    0.00010281034   2   -1000024    12

DECAY 2000011  10.888638
    0.99900835   2    1000025    11
    0.00054767857   2    1000023    11
    0.00044372929   2    1000022    11

DECAY 1000013  2.3177731
    0.40654639   2    1000025    13
    0.37201642   2   -1000037    14
    0.18583885   2    1000035    13
    0.018146058   2    1000022    13
    0.017352031   2    1000023    13
    0.00010025542   2   -1000024    14

DECAY 2000013  11.050163
    0.98437916   2    1000025    13
    0.0073210885   2   -1000024    14
    0.0041839888   2    1000023    13
    0.0041138816   2    1000022    13

DECAY 1000015  37.354387
    0.29065041   2    1000022    15
    0.28799581   2    1000023    15
    0.23881721   2   -1000037    16
    0.11925128   2    1000035    15
    0.063262704   2    1000025    15

DECAY 2000015  72.717985
    0.38678055   2   -1000024    16
    0.22545656   2    1000025    15
    0.19431154   2    1000022    15
    0.19265849   2    1000023    15
    0.00039336883   2    1000016   -24
    0.00019558043   2    1000015    23
    0.00019245168   2    1000015    25

DECAY 1000012  2.2762052
    0.4141959   2    1000025    12
    0.37406195   2    1000037    11
    0.18739995   2    1000035    12
    0.022231419   2    1000024    11
    0.0013471056   2    1000022    12
    0.00076368041   2    1000023    12

DECAY 1000014  2.3337513
    0.40396761   2    1000025    14
    0.36478501   2    1000037    13
    0.18275233   2    1000035    14
    0.046436335   2    1000024    13
    0.0013138777   2    1000022    14
    0.00074484334   2    1000023    14

DECAY 1000016  37.354133
    0.57934893   2    1000024    15
    0.23792712   2    1000037    15
    0.11914654   2    1000035    16
    0.063407596   2    1000025    16
    0.00010837593   2    1000022    16

DECAY 2000001  6.1232741
    0.93727605   2    1000021    1
    0.062572473   2    1000025    1

DECAY 1000001  275.13896
    0.85563227   2    1000021    1
    0.094950306   2   -1000037    2
    0.047432322   2    1000035    1
    0.0019175959   2    1000025    1

DECAY 2000003  6.1545693
    0.93250078   2    1000021    3
    0.062254165   2    1000025    3
    0.0025542337   2   -1000024    4
    0.0013468978   2    1000023    3
    0.0013439173   2    1000022    3

DECAY 1000003  275.17035
    0.85553359   2    1000021    3
    0.094939359   2   -1000037    4
    0.047426853   2    1000035    3
    0.0019173755   2    1000025    3

DECAY 1000005  69.166917
    0.55232998   2   -1000024    6
    0.22488367   2    1000022    5
    0.22276836   2    1000023    5

DECAY 2000005  68.28568
    0.49613305   2   -1000024    6
    0.25241824   2    1000022    5
    0.25029139   2    1000023    5
    0.0010006494   2    1000025    5

DECAY 2000002  236.40069
    0.96524377   2    1000021    2
    0.034729473   2    1000025    2

DECAY 1000002  275.12149
    0.8554996   2    1000021    2
    0.094733363   2    1000037    1
    0.047413092   2    1000035    2
    0.0018990531   2    1000025    2
    0.00034468048   2    1000024    1

DECAY 2000004  236.40421
    0.96522915   2    1000021    4
    0.034728946   2    1000025    4

DECAY 1000004  275.15282
    0.85540093   2    1000021    4
    0.094722462   2    1000037    3
    0.047407638   2    1000035    4
    0.0018988387   2    1000025    4
    0.00045334047   2    1000024    3

DECAY 1000006  70.336211
    0.43557557   2    1000024    5
    0.27150806   2    1000023    6
    0.2689587   2    1000022    6
    0.023881079   3    1000022    24    5

DECAY 2000006  188.07209
    0.29886306   2    1000024    5
    0.14844489   2    1000023    6
    0.14722332   2    1000022    6
    0.14537905   2    1000005    24
    0.11908521   2    1000006    25
    0.07383948   2    1000006    23
    0.057677583   2    1000021    6
    0.0094552616   2    1000025    6

DECAY 1000024  2.4417413e-13
    0.84651084   2    1000022    211
    0.081481892   3    1000022   -11    12
    0.072007269   3    1000022   -13    14

DECAY 1000037  30.678093
    0.17374251   2    1000024    25
    0.17035495   2    1000023    24
    0.16928411   2    1000024    23
    0.16883741   2    1000022    24
    0.15210565   2    1000006   -5
    0.13242263   2   -1000005    6
    0.01201148   3    1000024    6   -6
    0.0092097878   3    1000023   -5    6
    0.0091941833   3    1000022   -5    6
    0.0021468642   3    1000024    5   -5
    0.00031630365   3    1000024    15   -15
    0.00017431989   3    1000023   -15    16
    0.00017278841   3    1000022   -15    16

DECAY 1000022 -1


DECAY 1000023  1.3458859e-10
    0.96510268   2    1000022    22
    0.010189787   3    1000022    12   -12
    0.007618272   3    1000022    1   -1
    0.0070352827   3    1000022    3   -3
    0.0059423734   3    1000022    2   -2
    0.0017195558   3    1000022    11   -11
    0.001517348   3    1000022    13   -13
    0.00027361638   3    1000024    1   -2
    0.00027361638   3   -1000024   -1    2

DECAY 1000025  5.1705023
    0.23706053   2    1000024   -24
    0.23706053   2   -1000024    24
    0.13127819   2    1000022    25
    0.12982046   2    1000022    23
    0.12312204   2    1000023    25
    0.1070278   2    1000023    23
    0.010520257   3    1000024    5   -6
    0.010520257   3   -1000024   -5    6
    0.0060948674   3    1000023    6   -6
    0.0060781863   3    1000022    6   -6
    0.00063741274   3    1000023    5   -5
    0.00063732578   3    1000022    5   -5

DECAY 1000035  31.206901
    0.1668033   2    1000024   -24
    0.1668033   2   -1000024    24
    0.096801365   2    1000022    25
    0.094859093   2    1000023    23
    0.090836746   2    1000023    25
    0.071737707   2    1000005   -5
    0.071737707   2   -1000005    5
    0.071660118   2    1000022    23
    0.068074703   2    1000006   -6
    0.068074703   2   -1000006    6
    0.0091001994   3    1000024    5   -6
    0.0091001994   3   -1000024   -5    6
    0.0057785506   3    1000023    6   -6
    0.0057740005   3    1000022    6   -6
    0.0010738478   3    1000023    5   -5
    0.0010600047   3    1000022    5   -5
    0.00017324113   3    1000023    15   -15
    0.0001716322   3    1000022    15   -15
    0.00016859452   3    1000024    15   -16
    0.00016859452   3   -1000024   -15    16

DECAY 1000021  28.791834
    0.18257455   2    1000006   -6
    0.18257455   2   -1000006    6
    0.16901257   2    1000005   -5
    0.16901257   2   -1000005    5
    0.083059847   2    1000006   -4
    0.083059847   2   -1000006    4
    0.063568605   2    2000005   -5
    0.063568605   2   -2000005    5
    0.00082760308   3    1000024    5   -6
    0.00082760308   3   -1000024   -5    6
    0.00079009338   3    1000023    6   -6
    0.00078369817   3    1000022    6   -6
    0.00018869507   2    1000023    21
    0.00014055346   2    1000022    21

DECAY 25  0.0037463729
    0.59037501   2   -5    5
    0.21032081   2   -24    24
    0.073254804   2    21    21
    0.067866368   2   -15    15
    0.029079431   2   -4    4
    0.024902807   2    23    23
    0.0023402015   2    22    22
    0.0014025501   2    22    23
    0.00023538619   2   -13    13
    0.00022186571   2   -3    3
    6.1343614e-07   2   -1    1
    1.4985649e-07   2   -2    2
    5.291757e-09   2   -11    11

DECAY 35  89.959606
    0.83140413   2   -5    5
    0.16169467   2   -15    15
    0.0029631513   2    1000022    1000025
    0.0021577654   2    1000023    1000025
    0.00056344207   2   -13    13
    0.00049485373   2   -1000024    1000024
    0.00033282841   2   -3    3
    0.00032162179   2   -6    6
    3.0709069e-05   2    1000022    1000022
    1.9204148e-05   2    1000023    1000023
    1.3979623e-05   2    21    21
    1.3272279e-06   2    25    25
    1.0660517e-06   2    1000022    1000023
    9.2018564e-07   2   -1    1
    2.1403225e-07   2    23    23
    8.6850518e-08   2   -24    24
    1.2655455e-08   2   -11    11
    6.6315146e-09   2    22    23
    5.5920405e-09   2    22    22
    4.5367259e-09   2   -4    4
    2.3387985e-14   2   -2    2

DECAY 36  83.737752
    0.83102186   2   -5    5
    0.16162526   2   -15    15
    0.0031485454   2    1000023    1000025
    0.0023658712   2    1000022    1000025
    0.00056319971   2   -13    13
    0.00053970671   2   -1000024    1000024
    0.00033266947   2   -3    3
    0.0003237614   2   -6    6
    3.5842063e-05   2    1000022    1000022
    2.1962936e-05   2    21    21
    1.9356922e-05   2    1000023    1000023
    9.197448e-07   2   -1    1
    6.3577682e-07   2    1000022    1000023
    3.3005726e-07   2    23    25
    3.8299863e-08   2    22    22
    2.0079867e-08   2    22    23
    1.2649976e-08   2   -11    11
    4.463571e-09   2   -4    4
    2.3010661e-14   2   -2    2
    2.2981876e-39   2    25    25

DECAY 37  88.478858
    0.82995901   2   -5    6
    0.16242671   2   -15    16
    0.0052316164   2    1000024    1000025
    0.0012318592   2   -5    4
    0.00057423661   2   -13    14
    0.00031250826   2   -3    4
    0.00013484929   2    1000023    1000024
    0.00010356972   2    1000022    1000024
    1.4600308e-05   2   -3    2
    8.7967478e-06   2   -5    2
    9.8696861e-07   2   -3    6
    8.6717566e-07   2   -1    2
    3.1344067e-07   2    24    25
    4.061778e-08   2   -1    4
    2.4174907e-08   2   -1    6
    1.3431454e-08   2   -11    12
    2.5355333e-12   2    24    35
    4.4806094e-13   2    24    36

DECAY 6  2.43
    1   2    5    24

DECAY 15 -1
