# SUSY Les Houches Accord 2 - MSSM spectrum + Decays
# SPheno v4.0.5be
# W. Porod, Comput. Phys. Commun. 153 (2003) 275-315, hep-ph/0301101;
# W. Porod, F.~Staub, Comput. Phys. Commun. 183 (2012) 2458
#                     arXiv:1104.1573 [hep-ph] 
# in case of problems send email to porod@physik.uni-wuerzburg.de
# Created: 07.09.2021,  16:09
Block SPINFO         # Program information
     1   SPheno      # spectrum calculator
     2   v4.0.5be    # version number
#
Block SPhenoINFO     # SPheno specific information
    1      2         # using 2-loop RGEs
    2      2         # using pole masses for boundary conditions at mZ
Block MODSEL  # Model selection
    1    0    # general MSSM
Block MINPAR  # Input parameters
    3    5.32765863E+01  # tanb at m_Z    
    4   -1.00000000E+00  # Sign(mu)
Block EXTPAR  # non-universal input parameters
    0    3.25599015E+03  # scale for input parameters
    1   -2.06315385E+02  # M_1
    2    3.37121641E+02  # M_2
    3    3.75369159E+03  # M_3
   11   -7.01935920E+03  # A_t
   12    1.15183745E+03  # A_b
   13   -6.01109803E+02  # A_tau
   23   -2.35938934E+02  # mu
   25    5.29743254E+01  # tan(beta)
   26    1.34666147E+03  # m_A, pole mass
   31    1.00000000E+04  # M_L11
   32    1.00000000E+04  # M_L22
   33    1.00000000E+04  # M_L33
   34    1.00000000E+04  # M_E11
   35    1.00000000E+04  # M_E22
   36    1.00000000E+04  # M_E33
   41    1.00000000E+04  # M_Q11
   42    1.00000000E+04  # M_Q22
   43    3.45997879E+03  # M_Q33
   44    1.00000000E+04  # M_U11
   45    1.00000000E+04  # M_U22
   46    3.06648803E+03  # M_U33
   47    1.00000000E+04  # M_D11
   48    1.00000000E+04  # M_D22
   49    3.01850516E+03  # M_D33
Block SMINPUTS  # SM parameters
         1     1.27908970E+02  # alpha_em^-1(MZ)^MSbar
         2     1.16637870E-05  # G_mu [GeV^-2]
         3     1.18400000E-01  # alpha_s(MZ)^MSbar
         4     9.11876000E+01  # m_Z(pole)
         5     4.18000000E+00  # m_b(m_b), MSbar
         6     1.73200000E+02  # m_t(pole)
         7     1.77700000E+00  # m_tau(pole)
         8     0.00000000E+00  # m_nu_3
        11     5.10998930E-04  # m_e(pole)
        12     0.00000000E+00  # m_nu_1
        13     1.05658372E-01  # m_muon(pole)
        14     0.00000000E+00  # m_nu_2
        21     5.00000000E-03  # m_d(2 GeV), MSbar
        22     2.50000000E-03  # m_u(2 GeV), MSbar
        23     9.50000000E-02  # m_s(2 GeV), MSbar
        24     1.27000000E+00  # m_c(m_c), MSbar
Block gauge Q=  3.25599015E+03  # (SUSY scale)
   1    3.55362975E-01  # g'(Q)^DRbar
   2    6.65198874E-01  # g(Q)^DRbar
   3    1.21977796E+00  # g3(Q)^DRbar
Block Yu Q=  3.25599015E+03  # (SUSY scale)
  1  1     8.38586586E-06   # Y_u(Q)^DRbar
  2  2     4.26001986E-03   # Y_c(Q)^DRbar
  3  3     1.01307995E+00   # Y_t(Q)^DRbar
Block Yd Q=  3.25599015E+03  # (SUSY scale)
  1  1     8.92675455E-04   # Y_d(Q)^DRbar
  2  2     1.69608336E-02   # Y_s(Q)^DRbar
  3  3     8.85254327E-01   # Y_b(Q)^DRbar
Block Ye Q=  3.25599015E+03  # (SUSY scale)
  1  1     1.55778395E-04   # Y_e(Q)^DRbar
  2  2     3.22100314E-02   # Y_mu(Q)^DRbar
  3  3     5.41719740E-01   # Y_tau(Q)^DRbar
Block Au Q=  3.25599015E+03  # (SUSY scale)
  1  1     0.00000000E+00   # A_u(Q)^DRbar
  2  2     0.00000000E+00   # A_c(Q)^DRbar
  3  3    -7.01935945E+03   # A_t(Q)^DRbar
Block Ad Q=  3.25599015E+03  # (SUSY scale)
  1  1     0.00000000E+00   # A_d(Q)^DRbar
  2  2     0.00000000E+00   # A_s(Q)^DRbar
  3  3     1.15183754E+03   # A_b(Q)^DRbar
Block Ae Q=  3.25599015E+03  # (SUSY scale)
  1  1     0.00000000E+00   # A_e(Q)^DRbar
  2  2     0.00000000E+00   # A_mu(Q)^DRbar
  3  3    -6.01109807E+02   # A_tau(Q)^DRbar
Block MSOFT Q=  3.25599015E+03  # soft SUSY breaking masses at Q
   1   -2.06315385E+02  # M_1
   2    3.37121641E+02  # M_2
   3    3.75369159E+03  # M_3
  21    1.56438615E+06  # M^2_(H,d)
  22    1.68075596E+05  # M^2_(H,u)
  31    1.00000000E+04  # M_(L,11)
  32    1.00000000E+04  # M_(L,22)
  33    1.00000000E+04  # M_(L,33)
  34    1.00000000E+04  # M_(E,11)
  35    1.00000000E+04  # M_(E,22)
  36    1.00000000E+04  # M_(E,33)
  41    1.00000000E+04  # M_(Q,11)
  42    1.00000000E+04  # M_(Q,22)
  43    3.45997879E+03  # M_(Q,33)
  44    1.00000000E+04  # M_(U,11)
  45    1.00000000E+04  # M_(U,22)
  46    3.06648803E+03  # M_(U,33)
  47    1.00000000E+04  # M_(D,11)
  48    1.00000000E+04  # M_(D,22)
  49    3.01850516E+03  # M_(D,33)
Block MASS  # Mass spectrum
#   PDG code      mass          particle
         6     1.73200000E+02  # m_t(pole)
        23     9.11876000E+01  # m_Z(pole)
        24     8.04299946E+01  # W+
        15     1.77700000E+00  # m_tau(pole)
        25     1.29493833E+02  # h0
        35     1.34591636E+03  # H0
        36     1.34666147E+03  # A0
        37     1.35286788E+03  # H+
   1000001     1.00960564E+04  # ~d_L
   2000001     1.00711523E+04  # ~d_R
   1000002     1.00956924E+04  # ~u_L
   2000002     1.00743623E+04  # ~u_R
   1000003     1.00960664E+04  # ~s_L
   2000003     1.00711707E+04  # ~s_R
   1000004     1.00957024E+04  # ~c_L
   2000004     1.00743635E+04  # ~c_R
   1000005     3.11422040E+03  # ~b_1
   2000005     3.47939179E+03  # ~b_2
   1000006     3.00785688E+03  # ~t_1
   2000006     3.52459318E+03  # ~t_2
   1000011     1.00215371E+04  # ~e_L-
   2000011     1.00087902E+04  # ~e_R-
   1000012     1.00207716E+04  # ~nu_eL
   1000013     1.00215854E+04  # ~mu_L-
   2000013     1.00088834E+04  # ~mu_R-
   1000014     1.00208195E+04  # ~nu_muL
   1000015     1.00343280E+04  # ~tau_1-
   2000015     1.00364306E+04  # ~tau_2-
   1000016     1.00344759E+04  # ~nu_tauL
   1000021     4.18954313E+03  # ~g
   1000022     1.93054051E+02  # ~chi_10
   1000023     2.29682923E+02  # ~chi_20
   1000025     2.71064216E+02  # ~chi_30
   1000035     3.98323548E+02  # ~chi_40
   1000024     2.32751305E+02  # ~chi_1+
   1000037     3.98604559E+02  # ~chi_2+
# Higgs mixing
Block alpha # Effective Higgs mixing angle
          -1.89824695E-02   # alpha
Block Hmix Q=  3.25599015E+03  # Higgs mixing parameters
   1   -2.35938934E+02  # mu
   2    5.29743254E+01  # tan[beta](Q)
   3    2.43124651E+02  # v(Q)
   4    1.81349711E+06  # m^2_A(Q)
Block stopmix # stop mixing matrix
   1  1     3.00621020E-01   # Re[R_st(1,1)]
   1  2     9.53743678E-01   # Re[R_st(1,2)]
   2  1    -9.53743678E-01   # Re[R_st(2,1)]
   2  2     3.00621020E-01   # Re[R_st(2,2)]
Block sbotmix # sbottom mixing matrix
   1  1    -1.08350135E-02   # Re[R_sb(1,1)]
   1  2     9.99941300E-01   # Re[R_sb(1,2)]
   2  1    -9.99941300E-01   # Re[R_sb(2,1)]
   2  2    -1.08350135E-02   # Re[R_sb(2,2)]
Block staumix # stau mixing matrix
   1  1    -7.53358836E-01   # Re[R_sta(1,1)]
   1  2     6.57609660E-01   # Re[R_sta(1,2)]
   2  1    -6.57609660E-01   # Re[R_sta(2,1)]
   2  2    -7.53358836E-01   # Re[R_sta(2,2)]
Block Nmix # neutralino mixing matrix
   1  1    -8.83082487E-01   # Re[N(1,1)]
   1  2    -4.24613242E-02   # Re[N(1,2)]
   1  3     3.67813761E-01   # Re[N(1,3)]
   1  4    -2.88228026E-01   # Re[N(1,4)]
   2  1    -6.28709991E-02   # Re[N(2,1)]
   2  2    -3.53923727E-01   # Re[N(2,2)]
   2  3    -6.86826453E-01   # Re[N(2,3)]
   2  4    -6.31707730E-01   # Re[N(2,4)]
   3  1    -4.64432985E-01   # Re[N(3,1)]
   3  2     8.31955188E-02   # Re[N(3,2)]
   3  3    -5.97060501E-01   # Re[N(3,3)]
   3  4     6.48767498E-01   # Re[N(3,4)]
   4  1     2.26839473E-02   # Re[N(4,1)]
   4  2    -9.30598483E-01   # Re[N(4,2)]
   4  3     1.91052923E-01   # Re[N(4,3)]
   4  4     3.11401160E-01   # Re[N(4,4)]
Block Umix # chargino mixing matrix
   1  1    -2.74802489E-01   # Re[U(1,1)]
   1  2    -9.61500698E-01   # Re[U(1,2)]
   2  1     9.61500698E-01   # Re[U(2,1)]
   2  2    -2.74802489E-01   # Re[U(2,2)]
Block Vmix # chargino mixing matrix
   1  1    -4.47907900E-01   # Re[V(1,1)]
   1  2     8.94079702E-01   # Re[V(1,2)]
   2  1     8.94079702E-01   # Re[V(2,1)]
   2  2     4.47907900E-01   # Re[V(2,2)]
DECAY        23     2.49520000E+00   # Z
DECAY        24     2.08500000E+00   # W
DECAY   2000011     5.02451499E+01   # ~e^-_R
#    BR                NDA      ID1      ID2
     7.79958099E-01    2     1000022        11   # BR(~e^-_R -> chi^0_1 e^-)
     3.95221084E-03    2     1000023        11   # BR(~e^-_R -> chi^0_2 e^-)
     2.15576194E-01    2     1000025        11   # BR(~e^-_R -> chi^0_3 e^-)
     5.13399410E-04    2     1000035        11   # BR(~e^-_R -> chi^0_4 e^-)
DECAY   1000011     1.44518896E+02   # ~e^-_L
#    BR                NDA      ID1      ID2
     8.06477363E-02    2     1000022        11   # BR(~e^-_L -> chi^0_1 e^-)
     4.57850897E-02    2     1000023        11   # BR(~e^-_L -> chi^0_2 e^-)
     8.28883992E-03    2     1000025        11   # BR(~e^-_L -> chi^0_3 e^-)
     2.56672431E-01    2     1000035        11   # BR(~e^-_L -> chi^0_4 e^-)
     4.60485049E-02    2    -1000024        12   # BR(~e^-_L -> chi^-_1 nu_e)
     5.62557398E-01    2    -1000037        12   # BR(~e^-_L -> chi^-_2 nu_e)
#    BR                NDA      ID1      ID2       ID3
DECAY   2000013     5.06582667E+01   # ~mu^-_R
#    BR                NDA      ID1      ID2
     7.74156070E-01    2     1000022        13   # BR(~mu^-_R -> chi^0_1 mu^-)
     5.84166368E-03    2     1000023        13   # BR(~mu^-_R -> chi^0_2 mu^-)
     2.15271719E-01    2     1000025        13   # BR(~mu^-_R -> chi^0_3 mu^-)
     6.57594510E-04    2     1000035        13   # BR(~mu^-_R -> chi^0_4 mu^-)
     3.76597227E-03    2    -1000024        14   # BR(~mu^-_R -> chi^-_1 nu_mu)
     3.06980197E-04    2    -1000037        14   # BR(~mu^-_R -> chi^-_2 nu_mu)
DECAY   1000013     1.44726183E+02   # ~mu^-_L
#    BR                NDA      ID1      ID2
     8.07258203E-02    2     1000022        13   # BR(~mu^-_L -> chi^0_1 mu^-)
     4.63932263E-02    2     1000023        13   # BR(~mu^-_L -> chi^0_2 mu^-)
     8.78574654E-03    2     1000025        13   # BR(~mu^-_L -> chi^0_3 mu^-)
     2.56358046E-01    2     1000035        13   # BR(~mu^-_L -> chi^0_4 mu^-)
     4.59827730E-02    2    -1000024        14   # BR(~mu^-_L -> chi^-_1 nu_mu)
     5.61754388E-01    2    -1000037        14   # BR(~mu^-_L -> chi^-_2 nu_mu)
#    BR                NDA      ID1      ID2       ID3
DECAY   1000015     1.87789223E+02   # ~tau^-_1
#    BR                NDA      ID1      ID2
     2.10266881E-01    2     1000022        15   # BR(~tau^-_1 -> chi^0_1 tau^-)
     2.26476968E-01    2     1000023        15   # BR(~tau^-_1 -> chi^0_2 tau^-)
     8.66664938E-02    2     1000025        15   # BR(~tau^-_1 -> chi^0_3 tau^-)
     7.54757510E-02    2     1000035        15   # BR(~tau^-_1 -> chi^0_4 tau^-)
     2.44902434E-01    2    -1000024        16   # BR(~tau^-_1 -> chi^-_1 nu_tau)
     1.56211471E-01    2    -1000037        16   # BR(~tau^-_1 -> chi^-_2 nu_tau)
DECAY   2000015     1.82858202E+02   # ~tau^-_2
#    BR                NDA      ID1      ID2
     1.49396707E-01    2     1000022        15   # BR(~tau^-_2 -> chi^0_1 tau^-)
     1.06700653E-01    2     1000023        15   # BR(~tau^-_2 -> chi^0_2 tau^-)
     2.05063949E-01    2     1000025        15   # BR(~tau^-_2 -> chi^0_3 tau^-)
     1.49091883E-01    2     1000035        15   # BR(~tau^-_2 -> chi^0_4 tau^-)
     8.08098061E-02    2    -1000024        16   # BR(~tau^-_2 -> chi^-_1 nu_tau)
     3.08937001E-01    2    -1000037        16   # BR(~tau^-_2 -> chi^-_2 nu_tau)
#    BR                NDA      ID1      ID2       ID3
DECAY   1000012     1.44524004E+02   # ~nu_e
#    BR                NDA      ID1      ID2
     5.62034296E-02    2     1000022        12   # BR(~nu_e -> chi^0_1 nu_e)
     3.12839371E-02    2     1000023        12   # BR(~nu_e -> chi^0_2 nu_e)
     3.34491494E-02    2     1000025        12   # BR(~nu_e -> chi^0_3 nu_e)
     2.70366737E-01    2     1000035        12   # BR(~nu_e -> chi^0_4 nu_e)
     1.22321604E-01    2     1000024        11   # BR(~nu_e -> chi^+_1 e^-)
     4.86375143E-01    2     1000037        11   # BR(~nu_e -> chi^+_2 e^-)
#    BR                NDA      ID1      ID2       ID3
DECAY   1000014     1.44731269E+02   # ~nu_mu
#    BR                NDA      ID1      ID2
     5.61232111E-02    2     1000022        14   # BR(~nu_mu -> chi^0_1 nu_mu)
     3.12392860E-02    2     1000023        14   # BR(~nu_mu -> chi^0_2 nu_mu)
     3.34014080E-02    2     1000025        14   # BR(~nu_mu -> chi^0_3 nu_mu)
     2.69980852E-01    2     1000035        14   # BR(~nu_mu -> chi^0_4 nu_mu)
     1.23466724E-01    2     1000024        13   # BR(~nu_mu -> chi^+_1 mu^-)
     4.85788519E-01    2     1000037        13   # BR(~nu_mu -> chi^+_2 mu^-)
#    BR                NDA      ID1      ID2       ID3
DECAY   1000016     2.03233832E+02   # ~nu_tau
#    BR                NDA      ID1      ID2
     4.00222230E-02    2     1000022        16   # BR(~nu_tau -> chi^0_1 nu_tau)
     2.22771773E-02    2     1000023        16   # BR(~nu_tau -> chi^0_2 nu_tau)
     2.38190439E-02    2     1000025        16   # BR(~nu_tau -> chi^0_3 nu_tau)
     1.92528276E-01    2     1000035        16   # BR(~nu_tau -> chi^0_4 nu_tau)
     3.53308381E-01    2     1000024        15   # BR(~nu_tau -> chi^+_1 tau^-)
     3.68044900E-01    2     1000037        15   # BR(~nu_tau -> chi^+_2 tau^-)
#    BR                NDA      ID1      ID2       ID3
DECAY   2000001     5.49239537E+02   # ~d_R
#    BR                NDA      ID1      ID2
     7.97746336E-03    2     1000022         1   # BR(~d_R -> chi^0_1 d)
     2.20503964E-03    2     1000025         1   # BR(~d_R -> chi^0_3 d)
     9.89771385E-01    2     1000021         1   # BR(~d_R -> ~g d)
DECAY   1000001     6.80422283E+02   # ~d_L
#    BR                NDA      ID1      ID2
     8.60003856E-04    2     1000022         1   # BR(~d_L -> chi^0_1 d)
     7.66359183E-03    2     1000023         1   # BR(~d_L -> chi^0_2 d)
     1.79496728E-03    2     1000025         1   # BR(~d_L -> chi^0_3 d)
     5.68735272E-02    2     1000035         1   # BR(~d_L -> chi^0_4 d)
     9.85339667E-03    2    -1000024         2   # BR(~d_L -> chi^-_1 u)
     1.20378969E-01    2    -1000037         2   # BR(~d_L -> chi^-_2 u)
     8.02575544E-01    2     1000021         1   # BR(~d_L -> ~g d)
DECAY   2000003     5.49356187E+02   # ~s_R
#    BR                NDA      ID1      ID2
     7.98992895E-03    2     1000022         3   # BR(~s_R -> chi^0_1 s)
     2.24181848E-03    2     1000025         3   # BR(~s_R -> chi^0_3 s)
     9.89564539E-01    2     1000021         3   # BR(~s_R -> ~g s)
DECAY   1000003     6.80484597E+02   # ~s_L
#    BR                NDA      ID1      ID2
     8.71373136E-04    2     1000022         3   # BR(~s_L -> chi^0_1 s)
     7.70280111E-03    2     1000023         3   # BR(~s_L -> chi^0_2 s)
     1.82494558E-03    2     1000025         3   # BR(~s_L -> chi^0_3 s)
     5.68714554E-02    2     1000035         3   # BR(~s_L -> chi^0_4 s)
     9.85677849E-03    2    -1000024         4   # BR(~s_L -> chi^-_1 c)
     1.20369140E-01    2    -1000037         4   # BR(~s_L -> chi^-_2 c)
     8.02503506E-01    2     1000021         3   # BR(~s_L -> ~g s)
DECAY   1000005     9.72938440E+01   # ~b_1
#    BR                NDA      ID1      ID2
     8.17330410E-02    2     1000022         5   # BR(~b_1 -> chi^0_1 b)
     2.34176249E-01    2     1000023         5   # BR(~b_1 -> chi^0_2 b)
     1.77875678E-01    2     1000025         5   # BR(~b_1 -> chi^0_3 b)
     1.66456570E-02    2     1000035         5   # BR(~b_1 -> chi^0_4 b)
     4.55386334E-01    2    -1000024         6   # BR(~b_1 -> chi^-_1 t)
     3.41828512E-02    2    -1000037         6   # BR(~b_1 -> chi^-_2 t)
DECAY   2000005     2.08947263E+02   # ~b_2
#    BR                NDA      ID1      ID2
     3.53997671E-02    2     1000022         5   # BR(~b_2 -> chi^0_1 b)
     1.29295490E-01    2     1000023         5   # BR(~b_2 -> chi^0_2 b)
     9.39995327E-02    2     1000025         5   # BR(~b_2 -> chi^0_3 b)
     7.20912747E-02    2     1000035         5   # BR(~b_2 -> chi^0_4 b)
     2.77137907E-01    2    -1000024         6   # BR(~b_2 -> chi^-_1 t)
     2.00638666E-01    2    -1000037         6   # BR(~b_2 -> chi^-_2 t)
     1.91247908E-01    2     1000006       -24   # BR(~b_2 -> ~t_1 W^-)
     1.31964847E-04    2     1000005        25   # BR(~b_2 -> ~b_1 h^0)
DECAY   2000002     5.66417609E+02   # ~u_R
#    BR                NDA      ID1      ID2
     3.09518292E-02    2     1000022         2   # BR(~u_R -> chi^0_1 u)
     1.56838237E-04    2     1000023         2   # BR(~u_R -> chi^0_2 u)
     8.55499708E-03    2     1000025         2   # BR(~u_R -> chi^0_3 u)
     9.60315961E-01    2     1000021         2   # BR(~u_R -> ~g u)
DECAY   1000002     6.80406407E+02   # ~u_L
#    BR                NDA      ID1      ID2
     2.60300132E-03    2     1000022         2   # BR(~u_L -> chi^0_1 u)
     8.69743074E-03    2     1000023         2   # BR(~u_L -> chi^0_2 u)
     5.58938379E-02    2     1000035         2   # BR(~u_L -> chi^0_4 u)
     2.61770158E-02    2     1000024         1   # BR(~u_L -> chi^+_1 d)
     1.04087442E-01    2     1000037         1   # BR(~u_L -> chi^+_2 d)
     8.02541257E-01    2     1000021         2   # BR(~u_L -> ~g u)
DECAY   2000004     5.66424963E+02   # ~c_R
#    BR                NDA      ID1      ID2
     3.09519643E-02    2     1000022         4   # BR(~c_R -> chi^0_1 c)
     1.59396279E-04    2     1000023         4   # BR(~c_R -> chi^0_2 c)
     8.55758324E-03    2     1000025         4   # BR(~c_R -> chi^0_3 c)
     9.60303650E-01    2     1000021         4   # BR(~c_R -> ~g c)
DECAY   1000004     6.80468688E+02   # ~c_L
#    BR                NDA      ID1      ID2
     2.60320986E-03    2     1000022         4   # BR(~c_L -> chi^0_1 c)
     8.69877658E-03    2     1000023         4   # BR(~c_L -> chi^0_2 c)
     5.58892972E-02    2     1000035         4   # BR(~c_L -> chi^0_4 c)
     2.62528450E-02    2     1000024         3   # BR(~c_L -> chi^+_1 s)
     1.04084390E-01    2     1000037         3   # BR(~c_L -> chi^+_2 s)
     8.02469214E-01    2     1000021         4   # BR(~c_L -> ~g c)
DECAY   1000006     1.28743608E+02   # ~t_1
#    BR                NDA      ID1      ID2
     6.07918383E-02    2     1000022         6   # BR(~t_1 -> chi^0_1 t)
     2.39637989E-04    2     1000023         4   # BR(~t_1 -> chi^0_2 c)
     2.12593986E-01    2     1000023         6   # BR(~t_1 -> chi^0_2 t)
     2.30812641E-01    2     1000025         6   # BR(~t_1 -> chi^0_3 t)
     1.60675316E-02    2     1000035         6   # BR(~t_1 -> chi^0_4 t)
     4.47598585E-01    2     1000024         5   # BR(~t_1 -> chi^+_1 b)
     3.13450371E-02    2     1000037         5   # BR(~t_1 -> chi^+_2 b)
#    BR                NDA      ID1      ID2       ID3
     4.78797747E-04    3     1000022        24         5   # BR(~t_1 -> chi^0_1 W^+ b)
DECAY   2000006     2.17945119E+02   # ~t_2
#    BR                NDA      ID1      ID2
     4.29650286E-02    2     1000022         6   # BR(~t_2 -> chi^0_1 t)
     1.21063729E-01    2     1000023         6   # BR(~t_2 -> chi^0_2 t)
     1.19334049E-01    2     1000025         6   # BR(~t_2 -> chi^0_3 t)
     1.11080316E-01    2     1000035         6   # BR(~t_2 -> chi^0_4 t)
     2.10226879E-01    2     1000024         5   # BR(~t_2 -> chi^+_1 b)
     1.72093897E-01    2     1000037         5   # BR(~t_2 -> chi^+_2 b)
     1.45147470E-04    2     1000005        24   # BR(~t_2 -> ~b_1 W^+)
     1.07464260E-01    2     1000006        23   # BR(~t_2 -> ~t_1 Z)
     1.15626693E-01    2     1000006        25   # BR(~t_2 -> ~t_1 h^0)
DECAY   1000024     7.99201775E-05   # chi^+_1
#    BR                NDA      ID1      ID2       ID3
     3.34154797E-01    3     1000022        -1         2   # BR(chi^+_1 -> chi^0_1 d_bar u)
     3.32664353E-01    3     1000022        -3         4   # BR(chi^+_1 -> chi^0_1 s_bar c)
     1.11378520E-01    3     1000022       -11        12   # BR(chi^+_1 -> chi^0_1 e^+ nu_e)
     1.11376123E-01    3     1000022       -13        14   # BR(chi^+_1 -> chi^0_1 mu^+ nu_mu)
     1.10421923E-01    3     1000022       -15        16   # BR(chi^+_1 -> chi^0_1 tau^+ nu_tau)
DECAY   1000037     2.04453847E+00   # chi^+_2
#    BR                NDA      ID1      ID2
     1.64689673E-01    2     1000022        24   # BR(chi^+_2 -> chi^0_1 W^+)
     2.60574225E-01    2     1000023        24   # BR(chi^+_2 -> chi^0_2 W^+)
     2.42079753E-01    2     1000025        24   # BR(chi^+_2 -> chi^0_3 W^+)
     2.18335235E-01    2     1000024        23   # BR(chi^+_2 -> chi^+_1 Z)
     1.14312135E-01    2     1000024        25   # BR(chi^+_2 -> chi^+_1 h^0)
#    BR                NDA      ID1      ID2       ID3
DECAY   1000022     0.00000000E+00   # chi^0_1
DECAY   1000023     3.95523992E-05   # chi^0_2
#    BR                NDA      ID1      ID2
     1.99402027E-02    2     1000022        22   # BR(chi^0_2 -> chi^0_1 photon)
#    BR                NDA      ID1      ID2       ID3
     1.18928748E-01    3     1000022         2        -2   # BR(chi^0_2 -> chi^0_1 u u_bar)
     1.17143607E-01    3     1000022         4        -4   # BR(chi^0_2 -> chi^0_1 c c_bar)
     1.52488080E-01    3     1000022         1        -1   # BR(chi^0_2 -> chi^0_1 d d_bar)
     1.52477030E-01    3     1000022         3        -3   # BR(chi^0_2 -> chi^0_1 s s_bar)
     1.32986554E-01    3     1000022         5        -5   # BR(chi^0_2 -> chi^0_1 b b_bar)
     3.44092517E-02    3     1000022        11       -11   # BR(chi^0_2 -> chi^0_1 e^- e^+)
     3.44052840E-02    3     1000022        13       -13   # BR(chi^0_2 -> chi^0_1 mu^- mu^+)
     3.33109291E-02    3     1000022        15       -15   # BR(chi^0_2 -> chi^0_1 tau^- tau^+)
     2.03910313E-01    3     1000022        12       -12   # BR(chi^0_2 -> chi^0_1 nu_e nu_bar_e)
DECAY   1000025     7.94500420E-04   # chi^0_3
#    BR                NDA      ID1      ID2
     2.69977708E-04    2     1000022        22   # BR(chi^0_3 -> chi^0_1 photon)
     1.23948444E-02    2     1000023        22   # BR(chi^0_3 -> chi^0_2 photon)
#    BR                NDA      ID1      ID2       ID3
     3.15745124E-03    3     1000022         2        -2   # BR(chi^0_3 -> chi^0_1 u u_bar)
     3.15185543E-03    3     1000022         4        -4   # BR(chi^0_3 -> chi^0_1 c c_bar)
     4.04733972E-03    3     1000022         1        -1   # BR(chi^0_3 -> chi^0_1 d d_bar)
     4.04731527E-03    3     1000022         3        -3   # BR(chi^0_3 -> chi^0_1 s s_bar)
     4.08026792E-03    3     1000022         5        -5   # BR(chi^0_3 -> chi^0_1 b b_bar)
     9.12470473E-04    3     1000022        11       -11   # BR(chi^0_3 -> chi^0_1 e^- e^+)
     9.12469324E-04    3     1000022        13       -13   # BR(chi^0_3 -> chi^0_1 mu^- mu^+)
     9.11818536E-04    3     1000022        15       -15   # BR(chi^0_3 -> chi^0_1 tau^- tau^+)
     5.41441148E-03    3     1000022        12       -12   # BR(chi^0_3 -> chi^0_1 nu_e nu_bar_e)
     4.12666963E-02    3     1000023         2        -2   # BR(chi^0_3 -> chi^0_2 u u_bar)
     4.07931600E-02    3     1000023         4        -4   # BR(chi^0_3 -> chi^0_2 c c_bar)
     5.29117604E-02    3     1000023         1        -1   # BR(chi^0_3 -> chi^0_2 d d_bar)
     5.29088456E-02    3     1000023         3        -3   # BR(chi^0_3 -> chi^0_2 s s_bar)
     4.76769310E-02    3     1000023         5        -5   # BR(chi^0_3 -> chi^0_2 b b_bar)
     1.19409547E-02    3     1000023        11       -11   # BR(chi^0_3 -> chi^0_2 e^- e^+)
     1.19399098E-02    3     1000023        13       -13   # BR(chi^0_3 -> chi^0_2 mu^- mu^+)
     1.16502104E-02    3     1000023        15       -15   # BR(chi^0_3 -> chi^0_2 tau^- tau^+)
     7.07598954E-02    3     1000023        12       -12   # BR(chi^0_3 -> chi^0_2 nu_e nu_bar_e)
     1.03411572E-01    3     1000024         1        -2   # BR(chi^0_3 -> chi^+_1 d u_bar)
     1.03411572E-01    3    -1000024        -1         2   # BR(chi^0_3 -> chi^-_1 d_bar u)
     1.02917561E-01    3     1000024         3        -4   # BR(chi^0_3 -> chi^+_1 s c_bar)
     1.02917561E-01    3    -1000024        -3         4   # BR(chi^0_3 -> chi^-_1 s_bar c)
     3.44710903E-02    3     1000024        11       -12   # BR(chi^0_3 -> chi^+_1 e^- nu_bar_e)
     3.44710903E-02    3    -1000024       -11        12   # BR(chi^0_3 -> chi^-_1 e^+ nu_e)
     3.44703061E-02    3     1000024        13       -14   # BR(chi^0_3 -> chi^+_1 mu^- nu_bar_mu)
     3.44703061E-02    3    -1000024       -13        14   # BR(chi^0_3 -> chi^-_1 mu^+ nu_mu)
     3.41551781E-02    3     1000024        15       -16   # BR(chi^0_3 -> chi^+_1 tau^- nu_bar_tau)
     3.41551781E-02    3    -1000024       -15        16   # BR(chi^0_3 -> chi^-_1 tau^+ nu_tau)
DECAY   1000035     2.31507408E+00   # chi^0_4
#    BR                NDA      ID1      ID2
     2.46407345E-01    2     1000024       -24   # BR(chi^0_4 -> chi^+_1 W^-)
     2.46407345E-01    2    -1000024        24   # BR(chi^0_4 -> chi^-_1 W^+)
     1.28375246E-01    2     1000022        23   # BR(chi^0_4 -> chi^0_1 Z)
     1.52979202E-02    2     1000023        23   # BR(chi^0_4 -> chi^0_2 Z)
     1.97424518E-01    2     1000025        23   # BR(chi^0_4 -> chi^0_3 Z)
     7.75061796E-02    2     1000022        25   # BR(chi^0_4 -> chi^0_1 h^0)
     8.85362334E-02    2     1000023        25   # BR(chi^0_4 -> chi^0_2 h^0)
#    BR                NDA      ID1      ID2       ID3
DECAY   1000021     7.53259341E+01   # ~g
#    BR                NDA      ID1      ID2
     3.41824860E-03    2     1000006        -4   # BR(~g -> ~t_1 c_bar)
     3.41824860E-03    2    -1000006         4   # BR(~g -> ~t^*_1 c)
     1.73103593E-01    2     1000006        -6   # BR(~g -> ~t_1 t_bar)
     1.73103593E-01    2    -1000006         6   # BR(~g -> ~t^*_1 t)
     7.92644995E-02    2     2000006        -6   # BR(~g -> ~t_2 t_bar)
     7.92644995E-02    2    -2000006         6   # BR(~g -> ~t^*_2 t)
     1.64826801E-01    2     1000005        -5   # BR(~g -> ~b_1 b_bar)
     1.64826801E-01    2    -1000005         5   # BR(~g -> ~b^*_1 b)
     7.92359737E-02    2     2000005        -5   # BR(~g -> ~b_2 b_bar)
     7.92359737E-02    2    -2000005         5   # BR(~g -> ~b^*_2 b)
#    BR                NDA      ID1      ID2       ID3
DECAY        25     4.24086088E-03   # Gamma(h0)
     2.49236696E-03   2        22        22   # BR(h0 -> photon photon)
     2.00437427E-03   2        22        23   # BR(h0 -> photon Z)
     4.34080174E-02   2        23        23   # BR(h0 -> Z Z)
     3.30214386E-01   2       -24        24   # BR(h0 -> W W)
     7.34207188E-02   2        21        21   # BR(h0 -> gluon gluon)
     4.25587508E-09   2       -11        11   # BR(h0 -> Electron electron)
     1.89310960E-04   2       -13        13   # BR(h0 -> Muon muon)
     5.45894938E-02   2       -15        15   # BR(h0 -> Tau tau)
     1.17756712E-07   2        -2         2   # BR(h0 -> Up up)
     2.28567339E-02   2        -4         4   # BR(h0 -> Charm charm)
     4.89604252E-07   2        -1         1   # BR(h0 -> Down down)
     1.77078300E-04   2        -3         3   # BR(h0 -> Strange strange)
     4.70646908E-01   2        -5         5   # BR(h0 -> Bottom bottom)
DECAY        35     6.16596246E+01   # Gamma(HH)
     1.72790684E-07   2        22        22   # BR(HH -> photon photon)
     3.59881067E-07   2        22        23   # BR(HH -> photon Z)
     4.27057437E-07   2        23        23   # BR(HH -> Z Z)
     3.96128604E-07   2       -24        24   # BR(HH -> W W)
     3.08182542E-05   2        21        21   # BR(HH -> gluon gluon)
     8.43241688E-09   2       -11        11   # BR(HH -> Electron electron)
     3.75358275E-04   2       -13        13   # BR(HH -> Muon muon)
     1.08393859E-01   2       -15        15   # BR(HH -> Tau tau)
     1.87156574E-14   2        -2         2   # BR(HH -> Up up)
     3.62982819E-09   2        -4         4   # BR(HH -> Charm charm)
     2.70061003E-04   2        -6         6   # BR(HH -> Top top)
     6.95014389E-07   2        -1         1   # BR(HH -> Down down)
     2.51359375E-04   2        -3         3   # BR(HH -> Strange strange)
     6.50175640E-01   2        -5         5   # BR(HH -> Bottom bottom)
     3.41017986E-02   2  -1000024   1000024   # BR(HH -> Chargino1 chargino1)
     5.16880888E-02   2  -1000024   1000037   # BR(HH -> Chargino1 chargino2)
     5.16880888E-02   2  -1000037   1000024   # BR(HH -> Chargino2 chargino1)
     8.23942141E-03   2  -1000037   1000037   # BR(HH -> Chargino2 chargino2)
     4.05868721E-03   2   1000022   1000022   # BR(HH -> neutralino1 neutralino1)
     1.53167049E-02   2   1000022   1000023   # BR(HH -> neutralino1 neutralino2)
     5.79463943E-04   2   1000022   1000025   # BR(HH -> neutralino1 neutralino3)
     5.92563651E-03   2   1000022   1000035   # BR(HH -> neutralino1 neutralino4)
     9.46348112E-03   2   1000023   1000023   # BR(HH -> neutralino2 neutralino2)
     1.83327793E-04   2   1000023   1000025   # BR(HH -> neutralino2 neutralino3)
     2.05608141E-02   2   1000023   1000035   # BR(HH -> neutralino2 neutralino4)
     5.77323579E-03   2   1000025   1000025   # BR(HH -> neutralino3 neutralino3)
     2.84220132E-02   2   1000025   1000035   # BR(HH -> neutralino3 neutralino4)
     4.49624583E-03   2   1000035   1000035   # BR(HH -> neutralino4 neutralino4)
     3.83397243E-06   2        25        25   # BR(HH -> h0 h0)
DECAY        36     5.90775214E+01   # Gamma(A0)
     9.87228268E-09   2        22        22   # BR(A0 -> photon photon)
     1.33517216E-07   2        22        23   # BR(A0 -> photon Z)
     4.34264848E-05   2        21        21   # BR(A0 -> gluon gluon)
     8.31346625E-09   2       -11        11   # BR(A0 -> Electron electron)
     3.70063342E-04   2       -13        13   # BR(A0 -> Muon muon)
     1.06865621E-01   2       -15        15   # BR(A0 -> Tau tau)
     1.83849499E-14   2        -2         2   # BR(A0 -> Up up)
     3.56465425E-09   2        -4         4   # BR(A0 -> Charm charm)
     2.86348552E-04   2        -6         6   # BR(A0 -> Top top)
     6.85161645E-07   2        -1         1   # BR(A0 -> Down down)
     2.47795896E-04   2        -3         3   # BR(A0 -> Strange strange)
     6.40982352E-01   2        -5         5   # BR(A0 -> Bottom bottom)
     3.80511596E-02   2  -1000024   1000024   # BR(A0 -> Chargino1 chargino1)
     5.16929943E-02   2  -1000024   1000037   # BR(A0 -> Chargino1 chargino2)
     5.16929943E-02   2  -1000037   1000024   # BR(A0 -> Chargino2 chargino1)
     1.07644333E-02   2  -1000037   1000037   # BR(A0 -> Chargino2 chargino2)
     4.89511574E-03   2   1000022   1000022   # BR(A0 -> neutralino1 neutralino1)
     1.42164590E-02   2   1000022   1000023   # BR(A0 -> neutralino1 neutralino2)
     7.64362707E-04   2   1000022   1000025   # BR(A0 -> neutralino1 neutralino3)
     5.87556161E-03   2   1000022   1000035   # BR(A0 -> neutralino1 neutralino4)
     1.02700472E-02   2   1000023   1000023   # BR(A0 -> neutralino2 neutralino2)
     6.83277324E-05   2   1000023   1000025   # BR(A0 -> neutralino2 neutralino3)
     2.45080224E-02   2   1000023   1000035   # BR(A0 -> neutralino2 neutralino4)
     7.70540519E-03   2   1000025   1000025   # BR(A0 -> neutralino3 neutralino3)
     2.47682126E-02   2   1000025   1000035   # BR(A0 -> neutralino3 neutralino4)
     5.92985726E-03   2   1000035   1000035   # BR(A0 -> neutralino4 neutralino4)
     5.99582608E-07   2        23        25   # BR(A0 -> Z h0)
     4.07387007E-36   2        25        25   # BR(A0 -> h0 h0)
DECAY        37     6.62527458E+01   # Gamma(Hp)
     9.58484176E-09   2       -11        12   # BR(Hp -> Electron nu_e)
     4.09781917E-04   2       -13        14   # BR(Hp -> Muon nu_mu)
     1.15909311E-01   2       -15        16   # BR(Hp -> Tau nu_tau)
     6.83737323E-07   2        -1         2   # BR(Hp -> Down up)
     1.14280084E-05   2        -3         2   # BR(Hp -> Strange up)
     7.08917481E-06   2        -5         2   # BR(Hp -> Bottom up)
     3.18066705E-08   2        -1         4   # BR(Hp -> Down charm)
     2.46384122E-04   2        -3         4   # BR(Hp -> Strange charm)
     9.92736723E-04   2        -5         4   # BR(Hp -> Bottom charm)
     1.97704546E-08   2        -1         6   # BR(Hp -> Down top)
     7.82908371E-07   2        -3         6   # BR(Hp -> Strange top)
     6.58547278E-01   2        -5         6   # BR(Hp -> Bottom top)
     3.31301124E-02   2   1000022   1000024   # BR(Hp -> neutralino1 chargino1)
     9.69808916E-03   2   1000022   1000037   # BR(Hp -> neutralino1 chargino2)
     8.24185927E-04   2   1000023   1000024   # BR(Hp -> neutralino2 chargino1)
     7.38686105E-02   2   1000023   1000037   # BR(Hp -> neutralino2 chargino2)
     4.18117487E-04   2   1000024   1000025   # BR(Hp -> chargino1 neutralino3)
     4.51494242E-02   2   1000025   1000037   # BR(Hp -> neutralino3 chargino2)
     6.07795642E-02   2   1000024   1000035   # BR(Hp -> chargino1 neutralino4)
     5.81541856E-06   2   1000035   1000037   # BR(Hp -> neutralino4 chargino2)
     5.43988473E-07   2        24        25   # BR(Hp -> W h0)
     3.32572182E-10   2        24        35   # BR(Hp -> W HH)
     1.88655666E-10   2        24        36   # BR(Hp -> W A0)
DECAY         6     2.43000000E+00   # top
#    BR                NDA      ID1      ID2
     1.00000000E+00    2           5        24   # BR(t -> b W)
Block HiggsBoundsInputHiggsCouplingsFermions
# ScalarNormEffCoupSq PseudoSNormEffCoupSq NP IP1 IP2 IP2
    1.01143705E+00    0.00000000E+00        3  25   5   5  # h0-b-b eff. coupling^2, normalised to SM
    2.80626771E+03    0.00000000E+00        3  35   5   5  # H0-b-b eff. coupling^2, normalised to SM
    0.00000000E+00    2.80627915E+03        3  36   5   5  # A0-b-b eff. coupling^2, normalised to SM
#
    9.99995924E-01    0.00000000E+00        3  25   6   6  # h0-t-t eff. coupling^2, normalised to SM
    3.60419258E-04    0.00000000E+00        3  35   6   6  # H0-t-t eff. coupling^2, normalised to SM
    0.00000000E+00    3.56343737E-04        3  36   6   6  # A0-t-t eff. coupling^2, normalised to SM
#
    1.01143705E+00    0.00000000E+00        3  25  15  15  # h0-tau-tau eff. coupling^2, normalised to SM
    2.80626771E+03    0.00000000E+00        3  35  15  15  # H0-tau-tau eff. coupling^2, normalised to SM
    0.00000000E+00    2.80627915E+03        3  36  15  15  # A0-tau-tau eff. coupling^2, normalised to SM
#
Block HiggsBoundsInputHiggsCouplingsBosons
    9.99999988E-01        3  25  24  24  # h0-W-W eff. coupling^2, normalised to SM
    1.15868396E-08        3  35  24  24  # H0-W-W eff. coupling^2, normalised to SM
    0.00000000E+00        3  36  24  24  # A0-W-W eff. coupling^2, normalised to SM
#
    9.99999988E-01        3  25  23  23  # h0-Z-Z eff. coupling^2, normalised to SM
    1.15868396E-08        3  35  23  23  # H0-Z-Z eff. coupling^2, normalised to SM
    0.00000000E+00        3  36  23  23  # A0-Z-Z eff. coupling^2, normalised to SM
#
    1.25500891E+00        3  25  21  21  # h0-g-g eff. coupling^2, normalised to SM
    2.85764688E-02        3  35  21  21  # H0-g-g eff. coupling^2, normalised to SM
    1.80968141E-01        3  36  21  21  # A0-g-g eff. coupling^2, normalised to SM
#
    0.00000000E+00        3  25  25  23  # h0-h0-Z eff. coupling^2, normalised to SM
    0.00000000E+00        3  35  25  23  # H0-h0-Z eff. coupling^2, normalised to SM
    1.15868396E-08        3  36  25  23  # A0-h0-Z eff. coupling^2, normalised to SM
    0.00000000E+00        3  35  35  23  # H0-H0-Z eff. coupling^2, normalised to SM
    9.99999988E-01        3  36  35  23  # A0-H0-Z eff. coupling^2, normalised to SM
    0.00000000E+00        3  36  36  23  # A0-A0-Z eff. coupling^2, normalised to SM
#
    0.00000000E+00        4  25  21  21  23  # h0-g-g-Z eff. coupling^2, normalised to SM
    0.00000000E+00        4  35  21  21  23  # H0-g-g-Z eff. coupling^2, normalised to SM
    0.00000000E+00        4  36  21  21  23  # A0-g-g-Z eff. coupling^2, normalised to SM
Block SPhenoLowEnergy  # low energy observables
    1    3.69607427E-04   # BR(b -> s gamma)
    2    1.58788892E-06   # BR(b -> s mu+ mu-)
    3    3.52633915E-05   # BR(b -> s nu nu)
    4    1.49320631E-15   # BR(Bd -> e+ e-)
    5    6.36784703E-11   # BR(Bd -> mu+ mu-)
    6    7.07369457E-09   # BR(Bd -> tau+ tau-)
    7    4.92491700E-14   # BR(Bs -> e+ e-)
    8    2.10041184E-09   # BR(Bs -> mu+ mu-)
    9    2.42447674E-07   # BR(Bs -> tau+ tau-)
   10    8.78503221E-05   # BR(B_u -> tau nu)
   11    9.07460195E-01   # BR(B_u -> tau nu)/BR(B_u -> tau nu)_SM
   12    5.41714684E-01   # |Delta(M_Bd)| [ps^-1] 
   13    1.92524978E+01   # |Delta(M_Bs)| [ps^-1] 
   14    0.00000000E+00   # neutron EDM according to the chiral quark model
   15    0.00000000E+00   # neutron EDM according to the relativistic quark-parton model
   16    2.15784030E-03   # epsilon_K
   17    2.28167390E-15   # Delta(M_K)
   18    2.48078329E-11   # BR(K^0 -> pi^0 nu nu)
   19    8.29232017E-11   # BR(K^+ -> pi^+ nu nu)
   20   -3.06062089E-16   # Delta(g-2)_electron/2
   21   -1.30853109E-11   # Delta(g-2)_muon/2
   22   -3.71645102E-09   # Delta(g-2)_tau/2
   23    0.00000000E+00   # electric dipole moment of the electron
   24    0.00000000E+00   # electric dipole moment of the muon
   25    0.00000000E+00   # electric dipole moment of the tau
   26    0.00000000E+00   # Br(mu -> e gamma)
   27    0.00000000E+00   # Br(tau -> e gamma)
   28    0.00000000E+00   # Br(tau -> mu gamma)
   29    0.00000000E+00   # Br(mu -> 3 e)
   30    0.00000000E+00   # Br(tau -> 3 e)
   31    0.00000000E+00   # Br(tau -> 3 mu)
   39    7.20371136E-05   # Delta(rho_parameter)
   40    0.00000000E+00   # BR(Z -> e mu)
   41    0.00000000E+00   # BR(Z -> e tau)
   42    0.00000000E+00   # BR(Z -> mu tau)
Block FWCOEF Q=  1.60000000E+02  # Wilson coefficients at scale Q
#    id        order  M        value         comment
     0305 4422   00   0    -1.88819110E-01   # C7
     0305 4422   00   2    -2.41776897E-01   # C7
     0305 4322   00   2    -6.47626024E-04   # C7'
     0305 6421   00   0    -9.52278348E-02   # C8
     0305 6421   00   2    -1.38054278E-01   # C8
     0305 6321   00   2    -6.17394143E-04   # C8'
 03051111 4133   00   0     1.62042166E+00   # C9 e+e-
 03051111 4133   00   2     1.62082203E+00   # C9 e+e-
 03051111 4233   00   2     5.10953899E-04   # C9' e+e-
 03051111 4137   00   0    -4.44311376E+00   # C10 e+e-
 03051111 4137   00   2    -4.44264970E+00   # C10 e+e-
 03051111 4237   00   2    -3.81545408E-03   # C10' e+e-
 03051313 4133   00   0     1.62042166E+00   # C9 mu+mu-
 03051313 4133   00   2     1.62082170E+00   # C9 mu+mu-
 03051313 4233   00   2     5.10938494E-04   # C9' mu+mu-
 03051313 4137   00   0    -4.44311376E+00   # C10 mu+mu-
 03051313 4137   00   2    -4.44265003E+00   # C10 mu+mu-
 03051313 4237   00   2    -3.81543987E-03   # C10' mu+mu-
 03051212 4137   00   0     1.50535012E+00   # C11 nu_1 nu_1
 03051212 4137   00   2     1.50525167E+00   # C11 nu_1 nu_1
 03051212 4237   00   2     8.26207778E-04   # C11' nu_1 nu_1
 03051414 4137   00   0     1.50535012E+00   # C11 nu_2 nu_2
 03051414 4137   00   2     1.50525167E+00   # C11 nu_2 nu_2
 03051414 4237   00   2     8.26211049E-04   # C11' nu_2 nu_2
 03051616 4137   00   0     1.50535012E+00   # C11 nu_3 nu_3
 03051616 4137   00   2     1.50525168E+00   # C11 nu_3 nu_3
 03051616 4237   00   2     8.27132953E-04   # C11' nu_3 nu_3
Block IMFWCOEF Q=  1.60000000E+02  # Im(Wilson coefficients) at scale Q
#    id        order  M        value         comment
     0305 4422   00   0     3.85789683E-07   # C7
     0305 4422   00   2    -1.53228333E-05   # C7
     0305 4322   00   2    -3.51957225E-06   # C7'
     0305 6421   00   0     3.30454377E-07   # C8
     0305 6421   00   2     1.46895647E-05   # C8
     0305 6321   00   2    -1.27605372E-06   # C8'
 03051111 4133   00   2     4.51341976E-07   # C9 e+e-
 03051111 4233   00   2     1.34074187E-05   # C9' e+e-
 03051111 4137   00   2     4.92232015E-06   # C10 e+e-
 03051111 4237   00   2    -1.00138235E-04   # C10' e+e-
 03051313 4133   00   2     4.51333961E-07   # C9 mu+mu-
 03051313 4233   00   2     1.34074134E-05   # C9' mu+mu-
 03051313 4137   00   2     4.92232804E-06   # C10 mu+mu-
 03051313 4237   00   2    -1.00138251E-04   # C10' mu+mu-
 03051212 4137   00   2    -1.02945504E-06   # C11 nu_1 nu_1
 03051212 4237   00   2     2.16841857E-05   # C11' nu_1 nu_1
 03051414 4137   00   2    -1.02945463E-06   # C11 nu_2 nu_2
 03051414 4237   00   2     2.16841857E-05   # C11' nu_2 nu_2
 03051616 4137   00   2    -1.02934244E-06   # C11 nu_3 nu_3
 03051616 4237   00   2     2.16841856E-05   # C11' nu_3 nu_3
