BLOCK SPINFO
   1   SPheno
   2   v4.0.5be

BLOCK SPHENOINFO
   1   2
   2   2

BLOCK MODSEL
   1   0

BLOCK MINPAR
   3    13.519503
   4    1

BLOCK EXTPAR
   0    1073.0103
   1   -513.29525
   2    634.61881
   3    3000
   11   -2193.2602
   12    1204.721
   13    899.4315
   23    1449.9507
   25    13.043608
   26    3469.2198
   31    1455.195
   32    1455.195
   33    1846.2757
   34    728.2681
   35    728.2681
   36    1412.103
   41    5000
   42    5000
   43    1138.3808
   44    5000
   45    5000
   46    1231.4601
   47    5000
   48    5000
   49    866.99434

BLOCK SMINPUTS
   1    127.90897
   2    1.1663787e-05
   3    0.1184
   4    91.1876
   5    4.18
   6    173.2
   7    1.777
   8    0
   11    0.00051099893
   12    0
   13    0.10565837
   14    0
   21    0.005
   22    0.0025
   23    0.095
   24    1.27

BLOCK GAUGE Q=  1073.0103
   1    0.35536298
   2    0.66519887
   3    1.219778

BLOCK YU Q=  1073.0103
   1   1    8.4089763e-06
   2   2    0.0042717599
   3   3    1.0158719

BLOCK YD Q=  1073.0103
   1   1    0.00022040484
   2   2    0.0041876919
   3   3    0.21857253

BLOCK YE Q=  1073.0103
   1   1    3.8462256e-05
   2   2    0.0079527746
   3   3    0.13375259

BLOCK AU Q=  1073.0103
   1   1    0
   2   2    0
   3   3   -2193.2601

BLOCK AD Q=  1073.0103
   1   1    0
   2   2    0
   3   3    1204.721

BLOCK AE Q=  1073.0103
   1   1    0
   2   2    0
   3   3    899.4315

BLOCK MSOFT Q=  1073.0103
   1   -513.29525
   2    634.61881
   3    3000
   21    9858625.3
   22   -2021854.6
   31    1455.195
   32    1455.195
   33    1846.2757
   34    728.2681
   35    728.2681
   36    1412.103
   41    5000
   42    5000
   43    1138.3808
   44    5000
   45    5000
   46    1231.4601
   47    5000
   48    5000
   49    866.99434

BLOCK MASS
   6    173.2
   23    91.1876
   24    80.429995
   15    1.777
   25    120.89236
   35    3468.7853
   36    3469.2198
   37    3469.9482
   1000001    5009.0144
   2000001    4998.2963
   1000002    5008.5684
   2000002    5001.4213
   1000003    5009.0163
   2000003    4998.2973
   1000004    5008.5698
   2000004    5001.4227
   1000005    722.044
   2000005    1046.2419
   1000006    930.37445
   2000006    1237.5136
   1000011    1461.4068
   2000011    723.67848
   1000012    1458.8919
   1000013    1461.409
   2000013    723.6843
   1000014    1458.8932
   1000015    1411.0369
   2000015    1852.5261
   1000016    1850.26
   1000021    3158.4042
   1000022   -515.11344
   1000023    667.89127
   1000025   -1448.1399
   1000035    1450.6192
   1000024    668.05261
   1000037    1451.632

BLOCK ALPHA
      -0.073952927

BLOCK HMIX Q=  1073.0103
   1    1449.9507
   2    13.043608
   3    244.34283
   4    12035486

BLOCK STOPMIX
   1   1    0.8065024
   1   2    0.59123082
   2   1   -0.59123082
   2   2    0.8065024

BLOCK SBOTMIX
   1   1    0.067914936
   1   2    0.99769111
   2   1   -0.99769111
   2   2    0.067914936

BLOCK STAUMIX
   1   1    0.022585818
   1   2    0.99974491
   2   1   -0.99974491
   2   2    0.022585818

BLOCK NMIX
   1   1    0.99937922
   1   2    0.00040995215
   1   3    0.033928158
   1   4    0.009480287
   2   1    0.0016588432
   2   2    0.99678059
   2   3   -0.071198008
   2   4    0.036831316
   3   1    0.03068243
   3   2   -0.024334453
   3   3   -0.70585074
   3   4   -0.70727728
   4   1    0.017233703
   4   2   -0.076394504
   4   3   -0.70395628
   4   4    0.70591248

BLOCK UMIX
   1   1   -0.99490426
   1   2    0.10082412
   2   1    0.10082412
   2   2    0.99490426

BLOCK VMIX
   1   1   -0.99862699
   1   2    0.052384397
   2   1    0.052384397
   2   2    0.99862699

BLOCK HIGGSBOUNDSINPUTHIGGSCOUPLINGSFERMIONS
       0, 170.13572,3,36,15,15

BLOCK HIGGSBOUNDSINPUTHIGGSCOUPLINGSBOSONS
       0,4,36,21,21,23

BLOCK SPHENOLOWENERGY
   1    0.00030906619
   2    1.5921469e-06
   3    3.5253927e-05
   4    2.2991748e-15
   5    9.8218134e-11
   6    2.0560705e-08
   7    7.742604e-14
   8    3.3076379e-09
   9    7.0157099e-07
   10    9.6736456e-05
   11    0.99925055
   12    0.54254329
   13    19.385195
   14    0
   15    0
   16    0.002159337
   17    2.2816787e-15
   18    2.4794695e-11
   19    8.2892751e-11
   20    2.0350112e-15
   21    8.7002051e-11
   22    2.1514677e-08
   23    0
   24    0
   25    0
   26    0
   27    0
   28    0
   29    0
   30    0
   31    0
   39    2.1338997e-05
   40    0
   41    0
   42    0

BLOCK FWCOEF Q=  160
   305   4422   0   0   -0.18881911
   305   4422   0   2   -0.17479386
   305   4322   0   2    7.0498378e-06
   305   6421   0   0   -0.095227835
   305   6421   0   2   -0.090880935
   305   6321   0   2   -8.3673566e-05
   3051111   4133   0   0    1.5798352
   3051111   4133   0   2    1.5808139
   3051111   4233   0   2    1.906029e-05
   3051111   4137   0   0   -4.4025273
   3051111   4137   0   2   -4.4009465
   3051111   4237   0   2   -0.00015031437
   3051313   4133   0   0    1.5798352
   3051313   4133   0   2    1.5808135
   3051313   4233   0   2    1.9060277e-05
   3051313   4137   0   0   -4.4025273
   3051313   4137   0   2   -4.4009469
   3051313   4237   0   2   -0.00015031439
   3051212   4137   0   0    1.5053501
   3051212   4137   0   2    1.5050182
   3051212   4237   0   2    3.284264e-05
   3051414   4137   0   0    1.5053501
   3051414   4137   0   2    1.5050182
   3051414   4237   0   2    3.284264e-05
   3051616   4137   0   0    1.5053501
   3051616   4137   0   2    1.5050179
   3051616   4237   0   2    3.284293e-05

BLOCK IMFWCOEF Q=  160
   305   4422   0   0    3.8586038e-07
   305   4422   0   2    9.0231815e-06
   305   4322   0   2    1.7964422e-06
   305   6421   0   0    3.3051494e-07
   305   6421   0   2   -1.6322128e-06
   305   6321   0   2    7.1981467e-07
   3051111   4133   0   2   -5.521459e-07
   3051111   4233   0   2    4.0050684e-07
   3051111   4137   0   2    6.4552719e-06
   3051111   4237   0   2   -3.1619984e-06
   3051313   4133   0   2   -5.5215124e-07
   3051313   4233   0   2    4.0050665e-07
   3051313   4137   0   2    6.4552728e-06
   3051313   4237   0   2   -3.1619988e-06
   3051212   4137   0   2   -1.1785204e-06
   3051212   4237   0   2    6.9089659e-07
   3051414   4137   0   2   -1.1785203e-06
   3051414   4237   0   2    6.9089659e-07
   3051616   4137   0   2   -1.1839314e-06
   3051616   4237   0   2    6.9089932e-07

DECAY 23  2.4952


DECAY 24  2.085


DECAY 2000011  0.88390992
    0.99999975   2    1000022    11

DECAY 1000011  13.38373
    0.595358   2   -1000024    12
    0.29941079   2    1000023    11
    0.105229   2    1000022    11

DECAY 2000013  0.88394619
    0.99999941   2    1000022    13

DECAY 1000013  13.384447
    0.59532796   2   -1000024    14
    0.29939605   2    1000023    13
    0.10522374   2    1000022    13

DECAY 1000015  5.3395108
    0.99615957   2    1000022    15
    0.0025577563   2   -1000024    16
    0.0012826719   2    1000023    15

DECAY 2000015  20.602249
    0.592131   2   -1000024    16
    0.29786891   2    1000023    15
    0.096285911   2    1000022    15
    0.0037060016   2    1000015    23
    0.0035685402   2    1000015    25
    0.0026927834   2    1000035    15
    0.0024388788   2    1000025    15
    0.0013079781   2   -1000037    16

DECAY 1000012  13.378571
    0.59792882   2    1000024    11
    0.29740671   2    1000023    12
    0.10466359   2    1000022    12

DECAY 1000014  13.378605
    0.59792914   2    1000024    13
    0.2974065   2    1000023    14
    0.10466347   2    1000022    14

DECAY 1000016  20.637636
    0.59545916   2    1000024    15
    0.29603361   2    1000023    16
    0.095573395   2    1000022    16
    0.0074078398   2    1000015    24
    0.0049984082   2    1000037    15
    0.00042934128   2    1000035    16

DECAY 2000001  145.09771
    0.98117767   2    1000021    1
    0.018802237   2    1000022    1

DECAY 1000001  207.90221
    0.69015087   2    1000021    1
    0.20253485   2   -1000024    2
    0.10159129   2    1000023    1
    0.0032727886   2    1000022    1
    0.0018090859   2   -1000037    2
    0.00056202142   2    1000035    1

DECAY 2000003  145.10073
    0.98115793   2    1000021    3
    0.018801862   2    1000022    3

DECAY 1000003  207.90543
    0.69014116   2    1000021    3
    0.20253178   2   -1000024    4
    0.1015898   2    1000023    3
    0.0032727485   2    1000022    3
    0.0018164182   2   -1000037    4
    0.00056550188   2    1000035    3

DECAY 1000005  0.098182841
    0.99319927   2    1000022    5
    0.0068007327   2    1000023    5

DECAY 2000005  6.5387959
    0.38664203   2   -1000024    6
    0.26292355   2    1000006   -24
    0.24335372   2    1000023    5
    0.059926712   2    1000005    25
    0.034588216   2    1000005    23
    0.01256576   2    1000022    5

DECAY 2000002  153.62372
    0.92884303   2    1000021    2
    0.071081219   2    1000022    2

DECAY 1000002  207.89482
    0.68995172   2    1000021    2
    0.20404114   2    1000024    1
    0.10170569   2    1000023    2
    0.0033028952   2    1000022    2
    0.00048833071   2    1000037    1
    0.00047850409   2    1000035    2

DECAY 2000004  153.62686
    0.92882464   2    1000021    4
    0.071079781   2    1000022    4

DECAY 1000004  207.89791
    0.68994186   2    1000021    4
    0.20403825   2    1000024    3
    0.1017042   2    1000023    4
    0.0033028471   2    1000022    4
    0.0004952883   2    1000037    3
    0.00048216967   2    1000035    4

DECAY 1000006  2.3069806
    0.60565905   2    1000024    5
    0.19195808   2    1000023    6
    0.16629996   2    1000022    6
    0.035060761   2    1000005    24
    0.00092278056   2    1000023    4

DECAY 2000006  23.70423
    0.44140507   2    1000006    23
    0.32743965   2    2000005    24
    0.06479528   2    1000006    25
    0.063877376   2    1000024    5
    0.04984219   2    1000022    6
    0.028448845   2    1000023    6
    0.024191595   2    1000005    24

DECAY 1000024  7.4915747e-05
    0.99683411   2    1000022    24
    0.0013522811   3    1000022   -13    14
    0.0013519339   3    1000022   -11    12
    0.00045700542   3    1000022   -15    16

DECAY 1000037  28.736689
    0.30754323   2   -2000005    6
    0.1881695   2    1000006   -5
    0.11338185   2    1000024    25
    0.11325812   2    1000023    24
    0.11184939   2    1000024    23
    0.08052178   2    2000006   -5
    0.04967591   2   -1000005    6
    0.029934631   2    1000022    24
    0.0024477747   3    1000023   -5    6
    0.0023060779   3    1000024    6   -6
    0.00086181623   3    1000022   -5    6

DECAY 1000022 -1


DECAY 1000023  0.00034013848
    0.7925097   2    1000022    25
    0.20631693   2    1000022    23
    0.00043782359   3    1000022    5   -5
    0.00034608696   3    1000022    12   -12
    0.0001483128   3    1000022    13   -13
    0.00014823643   3    1000022    11   -11

DECAY 1000025  35.768684
    0.29307831   2    1000006   -6
    0.29307831   2   -1000006    6
    0.092086966   2    1000024   -24
    0.092086966   2   -1000024    24
    0.083499221   2    1000023    23
    0.062635437   2    1000023    25
    0.017097048   2    1000022    25
    0.015990039   2    1000005   -5
    0.015990039   2   -1000005    5
    0.0067106268   2    2000005   -5
    0.0067106268   2   -2000005    5
    0.005785856   2    1000022    23
    0.0052766979   2    2000006   -6
    0.0052766979   2   -2000006    6
    0.0017769985   3    1000024    5   -6
    0.0017769985   3   -1000024   -5    6
    0.00060642324   3    1000023    6   -6
    0.00026060316   3    1000022    6   -6

DECAY 1000035  32.697966
    0.29514593   2    1000006   -6
    0.29514593   2   -1000006    6
    0.097723943   2    1000024   -24
    0.097723943   2   -1000024    24
    0.090580585   2    1000023    25
    0.025202247   2    1000022    25
    0.020032468   2    1000022    23
    0.017131111   2    1000005   -5
    0.017131111   2   -1000005    5
    0.0091984079   2    1000023    23
    0.0078415335   2    2000005   -5
    0.0078415335   2   -2000005    5
    0.0068669007   2    2000006   -6
    0.0068669007   2   -2000006    6
    0.0021594889   3    1000024    5   -6
    0.0021594889   3   -1000024   -5    6
    0.00079516604   3    1000023    6   -6
    0.00033475208   3    1000022    6   -6

DECAY 1000021  302.9541
    0.13853644   2    1000005   -5
    0.13853644   2   -1000005    5
    0.12400647   2    2000006   -6
    0.12400647   2   -2000006    6
    0.12234042   2    2000005   -5
    0.12234042   2   -2000005    5
    0.1139174   2    1000006   -6
    0.1139174   2   -1000006    6
    0.00041580932   3    1000035    6   -6
    0.00041090106   3    1000037    5   -6
    0.00041090106   3   -1000037   -5    6
    0.00040064701   3    1000025    6   -6
    0.00028646694   2    1000006   -4
    0.00028646694   2   -1000006    4

DECAY 25  0.0034076776
    0.63414819   2   -5    5
    0.16569752   2   -24    24
    0.073842836   2    21    21
    0.072503308   2   -15    15
    0.031360706   2   -4    4
    0.018464726   2    23    23
    0.0023341471   2    22    22
    0.0011581797   2    22    23
    0.00025149088   2   -13    13
    0.00023806929   2   -3    3
    6.5823759e-07   2   -1    1
    1.6162259e-07   2   -2    2
    5.6538514e-09   2   -11    11

DECAY 35  56.631411
    0.1804815   2   -1000006    1000006
    0.15673369   2   -1000024    1000037
    0.15673369   2   -1000037    1000024
    0.13963626   2   -2000006    2000006
    0.10355608   2    1000023    1000025
    0.087566598   2   -5    5
    0.051138285   2    1000023    1000035
    0.022909958   2   -15    15
    0.021934851   2    1000022    1000025
    0.021871724   2    1000022    1000035
    0.014272587   2   -2000006    1000006
    0.014272587   2   -1000006    2000006
    0.011378575   2   -6    6
    0.0041138971   2   -2000005    1000005
    0.0041138971   2   -1000005    2000005
    0.0036654635   2   -1000024    1000024
    0.0018259491   2    1000023    1000023
    0.0011388777   2    1000022    1000023
    0.0010955776   2    1000025    1000035
    0.00031925336   2   -2000015    1000015
    0.00031925336   2   -1000015    2000015
    0.00023486821   2    1000035    1000035
    0.00014042354   2    1000022    1000022
    0.00013700817   2   -1000037    1000037
    0.00010661662   2   -2000005    2000005
    8.5715136e-05   2   -1000005    1000005
    7.9969955e-05   2   -13    13
    7.9594911e-05   2    1000025    1000025
    4.2940841e-05   2   -3    3
    4.3102434e-06   2    21    21
    2.2780419e-06   2    25    25
    1.8980883e-06   2    23    23
    4.7588553e-07   2   -24    24
    4.3570143e-07   2   -1000011    1000011
    4.3458171e-07   2   -1000013    1000013
    4.2545319e-07   2   -1000015    1000015
    4.034464e-07   2   -2000013    2000013
    4.0333017e-07   2   -2000011    2000011
    1.9346744e-07   2   -4    4
    1.3287036e-07   2    22    23
    1.1871537e-07   2   -1    1
    9.927453e-08   2    22    22
    2.87561e-08   2   -2000013    1000013
    2.87561e-08   2   -1000013    2000013
    1.7959999e-09   2   -11    11
    9.97366e-13   2   -2    2
    6.7261269e-13   2   -2000011    1000011
    6.7261269e-13   2   -1000011    2000011

DECAY 36  56.354309
    0.17585042   2   -2000006    1000006
    0.17585042   2   -1000006    2000006
    0.15652372   2   -1000024    1000037
    0.15652372   2   -1000037    1000024
    0.10247015   2    1000023    1000035
    0.084579337   2   -5    5
    0.052273365   2    1000023    1000025
    0.022336307   2    1000022    1000025
    0.022129453   2   -15    15
    0.021736244   2    1000022    1000035
    0.0095026328   2   -6    6
    0.0049132498   2   -1000024    1000024
    0.0042299666   2   -2000005    1000005
    0.0042299666   2   -1000005    2000005
    0.0024487145   2    1000023    1000023
    0.001073423   2    1000035    1000035
    0.0010611726   2    1000022    1000023
    0.00085511626   2   -1000037    1000037
    0.0003217718   2   -2000015    1000015
    0.0003217718   2   -1000015    2000015
    0.00029679255   2    1000025    1000035
    0.00019881901   2    1000025    1000025
    0.00014204918   2    1000022    1000022
    7.7245934e-05   2   -13    13
    4.1478111e-05   2   -3    3
    8.588672e-06   2    21    21
    3.4908492e-06   2    23    25
    1.7928916e-07   2    22    23
    1.6031667e-07   2   -4    4
    1.1815979e-07   2    22    22
    1.1467147e-07   2   -1    1
    2.8868079e-08   2   -2000013    1000013
    2.8868079e-08   2   -1000013    2000013
    1.7348209e-09   2   -11    11
    8.2647222e-13   2   -2    2
    6.7522731e-13   2   -2000011    1000011
    6.7522731e-13   2   -1000011    2000011
    1.1272319e-35   2    25    25

DECAY 37  50.081155
    0.17988212   2    1000023    1000037
    0.17805695   2    1000024    1000035
    0.17737503   2    1000024    1000025
    0.15943128   2   -2000005    2000006
    0.13020983   2   -5    6
    0.083312295   2   -2000005    1000006
    0.049187704   2    1000022    1000037
    0.02532593   2   -15    16
    0.012383633   2   -1000005    1000006
    0.0024827146   2    1000022    1000024
    0.00085009058   2    1000025    1000037
    0.00072675209   2   -1000015    1000016
    0.00032713091   2   -1000005    2000006
    0.00017125816   2   -5    4
    0.00010923586   2    1000035    1000037
    8.9536189e-05   2   -13    14
    4.5435073e-05   2   -3    4
    2.1032696e-05   2   -3    6
    3.9324198e-06   2    24    25
    2.1227852e-06   2   -3    2
    1.7947786e-06   2   -2000013    1000014
    1.7945983e-06   2   -2000011    1000012
    1.2229578e-06   2   -5    2
    9.6157322e-07   2   -1    6
    1.2552259e-07   2   -1    2
    6.3967673e-08   2   -1000013    1000014
    1.4645946e-08   2   -1    4
    7.0800425e-09   2    1000023    1000024
    2.0942608e-09   2   -11    12
    1.4962085e-12   2   -1000011    1000012
    5.7805273e-14   2    24    35

DECAY 6  2.43
    1   2    5    24

DECAY 15 -1
