BLOCK SPINFO
   1   SPheno
   2   v4.0.5be

BLOCK SPHENOINFO
   1   2
   2   2

BLOCK MODSEL
   1   0

BLOCK MINPAR
   3    20.753994
   4   -1

BLOCK EXTPAR
   0    1712.374
   1   -688.64748
   2    1264.2609
   3    3000
   11   -3090.0949
   12    733.46303
   13   -1848.4583
   23   -85.418113
   25    20.017761
   26    3297.7616
   31    165.06743
   32    165.06743
   33    1568.0573
   34    1599.2987
   35    1599.2987
   36    1158.8863
   41    5000
   42    5000
   43    1805.4577
   44    5000
   45    5000
   46    1633.5513
   47    5000
   48    5000
   49    943.81402

BLOCK SMINPUTS
   1    127.90897
   2    1.1663787e-05
   3    0.1184
   4    91.1876
   5    4.18
   6    173.2
   7    1.777
   8    0
   11    0.00051099893
   12    0
   13    0.10565837
   14    0
   21    0.005
   22    0.0025
   23    0.095
   24    1.27

BLOCK GAUGE Q=  1712.374
   1    0.35536298
   2    0.66519887
   3    1.219778

BLOCK YU Q=  1712.374
   1   1    8.3948275e-06
   2   2    0.0042645724
   3   3    1.0141626

BLOCK YD Q=  1712.374
   1   1    0.00033768169
   2   2    0.0064159522
   3   3    0.33487443

BLOCK YE Q=  1712.374
   1   1    5.8927925e-05
   2   2    0.012184426
   3   3    0.204922

BLOCK AU Q=  1712.374
   1   1    0
   2   2    0
   3   3   -3090.0948

BLOCK AD Q=  1712.374
   1   1    0
   2   2    0
   3   3    733.46303

BLOCK AE Q=  1712.374
   1   1    0
   2   2    0
   3   3   -1848.4583

BLOCK MSOFT Q=  1712.374
   1   -688.64748
   2    1264.2609
   3    3000
   21    10830582
   22    62649.186
   31    165.06743
   32    165.06743
   33    1568.0573
   34    1599.2987
   35    1599.2987
   36    1158.8863
   41    5000
   42    5000
   43    1805.4577
   44    5000
   45    5000
   46    1633.5513
   47    5000
   48    5000
   49    943.81402

BLOCK MASS
   6    173.2
   23    91.1876
   24    80.429995
   15    1.777
   25    122.87399
   35    3297.1564
   36    3297.7616
   37    3298.4883
   1000001    5035.8224
   2000001    5026.1032
   1000002    5035.3735
   2000002    5028.2701
   1000003    5035.8233
   2000003    5026.1046
   1000004    5035.3745
   2000004    5028.2707
   1000005    967.78014
   2000005    1823.8089
   1000006    1555.4582
   2000006    1885.1196
   1000011    234.28046
   2000011    1599.8918
   1000012    219.87188
   1000013    234.28134
   2000013    1599.8904
   1000014    219.87891
   1000015    1159.2153
   2000015    1579.3971
   1000016    1577.0203
   1000021    3203.7459
   1000022    91.699748
   1000023   -94.009174
   1000025   -688.76368
   1000035    1313.655
   1000024    93.800748
   1000037    1313.776

BLOCK ALPHA
      -0.048246314

BLOCK HMIX Q=  1712.374
   1   -85.418113
   2    20.017761
   3    243.86495
   4    10875231

BLOCK STOPMIX
   1   1    0.43597746
   1   2    0.89995759
   2   1   -0.89995759
   2   2    0.43597746

BLOCK SBOTMIX
   1   1   -0.0022767968
   1   2    0.99999741
   2   1   -0.99999741
   2   2   -0.0022767968

BLOCK STAUMIX
   1   1    0.00013566308
   1   2    0.99999999
   2   1   -0.99999999
   2   2    0.00013566308

BLOCK NMIX
   1   1   -0.037833028
   1   2   -0.043887412
   1   3   -0.71177694
   1   4   -0.70001153
   2   1    0.055520623
   2   2    0.042838699
   2   3   -0.70230063
   2   4    0.70841805
   3   1   -0.99773961
   3   2    0.0027080429
   3   3   -0.012089315
   3   4    0.066046851
   4   1    0.0013394295
   4   2   -0.99811392
   4   3    0.0011217804
   4   4    0.061363997

BLOCK UMIX
   1   1   -0.0016165096
   1   2   -0.99999869
   2   1    0.99999869
   2   2   -0.0016165096

BLOCK VMIX
   1   1   -0.08692885
   1   2    0.99621452
   2   1    0.99621452
   2   2    0.08692885

BLOCK HIGGSBOUNDSINPUTHIGGSCOUPLINGSFERMIONS
       0, 400.71075,3,36,15,15

BLOCK HIGGSBOUNDSINPUTHIGGSCOUPLINGSBOSONS
       0,4,36,21,21,23

BLOCK SPHENOLOWENERGY
   1    0.00034961467
   2    1.5884924e-06
   3    3.5261554e-05
   4    2.1697235e-15
   5    9.2688305e-11
   6    1.9410712e-08
   7    7.3188408e-14
   8    3.1266124e-09
   9    6.6343075e-07
   10    9.6574703e-05
   11    0.99757971
   12    0.54288674
   13    19.396621
   14    0
   15    0
   16    0.002161205
   17    2.281698e-15
   18    2.4796753e-11
   19    8.2900504e-11
   20   -1.6529051e-15
   21   -7.0617026e-11
   22   -3.4364107e-08
   23    0
   24    0
   25    0
   26    0
   27    0
   28    0
   29    0
   30    0
   31    0
   39    9.085376e-05
   40    0
   41    0
   42    0

BLOCK FWCOEF Q=  160
   305   4422   0   0   -0.18881911
   305   4422   0   2   -0.22282225
   305   4322   0   2   -0.00031314524
   305   6421   0   0   -0.095227835
   305   6421   0   2   -0.11518042
   305   6321   0   2   -0.00021276509
   3051111   4133   0   0    1.5965543
   3051111   4133   0   2    1.5980573
   3051111   4233   0   2    6.8076475e-05
   3051111   4137   0   0   -4.4192464
   3051111   4137   0   2   -4.4184373
   3051111   4237   0   2   -0.00052490042
   3051313   4133   0   0    1.5965543
   3051313   4133   0   2    1.5980554
   3051313   4233   0   2    6.8076402e-05
   3051313   4137   0   0   -4.4192464
   3051313   4137   0   2   -4.4184392
   3051313   4237   0   2   -0.00052490066
   3051212   4137   0   0    1.5053501
   3051212   4137   0   2    1.5051839
   3051212   4237   0   2    0.00011427449
   3051414   4137   0   0    1.5053501
   3051414   4137   0   2    1.5051839
   3051414   4237   0   2    0.0001142745
   3051616   4137   0   0    1.5053501
   3051616   4137   0   2    1.5051847
   3051616   4237   0   2    0.0001142748

BLOCK IMFWCOEF Q=  160
   305   4422   0   0    3.8581645e-07
   305   4422   0   2   -1.2944231e-05
   305   4322   0   2   -3.7187793e-06
   305   6421   0   0    3.304773e-07
   305   6421   0   2    3.4098718e-06
   305   6321   0   2   -1.3167172e-06
   3051111   4133   0   2   -1.7498116e-08
   3051111   4233   0   2    1.3756866e-06
   3051111   4137   0   2    2.9040009e-08
   3051111   4237   0   2   -1.0611961e-05
   3051313   4133   0   2   -1.7517277e-08
   3051313   4233   0   2    1.3756856e-06
   3051313   4137   0   2    2.8999372e-08
   3051313   4237   0   2   -1.0611966e-05
   3051212   4137   0   2    1.465294e-07
   3051212   4237   0   2    2.3103048e-06
   3051414   4137   0   2    1.4652649e-07
   3051414   4237   0   2    2.3103048e-06
   3051616   4137   0   2    1.5923677e-07
   3051616   4237   0   2    2.3102938e-06

DECAY 23  2.4952


DECAY 24  2.085


DECAY 1000011  0.006858085
    0.5562989   2    1000023    11
    0.44299008   2    1000022    11
    0.00055560083   2   -1000024    12

DECAY 2000011  5.3471705
    0.99325962   2    1000025    11
    0.0046023168   2    1000023    11
    0.0021377516   2    1000022    11

DECAY 1000013  0.0073496254
    0.55167024   2    1000023    13
    0.4476666   2    1000022    13
    0.00051844585   2   -1000024    14

DECAY 2000013  5.3565545
    0.99151802   2    1000025    13
    0.0050263648   2    1000023    13
    0.0025779711   2    1000022    13
    0.00087614224   2   -1000024    14

DECAY 1000015  4.3647237
    0.55604237   2    1000025    15
    0.21900208   2   -1000024    16
    0.11288329   2    1000022    15
    0.11207226   2    1000023    15

DECAY 2000015  4.6335704
    0.28478448   2   -1000037    16
    0.27673288   2    1000025    15
    0.14943029   2    1000022    15
    0.14727797   2    1000023    15
    0.14176532   2    1000035    15

DECAY 1000012  0.010300556
    0.95316492   2    1000024    11
    0.035938623   2    1000022    12
    0.01089646   2    1000023    12

DECAY 1000014  0.010739168
    0.9550751   2    1000024    13
    0.034472841   2    1000022    14
    0.010452058   2    1000023    14

DECAY 1000016  4.6610344
    0.30304538   2    1000024    15
    0.27989845   2    1000025    16
    0.27674733   2    1000037    15
    0.13922191   2    1000035    16
    0.00082916576   2    1000022    16
    0.00025679926   2    1000023    16

DECAY 2000001  142.53749
    0.98104274   2    1000021    1
    0.018868274   2    1000025    1

DECAY 1000001  199.2848
    0.70675869   2    1000021    1
    0.19319804   2   -1000037    2
    0.096283818   2    1000035    1
    0.0034847312   2    1000025    1
    0.00015343319   2    1000022    1
    0.00012071476   2    1000023    1

DECAY 2000003  142.54584
    0.98098629   2    1000021    3
    0.018867179   2    1000025    3

DECAY 1000003  199.29084
    0.70673776   2    1000021    3
    0.19319228   2   -1000037    4
    0.096280921   2    1000035    3
    0.003484629   2    1000025    3
    0.00016387664   2    1000022    3
    0.00013088225   2    1000023    3

DECAY 1000005  4.2344228
    0.46802603   2   -1000024    6
    0.25391865   2    1000022    5
    0.24713177   2    1000023    5
    0.030923559   2    1000025    5

DECAY 2000005  59.837592
    0.60456599   2   -1000024    6
    0.23049928   2    1000006   -24
    0.062625928   2   -1000037    6
    0.034453578   2    1000022    5
    0.033508064   2    1000023    5
    0.030959386   2    1000035    5
    0.0032173596   2    1000025    5
    0.00010534854   2    1000005    25

DECAY 2000002  150.87411
    0.92832828   2    1000021    2
    0.071335888   2    1000025    2
    0.00022926137   2    1000023    2
    0.00010645822   2    1000022    2

DECAY 1000002  199.2795
    0.70654313   2    1000021    2
    0.19172163   2    1000037    1
    0.096183305   2    1000035    2
    0.0032783796   2    1000025    2
    0.0016797537   2    1000024    1
    0.00030896557   2    1000023    2
    0.00028484276   2    1000022    2

DECAY 2000004  150.87774
    0.92830593   2    1000021    4
    0.07133421   2    1000025    4
    0.00023530375   2    1000023    4
    0.00011236082   2    1000022    4

DECAY 1000004  199.28549
    0.70652212   2    1000021    4
    0.19171591   2    1000037    3
    0.09618047   2    1000035    4
    0.0032783214   2    1000025    4
    0.0017003249   2    1000024    3
    0.00031354022   2    1000023    4
    0.00028931018   2    1000022    4

DECAY 1000006  60.280726
    0.45593203   2    1000024    5
    0.25578397   2    1000023    6
    0.25117489   2    1000022    6
    0.034307151   2    1000025    6
    0.0018517157   2    1000037    5
    0.00079404954   2    1000035    6
    0.00013708744   3    1000022    24    5

DECAY 2000006  68.894042
    0.275177   2    1000023    6
    0.26718331   2    1000022    6
    0.14679041   2    1000006    23
    0.13090106   2    1000024    5
    0.085795878   2    1000006    25
    0.05802394   2    1000037    5
    0.029392255   2    1000035    6
    0.0066266006   2    1000025    6
    0.00010953828   2    1000005    24

DECAY 1000024  1.3334691e-11
    0.58494428   3    1000022   -1    2
    0.19505208   3    1000022   -11    12
    0.19160641   3    1000022   -13    14
    0.028397229   3    1000022   -3    4

DECAY 1000037  33.279518
    0.16292124   2    1000012   -11
    0.16292065   2    1000014   -13
    0.16288321   2   -1000011    12
    0.16288313   2   -1000013    14
    0.086985009   2    1000023    24
    0.085625698   2    1000024    23
    0.084779014   2    1000022    24
    0.08354442   2    1000024    25
    0.0026121561   3    1000024    6   -6
    0.0023859092   3    1000023   -5    6
    0.0022401565   3    1000022   -5    6
    0.00016664564   2    1000025    24

DECAY 1000022 -1


DECAY 1000023  9.3773179e-10
    0.83888699   2    1000022    22
    0.047374177   3    1000022    12   -12
    0.035421463   3    1000022    1   -1
    0.03473258   3    1000022    3   -3
    0.027626518   3    1000022    2   -2
    0.0079824685   3    1000022    11   -11
    0.0077399261   3    1000022    13   -13

DECAY 1000025  4.6962475
    0.10151309   2    1000024   -24
    0.10151309   2   -1000024    24
    0.07471603   2    1000012   -12
    0.07471603   2   -1000012    12
    0.074714945   2    1000014   -14
    0.074714945   2   -1000014    14
    0.070981253   2    1000011   -11
    0.070981253   2   -1000011    11
    0.070981109   2    1000013   -13
    0.070981109   2   -1000013    13
    0.068357886   2    1000022    23
    0.061109   2    1000023    25
    0.049105159   2    1000022    25
    0.033261685   2    1000023    23
    0.00099172216   3    1000024    5   -6
    0.00099172216   3   -1000024   -5    6
    0.00017696753   3    1000023    6   -6
    0.0001768083   3    1000022    6   -6

DECAY 1000035  33.705731
    0.085456807   2    1000024   -24
    0.085456807   2   -1000024    24
    0.080845036   2    1000012   -12
    0.080845036   2   -1000012    12
    0.080844738   2    1000014   -14
    0.080844738   2   -1000014    14
    0.079985781   2    1000011   -11
    0.079985781   2   -1000011    11
    0.079985742   2    1000013   -13
    0.079985742   2   -1000013    13
    0.052744151   2    1000023    25
    0.044224848   2    1000023    23
    0.042188109   2    1000022    25
    0.040151583   2    1000022    23
    0.0019735349   3    1000024    5   -6
    0.0019735349   3   -1000024   -5    6
    0.0010880984   3    1000023    6   -6
    0.0010624164   3    1000022    6   -6
    0.00015970517   2    1000025    25
    0.00014831573   2    1000025    23

DECAY 1000021  217.2738
    0.18022121   2    1000005   -5
    0.18022121   2   -1000005    5
    0.11310305   2    1000006   -6
    0.11310305   2   -1000006    6
    0.10481996   2    2000006   -6
    0.10481996   2   -2000006    6
    0.099701949   2    2000005   -5
    0.099701949   2   -2000005    5
    0.0020625121   2    1000006   -4
    0.0020625121   2   -1000006    4

DECAY 25  0.0036123664
    0.60471284   2   -5    5
    0.1952718   2   -24    24
    0.073995367   2    21    21
    0.069389346   2   -15    15
    0.029907875   2   -4    4
    0.022649235   2    23    23
    0.0022937867   2    22    22
    0.0013108197   2    22    23
    0.00024092201   2   -13    13
    0.0002272245   2   -3    3
    6.2825294e-07   2   -1    1
    1.5412877e-07   2   -2    2
    5.4162227e-09   2   -11    11

DECAY 35  52.054393
    0.29236914   2   -5    5
    0.1857871   2   -1000024    1000037
    0.1857871   2   -1000037    1000024
    0.10153253   2    1000022    1000035
    0.085267024   2    1000023    1000035
    0.054122241   2   -15    15
    0.038271703   2    1000022    1000025
    0.030020608   2    1000023    1000025
    0.0057266867   2   -6    6
    0.0047978975   2   -2000015    1000015
    0.0047978975   2   -1000015    2000015
    0.004140585   2   -1000024    1000024
    0.0026466847   2   -2000005    1000005
    0.0026466847   2   -1000005    2000005
    0.0014981903   2   -1000006    1000006
    0.0001853879   2    1000022    1000022
    0.00017886562   2   -13    13
    0.0001122234   2   -3    3
    5.6988479e-05   2    1000023    1000023
    2.0166773e-05   2    1000025    1000035
    7.0560804e-06   2    1000022    1000023
    6.7907835e-06   2    1000025    1000025
    6.6937813e-06   2    25    25
    4.9222839e-06   2   -1000037    1000037
    2.4403928e-06   2    1000035    1000035
    1.2843293e-06   2    23    23
    6.473036e-07   2    21    21
    3.6095003e-07   2   -1000011    1000011
    3.6019403e-07   2   -1000013    1000013
    3.4320226e-07   2   -24    24
    3.1026376e-07   2   -1    1
    7.6895402e-08   2   -1000015    1000015
    7.3210608e-08   2   -4    4
    5.6657006e-08   2   -2000011    2000011
    5.6510347e-08   2   -2000013    2000013
    4.9675556e-08   2   -2000015    2000015
    2.4039348e-08   2   -1000005    1000005
    1.1485751e-08   2    22    23
    4.0170963e-09   2   -11    11
    3.9744791e-09   2    22    22
    1.1487397e-10   2   -2000013    1000013
    1.1487397e-10   2   -1000013    2000013
    3.7738414e-13   2   -2    2
    2.6869141e-15   2   -2000011    1000011
    2.6869141e-15   2   -1000011    2000011

DECAY 36  51.228531
    0.2847974   2   -5    5
    0.18885081   2   -1000024    1000037
    0.18885081   2   -1000037    1000024
    0.10042986   2    1000023    1000035
    0.0894421   2    1000022    1000035
    0.05272116   2   -15    15
    0.037960601   2    1000023    1000025
    0.031435961   2    1000022    1000025
    0.005580061   2   -6    6
    0.0048763079   2   -2000015    1000015
    0.0048763079   2   -1000015    2000015
    0.0042038451   2   -1000024    1000024
    0.0026909661   2   -2000005    1000005
    0.0026909661   2   -1000005    2000005
    0.00017423313   2   -13    13
    0.00015627119   2    1000022    1000022
    0.00010931576   2   -3    3
    7.0584355e-05   2    1000023    1000023
    2.6773633e-05   2    1000025    1000025
    2.2532388e-05   2    1000025    1000035
    1.6876032e-05   2    1000022    1000023
    1.0226027e-05   2    21    21
    2.2850324e-06   2    23    25
    2.2475389e-06   2   -1000037    1000037
    1.1270906e-06   2    1000035    1000035
    3.0222621e-07   2   -1    1
    7.0549871e-08   2   -4    4
    4.8129044e-09   2    22    23
    3.9130505e-09   2   -11    11
    3.8449509e-09   2    22    22
    1.1606993e-10   2   -2000013    1000013
    1.1606993e-10   2   -1000013    2000013
    3.6367736e-13   2   -2    2
    2.7148877e-15   2   -2000011    1000011
    2.7148877e-15   2   -1000011    2000011
    1.5710743e-38   2    25    25

DECAY 37  51.986599
    0.29723495   2   -5    6
    0.19042834   2    1000022    1000037
    0.18664205   2    1000024    1000035
    0.18486747   2    1000023    1000037
    0.067095318   2    1000024    1000025
    0.05465403   2   -15    16
    0.0096293327   2   -1000015    1000016
    0.0038977401   2   -1000005    2000006
    0.0022947485   2   -1000005    1000006
    0.0014254575   2    1000023    1000024
    0.0010368663   2    1000022    1000024
    0.00043230286   2   -5    4
    0.00019322148   2   -13    14
    0.00010324594   2   -3    4
    4.2541154e-05   2    1000025    1000037
    8.3406045e-06   2   -3    6
    4.8375741e-06   2   -3    2
    3.0870876e-06   2   -5    2
    2.254365e-06   2    24    25
    1.4185511e-06   2   -1000011    1000012
    1.4174902e-06   2   -1000013    1000014
    3.7551666e-07   2   -1    6
    3.4366353e-07   2   -2000015    1000016
    2.8629256e-07   2   -1    2
    1.681277e-08   2   -1    4
    4.5194706e-09   2   -11    12
    2.31364e-10   2   -2000013    1000014
    2.3463875e-11   2    1000035    1000037
    1.0978903e-13   2    24    35
    5.4116484e-15   2   -2000011    1000012

DECAY 6  2.43
    1   2    5    24

DECAY 15 -1
