BLOCK SPINFO
   1   SPheno
   2   v4.0.5be

BLOCK SPHENOINFO
   1   2
   2   2

BLOCK MODSEL
   1   0

BLOCK MINPAR
   3    41.791014
   4    1

BLOCK EXTPAR
   0    1392.312
   1    347.0515
   2   -1746.2467
   3    3000
   11    2735.0364
   12    1291.5443
   13    1196.9124
   23    349.1418
   25    40.70574
   26    2338.0655
   31    701.26402
   32    701.26402
   33    639.18061
   34    856.41636
   35    856.41636
   36    987.53236
   41    5000
   42    5000
   43    1163.6645
   44    5000
   45    5000
   46    1792.2156
   47    5000
   48    5000
   49    1931.0327

BLOCK SMINPUTS
   1    127.90897
   2    1.1663787e-05
   3    0.1184
   4    91.1876
   5    4.18
   6    173.2
   7    1.777
   8    0
   11    0.00051099893
   12    0
   13    0.10565837
   14    0
   21    0.005
   22    0.0025
   23    0.095
   24    1.27

BLOCK GAUGE Q=  1392.312
   1    0.35536298
   2    0.66519887
   3    1.219778

BLOCK YU Q=  1392.312
   1   1    8.3869018e-06
   2   2    0.0042605461
   3   3    1.0132051

BLOCK YD Q=  1392.312
   1   1    0.00068602107
   2   2    0.0130344
   3   3    0.68031794

BLOCK YE Q=  1392.312
   1   1    0.00011971569
   2   2    0.024753409
   3   3    0.41631161

BLOCK AU Q=  1392.312
   1   1    0
   2   2    0
   3   3    2735.0364

BLOCK AD Q=  1392.312
   1   1    0
   2   2    0
   3   3    1291.5442

BLOCK AE Q=  1392.312
   1   1    0
   2   2    0
   3   3    1196.9124

BLOCK MSOFT Q=  1392.312
   1    347.0515
   2   -1746.2467
   3    3000
   21    5365360.2
   22   -81911.406
   31    701.26402
   32    701.26402
   33    639.18061
   34    856.41636
   35    856.41636
   36    987.53236
   41    5000
   42    5000
   43    1163.6645
   44    5000
   45    5000
   46    1792.2156
   47    5000
   48    5000
   49    1931.0327

BLOCK MASS
   6    173.2
   23    91.1876
   24    80.429995
   15    1.777
   25    122.44327
   35    2337.4919
   36    2338.0655
   37    2339.6943
   1000001    5021.3341
   2000001    5014.0948
   1000002    5020.8913
   2000002    5015.6505
   1000003    5021.339
   2000003    5014.102
   1000004    5020.8957
   2000004    5015.6514
   1000005    1131.5867
   2000005    1946.9729
   1000006    1095.5321
   2000006    1769.4896
   1000011    719.17946
   2000011    858.28737
   1000012    714.41539
   1000013    719.16455
   2000013    858.27756
   1000014    714.40683
   1000015    655.16113
   2000015    985.80405
   1000016    650.62952
   1000021    3182.4532
   1000022    319.94734
   1000023   -354.31792
   1000025    384.68167
   1000035   -1780.2659
   1000024    355.11515
   1000037    1780.4631

BLOCK ALPHA
      -0.024024285

BLOCK HMIX Q=  1392.312
   1    349.1418
   2    40.70574
   3    244.07765
   4    5466550.5

BLOCK STOPMIX
   1   1   -0.97553738
   1   2    0.2198336
   2   1   -0.2198336
   2   2   -0.97553738

BLOCK SBOTMIX
   1   1    0.99994756
   1   2    0.010240998
   2   1   -0.010240998
   2   2    0.99994756

BLOCK STAUMIX
   1   1    0.99919269
   1   2    0.040174301
   2   1   -0.040174301
   2   2    0.99919269

BLOCK NMIX
   1   1   -0.75621401
   1   2   -0.017319293
   1   3   -0.48476571
   1   4    0.43913849
   2   1    0.043156471
   2   2    0.038818787
   2   3   -0.707103
   2   4   -0.70472403
   3   1    0.65289889
   3   2   -0.021148063
   3   3   -0.51472389
   3   4    0.55527932
   4   1    0.00096591645
   4   2   -0.99887232
   4   3   -0.0081768886
   4   4   -0.046757911

BLOCK UMIX
   1   1   -0.01155083
   1   2    0.99993329
   2   1   -0.99993329
   2   2   -0.01155083

BLOCK VMIX
   1   1    0.066134638
   1   2    0.99781071
   2   1    0.99781071
   2   2   -0.066134638

BLOCK HIGGSBOUNDSINPUTHIGGSCOUPLINGSFERMIONS
       0, 1656.9572,3,36,15,15

BLOCK HIGGSBOUNDSINPUTHIGGSCOUPLINGSBOSONS
       0,4,36,21,21,23

BLOCK SPHENOLOWENERGY
   1    0.00036335848
   2    1.5874374e-06
   3    3.5243177e-05
   4    2.6687633e-15
   5    1.1400685e-10
   6    2.3885375e-08
   7    8.9159132e-14
   8    3.808885e-09
   9    8.0851082e-07
   10    9.4695e-05
   11    0.9781631
   12    0.54325909
   13    19.402134
   14    0
   15    0
   16    0.0021640063
   17    2.2817283e-15
   18    2.4785068e-11
   19    8.2871919e-11
   20   -5.8025265e-15
   21   -2.4803501e-10
   22   -6.6852578e-08
   23    0
   24    0
   25    0
   26    0
   27    0
   28    0
   29    0
   30    0
   31    0
   39    9.0232816e-05
   40    0
   41    0
   42    0

BLOCK FWCOEF Q=  160
   305   4422   0   0   -0.18881911
   305   4422   0   2   -0.23812955
   305   4322   0   2   -0.00039737229
   305   6421   0   0   -0.095227835
   305   6421   0   2   -0.12385357
   305   6321   0   2   -0.00031391471
   3051111   4133   0   0    1.5896667
   3051111   4133   0   2    1.5916004
   3051111   4233   0   2    0.00022590908
   3051111   4137   0   0   -4.4123588
   3051111   4137   0   2   -4.4098264
   3051111   4237   0   2   -0.001761791
   3051313   4133   0   0    1.5896667
   3051313   4133   0   2    1.5915962
   3051313   4233   0   2    0.00022590647
   3051313   4137   0   0   -4.4123588
   3051313   4137   0   2   -4.4098306
   3051313   4237   0   2   -0.0017617956
   3051212   4137   0   0    1.5053501
   3051212   4137   0   2    1.5048027
   3051212   4237   0   2    0.00038415532
   3051414   4137   0   0    1.5053501
   3051414   4137   0   2    1.5048027
   3051414   4237   0   2    0.0003841555
   3051616   4137   0   0    1.5053501
   3051616   4137   0   2    1.5048026
   3051616   4237   0   2    0.00038420509

BLOCK IMFWCOEF Q=  160
   305   4422   0   0    3.8576095e-07
   305   4422   0   2   -1.6420149e-05
   305   4322   0   2   -3.85412e-06
   305   6421   0   0    3.3042977e-07
   305   6421   0   2   -1.4031458e-05
   305   6321   0   2   -1.4450006e-06
   3051111   4133   0   2    5.157777e-07
   3051111   4233   0   2    5.1104671e-06
   3051111   4137   0   2   -2.8234495e-06
   3051111   4237   0   2   -3.9880378e-05
   3051313   4133   0   2    5.1575142e-07
   3051313   4233   0   2    5.1104361e-06
   3051313   4137   0   2   -2.823481e-06
   3051313   4237   0   2   -3.9880475e-05
   3051212   4137   0   2    6.8266993e-07
   3051212   4237   0   2    8.6958766e-06
   3051414   4137   0   2    6.8266888e-07
   3051414   4237   0   2    8.6958766e-06
   3051616   4137   0   2    6.8133147e-07
   3051616   4237   0   2    8.6958757e-06

DECAY 23  2.4952


DECAY 24  2.085


DECAY 1000011  0.54208747
    0.66681001   2    1000022    11
    0.31947867   2    1000025    11
    0.012820303   2    1000023    11
    0.00089100749   2   -1000024    12

DECAY 2000011  3.0078927
    0.60786958   2    1000022    11
    0.3902926   2    1000025    11
    0.0018377642   2    1000023    11

DECAY 1000013  0.54708452
    0.66312764   2    1000022    13
    0.31869547   2    1000025    13
    0.017294058   2    1000023    13
    0.00088282715   2   -1000024    14

DECAY 2000013  3.022333
    0.60555289   2    1000022    13
    0.38900875   2    1000025    13
    0.0030204208   2    1000023    13
    0.0023775835   2   -1000024    14

DECAY 1000015  1.5777537
    0.39954238   2    1000022    15
    0.36216659   2    1000023    15
    0.23583786   2    1000025    15
    0.0024531763   2   -1000024    16

DECAY 2000015  9.2677143
    0.3080034   2    1000022    15
    0.27685608   2   -1000024    16
    0.23825759   2    1000025    15
    0.139581   2    1000023    15
    0.01860444   2    1000016   -24
    0.0099795288   2    1000015    25
    0.00871796   2    1000015    23

DECAY 1000012  0.53347769
    0.5632167   2    1000022    12
    0.40672064   2    1000025    12
    0.029229883   2    1000024    11
    0.00083277972   2    1000023    12

DECAY 1000014  0.53840254
    0.55805147   2    1000022    14
    0.40298758   2    1000025    14
    0.038135803   2    1000024    13
    0.00082513937   2    1000023    14

DECAY 1000016  1.5312982
    0.73076281   2    1000024    15
    0.16072935   2    1000022    16
    0.10827789   2    1000025    16
    0.00022995503   2    1000023    16

DECAY 2000001  143.90446
    0.98073473   2    1000021    1
    0.011033896   2    1000022    1
    0.0081950025   2    1000025    1

DECAY 1000001  193.27168
    0.73412642   2    1000021    1
    0.17479157   2   -1000037    2
    0.087246016   2    1000035    1
    0.0021340477   2    1000025    1
    0.0015618751   2    1000022    1
    0.00010986461   2    1000023    1

DECAY 2000003  143.93867
    0.98050681   2    1000021    3
    0.011058651   2    1000022    3
    0.0082238165   2    1000025    3
    0.00011654729   2   -1000024    4

DECAY 1000003  193.29082
    0.73405637   2    1000021    3
    0.17477456   2   -1000037    4
    0.087237518   2    1000035    3
    0.0021567689   2    1000025    3
    0.0015821301   2    1000022    3
    0.00015319862   2    1000023    3

DECAY 1000005  26.186879
    0.67129224   2   -1000024    6
    0.1620043   2    1000023    5
    0.084510582   2    1000025    5
    0.082192877   2    1000022    5

DECAY 2000005  34.643752
    0.47582309   2   -1000024    6
    0.2418666   2    1000023    5
    0.14031667   2    1000025    5
    0.13074538   2    1000022    5
    0.0045509035   2    1000006   -24
    0.0045284893   2    1000005    25
    0.0021628859   2    1000005    23

DECAY 2000002  152.38662
    0.92720774   2    1000021    2
    0.041691761   2    1000022    2
    0.030964913   2    1000025    2
    0.00013553421   2    1000023    2

DECAY 1000002  193.26496
    0.73391336   2    1000021    2
    0.17403216   2    1000037    1
    0.087176864   2    1000035    2
    0.0026198431   2    1000022    2
    0.0010224074   2    1000025    2
    0.00099053206   2    1000024    1
    0.00024483398   2    1000023    2

DECAY 2000004  152.39023
    0.92718595   2    1000021    4
    0.041693024   2    1000022    4
    0.03096783   2    1000025    4
    0.0001413729   2    1000023    4

DECAY 1000004  193.28397
    0.73384323   2    1000021    4
    0.17401529   2    1000037    3
    0.087168391   2    1000035    4
    0.0026213866   2    1000022    4
    0.0010771114   2    1000024    3
    0.0010251615   2    1000025    4
    0.00024942536   2    1000023    4

DECAY 1000006  26.933647
    0.3316312   2    1000024    5
    0.3297299   2    1000023    6
    0.21834454   2    1000025    6
    0.1174676   2    1000022    6
    0.001395089   2    1000022    4
    0.0012998664   3    1000022    24    5
    0.00012516078   2    1000023    4

DECAY 2000006  144.30512
    0.25414687   2    1000005    24
    0.21924878   2    1000024    5
    0.14641293   2    1000006    25
    0.13682715   2    1000006    23
    0.10962303   2    1000023    6
    0.070387389   2    1000025    6
    0.06335385   2    1000022    6

DECAY 1000024  3.1588358e-05
    0.33439299   3    1000022   -1    2
    0.33239128   3    1000022   -3    4
    0.11139457   3    1000022   -13    14
    0.11139306   3    1000022   -11    12
    0.11042807   3    1000022   -15    16

DECAY 1000037  65.297197
    0.12584478   2    1000006   -5
    0.11813647   2   -1000005    6
    0.089717078   2    1000016   -15
    0.089506887   2   -1000015    16
    0.084112826   2    1000014   -13
    0.084112027   2    1000012   -11
    0.084038353   2   -1000013    14
    0.084036994   2   -1000011    12
    0.058666472   2    1000023    24
    0.058353955   2    1000024    23
    0.057931688   2    1000024    25
    0.033915976   2    1000025    24
    0.024676369   2    1000022    24
    0.0026033834   3    1000024    6   -6
    0.0021332775   3    1000023   -5    6
    0.0011704247   3    1000025   -5    6
    0.00086411733   3    1000022   -5    6
    0.00012963472   2   -2000015    16

DECAY 1000022 -1


DECAY 1000023  7.1076341e-05
    0.20177467   3    1000022    12   -12
    0.15093073   3    1000022    1   -1
    0.15091826   3    1000022    3   -3
    0.12928847   3    1000022    5   -5
    0.11771345   3    1000022    2   -2
    0.11569846   3    1000022    4   -4
    0.033983248   3    1000022    11   -11
    0.033981037   3    1000022    13   -13
    0.033395092   3    1000022    15   -15
    0.032316587   2    1000022    22

DECAY 1000025  8.779051e-05
    0.117395   3    1000023    12   -12
    0.087761286   3    1000023    1   -1
    0.087751813   3    1000023    3   -3
    0.0715369   3    1000023    5   -5
    0.068445466   3    1000023    2   -2
    0.067433874   3    1000024    1   -2
    0.067433874   3   -1000024   -1    2
    0.066924351   3    1000023    4   -4
    0.066848111   3    1000024    3   -4
    0.066848111   3   -1000024   -3    4
    0.03512932   2    1000023    22
    0.022493226   3    1000024    13   -14
    0.022493226   3   -1000024   -13    14
    0.022493099   3    1000024    11   -12
    0.022493099   3   -1000024   -11    12
    0.022166166   3    1000024    15   -16
    0.022166166   3   -1000024   -15    16
    0.01983914   3    1000023    11   -11
    0.019837034   3    1000023    13   -13
    0.019271227   3    1000023    15   -15
    0.00076238346   3    1000022    12   -12
    0.00057066395   2    1000022    22
    0.00048588646   3    1000022    5   -5
    0.00032057652   3    1000022    3   -3
    0.00032057554   3    1000022    1   -1
    0.00025289614   3    1000022    2   -2
    0.0002521603   3    1000022    4   -4
    0.00022024153   3    1000022    15   -15

DECAY 1000035  67.985703
    0.063719395   2    1000006   -6
    0.063719395   2   -1000006    6
    0.061265215   2    1000005   -5
    0.061265215   2   -1000005    5
    0.056377522   2    1000024   -24
    0.056377522   2   -1000024    24
    0.043209515   2    1000016   -16
    0.043209515   2   -1000016    16
    0.042841189   2    1000015   -15
    0.042841189   2   -1000015    15
    0.040513171   2    1000014   -14
    0.040513171   2   -1000014    14
    0.040512798   2    1000012   -12
    0.040512798   2   -1000012    12
    0.040222398   2    1000013   -13
    0.040222398   2   -1000013    13
    0.040221745   2    1000011   -11
    0.040221745   2   -1000011    11
    0.037163783   2    1000023    25
    0.024357227   2    1000025    25
    0.02235145   2    1000025    23
    0.018524111   2    1000023    23
    0.016880481   2    1000022    25
    0.015400059   2    1000022    23
    0.0025390336   3    1000024    5   -6
    0.0025390336   3   -1000024   -5    6
    0.0011184099   3    1000023    6   -6
    0.00071157535   3    1000025    6   -6
    0.00047205778   3    1000022    6   -6

DECAY 1000021  257.09178
    0.14973291   2    1000006   -6
    0.14973291   2   -1000006    6
    0.13979883   2    1000005   -5
    0.13979883   2   -1000005    5
    0.081236726   2    2000006   -6
    0.081236726   2   -2000006    6
    0.07173524   2    2000005   -5
    0.07173524   2   -2000005    5
    0.057399056   2    1000006   -4
    0.057399056   2   -1000006    4

DECAY 25  0.0035796717
    0.61237649   2   -5    5
    0.18791215   2   -24    24
    0.073482462   2    21    21
    0.070313834   2   -15    15
    0.030221441   2   -4    4
    0.021606049   2    23    23
    0.0023315279   2    22    22
    0.001280867   2    22    23
    0.00024385854   2   -13    13
    0.00023052635   2   -3    3
    6.3738267e-07   2   -1    1
    1.5574658e-07   2   -2    2
    5.4822439e-09   2   -11    11

DECAY 35  46.904666
    0.66902653   2   -5    5
    0.15197386   2   -15    15
    0.02910589   2   -1000024    1000037
    0.02910589   2   -1000037    1000024
    0.01629298   2   -2000015    1000015
    0.01629298   2   -1000015    2000015
    0.014676229   2    1000023    1000025
    0.014663707   2    1000022    1000023
    0.012238984   2    1000022    1000022
    0.011940683   2    1000025    1000025
    0.01155768   2    1000022    1000035
    0.01023983   2    1000025    1000035
    0.0073011348   2    1000023    1000035
    0.0020864783   2   -1000006    1000006
    0.0016192124   2   -1000024    1000024
    0.0006251803   2   -6    6
    0.00053104609   2   -13    13
    0.00035025982   2   -3    3
    0.00013743709   2   -1000015    1000015
    8.456381e-05   2   -2000015    2000015
    7.9754902e-05   2    1000022    1000025
    5.2051958e-05   2    1000023    1000023
    8.3825577e-06   2    21    21
    5.7911214e-06   2    25    25
    9.6838929e-07   2   -1    1
    6.2670087e-07   2    23    23
    2.6610249e-07   2   -24    24
    1.1257315e-07   2   -1000011    1000011
    1.1114286e-07   2   -1000013    1000013
    6.1948457e-08   2   -2000011    2000011
    6.1629106e-08   2   -2000013    2000013
    6.1578442e-08   2    22    23
    3.3883368e-08   2    22    22
    1.4073382e-08   2   -4    4
    1.1927869e-08   2   -11    11
    2.9881105e-09   2   -2000013    1000013
    2.9881105e-09   2   -1000013    2000013
    7.2581167e-14   2   -2    2
    6.9903614e-14   2   -2000011    1000011
    6.9903614e-14   2   -1000011    2000011

DECAY 36  45.159731
    0.66490621   2   -5    5
    0.15102997   2   -15    15
    0.030249444   2   -1000024    1000037
    0.030249444   2   -1000037    1000024
    0.022762214   2    1000023    1000035
    0.017040397   2   -2000015    1000015
    0.017040397   2   -1000015    2000015
    0.015402647   2    1000025    1000025
    0.014995241   2    1000022    1000022
    0.01279638   2    1000022    1000023
    0.012436077   2    1000023    1000025
    0.0045831953   2    1000022    1000035
    0.0030364292   2    1000025    1000035
    0.0018155455   2   -1000024    1000024
    0.00061731484   2   -6    6
    0.00052774804   2   -13    13
    0.00034807917   2   -3    3
    8.6324936e-05   2    1000022    1000025
    5.3931947e-05   2    1000023    1000023
    2.1043198e-05   2    21    21
    9.6236029e-07   2   -1    1
    9.2170981e-07   2    23    25
    4.1662558e-08   2    22    23
    1.3419144e-08   2   -4    4
    1.2216803e-08   2    22    22
    1.1853874e-08   2   -11    11
    3.0327005e-09   2   -2000013    1000013
    3.0327005e-09   2   -1000013    2000013
    7.0935161e-14   2   -2000011    1000011
    7.0935161e-14   2   -1000011    2000011
    6.9216246e-14   2   -2    2
    3.3166801e-37   2    25    25

DECAY 37  47.854554
    0.65549112   2   -5    6
    0.17076414   2   -15    16
    0.032179758   2   -2000015    1000016
    0.031421692   2    1000022    1000024
    0.028917625   2    1000023    1000037
    0.028780705   2    1000024    1000035
    0.021238539   2    1000024    1000025
    0.01575922   2    1000022    1000037
    0.013003254   2    1000025    1000037
    0.00097196646   2   -5    4
    0.00060371248   2   -13    14
    0.00046497136   2    1000023    1000024
    0.0003161507   2   -3    4
    6.0611639e-05   2   -1000015    1000016
    1.476433e-05   2   -3    2
    6.9408452e-06   2   -5    2
    2.0727774e-06   2   -3    6
    8.7747345e-07   2   -1    2
    8.7253481e-07   2    24    25
    4.32692e-07   2   -1000011    1000012
    4.3071147e-07   2   -1000013    1000014
    7.3753153e-08   2   -1    6
    4.1536992e-08   2   -1    4
    1.4120898e-08   2   -11    12
    6.3651947e-09   2   -2000013    1000014
    1.4732951e-12   2    24    35
    3.2597068e-13   2    24    36
    1.4891257e-13   2   -2000011    1000012

DECAY 6  2.43
    1   2    5    24

DECAY 15 -1
