BLOCK SPINFO
   1   SPheno
   2   v4.0.5be

BLOCK SPHENOINFO
   1   2
   2   2

BLOCK MODSEL
   1   0

BLOCK MINPAR
   3    39.599544
   4    1

BLOCK EXTPAR
   0    3324.2718
   1   -3616.8365
   2    2021.3703
   3    3954.5095
   11    5983.338
   12   -5310.6181
   13   -1965.6261
   23    645.49943
   25    38.34722
   26    2812.6257
   31    3133.1338
   32    3133.1338
   33    2967.769
   34    4256.4328
   35    4256.4328
   36    1840.0899
   41    1929.2187
   42    1929.2187
   43    2377.8127
   44    2368.7388
   45    2368.7388
   46    4434.1153
   47    3058.9401
   48    3058.9401
   49    4004.9631

BLOCK SMINPUTS
   1    127.90897
   2    1.1663787e-05
   3    0.1184
   4    91.1876
   5    4.18
   6    173.2
   7    1.777
   8    0
   11    0.00051099893
   12    0
   13    0.10565837
   14    0
   21    0.005
   22    0.0025
   23    0.095
   24    1.27

BLOCK GAUGE Q=  3324.2718
   1    0.35536298
   2    0.66519887
   3    1.219778

BLOCK YU Q=  3324.2718
   1   1    8.3872225e-06
   2   2    0.004260709
   3   3    1.0132438

BLOCK YD Q=  3324.2718
   1   1    0.00064629724
   2   2    0.012279647
   3   3    0.64092434

BLOCK YE Q=  3324.2718
   1   1    0.00011278359
   2   2    0.02332007
   3   3    0.39220522

BLOCK AU Q=  3324.2718
   1   1    0
   2   2    0
   3   3    5983.3353

BLOCK AD Q=  3324.2718
   1   1    0
   2   2    0
   3   3   -5310.613

BLOCK AE Q=  3324.2718
   1   1    0
   2   2    0
   3   3   -1965.6268

BLOCK MSOFT Q=  3324.2718
   1   -3616.8365
   2    2021.3703
   3    3954.5095
   21    7591899.5
   22   -355250.19
   31    3133.1338
   32    3133.1338
   33    2967.769
   34    4256.4328
   35    4256.4328
   36    1840.0899
   41    1929.2187
   42    1929.2187
   43    2377.8127
   44    2368.7388
   45    2368.7388
   46    4434.1153
   47    3058.9401
   48    3058.9401
   49    4004.9631

BLOCK MASS
   6    173.2
   23    91.1876
   24    80.429995
   15    1.777
   25    126.19484
   35    2812.0146
   36    2812.6257
   37    2813.4403
   1000001    2114.1377
   2000001    3197.2499
   1000002    2112.6157
   2000002    2521.0527
   1000003    2114.133
   2000003    3197.2432
   1000004    2112.6112
   2000004    2521.0521
   1000005    2500.7546
   2000005    4098.3861
   1000006    2493.6131
   2000006    4431.635
   1000011    3148.9529
   2000011    4266.9653
   1000012    3147.5471
   1000013    3148.9304
   2000013    4266.9252
   1000014    3147.5248
   1000015    1841.7811
   2000015    2977.4106
   1000016    2975.3116
   1000021    3999.8182
   1000022    656.96617
   1000023   -659.62215
   1000025    2043.004
   1000035   -3571.8771
   1000024    657.99584
   1000037    2043.227

BLOCK ALPHA
      -0.025328056

BLOCK HMIX Q=  3324.2718
   1    645.49943
   2    38.34722
   3    243.13237
   4    7910863.4

BLOCK STOPMIX
   1   1   -0.99811056
   1   2    0.06144359
   2   1   -0.06144359
   2   2   -0.99811056

BLOCK SBOTMIX
   1   1    0.99998402
   1   2    0.0056534848
   2   1   -0.0056534848
   2   2    0.99998402

BLOCK STAUMIX
   1   1    0.0088986196
   1   2    0.99996041
   2   1   -0.99996041
   2   2    0.0088986196

BLOCK NMIX
   1   1   -0.0074378838
   1   2   -0.040940567
   1   3    0.70748292
   1   4   -0.70550441
   2   1   -0.01026747
   2   2   -0.020210528
   2   3   -0.70657476
   2   4   -0.70727521
   3   1    0.00033662624
   3   2   -0.99895714
   3   3   -0.014699483
   3   4    0.043225435
   4   1    0.99991957
   4   2   -0.00017576111
   4   3   -0.0019877709
   4   4   -0.012524945

BLOCK UMIX
   1   1   -0.020804275
   1   2    0.99978357
   2   1    0.99978357
   2   2    0.020804275

BLOCK VMIX
   1   1   -0.061161809
   1   2    0.99812786
   2   1    0.99812786
   2   2    0.061161809

BLOCK HIGGSBOUNDSINPUTHIGGSCOUPLINGSFERMIONS
       0, 1470.5093,3,36,15,15

BLOCK HIGGSBOUNDSINPUTHIGGSCOUPLINGSBOSONS
       0,4,36,21,21,23

BLOCK SPHENOLOWENERGY
   1    0.00033434955
   2    1.5886281e-06
   3    3.5249961e-05
   4    2.6027478e-15
   5    1.1118679e-10
   6    2.3296782e-08
   7    8.6935227e-14
   8    3.7138824e-09
   9    7.8847581e-07
   10    9.5511289e-05
   11    0.98659504
   12    0.54197364
   13    19.359139
   14    0
   15    0
   16    0.0021573705
   17    2.2816601e-15
   18    2.4800738e-11
   19    8.290207e-11
   20    1.6133881e-15
   21    6.8977048e-11
   22    2.1195213e-08
   23    0
   24    0
   25    0
   26    0
   27    0
   28    0
   29    0
   30    0
   31    0
   39    7.1024481e-05
   40    0
   41    0
   42    0

BLOCK FWCOEF Q=  160
   305   4422   0   0   -0.18881911
   305   4422   0   2   -0.20421648
   305   4322   0   2   -0.00031478133
   305   6421   0   0   -0.095227835
   305   6421   0   2   -0.10920125
   305   6321   0   2   -0.00028505009
   3051111   4133   0   0    1.6204996
   3051111   4133   0   2    1.6206911
   3051111   4233   0   2    0.00045848243
   3051111   4137   0   0   -4.4431917
   3051111   4137   0   2   -4.4413779
   3051111   4237   0   2   -0.0034236977
   3051313   4133   0   0    1.6204996
   3051313   4133   0   2    1.6206906
   3051313   4233   0   2    0.0004584817
   3051313   4137   0   0   -4.4431917
   3051313   4137   0   2   -4.4413785
   3051313   4237   0   2   -0.0034236987
   3051212   4137   0   0    1.5053501
   3051212   4137   0   2    1.5049616
   3051212   4237   0   2    0.00074136366
   3051414   4137   0   0    1.5053501
   3051414   4137   0   2    1.5049616
   3051414   4237   0   2    0.00074136374
   3051616   4137   0   0    1.5053501
   3051616   4137   0   2    1.5049616
   3051616   4237   0   2    0.00074138506

BLOCK IMFWCOEF Q=  160
   305   4422   0   0    3.8577727e-07
   305   4422   0   2    2.8707981e-05
   305   4322   0   2   -3.0449711e-06
   305   6421   0   0    3.3044375e-07
   305   6421   0   2    1.1668009e-06
   305   6321   0   2   -1.7534101e-06
   3051111   4133   0   2   -6.4371106e-07
   3051111   4233   0   2    8.9558801e-06
   3051111   4137   0   2    7.5857674e-06
   3051111   4237   0   2   -6.6880188e-05
   3051313   4133   0   2   -6.4371635e-07
   3051313   4233   0   2    8.9558735e-06
   3051313   4137   0   2    7.5857815e-06
   3051313   4237   0   2   -6.6880212e-05
   3051212   4137   0   2   -1.5646313e-06
   3051212   4237   0   2    1.4482161e-05
   3051414   4137   0   2   -1.5646314e-06
   3051414   4237   0   2    1.4482161e-05
   3051616   4137   0   2   -1.5649835e-06
   3051616   4237   0   2    1.4482161e-05

DECAY 23  2.4952


DECAY 24  2.085


DECAY 1000011  13.969651
    0.66489876   2   -1000037    12
    0.33188581   2    1000025    11
    0.0018310494   2    1000022    11
    0.00078549027   2   -1000024    12
    0.00059888923   2    1000023    11

DECAY 2000011  1.9231095
    0.99829052   2    1000035    11
    0.001120059   2    1000023    11
    0.00058813628   2    1000022    11

DECAY 1000013  14.000413
    0.66341932   2   -1000037    14
    0.33114756   2    1000025    13
    0.00294121   2    1000022    13
    0.0017081551   2    1000023    13
    0.00078375774   2   -1000024    14

DECAY 2000013  2.0111358
    0.95450298   2    1000035    13
    0.021866066   2   -1000024    14
    0.011989396   2    1000023    13
    0.011513246   2    1000022    13
    0.00011875179   2    1000013    25

DECAY 1000015  8.5796026
    0.50000505   2   -1000024    16
    0.25079468   2    1000022    15
    0.24920027   2    1000023    15

DECAY 2000015  19.589701
    0.37440691   2   -1000037    16
    0.21166975   2    1000022    15
    0.21047547   2    1000023    15
    0.18693418   2    1000025    15
    0.0084525845   2    1000015    23
    0.0077681096   2    1000015    25
    0.00029299102   2   -1000024    16

DECAY 1000012  13.987942
    0.66067708   2    1000037    11
    0.33111204   2    1000025    12
    0.0067764466   2    1000024    11
    0.0012381202   2    1000022    12
    0.00019631239   2    1000023    12

DECAY 1000014  14.018688
    0.6592102   2    1000037    13
    0.33037667   2    1000025    14
    0.0089818554   2    1000024    13
    0.0012353944   2    1000022    14
    0.00019588019   2    1000023    14

DECAY 1000016  19.608807
    0.42434616   2    1000024    15
    0.37162358   2    1000037    15
    0.18622546   2    1000025    16
    0.016848018   2    1000015    24
    0.00082584719   2    1000022    16
    0.00013093159   2    1000023    16

DECAY 1000001  0.14264788
    0.56733411   2   -1000037    2
    0.28498537   2    1000025    1
    0.08361194   2    1000022    1
    0.046058413   2   -1000024    2
    0.018010161   2    1000023    1

DECAY 2000001  0.00031217843
    0.59150789   2    1000023    1
    0.32926012   2    1000022    1
    0.078017229   2   -1000024    2
    0.00096858131   2    1000001    25
    0.00023328934   2    1000025    1

DECAY 1000003  0.14839178
    0.54520253   2   -1000037    4
    0.27391923   2    1000025    3
    0.097781578   2    1000022    3
    0.048443988   2   -1000024    4
    0.034652668   2    1000023    3

DECAY 2000003  0.01796012
    0.48954221   2   -1000024    4
    0.25400325   2    1000023    3
    0.25025161   2    1000022    3
    0.0060776815   2    1000003    25

DECAY 1000005  64.861039
    0.67141809   2   -1000024    6
    0.13697027   2    1000022    5
    0.13620787   2    1000023    5
    0.036661307   2   -1000037    6
    0.018742463   2    1000025    5

DECAY 2000005  65.250188
    0.48516373   2   -1000024    6
    0.24378805   2    1000022    5
    0.24320672   2    1000023    5
    0.011180175   2    1000021    5
    0.0058163358   2    1000005    25
    0.0056871317   2    1000006   -24
    0.0028221312   2    1000005    23
    0.0020273426   2    1000035    5
    0.00020542729   2   -1000037    6
    0.00010295372   2    1000025    5

DECAY 1000002  0.19029664
    0.40645118   2    1000037    1
    0.29816755   2    1000024    1
    0.20482697   2    1000025    2
    0.071222228   2    1000022    2
    0.019332078   2    1000023    2

DECAY 2000002  0.00078570985
    0.65550262   2    1000023    2
    0.34439781   2    1000022    2

DECAY 1000004  0.19604046
    0.39449225   2    1000037    3
    0.31569313   2    1000024    3
    0.19876207   2    1000025    4
    0.070706194   2    1000022    4
    0.020346349   2    1000023    4

DECAY 2000004  0.0023634695
    0.38526094   2    1000023    4
    0.33328584   2    1000024    3
    0.28116434   2    1000022    4
    0.00016968417   2    1000037    3
    0.00011690866   2    1000025    4

DECAY 1000006  66.077739
    0.33069381   2    1000023    6
    0.32868494   2    1000022    6
    0.26614431   2    1000024    5
    0.036038997   2    1000037    5
    0.020816792   3    1000022    24    5
    0.017615277   2    1000025    6

DECAY 2000006  346.3379
    0.24967987   2    1000024    5
    0.20380291   2    1000005    24
    0.15893042   2    1000006    25
    0.12459118   2    1000023    6
    0.12423202   2    1000022    6
    0.10225412   2    1000006    23
    0.033007784   2    1000021    6
    0.0033964221   2    1000035    6

DECAY 1000024  1.1481507e-12
    0.69088607   2    1000022    211
    0.15855121   3    1000022   -11    12
    0.15056272   3    1000022   -13    14

DECAY 1000037  18.125283
    0.24906401   2    1000024    25
    0.24103474   2    1000023    24
    0.23924001   2    1000022    24
    0.2390423   2    1000024    23
    0.01277441   3    1000024    6   -6
    0.0095030228   3    1000022   -5    6
    0.0089756363   3    1000023   -5    6
    0.00031671175   3    1000024    5   -5

DECAY 1000022 -1


DECAY 1000023  4.7884841e-09
    0.92282213   2    1000022    22
    0.019377497   3    1000022    12   -12
    0.014489506   3    1000022    1   -1
    0.014275927   3    1000022    3   -3
    0.011301039   3    1000022    2   -2
    0.003346536   3    1000024    1   -2
    0.003346536   3   -1000024   -1    2
    0.0032700081   3    1000022    11   -11
    0.0031943878   3    1000022    13   -13
    0.0011155764   3    1000024    11   -12
    0.0011155764   3   -1000024   -11    12
    0.0010925122   3    1000024    13   -14
    0.0010925122   3   -1000024   -13    14

DECAY 1000025  20.498742
    0.21220771   2    1000024   -24
    0.21220771   2   -1000024    24
    0.17720684   2    1000022    25
    0.17145332   2    1000023    23
    0.1615008   2    1000023    25
    0.041389101   2    1000022    23
    0.0074879454   3    1000024    5   -6
    0.0074879454   3   -1000024   -5    6
    0.004525438   3    1000022    6   -6
    0.0042002545   3    1000023    6   -6
    0.00014085247   3    1000023    5   -5
    0.00013852575   3    1000022    5   -5

DECAY 1000035  38.17882
    0.12664171   2    1000015   -15
    0.12664171   2   -1000015    15
    0.078912253   2    2000004   -4
    0.078912253   2   -2000004    4
    0.078912179   2    2000002   -2
    0.078912179   2   -2000002    2
    0.058808418   2    1000024   -24
    0.058808418   2   -1000024    24
    0.041645446   2    1000022    25
    0.038452958   2    1000022    23
    0.037801456   2    1000023    25
    0.020347855   2    1000023    23
    0.0082822092   2    1000003   -3
    0.0082822092   2   -1000003    3
    0.0082821694   2    1000001   -1
    0.0082821694   2   -1000001    1
    0.0082623709   2    1000004   -4
    0.0082623709   2   -1000004    4
    0.0082623426   2    1000002   -2
    0.0082623426   2   -1000002    2
    0.0055099086   2    1000016   -16
    0.0055099086   2   -1000016    16
    0.0054698915   2    2000015   -15
    0.0054698915   2   -2000015    15
    0.0053948988   2    1000006   -6
    0.0053948988   2   -1000006    6
    0.0050991856   2    1000005   -5
    0.0050991856   2   -1000005    5
    0.0045377993   2    1000023    35
    0.0043442093   2    37   -1000024
    0.0043442093   2   -37    1000024
    0.0041497435   2    1000022    35
    0.0035890455   3    1000024    5   -6
    0.0035890455   3   -1000024   -5    6
    0.0030949247   2    2000003   -3
    0.0030949247   2   -2000003    3
    0.0030948207   2    2000001   -1
    0.0030948207   2   -2000001    1
    0.0029365182   2    1000014   -14
    0.0029365182   2   -1000014    14
    0.0029362291   2    1000012   -12
    0.0029362291   2   -1000012    12
    0.0029144801   2    1000013   -13
    0.0029144801   2   -1000013    13
    0.0029141899   2    1000011   -11
    0.0029141899   2   -1000011    11
    0.0025582498   3    1000022    6   -6
    0.0024661448   3    1000023    6   -6
    0.00026920562   2    1000022    36
    0.0002327761   2    1000023    36

DECAY 1000021  452.08487
    0.06807501   2    1000004   -4
    0.06807501   2   -1000004    4
    0.068074791   2    1000002   -2
    0.068074791   2   -1000002    2
    0.06799912   2    1000003   -3
    0.06799912   2   -1000003    3
    0.067998887   2    1000001   -1
    0.067998887   2   -1000001    1
    0.049588549   2    1000006   -6
    0.049588549   2   -1000006    6
    0.048578767   2    1000005   -5
    0.048578767   2   -1000005    5
    0.047569762   2    2000004   -4
    0.047569762   2   -2000004    4
    0.047569742   2    2000002   -2
    0.047569742   2   -2000002    2
    0.017068786   2    2000003   -3
    0.017068786   2   -2000003    3
    0.017068534   2    2000001   -1
    0.017068534   2   -2000001    1
    0.00020081005   3    1000024    5   -6
    0.00020081005   3   -1000024   -5    6
    0.00010280651   3    1000023    6   -6
    0.00010257822   3    1000022    6   -6

DECAY 25  0.0040441082
    0.55387474   2   -5    5
    0.24821531   2   -24    24
    0.071523567   2    21    21
    0.063910104   2   -15    15
    0.030756998   2    23    23
    0.027350699   2   -4    4
    0.0023418101   2    22    22
    0.0015962345   2    22    23
    0.00022164903   2   -13    13
    0.00020816075   2   -3    3
    5.7554361e-07   2   -1    1
    1.4094114e-07   2   -2    2
    4.9829018e-09   2   -11    11

DECAY 35  56.113551
    0.75348422   2   -5    5
    0.16835108   2   -15    15
    0.024995682   2   -1000024    1000037
    0.024995682   2   -1000037    1000024
    0.022209143   2    1000023    1000025
    0.002661824   2    1000022    1000025
    0.001120823   2   -1000024    1000024
    0.00099505328   2   -6    6
    0.00058362155   2   -13    13
    0.00029841686   2   -3    3
    0.00020066163   2    1000022    1000022
    5.3093313e-05   2    1000022    1000023
    3.5820974e-05   2    1000023    1000023
    8.269311e-06   2    21    21
    4.9872215e-06   2    25    25
    8.2514488e-07   2   -1    1
    5.3806823e-07   2    23    23
    1.7707286e-07   2   -24    24
    3.8002724e-08   2    22    23
    1.9382722e-08   2    22    22
    1.3107989e-08   2   -11    11
    1.1538374e-08   2   -4    4
    5.9474485e-14   2   -2    2

DECAY 36  53.785107
    0.75032055   2   -5    5
    0.16764905   2   -15    15
    0.026036209   2   -1000024    1000037
    0.026036209   2   -1000037    1000024
    0.023438436   2    1000022    1000025
    0.0027062184   2    1000023    1000025
    0.0015323543   2   -1000024    1000024
    0.0010133341   2   -6    6
    0.00058118725   2   -13    13
    0.00029715668   2   -3    3
    0.00029295134   2    1000022    1000022
    4.2831459e-05   2    1000023    1000023
    3.447436e-05   2    1000022    1000023
    1.7191914e-05   2    21    21
    8.7394834e-07   2    23    25
    8.2166229e-07   2   -1    1
    6.8398475e-08   2    22    22
    6.0046109e-08   2    22    23
    1.3053378e-08   2   -11    11
    1.1595118e-08   2   -4    4
    5.9759394e-14   2   -2    2
    2.4040408e-40   2    25    25

DECAY 37  52.811131
    0.75023411   2   -5    6
    0.16706588   2   -15    16
    0.026952023   2    1000022    1000037
    0.026736033   2    1000024    1000025
    0.026498124   2    1000023    1000037
    0.0011109928   2   -5    4
    0.0005906376   2   -13    14
    0.00039411327   2    1000023    1000024
    0.00028815972   2   -3    4
    0.00010433192   2    1000022    1000024
    1.3486048e-05   2   -3    2
    7.9336356e-06   2   -5    2
    2.3442092e-06   2   -3    6
    8.9147503e-07   2    24    25
    7.9969886e-07   2   -1    2
    8.7981277e-08   2   -1    6
    3.8123775e-08   2   -1    4
    1.3815075e-08   2   -11    12
    1.518683e-13   2    24    35

DECAY 6  2.43
    1   2    5    24

DECAY 15 -1
