BLOCK SPINFO
   1   SPheno
   2   v4.0.5be

BLOCK SPHENOINFO
   1   2
   2   2

BLOCK MODSEL
   1   0

BLOCK MINPAR
   3    50.22531
   4   -1

BLOCK EXTPAR
   0    1171.4466
   1    651.60841
   2    1316.3035
   3    3000
   11    3550.5327
   12    1906.6254
   13   -288.66911
   23   -499.83889
   25    51.254738
   26    3250.3676
   31    564.16245
   32    564.16245
   33    629.2804
   34    1379.8306
   35    1379.8306
   36    1348.1168
   41    5000
   42    5000
   43    828.74436
   44    5000
   45    5000
   46    1957.728
   47    5000
   48    5000
   49    1704.5301

BLOCK SMINPUTS
   1    127.90897
   2    1.1663787e-05
   3    0.1184
   4    91.1876
   5    4.18
   6    173.2
   7    1.777
   8    0
   11    0.00051099893
   12    0
   13    0.10565837
   14    0
   21    0.005
   22    0.0025
   23    0.095
   24    1.27

BLOCK GAUGE Q=  1171.4466
   1    0.35536298
   2    0.66519887
   3    1.219778

BLOCK YU Q=  1171.4466
   1   1    8.3859678e-06
   2   2    0.0042600716
   3   3    1.0130923

BLOCK YD Q=  1171.4466
   1   1    0.00086370902
   2   2    0.016410471
   3   3    0.8565287

BLOCK YE Q=  1171.4466
   1   1    0.00015072354
   2   2    0.031164848
   3   3    0.52414147

BLOCK AU Q=  1171.4466
   1   1    0
   2   2    0
   3   3    3550.5328

BLOCK AD Q=  1171.4466
   1   1    0
   2   2    0
   3   3    1906.6257

BLOCK AE Q=  1171.4466
   1   1    0
   2   2    0
   3   3   -288.66911

BLOCK MSOFT Q=  1171.4466
   1    651.60841
   2    1316.3035
   3    3000
   21    10493496
   22   -240031.48
   31    564.16245
   32    564.16245
   33    629.2804
   34    1379.8306
   35    1379.8306
   36    1348.1168
   41    5000
   42    5000
   43    828.74436
   44    5000
   45    5000
   46    1957.728
   47    5000
   48    5000
   49    1704.5301

BLOCK MASS
   6    173.2
   23    91.1876
   24    80.429995
   15    1.777
   25    125.02616
   35    3243.0612
   36    3250.3676
   37    3246.4292
   1000001    5012.9901
   2000001    5004.5444
   1000002    5012.5653
   2000002    5007.2797
   1000003    5013.0026
   2000003    5004.5638
   1000004    5012.5763
   2000004    5007.2808
   1000005    771.92541
   2000005    1724.8196
   1000006    716.51201
   2000006    1915.2325
   1000011    586.88315
   2000011    1378.2168
   1000012    581.22649
   1000013    586.91793
   2000013    1378.239
   1000014    581.26555
   1000015    658.73441
   2000015    1352.9121
   1000016    654.71913
   1000021    3170.3208
   1000022    495.11503
   1000023   -505.80825
   1000025    658.57001
   1000035    1350.2552
   1000024    502.1754
   1000037    1350.4659

BLOCK ALPHA
      -0.019956468

BLOCK HMIX Q=  1171.4466
   1   -499.83889
   2    51.254738
   3    244.2373
   4    10564890

BLOCK STOPMIX
   1   1   -0.98329389
   1   2    0.1820251
   2   1   -0.1820251
   2   2   -0.98329389

BLOCK SBOTMIX
   1   1   -0.99922051
   1   2    0.039476337
   2   1   -0.039476337
   2   2   -0.99922051

BLOCK STAUMIX
   1   1   -0.99952459
   1   2    0.030831627
   2   1   -0.030831627
   2   2   -0.99952459

BLOCK NMIX
   1   1   -0.18543701
   1   2    0.062939399
   1   3    0.69962645
   1   4    0.68714961
   2   1   -0.027106766
   2   2    0.031312346
   2   3   -0.70518829
   2   4    0.70780946
   3   1   -0.98227205
   3   2   -0.01728253
   3   3   -0.11250876
   3   4   -0.14894534
   4   1   -0.0044677983
   4   2    0.9973763
   4   3   -0.023960269
   4   4   -0.068164955

BLOCK UMIX
   1   1   -0.033798933
   1   2   -0.99942865
   2   1    0.99942865
   2   2   -0.033798933

BLOCK VMIX
   1   1   -0.096191115
   1   2    0.99536288
   2   1    0.99536288
   2   2    0.096191115

BLOCK HIGGSBOUNDSINPUTHIGGSCOUPLINGSFERMIONS
       0, 2627.0482,3,36,15,15

BLOCK HIGGSBOUNDSINPUTHIGGSCOUPLINGSBOSONS
       0,4,36,21,21,23

BLOCK SPHENOLOWENERGY
   1    0.00026724372
   2    1.6006578e-06
   3    3.5215637e-05
   4    3.4012295e-15
   5    1.4528816e-10
   6    2.992239e-08
   7    1.1643538e-13
   8    4.9738228e-09
   9    1.0378276e-06
   10    9.5958838e-05
   11    0.99121806
   12    0.54210255
   13    19.369557
   14    0
   15    0
   16    0.0021576164
   17    2.2816626e-15
   18    2.4789508e-11
   19    8.2874509e-11
   20   -1.6267168e-14
   21   -6.9562169e-10
   22   -1.9997494e-07
   23    0
   24    0
   25    0
   26    0
   27    0
   28    0
   29    0
   30    0
   31    0
   39    9.5394131e-05
   40    0
   41    0
   42    0

BLOCK FWCOEF Q=  160
   305   4422   0   0   -0.18881911
   305   4422   0   2   -0.12045759
   305   4322   0   2    0.000174785
   305   6421   0   0   -0.095227835
   305   6421   0   2   -0.066403862
   305   6321   0   2   -2.5503777e-05
   3051111   4133   0   0    1.5837805
   3051111   4133   0   2    1.5849184
   3051111   4233   0   2    0.0004220373
   3051111   4137   0   0   -4.4064726
   3051111   4137   0   2   -4.4013014
   3051111   4237   0   2   -0.0033241797
   3051313   4133   0   0    1.5837805
   3051313   4133   0   2    1.5849111
   3051313   4233   0   2    0.00042203338
   3051313   4137   0   0   -4.4064726
   3051313   4137   0   2   -4.4013087
   3051313   4237   0   2   -0.003324192
   3051212   4137   0   0    1.5053501
   3051212   4137   0   2    1.5042282
   3051212   4237   0   2    0.00072581202
   3051414   4137   0   0    1.5053501
   3051414   4137   0   2    1.5042282
   3051414   4237   0   2    0.00072581215
   3051616   4137   0   0    1.5053501
   3051616   4137   0   2    1.5042282
   3051616   4237   0   2    0.00072584859

BLOCK IMFWCOEF Q=  160
   305   4422   0   0    3.8590748e-07
   305   4422   0   2   -4.2115856e-05
   305   4322   0   2    5.0095873e-06
   305   6421   0   0    3.3055528e-07
   305   6421   0   2   -3.1374128e-06
   305   6321   0   2    2.0245507e-06
   3051111   4133   0   2   -1.3906229e-06
   3051111   4233   0   2    8.5203358e-06
   3051111   4137   0   2    1.0918771e-05
   3051111   4237   0   2   -6.7126578e-05
   3051313   4133   0   2   -1.3905875e-06
   3051313   4233   0   2    8.5202792e-06
   3051313   4137   0   2    1.0918878e-05
   3051313   4237   0   2   -6.7126811e-05
   3051212   4137   0   2   -2.2443036e-06
   3051212   4237   0   2    1.4656633e-05
   3051414   4137   0   2   -2.2443194e-06
   3051414   4237   0   2    1.4656633e-05
   3051616   4137   0   2   -2.2443903e-06
   3051616   4237   0   2    1.4656633e-05

DECAY 23  2.4952


DECAY 24  2.085


DECAY 1000011  0.00075197833
    0.56302484   2   -1000024    12
    0.37257109   2    1000022    11
    0.064391255   2    1000023    11

DECAY 2000011  4.1631817
    0.9556965   2    1000025    11
    0.043388118   2    1000022    11
    0.00091521162   2    1000023    11

DECAY 1000013  0.0015863211
    0.46722234   2    1000022    13
    0.26708466   2   -1000024    14
    0.26568696   2    1000023    13

DECAY 2000013  4.204748
    0.94632863   2    1000025    13
    0.045313112   2    1000022    13
    0.0047580452   2   -1000024    14
    0.00326426   2    1000023    13
    0.00033587951   2    1000013    25

DECAY 1000015  0.64254373
    0.52675406   2    1000022    15
    0.46790833   2    1000023    15
    0.0053376063   2   -1000024    16

DECAY 2000015  16.361363
    0.3343936   2   -1000024    16
    0.23732631   2    1000025    15
    0.17459011   2    1000022    15
    0.16710362   2    1000023    15
    0.042989342   2    1000016   -24
    0.022506972   2    1000015    25
    0.02109   2    1000015    23

DECAY 1000012  0.0084127211
    0.6007618   2    1000022    12
    0.36168261   2    1000024    11
    0.037555595   2    1000023    12

DECAY 1000014  0.0091448032
    0.5530983   2    1000022    14
    0.41232128   2    1000024    13
    0.034580414   2    1000023    14

DECAY 1000016  0.63114455
    0.97647945   2    1000024    15
    0.021964306   2    1000022    16
    0.0015562432   2    1000023    16

DECAY 2000001  144.28966
    0.98128995   2    1000021    1
    0.018041883   2    1000025    1
    0.00065313827   2    1000022    1

DECAY 1000001  200.09971
    0.711994   2    1000021    1
    0.18947278   2   -1000037    2
    0.094502897   2    1000035    1
    0.0026462641   2    1000025    1
    0.0009958751   2    1000022    1
    0.00024690464   2   -1000024    2
    0.00014128072   2    1000023    1

DECAY 2000003  144.34409
    0.98093392   2    1000021    3
    0.018037413   2    1000025    3
    0.00074180351   2    1000022    3
    0.00018182475   2   -1000024    4
    0.00010442943   2    1000023    3

DECAY 1000003  200.12922
    0.71189553   2    1000021    3
    0.18944554   2   -1000037    4
    0.094489335   2    1000035    3
    0.0026475154   2    1000025    3
    0.0010599706   2    1000022    3
    0.0002556447   2   -1000024    4
    0.0002064629   2    1000023    3

DECAY 1000005  7.162404
    0.47213717   2   -1000024    6
    0.2716384   2    1000022    5
    0.25423178   2    1000023    5
    0.0019926479   2    1000025    5

DECAY 2000005  47.695237
    0.43297967   2   -1000024    6
    0.21986747   2    1000023    5
    0.21594006   2    1000022    5
    0.061786725   2    1000006   -24
    0.028669584   2    1000005    23
    0.020306611   2    1000005    25
    0.01998493   2    1000025    5
    0.00030046142   2   -1000037    6
    0.00016448865   2    1000035    5

DECAY 2000002  152.67929
    0.92923471   2    1000021    2
    0.068241852   2    1000025    2
    0.0024694628   2    1000022    2

DECAY 1000002  200.09648
    0.71178433   2    1000021    2
    0.18791646   2    1000037    1
    0.094192885   2    1000035    2
    0.003933713   2    1000025    2
    0.0020000505   2    1000024    1

DECAY 2000004  152.68289
    0.92921318   2    1000021    4
    0.068240522   2    1000025    4
    0.0024748737   2    1000022    4

DECAY 1000004  200.12574
    0.71168567   2    1000021    4
    0.18788965   2    1000037    3
    0.094179422   2    1000035    4
    0.003933336   2    1000025    4
    0.0021307708   2    1000024    3
    0.00010094784   2    1000022    4

DECAY 1000006  5.0166076
    0.52924658   2    1000024    5
    0.24407763   2    1000022    6
    0.22647298   2    1000023    6

DECAY 2000006  260.69958
    0.35326443   2    1000005    24
    0.19260649   2    1000006    25
    0.18487712   2    1000006    23
    0.13068656   2    1000024    5
    0.063235609   2    1000023    6
    0.06173073   2    1000022    6
    0.013552606   2    1000025    6

DECAY 1000024  2.1907444e-08
    0.36128605   3    1000022   -1    2
    0.30876738   3    1000022   -3    4
    0.12055328   3    1000022   -11    12
    0.12041699   3    1000022   -13    14
    0.088976309   3    1000022   -15    16

DECAY 1000037  50.223262
    0.1857519   2    1000006   -5
    0.14217374   2   -1000005    6
    0.077841147   2    1000012   -11
    0.077836633   2    1000014   -13
    0.077781965   2   -1000011    12
    0.077777671   2   -1000013    14
    0.068677046   2    1000016   -15
    0.06847708   2   -1000015    16
    0.055629729   2    1000023    24
    0.054554267   2    1000024    25
    0.054546591   2    1000024    23
    0.05129754   2    1000022    24
    0.0038265162   2    1000025    24
    0.0013290625   3    1000023   -5    6
    0.0012081592   3    1000024    6   -6
    0.0011373508   3    1000022   -5    6

DECAY 1000022 -1


DECAY 1000023  6.2646389e-07
    0.38554338   2    1000022    22
    0.1488468   3    1000022    12   -12
    0.11120192   3    1000022    1   -1
    0.11110019   3    1000022    3   -3
    0.086727699   3    1000022    2   -2
    0.071845749   3    1000022    4   -4
    0.025096506   3    1000022    11   -11
    0.025067475   3    1000022    13   -13
    0.017431009   3    1000022    15   -15
    0.010576302   3    1000022    5   -5
    0.0014120068   3    1000024    1   -2
    0.0014120068   3   -1000024   -1    2
    0.00078356908   3    1000024    3   -4
    0.00078356908   3   -1000024   -3    4
    0.00047081294   3    1000024    11   -12
    0.00047081294   3   -1000024   -11    12
    0.00046883982   3    1000024    13   -14
    0.00046883982   3   -1000024   -13    14
    0.00014625162   3    1000024    15   -16
    0.00014625162   3   -1000024   -15    16

DECAY 1000025  1.0501287
    0.29665179   2    1000023    23
    0.15623988   2    1000024   -24
    0.15623988   2   -1000024    24
    0.12916076   2    1000023    25
    0.11769555   2    1000022    25
    0.017373605   2    1000012   -12
    0.017373605   2   -1000012    12
    0.017357154   2    1000014   -14
    0.017357154   2   -1000014    14
    0.017183415   2    1000011   -11
    0.017183415   2   -1000011    11
    0.017170194   2    1000013   -13
    0.017170194   2   -1000013    13
    0.0056667415   2    1000022    23

DECAY 1000035  52.116781
    0.080718119   2    1000006   -6
    0.080718119   2   -1000006    6
    0.077052926   2    1000005   -5
    0.077052926   2   -1000005    5
    0.052735281   2    1000024   -24
    0.052735281   2   -1000024    24
    0.046961429   2    1000023    25
    0.043918876   2    1000023    23
    0.03967978   2    1000022    25
    0.037827576   2    1000012   -12
    0.037827576   2   -1000012    12
    0.037825263   2    1000014   -14
    0.037825263   2   -1000014    14
    0.037134605   2    1000011   -11
    0.037134605   2   -1000011    11
    0.037132672   2    1000013   -13
    0.037132672   2   -1000013    13
    0.033342577   2    1000016   -16
    0.033342577   2   -1000016    16
    0.032719581   2    1000015   -15
    0.032719581   2   -1000015    15
    0.0095502093   2    1000022    23
    0.0030802917   2    1000025    25
    0.0011712069   3    1000024    5   -6
    0.0011712069   3   -1000024   -5    6
    0.00050374188   3    1000023    6   -6
    0.00045539298   3    1000022    6   -6
    0.00040447719   2    1000025    23

DECAY 1000021  292.35349
    0.15040161   2    1000006   -6
    0.15040161   2   -1000006    6
    0.14205901   2    1000005   -5
    0.14205901   2   -1000005    5
    0.079520985   2    2000005   -5
    0.079520985   2   -2000005    5
    0.067222498   2    1000006   -4
    0.067222498   2   -1000006    4
    0.060423198   2    2000006   -6
    0.060423198   2   -2000006    6
    0.00017608453   3    1000037    5   -6
    0.00017608453   3   -1000037   -5    6
    0.00011380246   3    1000025    6   -6

DECAY 25  0.0038660085
    0.57436951   2   -5    5
    0.2298995   2   -24    24
    0.06862093   2    21    21
    0.066402236   2   -15    15
    0.028511887   2   -4    4
    0.027844732   2    23    23
    0.0023869454   2    22    22
    0.0015163377   2    22    23
    0.0002302718   2   -13    13
    0.0002169077   2   -3    3
    5.9972683e-07   2   -1    1
    1.4692891e-07   2   -2    2
    5.1767617e-09   2   -11    11

DECAY 35  240.41379
    0.71747663   2   -5    5
    0.056296396   2   -15    15
    0.048455517   2   -2000005    1000005
    0.048455517   2   -1000005    2000005
    0.035219698   2   -1000024    1000037
    0.035219698   2   -1000037    1000024
    0.019758825   2    1000023    1000035
    0.015320646   2    1000022    1000035
    0.006536831   2    1000023    1000025
    0.0053851444   2    1000022    1000025
    0.0029646304   2   -2000006    1000006
    0.0029646304   2   -1000006    2000006
    0.0012794349   2    1000022    1000022
    0.00095424169   2   -1000024    1000024
    0.00070613127   2   -6    6
    0.00068680195   2   -1000006    1000006
    0.0004218635   2    1000025    1000035
    0.00036511468   2   -1000005    1000005
    0.00032565163   2    1000022    1000023
    0.00027296659   2    1000025    1000025
    0.00022203743   2   -2000015    1000015
    0.00022203743   2   -1000015    2000015
    0.00019263799   2   -13    13
    0.00014987827   2   -3    3
    9.714736e-05   2    1000023    1000023
    3.0511243e-05   2   -1000037    1000037
    1.5388591e-05   2    1000035    1000035
    1.1920392e-06   2   -1000015    1000015
    1.0082677e-06   2    25    25
    5.7057514e-07   2    21    21
    4.9453173e-07   2   -2000015    2000015
    4.143258e-07   2   -1    1
    6.3851959e-08   2    23    23
    5.0517487e-08   2    22    23
    1.7426102e-08   2   -24    24
    1.2836932e-08   2   -1000011    1000011
    1.2656046e-08   2   -1000013    1000013
    6.5238856e-09   2   -4    4
    5.5779632e-09   2    22    22
    4.6498608e-09   2   -2000011    2000011
    4.5906052e-09   2   -2000013    2000013
    4.3264517e-09   2   -11    11
    8.8326815e-10   2   -2000013    1000013
    8.8326815e-10   2   -1000013    2000013
    3.3622418e-14   2   -2    2
    2.0659961e-14   2   -2000011    1000011
    2.0659961e-14   2   -1000011    2000011

DECAY 36  214.97497
    0.6918103   2   -5    5
    0.054684446   2   -2000005    1000005
    0.054684446   2   -1000005    2000005
    0.054247948   2   -15    15
    0.039501167   2   -1000024    1000037
    0.039501167   2   -1000037    1000024
    0.021627525   2    1000022    1000035
    0.017567971   2    1000023    1000035
    0.0069269512   2    1000023    1000025
    0.0063767169   2    1000022    1000025
    0.0037551051   2   -2000006    1000006
    0.0037551051   2   -1000006    2000006
    0.001460148   2    1000022    1000022
    0.0011478116   2   -1000024    1000024
    0.00064258047   2    1000025    1000035
    0.00050433591   2   -6    6
    0.00038197045   2    1000022    1000023
    0.00032949419   2    1000025    1000025
    0.00024900738   2   -2000015    1000015
    0.00024900738   2   -1000015    2000015
    0.00018562492   2   -13    13
    0.00014443496   2   -3    3
    0.00013054237   2    1000023    1000023
    8.2025465e-05   2   -1000037    1000037
    4.1408228e-05   2    1000035    1000035
    1.2216939e-05   2    21    21
    3.9927778e-07   2   -1    1
    1.2407844e-07   2    23    25
    8.3648604e-09   2    22    23
    4.2592968e-09   2   -4    4
    4.1689421e-09   2   -11    11
    1.9370894e-09   2    22    22
    9.7992529e-10   2   -2000013    1000013
    9.7992529e-10   2   -1000013    2000013
    1.0649319e-10   2    23    35
    2.292055e-14   2   -2000011    1000011
    2.292055e-14   2   -1000011    2000011
    2.1950598e-14   2   -2    2
    5.8792979e-38   2    25    25

DECAY 37  241.60982
    0.69368142   2   -5    6
    0.11275608   2   -2000005    1000006
    0.067784729   2   -15    16
    0.035162004   2    1000024    1000035
    0.035102665   2    1000023    1000037
    0.034799943   2    1000022    1000037
    0.013867489   2    1000024    1000025
    0.0036173404   2   -1000005    2000006
    0.0010285089   2   -5    4
    0.0010055196   2    1000025    1000037
    0.00044338888   2   -2000015    1000016
    0.00023964319   2   -13    14
    0.00022005721   2    1000022    1000024
    0.00014107139   2    1000023    1000024
    0.00013331937   2   -3    4
    7.344615e-06   2   -5    2
    6.2498519e-06   2   -3    2
    1.718822e-06   2   -1000005    1000006
    4.9481141e-07   2   -3    6
    3.9389421e-07   2   -1000015    1000016
    3.6976609e-07   2   -1    2
    1.1005584e-07   2    24    25
    5.0095887e-08   2   -1000011    1000012
    4.984326e-08   2   -1000013    1000014
    1.7408106e-08   2   -1    4
    1.3623975e-08   2   -1    6
    5.6052792e-09   2   -11    12
    1.7751492e-09   2   -2000013    1000014
    5.6978779e-10   2    1000035    1000037
    2.4415052e-12   2    24    35
    4.152253e-14   2   -2000011    1000012

DECAY 6  2.43
    1   2    5    24

DECAY 15 -1
