BLOCK SPINFO
   1   SPheno
   2   v4.0.5be

BLOCK SPHENOINFO
   1   2
   2   2

BLOCK MODSEL
   1   0

BLOCK MINPAR
   3    38.628467
   4    1

BLOCK EXTPAR
   0    2058.5946
   1    1115.6996
   2   -1858.4152
   3    1352.7978
   11    5739.6908
   12   -7141.2704
   13   -4682.5294
   23    2968.0927
   25    37.145859
   26    3615.3343
   31    3246.1319
   32    3246.1319
   33    4519.708
   34    4421.6316
   35    4421.6316
   36    3164.2392
   41    1077.2227
   42    1077.2227
   43    1408.2339
   44    4472.1753
   45    4472.1753
   46    2924.5657
   47    2614.3947
   48    2614.3947
   49    2113.4037

BLOCK SMINPUTS
   1    127.90897
   2    1.1663787e-05
   3    0.1184
   4    91.1876
   5    4.18
   6    173.2
   7    1.777
   8    0
   11    0.00051099893
   12    0
   13    0.10565837
   14    0
   21    0.005
   22    0.0025
   23    0.095
   24    1.27

BLOCK GAUGE Q=  2058.5946
   1    0.35536298
   2    0.66519887
   3    1.219778

BLOCK YU Q=  2058.5946
   1   1    8.3874098e-06
   2   2    0.0042608042
   3   3    1.0132665

BLOCK YD Q=  2058.5946
   1   1    0.0006260637
   2   2    0.01189521
   3   3    0.62085901

BLOCK YE Q=  2058.5946
   1   1    0.00010925269
   2   2    0.022589992
   3   3    0.3799265

BLOCK AU Q=  2058.5946
   1   1    0
   2   2    0
   3   3    5739.6909

BLOCK AD Q=  2058.5946
   1   1    0
   2   2    0
   3   3   -7141.2698

BLOCK AE Q=  2058.5946
   1   1    0
   2   2    0
   3   3   -4682.5295

BLOCK MSOFT Q=  2058.5946
   1    1115.6996
   2   -1858.4152
   3    1352.7978
   21    4328422.8
   22   -8831190.5
   31    3246.1319
   32    3246.1319
   33    4519.708
   34    4421.6316
   35    4421.6316
   36    3164.2392
   41    1077.2227
   42    1077.2227
   43    1408.2339
   44    4472.1753
   45    4472.1753
   46    2924.5657
   47    2614.3947
   48    2614.3947
   49    2113.4037

BLOCK MASS
   6    173.2
   23    91.1876
   24    80.429995
   15    1.777
   25    125.38729
   35    3614.4872
   36    3615.3343
   37    3617.3637
   1000001    1184.1516
   2000001    2650.9443
   1000002    1181.6412
   2000002    4521.4934
   1000003    1184.1515
   2000003    2650.9432
   1000004    1181.6421
   2000004    4521.4931
   1000005    1493.337
   2000005    2156.1192
   1000006    1467.2695
   2000006    2888.23
   1000011    3258.3772
   2000011    4420.168
   1000012    3257.0485
   1000013    3258.3815
   2000013    4420.1569
   1000014    3257.055
   1000015    3171.5374
   2000015    4530.4314
   1000016    4530.2193
   1000021    1517.0579
   1000022    1119.9866
   1000023   -1857.5043
   1000025    2957.6141
   1000035   -2959.1659
   1000024    1857.6945
   1000037    2959.6645

BLOCK ALPHA
      -0.025861323

BLOCK HMIX Q=  2058.5946
   1    2968.0927
   2    37.145859
   3    243.65855
   4    13070642

BLOCK STOPMIX
   1   1   -0.99124732
   1   2    0.13201802
   2   1   -0.13201802
   2   2   -0.99124732

BLOCK SBOTMIX
   1   1    0.99834095
   1   2    0.057579051
   2   1   -0.057579051
   2   2    0.99834095

BLOCK STAUMIX
   1   1    0.018702008
   1   2    0.9998251
   2   1   -0.9998251
   2   2    0.018702008

BLOCK NMIX
   1   1   -0.99982671
   1   2   -0.00016999275
   1   3   -0.017343469
   1   4    0.0067626258
   2   1   -0.00040101959
   2   2   -0.99870797
   2   3    0.043286191
   2   4    0.026618287
   3   1    0.017044916
   3   2   -0.011792554
   3   3   -0.70676927
   3   4    0.70714045
   4   1   -0.0074744876
   4   2    0.049429699
   4   3    0.7059056
   4   4    0.70653954

BLOCK UMIX
   1   1   -0.99805249
   1   2    0.062379663
   2   1   -0.062379663
   2   2   -0.99805249

BLOCK VMIX
   1   1    0.99925052
   1   2    0.038709181
   2   1    0.038709181
   2   2   -0.99925052

BLOCK HIGGSBOUNDSINPUTHIGGSCOUPLINGSFERMIONS
       0, 1379.8149,3,36,15,15

BLOCK HIGGSBOUNDSINPUTHIGGSCOUPLINGSBOSONS
       0,4,36,21,21,23

BLOCK SPHENOLOWENERGY
   1    0.00035303306
   2    1.5908321e-06
   3    3.5323641e-05
   4    1.2525028e-14
   5    5.3503767e-10
   6    1.109963e-07
   7    4.6506866e-13
   8    1.9866995e-08
   9    4.1712072e-06
   10    9.5394869e-05
   11    0.98539248
   12    0.54295986
   13    19.525373
   14    0
   15    0
   16    0.0021642396
   17    2.2817454e-15
   18    2.4836341e-11
   19    8.2987073e-11
   20   -1.3166311e-15
   21   -5.6289794e-11
   22   -1.2198032e-08
   23    0
   24    0
   25    0
   26    0
   27    0
   28    0
   29    0
   30    0
   31    0
   39    7.4781978e-05
   40    0
   41    0
   42    0

BLOCK FWCOEF Q=  160
   305   4422   0   0   -0.18881911
   305   4422   0   2   -0.20783531
   305   4322   0   2   -0.00054566821
   305   6421   0   0   -0.095227835
   305   6421   0   2   -0.17770745
   305   6321   0   2   -0.0013123844
   3051111   4133   0   0    1.6035091
   3051111   4133   0   2    1.6049635
   3051111   4233   0   2    0.00051526716
   3051111   4137   0   0   -4.4262012
   3051111   4137   0   2   -4.4316495
   3051111   4237   0   2   -0.003947987
   3051313   4133   0   0    1.6035091
   3051313   4133   0   2    1.6049626
   3051313   4233   0   2    0.00051526682
   3051313   4137   0   0   -4.4262012
   3051313   4137   0   2   -4.4316504
   3051313   4237   0   2   -0.0039479877
   3051212   4137   0   0    1.5053501
   3051212   4137   0   2    1.506538
   3051212   4237   0   2    0.00085817448
   3051414   4137   0   0    1.5053501
   3051414   4137   0   2    1.506538
   3051414   4237   0   2    0.00085817451
   3051616   4137   0   0    1.5053501
   3051616   4137   0   2    1.5065387
   3051616   4237   0   2    0.00085818202

BLOCK IMFWCOEF Q=  160
   305   4422   0   0    3.8550214e-07
   305   4422   0   2    0.00030394835
   305   4322   0   2   -8.332252e-06
   305   6421   0   0    3.3020808e-07
   305   6421   0   2   -0.00091889441
   305   6321   0   2   -2.1408728e-05
   3051111   4133   0   2    1.1994895e-05
   3051111   4233   0   2    9.6363251e-06
   3051111   4137   0   2   -3.2986298e-05
   3051111   4237   0   2   -7.3837517e-05
   3051313   4133   0   2    1.1994854e-05
   3051313   4233   0   2    9.6363215e-06
   3051313   4137   0   2   -3.298632e-05
   3051313   4237   0   2   -7.3837533e-05
   3051212   4137   0   2    7.2396903e-06
   3051212   4237   0   2    1.6050072e-05
   3051414   4137   0   2    7.239689e-06
   3051414   4237   0   2    1.6050072e-05
   3051616   4137   0   2    7.2515134e-06
   3051616   4237   0   2    1.6050072e-05

DECAY 23  2.4952


DECAY 24  2.085


DECAY 1000011  22.725393
    0.57276595   2   -1000024    12
    0.2869389   2    1000023    11
    0.14010468   2    1000022    11
    0.00015032051   2   -1000037    12

DECAY 2000011  19.445069
    0.99987919   2    1000022    11
    0.00010122297   2    1000025    11

DECAY 1000013  22.72653
    0.57273954   2   -1000024    14
    0.28692684   2    1000023    13
    0.14009831   2    1000022    13
    0.00015031699   2   -1000037    14

DECAY 2000013  19.477031
    0.99823576   2    1000022    13
    0.00069843102   2   -1000037    14
    0.00045210345   2    1000025    13
    0.00036898866   2    1000035    13
    0.00023559143   2    1000013    25

DECAY 1000015  12.563226
    0.97161978   2    1000022    15
    0.011990461   2   -1000037    16
    0.0061519666   2    1000025    15
    0.0060316736   2    1000035    15
    0.0028262436   2   -1000024    16
    0.0013798788   2    1000023    15

DECAY 2000015  53.583508
    0.51217378   2   -1000024    16
    0.25686912   2    1000023    15
    0.093719458   2    1000022    15
    0.040171848   2    1000035    15
    0.039989864   2    1000025    15
    0.028592068   2    1000015    25
    0.027179557   2    1000015    23
    0.001304304   2   -1000037    16

DECAY 1000012  22.720098
    0.57359035   2    1000024    11
    0.28641749   2    1000023    12
    0.13987138   2    1000022    12

DECAY 1000014  22.721283
    0.57356649   2    1000024    13
    0.28640422   2    1000023    14
    0.13986452   2    1000022    14
    0.00010142362   2    1000037    13

DECAY 1000016  53.573618
    0.51498948   2    1000024    15
    0.25679273   2    1000023    16
    0.093541732   2    1000022    16
    0.079823162   2    1000037    15
    0.054450228   2    1000015    24
    0.00034915704   2    1000035    16

DECAY 1000001  0.0018332107
    1   2    1000022    1

DECAY 2000001  95.633863
    0.98955939   2    1000021    1
    0.010440504   2    1000022    1

DECAY 1000003  0.0018331767
    1   2    1000022    3

DECAY 2000003  95.637471
    0.98952081   2    1000021    3
    0.010440115   2    1000022    3

DECAY 1000005  0.042434958
    1   2    1000022    5

DECAY 2000005  57.823669
    0.74991606   2    1000021    5
    0.15423981   2    1000005    25
    0.058209151   2    1000006   -24
    0.026646533   2    1000005    23
    0.01098806   2    1000022    5

DECAY 1000002  0.0017061782
    1   2    1000022    2

DECAY 2000002  289.95879
    0.96932573   2    1000021    2
    0.030670316   2    1000022    2

DECAY 1000004  0.001705784
    1   2    1000022    4

DECAY 2000004  289.95976
    0.96932216   2    1000021    4
    0.030670204   2    1000022    4

DECAY 1000006  0.024080472
    0.99606451   2    1000022    6
    0.0039354054   3    1000022    24    5

DECAY 2000006  371.52764
    0.32459369   2    1000021    6
    0.29979672   2    1000005    24
    0.20968588   2    1000006    25
    0.15323823   2    1000006    23
    0.012272548   2    1000022    6
    0.00021714308   2    2000005    24
    0.00012845941   2    1000024    5

DECAY 1000024  40.997606
    0.21179271   2    1000002   -1
    0.21179247   2    1000004   -3
    0.21006562   2   -1000003    4
    0.21006554   2   -1000001    2
    0.084534719   2    1000006   -5
    0.071703124   2   -1000005    6

DECAY 1000037  95.580405
    0.52203439   2   -1000005    6
    0.20420083   2    1000006   -5
    0.074245357   2   -2000005    6
    0.05801179   2    1000023    24
    0.054688917   2    1000024    23
    0.053914256   2    1000024    25
    0.020032822   2    1000022    24
    0.0024480592   3    1000023   -5    6
    0.0022726153   3    1000024    6   -6
    0.0021622151   2    2000006   -5
    0.0017909603   3    1000021   -5    6
    0.0011340206   2   -1000003    4
    0.0011224391   2   -1000001    2
    0.00094202821   3    1000022   -5    6
    0.00052497726   2    1000004   -3
    0.0004331729   2    1000002   -1

DECAY 1000022 -1


DECAY 1000023  40.664346
    0.10662295   2    1000002   -2
    0.10662295   2   -1000002    2
    0.10662251   2    1000004   -4
    0.10662251   2   -1000004    4
    0.10597715   2    1000003   -3
    0.10597715   2   -1000003    3
    0.10597695   2    1000001   -1
    0.10597695   2   -1000001    1
    0.037918359   2    1000005   -5
    0.037918359   2   -1000005    5
    0.036839411   2    1000006   -6
    0.036839411   2   -1000006    6

DECAY 1000025  98.998371
    0.24932972   2    1000006   -6
    0.24932972   2   -1000006    6
    0.0951018   2    1000005   -5
    0.0951018   2   -1000005    5
    0.054994251   2    1000023    25
    0.052773234   2    1000024   -24
    0.052773234   2   -1000024    24
    0.048679817   2    1000023    23
    0.037755877   2    2000005   -5
    0.037755877   2   -2000005    5
    0.015978294   2    1000022    25
    0.0031321871   2    1000022    23
    0.0019073005   3    1000024    5   -6
    0.0019073005   3   -1000024   -5    6
    0.0011857834   3    1000023    6   -6
    0.00089363001   3    1000021    6   -6
    0.00055201118   3    1000022    6   -6
    0.00055020504   3    1000021    5   -5

DECAY 1000035  94.595597
    0.26070202   2    1000006   -6
    0.26070202   2   -1000006    6
    0.09924887   2    1000005   -5
    0.09924887   2   -1000005    5
    0.051572382   2    1000023    25
    0.051514047   2    1000024   -24
    0.051514047   2   -1000024    24
    0.039690389   2    2000005   -5
    0.039690389   2   -2000005    5
    0.017028482   2    1000022    23
    0.01510305   2    1000022    25
    0.0028902568   2    1000023    23
    0.0024437938   3    1000024    5   -6
    0.0024437938   3   -1000024   -5    6
    0.0011383208   3    1000023    6   -6
    0.00094428175   3    1000021    6   -6
    0.00057378334   3    1000021    5   -5
    0.0005588599   3    1000022    6   -6
    0.00042178778   2    1000003   -3
    0.00042178778   2   -1000003    3
    0.00037550847   2    1000001   -1
    0.00037550847   2   -1000001    1
    0.00034365391   2    1000004   -4
    0.00034365391   2   -1000004    4
    0.00033758518   2    1000002   -2
    0.00033758518   2   -1000002    2

DECAY 1000021  27.645788
    0.12563324   2    1000002   -2
    0.12563324   2   -1000002    2
    0.12563198   2    1000004   -4
    0.12563198   2   -1000004    4
    0.12399014   2    1000003   -3
    0.12399014   2   -1000003    3
    0.12399007   2    1000001   -1
    0.12399007   2   -1000001    1
    0.00075411448   2    1000005   -5
    0.00075411448   2   -1000005    5

DECAY 25  0.003923048
    0.56723084   2   -5    5
    0.23529896   2   -24    24
    0.071445205   2    21    21
    0.064937372   2   -15    15
    0.02870242   2    23    23
    0.028055045   2   -4    4
    0.0023573363   2    22    22
    0.0015351243   2    22    23
    0.00022521446   2   -13    13
    0.00021174152   2   -3    3
    5.8544016e-07   2   -1    1
    1.4457437e-07   2   -2    2
    5.0630661e-09   2   -11    11

DECAY 35  44.478283
    0.575981   2   -5    5
    0.2193646   2   -15    15
    0.070783401   2   -2000005    1000005
    0.070783401   2   -1000005    2000005
    0.056782148   2   -1000006    1000006
    0.0047820452   2   -1000005    1000005
    0.00072894145   2   -13    13
    0.00029224   2    1000022    1000023
    0.00021608193   2   -6    6
    0.00018240658   2   -3    3
    7.1565544e-05   2    25    25
    2.6383679e-05   2    1000022    1000022
    2.8916479e-06   2    21    21
    6.3557406e-07   2   -1000001    1000001
    6.3508995e-07   2   -1000003    1000003
    5.0439453e-07   2   -1    1
    4.3374206e-07   2   -1000002    1000002
    4.3339042e-07   2   -1000004    1000004
    1.048131e-07   2    22    23
    7.6912859e-08   2    23    23
    2.9038446e-08   2    22    22
    1.8330575e-08   2   -24    24
    1.6370518e-08   2   -11    11
    1.9112933e-09   2   -4    4
    9.8128741e-15   2   -2    2

DECAY 36  40.527973
    0.60736685   2   -5    5
    0.23031905   2   -15    15
    0.079850678   2   -2000005    1000005
    0.079850678   2   -1000005    2000005
    0.0014916406   2   -6    6
    0.00076533258   2   -13    13
    0.00019145163   2   -3    3
    0.0001066034   2    1000022    1000023
    4.8755117e-05   2    1000022    1000022
    8.0488339e-06   2    21    21
    5.2940821e-07   2   -1    1
    1.605322e-07   2    23    25
    1.2412755e-07   2    22    23
    6.2639198e-08   2    22    22
    1.718794e-08   2   -11    11
    1.6641744e-08   2   -4    4
    8.5719444e-14   2   -2    2
    1.275557e-36   2    25    25

DECAY 37  32.858067
    0.48372618   2   -5    6
    0.32851895   2   -15    16
    0.14792365   2   -2000005    1000006
    0.035980159   2   -1000005    1000006
    0.0011614315   2   -13    14
    0.0011323533   2   -2000005    1000004
    0.00071326547   2   -5    4
    0.00052863906   2    1000022    1000024
    0.00023991665   2   -3    4
    3.4433857e-05   2   -1000003    1000006
    1.1259092e-05   2   -3    2
    8.0861751e-06   2   -2000005    1000002
    6.5572404e-06   2   -1000005    1000004
    5.0934507e-06   2   -5    2
    4.4215978e-06   2   -3    6
    1.5792975e-06   2   -1000001    1000006
    1.3623333e-06   2   -1000001    1000002
    1.3593838e-06   2   -1000003    1000004
    6.6600471e-07   2   -1    2
    1.9842399e-07   2    24    25
    1.864366e-07   2   -1    6
    7.2819626e-08   2   -1000003    1000002
    7.2756678e-08   2   -1000001    1000004
    4.6825507e-08   2   -1000005    1000002
    3.2868668e-08   2   -1    4
    2.7166004e-08   2   -11    12
    8.1594067e-12   2    24    35
    1.4260272e-12   2    24    36

DECAY 6  2.43
    1   2    5    24

DECAY 15 -1
