BLOCK SPINFO
   1   SPheno
   2   v4.0.5be

BLOCK SPHENOINFO
   1   2
   2   2

BLOCK MODSEL
   1   0

BLOCK MINPAR
   3    15.028571
   4   -1

BLOCK EXTPAR
   0    3471.6679
   1    3514.0494
   2    422.5617
   3    2160.5611
   11   -4205.5748
   12   -4225.3058
   13    6867.7043
   23   -259.71543
   25    14.340985
   26    954.66043
   31    526.60071
   32    526.60071
   33    2451.104
   34    3215.7513
   35    3215.7513
   36    899.19192
   41    4271.0213
   42    4271.0213
   43    4133.655
   44    2495.8415
   45    2495.8415
   46    2877.3689
   47    3572.2411
   48    3572.2411
   49    1204.0313

BLOCK SMINPUTS
   1    127.90897
   2    1.1663787e-05
   3    0.1184
   4    91.1876
   5    4.18
   6    173.2
   7    1.777
   8    0
   11    0.00051099893
   12    0
   13    0.10565837
   14    0
   21    0.005
   22    0.0025
   23    0.095
   24    1.27

BLOCK GAUGE Q=  3471.6679
   1    0.35536298
   2    0.66519887
   3    1.219778

BLOCK YU Q=  3471.6679
   1   1    8.4047311e-06
   2   2    0.0042696034
   3   3    1.015359

BLOCK YD Q=  3471.6679
   1   1    0.00024220498
   2   2    0.0046018945
   3   3    0.24019144

BLOCK YE Q=  3471.6679
   1   1    4.2266539e-05
   2   2    0.0087393798
   3   3    0.14698199

BLOCK AU Q=  3471.6679
   1   1    0
   2   2    0
   3   3   -4205.5786

BLOCK AD Q=  3471.6679
   1   1    0
   2   2    0
   3   3   -4225.3

BLOCK AE Q=  3471.6679
   1   1    0
   2   2    0
   3   3    6867.7032

BLOCK MSOFT Q=  3471.6679
   1    3514.0494
   2    422.5617
   3    2160.5611
   21    849301.37
   22    186117.22
   31    526.60071
   32    526.60071
   33    2451.104
   34    3215.7513
   35    3215.7513
   36    899.19192
   41    4271.0213
   42    4271.0213
   43    4133.655
   44    2495.8415
   45    2495.8415
   46    2877.3689
   47    3572.2411
   48    3572.2411
   49    1204.0313

BLOCK MASS
   6    173.2
   23    91.1876
   24    80.429995
   15    1.777
   25    124.0348
   35    954.6804
   36    954.66043
   37    958.26162
   1000001    4343.7894
   2000001    3641.4835
   1000002    4343.1147
   2000002    2600.3376
   1000003    4343.7885
   2000003    3641.4825
   1000004    4343.1139
   2000004    2600.3369
   1000005    1368.3206
   2000005    4158.5275
   1000006    2893.5459
   2000006    4165.2969
   1000011    548.58477
   2000011    3227.8764
   1000012    542.31116
   1000013    548.57763
   2000013    3227.8722
   1000014    542.3087
   1000015    911.93462
   2000015    2454.7162
   1000016    2453.0457
   1000021    2449.3707
   1000022    259.36945
   1000023   -278.69975
   1000025    468.23111
   1000035    3454.6155
   1000024    264.37397
   1000037    468.58152

BLOCK ALPHA
      -0.068054229

BLOCK HMIX Q=  3471.6679
   1   -259.71543
   2    14.340985
   3    243.07242
   4    911376.54

BLOCK STOPMIX
   1   1    0.067699502
   1   2    0.99770576
   2   1   -0.99770576
   2   2    0.067699502

BLOCK SBOTMIX
   1   1    0.00010742145
   1   2    0.99999999
   2   1   -0.99999999
   2   2    0.00010742145

BLOCK STAUMIX
   1   1   -0.0036649387
   1   2    0.99999328
   2   1   -0.99999328
   2   2   -0.0036649387

BLOCK NMIX
   1   1    0.00861484
   1   2   -0.25586416
   1   3   -0.70401555
   1   4   -0.66243597
   2   1    0.0090577641
   2   2   -0.083075567
   2   3    0.69878159
   2   4   -0.71043698
   3   1   -0.0034159629
   3   2   -0.96313647
   3   3    0.12675318
   3   4    0.23725533
   4   1    0.99991603
   4   2   -0.00033335873
   4   3    0.00016858087
   4   4    0.012953294

BLOCK UMIX
   1   1   -0.18420662
   1   2   -0.98288754
   2   1    0.98288754
   2   2   -0.18420662

BLOCK VMIX
   1   1   -0.34340948
   1   2    0.93918578
   2   1    0.93918578
   2   2    0.34340948

BLOCK HIGGSBOUNDSINPUTHIGGSCOUPLINGSFERMIONS
       0, 205.66386,3,36,15,15

BLOCK HIGGSBOUNDSINPUTHIGGSCOUPLINGSBOSONS
       0,4,36,21,21,23

BLOCK SPHENOLOWENERGY
   1    0.00036448004
   2    1.5871551e-06
   3    3.5251911e-05
   4    2.3395039e-15
   5    9.9941007e-11
   6    2.0924662e-08
   7    7.9095863e-14
   8    3.3789747e-09
   9    7.1681541e-07
   10    9.5287237e-05
   11    0.98428068
   12    0.54251063
   13    19.377217
   14    0
   15    0
   16    0.0021596423
   17    2.2816841e-15
   18    2.4798901e-11
   19    8.290109e-11
   20   -4.0601514e-15
   21   -1.7358811e-10
   22   -1.3184352e-08
   23    0
   24    0
   25    0
   26    0
   27    0
   28    0
   29    0
   30    0
   31    0
   39    3.7251422e-05
   40    0
   41    0
   42    0

BLOCK FWCOEF Q=  160
   305   4422   0   0   -0.18881911
   305   4422   0   2   -0.23379383
   305   4322   0   2   -0.00088216531
   305   6421   0   0   -0.095227835
   305   6421   0   2   -0.14247046
   305   6321   0   2   -0.00092950267
   3051111   4133   0   0    1.6213377
   3051111   4133   0   2    1.6216645
   3051111   4233   0   2    9.5415634e-06
   3051111   4137   0   0   -4.4440298
   3051111   4137   0   2   -4.4421979
   3051111   4237   0   2   -6.8633914e-05
   3051313   4133   0   0    1.6213377
   3051313   4133   0   2    1.6216641
   3051313   4233   0   2    9.5412303e-06
   3051313   4137   0   0   -4.4440298
   3051313   4137   0   2   -4.4421984
   3051313   4237   0   2   -6.8633615e-05
   3051212   4137   0   0    1.5053501
   3051212   4137   0   2    1.5049748
   3051212   4237   0   2    1.4861374e-05
   3051414   4137   0   0    1.5053501
   3051414   4137   0   2    1.5049748
   3051414   4237   0   2    1.4861445e-05
   3051616   4137   0   0    1.5053501
   3051616   4137   0   2    1.5049735
   3051616   4237   0   2    1.4880896e-05

BLOCK IMFWCOEF Q=  160
   305   4422   0   0    3.8581825e-07
   305   4422   0   2   -7.6011208e-06
   305   4322   0   2   -2.3468224e-06
   305   6421   0   0    3.3047885e-07
   305   6421   0   2    1.1787446e-05
   305   6321   0   2   -9.0179476e-07
   3051111   4133   0   2   -7.0610267e-07
   3051111   4233   0   2    7.4148018e-07
   3051111   4137   0   2    3.4409832e-06
   3051111   4237   0   2   -5.4872283e-06
   3051313   4133   0   2   -7.0612982e-07
   3051313   4233   0   2    7.4148008e-07
   3051313   4137   0   2    3.441001e-06
   3051313   4237   0   2   -5.4872288e-06
   3051212   4137   0   2   -3.6006482e-07
   3051212   4237   0   2    1.1880146e-06
   3051414   4137   0   2   -3.6006453e-07
   3051414   4237   0   2    1.1880146e-06
   3051616   4137   0   2   -3.8426406e-07
   3051616   4237   0   2    1.1880053e-06

DECAY 23  2.4952


DECAY 24  2.085


DECAY 1000011  0.70347629
    0.48490788   2   -1000037    12
    0.23557992   2    1000025    11
    0.13730333   2   -1000024    12
    0.13064476   2    1000022    11
    0.011564088   2    1000023    11

DECAY 2000011  0.0026806838
    0.48903128   2    1000023    11
    0.44326602   2    1000022    11
    0.067660384   2    1000025    11

DECAY 1000013  0.70386752
    0.48456401   2   -1000037    14
    0.23541282   2    1000025    13
    0.13722307   2   -1000024    14
    0.13092551   2    1000022    13
    0.011874558   2    1000023    13

DECAY 2000013  0.012364892
    0.37807569   2   -1000024    14
    0.29682463   2    1000023    13
    0.29016468   2    1000022    13
    0.020776152   2    1000025    13
    0.012898167   2   -1000037    14
    0.0012391063   2    1000013    25

DECAY 1000015  0.65145975
    0.4906602   2   -1000024    16
    0.25455875   2    1000022    15
    0.2411963   2    1000023    15
    0.0091870859   2   -1000037    16
    0.0043976614   2    1000025    15

DECAY 2000015  36.591312
    0.52984451   2   -1000037    16
    0.25579866   2    1000025    15
    0.072554471   2    1000015    35
    0.072534769   2    1000015    36
    0.032084072   2    1000022    15
    0.019407333   2   -1000024    16
    0.015518008   2    1000023    15
    0.0011755267   2    1000015    23
    0.0010826559   2    1000015    25

DECAY 1000012  0.8468903
    0.38635484   2    1000024    11
    0.31934321   2    1000037    11
    0.16876029   2    1000025    12
    0.11374451   2    1000022    12
    0.011797142   2    1000023    12

DECAY 1000014  0.84733035
    0.38670344   2    1000024    13
    0.31915843   2    1000037    13
    0.16866293   2    1000025    14
    0.11368431   2    1000022    14
    0.011790885   2    1000023    14

DECAY 1000016  36.639303
    0.48351706   2    1000037    15
    0.25284403   2    1000025    16
    0.14445695   2    1000015    37
    0.095069907   2    1000024    15
    0.019547886   2    1000022    16
    0.0023449668   2    1000015    24
    0.0022192025   2    1000023    16

DECAY 2000001  86.202667
    0.99976019   2    1000021    1
    0.0002357993   2    1000035    1

DECAY 1000001  215.65018
    0.73960527   2    1000021    1
    0.16733736   2   -1000037    2
    0.080241206   2    1000025    1
    0.0059722659   2   -1000024    2
    0.0058321913   2    1000022    1
    0.000630661   2    1000023    1
    0.00038105053   2    1000035    1

DECAY 2000003  86.20559
    0.99972511   2    1000021    3
    0.00023578881   2    1000035    3

DECAY 1000003  215.65345
    0.73959362   2    1000021    3
    0.16733565   2   -1000037    4
    0.080240104   2    1000025    3
    0.0059785533   2   -1000024    4
    0.0058362683   2    1000022    3
    0.00063474899   2    1000023    3
    0.00038104412   2    1000035    3

DECAY 1000005  2.8453495
    0.47714198   2   -1000024    6
    0.25423921   2    1000022    5
    0.24763727   2    1000023    5
    0.01404396   2   -1000037    6
    0.0069375728   2    1000025    5

DECAY 2000005  317.78377
    0.44055299   2    1000021    5
    0.23755766   2   -1000024    6
    0.13993448   2   -1000037    6
    0.096264709   2    1000006   -24
    0.052250962   2    1000025    5
    0.011175378   2    1000022    5
    0.0076767019   2    1000023    5
    0.0064224128   2    1000005    35
    0.0064222792   2    1000005    36
    0.001565472   2    1000006   -37
    0.00017601794   2    1000035    5

DECAY 2000002  2.6099117
    0.99963546   2    1000021    2
    0.00017837508   2    1000023    2
    0.00016185909   2    1000022    2

DECAY 1000002  215.62377
    0.73936673   2    1000021    2
    0.15278152   2    1000037    1
    0.080440946   2    1000025    2
    0.020755749   2    1000024    1
    0.0056937711   2    1000022    2
    0.00058349948   2    1000023    2
    0.00037779078   2    1000035    2

DECAY 2000004  2.6116082
    0.99893151   2    1000021    4
    0.00035630759   2    1000023    4
    0.00031703934   2    1000022    4
    0.00031196425   2    1000024    3

DECAY 1000004  215.62697
    0.739355   2    1000021    4
    0.15277949   2    1000037    3
    0.080440146   2    1000025    4
    0.020763557   2    1000024    3
    0.0056968564   2    1000022    4
    0.00058714325   2    1000023    4
    0.00037778347   2    1000035    4

DECAY 1000006  133.31806
    0.39706637   2    1000024    5
    0.22025312   2    1000023    6
    0.19524234   2    1000022    6
    0.13117847   2    1000021    6
    0.038239168   2    1000037    5
    0.017927216   2    1000025    6

DECAY 2000006  322.81938
    0.42798183   2    1000021    6
    0.1312845   2    1000023    6
    0.1154883   2    1000022    6
    0.10520942   2    1000037    5
    0.069680053   2    1000025    6
    0.067341912   2    1000006    25
    0.047748067   2    1000006    23
    0.020923727   2    1000024    5
    0.01263745   2    1000005    37
    0.00078606778   2    1000006    36
    0.00075404215   2    1000006    35
    0.00016339231   2    1000035    6

DECAY 1000024  4.2207412e-09
    0.3870056   3    1000022   -1    2
    0.28376542   3    1000022   -3    4
    0.12945967   3    1000022   -11    12
    0.12917133   3    1000022   -13    14
    0.070597981   3    1000022   -15    16

DECAY 1000037  2.5206133
    0.34089172   2    1000023    24
    0.24754167   2    1000022    24
    0.2312594   2    1000024    23
    0.18027146   2    1000024    25

DECAY 1000022 -1


DECAY 1000023  1.3217082e-05
    0.12575881   3    1000022    12   -12
    0.093951925   3    1000022    1   -1
    0.093926006   3    1000022    3   -3
    0.087401054   2    1000022    22
    0.073276535   3    1000022    2   -2
    0.069221315   3    1000022    4   -4
    0.058020683   3    1000024    1   -2
    0.058020683   3   -1000024   -1    2
    0.055841653   3    1000024    3   -4
    0.055841653   3   -1000024   -3    4
    0.054282978   3    1000022    5   -5
    0.021176324   3    1000022    11   -11
    0.021167267   3    1000022    13   -13
    0.019349741   3    1000024    11   -12
    0.019349741   3   -1000024   -11    12
    0.019344604   3    1000024    13   -14
    0.019344604   3   -1000024   -13    14
    0.018786242   3    1000022    15   -15
    0.017969092   3    1000024    15   -16
    0.017969092   3   -1000024   -15    16

DECAY 1000025  3.216604
    0.24233607   2    1000023    23
    0.21533855   2    1000024   -24
    0.21533855   2   -1000024    24
    0.19077883   2    1000023    25
    0.11589777   2    1000022    25
    0.020247448   2    1000022    23

DECAY 1000035  66.304997
    0.11326979   2    1000015   -15
    0.11326979   2   -1000015    15
    0.032780442   2    2000004   -4
    0.032780442   2   -2000004    4
    0.032780439   2    2000002   -2
    0.032780439   2   -2000002    2
    0.031164784   2    1000014   -14
    0.031164784   2   -1000014    14
    0.031164769   2    1000012   -12
    0.031164769   2   -1000012    12
    0.031050569   2    1000013   -13
    0.031050569   2   -1000013    13
    0.031050527   2    1000011   -11
    0.031050527   2   -1000011    11
    0.031010575   2    1000005   -5
    0.031010575   2   -1000005    5
    0.029948903   2    1000024   -24
    0.029948903   2   -1000024    24
    0.027428867   2    37   -1000024
    0.027428867   2   -37    1000024
    0.021567424   2    1000023    25
    0.018091541   2    1000022    35
    0.01802561   2    1000023    23
    0.014897475   2    1000022    23
    0.014248148   2    1000006   -6
    0.014248148   2   -1000006    6
    0.013826376   2    1000022    25
    0.013797279   2    1000023    35
    0.012852576   2    1000023    36
    0.010090665   2    1000022    36
    0.0080525175   2    1000016   -16
    0.0080525175   2   -1000016    16
    0.00801027   2    2000015   -15
    0.00801027   2   -2000015    15
    0.0048347768   2    1000037   -24
    0.0048347768   2   -1000037    24
    0.0026126176   2    1000025    25
    0.0021096056   2    2000013   -13
    0.0021096056   2   -2000013    13
    0.0021095305   2    2000011   -11
    0.0021095305   2   -2000011    11
    0.0018647439   2    1000025    23
    0.0017026504   3    1000024    5   -6
    0.0017026504   3   -1000024   -5    6
    0.0016820038   3    1000023    6   -6
    0.001402532   3    1000022    6   -6
    0.0010368916   2    37   -1000037
    0.0010368916   2   -37    1000037
    0.00074838273   2    1000025    35
    0.00026841022   3    1000037    5   -6
    0.00026841022   3   -1000037   -5    6
    0.00023396481   2    1000025    36
    0.00020639849   3    1000025    6   -6

DECAY 1000021  34.445446
    0.49803226   2    1000005   -5
    0.49803226   2   -1000005    5
    0.00080658796   3    1000023    6   -6
    0.00073868266   3    1000024    5   -6
    0.00073868266   3   -1000024   -5    6
    0.00070118266   3    1000022    6   -6
    0.00017477839   3    1000037    5   -6
    0.00017477839   3   -1000037   -5    6
    0.00012957378   3    1000025    6   -6

DECAY 25  0.0038719754
    0.59717282   2   -5    5
    0.20661749   2   -24    24
    0.070926965   2    21    21
    0.068483737   2   -15    15
    0.028178972   2   -4    4
    0.024534255   2    23    23
    0.0022556908   2    22    22
    0.0013680722   2    22    23
    0.00023723452   2   -13    13
    0.00022399584   2   -3    3
    6.1932436e-07   2   -1    1
    1.4521586e-07   2   -2    2
    5.3333079e-09   2   -11    11

DECAY 35  9.2088187
    0.3189084   2   -5    5
    0.16872575   2   -1000024    1000037
    0.16872575   2   -1000037    1000024
    0.10821921   2    1000023    1000025
    0.072656957   2   -1000024    1000024
    0.062309132   2    1000022    1000025
    0.049457826   2   -15    15
    0.023224337   2    1000022    1000022
    0.017875508   2   -6    6
    0.0044203402   2    1000022    1000023
    0.0018733809   2   -1000037    1000037
    0.0017649276   2    1000023    1000023
    0.00094801564   2    1000025    1000025
    0.00045911029   2    25    25
    0.00016697762   2   -13    13
    0.00012039645   2   -3    3
    7.1163548e-05   2   -24    24
    5.0407911e-05   2    23    23
    1.9779178e-05   2    21    21
    1.6607348e-06   2    22    23
    3.6046417e-07   2    22    22
    3.3286658e-07   2   -1    1
    2.8199069e-07   2   -4    4
    3.7515439e-09   2   -11    11
    1.4541119e-12   2   -2    2

DECAY 36  9.1435215
    0.31560774   2   -5    5
    0.15884834   2   -1000024    1000037
    0.15884834   2   -1000037    1000024
    0.098426511   2    1000022    1000025
    0.087617955   2   -1000024    1000024
    0.065856027   2    1000023    1000025
    0.048944532   2   -15    15
    0.024655724   2    1000022    1000022
    0.019516766   2   -6    6
    0.0081767216   2   -1000037    1000037
    0.0054934204   2    1000022    1000023
    0.0041776644   2    1000025    1000025
    0.0033880483   2    1000023    1000023
    0.00016524392   2   -13    13
    0.00011914516   2   -3    3
    8.0306284e-05   2    21    21
    7.4925117e-05   2    23    25
    1.7619255e-06   2    22    23
    3.2940708e-07   2   -1    1
    2.6532154e-07   2   -4    4
    2.219984e-07   2    22    22
    3.71259e-09   2   -11    11
    1.3685778e-12   2   -2    2
    4.0268842e-39   2    25    25

DECAY 37  8.6772645
    0.31520369   2   -5    6
    0.22485903   2    1000022    1000037
    0.20096948   2    1000024    1000025
    0.18197514   2    1000023    1000037
    0.049880309   2   -15    16
    0.024719402   2    1000023    1000024
    0.0015283487   2    1000022    1000024
    0.00045689986   2   -5    4
    0.00017634578   2   -13    14
    0.00011117451   2   -3    4
    8.0412191e-05   2    24    25
    2.9619559e-05   2   -3    6
    5.1194774e-06   2   -3    2
    3.2627439e-06   2   -5    2
    1.3515039e-06   2   -1    6
    3.0770576e-07   2   -1    2
    7.5129138e-08   2    1000025    1000037
    2.7278037e-08   2   -1    4
    4.1247463e-09   2   -11    12
    9.4641418e-11   2    24    36
    9.2047477e-11   2    24    35

DECAY 6  2.43
    1   2    5    24

DECAY 15 -1
