BLOCK SPINFO
   1   SPheno
   2   v4.0.5be

BLOCK SPHENOINFO
   1   2
   2   2

BLOCK MODSEL
   1   0

BLOCK MINPAR
   3    16.355488
   4   -1

BLOCK EXTPAR
   0    3074.0443
   1    715.01526
   2   -3157.6987
   3    2622.3988
   11   -5180.4801
   12    5540.0963
   13    3940.315
   23   -4882.6064
   25    15.69569
   26    4966.1031
   31    3300.4604
   32    3300.4604
   33    3263.522
   34    4044.8512
   35    4044.8512
   36    2607.0003
   41    3744.2618
   42    3744.2618
   43    3049.2374
   44    410.58212
   45    410.58212
   46    2973.4426
   47    4879.6885
   48    4879.6885
   49    1147.6983

BLOCK SMINPUTS
   1    127.90897
   2    1.1663787e-05
   3    0.1184
   4    91.1876
   5    4.18
   6    173.2
   7    1.777
   8    0
   11    0.00051099893
   12    0
   13    0.10565837
   14    0
   21    0.005
   22    0.0025
   23    0.095
   24    1.27

BLOCK GAUGE Q=  3074.0443
   1    0.35536298
   2    0.66519887
   3    1.219778

BLOCK YU Q=  3074.0443
   1   1    8.4013718e-06
   2   2    0.0042678969
   3   3    1.0149532

BLOCK YD Q=  3074.0443
   1   1    0.00026497863
   2   2    0.005034594
   3   3    0.26277577

BLOCK YE Q=  3074.0443
   1   1    4.6240709e-05
   2   2    0.0095611121
   3   3    0.16080218

BLOCK AU Q=  3074.0443
   1   1    0
   2   2    0
   3   3   -5180.48

BLOCK AD Q=  3074.0443
   1   1    0
   2   2    0
   3   3    5540.095

BLOCK AE Q=  3074.0443
   1   1    0
   2   2    0
   3   3    3940.315

BLOCK MSOFT Q=  3074.0443
   1    715.01526
   2   -3157.6987
   3    2622.3988
   21    875509.05
   22   -23448394
   31    3300.4604
   32    3300.4604
   33    3263.522
   34    4044.8512
   35    4044.8512
   36    2607.0003
   41    3744.2618
   42    3744.2618
   43    3049.2374
   44    410.58212
   45    410.58212
   46    2973.4426
   47    4879.6885
   48    4879.6885
   49    1147.6983

BLOCK MASS
   6    173.2
   23    91.1876
   24    80.429995
   15    1.777
   25    123.20222
   35    4965.5592
   36    4966.1031
   37    4967.2508
   1000001    3839.5556
   2000001    4939.9563
   1000002    3838.7333
   2000002    721.18781
   1000003    3839.5553
   2000003    4939.955
   1000004    3838.7332
   2000004    721.18932
   1000005    1311.2017
   2000005    3132.9183
   1000006    2953.5784
   2000006    3199.4235
   1000011    3323.3719
   2000011    4048.0867
   1000012    3322.025
   1000013    3323.3679
   2000013    4048.0803
   1000014    3322.0228
   1000015    2606.227
   2000015    3285.8249
   1000016    3283.6259
   1000021    2868.7081
   1000022    705.5089
   1000023   -3199.2803
   1000025    4844.6268
   1000035   -4846.2272
   1000024    3199.3402
   1000037    4846.6909

BLOCK ALPHA
      -0.061137471

BLOCK HMIX Q=  3074.0443
   1   -4882.6064
   2    15.69569
   3    243.22245
   4    24662180

BLOCK STOPMIX
   1   1    0.53087828
   1   2    0.84744808
   2   1   -0.84744808
   2   2    0.53087828

BLOCK SBOTMIX
   1   1   -0.03271757
   1   2    0.99946464
   2   1   -0.99946464
   2   2   -0.03271757

BLOCK STAUMIX
   1   1   -0.036495152
   1   2    0.99933383
   2   1   -0.99933383
   2   2   -0.036495152

BLOCK NMIX
   1   1    0.99995642
   1   2    1.2711916e-05
   1   3   -0.0092974526
   1   4   -0.00084506676
   2   1    0.00023568297
   2   2    0.99940502
   2   3    0.028482394
   2   4   -0.019450121
   3   1    0.007171611
   3   2   -0.0063903005
   3   3    0.70703913
   3   4    0.70710918
   4   1    0.0059723841
   4   2   -0.03389356
   4   3    0.70653944
   4   4   -0.70683632

BLOCK UMIX
   1   1   -0.99917993
   1   2   -0.040490325
   2   1   -0.040490325
   2   2    0.99917993

BLOCK VMIX
   1   1    0.99962038
   1   2    0.027551549
   2   1    0.027551549
   2   2   -0.99962038

BLOCK HIGGSBOUNDSINPUTHIGGSCOUPLINGSFERMIONS
       0, 246.35467,3,36,15,15

BLOCK HIGGSBOUNDSINPUTHIGGSCOUPLINGSBOSONS
       0,4,36,21,21,23

BLOCK SPHENOLOWENERGY
   1    0.00032596647
   2    1.5898915e-06
   3    3.5261091e-05
   4    2.5074219e-15
   5    1.0711434e-10
   6    2.2430714e-08
   7    8.5313711e-14
   8    3.6446031e-09
   9    7.7329494e-07
   10    9.672894e-05
   11    0.99917292
   12    0.54196973
   13    19.364343
   14    0
   15    0
   16    0.0021571888
   17    2.2816569e-15
   18    2.480849e-11
   19    8.2920149e-11
   20    2.7592126e-16
   21    1.1796388e-11
   22    2.8420548e-09
   23    0
   24    0
   25    0
   26    0
   27    0
   28    0
   29    0
   30    0
   31    0
   39    2.4407053e-05
   40    0
   41    0
   42    0

BLOCK FWCOEF Q=  160
   305   4422   0   0   -0.18881911
   305   4422   0   2   -0.19545467
   305   4322   0   2   -0.00012303709
   305   6421   0   0   -0.095227835
   305   6421   0   2   -0.10047024
   305   6321   0   2   -9.4278551e-05
   3051111   4133   0   0    1.6171042
   3051111   4133   0   2    1.6171299
   3051111   4233   0   2    2.0747878e-05
   3051111   4137   0   0   -4.4397963
   3051111   4137   0   2   -4.4389674
   3051111   4237   0   2   -0.00015386663
   3051313   4133   0   0    1.6171042
   3051313   4133   0   2    1.6171298
   3051313   4233   0   2    2.0747875e-05
   3051313   4137   0   0   -4.4397963
   3051313   4137   0   2   -4.4389675
   3051313   4237   0   2   -0.00015386663
   3051212   4137   0   0    1.5053501
   3051212   4137   0   2    1.5051711
   3051212   4237   0   2    3.3341021e-05
   3051414   4137   0   0    1.5053501
   3051414   4137   0   2    1.5051711
   3051414   4237   0   2    3.3341021e-05
   3051616   4137   0   0    1.5053501
   3051616   4137   0   2    1.5051711
   3051616   4237   0   2    3.3341099e-05

BLOCK IMFWCOEF Q=  160
   305   4422   0   0    3.857703e-07
   305   4422   0   2   -5.6156093e-06
   305   4322   0   2   -1.2308774e-06
   305   6421   0   0    3.3043777e-07
   305   6421   0   2    1.9697348e-05
   305   6321   0   2   -3.7044098e-07
   3051111   4133   0   2   -9.9865408e-07
   3051111   4233   0   2    4.2417526e-07
   3051111   4137   0   2    8.4818386e-06
   3051111   4237   0   2   -3.1506997e-06
   3051313   4133   0   2   -9.9865345e-07
   3051313   4233   0   2    4.2417523e-07
   3051313   4137   0   2    8.4818395e-06
   3051313   4237   0   2   -3.1506998e-06
   3051212   4137   0   2   -1.8268511e-06
   3051212   4237   0   2    6.8272495e-07
   3051414   4137   0   2   -1.8268511e-06
   3051414   4237   0   2    6.8272495e-07
   3051616   4137   0   2   -1.8268805e-06
   3051616   4237   0   2    6.8272484e-07

DECAY 23  2.4952


DECAY 24  2.085


DECAY 1000011  4.0419387
    0.9418103   2    1000022    11
    0.038771794   2   -1000024    12
    0.019417908   2    1000023    11

DECAY 2000011  19.121623
    0.99999999   2    1000022    11

DECAY 1000013  4.0419194
    0.94181357   2    1000022    13
    0.038769601   2   -1000024    14
    0.019416828   2    1000023    13

DECAY 2000013  19.123305
    0.99991025   2    1000022    13

DECAY 1000015  11.235385
    1   2    1000022    15

DECAY 2000015  5.4248395
    0.69480384   2    1000022    15
    0.14684963   2    1000015    23
    0.1368255   2    1000015    25
    0.01433613   2   -1000024    16
    0.0071849058   2    1000023    15

DECAY 1000012  4.0349443
    0.94289858   2    1000022    12
    0.038064123   2    1000024    11
    0.019037298   2    1000023    12

DECAY 1000014  4.0349329
    0.94290047   2    1000022    14
    0.038062846   2    1000024    13
    0.01903668   2    1000023    14

DECAY 1000016  5.4544093
    0.68792312   2    1000022    16
    0.29167879   2    1000015    24
    0.013593015   2    1000024    15
    0.0068050728   2    1000023    16

DECAY 1000001  64.378688
    0.91875079   2    1000021    1
    0.048977532   2   -1000024    2
    0.024501911   2    1000023    1
    0.0077697699   2    1000022    1

DECAY 2000001  173.92725
    0.9847847   2    1000021    1
    0.015215287   2    1000022    1

DECAY 1000003  64.378639
    0.91875096   2    1000021    3
    0.048977351   2   -1000024    4
    0.024501913   2    1000023    3
    0.0077697776   2    1000022    3

DECAY 2000003  173.92759
    0.98478195   2    1000021    3
    0.015215253   2    1000022    3

DECAY 1000005  0.36990293
    1   2    1000022    5

DECAY 2000005  23.756932
    0.2719195   2    1000021    5
    0.26307987   2    1000005    23
    0.24343616   2    1000006   -24
    0.2050101   2    1000005    25
    0.016554379   2    1000022    5

DECAY 2000002  0.0029786246
    1   2    1000022    2

DECAY 1000002  64.294849
    0.91875612   2    1000021    2
    0.048978657   2    1000024    1
    0.024485004   2    1000023    2
    0.0077802237   2    1000022    2

DECAY 2000004  0.0029669721
    1   2    1000022    4

DECAY 1000004  64.294757
    0.91875602   2    1000021    4
    0.048978705   2    1000024    3
    0.02448498   2    1000023    4
    0.0077802326   2    1000022    4

DECAY 1000006  7.1440832
    0.60608865   2    1000022    6
    0.38162731   2    1000005    24
    0.0082437191   2    1000021    4
    0.0040403257   2    1000022    4

DECAY 2000006  24.035051
    0.4092363   2    1000005    24
    0.24242367   2    1000006    23
    0.18534511   2    1000021    6
    0.085353468   2    1000022    6
    0.077641462   2    1000006    25

DECAY 1000024  0.31145416
    0.72606327   2    1000006   -5
    0.22398145   2   -1000005    6
    0.012282563   3    1000022   -5    6
    0.010943413   2   -1000015    16
    0.0076201284   3    1000022   -15    16
    0.0065322543   3    1000022   -13    14
    0.0065321715   3    1000022   -11    12
    0.0040101587   2    1000022    24
    0.00071322417   3    1000021   -5    6
    0.0006108457   3    1000022   -3    4
    0.00061084476   3    1000022   -1    2

DECAY 1000037  149.88306
    0.33274713   2   -2000005    6
    0.29546984   2    1000006   -5
    0.099484423   2    2000006   -5
    0.063619346   2    1000024    25
    0.058706667   2   -1000005    6
    0.056255668   2    1000023    24
    0.055373009   2    1000024    23
    0.021088806   2    1000022    24
    0.0046518191   3    1000024    6   -6
    0.0041390323   2   -1000015    16
    0.0028253522   3    1000023   -5    6
    0.0024611238   2    1000016   -15
    0.0013700766   3    1000022   -5    6
    0.0011666788   3    1000021   -5    6
    0.00010092691   2   -2000015    16

DECAY 1000022 -1


DECAY 1000023  0.38215874
    0.20016946   2    1000006   -6
    0.20016946   2   -1000006    6
    0.094840976   2    1000006   -4
    0.094840976   2   -1000006    4
    0.09250252   2    2000005   -5
    0.09250252   2   -2000005    5
    0.090378818   2    1000005   -5
    0.090378818   2   -1000005    5
    0.011980635   3    1000022    12   -12
    0.004471465   3    1000022    6   -6
    0.0044512489   2    1000015   -15
    0.0044512489   2   -1000015    15
    0.004326795   3    1000022    15   -15
    0.0037968197   3    1000022    13   -13
    0.0037967661   3    1000022    11   -11
    0.0031651556   2    1000022    25
    0.0019879213   2    1000022    23
    0.00040638171   3    1000022    4   -4
    0.00040638162   3    1000022    2   -2
    0.00040563936   3    1000022    3   -3
    0.00040563849   3    1000022    1   -1

DECAY 1000025  155.91667
    0.20603012   2    1000006   -6
    0.20603012   2   -1000006    6
    0.13486892   2    2000006   -6
    0.13486892   2   -2000006    6
    0.053087035   2    1000024   -24
    0.053087035   2   -1000024    24
    0.051324775   2    1000023    23
    0.046486757   2    1000023    25
    0.02744166   2    1000005   -5
    0.02744166   2   -1000005    5
    0.010991786   2    1000022    25
    0.01086011   2    2000005   -5
    0.01086011   2   -2000005    5
    0.0083114103   2    1000022    23
    0.003394491   3    1000024    5   -6
    0.003394491   3   -1000024   -5    6
    0.0020231061   3    1000021    6   -6
    0.0020131481   2    1000015   -15
    0.0020131481   2   -1000015    15
    0.001913269   3    1000023    6   -6
    0.0011688272   2    2000015   -15
    0.0011688272   2   -2000015    15
    0.0011230004   3    1000022    6   -6

DECAY 1000035  151.94251
    0.21739095   2    1000006   -6
    0.21739095   2   -1000006    6
    0.13497664   2    2000006   -6
    0.13497664   2   -2000006    6
    0.060773129   2    1000023    25
    0.05420631   2    1000024   -24
    0.05420631   2   -1000024    24
    0.02800615   2    1000005   -5
    0.02800615   2   -1000005    5
    0.014405706   2    1000022    25
    0.012277072   2    1000022    23
    0.011279614   2    2000005   -5
    0.011279614   2   -2000005    5
    0.0029827208   3    1000024    5   -6
    0.0029827208   3   -1000024   -5    6
    0.0024467837   3    1000023    6   -6
    0.0021353184   3    1000021    6   -6
    0.0020472752   2    1000015   -15
    0.0020472752   2   -1000015    15
    0.0018686609   2    1000023    23
    0.001280449   3    1000022    6   -6
    0.0012286822   2    2000015   -15
    0.0012286822   2   -2000015    15

DECAY 1000021  202.20602
    0.18426668   2    2000002   -2
    0.18426668   2   -2000002    2
    0.18426657   2    2000004   -4
    0.18426657   2   -2000004    4
    0.1314335   2    1000005   -5
    0.1314335   2   -1000005    5

DECAY 25  0.0036419048
    0.60005929   2   -5    5
    0.20076882   2   -24    24
    0.072946437   2    21    21
    0.068882603   2   -15    15
    0.029725287   2   -4    4
    0.023442254   2    23    23
    0.0023577113   2    22    22
    0.0013523726   2    22    23
    0.00023890445   2   -13    13
    0.00022553804   2   -3    3
    6.2359101e-07   2   -1    1
    1.5318786e-07   2   -2    2
    5.3708607e-09   2   -11    11

DECAY 35  43.362964
    0.62712345   2   -5    5
    0.14210994   2   -2000005    1000005
    0.14210994   2   -1000005    2000005
    0.064695609   2   -15    15
    0.02205913   2   -6    6
    0.0011776398   2   -1000005    1000005
    0.00022357725   2   -13    13
    0.00016802655   2   -3    3
    0.00011122954   2    1000022    1000023
    6.890305e-05   2   -2000004    1000004
    6.890305e-05   2   -1000004    2000004
    4.9609577e-05   2    25    25
    1.8879933e-05   2    1000022    1000022
    7.7435126e-06   2    21    21
    2.2091906e-06   2   -1000004    1000004
    2.2083101e-06   2   -1000002    1000002
    1.7412866e-06   2    23    23
    4.6463495e-07   2   -1    1
    4.3378767e-07   2   -4    4
    2.9008427e-07   2   -24    24
    4.0295372e-08   2    22    23
    2.4910547e-08   2    22    22
    5.0206152e-09   2   -11    11
    2.6700006e-10   2   -2000002    1000002
    2.6700006e-10   2   -1000002    2000002
    2.2360846e-12   2   -2    2

DECAY 36  42.365173
    0.61987146   2   -5    5
    0.14612364   2   -2000005    1000005
    0.14612364   2   -1000005    2000005
    0.063945537   2   -15    15
    0.023302349   2   -6    6
    0.00022098478   2   -13    13
    0.00016608393   2   -3    3
    7.054334e-05   2   -2000004    1000004
    7.054334e-05   2   -1000004    2000004
    6.5042716e-05   2    1000022    1000023
    2.0635706e-05   2    1000022    1000022
    1.3696002e-05   2    21    21
    4.8949482e-06   2    23    25
    4.5925857e-07   2   -1    1
    4.4705746e-07   2   -4    4
    2.1553781e-08   2    22    22
    4.9624963e-09   2   -11    11
    4.2771216e-09   2    22    23
    2.7335621e-10   2   -2000002    1000002
    2.7335621e-10   2   -1000002    2000002
    2.3045226e-12   2   -2    2
    3.2482797e-37   2    25    25

DECAY 37  42.42064
    0.63910707   2   -5    6
    0.17604516   2   -1000005    2000006
    0.12065709   2   -1000005    1000006
    0.062641379   2   -15    16
    0.0009248416   2   -5    4
    0.00022145954   2   -13    14
    0.00017886274   2    1000022    1000024
    0.00015973684   2   -3    4
    2.3609451e-05   2   -3    6
    1.9150814e-05   2   -1000003    1000004
    7.5132911e-06   2   -3    2
    6.6043198e-06   2   -5    2
    4.8930495e-06   2    24    25
    1.0718983e-06   2   -1    6
    1.0245574e-06   2   -1000001    1000004
    4.4279784e-07   2   -1    2
    4.9687005e-08   2   -2000005    1000004
    3.0549231e-08   2   -1    4
    5.1799617e-09   2   -11    12
    1.3680964e-10   2   -1000005    1000004
    1.0061858e-10   2   -1000001    1000002
    5.3805286e-12   2   -1000003    1000002
    4.4468041e-13   2    24    35
    6.3926809e-14   2    24    36
    1.8610522e-15   2   -2000005    1000002
    5.1242741e-18   2   -1000005    1000002

DECAY 6  2.43
    1   2    5    24

DECAY 15 -1
