BLOCK SPINFO
   1   SPheno
   2   v4.0.5be

BLOCK SPHENOINFO
   1   2
   2   2

BLOCK MODSEL
   1   0

BLOCK MINPAR
   3    27.325789
   4   -1

BLOCK EXTPAR
   0    2383.0252
   1    3584.8554
   2    2317.2574
   3    4882.6896
   11   -6992.8874
   12    1872.9034
   13    5915.8104
   23   -564.66966
   25    26.399844
   26    4053.3991
   31    4261.102
   32    4261.102
   33    1486.6241
   34    2874.9447
   35    2874.9447
   36    1773.7683
   41    3830.8967
   42    3830.8967
   43    2446.6887
   44    1048.9805
   45    1048.9805
   46    2562.5503
   47    2492.3243
   48    2492.3243
   49    2718.1523

BLOCK SMINPUTS
   1    127.90897
   2    1.1663787e-05
   3    0.1184
   4    91.1876
   5    4.18
   6    173.2
   7    1.777
   8    0
   11    0.00051099893
   12    0
   13    0.10565837
   14    0
   21    0.005
   22    0.0025
   23    0.095
   24    1.27

BLOCK GAUGE Q=  2383.0252
   1    0.35536298
   2    0.66519887
   3    1.219778

BLOCK YU Q=  2383.0252
   1   1    8.390385e-06
   2   2    0.0042623156
   3   3    1.0136259

BLOCK YD Q=  2383.0252
   1   1    0.00044510606
   2   2    0.0084570151
   3   3    0.44140573

BLOCK YE Q=  2383.0252
   1   1    7.7674262e-05
   2   2    0.016060574
   3   3    0.27011243

BLOCK AU Q=  2383.0252
   1   1    0
   2   2    0
   3   3   -6992.8868

BLOCK AD Q=  2383.0252
   1   1    0
   2   2    0
   3   3    1872.9033

BLOCK AE Q=  2383.0252
   1   1    0
   2   2    0
   3   3    5915.8105

BLOCK MSOFT Q=  2383.0252
   1    3584.8554
   2    2317.2574
   3    4882.6896
   21    16112234
   22   -197939.75
   31    4261.102
   32    4261.102
   33    1486.6241
   34    2874.9447
   35    2874.9447
   36    1773.7683
   41    3830.8967
   42    3830.8967
   43    2446.6887
   44    1048.9805
   45    1048.9805
   46    2562.5503
   47    2492.3243
   48    2492.3243
   49    2718.1523

BLOCK MASS
   6    173.2
   23    91.1876
   24    80.429995
   15    1.777
   25    123.6223
   35    4052.6455
   36    4053.3991
   37    4053.7213
   1000001    3907.0866
   2000001    2523.1476
   1000002    3906.2474
   2000002    963.44633
   1000003    3907.0851
   2000003    2523.1454
   1000004    3906.246
   2000004    963.44615
   1000005    2392.5429
   2000005    2751.4127
   1000006    2202.2992
   2000006    2578.582
   1000011    4273.1955
   2000011    2881.0782
   1000012    4272.0712
   1000013    4273.1909
   2000013    2881.0704
   1000014    4272.0679
   1000015    1516.6048
   2000015    1777.3452
   1000016    1514.6351
   1000021    4762.3966
   1000022    575.25098
   1000023   -579.45298
   1000025    2370.8542
   1000035    3544.5517
   1000024    577.35198
   1000037    2370.8677

BLOCK ALPHA
      -0.036619158

BLOCK HMIX Q=  2383.0252
   1   -564.66966
   2    26.399844
   3    243.42984
   4    16430044

BLOCK STOPMIX
   1   1    0.72785676
   1   2    0.68572919
   2   1   -0.68572919
   2   2    0.72785676

BLOCK SBOTMIX
   1   1   -0.99980366
   1   2    0.019815022
   2   1   -0.019815022
   2   2   -0.99980366

BLOCK STAUMIX
   1   1   -0.99909303
   1   2    0.0425807
   2   1   -0.0425807
   2   2   -0.99909303

BLOCK NMIX
   1   1   -0.010325599
   1   2    0.030152127
   1   3    0.7081379
   1   4    0.70535448
   2   1   -0.0079760991
   2   2    0.019893878
   2   3   -0.70603429
   2   4    0.70785323
   3   1    0.0012188166
   3   2    0.99934705
   3   3   -0.0073096124
   3   4   -0.035363269
   4   1    0.99991414
   4   2   -0.00074807073
   4   3    0.0016896027
   4   4    0.01297333

BLOCK UMIX
   1   1   -0.010354675
   1   2   -0.99994639
   2   1    0.99994639
   2   2   -0.010354675

BLOCK VMIX
   1   1   -0.050084534
   1   2    0.99874498
   2   1    0.99874498
   2   2    0.050084534

BLOCK HIGGSBOUNDSINPUTHIGGSCOUPLINGSFERMIONS
       0, 696.95178,3,36,15,15

BLOCK HIGGSBOUNDSINPUTHIGGSCOUPLINGSBOSONS
       0,4,36,21,21,23

BLOCK SPHENOLOWENERGY
   1    0.00033876605
   2    1.5897301e-06
   3    3.5279548e-05
   4    2.1346563e-15
   5    9.1190511e-11
   6    1.9115558e-08
   7    7.2122523e-14
   8    3.0810859e-09
   9    6.5439807e-07
   10    9.6486187e-05
   11    0.99666537
   12    0.5421508
   13    19.369327
   14    0
   15    0
   16    0.0021582472
   17    2.281668e-15
   18    2.4817209e-11
   19    8.2946509e-11
   20   -7.4851553e-16
   21   -3.2001293e-11
   22   -2.0436752e-08
   23    0
   24    0
   25    0
   26    0
   27    0
   28    0
   29    0
   30    0
   31    0
   39    5.8185576e-05
   40    0
   41    0
   42    0

BLOCK FWCOEF Q=  160
   305   4422   0   0   -0.18881911
   305   4422   0   2   -0.21010496
   305   4322   0   2   -0.00034363716
   305   6421   0   0   -0.095227835
   305   6421   0   2   -0.1094668
   305   6321   0   2   -0.00023198209
   3051111   4133   0   0    1.6083784
   3051111   4133   0   2    1.6089451
   3051111   4233   0   2    0.00018313019
   3051111   4137   0   0   -4.4310705
   3051111   4137   0   2   -4.4320988
   3051111   4237   0   2   -0.0013923247
   3051313   4133   0   0    1.6083784
   3051313   4133   0   2    1.6089448
   3051313   4233   0   2    0.00018313008
   3051313   4137   0   0   -4.4310705
   3051313   4137   0   2   -4.432099
   3051313   4237   0   2   -0.0013923248
   3051212   4137   0   0    1.5053501
   3051212   4137   0   2    1.5055759
   3051212   4237   0   2    0.00030231712
   3051414   4137   0   0    1.5053501
   3051414   4137   0   2    1.5055759
   3051414   4237   0   2    0.00030231712
   3051616   4137   0   0    1.5053501
   3051616   4137   0   2    1.5055752
   3051616   4237   0   2    0.00030231846

BLOCK IMFWCOEF Q=  160
   305   4422   0   0    3.8576726e-07
   305   4422   0   2   -1.120393e-05
   305   4322   0   2   -4.7771426e-06
   305   6421   0   0    3.3043517e-07
   305   6421   0   2    1.2411773e-06
   305   6321   0   2   -2.3209796e-06
   3051111   4133   0   2   -4.981378e-08
   3051111   4233   0   2    3.4709959e-06
   3051111   4137   0   2    1.8045873e-06
   3051111   4237   0   2   -2.6390223e-05
   3051313   4133   0   2   -4.9818685e-08
   3051313   4233   0   2    3.4709944e-06
   3051313   4137   0   2    1.8045864e-06
   3051313   4237   0   2   -2.6390226e-05
   3051212   4137   0   2   -3.468892e-07
   3051212   4237   0   2    5.7301406e-06
   3051414   4137   0   2   -3.4688925e-07
   3051414   4237   0   2    5.7301406e-06
   3051616   4137   0   2   -3.5955726e-07
   3051616   4237   0   2    5.7301406e-06

DECAY 23  2.4952


DECAY 24  2.085


DECAY 2000011  0.0022737924
    0.62582306   2    1000022    11
    0.37305116   2    1000023    11
    0.0009856565   2    1000025    11
    0.00014012387   2   -1000024    12

DECAY 1000011  27.571897
    0.65358165   2   -1000037    12
    0.32682798   2    1000025    11
    0.018889545   2    1000035    11
    0.00039916609   2    1000022    11
    0.00016065685   2    1000023    11
    0.00014100065   2   -1000024    12

DECAY 2000013  0.029516173
    0.46149751   2   -1000024    14
    0.27975841   2    1000022    13
    0.25865976   2    1000023    13

DECAY 1000013  27.593049
    0.65307868   2   -1000037    14
    0.32657648   2    1000025    13
    0.018874865   2    1000035    13
    0.00078305428   2    1000022    13
    0.00054225811   2    1000023    13
    0.00014089241   2   -1000024    14

DECAY 1000015  1.6236947
    0.50396334   2    1000022    15
    0.49144246   2    1000023    15
    0.0045941975   2   -1000024    16

DECAY 2000015  4.3584242
    0.47186911   2   -1000024    16
    0.2370444   2    1000023    15
    0.23628824   2    1000022    15
    0.028109107   2    1000016   -24
    0.013596723   2    1000015    25
    0.013092413   2    1000015    23

DECAY 1000012  27.592264
    0.65105442   2    1000037    11
    0.32549854   2    1000025    12
    0.018932598   2    1000035    12
    0.0032954474   2    1000024    11
    0.00083584361   2    1000022    12
    0.00038314493   2    1000023    12

DECAY 1000014  27.613331
    0.65055634   2    1000037    13
    0.32524951   2    1000025    14
    0.018918009   2    1000035    14
    0.0040580822   2    1000024    13
    0.00083520522   2    1000022    14
    0.0003828523   2    1000023    14

DECAY 1000016  1.6408254
    0.99448611   2    1000024    15
    0.003785407   2    1000022    16
    0.0017284775   2    1000023    16

DECAY 2000001  0.00023329997
    0.59778755   2    1000022    1
    0.36380529   2    1000023    1
    0.03828413   2   -1000024    2
    0.00012297287   2    1000025    1

DECAY 1000001  20.6242
    0.66556861   2   -1000037    2
    0.33224556   2    1000025    1
    0.0008349024   2    1000035    1
    0.00081711892   2    1000022    1
    0.00036270967   2    1000023    1
    0.00017109743   2   -1000024    2

DECAY 2000003  0.0066639059
    0.48385034   2   -1000024    4
    0.26306197   2    1000022    3
    0.25308219   2    1000023    3

DECAY 1000003  20.630858
    0.66535292   2   -1000037    4
    0.33213791   2    1000025    3
    0.00094583816   2    1000022    3
    0.00083462644   2    1000035    3
    0.00049071821   2    1000023    3
    0.00023635096   2   -1000024    4

DECAY 1000005  64.028432
    0.66703676   2   -1000024    6
    0.20417471   2    1000006   -24
    0.064771344   2    1000022    5
    0.063964966   2    1000023    5

DECAY 2000005  19.678993
    0.49277171   2   -1000024    6
    0.24799908   2    1000022    5
    0.24711134   2    1000023    5
    0.0067244449   2    1000006   -24
    0.0032916996   2    1000005    25
    0.00185312   2    1000005    23
    0.00016606856   2    2000006   -24

DECAY 2000002  0.00015086169
    0.62964942   2    1000022    2
    0.37034691   2    1000023    2

DECAY 1000002  20.655622
    0.66248584   2    1000037    1
    0.33179088   2    1000025    2
    0.0039966126   2    1000024    1
    0.0008162915   2    1000035    2
    0.00063865294   2    1000022    2
    0.0002717267   2    1000023    2

DECAY 2000004  0.00043599789
    0.38137679   2    1000022    4
    0.32793279   2    1000024    3
    0.29069042   2    1000023    4

DECAY 1000004  20.662249
    0.66227259   2    1000037    3
    0.33168406   2    1000025    4
    0.0042520187   2    1000024    3
    0.00081601373   2    1000035    4
    0.000670953   2    1000022    4
    0.00030436751   2    1000023    4

DECAY 1000006  61.142851
    0.38534461   2    1000024    5
    0.30665542   2    1000022    6
    0.30581102   2    1000023    6
    0.0021474047   3    1000022    24    5

DECAY 2000006  113.02457
    0.24619169   2    1000024    5
    0.23239211   2    1000006    23
    0.21185394   2    1000023    6
    0.20899578   2    1000022    6
    0.095675861   2    1000005    24
    0.0026310121   2    1000037    5
    0.0014706705   2    1000006    25
    0.00078892477   2    1000025    6

DECAY 1000024  6.8179569e-12
    0.59952058   3    1000022   -1    2
    0.19985333   3    1000022   -11    12
    0.19525928   3    1000022   -13    14
    0.0053668095   3    1000022   -3    4

DECAY 1000037  28.146633
    0.17692603   2    1000024    25
    0.17564199   2    1000023    24
    0.17483404   2    1000024    23
    0.17432424   2    1000022    24
    0.12955626   2    1000016   -15
    0.12911663   2   -1000015    16
    0.012570382   3    1000024    6   -6
    0.0095221142   2    1000006   -5
    0.0088604086   3    1000023   -5    6
    0.008150089   3    1000022   -5    6
    0.00033898296   3    1000024    5   -5
    0.00015565309   2   -2000015    16

DECAY 1000022 -1


DECAY 1000023  1.3390682e-08
    0.85378491   2    1000022    22
    0.036544332   3    1000022    12   -12
    0.027326554   3    1000022    1   -1
    0.027118663   3    1000022    3   -3
    0.021312721   3    1000022    2   -2
    0.0061669596   3    1000022    11   -11
    0.0060931442   3    1000022    13   -13
    0.0049914843   3    1000024    1   -2
    0.0049914843   3   -1000024   -1    2
    0.0033347102   3    1000022    4   -4
    0.0016638837   3    1000024    11   -12
    0.0016638837   3   -1000024   -11    12
    0.0016443106   3    1000024    13   -14
    0.0016443106   3   -1000024   -13    14
    0.00083658392   3    1000024    3   -4
    0.00083658392   3   -1000024   -3    4

DECAY 1000025  30.399446
    0.16274635   2    1000024   -24
    0.16274635   2   -1000024    24
    0.1329982   2    1000023    25
    0.11368789   2    1000022    25
    0.11332994   2    1000023    23
    0.059968174   2    1000016   -16
    0.059968174   2   -1000016    16
    0.059781322   2    1000015   -15
    0.059781322   2   -1000015    15
    0.048694761   2    1000022    23
    0.0079653904   3    1000024    5   -6
    0.0079653904   3   -1000024   -5    6
    0.0050294544   3    1000023    6   -6
    0.0047222404   3    1000022    6   -6
    0.00023381096   3    1000022    5   -5
    0.00022935476   3    1000023    5   -5

DECAY 1000035  82.715557
    0.1230967   2    2000002   -2
    0.1230967   2   -2000002    2
    0.12309668   2    2000004   -4
    0.12309668   2   -2000004    4
    0.060233507   2    2000015   -15
    0.060233507   2   -2000015    15
    0.028612077   2    1000024   -24
    0.028612077   2   -1000024    24
    0.0232445   2    1000006   -6
    0.0232445   2   -1000006    6
    0.019938794   2    2000006   -6
    0.019938794   2   -2000006    6
    0.019037945   2    1000023    25
    0.018195729   2    1000023    23
    0.018030267   2    1000016   -16
    0.018030267   2   -1000016    16
    0.018007427   2    1000015   -15
    0.018007427   2   -1000015    15
    0.016284938   2    1000022    25
    0.012394143   2    2000013   -13
    0.012394143   2   -2000013    13
    0.012393884   2    2000011   -11
    0.012393884   2   -2000011    11
    0.01070431   2    1000022    23
    0.0087307664   2    2000003   -3
    0.0087307664   2   -2000003    3
    0.008730735   2    2000001   -1
    0.008730735   2   -2000001    1
    0.0056688696   2    2000005   -5
    0.0056688696   2   -2000005    5
    0.0026804961   2    1000005   -5
    0.0026804961   2   -1000005    5
    0.0015451375   3    1000024    5   -6
    0.0015451375   3   -1000024   -5    6
    0.0012932354   3    1000023    6   -6
    0.0012218961   3    1000022    6   -6
    0.00014446501   2    1000025    25
    0.00012497168   2    1000037   -24
    0.00012497168   2   -1000037    24

DECAY 1000021  783.3263
    0.082765324   2    2000004   -4
    0.082765324   2   -2000004    4
    0.082765322   2    2000002   -2
    0.082765322   2   -2000002    2
    0.050436865   2    1000006   -6
    0.050436865   2   -1000006    6
    0.050296463   2    1000005   -5
    0.050296463   2   -1000005    5
    0.049487204   2    2000006   -6
    0.049487204   2   -2000006    6
    0.046555575   2    2000003   -3
    0.046555575   2   -2000003    3
    0.046555512   2    2000001   -1
    0.046555512   2   -2000001    1
    0.039933192   2    2000005   -5
    0.039933192   2   -2000005    5
    0.012569711   2    1000006   -4
    0.012569711   2   -1000006    4
    0.0096348396   2    1000004   -4
    0.0096348396   2   -1000004    4
    0.0096348206   2    1000002   -2
    0.0096348206   2   -1000002    2
    0.0096178342   2    1000003   -3
    0.0096178342   2   -1000003    3
    0.0096178039   2    1000001   -1
    0.0096178039   2   -1000001    1
    0.00010581773   3    1000037    5   -6
    0.00010581773   3   -1000037   -5    6

DECAY 25  0.0036849635
    0.59292319   2   -5    5
    0.20767815   2   -24    24
    0.073307714   2    21    21
    0.068059419   2   -15    15
    0.029363805   2   -4    4
    0.024455958   2    23    23
    0.0023614693   2    22    22
    0.0013907973   2    22    23
    0.00023606434   2   -13    13
    0.0002226546   2   -3    3
    6.156177e-07   2   -1    1
    1.5132243e-07   2   -2    2
    5.3070062e-09   2   -11    11

DECAY 35  64.340578
    0.47540909   2   -5    5
    0.10436673   2   -1000024    1000037
    0.10436673   2   -1000037    1000024
    0.088234113   2   -15    15
    0.061119269   2    1000023    1000025
    0.05852835   2   -2000015    1000015
    0.05852835   2   -1000015    2000015
    0.043221486   2    1000022    1000025
    0.0032514325   2   -6    6
    0.0012321103   2   -1000024    1000024
    0.00044774463   2   -1000015    1000015
    0.00032377938   2    1000022    1000022
    0.00031769423   2   -13    13
    0.00031092317   2   -2000015    2000015
    0.00020025183   2   -3    3
    0.00012667304   2    1000023    1000023
    1.1079008e-05   2    1000022    1000023
    9.109359e-07   2    21    21
    9.0287545e-07   2    25    25
    5.6947346e-07   2   -1000002    1000002
    5.691658e-07   2   -1000004    1000004
    5.536908e-07   2   -1    1
    2.5305119e-07   2    23    23
    5.2645192e-08   2   -24    24
    4.1994603e-08   2   -4    4
    2.054635e-08   2    22    23
    7.1346144e-09   2   -11    11
    5.8530675e-09   2    22    22
    2.1642358e-13   2   -2    2

DECAY 36  62.739078
    0.46588815   2   -5    5
    0.10705871   2   -1000024    1000037
    0.10705871   2   -1000037    1000024
    0.086465787   2   -15    15
    0.063005538   2    1000022    1000025
    0.060428107   2   -2000015    1000015
    0.060428107   2   -1000015    2000015
    0.04404559   2    1000023    1000025
    0.0032783868   2   -6    6
    0.0013288307   2   -1000024    1000024
    0.00031133022   2   -13    13
    0.00031098616   2    1000022    1000022
    0.00019623715   2   -3    3
    0.00016323098   2    1000023    1000023
    2.2656096e-05   2    1000022    1000023
    8.4599545e-06   2    21    21
    5.5535414e-07   2    23    25
    5.4258975e-07   2   -1    1
    4.2169291e-08   2   -4    4
    2.5242623e-08   2    22    23
    6.9915891e-09   2   -11    11
    4.9812311e-09   2    22    22
    2.1733322e-13   2   -2    2
    2.8031023e-36   2    25    25

DECAY 37  62.871799
    0.45999844   2   -5    6
    0.12050722   2   -2000015    1000016
    0.10758381   2    1000022    1000037
    0.1071828   2    1000024    1000025
    0.1067451   2    1000023    1000037
    0.096280594   2   -15    16
    0.00067761768   2   -5    4
    0.00034038617   2   -13    14
    0.00024175026   2   -1000015    1000016
    0.00018746725   2   -3    4
    0.00017852627   2    1000023    1000024
    5.6330425e-05   2    1000022    1000024
    8.8080111e-06   2   -3    2
    4.9834907e-06   2   -3    6
    4.8388884e-06   2   -5    2
    5.5450257e-07   2    24    25
    5.2020464e-07   2   -1    2
    2.1575672e-07   2   -1    6
    2.6341362e-08   2   -1    4
    7.9616678e-09   2   -11    12
    3.8697271e-10   2   -1000005    1000004
    1.579476e-12   2   -2000005    1000004
    1.1615836e-12   2   -1000003    1000004
    3.1207981e-14   2    24    35
    1.7219051e-16   2   -1000001    1000004
    1.4494269e-17   2   -1000005    1000002
    3.2635342e-19   2   -1000003    1000002
    5.9160203e-20   2   -2000005    1000002
    1.6910291e-20   2   -1000001    1000002

DECAY 6  2.43
    1   2    5    24

DECAY 15 -1
