BLOCK SPINFO
   1   SPheno
   2   v4.0.5be

BLOCK SPHENOINFO
   1   2
   2   2

BLOCK MODSEL
   1   0

BLOCK MINPAR
   3    52.730292
   4   -1

BLOCK EXTPAR
   0    1580.0025
   1   -24.046207
   2   -1346.4945
   3    3000
   11   -3009.1175
   12    712.72806
   13    1494.5713
   23   -304.3891
   25    52.64076
   26    3980.3081
   31    1108.4154
   32    1108.4154
   33    1401.4764
   34    1404.4086
   35    1404.4086
   36    596.9272
   41    5000
   42    5000
   43    1292.6005
   44    5000
   45    5000
   46    1953.3046
   47    5000
   48    5000
   49    1558.5301

BLOCK SMINPUTS
   1    127.90897
   2    1.1663787e-05
   3    0.1184
   4    91.1876
   5    4.18
   6    173.2
   7    1.777
   8    0
   11    0.00051099893
   12    0
   13    0.10565837
   14    0
   21    0.005
   22    0.0025
   23    0.095
   24    1.27

BLOCK GAUGE Q=  1580.0025
   1    0.35536298
   2    0.66519887
   3    1.219778

BLOCK YU Q=  1580.0025
   1   1    8.3858849e-06
   2   2    0.0042600295
   3   3    1.0130823

BLOCK YD Q=  1580.0025
   1   1    0.00088705652
   2   2    0.016854074
   3   3    0.87968211

BLOCK YE Q=  1580.0025
   1   1    0.00015479785
   2   2    0.032007286
   3   3    0.53830989

BLOCK AU Q=  1580.0025
   1   1    0
   2   2    0
   3   3   -3009.1174

BLOCK AD Q=  1580.0025
   1   1    0
   2   2    0
   3   3    712.72804

BLOCK AE Q=  1580.0025
   1   1    0
   2   2    0
   3   3    1494.5713

BLOCK MSOFT Q=  1580.0025
   1   -24.046207
   2   -1346.4945
   3    3000
   21    15802475
   22   -62407.042
   31    1108.4154
   32    1108.4154
   33    1401.4764
   34    1404.4086
   35    1404.4086
   36    596.9272
   41    5000
   42    5000
   43    1292.6005
   44    5000
   45    5000
   46    1953.3046
   47    5000
   48    5000
   49    1558.5301

BLOCK MASS
   6    173.2
   23    91.1876
   24    80.429995
   15    1.777
   25    123.05395
   35    3975.3261
   36    3980.3081
   37    3976.7311
   1000001    5029.7104
   2000001    5020.5345
   1000002    5029.2599
   2000002    5023.2719
   1000003    5029.7192
   2000003    5020.5492
   1000004    5029.2681
   2000004    5023.2726
   1000005    1309.3736
   2000005    1602.3569
   1000006    1281.2972
   2000006    1948.3443
   1000011    1125.5824
   2000011    1402.2941
   1000012    1122.3633
   1000013    1125.6029
   2000013    1402.3273
   1000014    1122.3856
   1000015    626.12703
   2000015    1422.0654
   1000016    1418.2308
   1000021    3193.351
   1000022   -23.233218
   1000023   -309.69955
   1000025    313.2208
   1000035   -1391.1334
   1000024    307.86967
   1000037    1391.3029

BLOCK ALPHA
      -0.01899602

BLOCK HMIX Q=  1580.0025
   1   -304.3891
   2    52.64076
   3    243.9602
   4    15842853

BLOCK STOPMIX
   1   1    0.97964213
   1   2    0.20075186
   2   1   -0.20075186
   2   2    0.97964213

BLOCK SBOTMIX
   1   1   -0.99877434
   1   2    0.049495683
   2   1   -0.049495683
   2   2   -0.99877434

BLOCK STAUMIX
   1   1   -0.01930938
   1   2    0.99981356
   2   1   -0.99981356
   2   2   -0.01930938

BLOCK NMIX
   1   1    0.98967584
   1   2   -0.0008455155
   1   3   -0.14269083
   1   4    0.013429621
   2   1    0.11063205
   2   2    0.05276333
   2   3    0.70087635
   2   4   -0.7026727
   3   1   -0.091094379
   3   2    0.032694165
   3   3   -0.69871855
   3   4   -0.70881965
   4   1    0.0020261822
   4   2   -0.99807134
   4   3    0.014284748
   4   4   -0.06037742

BLOCK UMIX
   1   1   -0.020208956
   1   2   -0.99979578
   2   1   -0.99979578
   2   2    0.020208956

BLOCK VMIX
   1   1    0.085442324
   1   2    0.99634312
   2   1    0.99634312
   2   2   -0.085442324

BLOCK HIGGSBOUNDSINPUTHIGGSCOUPLINGSFERMIONS
       0, 2771.0496,3,36,15,15

BLOCK HIGGSBOUNDSINPUTHIGGSCOUPLINGSBOSONS
       0,4,36,21,21,23

BLOCK SPHENOLOWENERGY
   1    0.00038917259
   2    1.5870986e-06
   3    3.5226286e-05
   4    1.2390092e-15
   5    5.292564e-11
   6    1.0881707e-08
   7    4.2300796e-14
   8    1.8069829e-09
   9    3.7709385e-07
   10    9.5637374e-05
   11    0.98789746
   12    0.54288963
   13    19.380607
   14    0
   15    0
   16    0.0021624957
   17    2.281712e-15
   18    2.4796887e-11
   19    8.2891009e-11
   20    9.0683465e-15
   21    3.8772784e-10
   22    8.8533125e-08
   23    0
   24    0
   25    0
   26    0
   27    0
   28    0
   29    0
   30    0
   31    0
   39    7.8907443e-05
   40    0
   41    0
   42    0

BLOCK FWCOEF Q=  160
   305   4422   0   0   -0.18881911
   305   4422   0   2   -0.26755453
   305   4322   0   2   -0.00047024061
   305   6421   0   0   -0.095227835
   305   6421   0   2   -0.13470103
   305   6321   0   2   -0.00023163282
   3051111   4133   0   0    1.5946026
   3051111   4133   0   2    1.5956273
   3051111   4233   0   2    0.0004886468
   3051111   4137   0   0   -4.4172947
   3051111   4137   0   2   -4.413169
   3051111   4237   0   2   -0.0037870863
   3051313   4133   0   0    1.5946026
   3051313   4133   0   2    1.5956223
   3051313   4233   0   2    0.00048864328
   3051313   4137   0   0   -4.4172947
   3051313   4137   0   2   -4.4131741
   3051313   4237   0   2   -0.0037870965
   3051212   4137   0   0    1.5053501
   3051212   4137   0   2    1.5044589
   3051212   4237   0   2    0.00082484779
   3051414   4137   0   0    1.5053501
   3051414   4137   0   2    1.5044589
   3051414   4237   0   2    0.00082484786
   3051616   4137   0   0    1.5053501
   3051616   4137   0   2    1.5044606
   3051616   4237   0   2    0.00082486772

BLOCK IMFWCOEF Q=  160
   305   4422   0   0    3.8575411e-07
   305   4422   0   2    2.450905e-05
   305   4322   0   2   -7.0336356e-06
   305   6421   0   0    3.3042391e-07
   305   6421   0   2    2.8646564e-05
   305   6321   0   2   -2.3187669e-06
   3051111   4133   0   2   -1.7520093e-06
   3051111   4233   0   2    9.4733409e-06
   3051111   4137   0   2    1.435572e-05
   3051111   4237   0   2   -7.3428638e-05
   3051313   4133   0   2   -1.7519924e-06
   3051313   4233   0   2    9.4732857e-06
   3051313   4137   0   2    1.4355818e-05
   3051313   4237   0   2   -7.3428828e-05
   3051212   4137   0   2   -2.9859825e-06
   3051212   4237   0   2    1.5993171e-05
   3051414   4137   0   2   -2.9859854e-06
   3051414   4237   0   2    1.5993171e-05
   3051616   4137   0   2   -2.9836831e-06
   3051616   4237   0   2    1.5993179e-05

DECAY 23  2.4952


DECAY 24  2.085


DECAY 1000011  1.4367692
    0.9599761   2    1000022    11
    0.036864354   2    1000023    11
    0.0024108486   2   -1000024    12
    0.00074869308   2    1000025    11

DECAY 2000011  7.0283037
    0.98138762   2    1000022    11
    0.011102547   2    1000023    11
    0.0075097498   2    1000025    11

DECAY 1000013  1.4564248
    0.94735796   2    1000022    13
    0.042979747   2    1000023    13
    0.007283927   2    1000025    13
    0.0023783693   2   -1000024    14

DECAY 2000013  7.0804428
    0.97426609   2    1000022    13
    0.012814937   2    1000023    13
    0.0092333399   2    1000025    13
    0.0036553758   2   -1000024    14

DECAY 1000015  7.2631397
    0.43434376   2    1000022    15
    0.2857658   2   -1000024    16
    0.14213048   2    1000023    15
    0.13775997   2    1000025    15

DECAY 2000015  9.6563094
    0.38595287   2    1000023    15
    0.37686825   2    1000025    15
    0.19582821   2    1000022    15
    0.019337167   2    1000015    23
    0.018425354   2    1000015    25
    0.0023740628   2   -1000037    16
    0.0011893623   2    1000035    15

DECAY 1000012  1.4737964
    0.93916537   2    1000022    12
    0.04185367   2    1000024    11
    0.018866016   2    1000025    12
    0.00011494693   2    1000023    12

DECAY 1000014  1.4933767
    0.92687005   2    1000022    14
    0.054397357   2    1000024    13
    0.018619151   2    1000025    14
    0.00011344281   2    1000023    14

DECAY 1000016  9.6870133
    0.77448096   2    1000024    15
    0.18061021   2    1000022    16
    0.038293901   2    1000015    24
    0.0038595199   2    1000025    16
    0.0018104054   2    1000037    15
    0.00092153064   2    1000035    16

DECAY 2000001  143.30119
    0.98044312   2    1000021    1
    0.019157099   2    1000022    1
    0.00023784879   2    1000023    1
    0.00016131459   2    1000025    1

DECAY 1000001  198.80881
    0.71150559   2    1000021    1
    0.18985455   2   -1000037    2
    0.094672329   2    1000035    1
    0.0034916844   2    1000022    1
    0.00026457354   2    1000025    1
    0.00012099881   2    1000023    1

DECAY 2000003  143.35889
    0.9800592   2    1000021    3
    0.019153462   2    1000022    3
    0.00033396493   2    1000023    3
    0.00025685339   2    1000025    3
    0.00019634357   2   -1000024    4

DECAY 1000003  198.83979
    0.71139934   2    1000021    3
    0.18982546   2   -1000037    4
    0.094657821   2    1000035    3
    0.0034940489   2    1000022    3
    0.00033358786   2    1000025    3
    0.00019047709   2    1000023    3

DECAY 1000005  40.815727
    0.55392541   2   -1000024    6
    0.21630236   2    1000023    5
    0.21329282   2    1000025    5
    0.016479409   2    1000022    5

DECAY 2000005  46.665611
    0.47983291   2   -1000024    6
    0.24092178   2    1000023    5
    0.24030536   2    1000025    5
    0.027383481   2    1000022    5
    0.0059926645   2    1000006   -24
    0.0031408146   2    1000005    25
    0.0023040956   2    1000005    23

DECAY 2000002  151.99907
    0.92621281   2    1000021    2
    0.072282817   2    1000022    2
    0.00089644113   2    1000023    2
    0.0006076692   2    1000025    2

DECAY 1000002  198.80209
    0.71129375   2    1000021    2
    0.18852942   2    1000037    1
    0.09452745   2    1000035    2
    0.0034251161   2    1000022    2
    0.001614013   2    1000024    1
    0.00058027062   2    1000023    2

DECAY 2000004  152.00269
    0.92619091   2    1000021    4
    0.072281101   2    1000022    4
    0.00090226118   2    1000023    4
    0.00061360706   2    1000025    4

DECAY 1000004  198.83293
    0.71118741   2    1000021    4
    0.18850064   2    1000037    3
    0.094512986   2    1000035    4
    0.0034245915   2    1000022    4
    0.0017551808   2    1000024    3
    0.00058465983   2    1000023    4

DECAY 1000006  39.067634
    0.4428013   2    1000024    5
    0.27618956   2    1000023    6
    0.27175325   2    1000025    6
    0.0061952795   2    1000022    6
    0.0020884399   2    1000022    4
    0.00065533906   3    1000022    24    5
    0.00031626868   2    1000023    4

DECAY 2000006  152.02308
    0.25000273   2    1000024    5
    0.2140405   2    1000005    24
    0.1460177   2    1000006    25
    0.127209   2    1000025    6
    0.12189441   2    1000023    6
    0.1136078   2    1000006    23
    0.026919554   2    1000022    6
    0.00014349074   2    1000037    5
    0.00010183853   2    2000005    24

DECAY 1000024  0.19890276
    0.99954235   2    1000022    24
    0.00041169887   3    1000022   -5    6

DECAY 1000037  15.783353
    0.19268682   2    1000023    24
    0.19162493   2    1000024    25
    0.19085959   2    1000025    24
    0.19057678   2    1000024    23
    0.046976598   2    1000012   -11
    0.046969637   2    1000014   -13
    0.046295461   2   -1000011    12
    0.046289091   2   -1000013    14
    0.026913033   2    1000006   -5
    0.0080355188   3    1000024    6   -6
    0.006014018   3    1000025   -5    6
    0.0060038127   3    1000023   -5    6
    0.00020472992   3    1000024    15   -15
    0.00016539668   2    1000022    24
    0.00010547917   3    1000022   -15    16
    0.00010078619   3    1000023   -15    16

DECAY 1000022 -1


DECAY 1000023  0.16418158
    0.50351389   2    1000022    23
    0.49639134   2    1000022    25

DECAY 1000025  0.20326858
    0.61192129   2    1000022    23
    0.38801789   2    1000022    25

DECAY 1000035  16.875573
    0.18041037   2    1000024   -24
    0.18041037   2   -1000024    24
    0.13015135   2    1000025    23
    0.13011601   2    1000023    25
    0.12127958   2    1000025    25
    0.049263186   2    1000023    23
    0.022069455   2    1000012   -12
    0.022069455   2   -1000012    12
    0.022066181   2    1000014   -14
    0.022066181   2   -1000014    14
    0.021505678   2    1000011   -11
    0.021505678   2   -1000011    11
    0.021502754   2    1000013   -13
    0.021502754   2   -1000013    13
    0.0073593632   3    1000024    5   -6
    0.0073593632   3   -1000024   -5    6
    0.0070423367   2    1000005   -5
    0.0070423367   2   -1000005    5
    0.0023430809   3    1000023    6   -6
    0.0022269903   3    1000025    6   -6

DECAY 1000021  252.48785
    0.12957408   2    1000005   -5
    0.12957408   2   -1000005    5
    0.12491629   2    1000006   -6
    0.12491629   2   -1000006    6
    0.10475455   2    2000005   -5
    0.10475455   2   -2000005    5
    0.078308111   2    2000006   -6
    0.078308111   2   -2000006    6
    0.062010385   2    1000006   -4
    0.062010385   2   -1000006    4
    0.00022275843   3    1000035    5   -5
    0.00018620794   3    1000037    5   -6
    0.00018620794   3   -1000037   -5    6
    0.0001444915   3    1000035    6   -6

DECAY 25  0.0036922206
    0.59240149   2   -5    5
    0.19485284   2   -24    24
    0.072564473   2    21    21
    0.068127494   2   -15    15
    0.029340517   2   -4    4
    0.022683243   2    23    23
    0.015945015   2    1000022    1000022
    0.0023087575   2    22    22
    0.0013163801   2    22    23
    0.0002362013   2   -13    13
    0.00022281432   2   -3    3
    6.160598e-07   2   -1    1
    1.5120453e-07   2   -2    2
    5.3100932e-09   2   -11    11

DECAY 35  215.51134
    0.66355576   2   -5    5
    0.11222422   2   -15    15
    0.05783291   2   -1000024    1000037
    0.05783291   2   -1000037    1000024
    0.031255734   2    1000025    1000035
    0.025853565   2    1000023    1000035
    0.010022647   2    1000022    1000025
    0.0099260628   2    1000022    1000023
    0.0060781337   2   -2000015    1000015
    0.0060781337   2   -1000015    2000015
    0.0051678133   2   -2000005    1000005
    0.0051678133   2   -1000005    2000005
    0.0018267189   2   -2000006    1000006
    0.0018267189   2   -1000006    2000006
    0.001141429   2   -1000024    1000024
    0.0010454184   2    1000022    1000035
    0.0008464394   2    1000022    1000022
    0.0004953226   2    1000025    1000025
    0.00039613372   2   -13    13
    0.00038458969   2   -1000006    1000006
    0.00030492532   2   -6    6
    0.00025929561   2    1000023    1000025
    0.00022144249   2   -3    3
    0.00010909511   2   -2000006    2000006
    4.3388586e-05   2   -1000005    1000005
    4.2137778e-05   2   -2000005    2000005
    2.3428045e-05   2   -1000037    1000037
    1.1780869e-05   2    1000035    1000035
    9.5766659e-06   2   -1000015    1000015
    8.104763e-06   2   -2000015    2000015
    5.7522338e-06   2    21    21
    8.9294383e-07   2    1000023    1000023
    8.9131605e-07   2    25    25
    6.1225668e-07   2   -1    1
    5.2140614e-08   2    23    23
    1.1092618e-08   2   -24    24
    9.3792851e-09   2   -1000011    1000011
    9.2377593e-09   2   -1000013    1000013
    8.8961318e-09   2   -11    11
    7.8329425e-09   2    22    23
    5.1734185e-09   2   -2000011    2000011
    5.0979228e-09   2   -2000013    2000013
    3.185232e-09   2   -4    4
    1.5355484e-09   2    22    22
    2.9777782e-10   2   -2000013    1000013
    2.9777782e-10   2   -1000013    2000013
    1.6416553e-14   2   -2    2
    6.9651989e-15   2   -2000011    1000011
    6.9651989e-15   2   -1000011    2000011

DECAY 36  197.38602
    0.64555259   2   -5    5
    0.10917707   2   -15    15
    0.063219131   2   -1000024    1000037
    0.063219131   2   -1000037    1000024
    0.034358595   2    1000023    1000035
    0.02808631   2    1000025    1000035
    0.011730449   2    1000022    1000023
    0.01009768   2    1000022    1000025
    0.0066411332   2   -2000015    1000015
    0.0066411332   2   -1000015    2000015
    0.005692532   2   -2000005    1000005
    0.005692532   2   -1000005    2000005
    0.0023371461   2   -2000006    1000006
    0.0023371461   2   -1000006    2000006
    0.0013012498   2   -1000024    1000024
    0.0011409211   2    1000022    1000035
    0.00093218804   2    1000022    1000022
    0.00051372276   2    1000025    1000025
    0.00038538131   2   -13    13
    0.00032409992   2   -6    6
    0.00029667308   2    1000023    1000025
    0.00021539922   2   -3    3
    6.5295174e-05   2   -1000037    1000037
    3.279226e-05   2    1000035    1000035
    7.8302289e-06   2    21    21
    1.0785902e-06   2    1000023    1000023
    5.9554362e-07   2   -1    1
    1.1967823e-07   2    23    25
    3.4534265e-08   2    22    23
    2.6282206e-08   2    22    22
    8.6546861e-09   2   -11    11
    3.3680335e-09   2   -4    4
    3.2227389e-10   2   -2000013    1000013
    3.2227389e-10   2   -1000013    2000013
    1.7088004e-11   2    23    35
    1.7359302e-14   2   -2    2
    7.5380196e-15   2   -2000011    1000011
    7.5380196e-15   2   -1000011    2000011
    7.2012768e-39   2    25    25

DECAY 37  200.84326
    0.64937915   2   -5    6
    0.11009932   2   -15    16
    0.062222252   2    1000024    1000035
    0.061875521   2    1000023    1000037
    0.061027294   2    1000025    1000037
    0.022782462   2    1000022    1000024
    0.013063592   2   -1000015    1000016
    0.012080709   2   -2000005    1000006
    0.002734128   2   -1000005    2000006
    0.0022466542   2    1000022    1000037
    0.00096303371   2   -5    4
    0.00067666582   2    1000023    1000024
    0.0003892403   2   -13    14
    0.00021699001   2   -1000005    1000006
    0.0002162054   2   -3    4
    1.0158246e-05   2   -3    2
    6.8770536e-06   2   -5    2
    4.1676785e-06   2    1000024    1000025
    3.8746621e-06   2   -2000015    1000016
    7.1156867e-07   2   -3    6
    6.0004164e-07   2   -1    2
    1.3152945e-07   2   -2000005    2000006
    1.1734177e-07   2    24    25
    3.9520858e-08   2   -1000011    1000012
    3.9307373e-08   2   -1000013    1000014
    2.8273101e-08   2   -1    4
    1.7865139e-08   2   -1    6
    9.1043712e-09   2   -11    12
    6.5626873e-10   2   -2000013    1000014
    1.2869889e-10   2    1000035    1000037
    3.7116431e-14   2    24    35
    1.5351543e-14   2   -2000011    1000012

DECAY 6  2.43
    1   2    5    24

DECAY 15 -1
