# SUSY Les Houches Accord 2 - MSSM spectrum + Decays
# SPheno v4.0.5be
# W. Porod, Comput. Phys. Commun. 153 (2003) 275-315, hep-ph/0301101;
# W. Porod, F.~Staub, Comput. Phys. Commun. 183 (2012) 2458
#                     arXiv:1104.1573 [hep-ph] 
# in case of problems send email to porod@physik.uni-wuerzburg.de
# Created: 07.09.2021,  15:17
Block SPINFO         # Program information
     1   SPheno      # spectrum calculator
     2   v4.0.5be    # version number
#
Block SPhenoINFO     # SPheno specific information
    1      2         # using 2-loop RGEs
    2      2         # using pole masses for boundary conditions at mZ
Block MODSEL  # Model selection
    1    0    # general MSSM
Block MINPAR  # Input parameters
    3    5.59799836E+01  # tanb at m_Z    
    4   -1.00000000E+00  # Sign(mu)
Block EXTPAR  # non-universal input parameters
    0    4.61253681E+03  # scale for input parameters
    1    6.45254868E+01  # M_1
    2    2.74983886E+02  # M_2
    3    3.81731620E+03  # M_3
   11    4.00266498E+02  # A_t
   12   -1.29267988E+03  # A_b
   13   -4.09459636E+02  # A_tau
   23   -1.31977857E+02  # mu
   25    5.58417281E+01  # tan(beta)
   26    2.34900667E+03  # m_A, pole mass
   31    1.00000000E+04  # M_L11
   32    1.00000000E+04  # M_L22
   33    1.00000000E+04  # M_L33
   34    1.00000000E+04  # M_E11
   35    1.00000000E+04  # M_E22
   36    1.00000000E+04  # M_E33
   41    1.00000000E+04  # M_Q11
   42    1.00000000E+04  # M_Q22
   43    4.82532713E+03  # M_Q33
   44    1.00000000E+04  # M_U11
   45    1.00000000E+04  # M_U22
   46    4.25749888E+03  # M_U33
   47    1.00000000E+04  # M_D11
   48    1.00000000E+04  # M_D22
   49    2.02613036E+03  # M_D33
Block SMINPUTS  # SM parameters
         1     1.27908970E+02  # alpha_em^-1(MZ)^MSbar
         2     1.16637870E-05  # G_mu [GeV^-2]
         3     1.18400000E-01  # alpha_s(MZ)^MSbar
         4     9.11876000E+01  # m_Z(pole)
         5     4.18000000E+00  # m_b(m_b), MSbar
         6     1.73200000E+02  # m_t(pole)
         7     1.77700000E+00  # m_tau(pole)
         8     0.00000000E+00  # m_nu_3
        11     5.10998930E-04  # m_e(pole)
        12     0.00000000E+00  # m_nu_1
        13     1.05658372E-01  # m_muon(pole)
        14     0.00000000E+00  # m_nu_2
        21     5.00000000E-03  # m_d(2 GeV), MSbar
        22     2.50000000E-03  # m_u(2 GeV), MSbar
        23     9.50000000E-02  # m_s(2 GeV), MSbar
        24     1.27000000E+00  # m_c(m_c), MSbar
Block gauge Q=  4.61253681E+03  # (SUSY scale)
   1    3.55362975E-01  # g'(Q)^DRbar
   2    6.65198874E-01  # g(Q)^DRbar
   3    1.21977796E+00  # g3(Q)^DRbar
Block Yu Q=  4.61253681E+03  # (SUSY scale)
  1  1     8.38571641E-06   # Y_u(Q)^DRbar
  2  2     4.25994394E-03   # Y_c(Q)^DRbar
  3  3     1.01306190E+00   # Y_t(Q)^DRbar
Block Yd Q=  4.61253681E+03  # (SUSY scale)
  1  1     9.40977564E-04   # Y_d(Q)^DRbar
  2  2     1.78785737E-02   # Y_s(Q)^DRbar
  3  3     9.33154883E-01   # Y_b(Q)^DRbar
Block Ye Q=  4.61253681E+03  # (SUSY scale)
  1  1     1.64207466E-04   # Y_e(Q)^DRbar
  2  2     3.39528960E-02   # Y_mu(Q)^DRbar
  3  3     5.71031855E-01   # Y_tau(Q)^DRbar
Block Au Q=  4.61253681E+03  # (SUSY scale)
  1  1     0.00000000E+00   # A_u(Q)^DRbar
  2  2     0.00000000E+00   # A_c(Q)^DRbar
  3  3     4.00266504E+02   # A_t(Q)^DRbar
Block Ad Q=  4.61253681E+03  # (SUSY scale)
  1  1     0.00000000E+00   # A_d(Q)^DRbar
  2  2     0.00000000E+00   # A_s(Q)^DRbar
  3  3    -1.29267991E+03   # A_b(Q)^DRbar
Block Ae Q=  4.61253681E+03  # (SUSY scale)
  1  1     0.00000000E+00   # A_e(Q)^DRbar
  2  2     0.00000000E+00   # A_mu(Q)^DRbar
  3  3    -4.09459606E+02   # A_tau(Q)^DRbar
Block MSOFT Q=  4.61253681E+03  # soft SUSY breaking masses at Q
   1    6.45254868E+01  # M_1
   2    2.74983886E+02  # M_2
   3    3.81731620E+03  # M_3
  21    5.82215796E+06  # M^2_(H,d)
  22    4.67636863E+05  # M^2_(H,u)
  31    1.00000000E+04  # M_(L,11)
  32    1.00000000E+04  # M_(L,22)
  33    1.00000000E+04  # M_(L,33)
  34    1.00000000E+04  # M_(E,11)
  35    1.00000000E+04  # M_(E,22)
  36    1.00000000E+04  # M_(E,33)
  41    1.00000000E+04  # M_(Q,11)
  42    1.00000000E+04  # M_(Q,22)
  43    4.82532713E+03  # M_(Q,33)
  44    1.00000000E+04  # M_(U,11)
  45    1.00000000E+04  # M_(U,22)
  46    4.25749888E+03  # M_(U,33)
  47    1.00000000E+04  # M_(D,11)
  48    1.00000000E+04  # M_(D,22)
  49    2.02613036E+03  # M_(D,33)
Block MASS  # Mass spectrum
#   PDG code      mass          particle
         6     1.73200000E+02  # m_t(pole)
        23     9.11876000E+01  # m_Z(pole)
        24     8.04299946E+01  # W+
        15     1.77700000E+00  # m_tau(pole)
        25     1.24580362E+02  # h0
        35     2.34680658E+03  # H0
        36     2.34900667E+03  # A0
        37     2.34386528E+03  # H+
   1000001     1.01121948E+04  # ~d_L
   2000001     1.00871503E+04  # ~d_R
   1000002     1.01118267E+04  # ~u_L
   2000002     1.00895699E+04  # ~u_R
   1000003     1.01121950E+04  # ~s_L
   2000003     1.00871505E+04  # ~s_R
   1000004     1.01118269E+04  # ~c_L
   2000004     1.00895700E+04  # ~c_R
   1000005     2.17625423E+03  # ~b_1
   2000005     4.90146540E+03  # ~b_2
   1000006     4.33902007E+03  # ~t_1
   2000006     4.90329510E+03  # ~t_2
   1000011     1.00212559E+04  # ~e_L-
   2000011     1.00096769E+04  # ~e_R-
   1000012     1.00204787E+04  # ~nu_eL
   1000013     1.00212564E+04  # ~mu_L-
   2000013     1.00096774E+04  # ~mu_R-
   1000014     1.00204792E+04  # ~nu_muL
   1000015     1.00098226E+04  # ~tau_1-
   2000015     1.00213874E+04  # ~tau_2-
   1000016     1.00205894E+04  # ~nu_tauL
   1000021     4.33331361E+03  # ~g
   1000022     5.93890036E+01  # ~chi_10
   1000023     1.48657114E+02  # ~chi_20
   1000025     1.68355702E+02  # ~chi_30
   1000035     3.30950178E+02  # ~chi_40
   1000024     1.45538015E+02  # ~chi_1+
   1000037     3.31177887E+02  # ~chi_2+
# Higgs mixing
Block alpha # Effective Higgs mixing angle
          -1.79264541E-02   # alpha
Block Hmix Q=  4.61253681E+03  # Higgs mixing parameters
   1   -1.31977857E+02  # mu
   2    5.58417281E+01  # tan[beta](Q)
   3    2.42805962E+02  # v(Q)
   4    5.51783234E+06  # m^2_A(Q)
Block stopmix # stop mixing matrix
   1  1    -1.29315299E-03   # Re[R_st(1,1)]
   1  2     9.99999164E-01   # Re[R_st(1,2)]
   2  1    -9.99999164E-01   # Re[R_st(2,1)]
   2  2    -1.29315299E-03   # Re[R_st(2,2)]
Block sbotmix # sbottom mixing matrix
   1  1    -6.34889598E-04   # Re[R_sb(1,1)]
   1  2     9.99999798E-01   # Re[R_sb(1,2)]
   2  1    -9.99999798E-01   # Re[R_sb(2,1)]
   2  2    -6.34889598E-04   # Re[R_sb(2,2)]
Block staumix # stau mixing matrix
   1  1    -4.92059126E-02   # Re[R_sta(1,1)]
   1  2     9.98788655E-01   # Re[R_sta(1,2)]
   2  1    -9.98788655E-01   # Re[R_sta(2,1)]
   2  2    -4.92059126E-02   # Re[R_sta(2,2)]
Block Nmix # neutralino mixing matrix
   1  1     9.35763880E-01   # Re[N(1,1)]
   1  2    -3.65298567E-02   # Re[N(1,2)]
   1  3    -3.29574894E-01   # Re[N(1,3)]
   1  4    -1.19966323E-01   # Re[N(1,4)]
   2  1     3.20078532E-01   # Re[N(2,1)]
   2  2     3.09418762E-01   # Re[N(2,2)]
   2  3     6.50523581E-01   # Re[N(2,3)]
   2  4     6.15328233E-01   # Re[N(2,4)]
   3  1     1.39084952E-01   # Re[N(3,1)]
   3  2    -1.24187473E-01   # Re[N(3,2)]
   3  3     6.70170822E-01   # Re[N(3,3)]
   3  4    -7.18403728E-01   # Re[N(3,4)]
   4  1    -5.05081165E-02   # Re[N(4,1)]
   4  2     9.42073814E-01   # Re[N(4,2)]
   4  3    -1.38096083E-01   # Re[N(4,3)]
   4  4    -3.01455355E-01   # Re[N(4,4)]
Block Umix # chargino mixing matrix
   1  1    -1.97252466E-01   # Re[U(1,1)]
   1  2    -9.80352725E-01   # Re[U(1,2)]
   2  1     9.80352725E-01   # Re[U(2,1)]
   2  2    -1.97252466E-01   # Re[U(2,2)]
Block Vmix # chargino mixing matrix
   1  1    -4.29839922E-01   # Re[V(1,1)]
   1  2     9.02905112E-01   # Re[V(1,2)]
   2  1     9.02905112E-01   # Re[V(2,1)]
   2  2     4.29839922E-01   # Re[V(2,2)]
DECAY        23     2.49520000E+00   # Z
DECAY        24     2.08500000E+00   # W
DECAY   2000011     5.02887767E+01   # ~e^-_R
#    BR                NDA      ID1      ID2
     8.75700237E-01    2     1000022        11   # BR(~e^-_R -> chi^0_1 e^-)
     1.02417735E-01    2     1000023        11   # BR(~e^-_R -> chi^0_2 e^-)
     1.93361097E-02    2     1000025        11   # BR(~e^-_R -> chi^0_3 e^-)
     2.54581094E-03    2     1000035        11   # BR(~e^-_R -> chi^0_4 e^-)
DECAY   1000011     1.44642441E+02   # ~e^-_L
#    BR                NDA      ID1      ID2
     6.54731762E-02    2     1000022        11   # BR(~e^-_L -> chi^0_1 e^-)
     7.03501423E-02    2     1000023        11   # BR(~e^-_L -> chi^0_2 e^-)
     7.58474871E-04    2     1000025        11   # BR(~e^-_L -> chi^0_3 e^-)
     2.54806570E-01    2     1000035        11   # BR(~e^-_L -> chi^0_4 e^-)
     2.37203574E-02    2    -1000024        12   # BR(~e^-_L -> chi^-_1 nu_e)
     5.84891279E-01    2    -1000037        12   # BR(~e^-_L -> chi^-_2 nu_e)
#    BR                NDA      ID1      ID2       ID3
DECAY   2000013     5.07476708E+01   # ~mu^-_R
#    BR                NDA      ID1      ID2
     8.68272933E-01    2     1000022        13   # BR(~mu^-_R -> chi^0_1 mu^-)
     1.03405030E-01    2     1000023        13   # BR(~mu^-_R -> chi^0_2 mu^-)
     2.11917558E-02    2     1000025        13   # BR(~mu^-_R -> chi^0_3 mu^-)
     2.60886713E-03    2     1000035        13   # BR(~mu^-_R -> chi^0_4 mu^-)
     4.34579099E-03    2    -1000024        14   # BR(~mu^-_R -> chi^-_1 nu_mu)
     1.75622964E-04    2    -1000037        14   # BR(~mu^-_R -> chi^-_2 nu_mu)
DECAY   1000013     1.44872160E+02   # ~mu^-_L
#    BR                NDA      ID1      ID2
     6.55416613E-02    2     1000022        13   # BR(~mu^-_L -> chi^0_1 mu^-)
     7.09096341E-02    2     1000023        13   # BR(~mu^-_L -> chi^0_2 mu^-)
     1.46936470E-03    2     1000025        13   # BR(~mu^-_L -> chi^0_3 mu^-)
     2.54432728E-01    2     1000035        13   # BR(~mu^-_L -> chi^0_4 mu^-)
     2.36827460E-02    2    -1000024        14   # BR(~mu^-_L -> chi^-_1 nu_mu)
     5.83963866E-01    2    -1000037        14   # BR(~mu^-_L -> chi^-_2 nu_mu)
#    BR                NDA      ID1      ID2       ID3
DECAY   1000015     1.80170273E+02   # ~tau^-_1
#    BR                NDA      ID1      ID2
     2.88266169E-01    2     1000022        15   # BR(~tau^-_1 -> chi^0_1 tau^-)
     1.83730688E-01    2     1000023        15   # BR(~tau^-_1 -> chi^0_2 tau^-)
     1.63283784E-01    2     1000025        15   # BR(~tau^-_1 -> chi^0_3 tau^-)
     4.16523479E-03    2     1000035        15   # BR(~tau^-_1 -> chi^0_4 tau^-)
     3.53422839E-01    2    -1000024        16   # BR(~tau^-_1 -> chi^-_1 nu_tau)
     7.13128520E-03    2    -1000037        16   # BR(~tau^-_1 -> chi^-_2 nu_tau)
DECAY   2000015     2.09547079E+02   # ~tau^-_2
#    BR                NDA      ID1      ID2
     7.48493069E-02    2     1000022        15   # BR(~tau^-_2 -> chi^0_1 tau^-)
     1.77472197E-01    2     1000023        15   # BR(~tau^-_2 -> chi^0_2 tau^-)
     1.43131641E-01    2     1000025        15   # BR(~tau^-_2 -> chi^0_3 tau^-)
     1.84718154E-01    2     1000035        15   # BR(~tau^-_2 -> chi^0_4 tau^-)
     1.01890411E-02    2    -1000024        16   # BR(~tau^-_2 -> chi^-_1 nu_tau)
     4.09639660E-01    2    -1000037        16   # BR(~tau^-_2 -> chi^-_2 nu_tau)
#    BR                NDA      ID1      ID2       ID3
DECAY   1000012     1.44647030E+02   # ~nu_e
#    BR                NDA      ID1      ID2
     8.77373648E-02    2     1000022        12   # BR(~nu_e -> chi^0_1 nu_e)
     5.84019729E-03    2     1000023        12   # BR(~nu_e -> chi^0_2 nu_e)
     1.20063799E-02    2     1000025        12   # BR(~nu_e -> chi^0_3 nu_e)
     2.85714406E-01    2     1000035        12   # BR(~nu_e -> chi^0_4 nu_e)
     1.12626994E-01    2     1000024        11   # BR(~nu_e -> chi^+_1 e^-)
     4.96074658E-01    2     1000037        11   # BR(~nu_e -> chi^+_2 e^-)
#    BR                NDA      ID1      ID2       ID3
DECAY   1000014     1.44876731E+02   # ~nu_mu
#    BR                NDA      ID1      ID2
     8.75982623E-02    2     1000022        14   # BR(~nu_mu -> chi^0_1 nu_mu)
     5.83093799E-03    2     1000023        14   # BR(~nu_mu -> chi^0_2 nu_mu)
     1.19873444E-02    2     1000025        14   # BR(~nu_mu -> chi^0_3 nu_mu)
     2.85261423E-01    2     1000035        14   # BR(~nu_mu -> chi^0_4 nu_mu)
     1.13972298E-01    2     1000024        13   # BR(~nu_mu -> chi^+_1 mu^-)
     4.95349735E-01    2     1000037        13   # BR(~nu_mu -> chi^+_2 mu^-)
#    BR                NDA      ID1      ID2       ID3
DECAY   1000016     2.09621354E+02   # ~nu_tau
#    BR                NDA      ID1      ID2
     6.05429231E-02    2     1000022        16   # BR(~nu_tau -> chi^0_1 nu_tau)
     4.03001183E-03    2     1000023        16   # BR(~nu_tau -> chi^0_2 nu_tau)
     8.28496892E-03    2     1000025        16   # BR(~nu_tau -> chi^0_3 nu_tau)
     1.97156436E-01    2     1000035        16   # BR(~nu_tau -> chi^0_4 nu_tau)
     3.75632863E-01    2     1000024        15   # BR(~nu_tau -> chi^+_1 tau^-)
     3.54352797E-01    2     1000037        15   # BR(~nu_tau -> chi^+_2 tau^-)
#    BR                NDA      ID1      ID2       ID3
DECAY   2000001     5.35085571E+02   # ~d_R
#    BR                NDA      ID1      ID2
     9.21534043E-03    2     1000022         1   # BR(~d_R -> chi^0_1 d)
     1.07792429E-03    2     1000023         1   # BR(~d_R -> chi^0_2 d)
     2.03630841E-04    2     1000025         1   # BR(~d_R -> chi^0_3 d)
     9.89475975E-01    2     1000021         1   # BR(~d_R -> ~g d)
DECAY   1000001     6.66623849E+02   # ~d_L
#    BR                NDA      ID1      ID2
     2.75574263E-03    2     1000022         1   # BR(~d_L -> chi^0_1 d)
     4.25249047E-03    2     1000023         1   # BR(~d_L -> chi^0_2 d)
     1.48071431E-03    2     1000025         1   # BR(~d_L -> chi^0_3 d)
     6.02642891E-02    2     1000035         1   # BR(~d_L -> chi^0_4 d)
     5.19353045E-03    2    -1000024         2   # BR(~d_L -> chi^-_1 u)
     1.28064961E-01    2    -1000037         2   # BR(~d_L -> chi^-_2 u)
     7.97988272E-01    2     1000021         1   # BR(~d_L -> ~g d)
DECAY   2000003     5.35213464E+02   # ~s_R
#    BR                NDA      ID1      ID2
     9.22611981E-03    2     1000022         3   # BR(~s_R -> chi^0_1 s)
     1.12822211E-03    2     1000023         3   # BR(~s_R -> chi^0_2 s)
     2.57231036E-04    2     1000025         3   # BR(~s_R -> chi^0_3 s)
     1.15138675E-04    2    -1000024         4   # BR(~s_R -> chi^-_1 c)
     9.89239570E-01    2     1000021         3   # BR(~s_R -> ~g s)
DECAY   1000003     6.66691615E+02   # ~s_L
#    BR                NDA      ID1      ID2
     2.76590963E-03    2     1000022         3   # BR(~s_L -> chi^0_1 s)
     4.29274532E-03    2     1000023         3   # BR(~s_L -> chi^0_2 s)
     1.52373940E-03    2     1000025         3   # BR(~s_L -> chi^0_3 s)
     6.02599941E-02    2     1000035         3   # BR(~s_L -> chi^0_4 s)
     5.19746356E-03    2    -1000024         4   # BR(~s_L -> chi^-_1 c)
     1.28052957E-01    2    -1000037         4   # BR(~s_L -> chi^-_2 c)
     7.97907191E-01    2     1000021         3   # BR(~s_L -> ~g s)
DECAY   1000005     7.53546919E+01   # ~b_1
#    BR                NDA      ID1      ID2
     6.84219293E-02    2     1000022         5   # BR(~b_1 -> chi^0_1 b)
     2.11402705E-01    2     1000023         5   # BR(~b_1 -> chi^0_2 b)
     2.22280363E-01    2     1000025         5   # BR(~b_1 -> chi^0_3 b)
     9.10252490E-03    2     1000035         5   # BR(~b_1 -> chi^0_4 b)
     4.70547326E-01    2    -1000024         6   # BR(~b_1 -> chi^-_1 t)
     1.82451509E-02    2    -1000037         6   # BR(~b_1 -> chi^-_2 t)
DECAY   2000005     2.69956825E+02   # ~b_2
#    BR                NDA      ID1      ID2
     3.74171165E-02    2     1000022         5   # BR(~b_2 -> chi^0_1 b)
     1.37927607E-01    2     1000023         5   # BR(~b_2 -> chi^0_2 b)
     1.42727251E-01    2     1000025         5   # BR(~b_2 -> chi^0_3 b)
     7.75943983E-02    2     1000035         5   # BR(~b_2 -> chi^0_4 b)
     3.06884818E-01    2    -1000024         6   # BR(~b_2 -> chi^-_1 t)
     2.20557343E-01    2    -1000037         6   # BR(~b_2 -> chi^-_2 t)
     6.83533601E-02    2     1000021         5   # BR(~b_2 -> ~g b)
     4.21418216E-03    2     1000005        36   # BR(~b_2 -> ~b_1 A^0)
     4.22606238E-03    2     1000005        35   # BR(~b_2 -> ~b_1 H^0)
DECAY   2000002     5.52225274E+02   # ~u_R
#    BR                NDA      ID1      ID2
     3.57257053E-02    2     1000022         2   # BR(~u_R -> chi^0_1 u)
     4.17833126E-03    2     1000023         2   # BR(~u_R -> chi^0_2 u)
     7.88854262E-04    2     1000025         2   # BR(~u_R -> chi^0_3 u)
     1.03864150E-04    2     1000035         2   # BR(~u_R -> chi^0_4 u)
     9.59203245E-01    2     1000021         2   # BR(~u_R -> ~g u)
DECAY   1000002     6.66606851E+02   # ~u_L
#    BR                NDA      ID1      ID2
     1.13010973E-03    2     1000022         2   # BR(~u_L -> chi^0_1 u)
     8.96034614E-03    2     1000023         2   # BR(~u_L -> chi^0_2 u)
     6.59585023E-04    2     1000025         2   # BR(~u_L -> chi^0_3 u)
     5.80055465E-02    2     1000035         2   # BR(~u_L -> chi^0_4 u)
     2.46621576E-02    2     1000024         1   # BR(~u_L -> chi^+_1 d)
     1.08628820E-01    2     1000037         1   # BR(~u_L -> chi^+_2 d)
     7.97953435E-01    2     1000021         2   # BR(~u_L -> ~g u)
DECAY   2000004     5.52232533E+02   # ~c_R
#    BR                NDA      ID1      ID2
     3.57253294E-02    2     1000022         4   # BR(~c_R -> chi^0_1 c)
     4.18077345E-03    2     1000023         4   # BR(~c_R -> chi^0_2 c)
     7.92245762E-04    2     1000025         4   # BR(~c_R -> chi^0_3 c)
     1.04461060E-04    2     1000035         4   # BR(~c_R -> chi^0_4 c)
     9.59190599E-01    2     1000021         4   # BR(~c_R -> ~g c)
DECAY   1000004     6.66674584E+02   # ~c_L
#    BR                NDA      ID1      ID2
     1.13007372E-03    2     1000022         4   # BR(~c_L -> chi^0_1 c)
     8.96150692E-03    2     1000023         4   # BR(~c_L -> chi^0_2 c)
     6.62342142E-04    2     1000025         4   # BR(~c_L -> chi^0_3 c)
     5.80001519E-02    2     1000035         4   # BR(~c_L -> chi^0_4 c)
     2.47520586E-02    2     1000024         3   # BR(~c_L -> chi^+_1 s)
     1.08621518E-01    2     1000037         3   # BR(~c_L -> chi^+_2 s)
     7.97872349E-01    2     1000021         4   # BR(~c_L -> ~g c)
DECAY   1000006     1.85903422E+02   # ~t_1
#    BR                NDA      ID1      ID2
     5.22373108E-02    2     1000022         6   # BR(~t_1 -> chi^0_1 t)
     1.84868542E-01    2     1000023         6   # BR(~t_1 -> chi^0_2 t)
     2.45249340E-01    2     1000025         6   # BR(~t_1 -> chi^0_3 t)
     4.29915106E-02    2     1000035         6   # BR(~t_1 -> chi^0_4 t)
     3.87311805E-01    2     1000024         5   # BR(~t_1 -> chi^+_1 b)
     8.73356092E-02    2     1000037         5   # BR(~t_1 -> chi^+_2 b)
#    BR                NDA      ID1      ID2       ID3
DECAY   2000006     2.69255729E+02   # ~t_2
#    BR                NDA      ID1      ID2
     6.72250181E-03    2     1000022         6   # BR(~t_2 -> chi^0_1 t)
     1.50754509E-01    2     1000023         6   # BR(~t_2 -> chi^0_2 t)
     1.91753752E-01    2     1000025         6   # BR(~t_2 -> chi^0_3 t)
     1.02704955E-01    2     1000035         6   # BR(~t_2 -> chi^0_4 t)
     3.32484152E-01    2     1000024         5   # BR(~t_2 -> chi^+_1 b)
     1.41409923E-01    2     1000037         5   # BR(~t_2 -> chi^+_2 b)
     6.53227835E-02    2     1000021         6   # BR(~t_2 -> ~g t)
     8.51776994E-03    2     1000005        37   # BR(~t_2 -> ~b_1 H^+)
     2.65127098E-04    2     1000006        25   # BR(~t_2 -> ~t_1 h^0)
DECAY   1000024     1.31601582E-02   # chi^+_1
#    BR                NDA      ID1      ID2
     9.99998401E-01    2     1000022        24   # BR(chi^+_1 -> chi^0_1 W^+)
#    BR                NDA      ID1      ID2       ID3
DECAY   1000037     1.98380314E+00   # chi^+_2
#    BR                NDA      ID1      ID2
     1.23637048E-03    2     1000022        24   # BR(chi^+_2 -> chi^0_1 W^+)
     2.76921072E-01    2     1000023        24   # BR(chi^+_2 -> chi^0_2 W^+)
     3.47078198E-01    2     1000025        24   # BR(chi^+_2 -> chi^0_3 W^+)
     2.30435689E-01    2     1000024        23   # BR(chi^+_2 -> chi^+_1 Z)
     1.44327963E-01    2     1000024        25   # BR(chi^+_2 -> chi^+_1 h^0)
#    BR                NDA      ID1      ID2       ID3
DECAY   1000022     0.00000000E+00   # chi^0_1
DECAY   1000023     1.35881544E-03   # chi^0_2
#    BR                NDA      ID1      ID2
     1.70867638E-04    2     1000022        22   # BR(chi^0_2 -> chi^0_1 photon)
#    BR                NDA      ID1      ID2       ID3
     1.18788256E-01    3     1000022         2        -2   # BR(chi^0_2 -> chi^0_1 u u_bar)
     1.18624103E-01    3     1000022         4        -4   # BR(chi^0_2 -> chi^0_1 c c_bar)
     1.52307849E-01    3     1000022         1        -1   # BR(chi^0_2 -> chi^0_1 d d_bar)
     1.52306946E-01    3     1000022         3        -3   # BR(chi^0_2 -> chi^0_1 s s_bar)
     1.51130276E-01    3     1000022         5        -5   # BR(chi^0_2 -> chi^0_1 b b_bar)
     3.43674843E-02    3     1000022        11       -11   # BR(chi^0_2 -> chi^0_1 e^- e^+)
     3.43671204E-02    3     1000022        13       -13   # BR(chi^0_2 -> chi^0_1 mu^- mu^+)
     3.42623583E-02    3     1000022        15       -15   # BR(chi^0_2 -> chi^0_1 tau^- tau^+)
     2.03674272E-01    3     1000022        12       -12   # BR(chi^0_2 -> chi^0_1 nu_e nu_bar_e)
DECAY   1000025     1.03939722E-01   # chi^0_3
#    BR                NDA      ID1      ID2
     9.99471274E-01    2     1000022        23   # BR(chi^0_3 -> chi^0_1 Z)
#    BR                NDA      ID1      ID2       ID3
DECAY   1000035     2.36038494E+00   # chi^0_4
#    BR                NDA      ID1      ID2
     2.40049316E-01    2     1000024       -24   # BR(chi^0_4 -> chi^+_1 W^-)
     2.40049316E-01    2    -1000024        24   # BR(chi^0_4 -> chi^-_1 W^+)
     4.39198318E-04    2     1000022        23   # BR(chi^0_4 -> chi^0_1 Z)
     2.98943896E-02    2     1000023        23   # BR(chi^0_4 -> chi^0_2 Z)
     2.60588681E-01    2     1000025        23   # BR(chi^0_4 -> chi^0_3 Z)
     7.80674668E-04    2     1000022        25   # BR(chi^0_4 -> chi^0_1 h^0)
     1.00458228E-01    2     1000023        25   # BR(chi^0_4 -> chi^0_2 h^0)
     1.27708514E-01    2     1000025        25   # BR(chi^0_4 -> chi^0_3 h^0)
#    BR                NDA      ID1      ID2       ID3
DECAY   1000021     7.32463494E+01   # ~g
#    BR                NDA      ID1      ID2
     4.89603983E-01    2     1000005        -5   # BR(~g -> ~b_1 b_bar)
     4.89603983E-01    2    -1000005         5   # BR(~g -> ~b^*_1 b)
#    BR                NDA      ID1      ID2       ID3
     4.90973813E-04    3     1000022         6        -6   # BR(~g -> chi^0_1 t t_bar)
     1.51326304E-04    3     1000022         5        -5   # BR(~g -> chi^0_1 b b_bar)
     3.00323410E-03    3     1000023         6        -6   # BR(~g -> chi^0_2 t t_bar)
     5.56036271E-04    3     1000023         5        -5   # BR(~g -> chi^0_2 b b_bar)
     3.91925078E-03    3     1000025         6        -6   # BR(~g -> chi^0_3 t t_bar)
     5.73538158E-04    3     1000025         5        -5   # BR(~g -> chi^0_3 b b_bar)
     1.16744446E-03    3     1000035         6        -6   # BR(~g -> chi^0_4 t t_bar)
     3.32332420E-04    3     1000035         5        -5   # BR(~g -> chi^0_4 b b_bar)
     3.70035110E-03    3     1000024         5        -6   # BR(~g -> chi^+_1 b t_bar)
     3.70035110E-03    3    -1000024        -5         6   # BR(~g -> chi^-_1 b_bar t)
     1.50850820E-03    3     1000037         5        -6   # BR(~g -> chi^+_2 b t_bar)
     1.50850820E-03    3    -1000037        -5         6   # BR(~g -> chi^-_2 b_bar t)
DECAY        25     4.12279575E-03   # Gamma(h0)
     2.17127151E-03   2        22        22   # BR(h0 -> photon photon)
     1.35453980E-03   2        22        23   # BR(h0 -> photon Z)
     2.46898879E-02   2        23        23   # BR(h0 -> Z Z)
     2.05666698E-01   2       -24        24   # BR(h0 -> W W)
     6.76361413E-02   2        21        21   # BR(h0 -> gluon gluon)
     4.41879931E-09   2       -11        11   # BR(h0 -> Electron electron)
     1.96555901E-04   2       -13        13   # BR(h0 -> Muon muon)
     5.66736107E-02   2       -15        15   # BR(h0 -> Tau tau)
     1.25150457E-07   2        -2         2   # BR(h0 -> Up up)
     2.42878307E-02   2        -4         4   # BR(h0 -> Charm charm)
     5.11805931E-07   2        -1         1   # BR(h0 -> Down down)
     1.85108187E-04   2        -3         3   # BR(h0 -> Strange strange)
     4.92303287E-01   2        -5         5   # BR(h0 -> Bottom bottom)
     1.24834428E-01   2   1000022   1000022   # BR(h0 -> neutralino1 neutralino1)
DECAY        35     1.23064639E+02   # Gamma(HH)
     6.94357592E-08   2        22        22   # BR(HH -> photon photon)
     1.41934602E-07   2        22        23   # BR(HH -> photon Z)
     1.00903354E-07   2        23        23   # BR(HH -> Z Z)
     4.26052634E-08   2       -24        24   # BR(HH -> W W)
     1.26942643E-05   2        21        21   # BR(HH -> gluon gluon)
     8.57384897E-09   2       -11        11   # BR(HH -> Electron electron)
     3.81718729E-04   2       -13        13   # BR(HH -> Muon muon)
     1.10240697E-01   2       -15        15   # BR(HH -> Tau tau)
     1.59769711E-14   2        -2         2   # BR(HH -> Up up)
     3.09910174E-09   2        -4         4   # BR(HH -> Charm charm)
     2.29710407E-04   2        -6         6   # BR(HH -> Top top)
     6.55096473E-07   2        -1         1   # BR(HH -> Down down)
     2.36948970E-04   2        -3         3   # BR(HH -> Strange strange)
     6.40835628E-01   2        -5         5   # BR(HH -> Bottom bottom)
     3.07442471E-02   2  -1000024   1000024   # BR(HH -> Chargino1 chargino1)
     5.77598195E-02   2  -1000024   1000037   # BR(HH -> Chargino1 chargino2)
     5.77598195E-02   2  -1000037   1000024   # BR(HH -> Chargino2 chargino1)
     4.50550620E-03   2  -1000037   1000037   # BR(HH -> Chargino2 chargino2)
     7.40424017E-03   2   1000022   1000022   # BR(HH -> neutralino1 neutralino1)
     1.11379846E-02   2   1000022   1000023   # BR(HH -> neutralino1 neutralino2)
     5.24275482E-03   2   1000022   1000025   # BR(HH -> neutralino1 neutralino3)
     7.46639319E-03   2   1000022   1000035   # BR(HH -> neutralino1 neutralino4)
     5.46984648E-04   2   1000023   1000023   # BR(HH -> neutralino2 neutralino2)
     4.81010040E-04   2   1000023   1000025   # BR(HH -> neutralino2 neutralino3)
     2.65075823E-02   2   1000023   1000035   # BR(HH -> neutralino2 neutralino4)
     3.12354132E-03   2   1000025   1000025   # BR(HH -> neutralino3 neutralino3)
     3.28219569E-02   2   1000025   1000035   # BR(HH -> neutralino3 neutralino4)
     2.55906435E-03   2   1000035   1000035   # BR(HH -> neutralino4 neutralino4)
     6.76341475E-07   2        25        25   # BR(HH -> h0 h0)
DECAY        36     1.14745347E+02   # Gamma(A0)
     1.81605739E-09   2        22        22   # BR(A0 -> photon photon)
     4.27399970E-08   2        22        23   # BR(A0 -> photon Z)
     1.89302105E-05   2        21        21   # BR(A0 -> gluon gluon)
     8.36609941E-09   2       -11        11   # BR(A0 -> Electron electron)
     3.72470578E-04   2       -13        13   # BR(A0 -> Muon muon)
     1.07570108E-01   2       -15        15   # BR(A0 -> Tau tau)
     1.49511971E-14   2        -2         2   # BR(A0 -> Up up)
     2.89994086E-09   2        -4         4   # BR(A0 -> Charm charm)
     2.20382792E-04   2        -6         6   # BR(A0 -> Top top)
     6.39149218E-07   2        -1         1   # BR(A0 -> Down down)
     2.31181484E-04   2        -3         3   # BR(A0 -> Strange strange)
     6.25272166E-01   2        -5         5   # BR(A0 -> Bottom bottom)
     3.24523237E-02   2  -1000024   1000024   # BR(A0 -> Chargino1 chargino1)
     6.25556576E-02   2  -1000024   1000037   # BR(A0 -> Chargino1 chargino2)
     6.25556576E-02   2  -1000037   1000024   # BR(A0 -> Chargino2 chargino1)
     4.30054376E-03   2  -1000037   1000037   # BR(A0 -> Chargino2 chargino2)
     7.73334324E-03   2   1000022   1000022   # BR(A0 -> neutralino1 neutralino1)
     1.12714323E-02   2   1000022   1000023   # BR(A0 -> neutralino1 neutralino2)
     6.27220589E-03   2   1000022   1000025   # BR(A0 -> neutralino1 neutralino3)
     8.13501360E-03   2   1000022   1000035   # BR(A0 -> neutralino1 neutralino4)
     5.54904740E-04   2   1000023   1000023   # BR(A0 -> neutralino2 neutralino2)
     4.21495694E-04   2   1000023   1000025   # BR(A0 -> neutralino2 neutralino3)
     2.74011464E-02   2   1000023   1000035   # BR(A0 -> neutralino2 neutralino4)
     3.68311607E-03   2   1000025   1000025   # BR(A0 -> neutralino3 neutralino3)
     3.64936095E-02   2   1000025   1000035   # BR(A0 -> neutralino3 neutralino4)
     2.48346107E-03   2   1000035   1000035   # BR(A0 -> neutralino4 neutralino4)
     1.53761968E-07   2        23        25   # BR(A0 -> Z h0)
     4.93234800E-13   2        23        35   # BR(A0 -> Z HH)
     7.59522646E-40   2        25        25   # BR(A0 -> h0 h0)
DECAY        37     1.29678232E+02   # Gamma(Hp)
     9.36681118E-09   2       -11        12   # BR(Hp -> Electron nu_e)
     4.00460432E-04   2       -13        14   # BR(Hp -> Muon nu_mu)
     1.13272932E-01   2       -15        16   # BR(Hp -> Tau nu_tau)
     6.20440004E-07   2        -1         2   # BR(Hp -> Down up)
     1.04428301E-05   2        -3         2   # BR(Hp -> Strange up)
     6.89741369E-06   2        -5         2   # BR(Hp -> Bottom up)
     2.90314149E-08   2        -1         4   # BR(Hp -> Down charm)
     2.23601799E-04   2        -3         4   # BR(Hp -> Strange charm)
     9.65884476E-04   2        -5         4   # BR(Hp -> Bottom charm)
     1.52226047E-08   2        -1         6   # BR(Hp -> Down top)
     6.60612767E-07   2        -3         6   # BR(Hp -> Strange top)
     6.50514350E-01   2        -5         6   # BR(Hp -> Bottom top)
     2.01287634E-02   2   1000022   1000024   # BR(Hp -> neutralino1 chargino1)
     1.61460617E-02   2   1000022   1000037   # BR(Hp -> neutralino1 chargino2)
     9.09370506E-03   2   1000023   1000024   # BR(Hp -> neutralino2 chargino1)
     6.60970605E-02   2   1000023   1000037   # BR(Hp -> neutralino2 chargino2)
     4.11916023E-03   2   1000024   1000025   # BR(Hp -> chargino1 neutralino3)
     5.79764741E-02   2   1000025   1000037   # BR(Hp -> neutralino3 chargino2)
     6.10335278E-02   2   1000024   1000035   # BR(Hp -> chargino1 neutralino4)
     9.20867251E-06   2   1000035   1000037   # BR(Hp -> neutralino4 chargino2)
     1.35294801E-07   2        24        25   # BR(Hp -> W h0)
DECAY         6     2.43000000E+00   # top
#    BR                NDA      ID1      ID2
     1.00000000E+00    2           5        24   # BR(t -> b W)
Block HiggsBoundsInputHiggsCouplingsFermions
# ScalarNormEffCoupSq PseudoSNormEffCoupSq NP IP1 IP2 IP2
    1.00230343E+00    0.00000000E+00        3  25   5   5  # h0-b-b eff. coupling^2, normalised to SM
    3.11829629E+03    0.00000000E+00        3  35   5   5  # H0-b-b eff. coupling^2, normalised to SM
    0.00000000E+00    3.11829860E+03        3  36   5   5  # A0-b-b eff. coupling^2, normalised to SM
#
    9.99999261E-01    0.00000000E+00        3  25   6   6  # h0-t-t eff. coupling^2, normalised to SM
    3.21426379E-04    0.00000000E+00        3  35   6   6  # H0-t-t eff. coupling^2, normalised to SM
    0.00000000E+00    3.20687698E-04        3  36   6   6  # A0-t-t eff. coupling^2, normalised to SM
#
    1.00230343E+00    0.00000000E+00        3  25  15  15  # h0-tau-tau eff. coupling^2, normalised to SM
    3.11829629E+03    0.00000000E+00        3  35  15  15  # H0-tau-tau eff. coupling^2, normalised to SM
    0.00000000E+00    3.11829860E+03        3  36  15  15  # A0-tau-tau eff. coupling^2, normalised to SM
#
Block HiggsBoundsInputHiggsCouplingsBosons
    1.00000000E+00        3  25  24  24  # h0-W-W eff. coupling^2, normalised to SM
    4.24885023E-10        3  35  24  24  # H0-W-W eff. coupling^2, normalised to SM
    0.00000000E+00        3  36  24  24  # A0-W-W eff. coupling^2, normalised to SM
#
    1.00000000E+00        3  25  23  23  # h0-Z-Z eff. coupling^2, normalised to SM
    4.24885023E-10        3  35  23  23  # H0-Z-Z eff. coupling^2, normalised to SM
    0.00000000E+00        3  36  23  23  # A0-Z-Z eff. coupling^2, normalised to SM
#
    1.26756810E+00        3  25  21  21  # h0-g-g eff. coupling^2, normalised to SM
    2.06697784E-02        3  35  21  21  # H0-g-g eff. coupling^2, normalised to SM
    1.64715916E-01        3  36  21  21  # A0-g-g eff. coupling^2, normalised to SM
#
    0.00000000E+00        3  25  25  23  # h0-h0-Z eff. coupling^2, normalised to SM
    0.00000000E+00        3  35  25  23  # H0-h0-Z eff. coupling^2, normalised to SM
    4.24885023E-10        3  36  25  23  # A0-h0-Z eff. coupling^2, normalised to SM
    0.00000000E+00        3  35  35  23  # H0-H0-Z eff. coupling^2, normalised to SM
    1.00000000E+00        3  36  35  23  # A0-H0-Z eff. coupling^2, normalised to SM
    0.00000000E+00        3  36  36  23  # A0-A0-Z eff. coupling^2, normalised to SM
#
    0.00000000E+00        4  25  21  21  23  # h0-g-g-Z eff. coupling^2, normalised to SM
    0.00000000E+00        4  35  21  21  23  # H0-g-g-Z eff. coupling^2, normalised to SM
    0.00000000E+00        4  36  21  21  23  # A0-g-g-Z eff. coupling^2, normalised to SM
Block SPhenoLowEnergy  # low energy observables
    1    3.31893673E-04   # BR(b -> s gamma)
    2    1.58873817E-06   # BR(b -> s mu+ mu-)
    3    3.52471418E-05   # BR(b -> s nu nu)
    4    2.10904456E-15   # BR(Bd -> e+ e-)
    5    9.00962974E-11   # BR(Bd -> mu+ mu-)
    6    1.88788623E-08   # BR(Bd -> tau+ tau-)
    7    7.44478288E-14   # BR(Bs -> e+ e-)
    8    3.18042404E-09   # BR(Bs -> mu+ mu-)
    9    6.75483076E-07   # BR(Bs -> tau+ tau-)
   10    9.38449305E-05   # BR(B_u -> tau nu)
   11    9.69382204E-01   # BR(B_u -> tau nu)/BR(B_u -> tau nu)_SM
   12    5.41849282E-01   # |Delta(M_Bd)| [ps^-1] 
   13    1.93405863E+01   # |Delta(M_Bs)| [ps^-1] 
   14    0.00000000E+00   # neutron EDM according to the chiral quark model
   15    0.00000000E+00   # neutron EDM according to the relativistic quark-parton model
   16    2.15700575E-03   # epsilon_K
   17    2.28165886E-15   # Delta(M_K)
   18    2.47958307E-11   # BR(K^0 -> pi^0 nu nu)
   19    8.28952641E-11   # BR(K^+ -> pi^+ nu nu)
   20   -3.23220020E-16   # Delta(g-2)_electron/2
   21   -1.38189364E-11   # Delta(g-2)_muon/2
   22   -3.92879467E-09   # Delta(g-2)_tau/2
   23    0.00000000E+00   # electric dipole moment of the electron
   24    0.00000000E+00   # electric dipole moment of the muon
   25    0.00000000E+00   # electric dipole moment of the tau
   26    0.00000000E+00   # Br(mu -> e gamma)
   27    0.00000000E+00   # Br(tau -> e gamma)
   28    0.00000000E+00   # Br(tau -> mu gamma)
   29    0.00000000E+00   # Br(mu -> 3 e)
   30    0.00000000E+00   # Br(tau -> 3 e)
   31    0.00000000E+00   # Br(tau -> 3 mu)
   39    7.33931003E-05   # Delta(rho_parameter)
   40    0.00000000E+00   # BR(Z -> e mu)
   41    0.00000000E+00   # BR(Z -> e tau)
   42    0.00000000E+00   # BR(Z -> mu tau)
Block FWCOEF Q=  1.60000000E+02  # Wilson coefficients at scale Q
#    id        order  M        value         comment
     0305 4422   00   0    -1.88819110E-01   # C7
     0305 4422   00   2    -2.01283257E-01   # C7
     0305 4322   00   2    -2.31538857E-04   # C7'
     0305 6421   00   0    -9.52278348E-02   # C8
     0305 6421   00   2    -1.07871976E-01   # C8
     0305 6321   00   2    -2.50146829E-04   # C8'
 03051111 4133   00   0     1.63289004E+00   # C9 e+e-
 03051111 4133   00   2     1.63309442E+00   # C9 e+e-
 03051111 4233   00   2     5.22012765E-04   # C9' e+e-
 03051111 4137   00   0    -4.45558215E+00   # C10 e+e-
 03051111 4137   00   2    -4.45351385E+00   # C10 e+e-
 03051111 4237   00   2    -3.82816029E-03   # C10' e+e-
 03051313 4133   00   0     1.63289004E+00   # C9 mu+mu-
 03051313 4133   00   2     1.63309420E+00   # C9 mu+mu-
 03051313 4233   00   2     5.22009796E-04   # C9' mu+mu-
 03051313 4137   00   0    -4.45558215E+00   # C10 mu+mu-
 03051313 4137   00   2    -4.45351407E+00   # C10 mu+mu-
 03051313 4237   00   2    -3.82815853E-03   # C10' mu+mu-
 03051212 4137   00   0     1.50535012E+00   # C11 nu_1 nu_1
 03051212 4137   00   2     1.50490483E+00   # C11 nu_1 nu_1
 03051212 4237   00   2     8.26639033E-04   # C11' nu_1 nu_1
 03051414 4137   00   0     1.50535012E+00   # C11 nu_2 nu_2
 03051414 4137   00   2     1.50490483E+00   # C11 nu_2 nu_2
 03051414 4237   00   2     8.26639608E-04   # C11' nu_2 nu_2
 03051616 4137   00   0     1.50535012E+00   # C11 nu_3 nu_3
 03051616 4137   00   2     1.50490483E+00   # C11 nu_3 nu_3
 03051616 4237   00   2     8.26801806E-04   # C11' nu_3 nu_3
Block IMFWCOEF Q=  1.60000000E+02  # Im(Wilson coefficients) at scale Q
#    id        order  M        value         comment
     0305 4422   00   0     3.85817495E-07   # C7
     0305 4422   00   2    -8.69010311E-06   # C7
     0305 4322   00   2    -5.70977538E-07   # C7'
     0305 6421   00   0     3.30478200E-07   # C8
     0305 6421   00   2     9.71300668E-06   # C8
     0305 6321   00   2     5.22021501E-08   # C8'
 03051111 4133   00   2     6.41932608E-07   # C9 e+e-
 03051111 4233   00   2     1.14208577E-05   # C9' e+e-
 03051111 4137   00   2    -1.91782523E-07   # C10 e+e-
 03051111 4237   00   2    -8.37664486E-05   # C10' e+e-
 03051313 4133   00   2     6.41926599E-07   # C9 mu+mu-
 03051313 4233   00   2     1.14208523E-05   # C9' mu+mu-
 03051313 4137   00   2    -1.91776029E-07   # C10 mu+mu-
 03051313 4237   00   2    -8.37664648E-05   # C10' mu+mu-
 03051212 4137   00   2     6.51771506E-08   # C11 nu_1 nu_1
 03051212 4237   00   2     1.80882278E-05   # C11' nu_1 nu_1
 03051414 4137   00   2     6.51774708E-08   # C11 nu_2 nu_2
 03051414 4237   00   2     1.80882278E-05   # C11' nu_2 nu_2
 03051616 4137   00   2     6.52654007E-08   # C11 nu_3 nu_3
 03051616 4237   00   2     1.80882278E-05   # C11' nu_3 nu_3
