BLOCK SPINFO
   1   SPheno
   2   v4.0.5be

BLOCK SPHENOINFO
   1   2
   2   2

BLOCK MODSEL
   1   0

BLOCK MINPAR
   3    16.797252
   4   -1

BLOCK EXTPAR
   0    2979.0351
   1   -3344.4347
   2    1767.7063
   3    3831.5682
   11    4768.9972
   12    4028.4293
   13    2109.3163
   23   -480.4813
   25    16.048217
   26    4706.0634
   31    3676.8185
   32    3676.8185
   33    3409.6726
   34    3105.6331
   35    3105.6331
   36    2368.902
   41    4363.2704
   42    4363.2704
   43    4810.7334
   44    3398.3041
   45    3398.3041
   46    1710.1824
   47    1107.7848
   48    1107.7848
   49    3693.9521

BLOCK SMINPUTS
   1    127.90897
   2    1.1663787e-05
   3    0.1184
   4    91.1876
   5    4.18
   6    173.2
   7    1.777
   8    0
   11    0.00051099893
   12    0
   13    0.10565837
   14    0
   21    0.005
   22    0.0025
   23    0.095
   24    1.27

BLOCK GAUGE Q=  2979.0351
   1    0.35536298
   2    0.66519887
   3    1.219778

BLOCK YU Q=  2979.0351
   1   1    8.4006338e-06
   2   2    0.004267522
   3   3    1.014864

BLOCK YD Q=  2979.0351
   1   1    0.0002709063
   2   2    0.0051472196
   3   3    0.26865416

BLOCK YE Q=  2979.0351
   1   1    4.7275129e-05
   2   2    0.0097749974
   3   3    0.16439938

BLOCK AU Q=  2979.0351
   1   1    0
   2   2    0
   3   3    4768.9972

BLOCK AD Q=  2979.0351
   1   1    0
   2   2    0
   3   3    4028.4293

BLOCK AE Q=  2979.0351
   1   1    0
   2   2    0
   3   3    2109.3163

BLOCK MSOFT Q=  2979.0351
   1   -3344.4347
   2    1767.7063
   3    3831.5682
   21    21772902
   22   -243381.11
   31    3676.8185
   32    3676.8185
   33    3409.6726
   34    3105.6331
   35    3105.6331
   36    2368.902
   41    4363.2704
   42    4363.2704
   43    4810.7334
   44    3398.3041
   45    3398.3041
   46    1710.1824
   47    1107.7848
   48    1107.7848
   49    3693.9521

BLOCK MASS
   6    173.2
   23    91.1876
   24    80.429995
   15    1.777
   25    124.18087
   35    4705.5312
   36    4706.0634
   37    4706.4425
   1000001    4462.9433
   2000001    1261.4405
   1000002    4462.2236
   2000002    3511.4607
   1000003    4462.9427
   2000003    1261.4398
   1000004    4462.223
   2000004    3511.4603
   1000005    3800.1939
   2000005    4868.7139
   1000006    1821.3173
   2000006    4872.6544
   1000011    3687.4244
   2000011    3118.9531
   1000012    3686.1727
   1000013    3687.422
   2000013    3118.9483
   1000014    3686.1703
   1000015    2383.3019
   2000015    3420.1058
   1000016    3418.7897
   1000021    4015.9673
   1000022    494.27578
   1000023   -496.80511
   1000025    1847.8209
   1000035   -3312.903
   1000024    495.5695
   1000037    1846.8016

BLOCK ALPHA
      -0.059521865

BLOCK HMIX Q=  2979.0351
   1   -480.4813
   2    16.048217
   3    243.27047
   4    22147033

BLOCK STOPMIX
   1   1   -0.032879839
   1   2    0.99945931
   2   1   -0.99945931
   2   2   -0.032879839

BLOCK SBOTMIX
   1   1   -0.0027856983
   1   2    0.99999612
   2   1   -0.99999612
   2   2   -0.0027856983

BLOCK STAUMIX
   1   1   -0.0028761551
   1   2    0.99999586
   2   1   -0.99999586
   2   2   -0.0028761551

BLOCK NMIX
   1   1   -0.0078533176
   1   2   -0.038195367
   1   3   -0.70787072
   1   4   -0.70526484
   2   1   -0.0120063
   2   2   -0.025263207
   2   3    0.70627603
   2   4   -0.70738376
   3   1    0.00039239145
   3   2   -0.99895087
   3   3    0.0092036232
   3   4    0.044858663
   4   1    0.99989701
   4   2   -0.00021131997
   4   3    0.0029173174
   4   4   -0.01405078

BLOCK UMIX
   1   1   -0.013034305
   1   2   -0.99991505
   2   1    0.99991505
   2   2   -0.013034305

BLOCK VMIX
   1   1   -0.063479042
   1   2    0.99798317
   2   1    0.99798317
   2   2    0.063479042

BLOCK HIGGSBOUNDSINPUTHIGGSCOUPLINGSFERMIONS
       0, 257.54528,3,36,15,15

BLOCK HIGGSBOUNDSINPUTHIGGSCOUPLINGSBOSONS
       0,4,36,21,21,23

BLOCK SPHENOLOWENERGY
   1    0.00031988603
   2    1.5896527e-06
   3    3.5238596e-05
   4    2.5812951e-15
   5    1.1026997e-10
   6    2.3082318e-08
   7    8.7140379e-14
   8    3.7226333e-09
   9    7.8954686e-07
   10    9.6735753e-05
   11    0.99924329
   12    0.54228632
   13    19.37596
   14    0
   15    0
   16    0.0021585036
   17    2.2816704e-15
   18    2.4791364e-11
   19    8.2880148e-11
   20   -7.0435107e-16
   21   -3.0113321e-11
   22   -9.3097357e-09
   23    0
   24    0
   25    0
   26    0
   27    0
   28    0
   29    0
   30    0
   31    0
   39    2.7214121e-05
   40    0
   41    0
   42    0

BLOCK FWCOEF Q=  160
   305   4422   0   0   -0.18881911
   305   4422   0   2   -0.18799661
   305   4322   0   2    2.1230628e-05
   305   6421   0   0   -0.095227835
   305   6421   0   2   -0.097369304
   305   6321   0   2   -3.9823005e-05
   3051111   4133   0   0    1.6160091
   3051111   4133   0   2    1.6162851
   3051111   4233   0   2    2.7957212e-05
   3051111   4137   0   0   -4.4387012
   3051111   4137   0   2   -4.4356552
   3051111   4237   0   2   -0.00021078699
   3051313   4133   0   0    1.6160091
   3051313   4133   0   2    1.6162849
   3051313   4233   0   2    2.7957205e-05
   3051313   4137   0   0   -4.4387012
   3051313   4137   0   2   -4.4356554
   3051313   4237   0   2   -0.000210787
   3051212   4137   0   0    1.5053501
   3051212   4137   0   2    1.5046914
   3051212   4237   0   2    4.5689268e-05
   3051414   4137   0   0    1.5053501
   3051414   4137   0   2    1.5046914
   3051414   4237   0   2    4.5689269e-05
   3051616   4137   0   0    1.5053501
   3051616   4137   0   2    1.5046914
   3051616   4237   0   2    4.5689371e-05

BLOCK IMFWCOEF Q=  160
   305   4422   0   0    3.8583288e-07
   305   4422   0   2   -2.2336386e-06
   305   4322   0   2    1.4340099e-06
   305   6421   0   0    3.3049138e-07
   305   6421   0   2    9.734067e-07
   305   6321   0   2    7.3572873e-07
   3051111   4133   0   2   -8.1623562e-07
   3051111   4233   0   2    5.6044678e-07
   3051111   4137   0   2    6.6330348e-06
   3051111   4237   0   2   -4.2243368e-06
   3051313   4133   0   2   -8.1623537e-07
   3051313   4233   0   2    5.6044669e-07
   3051313   4137   0   2    6.6330361e-06
   3051313   4237   0   2   -4.224337e-06
   3051212   4137   0   2   -1.4110212e-06
   3051212   4237   0   2    9.1564988e-07
   3051414   4137   0   2   -1.4110212e-06
   3051414   4237   0   2    9.1564988e-07
   3051616   4137   0   2   -1.4108845e-06
   3051616   4237   0   2    9.1564971e-07

DECAY 23  2.4952


DECAY 24  2.085


DECAY 2000011  0.0030657813
    0.69997355   2    1000023    11
    0.29965195   2    1000022    11
    0.00033151883   2    1000025    11

DECAY 1000011  27.515862
    0.66198819   2   -1000037    12
    0.32997333   2    1000025    11
    0.00625243   2    1000035    11
    0.0010222063   2    1000022    11
    0.00057059498   2    1000023    11
    0.00019324897   2   -1000024    12

DECAY 2000013  0.01433129
    0.39300909   2   -1000024    14
    0.34576454   2    1000023    13
    0.26111105   2    1000022    13

DECAY 1000013  27.522593
    0.66182529   2   -1000037    14
    0.32989213   2    1000025    13
    0.0062508294   2    1000035    13
    0.0011450295   2    1000022    13
    0.00069291931   2    1000023    13
    0.00019320157   2   -1000024    14

DECAY 1000015  2.3486348
    0.4995254   2   -1000024    16
    0.25086994   2    1000022    15
    0.24960429   2    1000023    15

DECAY 2000015  24.489204
    0.61688938   2   -1000037    16
    0.30744261   2    1000025    15
    0.03710422   2    1000022    15
    0.036499244   2    1000023    15
    0.00066744113   2    1000035    15
    0.00061827885   2    1000015    23
    0.00059987913   2    1000015    25
    0.00017895121   2   -1000024    16

DECAY 1000012  27.531348
    0.65853839   2    1000037    11
    0.32980233   2    1000025    12
    0.0062211533   2    1000035    12
    0.0045793098   2    1000024    11
    0.00065697521   2    1000022    12
    0.00020184336   2    1000023    12

DECAY 1000014  27.53806
    0.65837689   2    1000037    13
    0.32972144   2    1000025    14
    0.0062195651   2    1000035    14
    0.0048234966   2    1000024    13
    0.00065681462   2    1000022    14
    0.00020179402   2    1000023    14

DECAY 1000016  24.506868
    0.61343599   2    1000037    15
    0.30716112   2    1000025    16
    0.076626448   2    1000024    15
    0.0012348326   2    1000015    24
    0.00068045071   2    1000022    16
    0.00065211624   2    1000035    16
    0.00020904273   2    1000023    16

DECAY 2000001  0.00010622378
    0.68841056   2    1000023    1
    0.29919199   2    1000022    1
    0.012397445   2   -1000024    2

DECAY 1000001  53.362185
    0.50560083   2   -1000037    2
    0.25223329   2    1000025    1
    0.23900731   2    1000021    1
    0.0023581234   2    1000035    1
    0.00048634775   2    1000022    1
    0.00019207275   2    1000023    1
    0.00012201711   2   -1000024    2

DECAY 2000003  0.0010544648
    0.45084489   2   -1000024    4
    0.29329057   2    1000023    3
    0.25586454   2    1000022    3

DECAY 1000003  53.366017
    0.50556447   2   -1000037    4
    0.25221512   2    1000025    3
    0.23898954   2    1000021    3
    0.002357952   2    1000035    3
    0.00050780406   2    1000022    3
    0.00021344426   2    1000023    3
    0.00015143767   2   -1000024    4

DECAY 1000005  10.64478
    0.49312165   2   -1000024    6
    0.24836846   2    1000022    5
    0.24700185   2    1000023    5
    0.011477824   2    1000035    5

DECAY 2000005  244.83663
    0.39639913   2   -1000024    6
    0.22030643   2    1000006   -24
    0.16035014   2    1000021    5
    0.12982207   2   -1000037    6
    0.064004588   2    1000025    5
    0.014124019   2    1000022    5
    0.013997164   2    1000023    5
    0.00080223173   2    1000035    5
    0.00012079826   2    1000005    25

DECAY 2000002  0.096232751
    0.98388399   2    1000035    2
    0.011280892   2    1000023    2
    0.0048285063   2    1000022    2

DECAY 1000002  53.360745
    0.50351427   2    1000037    1
    0.25209521   2    1000025    2
    0.23831949   2    1000021    2
    0.0028937525   2    1000024    1
    0.0023447821   2    1000035    2
    0.00056294307   2    1000022    2
    0.0002695493   2    1000023    2

DECAY 2000004  0.098670457
    0.9595449   2    1000035    4
    0.017200334   2    1000023    4
    0.012335423   2    1000024    3
    0.01087218   2    1000022    4

DECAY 1000004  53.364499
    0.50347873   2    1000037    3
    0.25207746   2    1000025    4
    0.23830087   2    1000021    4
    0.0029364229   2    1000024    3
    0.0023446178   2    1000035    4
    0.00057759183   2    1000022    4
    0.00028430739   2    1000023    4

DECAY 1000006  63.102071
    0.50312779   2    1000024    5
    0.24908649   2    1000023    6
    0.24778281   2    1000022    6

DECAY 2000006  259.24088
    0.1883159   2    1000023    6
    0.18739739   2    1000022    6
    0.15922261   2    1000006    25
    0.15062765   2    1000021    6
    0.11995092   2    1000037    5
    0.10421869   2    1000006    23
    0.060786087   2    1000025    6
    0.028490593   2    1000024    5
    0.00084985123   2    1000035    6
    0.00014030206   2    1000005    24

DECAY 1000024  2.8253402e-12
    0.60388687   3    1000022   -1    2
    0.20131447   3    1000022   -11    12
    0.19479866   3    1000022   -13    14

DECAY 1000037  14.952387
    0.25054062   2    1000024    25
    0.24105814   2    1000023    24
    0.23923614   2    1000022    24
    0.23911829   2    1000024    23
    0.011316302   3    1000024    6   -6
    0.010095912   3    1000023   -5    6
    0.0086094916   3    1000022   -5    6

DECAY 1000022 -1


DECAY 1000023  3.6746476e-09
    0.92922079   2    1000022    22
    0.019743655   3    1000022    12   -12
    0.014763269   3    1000022    1   -1
    0.014523534   3    1000022    3   -3
    0.011514554   3    1000022    2   -2
    0.0033317996   3    1000022    11   -11
    0.0032469619   3    1000022    13   -13
    0.0011044029   3    1000024    1   -2
    0.0011044029   3   -1000024   -1    2
    0.00036817192   3    1000024    11   -12
    0.00036817192   3   -1000024   -11    12
    0.00035514141   3    1000024    13   -14
    0.00035514141   3   -1000024   -13    14

DECAY 1000025  17.205013
    0.20931003   2    1000024   -24
    0.20931003   2   -1000024    24
    0.1951732   2    1000023    25
    0.15221005   2    1000022    25
    0.1462626   2    1000023    23
    0.063299602   2    1000022    23
    0.0072350012   3    1000024    5   -6
    0.0072350012   3   -1000024   -5    6
    0.0052740196   3    1000023    6   -6
    0.0046812128   3    1000022    6   -6

DECAY 1000035  33.612596
    0.16236976   2    1000006   -6
    0.16236976   2   -1000006    6
    0.070728648   2    1000024   -24
    0.070728648   2   -1000024    24
    0.060328211   2    2000003   -3
    0.060328211   2   -2000003    3
    0.060328187   2    2000001   -1
    0.060328187   2   -2000001    1
    0.057626448   2    1000015   -15
    0.057626448   2   -1000015    15
    0.049358379   2    1000022    23
    0.044761128   2    1000023    25
    0.035047023   2    1000022    25
    0.021353195   2    1000023    23
    0.0038265252   3    1000024    5   -6
    0.0038265252   3   -1000024   -5    6
    0.0031983751   2    2000013   -13
    0.0031983751   2   -2000013    13
    0.0031982224   2    2000011   -11
    0.0031982224   2   -2000011    11
    0.0030245216   3    1000023    6   -6
    0.0028334987   3    1000022    6   -6

DECAY 1000021  283.37033
    0.17040105   2    2000003   -3
    0.17040105   2   -2000003    3
    0.170401   2    2000001   -1
    0.170401   2   -2000001    1
    0.13311847   2    1000006   -6
    0.13311847   2   -1000006    6
    0.011629574   2    2000002   -2
    0.011629574   2   -2000002    2
    0.01162956   2    2000004   -4
    0.01162956   2   -2000004    4
    0.002293458   2    1000005   -5
    0.002293458   2   -1000005    5
    0.00010808002   3    1000024    5   -6
    0.00010808002   3   -1000024   -5    6

DECAY 25  0.0037687972
    0.58489529   2   -5    5
    0.2156185   2   -24    24
    0.073378461   2    21    21
    0.06721927   2   -15    15
    0.028980763   2   -4    4
    0.025678338   2    23    23
    0.0023448027   2    22    22
    0.0014309707   2    22    23
    0.00023313196   2   -13    13
    0.00021970465   2   -3    3
    6.0746068e-07   2   -1    1
    1.4934724e-07   2   -2    2
    5.2410755e-09   2   -11    11

DECAY 35  59.655756
    0.23684252   2   -5    5
    0.22749091   2   -1000024    1000037
    0.22749091   2   -1000037    1000024
    0.11750904   2    1000022    1000025
    0.11054893   2    1000023    1000025
    0.043721389   2   -15    15
    0.015095931   2    1000022    1000035
    0.011115585   2   -6    6
    0.006362993   2    1000023    1000035
    0.0028642449   2   -1000024    1000024
    0.00047160812   2    1000022    1000022
    0.00015145778   2   -13    13
    0.00011407446   2    1000023    1000023
    9.1276182e-05   2   -3    3
    6.3865013e-05   2   -1000037    1000037
    3.1898559e-05   2    1000025    1000025
    2.66104e-05   2    1000022    1000023
    4.8309985e-06   2    25    25
    7.6458892e-07   2    23    23
    4.3630944e-07   2    21    21
    2.5233568e-07   2   -1    1
    1.4703391e-07   2   -4    4
    1.3476293e-07   2   -24    24
    6.4224358e-08   2   -1000001    1000001
    6.4169652e-08   2   -1000003    1000003
    3.365212e-08   2    22    23
    1.2518852e-08   2   -1000006    1000006
    3.4012122e-09   2   -11    11
    3.1429976e-09   2    22    22
    7.5786692e-13   2   -2    2

DECAY 36  58.928537
    0.23037287   2   -1000024    1000037
    0.23037287   2   -1000037    1000024
    0.23012122   2   -5    5
    0.11842564   2    1000023    1000025
    0.11251802   2    1000022    1000025
    0.042481626   2   -15    15
    0.015224512   2    1000023    1000035
    0.010170261   2   -6    6
    0.0065143349   2    1000022    1000035
    0.0028748587   2   -1000024    1000024
    0.00039282627   2    1000022    1000022
    0.0001531104   2    1000023    1000023
    0.00014716296   2   -13    13
    8.8685708e-05   2   -3    3
    6.0508858e-05   2    1000022    1000023
    4.7819693e-05   2   -1000037    1000037
    2.393105e-05   2    1000025    1000025
    7.3640781e-06   2    21    21
    1.980085e-06   2    23    25
    2.4517438e-07   2   -1    1
    1.3370887e-07   2   -4    4
    1.7561818e-08   2    22    23
    3.3047624e-09   2   -11    11
    1.6747408e-09   2    22    22
    6.8919333e-13   2   -2    2
    1.7095053e-42   2    25    25

DECAY 37  60.032184
    0.25176072   2   -5    6
    0.22821988   2    1000022    1000037
    0.22665779   2    1000024    1000025
    0.22621498   2    1000023    1000037
    0.044236471   2   -15    16
    0.021311935   2    1000024    1000035
    0.00068815386   2    1000023    1000024
    0.00035826719   2   -5    4
    0.00028743597   2    1000022    1000024
    0.00015639165   2   -13    14
    8.3574121e-05   2   -3    4
    1.5039164e-05   2   -3    6
    3.9275879e-06   2   -3    2
    2.5583955e-06   2   -5    2
    1.9446427e-06   2    24    25
    6.8404802e-07   2   -1    6
    2.3151903e-07   2   -1    2
    1.7093356e-08   2   -1    4
    3.6580171e-09   2   -11    12
    7.9044111e-11   2   -1000003    1000006
    6.8700669e-12   2    1000025    1000037
    2.0070463e-13   2   -1000003    1000004
    1.0041837e-14   2   -1000001    1000006
    2.9742193e-17   2   -1000001    1000004
    5.6389089e-20   2   -1000003    1000002
    2.9208876e-21   2   -1000001    1000002

DECAY 6  2.43
    1   2    5    24

DECAY 15 -1
