BLOCK SPINFO
   1   SPheno
   2   v4.0.5be

BLOCK SPHENOINFO
   1   2
   2   2

BLOCK MODSEL
   1   0

BLOCK MINPAR
   3    6.5988128
   4   -1

BLOCK EXTPAR
   0    895.47446
   1   -430.76702
   2   -414.49748
   3    3000
   11    2486.138
   12    924.75003
   13    1127.7846
   23   -1147.8607
   25    6.3396467
   26    1861.4823
   31    1037.8648
   32    1037.8648
   33    1933.2514
   34    1993.2928
   35    1993.2928
   36    1749.4069
   41    5000
   42    5000
   43    1369.4695
   44    5000
   45    5000
   46    896.97808
   47    5000
   48    5000
   49    1540.7127

BLOCK SMINPUTS
   1    127.90897
   2    1.1663787e-05
   3    0.1184
   4    91.1876
   5    4.18
   6    173.2
   7    1.777
   8    0
   11    0.00051099893
   12    0
   13    0.10565837
   14    0
   21    0.005
   22    0.0025
   23    0.095
   24    1.27

BLOCK GAUGE Q=  895.47446
   1    0.35536298
   2    0.66519887
   3    1.219778

BLOCK YU Q=  895.47446
   1   1    8.4880375e-06
   2   2    0.0043119231
   3   3    1.0254231

BLOCK YD Q=  895.47446
   1   1    0.00010813159
   2   2    0.0020545002
   3   3    0.10723265

BLOCK YE Q=  895.47446
   1   1    1.8869753e-05
   2   2    0.0039016665
   3   3    0.065619613

BLOCK AU Q=  895.47446
   1   1    0
   2   2    0
   3   3    2486.138

BLOCK AD Q=  895.47446
   1   1    0
   2   2    0
   3   3    924.75004

BLOCK AE Q=  895.47446
   1   1    0
   2   2    0
   3   3    1127.7846

BLOCK MSOFT Q=  895.47446
   1   -430.76702
   2   -414.49748
   3    3000
   21    2066409.9
   22   -1196623.1
   31    1037.8648
   32    1037.8648
   33    1933.2514
   34    1993.2928
   35    1993.2928
   36    1749.4069
   41    5000
   42    5000
   43    1369.4695
   44    5000
   45    5000
   46    896.97808
   47    5000
   48    5000
   49    1540.7127

BLOCK MASS
   6    173.2
   23    91.1876
   24    80.429995
   15    1.777
   25    120.70087
   35    1861.1002
   36    1861.4823
   37    1863.3331
   1000001    5004.5888
   2000001    4993.7994
   1000002    5004.1748
   2000002    4994.8449
   1000003    5004.5898
   2000003    4993.7996
   1000004    5004.1758
   2000004    4994.8464
   1000005    1259.9642
   2000005    1483.0087
   1000006    605.72136
   2000006    1323.834
   1000011    1040.7339
   2000011    1996.004
   1000012    1037.5314
   1000013    1040.7339
   2000013    1996.0037
   1000014    1037.5315
   1000015    1752.0035
   2000015    1936.9697
   1000016    1934.991
   1000021    3147.9744
   1000022   -430.91611
   1000023   -438.46885
   1000025    1148.6558
   1000035   -1152.4443
   1000024    437.57981
   1000037    1153.9327

BLOCK ALPHA
      -0.15137973

BLOCK HMIX Q=  895.47446
   1   -1147.8607
   2    6.3396467
   3    244.4296
   4    3465116.2

BLOCK STOPMIX
   1   1   -0.32680152
   1   2    0.94509299
   2   1   -0.94509299
   2   2   -0.32680152

BLOCK SBOTMIX
   1   1   -0.99937378
   1   2    0.035384429
   2   1   -0.035384429
   2   2   -0.99937378

BLOCK STAUMIX
   1   1   -0.021988013
   1   2    0.99975823
   2   1   -0.99975823
   2   2   -0.021988013

BLOCK NMIX
   1   1    0.92126263
   1   2   -0.37935361
   1   3   -0.076523397
   1   4    0.038860889
   2   1   -0.38519272
   2   2   -0.92045533
   2   3   -0.059033855
   2   4    0.030059448
   3   1    0.016760187
   3   2   -0.029166238
   3   3    0.70573989
   3   4    0.70767199
   4   1    0.051194007
   4   2   -0.089454825
   4   3    0.70184784
   4   4   -0.70483092

BLOCK UMIX
   1   1   -0.99294742
   1   2   -0.11855553
   2   1   -0.11855553
   2   2    0.99294742

BLOCK VMIX
   1   1    0.99816482
   1   2    0.060555751
   2   1    0.060555751
   2   2   -0.99816482

BLOCK HIGGSBOUNDSINPUTHIGGSCOUPLINGSFERMIONS
       0, 40.19112,3,36,15,15

BLOCK HIGGSBOUNDSINPUTHIGGSCOUPLINGSBOSONS
       0,4,36,21,21,23

BLOCK SPHENOLOWENERGY
   1    0.00032556215
   2    1.5885133e-06
   3    3.5224921e-05
   4    2.3477256e-15
   5    1.0029218e-10
   6    2.0995504e-08
   7    7.920593e-14
   8    3.383675e-09
   9    7.1772129e-07
   10    9.6745709e-05
   11    0.99934613
   12    0.54358492
   13    19.422521
   14    0
   15    0
   16    0.0021634119
   17    2.2817206e-15
   18    2.4776672e-11
   19    8.284925e-11
   20    2.2182347e-15
   21    9.4836397e-11
   22    1.1717454e-08
   23    0
   24    0
   25    0
   26    0
   27    0
   28    0
   29    0
   30    0
   31    0
   39   -0.00010824631
   40    0
   41    0
   42    0

BLOCK FWCOEF Q=  160
   305   4422   0   0   -0.18881911
   305   4422   0   2   -0.19295779
   305   4322   0   2   -0.00021272051
   305   6421   0   0   -0.095227835
   305   6421   0   2   -0.10672757
   305   6321   0   2   -0.00029906994
   3051111   4133   0   0    1.5733384
   3051111   4133   0   2    1.5744526
   3051111   4233   0   2    2.7383431e-06
   3051111   4137   0   0   -4.3960305
   3051111   4137   0   2   -4.3915926
   3051111   4237   0   2   -2.1137072e-05
   3051313   4133   0   0    1.5733384
   3051313   4133   0   2    1.5744524
   3051313   4233   0   2    2.7383416e-06
   3051313   4137   0   0   -4.3960305
   3051313   4137   0   2   -4.3915928
   3051313   4237   0   2   -2.1137072e-05
   3051212   4137   0   0    1.5053501
   3051212   4137   0   2    1.504398
   3051212   4237   0   2    4.6213746e-06
   3051414   4137   0   0    1.5053501
   3051414   4137   0   2    1.504398
   3051414   4237   0   2    4.6213749e-06
   3051616   4137   0   0    1.5053501
   3051616   4137   0   2    1.5043971
   3051616   4237   0   2    4.6217886e-06

BLOCK IMFWCOEF Q=  160
   305   4422   0   0    3.8584547e-07
   305   4422   0   2    2.6231283e-06
   305   4322   0   2    7.2371406e-07
   305   6421   0   0    3.3050216e-07
   305   6421   0   2    2.1841607e-06
   305   6321   0   2    3.4121117e-07
   3051111   4133   0   2   -5.1483886e-07
   3051111   4233   0   2    8.6104541e-08
   3051111   4137   0   2    5.2267603e-06
   3051111   4237   0   2   -6.761243e-07
   3051313   4133   0   2   -5.1484038e-07
   3051313   4233   0   2    8.6104534e-08
   3051313   4137   0   2    5.2267607e-06
   3051313   4237   0   2   -6.7612432e-07
   3051212   4137   0   2   -8.2812543e-07
   3051212   4237   0   2    1.4789352e-07
   3051414   4137   0   2   -8.2812541e-07
   3051414   4237   0   2    1.4789352e-07
   3051616   4137   0   2   -8.4386999e-07
   3051616   4237   0   2    1.4789967e-07

DECAY 23  2.4952


DECAY 24  2.085


DECAY 1000011  10.092209
    0.60655484   2   -1000024    12
    0.38948005   2    1000023    11
    0.0039651116   2    1000022    11

DECAY 2000011  9.0979081
    0.85042114   2    1000022    11
    0.1481564   2    1000023    11
    0.0012839315   2    1000035    11
    0.00013851877   2    1000025    11

DECAY 1000013  10.092212
    0.6065547   2   -1000024    14
    0.38948006   2    1000023    13
    0.0039652316   2    1000022    13

DECAY 2000013  9.0985212
    0.8503641   2    1000022    13
    0.1481466   2    1000023    13
    0.0012983632   2    1000035    13
    0.00015330331   2    1000025    13

DECAY 1000015  7.8634314
    0.83873163   2    1000022    15
    0.14667563   2    1000023    15
    0.0057130147   2   -1000037    16
    0.0038041134   2    1000035    15
    0.0031376098   2    1000025    15
    0.0019379964   2   -1000024    16

DECAY 2000015  25.151702
    0.60132096   2   -1000024    16
    0.38679708   2    1000023    15
    0.0041087283   2   -1000037    16
    0.0039484092   2    1000022    15
    0.0019698181   2    1000035    15
    0.0014617843   2    1000025    15
    0.0002052157   2    1000015    25
    0.00018800243   2    1000015    23

DECAY 1000012  10.099469
    0.60900006   2    1000024    11
    0.23517455   2    1000022    12
    0.15582539   2    1000023    12

DECAY 1000014  10.099473
    0.60900014   2    1000024    13
    0.23517451   2    1000022    14
    0.15582536   2    1000023    14

DECAY 1000016  25.197452
    0.60648358   2    1000024    15
    0.23189418   2    1000022    16
    0.15536739   2    1000023    16
    0.0037279295   2    1000037    15
    0.0019201684   2    1000035    16
    0.00040074765   2    1000015    24
    0.00020599529   2    1000025    16

DECAY 2000001  145.89403
    0.98118014   2    1000021    1
    0.015978307   2    1000022    1
    0.0027918336   2    1000023    1

DECAY 1000001  209.96494
    0.6871321   2    1000021    1
    0.20372362   2   -1000024    2
    0.074967127   2    1000023    1
    0.030521802   2    1000022    1
    0.0026439131   2   -1000037    2
    0.00091411294   2    1000035    1

DECAY 2000003  145.8948
    0.98117509   2    1000021    3
    0.01597824   2    1000022    3
    0.0027918287   2    1000023    3

DECAY 1000003  209.9671
    0.68712555   2    1000021    3
    0.20372157   2   -1000024    4
    0.07496638   2    1000023    3
    0.030521507   2    1000022    3
    0.0026518006   2   -1000037    4
    0.00091498421   2    1000035    3

DECAY 1000005  76.665972
    0.83890687   2    1000006   -24
    0.1037035   2   -1000024    6
    0.040547922   2    1000023    5
    0.016724387   2    1000022    5

DECAY 2000005  1.0473226
    0.5596153   2    1000022    5
    0.16145636   2    1000006   -24
    0.099730781   2    1000023    5
    0.061093823   2   -1000037    6
    0.028274999   2    1000005    25
    0.026576052   2    1000035    5
    0.026248828   2    1000025    5
    0.021641131   2    1000005    23
    0.012750375   2    2000006   -24
    0.0026123475   2   -1000024    6

DECAY 2000002  154.24253
    0.92877981   2    1000021    2
    0.060466909   2    1000022    2
    0.010565174   2    1000023    2
    0.000169888   2    1000035    2

DECAY 1000002  209.96067
    0.68694035   2    1000021    2
    0.20585679   2    1000024    1
    0.10105043   2    1000023    2
    0.004790992   2    1000022    2
    0.00068973507   2    1000037    1
    0.00060717221   2    1000035    2

DECAY 2000004  154.24594
    0.92875989   2    1000021    4
    0.060465603   2    1000022    4
    0.010564951   2    1000023    4
    0.00017520975   2    1000035    4

DECAY 1000004  209.96276
    0.68693372   2    1000021    4
    0.20585481   2    1000024    3
    0.10104944   2    1000023    4
    0.0047909585   2    1000022    4
    0.00069149402   2    1000037    3
    0.00061108016   2    1000035    4

DECAY 1000006  0.25305289
    0.82658418   2    1000024    5
    0.17341537   2    1000022    6

DECAY 2000006  74.736849
    0.48430845   2    1000006    23
    0.35391601   2    1000006    25
    0.10312282   2    1000024    5
    0.052324443   2    1000023    6
    0.0030632432   2    1000037    5
    0.0026474298   2    1000022    6
    0.00061760239   2    1000025    6

DECAY 1000024  2.9286432e-08
    0.36397719   3    1000022   -1    2
    0.30527604   3    1000022   -3    4
    0.12217113   3    1000022   -11    12
    0.12201843   3    1000022   -13    14
    0.086557209   3    1000022   -15    16

DECAY 1000037  26.12592
    0.63110963   2    1000006   -5
    0.14641372   2    1000023    24
    0.10821851   2    1000024    23
    0.10792962   2    1000024    25
    0.0024894173   2    1000022    24
    0.0018602822   3    1000024    6   -6
    0.001651294   3    1000023   -5    6

DECAY 1000022 -1


DECAY 1000023  1.6734432e-11
    0.58488801   2    1000022    22
    0.10248276   2    1000024   -211
    0.10248276   2   -1000024    211
    0.053153556   3    1000024    11   -12
    0.053153556   3   -1000024   -11    12
    0.0496046   3    1000024    13   -14
    0.0496046   3   -1000024   -13    14
    0.0026121826   3    1000022    12   -12
    0.00054382065   3    1000022    15   -15
    0.00052069046   3    1000022    11   -11
    0.0005196444   3    1000022    13   -13
    0.00043381077   2    1000022    111

DECAY 1000025  24.960139
    0.27795183   2    1000006   -6
    0.27795183   2   -1000006    6
    0.11323442   2    1000024   -24
    0.11323442   2   -1000024    24
    0.088697818   2    1000022    23
    0.051996969   2    1000023    23
    0.043288117   2    1000022    25
    0.02919994   2    1000023    25
    0.0018328132   3    1000024    5   -6
    0.0018328132   3   -1000024   -5    6
    0.00044584246   3    1000023    6   -6
    0.00029954761   3    1000022    6   -6

DECAY 1000035  22.821055
    0.29150699   2    1000006   -6
    0.29150699   2   -1000006    6
    0.12717977   2    1000024   -24
    0.12717977   2   -1000024    24
    0.084857414   2    1000022    25
    0.05732128   2    1000023    25
    0.010245266   2    1000022    23
    0.0059625824   2    1000023    23
    0.0014175139   3    1000024    5   -6
    0.0014175139   3   -1000024   -5    6
    0.00059336454   3    1000023    6   -6
    0.0005287379   3    1000022    6   -6

DECAY 1000021  274.13925
    0.16864542   2    1000006   -6
    0.16864542   2   -1000006    6
    0.11988737   2    1000005   -5
    0.11988737   2   -1000005    5
    0.10551024   2    2000006   -6
    0.10551024   2   -2000006    6
    0.10286047   2    2000005   -5
    0.10286047   2   -2000005    5
    0.0024615989   3    1000035    6   -6
    0.0014788962   3    1000037    5   -6
    0.0014788962   3   -1000037   -5    6
    0.00035594798   3    1000025    6   -6
    0.00028138472   3    1000023    6   -6

DECAY 25  0.003413308
    0.64218842   2   -5    5
    0.16181251   2   -24    24
    0.073461317   2   -15    15
    0.06911012   2    21    21
    0.031467927   2   -4    4
    0.01796291   2    23    23
    0.0023635431   2    22    22
    0.0011362439   2    22    23
    0.00025482154   2   -13    13
    0.00024134724   2   -3    3
    6.6730058e-07   2   -1    1
    1.6217665e-07   2   -2    2
    5.7287319e-09   2   -11    11

DECAY 35  13.660327
    0.17765852   2   -1000024    1000037
    0.17765852   2   -1000037    1000024
    0.16675649   2   -6    6
    0.16641206   2    1000022    1000025
    0.13675484   2   -1000006    1000006
    0.085245935   2   -5    5
    0.029889054   2    1000022    1000035
    0.025312292   2    1000023    1000025
    0.012109115   2   -15    15
    0.0093196861   2   -1000024    1000024
    0.0057524941   2    1000022    1000022
    0.0042213205   2    1000023    1000035
    0.001773188   2    1000022    1000023
    0.00055349285   2    25    25
    0.00019884875   2    21    21
    0.00013655812   2    1000023    1000023
    0.00010968668   2    23    23
    6.4483139e-05   2   -24    24
    4.2293035e-05   2   -13    13
    2.6911129e-05   2   -3    3
    1.9161783e-06   2   -4    4
    1.7430426e-06   2    22    22
    4.751431e-07   2    22    23
    7.4399231e-08   2   -1    1
    9.5001583e-10   2   -11    11
    9.8782044e-12   2   -2    2

DECAY 36  11.785212
    0.20220764   2   -1000024    1000037
    0.20220764   2   -1000037    1000024
    0.19637268   2   -6    6
    0.18507113   2    1000022    1000035
    0.096992522   2   -5    5
    0.036812108   2    1000022    1000025
    0.028126738   2    1000023    1000035
    0.017985306   2   -1000024    1000024
    0.013781395   2   -15    15
    0.011109606   2    1000022    1000022
    0.0052107658   2    1000023    1000025
    0.0034810421   2    1000022    1000023
    0.00027266806   2    1000023    1000023
    0.00016965977   2    23    25
    0.00011506541   2    21    21
    4.8131193e-05   2   -13    13
    3.0627699e-05   2   -3    3
    2.1645279e-06   2   -4    4
    1.7401183e-06   2    22    23
    1.2729812e-06   2    22    22
    8.4674126e-08   2   -1    1
    1.0811579e-09   2   -11    11
    1.1159627e-11   2   -2    2
    2.9588942e-35   2    25    25

DECAY 37  11.176756
    0.25850527   2   -5    6
    0.22049067   2    1000024    1000025
    0.21699341   2    1000024    1000035
    0.19237651   2    1000022    1000037
    0.087710712   2    1000023    1000037
    0.014517809   2   -15    16
    0.0086432379   2    1000023    1000024
    0.0002240766   2   -3    6
    0.00017972913   2    24    25
    0.00014879893   2   -5    4
    0.00011345555   2    1000022    1000024
    5.1325695e-05   2   -13    14
    3.2078123e-05   2   -3    4
    1.0275177e-05   2   -1    6
    1.3989459e-06   2   -3    2
    1.0625561e-06   2   -5    2
    9.8798091e-08   2   -1    4
    8.3347438e-08   2   -1    2
    1.2005133e-09   2   -11    12
    6.7544695e-12   2    24    35
    2.6434962e-12   2    24    36

DECAY 6  2.43
    1   2    5    24

DECAY 15 -1
