BLOCK SPINFO
   1   SPheno
   2   v4.0.5be

BLOCK SPHENOINFO
   1   2
   2   2

BLOCK MODSEL
   1   0

BLOCK MINPAR
   3    57.927706
   4    1

BLOCK EXTPAR
   0    3089.1869
   1    599.48573
   2   -4534.783
   3    4173.2623
   11    3318.2209
   12    5225.2446
   13    2993.6743
   23    1969.4869
   25    56.161492
   26    4440.5467
   31    3523.0178
   32    3523.0178
   33    1030.6662
   34    845.03862
   35    845.03862
   36    4728.6383
   41    3685.97
   42    3685.97
   43    2481.0476
   44    342.07618
   45    342.07618
   46    3596.1837
   47    2673.0016
   48    2673.0016
   49    645.61962

BLOCK SMINPUTS
   1    127.90897
   2    1.1663787e-05
   3    0.1184
   4    91.1876
   5    4.18
   6    173.2
   7    1.777
   8    0
   11    0.00051099893
   12    0
   13    0.10565837
   14    0
   21    0.005
   22    0.0025
   23    0.095
   24    1.27

BLOCK GAUGE Q=  3089.1869
   1    0.35536298
   2    0.66519887
   3    1.219778

BLOCK YU Q=  3089.1869
   1   1    8.3857012e-06
   2   2    0.0042599362
   3   3    1.01306

BLOCK YD Q=  3089.1869
   1   1    0.00094636411
   2   2    0.017980918
   3   3    0.93849665

BLOCK YE Q=  3089.1869
   1   1    0.00016514746
   2   2    0.034147257
   3   3    0.57430068

BLOCK AU Q=  3089.1869
   1   1    0
   2   2    0
   3   3    3318.2209

BLOCK AD Q=  3089.1869
   1   1    0
   2   2    0
   3   3    5225.2475

BLOCK AE Q=  3089.1869
   1   1    0
   2   2    0
   3   3    2993.6742

BLOCK MSOFT Q=  3089.1869
   1    599.48573
   2   -4534.783
   3    4173.2623
   21    15991710
   22   -3674721.7
   31    3523.0178
   32    3523.0178
   33    1030.6662
   34    845.03862
   35    845.03862
   36    4728.6383
   41    3685.97
   42    3685.97
   43    2481.0476
   44    342.07618
   45    342.07618
   46    3596.1837
   47    2673.0016
   48    2673.0016
   49    645.61962

BLOCK MASS
   6    173.2
   23    91.1876
   24    80.429995
   15    1.777
   25    121.16405
   35    4439.3991
   36    4440.5467
   37    4440.6148
   1000001    3826.861
   2000001    2795.8531
   1000002    3826.013
   2000002    600.10951
   1000003    3826.8575
   2000003    2795.8473
   1000004    3826.0093
   2000004    600.11081
   1000005    832.68519
   2000005    2610.7078
   1000006    2606.8941
   2000006    3660.7072
   1000011    3546.8101
   2000011    845.94299
   1000012    3545.4898
   1000013    3546.7861
   2000013    845.91957
   1000014    3545.4641
   1000015    1067.6316
   2000015    4717.5508
   1000016    1063.7741
   1000021    4220.8734
   1000022    585.82439
   1000023   -1981.8407
   1000025    1984.1918
   1000035   -4495.8473
   1000024    1982.3146
   1000037    4495.9159

BLOCK ALPHA
      -0.017279749

BLOCK HMIX Q=  3089.1869
   1    1969.4869
   2    56.161492
   3    243.23744
   4    19718455

BLOCK STOPMIX
   1   1   -0.99764718
   1   2    0.068557321
   2   1   -0.068557321
   2   2   -0.99764718

BLOCK SBOTMIX
   1   1    0.022736359
   1   2    0.9997415
   2   1   -0.9997415
   2   2    0.022736359

BLOCK STAUMIX
   1   1    0.99996831
   1   2    0.007961287
   2   1   -0.007961287
   2   2    0.99996831

BLOCK NMIX
   1   1   -0.99967131
   1   2   -0.00012075602
   1   3   -0.02448339
   1   4    0.0076042733
   2   1    0.01193827
   2   2    0.021470752
   2   3   -0.70705552
   2   4   -0.70673119
   3   1    0.022687466
   3   2   -0.0086733406
   3   3   -0.70667611
   3   4    0.70712016
   4   1   -0.00018031219
   4   2    0.99973185
   4   3    0.0090512419
   4   4    0.021313778

BLOCK UMIX
   1   1   -0.012910311
   1   2    0.99991666
   2   1   -0.99991666
   2   2   -0.012910311

BLOCK VMIX
   1   1    0.030358625
   1   2    0.99953907
   2   1    0.99953907
   2   2   -0.030358625

BLOCK HIGGSBOUNDSINPUTHIGGSCOUPLINGSFERMIONS
       0, 3154.1132,3,36,15,15

BLOCK HIGGSBOUNDSINPUTHIGGSCOUPLINGSBOSONS
       0,4,36,21,21,23

BLOCK SPHENOLOWENERGY
   1    0.00032801402
   2    1.5898432e-06
   3    3.5261643e-05
   4    3.656826e-15
   5    1.562154e-10
   6    3.2704647e-08
   7    1.2326118e-13
   8    5.2657117e-09
   9    1.1169912e-06
   10    9.5614985e-05
   11    0.98766619
   12    0.54215374
   13    19.365066
   14    0
   15    0
   16    0.0021583958
   17    2.2816704e-15
   18    2.4805029e-11
   19    8.291805e-11
   20   -1.9659392e-15
   21   -8.4137654e-11
   22   -1.6381056e-08
   23    0
   24    0
   25    0
   26    0
   27    0
   28    0
   29    0
   30    0
   31    0
   39    7.4722278e-05
   40    0
   41    0
   42    0

BLOCK FWCOEF Q=  160
   305   4422   0   0   -0.18881911
   305   4422   0   2   -0.19750308
   305   4322   0   2   -0.00016209702
   305   6421   0   0   -0.095227835
   305   6421   0   2   -0.10295493
   305   6321   0   2   -0.00014611932
   3051111   4133   0   0    1.6187156
   3051111   4133   0   2    1.619081
   3051111   4233   0   2    0.00041708354
   3051111   4137   0   0   -4.4414077
   3051111   4137   0   2   -4.4407528
   3051111   4237   0   2   -0.0031222081
   3051313   4133   0   0    1.6187156
   3051313   4133   0   2    1.61908
   3051313   4233   0   2    0.00041708159
   3051313   4137   0   0   -4.4414077
   3051313   4137   0   2   -4.4407538
   3051313   4237   0   2   -0.003122211
   3051212   4137   0   0    1.5053501
   3051212   4137   0   2    1.5052085
   3051212   4237   0   2    0.0006763483
   3051414   4137   0   0    1.5053501
   3051414   4137   0   2    1.5052085
   3051414   4237   0   2    0.00067634836
   3051616   4137   0   0    1.5053501
   3051616   4137   0   2    1.5052083
   3051616   4237   0   2    0.00067636453

BLOCK IMFWCOEF Q=  160
   305   4422   0   0    3.857107e-07
   305   4422   0   2   -4.3011216e-08
   305   4322   0   2   -1.7084144e-06
   305   6421   0   0    3.3038672e-07
   305   6421   0   2   -1.3958853e-05
   305   6321   0   2   -1.0133578e-06
   3051111   4133   0   2    3.9140413e-07
   3051111   4233   0   2    8.1785866e-06
   3051111   4137   0   2   -2.0663802e-06
   3051111   4237   0   2   -6.122636e-05
   3051313   4133   0   2    3.9140356e-07
   3051313   4233   0   2    8.1785572e-06
   3051313   4137   0   2   -2.06638e-06
   3051313   4237   0   2   -6.1226417e-05
   3051212   4137   0   2    4.5226282e-07
   3051212   4237   0   2    1.3263164e-05
   3051414   4137   0   2    4.5226268e-07
   3051414   4237   0   2    1.3263164e-05
   3051616   4137   0   2    4.480275e-07
   3051616   4237   0   2    1.3263159e-05

DECAY 23  2.4952


DECAY 24  2.085


DECAY 2000011  1.1504915
    1   2    1000022    11

DECAY 1000011  4.2229909
    0.99804011   2    1000022    11
    0.0013562974   2    1000023    11
    0.00058268523   2   -1000024    12

DECAY 2000013  1.150344
    1   2    1000022    13

DECAY 1000013  4.2737981
    0.98617893   2    1000022    13
    0.0058924366   2    1000023    13
    0.0045584064   2    1000025    13
    0.0027944852   2    2000013    25
    0.00057574727   2   -1000024    14

DECAY 1000015  0.65796981
    1   2    1000022    15

DECAY 2000015  73.156091
    0.31405557   2    1000022    15
    0.28676559   2   -1000024    16
    0.14345239   2    1000023    15
    0.14333068   2    1000025    15
    0.052868828   2    1000016   -24
    0.033130145   2    1000015    25
    0.026394181   2    1000015    23

DECAY 1000012  4.227617
    0.99563434   2    1000022    12
    0.0032153088   2    1000024    11
    0.00075284216   2    1000025    12
    0.00039750639   2    1000023    12

DECAY 1000014  4.2664394
    0.98656661   2    1000022    14
    0.012293537   2    1000024    13
    0.00074597638   2    1000025    14
    0.00039388122   2    1000023    14

DECAY 1000016  0.64794064
    1   2    1000022    16

DECAY 2000001  1.4261925
    0.99980534   2    1000022    1
    0.00014308423   2    1000025    1

DECAY 1000001  0.5162395
    0.98474002   2    1000022    1
    0.0065743741   2    1000023    1
    0.0058228529   2   -1000024    2
    0.0028546543   2    1000025    1

DECAY 2000003  1.4350586
    0.99363251   2    1000022    3
    0.0030984348   2   -1000024    4
    0.0016798114   2    1000025    3
    0.0015892417   2    1000023    3

DECAY 1000003  0.53161968
    0.95627594   2    1000022    3
    0.018744603   2    1000023    3
    0.015100237   2    1000025    3
    0.0070414441   2   -1000024    4
    0.0028377768   2    2000003    25

DECAY 1000005  0.12125316
    1   2    1000022    5

DECAY 2000005  30.49009
    0.34698003   2    1000005    25
    0.29940231   2   -1000024    6
    0.13464741   2    1000023    5
    0.13381242   2    1000025    5
    0.073980925   2    1000005    23
    0.01117691   2    1000022    5

DECAY 2000002  0.0029635446
    1   2    1000022    2

DECAY 1000002  0.53148151
    0.95886517   2    1000022    2
    0.031326116   2    1000024    1
    0.0094451868   2    1000023    2
    0.0003635283   2    1000025    2

DECAY 2000004  0.0029493471
    1   2    1000022    4

DECAY 1000004  0.54535522
    0.93447083   2    1000022    4
    0.054612704   2    1000024    3
    0.009884745   2    1000023    4
    0.00103162   2    1000025    4

DECAY 1000006  22.529867
    0.36260577   2    1000024    5
    0.20810192   2    1000023    6
    0.20580925   2    1000025    6
    0.19854907   2    1000005    24
    0.014854214   2    1000022    6
    0.0072116267   2    1000022    4
    0.002802065   3    1000022    24    5

DECAY 2000006  123.5976
    0.30069682   2    1000024    5
    0.14916539   2    2000005    24
    0.14792526   2    1000025    6
    0.14777432   2    1000023    6
    0.11676808   2    1000006    25
    0.074757461   2    1000006    23
    0.062354139   2    1000022    6
    0.00055853071   2    1000005    24

DECAY 1000024  40.254108
    0.88354609   2   -1000005    6
    0.081982224   2    1000016   -15
    0.032819303   2    1000022    24
    0.0012048202   3    1000022   -5    6
    0.00038203294   2   -2000013    14

DECAY 1000037  153.72725
    0.16820176   2    1000006   -5
    0.1678356   2   -2000005    6
    0.11462808   2    1000016   -15
    0.11457187   2   -1000015    16
    0.060133276   2    1000024    25
    0.057100803   2    1000024    23
    0.056880521   2    1000025    24
    0.055795449   2    1000023    24
    0.029349101   2    1000004   -3
    0.029348794   2    1000002   -1
    0.029302846   2   -1000003    4
    0.029302629   2   -1000001    2
    0.018387342   2    1000014   -13
    0.018386452   2    1000012   -11
    0.018356104   2   -1000013    14
    0.018355286   2   -1000011    12
    0.005730573   3    1000024    6   -6
    0.0039219998   3    1000023   -5    6
    0.0036487383   3    1000025   -5    6
    0.00057675037   2    2000006   -5

DECAY 1000022 -1


DECAY 1000023  40.624054
    0.43498512   2    1000005   -5
    0.43498512   2   -1000005    5
    0.040373558   2    1000015   -15
    0.040373558   2   -1000015    15
    0.025613132   2    1000022    23
    0.022433693   2    1000022    25
    0.00068193407   3    1000022    6   -6
    0.00020086614   2    2000013   -13
    0.00020086614   2   -2000013    13

DECAY 1000025  39.952885
    0.44227744   2    1000005   -5
    0.44227744   2   -1000005    5
    0.0410608   2    1000015   -15
    0.0410608   2   -1000015    15
    0.024486602   2    1000022    25
    0.007226628   2    1000022    23
    0.00069546424   3    1000022    6   -6
    0.00023557263   2    2000013   -13
    0.00023557263   2   -2000013    13

DECAY 1000035  162.06329
    0.080601651   2    1000006   -6
    0.080601651   2   -1000006    6
    0.080464535   2    2000005   -5
    0.080464535   2   -2000005    5
    0.055105751   2    1000024   -24
    0.055105751   2   -1000024    24
    0.054388629   2    1000016   -16
    0.054388629   2   -1000016    16
    0.054313454   2    1000015   -15
    0.054313454   2   -1000015    15
    0.052657727   2    1000025    25
    0.049094035   2    1000023    25
    0.045975855   2    1000025    23
    0.013921757   2    1000004   -4
    0.013921757   2   -1000004    4
    0.013921624   2    1000002   -2
    0.013921624   2   -1000002    2
    0.013891145   2    1000003   -3
    0.013891145   2   -1000003    3
    0.013891011   2    1000001   -1
    0.013891011   2   -1000001    1
    0.0087248084   2    1000014   -14
    0.0087248084   2   -1000014    14
    0.0087243913   2    1000012   -12
    0.0087243913   2   -1000012    12
    0.0087000613   2    1000013   -13
    0.0087000613   2   -1000013    13
    0.0086996714   2    1000011   -11
    0.0086996714   2   -1000011    11
    0.0075002922   2    1000023    23
    0.0039497157   3    1000024    5   -6
    0.0039497157   3   -1000024   -5    6
    0.0028113156   3    1000025    6   -6
    0.0026391474   3    1000023    6   -6
    0.00027083081   2    2000006   -6
    0.00027083081   2   -2000006    6

DECAY 1000021  576.76722
    0.10397424   2    2000002   -2
    0.10397424   2   -2000002    2
    0.10397422   2    2000004   -4
    0.10397422   2   -2000004    4
    0.10003296   2    1000005   -5
    0.10003296   2   -1000005    5
    0.042045911   2    1000006   -6
    0.042045911   2   -1000006    6
    0.041295258   2    2000005   -5
    0.041295258   2   -2000005    5
    0.034116791   2    2000003   -3
    0.034116791   2   -2000003    3
    0.034116571   2    2000001   -1
    0.034116571   2   -2000001    1
    0.020510701   2    1000006   -4
    0.020510701   2   -1000006    4
    0.0060804555   2    2000006   -6
    0.0060804555   2   -2000006    6
    0.0034451078   2    1000004   -4
    0.0034451078   2   -1000004    4
    0.0034450621   2    1000002   -2
    0.0034450621   2   -1000002    2
    0.0034310615   2    1000003   -3
    0.0034310615   2   -1000003    3
    0.0034310033   2    1000001   -1
    0.0034310033   2   -1000001    1

DECAY 25  0.0034353818
    0.63035747   2   -5    5
    0.16955997   2   -24    24
    0.073710176   2    21    21
    0.072133163   2   -15    15
    0.031241697   2   -4    4
    0.018998391   2    23    23
    0.0023342545   2    22    22
    0.0011771541   2    22    23
    0.00025020808   2   -13    13
    0.00023669138   2   -3    3
    6.5442954e-07   2   -1    1
    1.6100948e-07   2   -2    2
    5.6250087e-09   2   -11    11

DECAY 35  98.293454
    0.45092235   2   -5    5
    0.19799858   2   -15    15
    0.1582604   2   -2000005    1000005
    0.1582604   2   -1000005    2000005
    0.019267014   2    1000022    1000023
    0.013129959   2    1000022    1000025
    0.00086440987   2   -13    13
    0.00054808821   2   -1000005    1000005
    0.00031594421   2   -6    6
    0.00028432601   2   -3    3
    5.4735268e-05   2    1000022    1000022
    3.4671442e-05   2   -1000024    1000024
    2.3009867e-05   2   -1000015    1000015
    1.0491641e-05   2    21    21
    7.6452274e-06   2    1000025    1000025
    4.5396287e-06   2    1000023    1000023
    3.7736644e-06   2   -2000004    1000004
    3.7736644e-06   2   -1000004    2000004
    3.1689102e-06   2    25    25
    1.5851869e-06   2    1000023    1000025
    7.8604206e-07   2   -1    1
    8.7620566e-08   2   -1000002    1000002
    8.7586075e-08   2   -1000004    1000004
    4.2202303e-08   2    23    23
    1.9412032e-08   2   -11    11
    1.9067001e-08   2    22    23
    1.0993961e-08   2   -1000011    1000011
    1.0700084e-08   2   -1000013    1000013
    7.9222769e-09   2   -24    24
    4.6213875e-09   2    22    22
    4.4396354e-09   2   -2000013    1000013
    4.4396354e-09   2   -1000013    2000013
    3.0481251e-09   2   -4    4
    1.462301e-11   2   -2000002    1000002
    1.462301e-11   2   -1000002    2000002
    1.0384007e-13   2   -2000011    1000011
    1.0384007e-13   2   -1000011    2000011
    1.5641224e-14   2   -2    2

DECAY 36  93.792912
    0.43878501   2   -5    5
    0.19270017   2   -15    15
    0.16624754   2   -2000005    1000005
    0.16624754   2   -1000005    2000005
    0.020069892   2    1000022    1000025
    0.013869285   2    1000022    1000023
    0.00084129118   2   -13    13
    0.00065771807   2   -6    6
    0.00027669666   2   -3    3
    0.00016567634   2   -1000024    1000024
    6.326901e-05   2    1000022    1000022
    4.0591547e-05   2    1000025    1000025
    2.0827827e-05   2    1000023    1000023
    5.407373e-06   2    21    21
    3.959792e-06   2   -2000004    1000004
    3.959792e-06   2   -1000004    2000004
    7.6494678e-07   2   -1    1
    2.2300935e-07   2    1000023    1000025
    1.0524213e-07   2    23    25
    2.1811447e-08   2    22    22
    1.8892816e-08   2   -11    11
    1.7306475e-08   2    22    23
    7.0421058e-09   2   -4    4
    4.6806562e-09   2   -2000013    1000013
    4.6806562e-09   2   -1000013    2000013
    1.5344257e-11   2   -2000002    1000002
    1.5344257e-11   2   -1000002    2000002
    1.0947699e-13   2   -2000011    1000011
    1.0947699e-13   2   -1000011    2000011
    3.6198681e-14   2   -2    2
    2.3327166e-14   2    23    35
    4.6251802e-38   2    25    25

DECAY 37  110.26822
    0.41404579   2   -5    6
    0.28485552   2   -1000005    1000006
    0.27024693   2   -15    16
    0.028995091   2    1000022    1000024
    0.00095541903   2   -13    14
    0.00061388438   2   -5    4
    0.00024473102   2   -3    4
    1.151208e-05   2   -3    2
    1.0605309e-05   2    1000023    1000024
    9.2971317e-06   2   -1000015    1000016
    4.3837672e-06   2   -5    2
    3.9777305e-06   2    1000024    1000025
    1.0141192e-06   2   -3    6
    9.2533335e-07   2   -2000003    1000004
    6.7928852e-07   2   -1    2
    8.954721e-08   2    24    25
    4.9504992e-08   2   -2000001    1000004
    3.2131631e-08   2   -1    4
    2.9760347e-08   2   -1    6
    2.234735e-08   2   -11    12
    8.0010372e-09   2   -1000013    1000014
    3.8325107e-09   2   -2000005    1000004
    1.8922598e-11   2   -1000005    1000004
    4.861736e-12   2   -2000001    1000002
    4.0939375e-12   2   -1000003    1000004
    2.599779e-13   2   -2000003    1000002
    1.8713494e-13   2   -1000011    1000012
    3.2790571e-14   2    24    35
    6.0691751e-16   2   -1000001    1000004
    1.4354865e-16   2   -2000005    1000002
    1.1502143e-18   2   -1000003    1000002
    7.087555e-19   2   -1000005    1000002
    5.9603449e-20   2   -1000001    1000002

DECAY 6  2.43
    1   2    5    24

DECAY 15 -1
