# SUSY Les Houches Accord 2 - MSSM spectrum + Decays
# SPheno v4.0.5be
# W. Porod, Comput. Phys. Commun. 153 (2003) 275-315, hep-ph/0301101;
# W. Porod, F.~Staub, Comput. Phys. Commun. 183 (2012) 2458
#                     arXiv:1104.1573 [hep-ph] 
# in case of problems send email to porod@physik.uni-wuerzburg.de
# Created: 07.09.2021,  15:35
Block SPINFO         # Program information
     1   SPheno      # spectrum calculator
     2   v4.0.5be    # version number
#
Block SPhenoINFO     # SPheno specific information
    1      2         # using 2-loop RGEs
    2      2         # using pole masses for boundary conditions at mZ
Block MODSEL  # Model selection
    1    0    # general MSSM
Block MINPAR  # Input parameters
    3    5.38633340E+01  # tanb at m_Z    
    4   -1.00000000E+00  # Sign(mu)
Block EXTPAR  # non-universal input parameters
    0    4.63191845E+03  # scale for input parameters
    1    2.50210665E+02  # M_1
    2    2.46596526E+02  # M_2
    3    1.62731807E+03  # M_3
   11   -6.27729661E+02  # A_t
   12   -1.75527033E+03  # A_b
   13    1.29577405E+03  # A_tau
   23   -1.20360853E+03  # mu
   25    5.37793958E+01  # tan(beta)
   26    3.21744827E+03  # m_A, pole mass
   31    1.00000000E+04  # M_L11
   32    1.00000000E+04  # M_L22
   33    1.00000000E+04  # M_L33
   34    1.00000000E+04  # M_E11
   35    1.00000000E+04  # M_E22
   36    1.00000000E+04  # M_E33
   41    1.00000000E+04  # M_Q11
   42    1.00000000E+04  # M_Q22
   43    4.82374546E+03  # M_Q33
   44    1.00000000E+04  # M_U11
   45    1.00000000E+04  # M_U22
   46    4.44822793E+03  # M_U33
   47    1.00000000E+04  # M_D11
   48    1.00000000E+04  # M_D22
   49    3.38320773E+03  # M_D33
Block SMINPUTS  # SM parameters
         1     1.27908970E+02  # alpha_em^-1(MZ)^MSbar
         2     1.16637870E-05  # G_mu [GeV^-2]
         3     1.18400000E-01  # alpha_s(MZ)^MSbar
         4     9.11876000E+01  # m_Z(pole)
         5     4.18000000E+00  # m_b(m_b), MSbar
         6     1.73200000E+02  # m_t(pole)
         7     1.77700000E+00  # m_tau(pole)
         8     0.00000000E+00  # m_nu_3
        11     5.10998930E-04  # m_e(pole)
        12     0.00000000E+00  # m_nu_1
        13     1.05658372E-01  # m_muon(pole)
        14     0.00000000E+00  # m_nu_2
        21     5.00000000E-03  # m_d(2 GeV), MSbar
        22     2.50000000E-03  # m_u(2 GeV), MSbar
        23     9.50000000E-02  # m_s(2 GeV), MSbar
        24     1.27000000E+00  # m_c(m_c), MSbar
Block gauge Q=  4.63191845E+03  # (SUSY scale)
   1    3.55362975E-01  # g'(Q)^DRbar
   2    6.65198874E-01  # g(Q)^DRbar
   3    1.21977796E+00  # g3(Q)^DRbar
Block Yu Q=  4.63191845E+03  # (SUSY scale)
  1  1     8.38582148E-06   # Y_u(Q)^DRbar
  2  2     4.25999731E-03   # Y_c(Q)^DRbar
  3  3     1.01307459E+00   # Y_t(Q)^DRbar
Block Yd Q=  4.63191845E+03  # (SUSY scale)
  1  1     9.06236977E-04   # Y_d(Q)^DRbar
  2  2     1.72185026E-02   # Y_s(Q)^DRbar
  3  3     8.98703108E-01   # Y_b(Q)^DRbar
Block Ye Q=  4.63191845E+03  # (SUSY scale)
  1  1     1.58144979E-04   # Y_e(Q)^DRbar
  2  2     3.26993661E-02   # Y_mu(Q)^DRbar
  3  3     5.49949544E-01   # Y_tau(Q)^DRbar
Block Au Q=  4.63191845E+03  # (SUSY scale)
  1  1     0.00000000E+00   # A_u(Q)^DRbar
  2  2     0.00000000E+00   # A_c(Q)^DRbar
  3  3    -6.27729670E+02   # A_t(Q)^DRbar
Block Ad Q=  4.63191845E+03  # (SUSY scale)
  1  1     0.00000000E+00   # A_d(Q)^DRbar
  2  2     0.00000000E+00   # A_s(Q)^DRbar
  3  3    -1.75527036E+03   # A_b(Q)^DRbar
Block Ae Q=  4.63191845E+03  # (SUSY scale)
  1  1     0.00000000E+00   # A_e(Q)^DRbar
  2  2     0.00000000E+00   # A_mu(Q)^DRbar
  3  3     1.29577404E+03   # A_tau(Q)^DRbar
Block MSOFT Q=  4.63191845E+03  # soft SUSY breaking masses at Q
   1    2.50210665E+02  # M_1
   2    2.46596526E+02  # M_2
   3    1.62731807E+03  # M_3
  21    9.43297510E+06  # M^2_(H,d)
  22   -9.53383083E+05  # M^2_(H,u)
  31    1.00000000E+04  # M_(L,11)
  32    1.00000000E+04  # M_(L,22)
  33    1.00000000E+04  # M_(L,33)
  34    1.00000000E+04  # M_(E,11)
  35    1.00000000E+04  # M_(E,22)
  36    1.00000000E+04  # M_(E,33)
  41    1.00000000E+04  # M_(Q,11)
  42    1.00000000E+04  # M_(Q,22)
  43    4.82374546E+03  # M_(Q,33)
  44    1.00000000E+04  # M_(U,11)
  45    1.00000000E+04  # M_(U,22)
  46    4.44822793E+03  # M_(U,33)
  47    1.00000000E+04  # M_(D,11)
  48    1.00000000E+04  # M_(D,22)
  49    3.38320773E+03  # M_(D,33)
Block MASS  # Mass spectrum
#   PDG code      mass          particle
         6     1.73200000E+02  # m_t(pole)
        23     9.11876000E+01  # m_Z(pole)
        24     8.04299946E+01  # W+
        15     1.77700000E+00  # m_tau(pole)
        25     1.23336190E+02  # h0
        35     3.21452665E+03  # H0
        36     3.21744827E+03  # A0
        37     3.21788553E+03  # H+
   1000001     1.01213895E+04  # ~d_L
   2000001     1.00961913E+04  # ~d_R
   1000002     1.01210245E+04  # ~u_L
   2000002     1.00988242E+04  # ~u_R
   1000003     1.01213896E+04  # ~s_L
   2000003     1.00961891E+04  # ~s_R
   1000004     1.01210239E+04  # ~c_L
   2000004     1.00988243E+04  # ~c_R
   1000005     3.36789361E+03  # ~b_1
   2000005     4.82707371E+03  # ~b_2
   1000006     4.44307740E+03  # ~t_1
   2000006     4.82878569E+03  # ~t_2
   1000011     1.00212016E+04  # ~e_L-
   2000011     1.00094832E+04  # ~e_R-
   1000012     1.00204296E+04  # ~nu_eL
   1000013     1.00212075E+04  # ~mu_L-
   2000013     1.00094654E+04  # ~mu_R-
   1000014     1.00204255E+04  # ~nu_muL
   1000015     1.00050534E+04  # ~tau_1-
   2000015     1.00223916E+04  # ~tau_2-
   1000016     1.00193062E+04  # ~nu_tauL
   1000021     2.02398371E+03  # ~g
   1000022     2.50917743E+02  # ~chi_10
   1000023     2.73663644E+02  # ~chi_20
   1000025     1.22043511E+03  # ~chi_30
   1000035     1.22171319E+03  # ~chi_40
   1000024     2.73830947E+02  # ~chi_1+
   1000037     1.22287855E+03  # ~chi_2+
# Higgs mixing
Block alpha # Effective Higgs mixing angle
          -1.86041140E-02   # alpha
Block Hmix Q=  4.63191845E+03  # Higgs mixing parameters
   1   -1.20360853E+03  # mu
   2    5.37793958E+01  # tan[beta](Q)
   3    2.42786183E+02  # v(Q)
   4    1.03519734E+07  # m^2_A(Q)
Block stopmix # stop mixing matrix
   1  1     2.88796589E-02   # Re[R_st(1,1)]
   1  2     9.99582896E-01   # Re[R_st(1,2)]
   2  1    -9.99582896E-01   # Re[R_st(2,1)]
   2  2     2.88796589E-02   # Re[R_st(2,2)]
Block sbotmix # sbottom mixing matrix
   1  1    -1.24098276E-02   # Re[R_sb(1,1)]
   1  2     9.99922995E-01   # Re[R_sb(1,2)]
   2  1    -9.99922995E-01   # Re[R_sb(2,1)]
   2  2    -1.24098276E-02   # Re[R_sb(2,2)]
Block staumix # stau mixing matrix
   1  1    -3.65497758E-01   # Re[R_sta(1,1)]
   1  2     9.30812220E-01   # Re[R_sta(1,2)]
   2  1    -9.30812220E-01   # Re[R_sta(2,1)]
   2  2    -3.65497758E-01   # Re[R_sta(2,2)]
Block Nmix # neutralino mixing matrix
   1  1    -9.98933969E-01   # Re[N(1,1)]
   1  2     2.23245821E-02   # Re[N(1,2)]
   1  3     3.96890399E-02   # Re[N(1,3)]
   1  4     7.57091843E-03   # Re[N(1,4)]
   2  1    -2.50738059E-02   # Re[N(2,1)]
   2  2    -9.97310421E-01   # Re[N(2,2)]
   2  3    -6.75013440E-02   # Re[N(2,3)]
   2  4    -1.36673756E-02   # Re[N(2,4)]
   3  1     2.18115593E-02   # Re[N(3,1)]
   3  2    -3.86139749E-02   # Re[N(3,2)]
   3  3     7.05601608E-01   # Re[N(3,3)]
   3  4    -7.07219617E-01   # Re[N(3,4)]
   4  1    -3.20388170E-02   # Re[N(4,1)]
   4  2     5.81592497E-02   # Re[N(4,2)]
   4  3    -7.04268925E-01   # Re[N(4,3)]
   4  4    -7.06821262E-01   # Re[N(4,4)]
Block Umix # chargino mixing matrix
   1  1    -9.95319557E-01   # Re[U(1,1)]
   1  2    -9.66383980E-02   # Re[U(1,2)]
   2  1     9.66383980E-02   # Re[U(2,1)]
   2  2    -9.95319557E-01   # Re[U(2,2)]
Block Vmix # chargino mixing matrix
   1  1    -9.99808356E-01   # Re[V(1,1)]
   1  2     1.95767856E-02   # Re[V(1,2)]
   2  1     1.95767856E-02   # Re[V(2,1)]
   2  2     9.99808356E-01   # Re[V(2,2)]
DECAY        23     2.49520000E+00   # Z
DECAY        24     2.08500000E+00   # W
DECAY   2000011     5.02286709E+01   # ~e^-_R
#    BR                NDA      ID1      ID2
     9.97911506E-01    2     1000022        11   # BR(~e^-_R -> chi^0_1 e^-)
     6.28573086E-04    2     1000023        11   # BR(~e^-_R -> chi^0_2 e^-)
     4.62352437E-04    2     1000025        11   # BR(~e^-_R -> chi^0_3 e^-)
     9.97472598E-04    2     1000035        11   # BR(~e^-_R -> chi^0_4 e^-)
DECAY   1000011     1.44674345E+02   # ~e^-_L
#    BR                NDA      ID1      ID2
     7.96128990E-02    2     1000022        11   # BR(~e^-_L -> chi^0_1 e^-)
     3.10980088E-01    2     1000023        11   # BR(~e^-_L -> chi^0_2 e^-)
     2.15121281E-04    2     1000025        11   # BR(~e^-_L -> chi^0_3 e^-)
     4.98456356E-04    2     1000035        11   # BR(~e^-_L -> chi^0_4 e^-)
     6.03167200E-01    2    -1000024        12   # BR(~e^-_L -> chi^-_1 nu_e)
     5.52623501E-03    2    -1000037        12   # BR(~e^-_L -> chi^-_2 nu_e)
#    BR                NDA      ID1      ID2       ID3
DECAY   2000013     5.06419080E+01   # ~mu^-_R
#    BR                NDA      ID1      ID2
     9.89773417E-01    2     1000022        13   # BR(~mu^-_R -> chi^0_1 mu^-)
     6.42570933E-04    2     1000023        13   # BR(~mu^-_R -> chi^0_2 mu^-)
     2.49003623E-03    2     1000025        13   # BR(~mu^-_R -> chi^0_3 mu^-)
     3.01299199E-03    2     1000035        13   # BR(~mu^-_R -> chi^0_4 mu^-)
     4.04177727E-03    2    -1000037        14   # BR(~mu^-_R -> chi^-_2 nu_mu)
DECAY   1000013     1.44881351E+02   # ~mu^-_L
#    BR                NDA      ID1      ID2
     7.95015100E-02    2     1000022        13   # BR(~mu^-_L -> chi^0_1 mu^-)
     3.10542642E-01    2     1000023        13   # BR(~mu^-_L -> chi^0_2 mu^-)
     9.25773792E-04    2     1000025        13   # BR(~mu^-_L -> chi^0_3 mu^-)
     1.20597539E-03    2     1000035        13   # BR(~mu^-_L -> chi^0_4 mu^-)
     6.02305757E-01    2    -1000024        14   # BR(~mu^-_L -> chi^-_1 nu_mu)
     5.51834262E-03    2    -1000037        14   # BR(~mu^-_L -> chi^-_2 nu_mu)
#    BR                NDA      ID1      ID2       ID3
DECAY   1000015     1.72072800E+02   # ~tau^-_1
#    BR                NDA      ID1      ID2
     2.66232633E-01    2     1000022        15   # BR(~tau^-_1 -> chi^0_1 tau^-)
     5.01246124E-02    2     1000023        15   # BR(~tau^-_1 -> chi^0_2 tau^-)
     1.62174334E-01    2     1000025        15   # BR(~tau^-_1 -> chi^0_3 tau^-)
     1.58226435E-01    2     1000035        15   # BR(~tau^-_1 -> chi^0_4 tau^-)
     9.81169699E-02    2    -1000024        16   # BR(~tau^-_1 -> chi^-_1 nu_tau)
     2.65125016E-01    2    -1000037        16   # BR(~tau^-_1 -> chi^-_2 nu_tau)
DECAY   2000015     1.98215812E+02   # ~tau^-_2
#    BR                NDA      ID1      ID2
     8.07537305E-02    2     1000022        15   # BR(~tau^-_2 -> chi^0_1 tau^-)
     1.86345004E-01    2     1000023        15   # BR(~tau^-_2 -> chi^0_2 tau^-)
     1.53253437E-01    2     1000025        15   # BR(~tau^-_2 -> chi^0_3 tau^-)
     1.55901049E-01    2     1000035        15   # BR(~tau^-_2 -> chi^0_4 tau^-)
     3.57806696E-01    2    -1000024        16   # BR(~tau^-_2 -> chi^-_1 nu_tau)
     6.59400833E-02    2    -1000037        16   # BR(~tau^-_2 -> chi^-_2 nu_tau)
#    BR                NDA      ID1      ID2       ID3
DECAY   1000012     1.44678699E+02   # ~nu_e
#    BR                NDA      ID1      ID2
     9.41134684E-02    2     1000022        12   # BR(~nu_e -> chi^0_1 nu_e)
     2.94681176E-01    2     1000023        12   # BR(~nu_e -> chi^0_2 nu_e)
     7.47575752E-04    2     1000025        12   # BR(~nu_e -> chi^0_3 nu_e)
     1.67640308E-03    2     1000035        12   # BR(~nu_e -> chi^0_4 nu_e)
     6.08554585E-01    2     1000024        11   # BR(~nu_e -> chi^+_1 e^-)
     2.26791916E-04    2     1000037        11   # BR(~nu_e -> chi^+_2 e^-)
#    BR                NDA      ID1      ID2       ID3
DECAY   1000014     1.44885544E+02   # ~nu_mu
#    BR                NDA      ID1      ID2
     9.39790696E-02    2     1000022        14   # BR(~nu_mu -> chi^0_1 nu_mu)
     2.94260357E-01    2     1000023        14   # BR(~nu_mu -> chi^0_2 nu_mu)
     7.46508159E-04    2     1000025        14   # BR(~nu_mu -> chi^0_3 nu_mu)
     1.67400905E-03    2     1000035        14   # BR(~nu_mu -> chi^0_4 nu_mu)
     6.07699260E-01    2     1000024        13   # BR(~nu_mu -> chi^+_1 mu^-)
     1.64079679E-03    2     1000037        13   # BR(~nu_mu -> chi^+_2 mu^-)
#    BR                NDA      ID1      ID2       ID3
DECAY   1000016     2.03181085E+02   # ~nu_tau
#    BR                NDA      ID1      ID2
     6.70076344E-02    2     1000022        16   # BR(~nu_tau -> chi^0_1 nu_tau)
     2.09809369E-01    2     1000023        16   # BR(~nu_tau -> chi^0_2 nu_tau)
     5.32261315E-04    2     1000025        16   # BR(~nu_tau -> chi^0_3 nu_tau)
     1.19357067E-03    2     1000035        16   # BR(~nu_tau -> chi^0_4 nu_tau)
     4.36050834E-01    2     1000024        15   # BR(~nu_tau -> chi^+_1 tau^-)
     2.85406329E-01    2     1000037        15   # BR(~nu_tau -> chi^+_2 tau^-)
#    BR                NDA      ID1      ID2       ID3
DECAY   2000001     7.39788803E+02   # ~d_R
#    BR                NDA      ID1      ID2
     7.59361772E-03    2     1000022         1   # BR(~d_R -> chi^0_1 d)
     9.92390053E-01    2     1000021         1   # BR(~d_R -> ~g d)
DECAY   1000001     8.71132143E+02   # ~d_L
#    BR                NDA      ID1      ID2
     2.04733775E-03    2     1000022         1   # BR(~d_L -> chi^0_1 d)
     5.03370005E-02    2     1000023         1   # BR(~d_L -> chi^0_2 d)
     2.02640401E-04    2     1000035         1   # BR(~d_L -> chi^0_4 d)
     1.01176192E-01    2    -1000024         2   # BR(~d_L -> chi^-_1 u)
     9.27504002E-04    2    -1000037         2   # BR(~d_L -> chi^-_2 u)
     8.45219537E-01    2     1000021         1   # BR(~d_L -> ~g d)
DECAY   2000003     7.39903954E+02   # ~s_R
#    BR                NDA      ID1      ID2
     7.59256060E-03    2     1000022         3   # BR(~s_R -> chi^0_1 s)
     9.92235354E-01    2     1000021         3   # BR(~s_R -> ~g s)
DECAY   1000003     8.71193522E+02   # ~s_L
#    BR                NDA      ID1      ID2
     2.04730107E-03    2     1000022         3   # BR(~s_L -> chi^0_1 s)
     5.03337657E-02    2     1000023         3   # BR(~s_L -> chi^0_2 s)
     1.22821272E-04    2     1000025         3   # BR(~s_L -> chi^0_3 s)
     2.35538445E-04    2     1000035         3   # BR(~s_L -> chi^0_4 s)
     1.01169062E-01    2    -1000024         4   # BR(~s_L -> chi^-_1 c)
     9.31514127E-04    2    -1000037         4   # BR(~s_L -> chi^-_2 c)
     8.45159997E-01    2     1000021         3   # BR(~s_L -> ~g s)
DECAY   1000005     1.91861081E+02   # ~b_1
#    BR                NDA      ID1      ID2
     1.01901185E-02    2     1000022         5   # BR(~b_1 -> chi^0_1 b)
     1.52598868E-03    2     1000023         5   # BR(~b_1 -> chi^0_2 b)
     1.05875413E-01    2     1000025         5   # BR(~b_1 -> chi^0_3 b)
     1.05363682E-01    2     1000035         5   # BR(~b_1 -> chi^0_4 b)
     3.09724332E-03    2    -1000024         6   # BR(~b_1 -> chi^-_1 t)
     2.08503994E-01    2    -1000037         6   # BR(~b_1 -> chi^-_2 t)
     5.65443561E-01    2     1000021         5   # BR(~b_1 -> ~g b)
DECAY   2000005     4.79094220E+02   # ~b_2
#    BR                NDA      ID1      ID2
     1.97618087E-03    2     1000022         5   # BR(~b_2 -> chi^0_1 b)
     4.40228735E-02    2     1000023         5   # BR(~b_2 -> chi^0_2 b)
     7.07588338E-02    2     1000025         5   # BR(~b_2 -> chi^0_3 b)
     7.05916401E-02    2     1000035         5   # BR(~b_2 -> chi^0_4 b)
     8.68351590E-02    2    -1000024         6   # BR(~b_2 -> chi^-_1 t)
     1.81049068E-01    2    -1000037         6   # BR(~b_2 -> chi^-_2 t)
     5.40238846E-01    2     1000021         5   # BR(~b_2 -> ~g b)
     4.43995504E-04    2     1000006       -24   # BR(~b_2 -> ~t_1 W^-)
     1.65221906E-03    2     1000005        23   # BR(~b_2 -> ~b_1 Z)
     2.43118344E-03    2     1000005        25   # BR(~b_2 -> ~b_1 h^0)
DECAY   2000002     7.56906186E+02   # ~u_R
#    BR                NDA      ID1      ID2
     2.96953140E-02    2     1000022         2   # BR(~u_R -> chi^0_1 u)
     9.70242521E-01    2     1000021         2   # BR(~u_R -> ~g u)
DECAY   1000002     8.71120439E+02   # ~u_L
#    BR                NDA      ID1      ID2
     1.23596580E-03    2     1000022         2   # BR(~u_L -> chi^0_1 u)
     5.12454003E-02    2     1000023         2   # BR(~u_L -> chi^0_2 u)
     1.36633466E-04    2     1000035         2   # BR(~u_L -> chi^0_4 u)
     1.02088521E-01    2     1000024         1   # BR(~u_L -> chi^+_1 d)
     8.45195334E-01    2     1000021         2   # BR(~u_L -> ~g u)
DECAY   2000004     7.56913243E+02   # ~c_R
#    BR                NDA      ID1      ID2
     2.96950365E-02    2     1000022         4   # BR(~c_R -> chi^0_1 c)
     9.70233445E-01    2     1000021         4   # BR(~c_R -> ~g c)
DECAY   1000004     8.71181717E+02   # ~c_L
#    BR                NDA      ID1      ID2
     1.23587899E-03    2     1000022         4   # BR(~c_L -> chi^0_1 c)
     5.12417915E-02    2     1000023         4   # BR(~c_L -> chi^0_2 c)
     1.38659831E-04    2     1000035         4   # BR(~c_L -> chi^0_4 c)
     1.02081972E-01    2     1000024         3   # BR(~c_L -> chi^+_1 s)
     1.03974008E-04    2     1000037         3   # BR(~c_L -> chi^+_2 s)
     8.45135790E-01    2     1000021         4   # BR(~c_L -> ~g c)
DECAY   1000006     3.84608336E+02   # ~t_1
#    BR                NDA      ID1      ID2
     2.55166020E-02    2     1000022         6   # BR(~t_1 -> chi^0_1 t)
     1.86340528E-04    2     1000023         6   # BR(~t_1 -> chi^0_2 t)
     1.00504028E-01    2     1000025         6   # BR(~t_1 -> chi^0_3 t)
     1.00008311E-01    2     1000035         6   # BR(~t_1 -> chi^0_4 t)
     3.48912072E-04    2     1000024         5   # BR(~t_1 -> chi^+_1 b)
     2.01232258E-01    2     1000037         5   # BR(~t_1 -> chi^+_2 b)
     7.52039144E-04    2     1000021         4   # BR(~t_1 -> ~g c)
     5.71381223E-01    2     1000021         6   # BR(~t_1 -> ~g t)
#    BR                NDA      ID1      ID2       ID3
DECAY   2000006     4.77469129E+02   # ~t_2
#    BR                NDA      ID1      ID2
     1.07475673E-03    2     1000022         6   # BR(~t_2 -> chi^0_1 t)
     4.41873034E-02    2     1000023         6   # BR(~t_2 -> chi^0_2 t)
     9.01365617E-02    2     1000025         6   # BR(~t_2 -> chi^0_3 t)
     9.06987607E-02    2     1000035         6   # BR(~t_2 -> chi^0_4 t)
     8.97051317E-02    2     1000024         5   # BR(~t_2 -> chi^+_1 b)
     1.41186714E-01    2     1000037         5   # BR(~t_2 -> chi^+_2 b)
     5.39226036E-01    2     1000021         6   # BR(~t_2 -> ~g t)
     3.32816650E-03    2     1000005        24   # BR(~t_2 -> ~b_1 W^+)
     2.21231440E-04    2     1000006        23   # BR(~t_2 -> ~t_1 Z)
     2.35337970E-04    2     1000006        25   # BR(~t_2 -> ~t_1 h^0)
DECAY   1000024     1.85161787E-08   # chi^+_1
#    BR                NDA      ID1      ID2       ID3
     3.36096385E-01    3     1000022        -1         2   # BR(chi^+_1 -> chi^0_1 d_bar u)
     3.31142573E-01    3     1000022        -3         4   # BR(chi^+_1 -> chi^0_1 s_bar c)
     1.11999329E-01    3     1000022       -11        12   # BR(chi^+_1 -> chi^0_1 e^+ nu_e)
     1.11998509E-01    3     1000022       -13        14   # BR(chi^+_1 -> chi^0_1 mu^+ nu_mu)
     1.08763200E-01    3     1000022       -15        16   # BR(chi^+_1 -> chi^0_1 tau^+ nu_tau)
DECAY   1000037     8.64733087E+00   # chi^+_2
#    BR                NDA      ID1      ID2
     8.68904661E-02    2     1000022        24   # BR(chi^+_2 -> chi^0_1 W^+)
     3.05791551E-01    2     1000023        24   # BR(chi^+_2 -> chi^0_2 W^+)
     2.96039197E-01    2     1000024        23   # BR(chi^+_2 -> chi^+_1 Z)
     2.95570757E-01    2     1000024        25   # BR(chi^+_2 -> chi^+_1 h^0)
#    BR                NDA      ID1      ID2       ID3
     7.08187011E-03    3     1000024         6        -6   # BR(chi^+_2 -> chi^+_1 t t_bar)
     1.80527876E-03    3     1000022        -5         6   # BR(chi^+_2 -> chi^0_1 b_bar t)
     6.79738004E-03    3     1000023        -5         6   # BR(chi^+_2 -> chi^0_2 b_bar t)
DECAY   1000022     0.00000000E+00   # chi^0_1
DECAY   1000023     1.53347098E-10   # chi^0_2
#    BR                NDA      ID1      ID2
     1.89056102E-01    2     1000022        22   # BR(chi^0_2 -> chi^0_1 photon)
#    BR                NDA      ID1      ID2       ID3
     1.02483071E-01    3     1000022         2        -2   # BR(chi^0_2 -> chi^0_1 u u_bar)
     9.84102769E-02    3     1000022         4        -4   # BR(chi^0_2 -> chi^0_1 c c_bar)
     1.31598224E-01    3     1000022         1        -1   # BR(chi^0_2 -> chi^0_1 d d_bar)
     1.31572219E-01    3     1000022         3        -3   # BR(chi^0_2 -> chi^0_1 s s_bar)
     9.41389632E-02    3     1000022         5        -5   # BR(chi^0_2 -> chi^0_1 b b_bar)
     2.85451696E-02    3     1000022        11       -11   # BR(chi^0_2 -> chi^0_1 e^- e^+)
     2.85361465E-02    3     1000022        13       -13   # BR(chi^0_2 -> chi^0_1 mu^- mu^+)
     2.61457050E-02    3     1000022        15       -15   # BR(chi^0_2 -> chi^0_1 tau^- tau^+)
     1.69514122E-01    3     1000022        12       -12   # BR(chi^0_2 -> chi^0_1 nu_e nu_bar_e)
DECAY   1000025     1.01978383E+01   # chi^0_3
#    BR                NDA      ID1      ID2
     2.53853003E-01    2     1000024       -24   # BR(chi^0_3 -> chi^+_1 W^-)
     2.53853003E-01    2    -1000024        24   # BR(chi^0_3 -> chi^-_1 W^+)
     5.97182559E-02    2     1000022        23   # BR(chi^0_3 -> chi^0_1 Z)
     1.71917012E-01    2     1000023        23   # BR(chi^0_3 -> chi^0_2 Z)
     5.77938201E-02    2     1000022        25   # BR(chi^0_3 -> chi^0_1 h^0)
     1.85074883E-01    2     1000023        25   # BR(chi^0_3 -> chi^0_2 h^0)
#    BR                NDA      ID1      ID2       ID3
     9.40450008E-04    3     1000022         6        -6   # BR(chi^0_3 -> chi^0_1 t t_bar)
     2.85038977E-03    3     1000023         6        -6   # BR(chi^0_3 -> chi^0_2 t t_bar)
     6.97339220E-03    3     1000024         5        -6   # BR(chi^0_3 -> chi^+_1 b t_bar)
     6.97339220E-03    3    -1000024        -5         6   # BR(chi^0_3 -> chi^-_1 b_bar t)
DECAY   1000035     8.65189870E+00   # chi^0_4
#    BR                NDA      ID1      ID2
     2.98314781E-01    2     1000024       -24   # BR(chi^0_4 -> chi^+_1 W^-)
     2.98314781E-01    2    -1000024        24   # BR(chi^0_4 -> chi^-_1 W^+)
     3.24180986E-02    2     1000022        23   # BR(chi^0_4 -> chi^0_1 Z)
     8.88730925E-02    2     1000023        23   # BR(chi^0_4 -> chi^0_2 Z)
     6.29523392E-02    2     1000022        25   # BR(chi^0_4 -> chi^0_1 h^0)
     2.01569320E-01    2     1000023        25   # BR(chi^0_4 -> chi^0_2 h^0)
#    BR                NDA      ID1      ID2       ID3
     1.01421327E-03    3     1000022         6        -6   # BR(chi^0_4 -> chi^0_1 t t_bar)
     3.08511518E-03    3     1000023         6        -6   # BR(chi^0_4 -> chi^0_2 t t_bar)
     6.71514113E-03    3     1000024         5        -6   # BR(chi^0_4 -> chi^+_1 b t_bar)
     6.71514113E-03    3    -1000024        -5         6   # BR(chi^0_4 -> chi^-_1 b_bar t)
DECAY   1000021     3.63375339E-03   # ~g
#    BR                NDA      ID1      ID2
     4.55610464E-03    2     1000025        21   # BR(~g -> chi^0_3 g)
     6.18660183E-03    2     1000035        21   # BR(~g -> chi^0_4 g)
#    BR                NDA      ID1      ID2       ID3
     1.82617514E-03    3     1000022         2        -2   # BR(~g -> chi^0_1 u u_bar)
     1.82617513E-03    3     1000022         4        -4   # BR(~g -> chi^0_1 c c_bar)
     4.74933473E-02    3     1000022         6        -6   # BR(~g -> chi^0_1 t t_bar)
     5.73152723E-04    3     1000022         1        -1   # BR(~g -> chi^0_1 d d_bar)
     5.73171067E-04    3     1000022         3        -3   # BR(~g -> chi^0_1 s s_bar)
     5.39703557E-02    3     1000022         5        -5   # BR(~g -> chi^0_1 b b_bar)
     3.39324460E-03    3     1000023         2        -2   # BR(~g -> chi^0_2 u u_bar)
     3.39324554E-03    3     1000023         4        -4   # BR(~g -> chi^0_2 c c_bar)
     6.26931803E-02    3     1000023         6        -6   # BR(~g -> chi^0_2 t t_bar)
     3.33173391E-03    3     1000023         1        -1   # BR(~g -> chi^0_2 d d_bar)
     3.33178463E-03    3     1000023         3        -3   # BR(~g -> chi^0_2 s s_bar)
     8.22869690E-02    3     1000023         5        -5   # BR(~g -> chi^0_2 b b_bar)
     2.87029739E-02    3     1000025         6        -6   # BR(~g -> chi^0_3 t t_bar)
     7.99388634E-02    3     1000025         5        -5   # BR(~g -> chi^0_3 b b_bar)
     3.02429164E-02    3     1000035         6        -6   # BR(~g -> chi^0_4 t t_bar)
     7.91028465E-02    3     1000035         5        -5   # BR(~g -> chi^0_4 b b_bar)
     6.72637885E-03    3     1000024         1        -2   # BR(~g -> chi^+_1 d u_bar)
     6.72637885E-03    3    -1000024        -1         2   # BR(~g -> chi^-_1 d_bar u)
     6.72643177E-03    3     1000024         3        -4   # BR(~g -> chi^+_1 s c_bar)
     6.72643177E-03    3    -1000024        -3         4   # BR(~g -> chi^-_1 s_bar c)
     1.44561722E-01    3     1000024         5        -6   # BR(~g -> chi^+_1 b t_bar)
     1.44561722E-01    3    -1000024        -5         6   # BR(~g -> chi^-_1 b_bar t)
     9.52207942E-02    3     1000037         5        -6   # BR(~g -> chi^+_2 b t_bar)
     9.52207942E-02    3    -1000037        -5         6   # BR(~g -> chi^-_2 b_bar t)
DECAY        25     3.44534191E-03   # Gamma(h0)
     2.49433733E-03   2        22        22   # BR(h0 -> photon photon)
     1.44801515E-03   2        22        23   # BR(h0 -> photon Z)
     2.52119786E-02   2        23        23   # BR(h0 -> Z Z)
     2.15340509E-01   2       -24        24   # BR(h0 -> W W)
     7.85823972E-02   2        21        21   # BR(h0 -> gluon gluon)
     5.20583803E-09   2       -11        11   # BR(h0 -> Electron electron)
     2.31564053E-04   2       -13        13   # BR(h0 -> Muon muon)
     6.67660203E-02   2       -15        15   # BR(h0 -> Tau tau)
     1.48176239E-07   2        -2         2   # BR(h0 -> Up up)
     2.87557143E-02   2        -4         4   # BR(h0 -> Charm charm)
     6.04077477E-07   2        -1         1   # BR(h0 -> Down down)
     2.18480361E-04   2        -3         3   # BR(h0 -> Strange strange)
     5.80950226E-01   2        -5         5   # BR(h0 -> Bottom bottom)
DECAY        35     1.54278203E+02   # Gamma(HH)
     2.32325909E-08   2        22        22   # BR(HH -> photon photon)
     5.55234951E-08   2        22        23   # BR(HH -> photon Z)
     6.79668010E-08   2        23        23   # BR(HH -> Z Z)
     1.87601827E-08   2       -24        24   # BR(HH -> W W)
     8.28765187E-06   2        21        21   # BR(HH -> gluon gluon)
     8.45647961E-09   2       -11        11   # BR(HH -> Electron electron)
     3.76529316E-04   2       -13        13   # BR(HH -> Muon muon)
     1.08747391E-01   2       -15        15   # BR(HH -> Tau tau)
     1.76950192E-14   2        -2         2   # BR(HH -> Up up)
     3.43241450E-09   2        -4         4   # BR(HH -> Charm charm)
     2.72377567E-04   2        -6         6   # BR(HH -> Top top)
     6.39843871E-07   2        -1         1   # BR(HH -> Down down)
     2.31424967E-04   2        -3         3   # BR(HH -> Strange strange)
     6.87106597E-01   2        -5         5   # BR(HH -> Bottom bottom)
     1.58070673E-03   2  -1000024   1000024   # BR(HH -> Chargino1 chargino1)
     6.10945980E-02   2  -1000024   1000037   # BR(HH -> Chargino1 chargino2)
     6.10945980E-02   2  -1000037   1000024   # BR(HH -> Chargino2 chargino1)
     1.93384702E-05   2  -1000037   1000037   # BR(HH -> Chargino2 chargino2)
     9.77358285E-04   2   1000022   1000022   # BR(HH -> neutralino1 neutralino1)
     3.04347663E-04   2   1000022   1000023   # BR(HH -> neutralino1 neutralino2)
     3.46929905E-02   2   1000022   1000025   # BR(HH -> neutralino1 neutralino3)
     3.23959578E-02   2   1000022   1000035   # BR(HH -> neutralino1 neutralino4)
     2.36932052E-05   2   1000023   1000023   # BR(HH -> neutralino2 neutralino2)
     5.39963638E-03   2   1000023   1000025   # BR(HH -> neutralino2 neutralino3)
     5.02974354E-03   2   1000023   1000035   # BR(HH -> neutralino2 neutralino4)
     6.18637477E-05   2   1000025   1000025   # BR(HH -> neutralino3 neutralino3)
     4.40664469E-04   2   1000025   1000035   # BR(HH -> neutralino3 neutralino4)
     1.40681722E-04   2   1000035   1000035   # BR(HH -> neutralino4 neutralino4)
     3.97169772E-07   2        25        25   # BR(HH -> h0 h0)
DECAY        36     1.42930525E+02   # Gamma(A0)
     1.78289912E-09   2        22        22   # BR(A0 -> photon photon)
     7.77295685E-09   2        22        23   # BR(A0 -> photon Z)
     1.29675591E-05   2        21        21   # BR(A0 -> gluon gluon)
     8.28155387E-09   2       -11        11   # BR(A0 -> Electron electron)
     3.68743363E-04   2       -13        13   # BR(A0 -> Muon muon)
     1.06498848E-01   2       -15        15   # BR(A0 -> Tau tau)
     1.69295062E-14   2        -2         2   # BR(A0 -> Up up)
     3.28383801E-09   2        -4         4   # BR(A0 -> Charm charm)
     2.64386753E-04   2        -6         6   # BR(A0 -> Top top)
     6.26547942E-07   2        -1         1   # BR(A0 -> Down down)
     2.26617081E-04   2        -3         3   # BR(A0 -> Strange strange)
     6.72894379E-01   2        -5         5   # BR(A0 -> Bottom bottom)
     1.72472146E-03   2  -1000024   1000024   # BR(A0 -> Chargino1 chargino1)
     6.60335069E-02   2  -1000024   1000037   # BR(A0 -> Chargino1 chargino2)
     6.60335069E-02   2  -1000037   1000024   # BR(A0 -> Chargino2 chargino1)
     3.22239583E-05   2  -1000037   1000037   # BR(A0 -> Chargino2 chargino2)
     1.06631998E-03   2   1000022   1000022   # BR(A0 -> neutralino1 neutralino1)
     3.32146957E-04   2   1000022   1000023   # BR(A0 -> neutralino1 neutralino2)
     3.53383603E-02   2   1000022   1000025   # BR(A0 -> neutralino1 neutralino3)
     3.71735248E-02   2   1000022   1000035   # BR(A0 -> neutralino1 neutralino4)
     2.58650981E-05   2   1000023   1000023   # BR(A0 -> neutralino2 neutralino2)
     5.48666081E-03   2   1000023   1000025   # BR(A0 -> neutralino2 neutralino3)
     5.78567812E-03   2   1000023   1000035   # BR(A0 -> neutralino2 neutralino4)
     1.65180248E-04   2   1000025   1000025   # BR(A0 -> neutralino3 neutralino3)
     2.11165408E-04   2   1000025   1000035   # BR(A0 -> neutralino3 neutralino4)
     3.24422954E-04   2   1000035   1000035   # BR(A0 -> neutralino4 neutralino4)
     1.26067289E-07   2        23        25   # BR(A0 -> Z h0)
     1.63575197E-12   2        23        35   # BR(A0 -> Z HH)
     4.64682601E-39   2        25        25   # BR(A0 -> h0 h0)
DECAY        37     1.64997110E+02   # Gamma(Hp)
     9.35710240E-09   2       -11        12   # BR(Hp -> Electron nu_e)
     4.00045352E-04   2       -13        14   # BR(Hp -> Muon nu_mu)
     1.13155584E-01   2       -15        16   # BR(Hp -> Tau nu_tau)
     6.08922520E-07   2        -1         2   # BR(Hp -> Down up)
     1.02862707E-05   2        -3         2   # BR(Hp -> Strange up)
     7.35856785E-06   2        -5         2   # BR(Hp -> Bottom up)
     2.86168201E-08   2        -1         4   # BR(Hp -> Down charm)
     2.19443458E-04   2        -3         4   # BR(Hp -> Strange charm)
     1.03046283E-03   2        -5         4   # BR(Hp -> Bottom charm)
     1.72178621E-08   2        -1         6   # BR(Hp -> Down top)
     7.00860890E-07   2        -3         6   # BR(Hp -> Strange top)
     6.95051683E-01   2        -5         6   # BR(Hp -> Bottom top)
     1.11578267E-05   2   1000022   1000024   # BR(Hp -> neutralino1 chargino1)
     5.05304556E-02   2   1000022   1000037   # BR(Hp -> neutralino1 chargino2)
     8.41546991E-04   2   1000023   1000024   # BR(Hp -> neutralino2 chargino1)
     2.37583383E-02   2   1000023   1000037   # BR(Hp -> neutralino2 chargino2)
     5.73889948E-02   2   1000024   1000025   # BR(Hp -> chargino1 neutralino3)
     1.79389335E-04   2   1000025   1000037   # BR(Hp -> neutralino3 chargino2)
     5.72936318E-02   2   1000024   1000035   # BR(Hp -> chargino1 neutralino4)
     1.20146967E-04   2   1000035   1000037   # BR(Hp -> neutralino4 chargino2)
     1.09310865E-07   2        24        25   # BR(Hp -> W h0)
     3.52723824E-12   2        24        35   # BR(Hp -> W HH)
DECAY         6     2.43000000E+00   # top
#    BR                NDA      ID1      ID2
     1.00000000E+00    2           5        24   # BR(t -> b W)
Block HiggsBoundsInputHiggsCouplingsFermions
# ScalarNormEffCoupSq PseudoSNormEffCoupSq NP IP1 IP2 IP2
    1.00126688E+00    0.00000000E+00        3  25   5   5  # h0-b-b eff. coupling^2, normalised to SM
    2.89222215E+03    0.00000000E+00        3  35   5   5  # H0-b-b eff. coupling^2, normalised to SM
    0.00000000E+00    2.89222341E+03        3  36   5   5  # A0-b-b eff. coupling^2, normalised to SM
#
    9.99999562E-01    0.00000000E+00        3  25   6   6  # h0-t-t eff. coupling^2, normalised to SM
    3.46192785E-04    0.00000000E+00        3  35   6   6  # H0-t-t eff. coupling^2, normalised to SM
    0.00000000E+00    3.45754756E-04        3  36   6   6  # A0-t-t eff. coupling^2, normalised to SM
#
    1.00126688E+00    0.00000000E+00        3  25  15  15  # h0-tau-tau eff. coupling^2, normalised to SM
    2.89222215E+03    0.00000000E+00        3  35  15  15  # H0-tau-tau eff. coupling^2, normalised to SM
    0.00000000E+00    2.89222341E+03        3  36  15  15  # A0-tau-tau eff. coupling^2, normalised to SM
#
Block HiggsBoundsInputHiggsCouplingsBosons
    1.00000000E+00        3  25  24  24  # h0-W-W eff. coupling^2, normalised to SM
    1.38644324E-10        3  35  24  24  # H0-W-W eff. coupling^2, normalised to SM
    0.00000000E+00        3  36  24  24  # A0-W-W eff. coupling^2, normalised to SM
#
    1.00000000E+00        3  25  23  23  # h0-Z-Z eff. coupling^2, normalised to SM
    1.38644324E-10        3  35  23  23  # H0-Z-Z eff. coupling^2, normalised to SM
    0.00000000E+00        3  36  23  23  # A0-Z-Z eff. coupling^2, normalised to SM
#
    1.26771196E+00        3  25  21  21  # h0-g-g eff. coupling^2, normalised to SM
    1.51646666E-02        3  35  21  21  # H0-g-g eff. coupling^2, normalised to SM
    1.49154517E-01        3  36  21  21  # A0-g-g eff. coupling^2, normalised to SM
#
    0.00000000E+00        3  25  25  23  # h0-h0-Z eff. coupling^2, normalised to SM
    0.00000000E+00        3  35  25  23  # H0-h0-Z eff. coupling^2, normalised to SM
    1.38644324E-10        3  36  25  23  # A0-h0-Z eff. coupling^2, normalised to SM
    0.00000000E+00        3  35  35  23  # H0-H0-Z eff. coupling^2, normalised to SM
    1.00000000E+00        3  36  35  23  # A0-H0-Z eff. coupling^2, normalised to SM
    0.00000000E+00        3  36  36  23  # A0-A0-Z eff. coupling^2, normalised to SM
#
    0.00000000E+00        4  25  21  21  23  # h0-g-g-Z eff. coupling^2, normalised to SM
    0.00000000E+00        4  35  21  21  23  # H0-g-g-Z eff. coupling^2, normalised to SM
    0.00000000E+00        4  36  21  21  23  # A0-g-g-Z eff. coupling^2, normalised to SM
Block SPhenoLowEnergy  # low energy observables
    1    3.28370746E-04   # BR(b -> s gamma)
    2    1.58907388E-06   # BR(b -> s mu+ mu-)
    3    3.52463399E-05   # BR(b -> s nu nu)
    4    2.26315780E-15   # BR(Bd -> e+ e-)
    5    9.66801328E-11   # BR(Bd -> mu+ mu-)
    6    2.02736255E-08   # BR(Bd -> tau+ tau-)
    7    7.78411051E-14   # BR(Bs -> e+ e-)
    8    3.32538836E-09   # BR(Bs -> mu+ mu-)
    9    7.06440723E-07   # BR(Bs -> tau+ tau-)
   10    9.52841780E-05   # BR(B_u -> tau nu)
   11    9.84249080E-01   # BR(B_u -> tau nu)/BR(B_u -> tau nu)_SM
   12    5.41918250E-01   # |Delta(M_Bd)| [ps^-1] 
   13    1.93529408E+01   # |Delta(M_Bs)| [ps^-1] 
   14    0.00000000E+00   # neutron EDM according to the chiral quark model
   15    0.00000000E+00   # neutron EDM according to the relativistic quark-parton model
   16    2.15720513E-03   # epsilon_K
   17    2.28165890E-15   # Delta(M_K)
   18    2.47952526E-11   # BR(K^0 -> pi^0 nu nu)
   19    8.28939014E-11   # BR(K^+ -> pi^+ nu nu)
   20   -2.99118451E-16   # Delta(g-2)_electron/2
   21   -1.27884969E-11   # Delta(g-2)_muon/2
   22   -3.63676963E-09   # Delta(g-2)_tau/2
   23    0.00000000E+00   # electric dipole moment of the electron
   24    0.00000000E+00   # electric dipole moment of the muon
   25    0.00000000E+00   # electric dipole moment of the tau
   26    0.00000000E+00   # Br(mu -> e gamma)
   27    0.00000000E+00   # Br(tau -> e gamma)
   28    0.00000000E+00   # Br(tau -> mu gamma)
   29    0.00000000E+00   # Br(mu -> 3 e)
   30    0.00000000E+00   # Br(tau -> 3 e)
   31    0.00000000E+00   # Br(tau -> 3 mu)
   39    7.38677400E-05   # Delta(rho_parameter)
   40    0.00000000E+00   # BR(Z -> e mu)
   41    0.00000000E+00   # BR(Z -> e tau)
   42    0.00000000E+00   # BR(Z -> mu tau)
Block FWCOEF Q=  1.60000000E+02  # Wilson coefficients at scale Q
#    id        order  M        value         comment
     0305 4422   00   0    -1.88819110E-01   # C7
     0305 4422   00   2    -1.98232131E-01   # C7
     0305 4322   00   2    -1.57971682E-04   # C7'
     0305 6421   00   0    -9.52278348E-02   # C8
     0305 6421   00   2    -1.02166592E-01   # C8
     0305 6321   00   2    -1.30118870E-04   # C8'
 03051111 4133   00   0     1.63292175E+00   # C9 e+e-
 03051111 4133   00   2     1.63312868E+00   # C9 e+e-
 03051111 4233   00   2     5.80877577E-04   # C9' e+e-
 03051111 4137   00   0    -4.45561385E+00   # C10 e+e-
 03051111 4137   00   2    -4.45348241E+00   # C10 e+e-
 03051111 4237   00   2    -4.25970324E-03   # C10' e+e-
 03051313 4133   00   0     1.63292175E+00   # C9 mu+mu-
 03051313 4133   00   2     1.63312844E+00   # C9 mu+mu-
 03051313 4233   00   2     5.80876543E-04   # C9' mu+mu-
 03051313 4137   00   0    -4.45561385E+00   # C10 mu+mu-
 03051313 4137   00   2    -4.45348265E+00   # C10 mu+mu-
 03051313 4237   00   2    -4.25970334E-03   # C10' mu+mu-
 03051212 4137   00   0     1.50535012E+00   # C11 nu_1 nu_1
 03051212 4137   00   2     1.50489138E+00   # C11 nu_1 nu_1
 03051212 4237   00   2     9.19818633E-04   # C11' nu_1 nu_1
 03051414 4137   00   0     1.50535012E+00   # C11 nu_2 nu_2
 03051414 4137   00   2     1.50489138E+00   # C11 nu_2 nu_2
 03051414 4237   00   2     9.19818795E-04   # C11' nu_2 nu_2
 03051616 4137   00   0     1.50535012E+00   # C11 nu_3 nu_3
 03051616 4137   00   2     1.50489139E+00   # C11 nu_3 nu_3
 03051616 4237   00   2     9.19864455E-04   # C11' nu_3 nu_3
Block IMFWCOEF Q=  1.60000000E+02  # Im(Wilson coefficients) at scale Q
#    id        order  M        value         comment
     0305 4422   00   0     3.85812218E-07   # C7
     0305 4422   00   2    -1.23641622E-05   # C7
     0305 4322   00   2    -6.80063238E-07   # C7'
     0305 6421   00   0     3.30473680E-07   # C8
     0305 6421   00   2     3.40759336E-05   # C8
     0305 6321   00   2     4.51879405E-07   # C8'
 03051111 4133   00   2     8.90936606E-07   # C9 e+e-
 03051111 4233   00   2     1.15587930E-05   # C9' e+e-
 03051111 4137   00   2    -4.63071596E-07   # C10 e+e-
 03051111 4237   00   2    -8.47697972E-05   # C10' e+e-
 03051313 4133   00   2     8.90929944E-07   # C9 mu+mu-
 03051313 4233   00   2     1.15587880E-05   # C9' mu+mu-
 03051313 4137   00   2    -4.63064494E-07   # C10 mu+mu-
 03051313 4237   00   2    -8.47698123E-05   # C10' mu+mu-
 03051212 4137   00   2     1.27085610E-07   # C11 nu_1 nu_1
 03051212 4237   00   2     1.83047607E-05   # C11' nu_1 nu_1
 03051414 4137   00   2     1.27085963E-07   # C11 nu_2 nu_2
 03051414 4237   00   2     1.83047607E-05   # C11' nu_2 nu_2
 03051616 4137   00   2     1.27183933E-07   # C11 nu_3 nu_3
 03051616 4237   00   2     1.83047606E-05   # C11' nu_3 nu_3
