BLOCK SPINFO
   1   SPheno
   2   v4.0.5be

BLOCK SPHENOINFO
   1   2
   2   2

BLOCK MODSEL
   1   0

BLOCK MINPAR
   3    20.138325
   4   -1

BLOCK EXTPAR
   0    1307.7502
   1   -46.396044
   2   -1936.8927
   3    3000
   11    2594.1739
   12    1457.6207
   13   -96.397602
   23   -514.63861
   25    19.428618
   26    1764.5578
   31    723.99537
   32    723.99537
   33    1312.1387
   34    1888.9228
   35    1888.9228
   36    1257.0083
   41    5000
   42    5000
   43    1389.5241
   44    5000
   45    5000
   46    1371.3586
   47    5000
   48    5000
   49    1460.9513

BLOCK SMINPUTS
   1    127.90897
   2    1.1663787e-05
   3    0.1184
   4    91.1876
   5    4.18
   6    173.2
   7    1.777
   8    0
   11    0.00051099893
   12    0
   13    0.10565837
   14    0
   21    0.005
   22    0.0025
   23    0.095
   24    1.27

BLOCK GAUGE Q=  1307.7502
   1    0.35536298
   2    0.66519887
   3    1.219778

BLOCK YU Q=  1307.7502
   1   1    8.3954708e-06
   2   2    0.0042648992
   3   3    1.0142403

BLOCK YD Q=  1307.7502
   1   1    0.0003277685
   2   2    0.0062276015
   3   3    0.32504364

BLOCK YE Q=  1307.7502
   1   1    5.7198e-05
   2   2    0.011826732
   3   3    0.19890618

BLOCK AU Q=  1307.7502
   1   1    0
   2   2    0
   3   3    2594.1739

BLOCK AD Q=  1307.7502
   1   1    0
   2   2    0
   3   3    1457.6208

BLOCK AE Q=  1307.7502
   1   1    0
   2   2    0
   3   3   -96.397603

BLOCK MSOFT Q=  1307.7502
   1   -46.396044
   2   -1936.8927
   3    3000
   21    2826475.7
   22   -206210.34
   31    723.99537
   32    723.99537
   33    1312.1387
   34    1888.9228
   35    1888.9228
   36    1257.0083
   41    5000
   42    5000
   43    1389.5241
   44    5000
   45    5000
   46    1371.3586
   47    5000
   48    5000
   49    1460.9513

BLOCK MASS
   6    173.2
   23    91.1876
   24    80.429995
   15    1.777
   25    121.84372
   35    1764.5286
   36    1764.5578
   37    1766.8516
   1000001    5016.9652
   2000001    5010.8471
   1000002    5016.5264
   2000002    5012.2119
   1000003    5016.9671
   2000003    5010.8489
   1000004    5016.528
   2000004    5012.2129
   1000005    1347.2925
   2000005    1448.1433
   1000006    1163.5557
   2000006    1469.8141
   1000011    737.48296
   2000011    1891.2081
   1000012    732.86912
   1000013    737.48033
   2000013    1891.2043
   1000014    732.86674
   1000015    1257.0229
   2000015    1324.0377
   1000016    1320.5712
   1000021    3174.0889
   1000022   -45.679002
   1000023   -522.00033
   1000025    525.65863
   1000035   -1970.7023
   1000024    521.40766
   1000037    1970.8977

BLOCK ALPHA
      -0.049977641

BLOCK HMIX Q=  1307.7502
   1   -514.63861
   2    19.428618
   3    244.13579
   4    3113664.2

BLOCK STOPMIX
   1   1   -0.64418586
   1   2    0.76486899
   2   1   -0.76486899
   2   2   -0.64418586

BLOCK SBOTMIX
   1   1   -0.99376143
   1   2    0.11152676
   2   1   -0.11152676
   2   2   -0.99376143

BLOCK STAUMIX
   1   1   -0.1045371
   1   2    0.99452099
   2   1   -0.99452099
   2   2   -0.1045371

BLOCK NMIX
   1   1    0.99617952
   1   2   -0.00069765669
   1   3   -0.08646738
   1   4    0.01221758
   2   1   -0.069869214
   2   2   -0.040784828
   2   3   -0.70508199
   2   4    0.70449576
   3   1   -0.052379403
   3   2    0.021547258
   3   3   -0.7037016
   3   4   -0.70823455
   4   1   -0.0010270735
   4   2    0.99893535
   4   3   -0.013668685
   4   4    0.044048672

BLOCK UMIX
   1   1   -0.019394291
   1   2   -0.99981191
   2   1   -0.99981191
   2   2    0.019394291

BLOCK VMIX
   1   1    0.062468124
   1   2    0.99804696
   2   1    0.99804696
   2   2   -0.062468124

BLOCK HIGGSBOUNDSINPUTHIGGSCOUPLINGSFERMIONS
       0, 377.4712,3,36,15,15

BLOCK HIGGSBOUNDSINPUTHIGGSCOUPLINGSBOSONS
       0,4,36,21,21,23

BLOCK SPHENOLOWENERGY
   1    0.00031664932
   2    1.5909725e-06
   3    3.5245536e-05
   4    2.4482612e-15
   5    1.0458688e-10
   6    2.1889841e-08
   7    8.2809078e-14
   8    3.5375994e-09
   9    7.502062e-07
   10    9.6166873e-05
   11    0.99336698
   12    0.54302394
   13    19.399846
   14    0
   15    0
   16    0.0021611375
   17    2.2816979e-15
   18    2.4786963e-11
   19    8.2876181e-11
   20    3.6880553e-15
   21    1.5767579e-10
   22    3.3913027e-08
   23    0
   24    0
   25    0
   26    0
   27    0
   28    0
   29    0
   30    0
   31    0
   39    6.9202122e-05
   40    0
   41    0
   42    0

BLOCK FWCOEF Q=  160
   305   4422   0   0   -0.18881911
   305   4422   0   2   -0.18143783
   305   4322   0   2   -0.00017058794
   305   6421   0   0   -0.095227835
   305   6421   0   2   -0.10392883
   305   6321   0   2   -0.00030992597
   3051111   4133   0   0    1.5869636
   3051111   4133   0   2    1.5892145
   3051111   4233   0   2    3.779362e-05
   3051111   4137   0   0   -4.4096557
   3051111   4137   0   2   -4.4073009
   3051111   4237   0   2   -0.00029506309
   3051313   4133   0   0    1.5869636
   3051313   4133   0   2    1.5892133
   3051313   4233   0   2    3.7793444e-05
   3051313   4137   0   0   -4.4096557
   3051313   4137   0   2   -4.4073021
   3051313   4237   0   2   -0.0002950632
   3051212   4137   0   0    1.5053501
   3051212   4137   0   2    1.5048402
   3051212   4237   0   2    6.4367811e-05
   3051414   4137   0   0    1.5053501
   3051414   4137   0   2    1.5048402
   3051414   4237   0   2    6.4367837e-05
   3051616   4137   0   0    1.5053501
   3051616   4137   0   2    1.5048405
   3051616   4237   0   2    6.4376321e-05

BLOCK IMFWCOEF Q=  160
   305   4422   0   0    3.8585342e-07
   305   4422   0   2    6.2384466e-06
   305   4322   0   2    2.0325795e-06
   305   6421   0   0    3.3050897e-07
   305   6421   0   2    6.5230599e-06
   305   6321   0   2    7.8987195e-07
   3051111   4133   0   2    4.3435343e-07
   3051111   4233   0   2    1.0654484e-06
   3051111   4137   0   2   -2.484411e-06
   3051111   4237   0   2   -8.3373767e-06
   3051313   4133   0   2    4.3434625e-07
   3051313   4233   0   2    1.0654475e-06
   3051313   4137   0   2   -2.4844178e-06
   3051313   4237   0   2   -8.3373807e-06
   3051212   4137   0   2    5.8946594e-07
   3051212   4237   0   2    1.8189047e-06
   3051414   4137   0   2    5.894657e-07
   3051414   4237   0   2    1.8189047e-06
   3051616   4137   0   2    5.9550355e-07
   3051616   4237   0   2    1.818923e-06

DECAY 23  2.4952


DECAY 24  2.085


DECAY 1000011  0.91547465
    0.99391047   2    1000022    11
    0.0053867712   2    1000023    11
    0.00066721364   2   -1000024    12

DECAY 2000011  9.4809487
    0.99348282   2    1000022    11
    0.0041757588   2    1000023    11
    0.0023414081   2    1000025    11

DECAY 1000013  0.91598725
    0.9933671   2    1000022    13
    0.0056619752   2    1000023    13
    0.00066682838   2   -1000024    14
    0.00030409099   2    1000025    13

DECAY 2000013  9.4900743
    0.99252965   2    1000022    13
    0.0044069371   2    1000023    13
    0.0025729079   2    1000025    13
    0.00047325856   2   -1000024    14

DECAY 1000015  7.6017881
    0.81951437   2    1000022    15
    0.089417785   2   -1000024    16
    0.0471811   2    1000023    15
    0.043886745   2    1000025    15

DECAY 2000015  2.4550199
    0.68454061   2    1000022    15
    0.16054625   2    1000023    15
    0.15442137   2    1000025    15
    0.00048517811   2   -1000024    16

DECAY 1000012  0.91688703
    0.99125932   2    1000022    12
    0.0066958396   2    1000024    11
    0.0020346212   2    1000025    12

DECAY 1000014  0.91737955
    0.99072387   2    1000022    14
    0.0072324264   2    1000024    13
    0.0020334942   2    1000025    14

DECAY 1000016  2.4289955
    0.67788007   2    1000022    16
    0.31792869   2    1000024    15
    0.004157456   2    1000025    16

DECAY 2000001  144.59183
    0.98065855   2    1000021    1
    0.019196959   2    1000022    1

DECAY 1000001  190.52556
    0.74757696   2    1000021    1
    0.16571471   2   -1000037    2
    0.082748407   2    1000035    1
    0.0036753813   2    1000022    1
    0.00010809765   2    1000025    1

DECAY 2000003  144.59956
    0.98060741   2    1000021    3
    0.019196139   2    1000022    3
    0.00010541058   2    1000023    3

DECAY 1000003  190.53134
    0.74755532   2    1000021    3
    0.16570982   2   -1000037    4
    0.082745952   2    1000035    3
    0.0036754227   2    1000022    3
    0.00011790744   2    1000025    3
    0.00010098233   2    1000023    3

DECAY 1000005  28.936283
    0.6408022   2   -1000024    6
    0.28075567   2    1000006   -24
    0.035349898   2    1000023    5
    0.034193254   2    1000025    5
    0.00889898   2    1000022    5

DECAY 2000005  6.0930789
    0.42548694   2   -1000024    6
    0.19083206   2    1000025    5
    0.18804962   2    1000023    5
    0.12655504   2    1000022    5
    0.068682598   2    1000006   -24
    0.00039374123   2    1000005    23

DECAY 2000002  153.12679
    0.92692704   2    1000021    2
    0.0725276   2    1000022    2
    0.00034913992   2    1000023    2
    0.00019616203   2    1000025    2

DECAY 1000002  190.51766
    0.74736804   2    1000021    2
    0.16511202   2    1000037    1
    0.082678749   2    1000035    2
    0.0036178481   2    1000022    2
    0.00088513683   2    1000024    1
    0.00032127272   2    1000023    2

DECAY 2000004  153.13037
    0.9269056   2    1000021    4
    0.072525905   2    1000022    4
    0.00035487817   2    1000023    4
    0.00020197261   2    1000025    4

DECAY 1000004  190.52333
    0.74734632   2    1000021    4
    0.1651072   2    1000037    3
    0.082676309   2    1000035    4
    0.0036177422   2    1000022    4
    0.0009049246   2    1000024    3
    0.00032589478   2    1000023    4

DECAY 1000006  28.423107
    0.35581166   2    1000024    5
    0.2997286   2    1000025    6
    0.28928179   2    1000023    6
    0.055085328   2    1000022    6

DECAY 2000006  45.474705
    0.26056727   2    1000006    23
    0.21977834   2    1000024    5
    0.21852601   2    1000023    6
    0.21262011   2    1000025    6
    0.047996486   2    1000005    24
    0.029690034   2    1000022    6
    0.010821743   2    1000006    25

DECAY 1000024  0.36153819
    0.9958494   2    1000022    24
    0.0041450857   3    1000022   -5    6

DECAY 1000037  63.136137
    0.10620835   2   -1000005    6
    0.10163319   2    1000014   -13
    0.10163298   2    1000012   -11
    0.10158   2   -1000013    14
    0.10157976   2   -1000011    12
    0.070752979   2    1000024    25
    0.070571778   2    1000024    23
    0.070536292   2    1000025    24
    0.070405061   2    1000023    24
    0.056851998   2    1000006   -5
    0.055226276   2    2000006   -5
    0.041559889   2    1000016   -15
    0.040948799   2   -2000015    16
    0.0035868857   3    1000024    6   -6
    0.0027177031   3    1000025   -5    6
    0.0024582035   3    1000023   -5    6
    0.0011513827   2   -2000005    6
    0.00047151621   2   -1000015    16

DECAY 1000022 -1


DECAY 1000023  0.31974577
    0.58888076   2    1000022    25
    0.41067791   2    1000022    23
    0.00040023402   3    1000022    6   -6

DECAY 1000025  0.39409735
    0.5995411   2    1000022    23
    0.40012947   2    1000022    25
    0.00031096002   3    1000022    6   -6

DECAY 1000035  66.00234
    0.068335177   2    1000024   -24
    0.068335177   2   -1000024    24
    0.05502297   2    1000005   -5
    0.05502297   2   -1000005    5
    0.052906844   2    1000023    25
    0.05287351   2    1000025    23
    0.048741999   2    1000014   -14
    0.048741999   2   -1000014    14
    0.048741897   2    1000012   -12
    0.048741897   2   -1000012    12
    0.048438068   2    1000013   -13
    0.048438068   2   -1000013    13
    0.048437946   2    1000011   -11
    0.048437946   2   -1000011    11
    0.043604189   2    1000025    25
    0.028713092   2    1000006   -6
    0.028713092   2   -1000006    6
    0.027130992   2    2000006   -6
    0.027130992   2   -2000006    6
    0.019926562   2    1000016   -16
    0.019926562   2   -1000016    16
    0.019522525   2    2000015   -15
    0.019522525   2   -2000015    15
    0.014573482   2    1000023    23
    0.0025746979   3    1000024    5   -6
    0.0025746979   3   -1000024   -5    6
    0.0016173629   3    1000023    6   -6
    0.0014475443   3    1000025    6   -6
    0.00060909924   2    2000005   -5
    0.00060909924   2   -2000005    5
    0.0002248416   2    1000015   -15
    0.0002248416   2   -1000015    15

DECAY 1000021  251.61605
    0.15704285   2    1000006   -6
    0.15704285   2   -1000006    6
    0.12557334   2    1000005   -5
    0.12557334   2   -1000005    5
    0.11697768   2    2000005   -5
    0.11697768   2   -2000005    5
    0.09929315   2    2000006   -6
    0.09929315   2   -2000006    6
    0.001047336   2    1000006   -4
    0.001047336   2   -1000006    4

DECAY 25  0.003563978
    0.62007924   2   -5    5
    0.17652433   2   -24    24
    0.072508251   2    21    21
    0.070822037   2   -15    15
    0.030234058   2   -4    4
    0.020051672   2    23    23
    0.0057858526   2    1000022    1000022
    0.00230114   2    22    22
    0.0012147362   2    22    23
    0.00024566159   2   -13    13
    0.00023221853   2   -3    3
    6.4206004e-07   2   -1    1
    1.5581349e-07   2   -2    2
    5.5227881e-09   2   -11    11

DECAY 35  15.155546
    0.7662589   2   -5    5
    0.10103062   2   -15    15
    0.061585926   2    1000022    1000025
    0.050168787   2    1000022    1000023
    0.015364533   2   -6    6
    0.0020135038   2   -1000024    1000024
    0.0018980223   2    1000022    1000022
    0.00067722541   2    1000025    1000025
    0.00035803547   2   -13    13
    0.00032909184   2    1000023    1000025
    0.00022103768   2   -3    3
    3.9886974e-05   2    25    25
    1.6013055e-05   2    21    21
    1.1482819e-05   2    23    23
    7.2871695e-06   2   -24    24
    6.5288543e-06   2    1000023    1000023
    1.4142953e-06   2   -1000011    1000011
    1.411279e-06   2   -1000013    1000013
    6.1107848e-07   2   -1    1
    1.7496618e-07   2   -4    4
    9.1925799e-08   2    22    22
    7.9375553e-08   2    22    23
    8.0425923e-09   2   -11    11
    9.0193193e-13   2   -2    2

DECAY 36  14.814974
    0.76252029   2   -5    5
    0.10053418   2   -15    15
    0.064744639   2    1000022    1000023
    0.049737596   2    1000022    1000025
    0.015340077   2   -6    6
    0.0033127878   2   -1000024    1000024
    0.002001242   2    1000022    1000022
    0.00086390391   2    1000025    1000025
    0.00035627348   2   -13    13
    0.00028393672   2    1000023    1000025
    0.00021995037   2   -3    3
    5.6077973e-05   2    21    21
    1.5579067e-05   2    23    25
    1.2350878e-05   2    1000023    1000023
    6.0807242e-07   2   -1    1
    2.1742469e-07   2    22    22
    1.6763548e-07   2   -4    4
    1.1085398e-07   2    22    23
    8.0030114e-09   2   -11    11
    8.6417762e-13   2   -2    2
    8.4879698e-36   2    25    25

DECAY 37  14.546833
    0.77914164   2   -5    6
    0.11935673   2    1000022    1000024
    0.098508323   2   -15    16
    0.0011481494   2    1000023    1000024
    0.0011444807   2   -5    4
    0.00034826255   2   -13    14
    0.00020917218   2   -3    4
    7.8463742e-05   2    1000024    1000025
    1.7901697e-05   2   -3    6
    1.5958002e-05   2    24    25
    9.7279514e-06   2   -3    2
    8.1727775e-06   2   -5    2
    5.7968161e-06   2   -1000011    1000012
    5.7923926e-06   2   -1000013    1000014
    8.0712885e-07   2   -1    6
    5.7984338e-07   2   -1    2
    3.4379576e-08   2   -1    4
    8.1458973e-09   2   -11    12
    6.3237757e-12   2    24    35
    5.9365871e-12   2    24    36

DECAY 6  2.43
    1   2    5    24

DECAY 15 -1
