BLOCK SPINFO
   1   SPheno
   2   v4.0.5be

BLOCK SPHENOINFO
   1   2
   2   2

BLOCK MODSEL
   1   0

BLOCK MINPAR
   3    55.109381
   4   -1

BLOCK EXTPAR
   0    1054.1698
   1    579.56188
   2   -1300.7465
   3    3000
   11   -1876.2397
   12   -1076.2115
   13    245.56335
   23   -593.09251
   25    56.186955
   26    3929.642
   31    1665.7931
   32    1665.7931
   33    1814.2132
   34    1013.3647
   35    1013.3647
   36    773.82173
   41    5000
   42    5000
   43    986.62069
   44    5000
   45    5000
   46    1314.6647
   47    5000
   48    5000
   49    822.04427

BLOCK SMINPUTS
   1    127.90897
   2    1.1663787e-05
   3    0.1184
   4    91.1876
   5    4.18
   6    173.2
   7    1.777
   8    0
   11    0.00051099893
   12    0
   13    0.10565837
   14    0
   21    0.005
   22    0.0025
   23    0.095
   24    1.27

BLOCK GAUGE Q=  1054.1698
   1    0.35536298
   2    0.66519887
   3    1.219778

BLOCK YU Q=  1054.1698
   1   1    8.3856999e-06
   2   2    0.0042599356
   3   3    1.0130599

BLOCK YD Q=  1054.1698
   1   1    0.00094679305
   2   2    0.017989068
   3   3    0.93892202

BLOCK YE Q=  1054.1698
   1   1    0.00016522231
   2   2    0.034162734
   3   3    0.57456098

BLOCK AU Q=  1054.1698
   1   1    0
   2   2    0
   3   3   -1876.2396

BLOCK AD Q=  1054.1698
   1   1    0
   2   2    0
   3   3   -1076.2114

BLOCK AE Q=  1054.1698
   1   1    0
   2   2    0
   3   3    245.56335

BLOCK MSOFT Q=  1054.1698
   1    579.56188
   2   -1300.7465
   3    3000
   21    14934499
   22   -333329.81
   31    1665.7931
   32    1665.7931
   33    1814.2132
   34    1013.3647
   35    1013.3647
   36    773.82173
   41    5000
   42    5000
   43    986.62069
   44    5000
   45    5000
   46    1314.6647
   47    5000
   48    5000
   49    822.04427

BLOCK MASS
   6    173.2
   23    91.1876
   24    80.429995
   15    1.777
   25    120.39872
   35    3920.3147
   36    3929.642
   37    3921.9578
   1000001    5003.5219
   2000001    4994.9003
   1000002    5003.0564
   2000002    4998.8179
   1000003    5003.5448
   2000003    4994.9343
   1000004    5003.0766
   2000004    4998.8195
   1000005    820.717
   2000005    960.51734
   1000006    889.49016
   2000006    1249.3381
   1000011    1675.5591
   2000011    1006.0705
   1000012    1673.2668
   1000013    1675.602
   2000013    1006.2254
   1000014    1673.3075
   1000015    823.03439
   2000015    1833.8764
   1000016    1831.3749
   1000021    3154.759
   1000022    557.21023
   1000023   -591.07228
   1000025    620.67482
   1000035   -1349.6749
   1000024    591.58869
   1000037    1349.8147

BLOCK ALPHA
      -0.018185336

BLOCK HMIX Q=  1054.1698
   1   -593.09251
   2    56.186955
   3    244.39646
   4    15442086

BLOCK STOPMIX
   1   1    0.93620562
   1   2    0.35145276
   2   1   -0.35145276
   2   2    0.93620562

BLOCK SBOTMIX
   1   1   -0.43229685
   1   2    0.90173136
   2   1   -0.90173136
   2   2   -0.43229685

BLOCK STAUMIX
   1   1   -0.022638076
   1   2    0.99974373
   2   1   -0.99974373
   2   2   -0.022638076

BLOCK NMIX
   1   1    0.77305745
   1   2    0.017902755
   1   3   -0.4627883
   1   4   -0.43346125
   2   1   -0.027006713
   2   2   -0.075612531
   2   3   -0.7065635
   2   4    0.70307994
   3   1    0.63375842
   3   2   -0.022301581
   3   3    0.53430695
   3   4    0.5588998
   4   1   -0.0017538293
   4   2    0.99672708
   4   3   -0.033333076
   4   4    0.073627129

BLOCK UMIX
   1   1   -0.047087611
   1   2   -0.99889076
   2   1   -0.99889076
   2   2    0.047087611

BLOCK VMIX
   1   1    0.10410773
   1   2    0.99456603
   2   1    0.99456603
   2   2   -0.10410773

BLOCK HIGGSBOUNDSINPUTHIGGSCOUPLINGSFERMIONS
       0, 3156.9739,3,36,15,15

BLOCK HIGGSBOUNDSINPUTHIGGSCOUPLINGSBOSONS
       0,4,36,21,21,23

BLOCK SPHENOLOWENERGY
   1    0.00041133463
   2    1.5880162e-06
   3    3.5203522e-05
   4    1.703827e-15
   5    7.2779826e-11
   6    1.4905446e-08
   7    5.7973962e-14
   8    2.4764651e-09
   9    5.1472785e-07
   10    9.5081716e-05
   11    0.98215772
   12    0.54437461
   13    19.430047
   14    0
   15    0
   16    0.0021736256
   17    2.2818255e-15
   18    2.4782643e-11
   19    8.285826e-11
   20    9.06946e-15
   21    3.8778411e-10
   22    1.2112006e-07
   23    0
   24    0
   25    0
   26    0
   27    0
   28    0
   29    0
   30    0
   31    0
   39    8.4276826e-05
   40    0
   41    0
   42    0

BLOCK FWCOEF Q=  160
   305   4422   0   0   -0.18881911
   305   4422   0   2   -0.29165758
   305   4322   0   2   -0.00046182437
   305   6421   0   0   -0.095227835
   305   6421   0   2   -0.14466162
   305   6321   0   2   -0.00022373359
   3051111   4133   0   0    1.5801279
   3051111   4133   0   2    1.5818816
   3051111   4233   0   2    0.00039062862
   3051111   4137   0   0   -4.40282
   3051111   4137   0   2   -4.3964696
   3051111   4237   0   2   -0.0030923065
   3051313   4133   0   0    1.5801279
   3051313   4133   0   2    1.5818768
   3051313   4233   0   2    0.00039062336
   3051313   4137   0   0   -4.40282
   3051313   4137   0   2   -4.3964744
   3051313   4237   0   2   -0.0030923177
   3051212   4137   0   0    1.5053501
   3051212   4137   0   2    1.5039673
   3051212   4237   0   2    0.00067573963
   3051414   4137   0   0    1.5053501
   3051414   4137   0   2    1.5039673
   3051414   4237   0   2    0.00067573972
   3051616   4137   0   0    1.5053501
   3051616   4137   0   2    1.5039675
   3051616   4237   0   2    0.00067576561

BLOCK IMFWCOEF Q=  160
   305   4422   0   0    3.8566256e-07
   305   4422   0   2    2.5060364e-05
   305   4322   0   2   -6.8905665e-06
   305   6421   0   0    3.3034549e-07
   305   6421   0   2    2.3820402e-05
   305   6321   0   2   -2.1901196e-06
   3051111   4133   0   2   -1.2759126e-06
   3051111   4233   0   2    7.8116736e-06
   3051111   4137   0   2    1.1390368e-05
   3051111   4237   0   2   -6.1855229e-05
   3051313   4133   0   2   -1.275894e-06
   3051313   4233   0   2    7.81159e-06
   3051313   4137   0   2    1.1390426e-05
   3051313   4237   0   2   -6.185544e-05
   3051212   4137   0   2   -2.3966979e-06
   3051212   4237   0   2    1.3516792e-05
   3051414   4137   0   2   -2.3966981e-06
   3051414   4237   0   2    1.3516792e-05
   3051616   4137   0   2   -2.3966148e-06
   3051616   4237   0   2    1.3516793e-05

DECAY 23  2.4952


DECAY 24  2.085


DECAY 2000011  2.2324572
    0.65036316   2    1000022    11
    0.34892848   2    1000025    11
    0.00070825819   2    1000023    11

DECAY 1000011  4.4183949
    0.41042827   2   -1000037    12
    0.24514698   2    1000022    11
    0.2040984   2    1000035    11
    0.1242809   2    1000025    11
    0.010373963   2    1000023    11
    0.0056714902   2   -1000024    12

DECAY 2000013  2.2534408
    0.64565808   2    1000022    13
    0.34699101   2    1000025    13
    0.0044292211   2   -1000024    14
    0.0029216868   2    1000023    13

DECAY 1000013  4.4503313
    0.4075706   2   -1000037    14
    0.24487637   2    1000022    13
    0.20267821   2    1000035    13
    0.12525363   2    1000025    13
    0.013646203   2    1000023    13
    0.0056310169   2   -1000024    14
    0.00034397241   2    2000013    25

DECAY 1000015  3.5625509
    0.35436694   2   -1000024    16
    0.3032886   2    1000022    15
    0.1783562   2    1000023    15
    0.16398827   2    1000025    15

DECAY 2000015  17.685037
    0.27514738   2    1000023    15
    0.19221283   2    1000025    15
    0.19151119   2   -1000037    16
    0.1861619   2    1000022    15
    0.095343563   2    1000035    15
    0.030518795   2    1000015    23
    0.028548445   2    1000015    25
    0.00055590112   2   -1000024    16

DECAY 1000012  4.4373982
    0.40049411   2    1000037    11
    0.20479451   2    1000022    12
    0.20165212   2    1000035    12
    0.16075399   2    1000025    12
    0.027545755   2    1000024    11
    0.0047595131   2    1000023    12

DECAY 1000014  4.4677009
    0.39786238   2    1000037    13
    0.20341288   2    1000022    14
    0.20032555   2    1000035    14
    0.15967002   2    1000025    14
    0.03400176   2    1000024    13
    0.0047274117   2    1000023    14

DECAY 1000016  17.732991
    0.55070166   2    1000024    15
    0.18797479   2    1000037    15
    0.094439186   2    1000035    16
    0.060715735   2    1000015    24
    0.058424247   2    1000022    16
    0.046378725   2    1000025    16
    0.0013656615   2    1000023    16

DECAY 2000001  145.16279
    0.98130933   2    1000021    1
    0.011196567   2    1000022    1
    0.0074795306   2    1000025    1

DECAY 1000001  200.85615
    0.71368677   2    1000021    1
    0.1881169   2   -1000037    2
    0.09371316   2    1000035    1
    0.0019419142   2    1000025    1
    0.0015338827   2    1000022    1
    0.00053465083   2    1000023    1
    0.00047272563   2   -1000024    2

DECAY 2000003  145.22868
    0.98088847   2    1000021    3
    0.011237704   2    1000022    3
    0.0075372816   2    1000025    3
    0.00021477829   2   -1000024    4
    0.00012108246   2    1000023    3

DECAY 1000003  200.89186
    0.71357179   2    1000021    3
    0.18808469   2   -1000037    4
    0.093697213   2    1000035    3
    0.0019858275   2    1000025    3
    0.0015670249   2    1000022    3
    0.00061217935   2    1000023    3
    0.00048128265   2   -1000024    4

DECAY 1000005  4.5082503
    0.38644342   2    1000023    5
    0.28341345   2    1000022    5
    0.19936   2   -1000024    6
    0.13078314   2    1000025    5

DECAY 2000005  14.347923
    0.52315998   2   -1000024    6
    0.21765512   2    1000023    5
    0.1448898   2    1000025    5
    0.076701621   2    1000022    5
    0.027234134   2    1000005    23
    0.010359351   2    1000005    25

DECAY 2000002  153.719
    0.92934481   2    1000021    2
    0.042327759   2    1000022    2
    0.028275747   2    1000025    2

DECAY 1000002  200.8477
    0.71347512   2    1000021    2
    0.18647655   2    1000037    1
    0.093588273   2    1000035    2
    0.0025879001   2    1000022    2
    0.0023110974   2    1000024    1
    0.00087159586   2    1000025    2
    0.00068946071   2    1000023    2

DECAY 2000004  153.72261
    0.92932364   2    1000021    4
    0.042328886   2    1000022    4
    0.028278688   2    1000025    4

DECAY 1000004  200.88303
    0.71335987   2    1000021    4
    0.18644507   2    1000037    3
    0.093572319   2    1000035    4
    0.0025891117   2    1000022    4
    0.0024657987   2    1000024    3
    0.00087416215   2    1000025    4
    0.00069367113   2    1000023    4

DECAY 1000006  7.8303471
    0.60468569   2    1000024    5
    0.18678653   2    1000023    6
    0.14743272   2    1000022    6
    0.058539111   2    1000025    6
    0.0019111855   2    1000022    4
    0.00043148808   2    1000023    4
    0.00021327352   3    1000022    24    5

DECAY 2000006  61.633651
    0.25293974   2    1000024    5
    0.13154417   2    1000023    6
    0.13071495   2    2000005    24
    0.12613035   2    1000006    23
    0.12020368   2    1000006    25
    0.10679462   2    1000025    6
    0.08630527   2    1000005    24
    0.045367219   2    1000022    6

DECAY 1000024  2.7901012e-05
    0.33398684   3    1000022   -1    2
    0.33189732   3    1000022   -3    4
    0.11150891   3    1000022   -15    16
    0.11130465   3    1000022   -13    14
    0.11130228   3    1000022   -11    12

DECAY 1000037  20.964367
    0.26569525   2    1000006   -5
    0.14351243   2   -2000005    6
    0.13858273   2    1000023    24
    0.13438295   2    1000024    25
    0.13420949   2    1000024    23
    0.075970325   2    1000025    24
    0.059026928   2    1000022    24
    0.0400785   2   -1000005    6
    0.0026558082   3    1000023   -5    6
    0.0024324148   3    1000024    6   -6
    0.001455691   3    1000025   -5    6
    0.0012238   3    1000022   -5    6
    0.0007083046   2    2000006   -5

DECAY 1000022 -1


DECAY 1000023  6.6859362e-05
    0.19809311   3    1000022    12   -12
    0.1481576   3    1000022    1   -1
    0.148145   3    1000022    3   -3
    0.13711735   3    1000022    5   -5
    0.1155505   3    1000022    2   -2
    0.11350905   3    1000022    4   -4
    0.039373661   2    1000022    22
    0.033404229   3    1000022    11   -11
    0.033401948   3    1000022    13   -13
    0.033247548   3    1000022    15   -15

DECAY 1000025  8.7387669e-05
    0.11287448   3    1000023    12   -12
    0.084393563   3    1000023    1   -1
    0.084383976   3    1000023    3   -3
    0.073690535   3    1000023    5   -5
    0.067559537   3    1000024    1   -2
    0.067559537   3   -1000024   -1    2
    0.066952109   3    1000024    3   -4
    0.066952109   3   -1000024   -3    4
    0.065819204   3    1000023    2   -2
    0.064278213   3    1000023    4   -4
    0.046177872   2    1000023    22
    0.022524445   3    1000024    13   -14
    0.022524445   3   -1000024   -13    14
    0.022523994   3    1000024    11   -12
    0.022523994   3   -1000024   -11    12
    0.022467109   3    1000024    15   -16
    0.022467109   3   -1000024   -15    16
    0.019057305   3    1000023    11   -11
    0.019055138   3    1000023    13   -13
    0.018776908   3    1000023    15   -15
    0.0050630809   3    1000022    5   -5
    0.0009297851   3    1000022    15   -15
    0.0003631564   3    1000022    12   -12
    0.00024520062   3    1000022    3   -3
    0.00024519342   3    1000022    1   -1
    0.00019379227   3    1000022    2   -2
    0.0001934641   3    1000022    4   -4
    0.0001182876   2    1000022    22

DECAY 1000035  24.493326
    0.12496249   2    1000006   -6
    0.12496249   2   -1000006    6
    0.11826406   2    1000024   -24
    0.11826406   2   -1000024    24
    0.10016891   2    1000023    25
    0.076728198   2    2000005   -5
    0.076728198   2   -2000005    5
    0.059360064   2    1000025    23
    0.054258742   2    1000025    25
    0.044396538   2    1000022    23
    0.040541377   2    1000022    25
    0.020035761   2    1000005   -5
    0.020035761   2   -1000005    5
    0.014609917   2    1000023    23
    0.0024002034   3    1000024    5   -6
    0.0024002034   3   -1000024   -5    6
    0.00089508338   3    1000023    6   -6
    0.00045267748   3    1000022    6   -6
    0.00044421695   3    1000025    6   -6

DECAY 1000021  336.89332
    0.12073343   2    1000005   -5
    0.12073343   2   -1000005    5
    0.11382757   2    2000005   -5
    0.11382757   2   -2000005    5
    0.10818109   2    1000006   -6
    0.10818109   2   -1000006    6
    0.10679841   2    2000006   -6
    0.10679841   2   -2000006    6
    0.050247377   2    1000006   -4
    0.050247377   2   -1000006    4

DECAY 25  0.0033464382
    0.64029048   2   -5    5
    0.15936154   2   -24    24
    0.073674112   2   -15    15
    0.073291451   2    21    21
    0.031843619   2   -4    4
    0.017584745   2    23    23
    0.0023343112   2    22    22
    0.0011212363   2    22    23
    0.00025556704   2   -13    13
    0.00024209202   2   -3    3
    6.6936247e-07   2   -1    1
    1.6411303e-07   2   -2    2
    5.7454971e-09   2   -11    11

DECAY 35  346.37765
    0.75341702   2   -5    5
    0.077651167   2   -15    15
    0.034209782   2   -1000024    1000037
    0.034209782   2   -1000037    1000024
    0.014519428   2    1000023    1000035
    0.012252449   2    1000025    1000035
    0.01133537   2   -2000005    1000005
    0.01133537   2   -1000005    2000005
    0.0089962216   2   -1000005    1000005
    0.0080860479   2   -2000005    2000005
    0.0076019589   2    1000022    1000035
    0.0042538247   2    1000022    1000023
    0.0038000812   2   -2000006    1000006
    0.0038000812   2   -1000006    2000006
    0.0030502194   2    1000025    1000025
    0.0027932054   2    1000022    1000022
    0.0023707983   2   -1000006    1000006
    0.0021384147   2   -2000006    2000006
    0.0019300592   2    1000023    1000025
    0.00095720037   2   -1000024    1000024
    0.00027355366   2   -13    13
    0.00021263655   2   -6    6
    0.00017201912   2    1000023    1000023
    0.0001615614   2   -3    3
    0.00014304112   2    1000022    1000025
    9.3067205e-05   2   -1000037    1000037
    8.906756e-05   2   -2000015    1000015
    8.906756e-05   2   -1000015    2000015
    4.6753869e-05   2    1000035    1000035
    8.4439439e-06   2    21    21
    1.4689424e-06   2    25    25
    4.4671512e-07   2   -1    1
    1.3196679e-07   2   -1000015    1000015
    1.2231936e-07   2   -2000015    2000015
    4.7649363e-08   2    23    23
    1.8198766e-08   2    22    23
    1.0303771e-08   2   -24    24
    7.8525262e-09   2    22    22
    6.1432842e-09   2   -11    11
    3.6172531e-09   2   -1000011    1000011
    3.538254e-09   2   -1000013    1000013
    3.4396625e-09   2   -2000011    2000011
    3.3993917e-09   2   -2000013    2000013
    2.5557677e-09   2   -4    4
    6.6051699e-10   2   -2000013    1000013
    6.6051699e-10   2   -1000013    2000013
    1.5449799e-14   2   -2000011    1000011
    1.5449799e-14   2   -1000011    2000011
    1.3171327e-14   2   -2    2

DECAY 36  303.77838
    0.73164522   2   -5    5
    0.075376023   2   -15    15
    0.039023283   2   -1000024    1000037
    0.039023283   2   -1000037    1000024
    0.022634594   2   -2000005    1000005
    0.022634594   2   -1000005    2000005
    0.022520703   2    1000023    1000035
    0.010242052   2    1000025    1000035
    0.0069111189   2   -2000006    1000006
    0.0069111189   2   -1000006    2000006
    0.0064861817   2    1000022    1000035
    0.0047190576   2    1000022    1000023
    0.0035894984   2    1000025    1000025
    0.0032448629   2    1000022    1000022
    0.0022022919   2    1000023    1000025
    0.001244742   2   -1000024    1000024
    0.00026554327   2   -13    13
    0.00023238   2    1000023    1000023
    0.00022487349   2   -6    6
    0.0002243281   2   -1000037    1000037
    0.00016295551   2    1000022    1000025
    0.00015679511   2   -3    3
    0.00011260714   2    1000035    1000035
    0.00010172753   2   -2000015    1000015
    0.00010172753   2   -1000015    2000015
    7.8269964e-06   2    21    21
    4.3353925e-07   2   -1    1
    1.1292182e-07   2    23    25
    3.4657798e-08   2    22    23
    2.3038788e-08   2    22    22
    5.9634293e-09   2   -11    11
    2.4730536e-09   2   -4    4
    7.5108553e-10   2   -2000013    1000013
    7.5108553e-10   2   -1000013    2000013
    2.5605162e-10   2    23    35
    1.7567965e-14   2   -2000011    1000011
    1.7567965e-14   2   -1000011    2000011
    1.2746932e-14   2   -2    2
    2.3669584e-38   2    25    25

DECAY 37  286.37631
    0.71478075   2   -5    6
    0.083178721   2   -15    16
    0.042217791   2    1000023    1000037
    0.041674778   2    1000024    1000035
    0.034685686   2   -1000005    1000006
    0.025564997   2    1000025    1000037
    0.016003518   2    1000022    1000037
    0.012339865   2   -1000005    2000006
    0.011354425   2    1000022    1000024
    0.0093901324   2   -2000005    1000006
    0.0036415981   2    1000024    1000025
    0.0033109259   2   -2000005    2000006
    0.0010601662   2   -5    4
    0.00029406639   2   -13    14
    0.00021597692   2   -1000015    1000016
    0.0001744994   2   -3    4
    9.5105259e-05   2    1000023    1000024
    8.1975127e-06   2   -3    2
    7.57068e-06   2   -5    2
    5.0700901e-07   2   -3    6
    4.8438589e-07   2   -1    2
    1.1912348e-07   2    24    25
    4.1240614e-08   2   -2000015    1000016
    2.2792027e-08   2   -1    4
    1.6357859e-08   2   -2000011    1000012
    1.6289259e-08   2   -2000013    1000014
    1.1335388e-08   2   -1    6
    6.8782434e-09   2   -11    12
    1.5714764e-09   2   -1000013    1000014
    3.7778436e-10   2    1000035    1000037
    5.6935893e-14   2    24    35
    3.6755666e-14   2   -1000011    1000012

DECAY 6  2.43
    1   2    5    24

DECAY 15 -1
