# SUSY Les Houches Accord 2 - MSSM spectrum + Decays
# SPheno v4.0.5be
# W. Porod, Comput. Phys. Commun. 153 (2003) 275-315, hep-ph/0301101;
# W. Porod, F.~Staub, Comput. Phys. Commun. 183 (2012) 2458
#                     arXiv:1104.1573 [hep-ph] 
# in case of problems send email to porod@physik.uni-wuerzburg.de
# Created: 07.09.2021,  20:59
Block SPINFO         # Program information
     1   SPheno      # spectrum calculator
     2   v4.0.5be    # version number
#
Block SPhenoINFO     # SPheno specific information
    1      2         # using 2-loop RGEs
    2      2         # using pole masses for boundary conditions at mZ
Block MODSEL  # Model selection
    1    0    # general MSSM
Block MINPAR  # Input parameters
    3    2.13274157E+01  # tanb at m_Z    
    4    1.00000000E+00  # Sign(mu)
Block EXTPAR  # non-universal input parameters
    0    3.85216700E+03  # scale for input parameters
    1   -2.45818776E+02  # M_1
    2   -4.58804044E+02  # M_2
    3    3.06270363E+03  # M_3
   11   -4.66144439E+03  # A_t
   12   -7.51222874E+02  # A_b
   13    1.05356302E+03  # A_tau
   23    2.99953030E+02  # mu
   25    2.04068729E+01  # tan(beta)
   26    1.23347299E+03  # m_A, pole mass
   31    1.00000000E+04  # M_L11
   32    1.00000000E+04  # M_L22
   33    1.00000000E+04  # M_L33
   34    1.00000000E+04  # M_E11
   35    1.00000000E+04  # M_E22
   36    1.00000000E+04  # M_E33
   41    1.00000000E+04  # M_Q11
   42    1.00000000E+04  # M_Q22
   43    3.52244583E+03  # M_Q33
   44    1.00000000E+04  # M_U11
   45    1.00000000E+04  # M_U22
   46    4.13596028E+03  # M_U33
   47    1.00000000E+04  # M_D11
   48    1.00000000E+04  # M_D22
   49    3.71761442E+03  # M_D33
Block SMINPUTS  # SM parameters
         1     1.27908970E+02  # alpha_em^-1(MZ)^MSbar
         2     1.16637870E-05  # G_mu [GeV^-2]
         3     1.18400000E-01  # alpha_s(MZ)^MSbar
         4     9.11876000E+01  # m_Z(pole)
         5     4.18000000E+00  # m_b(m_b), MSbar
         6     1.73200000E+02  # m_t(pole)
         7     1.77700000E+00  # m_tau(pole)
         8     0.00000000E+00  # m_nu_3
        11     5.10998930E-04  # m_e(pole)
        12     0.00000000E+00  # m_nu_1
        13     1.05658372E-01  # m_muon(pole)
        14     0.00000000E+00  # m_nu_2
        21     5.00000000E-03  # m_d(2 GeV), MSbar
        22     2.50000000E-03  # m_u(2 GeV), MSbar
        23     9.50000000E-02  # m_s(2 GeV), MSbar
        24     1.27000000E+00  # m_c(m_c), MSbar
Block gauge Q=  3.85216700E+03  # (SUSY scale)
   1    3.55362975E-01  # g'(Q)^DRbar
   2    6.65198874E-01  # g(Q)^DRbar
   3    1.21977796E+00  # g3(Q)^DRbar
Block Yu Q=  3.85216700E+03  # (SUSY scale)
  1  1     8.39443281E-06   # Y_u(Q)^DRbar
  2  2     4.26437187E-03   # Y_c(Q)^DRbar
  3  3     1.01411491E+00   # Y_t(Q)^DRbar
Block Yd Q=  3.85216700E+03  # (SUSY scale)
  1  1     3.44229483E-04   # Y_d(Q)^DRbar
  2  2     6.54036017E-03   # Y_s(Q)^DRbar
  3  3     3.41367781E-01   # Y_b(Q)^DRbar
Block Ye Q=  3.85216700E+03  # (SUSY scale)
  1  1     6.00705620E-05   # Y_e(Q)^DRbar
  2  2     1.24206870E-02   # Y_mu(Q)^DRbar
  3  3     2.08895523E-01   # Y_tau(Q)^DRbar
Block Au Q=  3.85216700E+03  # (SUSY scale)
  1  1     0.00000000E+00   # A_u(Q)^DRbar
  2  2     0.00000000E+00   # A_c(Q)^DRbar
  3  3    -4.66144847E+03   # A_t(Q)^DRbar
Block Ad Q=  3.85216700E+03  # (SUSY scale)
  1  1     0.00000000E+00   # A_d(Q)^DRbar
  2  2     0.00000000E+00   # A_s(Q)^DRbar
  3  3    -7.51222482E+02   # A_b(Q)^DRbar
Block Ae Q=  3.85216700E+03  # (SUSY scale)
  1  1     0.00000000E+00   # A_e(Q)^DRbar
  2  2     0.00000000E+00   # A_mu(Q)^DRbar
  3  3     1.05356270E+03   # A_tau(Q)^DRbar
Block MSOFT Q=  3.85216700E+03  # soft SUSY breaking masses at Q
   1   -2.45818776E+02  # M_1
   2   -4.58804044E+02  # M_2
   3    3.06270363E+03  # M_3
  21    1.42130171E+06  # M^2_(H,d)
  22    2.48485752E+05  # M^2_(H,u)
  31    1.00000000E+04  # M_(L,11)
  32    1.00000000E+04  # M_(L,22)
  33    1.00000000E+04  # M_(L,33)
  34    1.00000000E+04  # M_(E,11)
  35    1.00000000E+04  # M_(E,22)
  36    1.00000000E+04  # M_(E,33)
  41    1.00000000E+04  # M_(Q,11)
  42    1.00000000E+04  # M_(Q,22)
  43    3.52244583E+03  # M_(Q,33)
  44    1.00000000E+04  # M_(U,11)
  45    1.00000000E+04  # M_(U,22)
  46    4.13596028E+03  # M_(U,33)
  47    1.00000000E+04  # M_(D,11)
  48    1.00000000E+04  # M_(D,22)
  49    3.71761442E+03  # M_(D,33)
Block MASS  # Mass spectrum
#   PDG code      mass          particle
         6     1.73200000E+02  # m_t(pole)
        23     9.11876000E+01  # m_Z(pole)
        24     8.04299946E+01  # W+
        15     1.77700000E+00  # m_tau(pole)
        25     1.26181419E+02  # h0
        35     1.23337391E+03  # H0
        36     1.23347299E+03  # A0
        37     1.23702171E+03  # H+
   1000001     1.01093883E+04  # ~d_L
   2000001     1.00843583E+04  # ~d_R
   1000002     1.01090242E+04  # ~u_L
   2000002     1.00876215E+04  # ~u_R
   1000003     1.01093894E+04  # ~s_L
   2000003     1.00843598E+04  # ~s_R
   1000004     1.01090253E+04  # ~c_L
   2000004     1.00876222E+04  # ~c_R
   1000005     3.59914831E+03  # ~b_1
   2000005     3.81753768E+03  # ~b_2
   1000006     3.58602806E+03  # ~t_1
   2000006     4.13805758E+03  # ~t_2
   1000011     1.00214713E+04  # ~e_L-
   2000011     1.00088359E+04  # ~e_R-
   1000012     1.00207023E+04  # ~nu_eL
   1000013     1.00214753E+04  # ~mu_L-
   2000013     1.00088434E+04  # ~mu_R-
   1000014     1.00207062E+04  # ~nu_muL
   1000015     1.00109910E+04  # ~tau_1-
   2000015     1.00226024E+04  # ~tau_2-
   1000016     1.00218159E+04  # ~nu_tauL
   1000021     3.53946787E+03  # ~g
   1000022     2.36809545E+02  # ~chi_10
   1000023     3.13286904E+02  # ~chi_20
   1000025     3.21335964E+02  # ~chi_30
   1000035     5.20935734E+02  # ~chi_40
   1000024     3.05283070E+02  # ~chi_1+
   1000037     5.20994820E+02  # ~chi_2+
# Higgs mixing
Block alpha # Effective Higgs mixing angle
          -4.75114742E-02   # alpha
Block Hmix Q=  3.85216700E+03  # Higgs mixing parameters
   1    2.99953030E+02  # mu
   2    2.04068729E+01  # tan[beta](Q)
   3    2.42969961E+02  # v(Q)
   4    1.52145562E+06  # m^2_A(Q)
Block stopmix # stop mixing matrix
   1  1     9.88111603E-01   # Re[R_st(1,1)]
   1  2     1.53738283E-01   # Re[R_st(1,2)]
   2  1    -1.53738283E-01   # Re[R_st(2,1)]
   2  2     9.88111603E-01   # Re[R_st(2,2)]
Block sbotmix # sbottom mixing matrix
   1  1     9.99962811E-01   # Re[R_sb(1,1)]
   1  2     8.62418542E-03   # Re[R_sb(1,2)]
   2  1    -8.62418542E-03   # Re[R_sb(2,1)]
   2  2     9.99962811E-01   # Re[R_sb(2,2)]
Block staumix # stau mixing matrix
   1  1     3.82201874E-02   # Re[R_sta(1,1)]
   1  2     9.99269342E-01   # Re[R_sta(1,2)]
   2  1    -9.99269342E-01   # Re[R_sta(2,1)]
   2  2     3.82201874E-02   # Re[R_sta(2,2)]
Block Nmix # neutralino mixing matrix
   1  1    -9.15159814E-01   # Re[N(1,1)]
   1  2     6.61057950E-02   # Re[N(1,2)]
   1  3    -3.21173726E-01   # Re[N(1,3)]
   1  4    -2.34435441E-01   # Re[N(1,4)]
   2  1    -3.97166825E-01   # Re[N(2,1)]
   2  2    -2.53844745E-01   # Re[N(2,2)]
   2  3     6.25928326E-01   # Re[N(2,3)]
   2  4     6.21317221E-01   # Re[N(2,4)]
   3  1     5.77361754E-02   # Re[N(3,1)]
   3  2    -7.31202571E-02   # Re[N(3,2)]
   3  3    -6.97898548E-01   # Re[N(3,3)]
   3  4     7.10110963E-01   # Re[N(3,4)]
   4  1    -3.75174808E-02   # Re[N(4,1)]
   4  2     9.62209071E-01   # Re[N(4,2)]
   4  3     1.34159554E-01   # Re[N(4,3)]
   4  4     2.33981528E-01   # Re[N(4,4)]
Block Umix # chargino mixing matrix
   1  1    -1.89652028E-01   # Re[U(1,1)]
   1  2     9.81851368E-01   # Re[U(1,2)]
   2  1    -9.81851368E-01   # Re[U(2,1)]
   2  2    -1.89652028E-01   # Re[U(2,2)]
Block Vmix # chargino mixing matrix
   1  1     3.30214492E-01   # Re[V(1,1)]
   1  2     9.43905922E-01   # Re[V(1,2)]
   2  1     9.43905922E-01   # Re[V(2,1)]
   2  2    -3.30214492E-01   # Re[V(2,2)]
DECAY        23     2.49520000E+00   # Z
DECAY        24     2.08500000E+00   # W
DECAY   2000011     5.02273368E+01   # ~e^-_R
#    BR                NDA      ID1      ID2
     8.37636176E-01    2     1000022        11   # BR(~e^-_R -> chi^0_1 e^-)
     1.57631293E-01    2     1000023        11   # BR(~e^-_R -> chi^0_2 e^-)
     3.33080407E-03    2     1000025        11   # BR(~e^-_R -> chi^0_3 e^-)
     1.40171323E-03    2     1000035        11   # BR(~e^-_R -> chi^0_4 e^-)
DECAY   1000011     1.44213844E+02   # ~e^-_L
#    BR                NDA      ID1      ID2
     5.46128698E-02    2     1000022        11   # BR(~e^-_L -> chi^0_1 e^-)
     6.62958807E-02    2     1000023        11   # BR(~e^-_L -> chi^0_2 e^-)
     5.45546936E-04    2     1000025        11   # BR(~e^-_L -> chi^0_3 e^-)
     2.70042897E-01    2     1000035        11   # BR(~e^-_L -> chi^0_4 e^-)
     2.19617153E-02    2    -1000024        12   # BR(~e^-_L -> chi^-_1 nu_e)
     5.86541090E-01    2    -1000037        12   # BR(~e^-_L -> chi^-_2 nu_e)
#    BR                NDA      ID1      ID2       ID3
DECAY   2000013     5.02886890E+01   # ~mu^-_R
#    BR                NDA      ID1      ID2
     8.36677820E-01    2     1000022        13   # BR(~mu^-_R -> chi^0_1 mu^-)
     1.57677958E-01    2     1000023        13   # BR(~mu^-_R -> chi^0_2 mu^-)
     3.62364669E-03    2     1000025        13   # BR(~mu^-_R -> chi^0_3 mu^-)
     1.41093930E-03    2     1000035        13   # BR(~mu^-_R -> chi^0_4 mu^-)
     5.87784338E-04    2    -1000024        14   # BR(~mu^-_R -> chi^-_1 nu_mu)
DECAY   1000013     1.44244599E+02   # ~mu^-_L
#    BR                NDA      ID1      ID2
     5.46232192E-02    2     1000022        13   # BR(~mu^-_L -> chi^0_1 mu^-)
     6.63651457E-02    2     1000023        13   # BR(~mu^-_L -> chi^0_2 mu^-)
     6.49072834E-04    2     1000025        13   # BR(~mu^-_L -> chi^0_3 mu^-)
     2.69989250E-01    2     1000035        13   # BR(~mu^-_L -> chi^0_4 mu^-)
     2.19570416E-02    2    -1000024        14   # BR(~mu^-_L -> chi^-_1 nu_mu)
     5.86416271E-01    2    -1000037        14   # BR(~mu^-_L -> chi^-_2 nu_mu)
#    BR                NDA      ID1      ID2       ID3
DECAY   1000015     6.77122454E+01   # ~tau^-_1
#    BR                NDA      ID1      ID2
     6.37888727E-01    2     1000022        15   # BR(~tau^-_1 -> chi^0_1 tau^-)
     1.67751634E-01    2     1000023        15   # BR(~tau^-_1 -> chi^0_2 tau^-)
     6.32571767E-02    2     1000025        15   # BR(~tau^-_1 -> chi^0_3 tau^-)
     1.28206791E-03    2     1000035        15   # BR(~tau^-_1 -> chi^0_4 tau^-)
     1.29194603E-01    2    -1000024        16   # BR(~tau^-_1 -> chi^-_1 nu_tau)
     6.25791162E-04    2    -1000037        16   # BR(~tau^-_1 -> chi^-_2 nu_tau)
DECAY   2000015     1.52787229E+02   # ~tau^-_2
#    BR                NDA      ID1      ID2
     5.60057302E-02    2     1000022        15   # BR(~tau^-_2 -> chi^0_1 tau^-)
     8.45794812E-02    2     1000023        15   # BR(~tau^-_2 -> chi^0_2 tau^-)
     2.89056127E-02    2     1000025        15   # BR(~tau^-_2 -> chi^0_3 tau^-)
     2.56851136E-01    2     1000035        15   # BR(~tau^-_2 -> chi^0_4 tau^-)
     1.82069034E-02    2    -1000024        16   # BR(~tau^-_2 -> chi^-_1 nu_tau)
     5.55451137E-01    2    -1000037        16   # BR(~tau^-_2 -> chi^-_2 nu_tau)
#    BR                NDA      ID1      ID2       ID3
DECAY   1000012     1.44218529E+02   # ~nu_e
#    BR                NDA      ID1      ID2
     9.40991729E-02    2     1000022        12   # BR(~nu_e -> chi^0_1 nu_e)
     5.30003070E-04    2     1000023        12   # BR(~nu_e -> chi^0_2 nu_e)
     3.29878143E-03    2     1000025        12   # BR(~nu_e -> chi^0_3 nu_e)
     2.93477797E-01    2     1000035        12   # BR(~nu_e -> chi^0_4 nu_e)
     6.65726748E-02    2     1000024        11   # BR(~nu_e -> chi^+_1 e^-)
     5.42021571E-01    2     1000037        11   # BR(~nu_e -> chi^+_2 e^-)
#    BR                NDA      ID1      ID2       ID3
DECAY   1000014     1.44249279E+02   # ~nu_mu
#    BR                NDA      ID1      ID2
     9.40791500E-02    2     1000022        14   # BR(~nu_mu -> chi^0_1 nu_mu)
     5.29890294E-04    2     1000023        14   # BR(~nu_mu -> chi^0_2 nu_mu)
     3.29807950E-03    2     1000025        14   # BR(~nu_mu -> chi^0_3 nu_mu)
     2.93415351E-01    2     1000035        14   # BR(~nu_mu -> chi^0_4 nu_mu)
     6.67636684E-02    2     1000024        13   # BR(~nu_mu -> chi^+_1 mu^-)
     5.41913861E-01    2     1000037        13   # BR(~nu_mu -> chi^+_2 mu^-)
#    BR                NDA      ID1      ID2       ID3
DECAY   1000016     1.52917777E+02   # ~nu_tau
#    BR                NDA      ID1      ID2
     8.87559051E-02    2     1000022        16   # BR(~nu_tau -> chi^0_1 nu_tau)
     4.99907805E-04    2     1000023        16   # BR(~nu_tau -> chi^0_2 nu_tau)
     3.11146617E-03    2     1000025        16   # BR(~nu_tau -> chi^0_3 nu_tau)
     2.76813405E-01    2     1000035        16   # BR(~nu_tau -> chi^0_4 nu_tau)
     1.17540931E-01    2     1000024        15   # BR(~nu_tau -> chi^+_1 tau^-)
     5.13278385E-01    2     1000037        15   # BR(~nu_tau -> chi^+_2 tau^-)
#    BR                NDA      ID1      ID2       ID3
DECAY   2000001     6.17576811E+02   # ~d_R
#    BR                NDA      ID1      ID2
     7.62665797E-03    2     1000022         1   # BR(~d_R -> chi^0_1 d)
     1.43526155E-03    2     1000023         1   # BR(~d_R -> chi^0_2 d)
     9.90894932E-01    2     1000021         1   # BR(~d_R -> ~g d)
DECAY   1000001     7.48538158E+02   # ~d_L
#    BR                NDA      ID1      ID2
     3.11587572E-03    2     1000022         1   # BR(~d_L -> chi^0_1 d)
     1.98954168E-03    2     1000023         1   # BR(~d_L -> chi^0_2 d)
     4.12667758E-04    2     1000025         1   # BR(~d_L -> chi^0_3 d)
     5.55077388E-02    2     1000035         1   # BR(~d_L -> chi^0_4 d)
     4.26841493E-03    2    -1000024         2   # BR(~d_L -> chi^-_1 u)
     1.14005448E-01    2    -1000037         2   # BR(~d_L -> chi^-_2 u)
     8.20700313E-01    2     1000021         1   # BR(~d_L -> ~g d)
DECAY   2000003     6.17594036E+02   # ~s_R
#    BR                NDA      ID1      ID2
     7.62787399E-03    2     1000022         3   # BR(~s_R -> chi^0_1 s)
     1.44064055E-03    2     1000023         3   # BR(~s_R -> chi^0_2 s)
     9.90867524E-01    2     1000021         3   # BR(~s_R -> ~g s)
DECAY   1000003     7.48550488E+02   # ~s_L
#    BR                NDA      ID1      ID2
     3.11700556E-03    2     1000022         3   # BR(~s_L -> chi^0_1 s)
     1.99399061E-03    2     1000023         3   # BR(~s_L -> chi^0_2 s)
     4.18232220E-04    2     1000025         3   # BR(~s_L -> chi^0_3 s)
     5.55070361E-02    2     1000035         3   # BR(~s_L -> chi^0_4 s)
     4.27268780E-03    2    -1000024         4   # BR(~s_L -> chi^-_1 c)
     1.14004115E-01    2    -1000037         4   # BR(~s_L -> chi^-_2 c)
     8.20686932E-01    2     1000021         3   # BR(~s_L -> ~g s)
DECAY   1000005     1.26788813E+02   # ~b_1
#    BR                NDA      ID1      ID2
     1.35042869E-02    2     1000022         5   # BR(~b_1 -> chi^0_1 b)
     2.95564685E-02    2     1000023         5   # BR(~b_1 -> chi^0_2 b)
     3.22903556E-02    2     1000025         5   # BR(~b_1 -> chi^0_3 b)
     1.13366893E-01    2     1000035         5   # BR(~b_1 -> chi^0_4 b)
     5.15706700E-01    2    -1000024         6   # BR(~b_1 -> chi^-_1 t)
     2.93155103E-01    2    -1000037         6   # BR(~b_1 -> chi^-_2 t)
     2.42019228E-03    2     1000021         5   # BR(~b_1 -> ~g b)
DECAY   2000005     2.54897180E+01   # ~b_2
#    BR                NDA      ID1      ID2
     1.03554839E-01    2     1000022         5   # BR(~b_2 -> chi^0_1 b)
     1.47022731E-01    2     1000023         5   # BR(~b_2 -> chi^0_2 b)
     1.67593591E-01    2     1000025         5   # BR(~b_2 -> chi^0_3 b)
     7.22432250E-03    2     1000035         5   # BR(~b_2 -> chi^0_4 b)
     3.27237014E-01    2    -1000024         6   # BR(~b_2 -> chi^-_1 t)
     1.41882805E-02    2    -1000037         6   # BR(~b_2 -> chi^-_2 t)
     2.32855672E-01    2     1000021         5   # BR(~b_2 -> ~g b)
     1.44630801E-04    2     1000006       -24   # BR(~b_2 -> ~t_1 W^-)
     1.22052662E-04    2     1000005        25   # BR(~b_2 -> ~b_1 h^0)
DECAY   2000002     6.34762451E+02   # ~u_R
#    BR                NDA      ID1      ID2
     2.96903016E-02    2     1000022         2   # BR(~u_R -> chi^0_1 u)
     5.58736818E-03    2     1000023         2   # BR(~u_R -> chi^0_2 u)
     1.18062991E-04    2     1000025         2   # BR(~u_R -> chi^0_3 u)
     9.64554580E-01    2     1000021         2   # BR(~u_R -> ~g u)
DECAY   1000002     7.48523735E+02   # ~u_L
#    BR                NDA      ID1      ID2
     5.57081370E-04    2     1000022         2   # BR(~u_L -> chi^0_1 u)
     6.25011515E-03    2     1000023         2   # BR(~u_L -> chi^0_2 u)
     2.34253934E-04    2     1000025         2   # BR(~u_L -> chi^0_3 u)
     5.39863807E-02    2     1000035         2   # BR(~u_L -> chi^0_4 u)
     1.29400991E-02    2     1000024         1   # BR(~u_L -> chi^+_1 d)
     1.05362021E-01    2     1000037         1   # BR(~u_L -> chi^+_2 d)
     8.20670049E-01    2     1000021         2   # BR(~u_L -> ~g u)
DECAY   2000004     6.34769770E+02   # ~c_R
#    BR                NDA      ID1      ID2
     2.96902771E-02    2     1000022         4   # BR(~c_R -> chi^0_1 c)
     5.58951713E-03    2     1000023         4   # BR(~c_R -> chi^0_2 c)
     1.20955185E-04    2     1000025         4   # BR(~c_R -> chi^0_3 c)
     9.64543514E-01    2     1000021         4   # BR(~c_R -> ~g c)
DECAY   1000004     7.48536032E+02   # ~c_L
#    BR                NDA      ID1      ID2
     5.57340326E-04    2     1000022         4   # BR(~c_L -> chi^0_1 c)
     6.25189726E-03    2     1000023         4   # BR(~c_L -> chi^0_2 c)
     2.36709250E-04    2     1000025         4   # BR(~c_L -> chi^0_3 c)
     5.39857602E-02    2     1000035         4   # BR(~c_L -> chi^0_4 c)
     1.29509177E-02    2     1000024         3   # BR(~c_L -> chi^+_1 s)
     1.05360711E-01    2     1000037         3   # BR(~c_L -> chi^+_2 s)
     8.20656665E-01    2     1000021         4   # BR(~c_L -> ~g c)
DECAY   1000006     1.26751953E+02   # ~t_1
#    BR                NDA      ID1      ID2
     2.31666952E-02    2     1000022         6   # BR(~t_1 -> chi^0_1 t)
     2.30055577E-01    2     1000023         6   # BR(~t_1 -> chi^0_2 t)
     2.79876882E-01    2     1000025         6   # BR(~t_1 -> chi^0_3 t)
     1.52199825E-01    2     1000035         6   # BR(~t_1 -> chi^0_4 t)
     6.35585355E-02    2     1000024         5   # BR(~t_1 -> chi^+_1 b)
     2.45675394E-01    2     1000037         5   # BR(~t_1 -> chi^+_2 b)
#    BR                NDA      ID1      ID2       ID3
     5.46260327E-03    3     1000022        24         5   # BR(~t_1 -> chi^0_1 W^+ b)
DECAY   2000006     2.32142929E+02   # ~t_2
#    BR                NDA      ID1      ID2
     5.89662050E-02    2     1000022         6   # BR(~t_2 -> chi^0_1 t)
     1.46129767E-01    2     1000023         6   # BR(~t_2 -> chi^0_2 t)
     1.85346461E-01    2     1000025         6   # BR(~t_2 -> chi^0_3 t)
     9.58595401E-03    2     1000035         6   # BR(~t_2 -> chi^0_4 t)
     3.37560297E-01    2     1000024         5   # BR(~t_2 -> chi^+_1 b)
     1.89002182E-02    2     1000037         5   # BR(~t_2 -> chi^+_2 b)
     8.84798617E-02    2     1000021         6   # BR(~t_2 -> ~g t)
     6.85028013E-02    2     1000005        24   # BR(~t_2 -> ~b_1 W^+)
     3.54881116E-02    2     1000006        23   # BR(~t_2 -> ~t_1 Z)
     5.10392292E-02    2     1000006        25   # BR(~t_2 -> ~t_1 h^0)
DECAY   1000024     2.39933627E-03   # chi^+_1
#    BR                NDA      ID1      ID2       ID3
     3.33516147E-01    3     1000022        -1         2   # BR(chi^+_1 -> chi^0_1 d_bar u)
     3.33179980E-01    3     1000022        -3         4   # BR(chi^+_1 -> chi^0_1 s_bar c)
     1.11172778E-01    3     1000022       -11        12   # BR(chi^+_1 -> chi^0_1 e^+ nu_e)
     1.11172164E-01    3     1000022       -13        14   # BR(chi^+_1 -> chi^0_1 mu^+ nu_mu)
     1.10958931E-01    3     1000022       -15        16   # BR(chi^+_1 -> chi^0_1 tau^+ nu_tau)
DECAY   1000037     2.99358473E+00   # chi^+_2
#    BR                NDA      ID1      ID2
     9.08533909E-03    2     1000022        24   # BR(chi^+_2 -> chi^0_1 W^+)
     3.50267737E-01    2     1000023        24   # BR(chi^+_2 -> chi^0_2 W^+)
     2.25704227E-01    2     1000025        24   # BR(chi^+_2 -> chi^0_3 W^+)
     2.35338755E-01    2     1000024        23   # BR(chi^+_2 -> chi^+_1 Z)
     1.79550910E-01    2     1000024        25   # BR(chi^+_2 -> chi^+_1 h^0)
#    BR                NDA      ID1      ID2       ID3
DECAY   1000022     0.00000000E+00   # chi^0_1
DECAY   1000023     5.54926336E-05   # chi^0_2
#    BR                NDA      ID1      ID2
     3.30159622E-03    2     1000022        22   # BR(chi^0_2 -> chi^0_1 photon)
#    BR                NDA      ID1      ID2       ID3
     1.18033087E-01    3     1000022         2        -2   # BR(chi^0_2 -> chi^0_1 u u_bar)
     1.17822349E-01    3     1000022         4        -4   # BR(chi^0_2 -> chi^0_1 c c_bar)
     1.51324204E-01    3     1000022         1        -1   # BR(chi^0_2 -> chi^0_1 d d_bar)
     1.51323025E-01    3     1000022         3        -3   # BR(chi^0_2 -> chi^0_1 s s_bar)
     1.49170293E-01    3     1000022         5        -5   # BR(chi^0_2 -> chi^0_1 b b_bar)
     3.41223563E-02    3     1000022        11       -11   # BR(chi^0_2 -> chi^0_1 e^- e^+)
     3.41220512E-02    3     1000022        13       -13   # BR(chi^0_2 -> chi^0_1 mu^- mu^+)
     3.40251054E-02    3     1000022        15       -15   # BR(chi^0_2 -> chi^0_1 tau^- tau^+)
     2.02347977E-01    3     1000022        12       -12   # BR(chi^0_2 -> chi^0_1 nu_e nu_bar_e)
     7.83070634E-04    3     1000024         1        -2   # BR(chi^0_2 -> chi^+_1 d u_bar)
     7.83070634E-04    3    -1000024        -1         2   # BR(chi^0_2 -> chi^-_1 d_bar u)
     6.92886133E-04    3     1000024         3        -4   # BR(chi^0_2 -> chi^+_1 s c_bar)
     6.92886133E-04    3    -1000024        -3         4   # BR(chi^0_2 -> chi^-_1 s_bar c)
     2.61022894E-04    3     1000024        11       -12   # BR(chi^0_2 -> chi^+_1 e^- nu_bar_e)
     2.61022894E-04    3    -1000024       -11        12   # BR(chi^0_2 -> chi^-_1 e^+ nu_e)
     2.60797011E-04    3     1000024        13       -14   # BR(chi^0_2 -> chi^+_1 mu^- nu_bar_mu)
     2.60797011E-04    3    -1000024       -13        14   # BR(chi^0_2 -> chi^-_1 mu^+ nu_mu)
     2.06201049E-04    3     1000024        15       -16   # BR(chi^0_2 -> chi^+_1 tau^- nu_bar_tau)
     2.06201049E-04    3    -1000024       -15        16   # BR(chi^0_2 -> chi^-_1 tau^+ nu_tau)
DECAY   1000025     7.93505628E-03   # chi^0_3
#    BR                NDA      ID1      ID2
     8.11588620E-04    2     1000022        22   # BR(chi^0_3 -> chi^0_1 photon)
#    BR                NDA      ID1      ID2       ID3
     1.18804159E-01    3     1000022         2        -2   # BR(chi^0_3 -> chi^0_1 u u_bar)
     1.18599151E-01    3     1000022         4        -4   # BR(chi^0_3 -> chi^0_1 c c_bar)
     1.52330193E-01    3     1000022         1        -1   # BR(chi^0_3 -> chi^0_1 d d_bar)
     1.52329069E-01    3     1000022         3        -3   # BR(chi^0_3 -> chi^0_1 s s_bar)
     1.50063318E-01    3     1000022         5        -5   # BR(chi^0_3 -> chi^0_1 b b_bar)
     3.43765513E-02    3     1000022        11       -11   # BR(chi^0_3 -> chi^0_1 e^- e^+)
     3.43761040E-02    3     1000022        13       -13   # BR(chi^0_3 -> chi^0_1 mu^- mu^+)
     3.42455064E-02    3     1000022        15       -15   # BR(chi^0_3 -> chi^0_1 tau^- tau^+)
     2.03711250E-01    3     1000022        12       -12   # BR(chi^0_3 -> chi^0_1 nu_e nu_bar_e)
DECAY   1000035     4.31143169E+00   # chi^0_4
#    BR                NDA      ID1      ID2
     2.45728984E-01    2     1000024       -24   # BR(chi^0_4 -> chi^+_1 W^-)
     2.45728984E-01    2    -1000024        24   # BR(chi^0_4 -> chi^-_1 W^+)
     8.61579115E-04    2     1000022        23   # BR(chi^0_4 -> chi^0_1 Z)
     1.33747028E-02    2     1000023        23   # BR(chi^0_4 -> chi^0_2 Z)
     2.21721108E-01    2     1000025        23   # BR(chi^0_4 -> chi^0_3 Z)
     3.02700163E-03    2     1000022        25   # BR(chi^0_4 -> chi^0_1 h^0)
     1.08839129E-01    2     1000023        25   # BR(chi^0_4 -> chi^0_2 h^0)
     1.60584343E-01    2     1000025        25   # BR(chi^0_4 -> chi^0_3 h^0)
#    BR                NDA      ID1      ID2       ID3
DECAY   1000021     1.12600797E+00   # ~g
#    BR                NDA      ID1      ID2
     1.13103367E-03    2     1000023        21   # BR(~g -> chi^0_2 g)
     1.18825862E-03    2     1000025        21   # BR(~g -> chi^0_3 g)
     2.19738958E-04    2     1000035        21   # BR(~g -> chi^0_4 g)
#    BR                NDA      ID1      ID2       ID3
     2.48308819E-02    3     1000022         6        -6   # BR(~g -> chi^0_1 t t_bar)
     1.04759733E-02    3     1000022         5        -5   # BR(~g -> chi^0_1 b b_bar)
     1.28075644E-01    3     1000023         6        -6   # BR(~g -> chi^0_2 t t_bar)
     2.15725852E-02    3     1000023         5        -5   # BR(~g -> chi^0_2 b b_bar)
     1.59006187E-01    3     1000025         6        -6   # BR(~g -> chi^0_3 t t_bar)
     2.44828823E-02    3     1000025         5        -5   # BR(~g -> chi^0_3 b b_bar)
     1.73419959E-04    3     1000035         2        -2   # BR(~g -> chi^0_4 u u_bar)
     1.73421972E-04    3     1000035         4        -4   # BR(~g -> chi^0_4 c c_bar)
     4.74711818E-02    3     1000035         6        -6   # BR(~g -> chi^0_4 t t_bar)
     1.78170541E-04    3     1000035         1        -1   # BR(~g -> chi^0_4 d d_bar)
     1.78172073E-04    3     1000035         3        -3   # BR(~g -> chi^0_4 s s_bar)
     4.52302964E-02    3     1000035         5        -5   # BR(~g -> chi^0_4 b b_bar)
     1.86997472E-01    3     1000024         5        -6   # BR(~g -> chi^+_1 b t_bar)
     1.86997472E-01    3    -1000024        -5         6   # BR(~g -> chi^-_1 b_bar t)
     2.20571164E-04    3     1000037         1        -2   # BR(~g -> chi^+_2 d u_bar)
     2.20571164E-04    3    -1000037        -1         2   # BR(~g -> chi^-_2 d_bar u)
     2.20574758E-04    3     1000037         3        -4   # BR(~g -> chi^+_2 s c_bar)
     2.20574758E-04    3    -1000037        -3         4   # BR(~g -> chi^-_2 s_bar c)
     8.01255806E-02    3     1000037         5        -6   # BR(~g -> chi^+_2 b t_bar)
     8.01255806E-02    3    -1000037        -5         6   # BR(~g -> chi^-_2 b_bar t)
DECAY        25     3.72832520E-03   # Gamma(h0)
     2.52928911E-03   2        22        22   # BR(h0 -> photon photon)
     1.72495743E-03   2        22        23   # BR(h0 -> photon Z)
     3.33073057E-02   2        23        23   # BR(h0 -> Z Z)
     2.68866157E-01   2       -24        24   # BR(h0 -> W W)
     7.75326723E-02   2        21        21   # BR(h0 -> gluon gluon)
     4.75811648E-09   2       -11        11   # BR(h0 -> Electron electron)
     2.11650138E-04   2       -13        13   # BR(h0 -> Muon muon)
     6.10277578E-02   2       -15        15   # BR(h0 -> Tau tau)
     1.31664696E-07   2        -2         2   # BR(h0 -> Up up)
     2.55542497E-02   2        -4         4   # BR(h0 -> Charm charm)
     5.49773244E-07   2        -1         1   # BR(h0 -> Down down)
     1.98840476E-04   2        -3         3   # BR(h0 -> Strange strange)
     5.29046434E-01   2        -5         5   # BR(h0 -> Bottom bottom)
DECAY        35     1.76500817E+01   # Gamma(HH)
     2.36596963E-07   2        22        22   # BR(HH -> photon photon)
     8.41761659E-07   2        22        23   # BR(HH -> photon Z)
     1.05059195E-05   2        23        23   # BR(HH -> Z Z)
     1.09393840E-05   2       -24        24   # BR(HH -> W W)
     1.22247881E-05   2        21        21   # BR(HH -> gluon gluon)
     4.50308250E-09   2       -11        11   # BR(HH -> Electron electron)
     2.00443485E-04   2       -13        13   # BR(HH -> Muon muon)
     5.78820852E-02   2       -15        15   # BR(HH -> Tau tau)
     3.89772602E-13   2        -2         2   # BR(HH -> Up up)
     7.55927840E-08   2        -4         4   # BR(HH -> Charm charm)
     4.99901387E-03   2        -6         6   # BR(HH -> Top top)
     3.68075748E-07   2        -1         1   # BR(HH -> Down down)
     1.33135826E-04   2        -3         3   # BR(HH -> Strange strange)
     3.46294504E-01   2        -5         5   # BR(HH -> Bottom bottom)
     5.36315847E-02   2  -1000024   1000024   # BR(HH -> Chargino1 chargino1)
     1.45854339E-01   2  -1000024   1000037   # BR(HH -> Chargino1 chargino2)
     1.45854339E-01   2  -1000037   1000024   # BR(HH -> Chargino2 chargino1)
     6.90235327E-03   2  -1000037   1000037   # BR(HH -> Chargino2 chargino2)
     2.10591850E-02   2   1000022   1000022   # BR(HH -> neutralino1 neutralino1)
     2.79093649E-02   2   1000022   1000023   # BR(HH -> neutralino1 neutralino2)
     2.83666404E-02   2   1000022   1000025   # BR(HH -> neutralino1 neutralino3)
     1.17290511E-02   2   1000022   1000035   # BR(HH -> neutralino1 neutralino4)
     1.52258260E-04   2   1000023   1000023   # BR(HH -> neutralino2 neutralino2)
     5.44858962E-04   2   1000023   1000025   # BR(HH -> neutralino2 neutralino3)
     4.81066077E-02   2   1000023   1000035   # BR(HH -> neutralino2 neutralino4)
     1.94741108E-03   2   1000025   1000025   # BR(HH -> neutralino3 neutralino3)
     9.45698548E-02   2   1000025   1000035   # BR(HH -> neutralino3 neutralino4)
     3.76181578E-03   2   1000035   1000035   # BR(HH -> neutralino4 neutralino4)
     6.59567321E-05   2        25        25   # BR(HH -> h0 h0)
DECAY        36     1.74802734E+01   # Gamma(A0)
     7.43115646E-08   2        22        22   # BR(A0 -> photon photon)
     6.07995873E-07   2        22        23   # BR(A0 -> photon Z)
     4.49319211E-05   2        21        21   # BR(A0 -> gluon gluon)
     4.43815854E-09   2       -11        11   # BR(A0 -> Electron electron)
     1.97553690E-04   2       -13        13   # BR(A0 -> Muon muon)
     5.70481011E-02   2       -15        15   # BR(A0 -> Tau tau)
     3.70003469E-13   2        -2         2   # BR(A0 -> Up up)
     7.17423594E-08   2        -4         4   # BR(A0 -> Charm charm)
     5.18144804E-03   2        -6         6   # BR(A0 -> Top top)
     3.62765260E-07   2        -1         1   # BR(A0 -> Down down)
     1.31214930E-04   2        -3         3   # BR(A0 -> Strange strange)
     3.41306437E-01   2        -5         5   # BR(A0 -> Bottom bottom)
     6.22012901E-02   2  -1000024   1000024   # BR(A0 -> Chargino1 chargino1)
     1.40348319E-01   2  -1000024   1000037   # BR(A0 -> Chargino1 chargino2)
     1.40348319E-01   2  -1000037   1000024   # BR(A0 -> Chargino2 chargino1)
     1.26906350E-02   2  -1000037   1000037   # BR(A0 -> Chargino2 chargino2)
     2.15019273E-02   2   1000022   1000022   # BR(A0 -> neutralino1 neutralino1)
     2.86445328E-02   2   1000022   1000023   # BR(A0 -> neutralino1 neutralino2)
     2.92896622E-02   2   1000022   1000025   # BR(A0 -> neutralino1 neutralino3)
     1.56573783E-02   2   1000022   1000035   # BR(A0 -> neutralino1 neutralino4)
     1.66268352E-04   2   1000023   1000023   # BR(A0 -> neutralino2 neutralino2)
     2.84043882E-04   2   1000023   1000025   # BR(A0 -> neutralino2 neutralino3)
     6.55079032E-02   2   1000023   1000035   # BR(A0 -> neutralino2 neutralino4)
     3.16700064E-03   2   1000025   1000025   # BR(A0 -> neutralino3 neutralino3)
     6.92465936E-02   2   1000025   1000035   # BR(A0 -> neutralino3 neutralino4)
     7.02079796E-03   2   1000035   1000035   # BR(A0 -> neutralino4 neutralino4)
     1.45216318E-05   2        23        25   # BR(A0 -> Z h0)
     6.64936106E-39   2        25        25   # BR(A0 -> h0 h0)
DECAY        37     1.80956977E+01   # Gamma(Hp)
     5.14208348E-09   2       -11        12   # BR(Hp -> Electron nu_e)
     2.19840126E-04   2       -13        14   # BR(Hp -> Muon nu_mu)
     6.21830764E-02   2       -15        16   # BR(Hp -> Tau nu_tau)
     3.64780043E-07   2        -1         2   # BR(Hp -> Down up)
     6.09060677E-06   2        -3         2   # BR(Hp -> Strange up)
     3.87002921E-06   2        -5         2   # BR(Hp -> Bottom up)
     2.07588211E-08   2        -1         4   # BR(Hp -> Down charm)
     1.31549616E-04   2        -3         4   # BR(Hp -> Strange charm)
     5.41941730E-04   2        -5         4   # BR(Hp -> Bottom charm)
     4.13776456E-07   2        -1         6   # BR(Hp -> Down top)
     9.20794396E-06   2        -3         6   # BR(Hp -> Strange top)
     3.63765595E-01   2        -5         6   # BR(Hp -> Bottom top)
     5.36438483E-02   2   1000022   1000024   # BR(Hp -> neutralino1 chargino1)
     3.25115154E-02   2   1000022   1000037   # BR(Hp -> neutralino1 chargino2)
     2.39692286E-02   2   1000023   1000024   # BR(Hp -> neutralino2 chargino1)
     1.46503838E-01   2   1000023   1000037   # BR(Hp -> neutralino2 chargino2)
     1.47082610E-02   2   1000024   1000025   # BR(Hp -> chargino1 neutralino3)
     1.48910417E-01   2   1000025   1000037   # BR(Hp -> neutralino3 chargino2)
     1.52864266E-01   2   1000024   1000035   # BR(Hp -> chargino1 neutralino4)
     1.24430713E-05   2   1000035   1000037   # BR(Hp -> neutralino4 chargino2)
     1.42066163E-05   2        24        25   # BR(Hp -> W h0)
     4.84562861E-11   2        24        35   # BR(Hp -> W HH)
     4.22261328E-11   2        24        36   # BR(Hp -> W A0)
DECAY         6     2.43000000E+00   # top
#    BR                NDA      ID1      ID2
     1.00000000E+00    2           5        24   # BR(t -> b W)
Block HiggsBoundsInputHiggsCouplingsFermions
# ScalarNormEffCoupSq PseudoSNormEffCoupSq NP IP1 IP2 IP2
    9.41596306E-01    0.00000000E+00        3  25   5   5  # h0-b-b eff. coupling^2, normalised to SM
    4.16498865E+02    0.00000000E+00        3  35   5   5  # H0-b-b eff. coupling^2, normalised to SM
    0.00000000E+00    4.16440462E+02        3  36   5   5  # A0-b-b eff. coupling^2, normalised to SM
#
    1.00014025E+00    0.00000000E+00        3  25   6   6  # h0-t-t eff. coupling^2, normalised to SM
    2.26105865E-03    0.00000000E+00        3  35   6   6  # H0-t-t eff. coupling^2, normalised to SM
    0.00000000E+00    2.40130365E-03        3  36   6   6  # A0-t-t eff. coupling^2, normalised to SM
#
    9.41596306E-01    0.00000000E+00        3  25  15  15  # h0-tau-tau eff. coupling^2, normalised to SM
    4.16498865E+02    0.00000000E+00        3  35  15  15  # H0-tau-tau eff. coupling^2, normalised to SM
    0.00000000E+00    4.16440462E+02        3  36  15  15  # A0-tau-tau eff. coupling^2, normalised to SM
#
Block HiggsBoundsInputHiggsCouplingsBosons
    9.99997890E-01        3  25  24  24  # h0-W-W eff. coupling^2, normalised to SM
    2.10962929E-06        3  35  24  24  # H0-W-W eff. coupling^2, normalised to SM
    0.00000000E+00        3  36  24  24  # A0-W-W eff. coupling^2, normalised to SM
#
    9.99997890E-01        3  25  23  23  # h0-Z-Z eff. coupling^2, normalised to SM
    2.10962929E-06        3  35  23  23  # H0-Z-Z eff. coupling^2, normalised to SM
    0.00000000E+00        3  36  23  23  # A0-Z-Z eff. coupling^2, normalised to SM
#
    1.26683362E+00        3  25  21  21  # h0-g-g eff. coupling^2, normalised to SM
    3.61325929E-03        3  35  21  21  # H0-g-g eff. coupling^2, normalised to SM
    1.05776321E-01        3  36  21  21  # A0-g-g eff. coupling^2, normalised to SM
#
    0.00000000E+00        3  25  25  23  # h0-h0-Z eff. coupling^2, normalised to SM
    0.00000000E+00        3  35  25  23  # H0-h0-Z eff. coupling^2, normalised to SM
    2.10962929E-06        3  36  25  23  # A0-h0-Z eff. coupling^2, normalised to SM
    0.00000000E+00        3  35  35  23  # H0-H0-Z eff. coupling^2, normalised to SM
    9.99997890E-01        3  36  35  23  # A0-H0-Z eff. coupling^2, normalised to SM
    0.00000000E+00        3  36  36  23  # A0-A0-Z eff. coupling^2, normalised to SM
#
    0.00000000E+00        4  25  21  21  23  # h0-g-g-Z eff. coupling^2, normalised to SM
    0.00000000E+00        4  35  21  21  23  # H0-g-g-Z eff. coupling^2, normalised to SM
    0.00000000E+00        4  36  21  21  23  # A0-g-g-Z eff. coupling^2, normalised to SM
Block SPhenoLowEnergy  # low energy observables
    1    3.40482944E-04   # BR(b -> s gamma)
    2    1.58818957E-06   # BR(b -> s mu+ mu-)
    3    3.52527915E-05   # BR(b -> s nu nu)
    4    2.79643687E-15   # BR(Bd -> e+ e-)
    5    1.19460454E-10   # BR(Bd -> mu+ mu-)
    6    2.49988018E-08   # BR(Bd -> tau+ tau-)
    7    9.38993661E-14   # BR(Bs -> e+ e-)
    8    4.01137307E-09   # BR(Bs -> mu+ mu-)
    9    8.50558276E-07   # BR(Bs -> tau+ tau-)
   10    9.50556554E-05   # BR(B_u -> tau nu)
   11    9.81888529E-01   # BR(B_u -> tau nu)/BR(B_u -> tau nu)_SM
   12    5.42016745E-01   # |Delta(M_Bd)| [ps^-1] 
   13    1.93576769E+01   # |Delta(M_Bs)| [ps^-1] 
   14    0.00000000E+00   # neutron EDM according to the chiral quark model
   15    0.00000000E+00   # neutron EDM according to the relativistic quark-parton model
   16    2.15752818E-03   # epsilon_K
   17    2.28166236E-15   # Delta(M_K)
   18    2.48015433E-11   # BR(K^0 -> pi^0 nu nu)
   19    8.29077382E-11   # BR(K^+ -> pi^+ nu nu)
   20   -1.71170508E-16   # Delta(g-2)_electron/2
   21   -7.31809216E-12   # Delta(g-2)_muon/2
   22   -2.07141027E-09   # Delta(g-2)_tau/2
   23    0.00000000E+00   # electric dipole moment of the electron
   24    0.00000000E+00   # electric dipole moment of the muon
   25    0.00000000E+00   # electric dipole moment of the tau
   26    0.00000000E+00   # Br(mu -> e gamma)
   27    0.00000000E+00   # Br(tau -> e gamma)
   28    0.00000000E+00   # Br(tau -> mu gamma)
   29    0.00000000E+00   # Br(mu -> 3 e)
   30    0.00000000E+00   # Br(tau -> 3 e)
   31    0.00000000E+00   # Br(tau -> 3 mu)
   39    5.17268732E-05   # Delta(rho_parameter)
   40    0.00000000E+00   # BR(Z -> e mu)
   41    0.00000000E+00   # BR(Z -> e tau)
   42    0.00000000E+00   # BR(Z -> mu tau)
Block FWCOEF Q=  1.60000000E+02  # Wilson coefficients at scale Q
#    id        order  M        value         comment
     0305 4422   00   0    -1.88819110E-01   # C7
     0305 4422   00   2    -2.07918932E-01   # C7
     0305 4322   00   2    -4.87424820E-04   # C7'
     0305 6421   00   0    -9.52278348E-02   # C8
     0305 6421   00   2    -1.23942385E-01   # C8
     0305 6321   00   2    -6.23933126E-04   # C8'
 03051111 4133   00   0     1.62508978E+00   # C9 e+e-
 03051111 4133   00   2     1.62534695E+00   # C9 e+e-
 03051111 4233   00   2     8.73224193E-05   # C9' e+e-
 03051111 4137   00   0    -4.44778188E+00   # C10 e+e-
 03051111 4137   00   2    -4.44614601E+00   # C10 e+e-
 03051111 4237   00   2    -6.47075253E-04   # C10' e+e-
 03051313 4133   00   0     1.62508978E+00   # C9 mu+mu-
 03051313 4133   00   2     1.62534690E+00   # C9 mu+mu-
 03051313 4233   00   2     8.73218519E-05   # C9' mu+mu-
 03051313 4137   00   0    -4.44778188E+00   # C10 mu+mu-
 03051313 4137   00   2    -4.44614605E+00   # C10 mu+mu-
 03051313 4237   00   2    -6.47074723E-04   # C10' mu+mu-
 03051212 4137   00   0     1.50535012E+00   # C11 nu_1 nu_1
 03051212 4137   00   2     1.50499818E+00   # C11 nu_1 nu_1
 03051212 4237   00   2     1.39971563E-04   # C11' nu_1 nu_1
 03051414 4137   00   0     1.50535012E+00   # C11 nu_2 nu_2
 03051414 4137   00   2     1.50499818E+00   # C11 nu_2 nu_2
 03051414 4237   00   2     1.39971684E-04   # C11' nu_2 nu_2
 03051616 4137   00   0     1.50535012E+00   # C11 nu_3 nu_3
 03051616 4137   00   2     1.50499818E+00   # C11 nu_3 nu_3
 03051616 4237   00   2     1.40005705E-04   # C11' nu_3 nu_3
Block IMFWCOEF Q=  1.60000000E+02  # Im(Wilson coefficients) at scale Q
#    id        order  M        value         comment
     0305 4422   00   0     3.85827723E-07   # C7
     0305 4422   00   2    -2.91361144E-06   # C7
     0305 4322   00   2     7.14719920E-07   # C7'
     0305 6421   00   0     3.30486961E-07   # C8
     0305 6421   00   2    -7.40613503E-06   # C8
     0305 6321   00   2     1.69686050E-07   # C8'
 03051111 4133   00   2     4.64756989E-07   # C9 e+e-
 03051111 4233   00   2     2.36887589E-06   # C9' e+e-
 03051111 4137   00   2     3.14093437E-06   # C10 e+e-
 03051111 4237   00   2    -1.75631737E-05   # C10' e+e-
 03051313 4133   00   2     4.64755793E-07   # C9 mu+mu-
 03051313 4233   00   2     2.36887572E-06   # C9' mu+mu-
 03051313 4137   00   2     3.14093569E-06   # C10 mu+mu-
 03051313 4237   00   2    -1.75631742E-05   # C10' mu+mu-
 03051212 4137   00   2    -6.44888489E-07   # C11 nu_1 nu_1
 03051212 4237   00   2     3.79917101E-06   # C11' nu_1 nu_1
 03051414 4137   00   2    -6.44888425E-07   # C11 nu_2 nu_2
 03051414 4237   00   2     3.79917101E-06   # C11' nu_2 nu_2
 03051616 4137   00   2    -6.44870590E-07   # C11 nu_3 nu_3
 03051616 4237   00   2     3.79917100E-06   # C11' nu_3 nu_3
