BLOCK SPINFO
   1   SPheno
   2   v4.0.5be

BLOCK SPHENOINFO
   1   2
   2   2

BLOCK MODSEL
   1   0

BLOCK MINPAR
   3    19.81987
   4    1

BLOCK EXTPAR
   0    3218.1189
   1   -270.9006
   2   -1481.9552
   3    3289.9151
   11   -4168.2748
   12   -2974.0948
   13   -2531.3048
   23    3110.7375
   25    18.975291
   26    2460.3918
   31    3802.9527
   32    3802.9527
   33    1768.1095
   34    3859.6098
   35    3859.6098
   36    2342.4424
   41    2334.4738
   42    2334.4738
   43    3557.5695
   44    3368.3157
   45    3368.3157
   46    2748.2036
   47    1439.9654
   48    1439.9654
   49    4325.0959

BLOCK SMINPUTS
   1    127.90897
   2    1.1663787e-05
   3    0.1184
   4    91.1876
   5    4.18
   6    173.2
   7    1.777
   8    0
   11    0.00051099893
   12    0
   13    0.10565837
   14    0
   21    0.005
   22    0.0025
   23    0.095
   24    1.27

BLOCK GAUGE Q=  3218.1189
   1    0.35536298
   2    0.66519887
   3    1.219778

BLOCK YU Q=  3218.1189
   1   1    8.396007e-06
   2   2    0.0042651716
   3   3    1.0143051

BLOCK YD Q=  3218.1189
   1   1    0.00032014114
   2   2    0.0060826816
   3   3    0.31747969

BLOCK YE Q=  3218.1189
   1   1    5.5866969e-05
   2   2    0.011551517
   3   3    0.19427752

BLOCK AU Q=  3218.1189
   1   1    0
   2   2    0
   3   3   -4168.2791

BLOCK AD Q=  3218.1189
   1   1    0
   2   2    0
   3   3   -2974.0945

BLOCK AE Q=  3218.1189
   1   1    0
   2   2    0
   3   3   -2531.3039

BLOCK MSOFT Q=  3218.1189
   1   -270.9006
   2   -1481.9552
   3    3289.9151
   21   -3758329.5
   22   -9532425.8
   31    3802.9527
   32    3802.9527
   33    1768.1095
   34    3859.6098
   35    3859.6098
   36    2342.4424
   41    2334.4738
   42    2334.4738
   43    3557.5695
   44    3368.3157
   45    3368.3157
   46    2748.2036
   47    1439.9654
   48    1439.9654
   49    4325.0959

BLOCK MASS
   6    173.2
   23    91.1876
   24    80.429995
   15    1.777
   25    122.96382
   35    2460.3982
   36    2460.3918
   37    2461.9637
   1000001    2490.9703
   2000001    1614.7718
   1000002    2489.6967
   2000002    3479.7991
   1000003    2490.97
   2000003    1614.7704
   1000004    2489.6962
   2000004    3479.7988
   1000005    3637.8503
   2000005    4404.8255
   1000006    2836.8966
   2000006    3650.5699
   1000011    3811.6234
   2000011    3865.4065
   1000012    3810.4056
   1000013    3811.6076
   2000013    3865.4109
   1000014    3810.402
   1000015    1779.3514
   2000015    2345.7258
   1000016    1778.6187
   1000021    3428.3238
   1000022   -269.55608
   1000023   -1530.0605
   1000025    3110.2921
   1000035   -3111.6657
   1000024    1530.1279
   1000037    3112.3079

BLOCK ALPHA
      -0.050550069

BLOCK HMIX Q=  3218.1189
   1    3110.7375
   2    18.975291
   3    243.18513
   4    6053527.9

BLOCK STOPMIX
   1   1    0.1165603
   1   2    0.99318362
   2   1   -0.99318362
   2   2    0.1165603

BLOCK SBOTMIX
   1   1    0.99980024
   1   2    0.019987047
   2   1   -0.019987047
   2   2    0.99980024

BLOCK STAUMIX
   1   1    0.99894829
   1   2    0.045851076
   2   1   -0.045851076
   2   2    0.99894829

BLOCK NMIX
   1   1   -0.99989622
   1   2   -4.2034819e-05
   1   3   -0.01439958
   1   4   -0.00045735788
   2   1    0.00041594222
   2   2    0.99941385
   2   3   -0.031364632
   2   4   -0.013712943
   3   1    0.0098575329
   3   2   -0.012487201
   3   3   -0.7069226
   3   4    0.70711197
   4   1    0.010498327
   4   2   -0.031875163
   4   3   -0.7064484
   4   4   -0.70696846

BLOCK UMIX
   1   1   -0.99901331
   1   2    0.044411811
   2   1   -0.044411811
   2   2   -0.99901331

BLOCK VMIX
   1   1    0.9998093
   1   2    0.019528637
   2   1    0.019528637
   2   2   -0.9998093

BLOCK HIGGSBOUNDSINPUTHIGGSCOUPLINGSFERMIONS
       0, 360.06167,3,36,15,15

BLOCK HIGGSBOUNDSINPUTHIGGSCOUPLINGSBOSONS
       0,4,36,21,21,23

BLOCK SPHENOLOWENERGY
   1    0.00032468234
   2    1.5894771e-06
   3    3.5249499e-05
   4    2.4329764e-15
   5    1.0393389e-10
   6    2.1752301e-08
   7    8.1856273e-14
   8    3.4968943e-09
   9    7.4155019e-07
   10    9.6477275e-05
   11    0.99657331
   12    0.54185103
   13    19.358936
   14    0
   15    0
   16    0.0021568544
   17    2.2816539e-15
   18    2.480177e-11
   19    8.2898001e-11
   20   -6.2945202e-16
   21   -2.6911003e-11
   22   -1.5642887e-08
   23    0
   24    0
   25    0
   26    0
   27    0
   28    0
   29    0
   30    0
   31    0
   39    4.6215038e-05
   40    0
   41    0
   42    0

BLOCK FWCOEF Q=  160
   305   4422   0   0   -0.18881911
   305   4422   0   2   -0.19262616
   305   4322   0   2   -4.2897149e-05
   305   6421   0   0   -0.095227835
   305   6421   0   2   -0.10388702
   305   6321   0   2   -0.0001452641
   3051111   4133   0   0    1.6187686
   3051111   4133   0   2    1.6187708
   3051111   4233   0   2    2.6470954e-05
   3051111   4137   0   0   -4.4414607
   3051111   4137   0   2   -4.4394839
   3051111   4237   0   2   -0.00019907997
   3051313   4133   0   0    1.6187686
   3051313   4133   0   2    1.6187706
   3051313   4233   0   2    2.6470911e-05
   3051313   4137   0   0   -4.4414607
   3051313   4137   0   2   -4.4394841
   3051313   4237   0   2   -0.00019907995
   3051212   4137   0   0    1.5053501
   3051212   4137   0   2    1.504924
   3051212   4237   0   2    4.3128015e-05
   3051414   4137   0   0    1.5053501
   3051414   4137   0   2    1.504924
   3051414   4237   0   2    4.3128023e-05
   3051616   4137   0   0    1.5053501
   3051616   4137   0   2    1.504924
   3051616   4237   0   2    4.3130884e-05

BLOCK IMFWCOEF Q=  160
   305   4422   0   0    3.8585846e-07
   305   4422   0   2   -1.4208081e-06
   305   4322   0   2    2.3940999e-06
   305   6421   0   0    3.3051329e-07
   305   6421   0   2   -4.9466175e-06
   305   6321   0   2    1.4788076e-06
   3051111   4133   0   2   -1.8795025e-06
   3051111   4233   0   2    7.1794027e-07
   3051111   4137   0   2    1.5469701e-05
   3051111   4237   0   2   -5.3919149e-06
   3051313   4133   0   2   -1.8795016e-06
   3051313   4233   0   2    7.1794018e-07
   3051313   4137   0   2    1.5469704e-05
   3051313   4237   0   2   -5.3919152e-06
   3051212   4137   0   2   -3.3116235e-06
   3051212   4237   0   2    1.1680617e-06
   3051414   4137   0   2   -3.3116235e-06
   3051414   4237   0   2    1.1680617e-06
   3051616   4137   0   2   -3.3115205e-06
   3051616   4237   0   2    1.1680724e-06

DECAY 23  2.4952


DECAY 24  2.085


DECAY 1000011  40.110092
    0.58748755   2   -1000024    12
    0.29412005   2    1000023    11
    0.11817459   2    1000022    11
    0.00018327295   2   -1000037    12

DECAY 2000011  19.230322
    0.99997388   2    1000022    11

DECAY 1000013  40.110947
    0.58747071   2   -1000024    14
    0.29411178   2    1000023    13
    0.11817162   2    1000022    13
    0.0001832622   2   -1000037    14

DECAY 2000013  19.232907
    0.99984077   2    1000022    13

DECAY 1000015  3.7405064
    0.57469534   2    1000022    15
    0.28337469   2   -1000024    16
    0.14192997   2    1000023    15

DECAY 2000015  14.205722
    0.80629586   2    1000022    15
    0.096771296   2    1000016   -24
    0.048467635   2    1000015    25
    0.047687726   2    1000015    23
    0.00051767679   2   -1000024    16
    0.00025980736   2    1000023    15

DECAY 1000012  40.110023
    0.58809264   2    1000024    11
    0.29369306   2    1000023    12
    0.1180991   2    1000022    12

DECAY 1000014  40.111092
    0.58807635   2    1000024    13
    0.29368474   2    1000023    14
    0.11809583   2    1000022    14

DECAY 1000016  3.7177685
    0.57346067   2    1000022    16
    0.2844586   2    1000024    15
    0.14208072   2    1000023    16

DECAY 2000001  0.85179515
    1   2    1000022    1

DECAY 1000001  13.070424
    0.64919336   2   -1000024    2
    0.3248435   2    1000023    1
    0.025962968   2    1000022    1

DECAY 2000003  0.85179457
    0.99999996   2    1000022    3

DECAY 1000003  13.071219
    0.64915238   2   -1000024    4
    0.32482361   2    1000023    3
    0.025961412   2    1000022    3

DECAY 1000005  68.381913
    0.38548456   2    1000006   -24
    0.31402637   2   -1000024    6
    0.15856347   2    1000023    5
    0.074221006   2   -1000037    6
    0.052587265   2    1000021    5
    0.0074173139   2    1000022    5
    0.0038559202   2    1000025    5
    0.0038440918   2    1000035    5

DECAY 2000005  62.79493
    0.86039122   2    1000021    5
    0.038814764   2    1000022    5
    0.035520681   2   -1000037    6
    0.017702082   2    1000025    5
    0.017676657   2    1000035    5
    0.012062073   2    1000005    25
    0.011013216   2    2000006   -24
    0.0058148419   2    1000005    23
    0.0010031429   2    1000006   -24

DECAY 1000002  13.063035
    0.6494572   2    1000024    1
    0.32455453   2    1000023    2
    0.025988271   2    1000022    2

DECAY 2000002  7.9133501
    0.97005848   2    1000022    2
    0.029933206   2    1000021    2

DECAY 1000004  13.063024
    0.64945755   2    1000024    3
    0.32455418   2    1000023    4
    0.025988272   2    1000022    4

DECAY 2000004  7.9133576
    0.97005717   2    1000022    4
    0.029921597   2    1000021    4

DECAY 1000006  6.2420911
    0.97678877   2    1000022    6
    0.015227151   2    1000024    5
    0.0075974317   2    1000023    6
    0.00035251658   3    1000022    24    5

DECAY 2000006  74.243839
    0.29218526   2    1000024    5
    0.2613708   2    1000006    25
    0.18212446   2    1000006    23
    0.14549724   2    1000023    6
    0.038191418   2    1000025    6
    0.037150338   2    1000035    6
    0.027276163   2    1000021    6
    0.0081173041   2    1000022    6
    0.0080870096   2    1000037    5

DECAY 1000024  0.00084544902
    0.46840894   3    1000022   -15    16
    0.44446169   2    1000022    24
    0.02420017   3    1000022   -5    6
    0.022090826   3    1000022   -3    4
    0.022090357   3    1000022   -1    2
    0.0093741461   3    1000022   -13    14
    0.0093738691   3    1000022   -11    12

DECAY 1000037  23.012519
    0.25569367   2    1000024    25
    0.23014971   2    1000023    24
    0.22756614   2    1000024    23
    0.11777909   2    1000006   -5
    0.090294614   2    1000022    24
    0.023089081   2    1000016   -15
    0.016338504   3    1000024    6   -6
    0.012480816   3    1000023   -5    6
    0.010447724   2    37    1000022
    0.0095675123   2   -2000015    16
    0.0049668814   3    1000022   -5    6
    0.00046422192   2   -1000003    4
    0.00045503962   2   -1000001    2
    0.00025899837   2   -1000015    16
    0.00015756301   3    1000024    5   -5
    0.00010763998   2    1000004   -3

DECAY 1000022 -1


DECAY 1000023  0.0010789532
    0.28459869   3    1000022    12   -12
    0.27278947   3    1000022    15   -15
    0.20460837   2    1000022    23
    0.15881896   2    1000022    25
    0.014197616   3    1000022    2   -2
    0.014197407   3    1000022    4   -4
    0.014145378   3    1000022    3   -3
    0.014144986   3    1000022    1   -1
    0.0072119163   3    1000022    6   -6
    0.0062347868   3    1000022    13   -13
    0.0062345539   3    1000022    11   -11
    0.0027812131   3    1000022    5   -5

DECAY 1000025  27.909771
    0.22661267   2    1000023    25
    0.1878677   2    1000024   -24
    0.1878677   2   -1000024    24
    0.16294267   2    1000023    23
    0.045005141   2    1000022    25
    0.043467937   2    1000006   -6
    0.043467937   2   -1000006    6
    0.039570069   2    1000022    23
    0.0094161632   2    1000015   -15
    0.0094161632   2   -1000015    15
    0.0086641883   3    1000024    5   -6
    0.0086641883   3   -1000024   -5    6
    0.0069132497   3    1000023    6   -6
    0.0059266521   2    1000022    35
    0.0039128761   2    2000015   -15
    0.0039128761   2   -2000015    15
    0.0032597883   3    1000022    6   -6
    0.0027358797   2    1000022    36

DECAY 1000035  22.720279
    0.22944326   2    1000024   -24
    0.22944326   2   -1000024    24
    0.22692422   2    1000023    25
    0.055003408   2    1000006   -6
    0.055003408   2   -1000006    6
    0.045155391   2    1000022    25
    0.042804315   2    1000022    23
    0.030677307   2    1000023    23
    0.01417526   3    1000024    5   -6
    0.01417526   3   -1000024   -5    6
    0.011578701   2    1000015   -15
    0.011578701   2   -1000015    15
    0.0089207574   2    1000022    35
    0.0070806475   3    1000023    6   -6
    0.0048439697   2    2000015   -15
    0.0048439697   2   -2000015    15
    0.0040469533   3    1000022    6   -6
    0.0027273436   2    1000022    36
    0.00019196504   2    1000016   -16
    0.00019196504   2   -1000016    16
    0.00014253948   2    1000003   -3
    0.00014253948   2   -1000003    3
    0.00013284385   2    1000001   -1
    0.00013284385   2   -1000001    1
    0.00011031143   2    1000004   -4
    0.00011031143   2   -1000004    4
    0.00010539841   2    1000002   -2
    0.00010539841   2   -1000002    2

DECAY 1000021  222.58019
    0.13803352   2    2000003   -3
    0.13803352   2   -2000003    3
    0.13803339   2    2000001   -1
    0.13803339   2   -2000001    1
    0.050917714   2    1000004   -4
    0.050917714   2   -1000004    4
    0.050917708   2    1000002   -2
    0.050917708   2   -1000002    2
    0.050801506   2    1000003   -3
    0.050801506   2   -1000003    3
    0.050801483   2    1000001   -1
    0.050801483   2   -1000001    1
    0.0202239   2    1000006   -6
    0.0202239   2   -1000006    6
    0.00012342419   3    1000022    4   -4
    0.00012342405   3    1000022    2   -2

DECAY 25  0.0036319263
    0.60394694   2   -5    5
    0.19614299   2   -24    24
    0.073890249   2    21    21
    0.06928108   2   -15    15
    0.029814432   2   -4    4
    0.022791754   2    23    23
    0.0023383217   2    22    22
    0.0013266225   2    22    23
    0.00024031141   2   -13    13
    0.00022651161   2   -3    3
    6.2628063e-07   2   -1    1
    1.5364732e-07   2   -2    2
    5.402494e-09   2   -11    11

DECAY 35  10.875682
    0.81356775   2   -5    5
    0.16695624   2   -15    15
    0.018266662   2   -6    6
    0.00059793617   2   -13    13
    0.00027952018   2    1000022    1000023
    0.00021130272   2   -3    3
    9.4846863e-05   2    1000022    1000022
    1.0204136e-05   2    25    25
    6.4822827e-06   2    21    21
    5.8823466e-06   2    23    23
    2.3246634e-06   2   -24    24
    5.8415224e-07   2   -1    1
    2.2186441e-07   2   -4    4
    1.4886525e-08   2    22    22
    1.3430081e-08   2   -11    11
    1.0036577e-08   2    22    23
    1.1434604e-12   2   -2    2

DECAY 36  10.54824
    0.81488991   2   -5    5
    0.16722536   2   -15    15
    0.016490105   2   -6    6
    0.00059889175   2   -13    13
    0.00042054195   2    1000022    1000023
    0.00021166721   2   -3    3
    0.00010201493   2    1000022    1000022
    5.1604229e-05   2    21    21
    8.7725408e-06   2    23    25
    5.8516003e-07   2   -1    1
    1.9455833e-07   2   -4    4
    1.7245493e-07   2    22    23
    1.6854275e-07   2    22    22
    1.3451611e-08   2   -11    11
    1.0028294e-12   2   -2    2
    6.2083261e-35   2    25    25

DECAY 37  11.561698
    0.83003531   2   -5    6
    0.16728489   2   -15    16
    0.0011999329   2   -5    4
    0.0006478393   2    1000022    1000024
    0.00059141201   2   -13    14
    0.0001823003   2   -3    4
    3.1239085e-05   2   -3    6
    8.5687576e-06   2   -5    2
    8.5059662e-06   2   -3    2
    8.0264642e-06   2    24    25
    1.4204765e-06   2   -1    6
    5.0497409e-07   2   -1    2
    3.6554514e-08   2   -1    4
    1.3833188e-08   2   -11    12
    1.129668e-12   2    24    36
    1.1070522e-12   2    24    35

DECAY 6  2.43
    1   2    5    24

DECAY 15 -1
