BLOCK SPINFO
   1   SPheno
   2   v4.0.5be

BLOCK SPHENOINFO
   1   2
   2   2

BLOCK MODSEL
   1   0

BLOCK MINPAR
   3    7.02566
   4    1

BLOCK EXTPAR
   0    3756.4885
   1   -585.59518
   2   -720.4224
   3    4519.6455
   11    6284.6008
   12    1938.5228
   13   -4995.9507
   23    1551.2971
   25    6.6620404
   26    4497.1346
   31    861.7747
   32    861.7747
   33    888.85475
   34    4896.6004
   35    4896.6004
   36    4579.1365
   41    2435.9429
   42    2435.9429
   43    3459.0705
   44    1818.8781
   45    1818.8781
   46    3959.2535
   47    2212.8846
   48    2212.8846
   49    2833.8313

BLOCK SMINPUTS
   1    127.90897
   2    1.1663787e-05
   3    0.1184
   4    91.1876
   5    4.18
   6    173.2
   7    1.777
   8    0
   11    0.00051099893
   12    0
   13    0.10565837
   14    0
   21    0.005
   22    0.0025
   23    0.095
   24    1.27

BLOCK GAUGE Q=  3756.4885
   1    0.35536298
   2    0.66519887
   3    1.219778

BLOCK YU Q=  3756.4885
   1   1    8.4783012e-06
   2   2    0.004306977
   3   3    1.0242469

BLOCK YD Q=  3756.4885
   1   1    0.00011350013
   2   2    0.0021565024
   3   3    0.11255656

BLOCK YE Q=  3756.4885
   1   1    1.9806602e-05
   2   2    0.0040953772
   3   3    0.068877507

BLOCK AU Q=  3756.4885
   1   1    0
   2   2    0
   3   3    6284.5972

BLOCK AD Q=  3756.4885
   1   1    0
   2   2    0
   3   3    1938.5229

BLOCK AE Q=  3756.4885
   1   1    0
   2   2    0
   3   3   -4995.9524

BLOCK MSOFT Q=  3756.4885
   1   -585.59518
   2   -720.4224
   3    4519.6455
   21    17302138
   22   -1672043.7
   31    861.7747
   32    861.7747
   33    888.85475
   34    4896.6004
   35    4896.6004
   36    4579.1365
   41    2435.9429
   42    2435.9429
   43    3459.0705
   44    1818.8781
   45    1818.8781
   46    3959.2535
   47    2212.8846
   48    2212.8846
   49    2833.8313

BLOCK MASS
   6    173.2
   23    91.1876
   24    80.429995
   15    1.777
   25    124.12997
   35    4496.9499
   36    4497.1346
   37    4497.6872
   1000001    2617.399
   2000001    2388.7904
   1000002    2616.2142
   2000002    2012.299
   1000003    2617.3986
   2000003    2388.7901
   1000004    2616.2139
   2000004    2012.2986
   1000005    2996.6439
   2000005    3566.8778
   1000006    3539.4937
   2000006    3986.7865
   1000011    880.39452
   2000011    4899.1166
   1000012    876.64498
   1000013    880.39368
   2000013    4899.1155
   1000014    876.64462
   1000015    906.70142
   2000015    4580.7653
   1000016    903.2112
   1000021    4509.3558
   1000022   -579.11254
   1000023   -753.47527
   1000025    1576.7846
   1000035   -1577.6046
   1000024    753.6509
   1000037    1578.6108

BLOCK ALPHA
      -0.14153769

BLOCK HMIX Q=  3756.4885
   1    1551.2971
   2    6.6620404
   3    243.00289
   4    20224220

BLOCK STOPMIX
   1   1   -0.96914163
   1   2    0.24650456
   2   1   -0.24650456
   2   2   -0.96914163

BLOCK SBOTMIX
   1   1    0.0048445282
   1   2    0.99998827
   2   1   -0.99998827
   2   2    0.0048445282

BLOCK STAUMIX
   1   1    0.9999991
   1   2    0.0013392837
   2   1   -0.0013392837
   2   2    0.9999991

BLOCK NMIX
   1   1   -0.99950441
   1   2    0.0012509984
   1   3   -0.030600427
   1   4   -0.0072791358
   2   1    0.0032049378
   2   2    0.99804127
   2   3   -0.058977645
   2   4   -0.020615132
   3   1    0.016441277
   3   2   -0.027186751
   3   3   -0.70634906
   3   4    0.70715032
   4   1    0.026652387
   4   2   -0.056328797
   4   3   -0.70473843
   4   4   -0.70672516

BLOCK UMIX
   1   1   -0.9965138
   1   2    0.083428128
   2   1   -0.083428128
   2   2   -0.9965138

BLOCK VMIX
   1   1    0.99957214
   1   2    0.029249505
   2   1    0.029249505
   2   2   -0.99957214

BLOCK HIGGSBOUNDSINPUTHIGGSCOUPLINGSFERMIONS
       0, 44.382783,3,36,15,15

BLOCK HIGGSBOUNDSINPUTHIGGSCOUPLINGSBOSONS
       0,4,36,21,21,23

BLOCK SPHENOLOWENERGY
   1    0.00032446348
   2    1.5900398e-06
   3    3.5260645e-05
   4    2.6054674e-15
   5    1.1130261e-10
   6    2.330042e-08
   7    8.7673718e-14
   8    3.7454186e-09
   9    7.9444692e-07
   10    9.67932e-05
   11    0.9998367
   12    0.54205833
   13    19.36812
   14    0
   15    0
   16    0.0021575809
   17    2.281661e-15
   18    2.4804015e-11
   19    8.2915345e-11
   20   -1.0173091e-15
   21   -4.3493244e-11
   22   -1.2416797e-08
   23    0
   24    0
   25    0
   26    0
   27    0
   28    0
   29    0
   30    0
   31    0
   39   -0.00018008496
   40    0
   41    0
   42    0

BLOCK FWCOEF Q=  160
   305   4422   0   0   -0.18881911
   305   4422   0   2   -0.19338711
   305   4322   0   2   -9.5540844e-05
   305   6421   0   0   -0.095227835
   305   6421   0   2   -0.10045904
   305   6321   0   2   -0.00010631603
   3051111   4133   0   0    1.6240177
   3051111   4133   0   2    1.6241823
   3051111   4233   0   2    1.0120972e-05
   3051111   4137   0   0   -4.4467098
   3051111   4137   0   2   -4.4457547
   3051111   4237   0   2   -7.5301702e-05
   3051313   4133   0   0    1.6240177
   3051313   4133   0   2    1.6241823
   3051313   4233   0   2    1.0120971e-05
   3051313   4137   0   0   -4.4467098
   3051313   4137   0   2   -4.4457547
   3051313   4237   0   2   -7.5301703e-05
   3051212   4137   0   0    1.5053501
   3051212   4137   0   2    1.5051609
   3051212   4237   0   2    1.6293306e-05
   3051414   4137   0   0    1.5053501
   3051414   4137   0   2    1.5051609
   3051414   4237   0   2    1.6293306e-05
   3051616   4137   0   0    1.5053501
   3051616   4137   0   2    1.5051609
   3051616   4237   0   2    1.6293309e-05

BLOCK IMFWCOEF Q=  160
   305   4422   0   0    3.8581093e-07
   305   4422   0   2   -1.194643e-06
   305   4322   0   2   -5.2640866e-07
   305   6421   0   0    3.3047257e-07
   305   6421   0   2   -1.9286355e-06
   305   6321   0   2   -3.0421299e-07
   3051111   4133   0   2   -1.4903914e-07
   3051111   4233   0   2    1.9245568e-07
   3051111   4137   0   2   -3.0309044e-07
   3051111   4237   0   2   -1.4318135e-06
   3051313   4133   0   2   -1.4904789e-07
   3051313   4233   0   2    1.9245568e-07
   3051313   4137   0   2   -3.0308244e-07
   3051313   4237   0   2   -1.4318135e-06
   3051212   4137   0   2    3.8123775e-07
   3051212   4237   0   2    3.0980621e-07
   3051414   4137   0   2    3.8123774e-07
   3051414   4237   0   2    3.0980621e-07
   3051616   4137   0   2    3.8124177e-07
   3051616   4237   0   2    3.098062e-07

DECAY 23  2.4952


DECAY 24  2.085


DECAY 1000011  1.1806281
    0.46540936   2   -1000024    12
    0.29977136   2    1000022    11
    0.23481928   2    1000023    11

DECAY 2000011  23.92907
    0.99917942   2    1000022    11
    0.00058705676   2    1000035    11
    0.00022345197   2    1000025    11

DECAY 1000013  1.1806172
    0.46540835   2   -1000024    14
    0.2997731   2    1000022    13
    0.23481855   2    1000023    13

DECAY 2000013  23.931771
    0.99906647   2    1000022    13
    0.00061424743   2    1000035    13
    0.00025081359   2    1000025    13

DECAY 1000015  1.5362367
    0.49297874   2   -1000024    16
    0.25845613   2    1000022    15
    0.24856514   2    1000023    15

DECAY 2000015  23.160467
    0.96133374   2    1000022    15
    0.014426766   2   -1000037    16
    0.0077650589   2    1000035    15
    0.0074534695   2    1000025    15
    0.0044922401   2    1000016   -24
    0.002243337   2    1000015    23
    0.0021438539   2    1000015    25

DECAY 1000012  1.1374586
    0.46148319   2    1000024    11
    0.30866435   2    1000022    12
    0.22985246   2    1000023    12

DECAY 1000014  1.1374543
    0.46148287   2    1000024    13
    0.30866498   2    1000022    14
    0.22985215   2    1000023    14

DECAY 1000016  1.4929506
    0.4910555   2    1000024    15
    0.26452931   2    1000022    16
    0.24441519   2    1000023    16

DECAY 2000001  1.180746
    0.99963795   2    1000022    1
    0.00025516306   2    1000035    1

DECAY 1000001  29.306597
    0.6566431   2   -1000024    2
    0.32898002   2    1000023    1
    0.011422545   2    1000022    1
    0.0022151848   2   -1000037    2
    0.00059445158   2    1000035    1
    0.00014469997   2    1000025    1

DECAY 2000003  1.1808871
    0.99951843   2    1000022    3
    0.00028464053   2    1000035    3
    0.00012697121   2    1000025    3

DECAY 1000003  29.307081
    0.6566316   2   -1000024    4
    0.32897453   2    1000023    3
    0.01142236   2    1000022    3
    0.0022288254   2   -1000037    4
    0.00059611085   2    1000035    3
    0.00014637123   2    1000025    3

DECAY 1000005  2.337557
    0.66303517   2    1000022    5
    0.16363116   2   -1000037    6
    0.084235281   2    1000025    5
    0.083790541   2    1000035    5
    0.0035247471   2   -1000024    6
    0.0017830937   2    1000023    5

DECAY 2000005  91.86661
    0.52431474   2   -1000037    6
    0.30816365   2   -1000024    6
    0.15520027   2    1000023    5
    0.0052072857   2    1000022    5
    0.0035729435   2    1000035    5
    0.0032690434   2    1000025    5
    0.00017551747   2    1000005    25

DECAY 2000002  3.7772113
    0.99981754   2    1000022    2
    0.00012551021   2    1000035    2

DECAY 1000002  29.356172
    0.65915756   2    1000024    1
    0.32897367   2    1000023    2
    0.011081064   2    1000022    2
    0.00042268437   2    1000035    2
    0.00027142852   2    1000037    1

DECAY 2000004  3.7774268
    0.99975917   2    1000022    4
    0.00013984064   2    1000035    4

DECAY 1000004  29.356651
    0.65914675   2    1000024    3
    0.32896807   2    1000023    4
    0.011080875   2    1000022    4
    0.0004292207   2    1000035    4
    0.00027471592   2    1000037    3
    0.00010031605   2    1000025    4

DECAY 1000006  92.997907
    0.29321831   2    1000024    5
    0.26321795   2    1000025    6
    0.25330723   2    1000035    6
    0.14608684   2    1000023    6
    0.032271802   2    1000037    5
    0.010006774   2    1000022    6
    0.0017339769   3    1000022    24    5
    0.00015710573   2    1000005    24

DECAY 2000006  169.52568
    0.33090467   2    1000037    5
    0.17371303   2    1000035    6
    0.16853146   2    1000025    6
    0.11609581   2    2000005    24
    0.087209756   2    1000006    25
    0.064688185   2    1000006    23
    0.046949475   2    1000022    6
    0.007915444   2    1000024    5
    0.003962612   2    1000023    6

DECAY 1000024  0.00027478143
    0.97746987   2    1000022    24
    0.0082112317   3    1000022   -13    14
    0.0082111676   3    1000022   -11    12
    0.0060952373   3    1000022   -15    16

DECAY 1000037  8.4329087
    0.29661665   2    1000024    25
    0.28764087   2    1000023    24
    0.28078412   2    1000024    23
    0.10043488   2    1000022    24
    0.011104808   3    1000023   -5    6
    0.0066210519   3    1000024    6   -6
    0.0042954646   2    1000016   -15
    0.0038008022   3    1000022   -5    6
    0.0027222324   2   -1000013    14
    0.0027222276   2   -1000011    12
    0.002566659   2   -1000015    16
    0.00035204324   2    1000014   -13
    0.0003371813   2    1000012   -11

DECAY 1000022 -1


DECAY 1000023  0.00018115532
    0.70998131   2    1000022    25
    0.19742747   2    1000022    23
    0.047214321   3    1000022    12   -12
    0.016404192   3    1000022    13   -13
    0.016404028   3    1000022    11   -11
    0.012424645   3    1000022    15   -15

DECAY 1000025  12.241021
    0.29890036   2    1000023    25
    0.1946082   2    1000024   -24
    0.1946082   2   -1000024    24
    0.16083988   2    1000023    23
    0.082964097   2    1000022    25
    0.051014776   2    1000022    23
    0.0043659159   3    1000024    5   -6
    0.0043659159   3   -1000024   -5    6
    0.003037607   3    1000023    6   -6
    0.0013988821   2    1000015   -15
    0.0013988821   2   -1000015    15
    0.0012672488   3    1000022    6   -6
    0.00017508004   2    1000014   -14
    0.00017508004   2   -1000014    14
    0.00017507991   2    1000012   -12
    0.00017507991   2   -1000012    12
    0.00016557378   2    1000016   -16
    0.00016557378   2   -1000016    16

DECAY 1000035  8.4808047
    0.28453195   2    1000024   -24
    0.28453195   2   -1000024    24
    0.24221254   2    1000023    25
    0.067370419   2    1000022    25
    0.053622812   2    1000023    23
    0.027778941   2    1000022    23
    0.012081782   3    1000024    5   -6
    0.012081782   3   -1000024   -5    6
    0.0028181402   3    1000023    6   -6
    0.0022716168   2    1000015   -15
    0.0022716168   2   -1000015    15
    0.0012940692   3    1000022    6   -6
    0.00097402326   2    1000014   -14
    0.00097402326   2   -1000014    14
    0.00097402253   2    1000012   -12
    0.00097402253   2   -1000012    12
    0.00092121545   2    1000016   -16
    0.00092121545   2   -1000016    16
    0.0003511648   2    1000013   -13
    0.0003511648   2   -1000013    13
    0.0003438758   2    1000011   -11
    0.0003438758   2   -1000011    11

DECAY 1000021  630.8714
    0.067850006   2    2000004   -4
    0.067850006   2   -2000004    4
    0.067849996   2    2000002   -2
    0.067849996   2   -2000002    2
    0.05474514   2    2000003   -3
    0.05474514   2   -2000003    3
    0.054745129   2    2000001   -1
    0.054745129   2   -2000001    1
    0.04655677   2    1000004   -4
    0.04655677   2   -1000004    4
    0.046556763   2    1000002   -2
    0.046556763   2   -1000002    2
    0.046513987   2    1000003   -3
    0.046513987   2   -1000003    3
    0.046513974   2    1000001   -1
    0.046513974   2   -1000001    1
    0.03298313   2    1000005   -5
    0.03298313   2   -1000005    5
    0.016861721   2    1000006   -6
    0.016861721   2   -1000006    6
    0.014823647   2    2000005   -5
    0.014823647   2   -2000005    5
    0.0039896379   2    2000006   -6
    0.0039896379   2   -2000006    6

DECAY 25  0.003759279
    0.58555486   2   -5    5
    0.21499136   2   -24    24
    0.073324253   2    21    21
    0.067309948   2   -15    15
    0.029016433   2   -4    4
    0.025577484   2    23    23
    0.002344991   2    22    22
    0.0014264854   2    22    23
    0.00023344667   2   -13    13
    0.00021997687   2   -3    3
    6.0821376e-07   2   -1    1
    1.4953118e-07   2   -2    2
    5.2481513e-09   2   -11    11

DECAY 35  47.937816
    0.26558888   2   -1000024    1000037
    0.26558888   2   -1000037    1000024
    0.15091565   2    1000023    1000035
    0.11114728   2    1000023    1000025
    0.062804961   2   -6    6
    0.046288282   2    1000022    1000035
    0.043576312   2   -5    5
    0.032385487   2    1000022    1000025
    0.0090736239   2   -15    15
    0.0052006941   2   -1000024    1000024
    0.0025808338   2    1000023    1000023
    0.0014640163   2    1000025    1000035
    0.0014189446   2    1000022    1000023
    0.00095706631   2    1000035    1000035
    0.00049219719   2   -1000037    1000037
    0.0001937754   2    1000022    1000022
    0.00014179599   2    1000025    1000025
    6.2250976e-05   2    25    25
    3.1403708e-05   2   -13    13
    1.6617646e-05   2   -3    3
    9.1671156e-06   2    21    21
    6.8974969e-06   2   -1000002    1000002
    6.8971678e-06   2   -1000004    1000004
    5.9339751e-06   2    23    23
    5.4936806e-06   2   -2000004    1000004
    5.4936806e-06   2   -1000004    2000004
    2.6779522e-06   2   -1000015    1000015
    2.2448509e-06   2   -1000011    1000011
    2.2442468e-06   2   -1000013    1000013
    1.098315e-06   2   -24    24
    7.382296e-07   2   -4    4
    9.2747642e-08   2   -1000001    1000001
    9.2708009e-08   2   -1000003    1000003
    4.5944647e-08   2   -1    1
    2.8964049e-08   2    22    23
    1.2872235e-08   2    22    22
    7.0521704e-10   2   -11    11
    2.1288088e-11   2   -2000002    1000002
    2.1288088e-11   2   -1000002    2000002
    3.8045844e-12   2   -2    2

DECAY 36  47.642953
    0.26768687   2   -1000024    1000037
    0.26768687   2   -1000037    1000024
    0.15352826   2    1000023    1000025
    0.11056618   2    1000023    1000035
    0.058766218   2   -6    6
    0.047056356   2    1000022    1000025
    0.042307235   2   -5    5
    0.032221189   2    1000022    1000035
    0.0088093113   2   -15    15
    0.0047958113   2   -1000024    1000024
    0.0023778154   2    1000023    1000023
    0.0013143468   2    1000022    1000023
    0.001038252   2    1000035    1000035
    0.00092553032   2    1000025    1000035
    0.00048493098   2    1000025    1000025
    0.00018156261   2    1000022    1000022
    0.00016199039   2   -1000037    1000037
    3.0488913e-05   2   -13    13
    1.8385875e-05   2    21    21
    1.6135608e-05   2   -3    3
    1.4422625e-05   2    23    25
    5.5301941e-06   2   -2000004    1000004
    5.5301941e-06   2   -1000004    2000004
    6.8238192e-07   2   -4    4
    4.461218e-08   2   -1    1
    3.474029e-08   2    22    23
    2.2593428e-08   2    22    22
    6.8467373e-10   2   -11    11
    2.1429578e-11   2   -2000002    1000002
    2.1429578e-11   2   -1000002    2000002
    3.516816e-12   2   -2    2
    1.253503e-35   2    25    25

DECAY 37  48.344623
    0.26781627   2    1000023    1000037
    0.26443506   2    1000024    1000025
    0.26412839   2    1000024    1000035
    0.11393136   2   -5    6
    0.076327679   2    1000022    1000037
    0.0091835521   2   -15    16
    0.0026847195   2    1000022    1000024
    0.00085266081   2    1000025    1000037
    0.00037838588   2    1000035    1000037
    0.00010164275   2   -3    6
    6.3287346e-05   2   -5    4
    3.2467123e-05   2   -13    14
    1.5991023e-05   2   -3    4
    1.4222468e-05   2    24    25
    9.2989065e-06   2   -1000015    1000016
    8.7459257e-06   2   -1000011    1000012
    8.745086e-06   2   -1000013    1000014
    4.6607699e-06   2   -1    6
    1.4943884e-06   2   -2000003    1000004
    7.0983752e-07   2   -3    2
    4.5192683e-07   2   -5    2
    7.9949037e-08   2   -2000001    1000004
    4.4407917e-08   2   -1    4
    4.1872277e-08   2   -1    2
    3.8825888e-08   2    1000023    1000024
    7.5940938e-10   2   -11    12
    7.8515465e-12   2   -2000001    1000002
    7.6041391e-13   2   -1000003    1000004
    4.1985689e-13   2   -2000003    1000002
    1.1269791e-16   2   -1000001    1000004
    2.1364251e-19   2   -1000003    1000002
    1.1067707e-20   2   -1000001    1000002

DECAY 6  2.43
    1   2    5    24

DECAY 15 -1
