# SUSY Les Houches Accord 2 - MSSM spectrum + Decays
# SPheno v4.0.5be
# W. Porod, Comput. Phys. Commun. 153 (2003) 275-315, hep-ph/0301101;
# W. Porod, F.~Staub, Comput. Phys. Commun. 183 (2012) 2458
#                     arXiv:1104.1573 [hep-ph] 
# in case of problems send email to porod@physik.uni-wuerzburg.de
# Created: 12.05.2022,  15:35
Block SPINFO         # Program information
     1   SPheno      # spectrum calculator
     2   v4.0.5be    # version number
#
Block SPhenoINFO     # SPheno specific information
    1      2         # using 2-loop RGEs
    2      2         # using pole masses for boundary conditions at mZ
Block MODSEL  # Model selection
    1    0    # general MSSM
Block MINPAR  # Input parameters
    3    1.07662063E+01  # tanb at m_Z    
    4    1.00000000E+00  # Sign(mu)
Block EXTPAR  # non-universal input parameters
    0    4.01948468E+03  # scale for input parameters
    1    1.11745633E+02  # M_1
    2    4.36304676E+02  # M_2
    3    4.03353162E+03  # M_3
   11   -4.84213493E+03  # A_t
   12   -3.90325907E+02  # A_b
   13   -9.56270461E+02  # A_tau
   23    1.69894812E+03  # mu
   25    1.02432785E+01  # tan(beta)
   26    3.27951960E+03  # m_A, pole mass
   31    1.00000000E+04  # M_L11
   32    1.00000000E+04  # M_L22
   33    1.00000000E+04  # M_L33
   34    1.00000000E+04  # M_E11
   35    1.00000000E+04  # M_E22
   36    1.00000000E+04  # M_E33
   41    1.00000000E+04  # M_Q11
   42    1.00000000E+04  # M_Q22
   43    3.74918313E+03  # M_Q33
   44    1.00000000E+04  # M_U11
   45    1.00000000E+04  # M_U22
   46    4.15088918E+03  # M_U33
   47    1.00000000E+04  # M_D11
   48    1.00000000E+04  # M_D22
   49    3.91395271E+03  # M_D33
Block SMINPUTS  # SM parameters
         1     1.27908970E+02  # alpha_em^-1(MZ)^MSbar
         2     1.16637870E-05  # G_mu [GeV^-2]
         3     1.18400000E-01  # alpha_s(MZ)^MSbar
         4     9.11876000E+01  # m_Z(pole)
         5     4.18000000E+00  # m_b(m_b), MSbar
         6     1.73200000E+02  # m_t(pole)
         7     1.77700000E+00  # m_tau(pole)
         8     0.00000000E+00  # m_nu_3
        11     5.10998930E-04  # m_e(pole)
        12     0.00000000E+00  # m_nu_1
        13     1.05658372E-01  # m_muon(pole)
        14     0.00000000E+00  # m_nu_2
        21     5.00000000E-03  # m_d(2 GeV), MSbar
        22     2.50000000E-03  # m_u(2 GeV), MSbar
        23     9.50000000E-02  # m_s(2 GeV), MSbar
        24     1.27000000E+00  # m_c(m_c), MSbar
Block gauge Q=  4.01948468E+03  # (SUSY scale)
   1    3.55362975E-01  # g'(Q)^DRbar
   2    6.65198874E-01  # g(Q)^DRbar
   3    1.21977796E+00  # g3(Q)^DRbar
Block Yu Q=  4.01948468E+03  # (SUSY scale)
  1  1     8.42423160E-06   # Y_u(Q)^DRbar
  2  2     4.27950965E-03   # Y_c(Q)^DRbar
  3  3     1.01771484E+00   # Y_t(Q)^DRbar
Block Yd Q=  4.01948468E+03  # (SUSY scale)
  1  1     1.73400173E-04   # Y_d(Q)^DRbar
  2  2     3.29460329E-03   # Y_s(Q)^DRbar
  3  3     1.71958636E-01   # Y_b(Q)^DRbar
Block Ye Q=  4.01948468E+03  # (SUSY scale)
  1  1     3.02595982E-05   # Y_e(Q)^DRbar
  2  2     6.25672520E-03   # Y_mu(Q)^DRbar
  3  3     1.05227825E-01   # Y_tau(Q)^DRbar
Block Au Q=  4.01948468E+03  # (SUSY scale)
  1  1     0.00000000E+00   # A_u(Q)^DRbar
  2  2     0.00000000E+00   # A_c(Q)^DRbar
  3  3    -4.84213935E+03   # A_t(Q)^DRbar
Block Ad Q=  4.01948468E+03  # (SUSY scale)
  1  1     0.00000000E+00   # A_d(Q)^DRbar
  2  2     0.00000000E+00   # A_s(Q)^DRbar
  3  3    -3.90325650E+02   # A_b(Q)^DRbar
Block Ae Q=  4.01948468E+03  # (SUSY scale)
  1  1     0.00000000E+00   # A_e(Q)^DRbar
  2  2     0.00000000E+00   # A_mu(Q)^DRbar
  3  3    -9.56270153E+02   # A_tau(Q)^DRbar
Block MSOFT Q=  4.01948468E+03  # soft SUSY breaking masses at Q
   1    1.11745633E+02  # M_1
   2    4.36304676E+02  # M_2
   3    4.03353162E+03  # M_3
  21    7.69937863E+06  # M^2_(H,d)
  22   -2.47046799E+06  # M^2_(H,u)
  31    1.00000000E+04  # M_(L,11)
  32    1.00000000E+04  # M_(L,22)
  33    1.00000000E+04  # M_(L,33)
  34    1.00000000E+04  # M_(E,11)
  35    1.00000000E+04  # M_(E,22)
  36    1.00000000E+04  # M_(E,33)
  41    1.00000000E+04  # M_(Q,11)
  42    1.00000000E+04  # M_(Q,22)
  43    3.74918313E+03  # M_(Q,33)
  44    1.00000000E+04  # M_(U,11)
  45    1.00000000E+04  # M_(U,22)
  46    4.15088918E+03  # M_(U,33)
  47    1.00000000E+04  # M_(D,11)
  48    1.00000000E+04  # M_(D,22)
  49    3.91395271E+03  # M_(D,33)
Block MASS  # Mass spectrum
#   PDG code      mass          particle
         6     1.73200000E+02  # m_t(pole)
        23     9.11876000E+01  # m_Z(pole)
        24     8.04299946E+01  # W+
        15     1.77700000E+00  # m_tau(pole)
        25     1.24677858E+02  # h0
        35     3.27933840E+03  # H0
        36     3.27951960E+03  # A0
        37     3.28074317E+03  # H+
   1000001     1.01031767E+04  # ~d_L
   2000001     1.00785449E+04  # ~d_R
   1000002     1.01028181E+04  # ~u_L
   2000002     1.00813738E+04  # ~u_R
   1000003     1.01031771E+04  # ~s_L
   2000003     1.00785451E+04  # ~s_R
   1000004     1.01028185E+04  # ~c_L
   2000004     1.00813744E+04  # ~c_R
   1000005     3.86375467E+03  # ~b_1
   2000005     4.05627150E+03  # ~b_2
   1000006     3.84247174E+03  # ~t_1
   2000006     4.20465215E+03  # ~t_2
   1000011     1.00211776E+04  # ~e_L-
   2000011     1.00091760E+04  # ~e_R-
   1000012     1.00204176E+04  # ~nu_eL
   1000013     1.00211790E+04  # ~mu_L-
   2000013     1.00091766E+04  # ~mu_R-
   1000014     1.00204183E+04  # ~nu_muL
   1000015     1.00093358E+04  # ~tau_1-
   2000015     1.00215951E+04  # ~tau_2-
   1000016     1.00206132E+04  # ~nu_tauL
   1000021     4.51676804E+03  # ~g
   1000022     1.11753681E+02  # ~chi_10
   1000023     4.76363943E+02  # ~chi_20
   1000025     1.72264235E+03  # ~chi_30
   1000035     1.72466663E+03  # ~chi_40
   1000024     4.76480529E+02  # ~chi_1+
   1000037     1.72503855E+03  # ~chi_2+
# Higgs mixing
Block alpha # Effective Higgs mixing angle
          -9.28107495E-02   # alpha
Block Hmix Q=  4.01948468E+03  # Higgs mixing parameters
   1    1.69894812E+03  # mu
   2    1.02432785E+01  # tan[beta](Q)
   3    2.42939941E+02  # v(Q)
   4    1.07552488E+07  # m^2_A(Q)
Block stopmix # stop mixing matrix
   1  1     9.69229287E-01   # Re[R_st(1,1)]
   1  2     2.46159681E-01   # Re[R_st(1,2)]
   2  1    -2.46159681E-01   # Re[R_st(2,1)]
   2  2     9.69229287E-01   # Re[R_st(2,2)]
Block sbotmix # sbottom mixing matrix
   1  1     9.99691704E-01   # Re[R_sb(1,1)]
   1  2     2.48293578E-02   # Re[R_sb(1,2)]
   2  1    -2.48293578E-02   # Re[R_sb(2,1)]
   2  2     9.99691704E-01   # Re[R_sb(2,2)]
Block staumix # stau mixing matrix
   1  1     1.35894063E-01   # Re[R_sta(1,1)]
   1  2     9.90723374E-01   # Re[R_sta(1,2)]
   2  1    -9.90723374E-01   # Re[R_sta(2,1)]
   2  2     1.35894063E-01   # Re[R_sta(2,2)]
Block Nmix # neutralino mixing matrix
   1  1     9.99646531E-01   # Re[N(1,1)]
   1  2    -1.47510804E-03   # Re[N(1,2)]
   1  3     2.61956034E-02   # Re[N(1,3)]
   1  4    -4.29265499E-03   # Re[N(1,4)]
   2  1    -2.88433463E-03   # Re[N(2,1)]
   2  2    -9.98534920E-01   # Re[N(2,2)]
   2  3     5.08411667E-02   # Re[N(2,3)]
   2  4    -1.82994379E-02   # Re[N(2,4)]
   3  1     1.54406923E-02   # Re[N(3,1)]
   3  2    -2.30515297E-02   # Re[N(3,2)]
   3  3    -7.06423782E-01   # Re[N(3,3)]
   3  4    -7.07245114E-01   # Re[N(3,4)]
   4  1    -2.14494313E-02   # Re[N(4,1)]
   4  2     4.89332615E-02   # Re[N(4,2)]
   4  3     7.05474596E-01   # Re[N(4,3)]
   4  4    -7.06718510E-01   # Re[N(4,4)]
Block Umix # chargino mixing matrix
   1  1    -9.97409253E-01   # Re[U(1,1)]
   1  2     7.19359615E-02   # Re[U(1,2)]
   2  1     7.19359615E-02   # Re[U(2,1)]
   2  2     9.97409253E-01   # Re[U(2,2)]
Block Vmix # chargino mixing matrix
   1  1    -9.99661606E-01   # Re[V(1,1)]
   1  2     2.60129449E-02   # Re[V(1,2)]
   2  1     2.60129449E-02   # Re[V(2,1)]
   2  2     9.99661606E-01   # Re[V(2,2)]
DECAY        23     2.49520000E+00   # Z
DECAY        24     2.08500000E+00   # W
DECAY   2000011     5.02778690E+01   # ~e^-_R
#    BR                NDA      ID1      ID2
     9.99333854E-01    2     1000022        11   # BR(~e^-_R -> chi^0_1 e^-)
     2.24567004E-04    2     1000025        11   # BR(~e^-_R -> chi^0_3 e^-)
     4.33291359E-04    2     1000035        11   # BR(~e^-_R -> chi^0_4 e^-)
DECAY   1000011     1.44284130E+02   # ~e^-_L
#    BR                NDA      ID1      ID2
     8.66816269E-02    2     1000022        11   # BR(~e^-_L -> chi^0_1 e^-)
     3.04371693E-01    2     1000023        11   # BR(~e^-_L -> chi^0_2 e^-)
     4.04260080E-04    2     1000035        11   # BR(~e^-_L -> chi^0_4 e^-)
     6.05500142E-01    2    -1000024        12   # BR(~e^-_L -> chi^-_1 nu_e)
     2.97919165E-03    2    -1000037        12   # BR(~e^-_L -> chi^-_2 nu_e)
#    BR                NDA      ID1      ID2       ID3
DECAY   2000013     5.02925539E+01   # ~mu^-_R
#    BR                NDA      ID1      ID2
     9.99042225E-01    2     1000022        13   # BR(~mu^-_R -> chi^0_1 mu^-)
     2.97334464E-04    2     1000025        13   # BR(~mu^-_R -> chi^0_3 mu^-)
     5.05792243E-04    2     1000035        13   # BR(~mu^-_R -> chi^0_4 mu^-)
     1.45169404E-04    2    -1000037        14   # BR(~mu^-_R -> chi^-_2 nu_mu)
DECAY   1000013     1.44291501E+02   # ~mu^-_L
#    BR                NDA      ID1      ID2
     8.66772480E-02    2     1000022        13   # BR(~mu^-_L -> chi^0_1 mu^-)
     3.04356325E-01    2     1000023        13   # BR(~mu^-_L -> chi^0_2 mu^-)
     4.29587998E-04    2     1000035        13   # BR(~mu^-_L -> chi^0_4 mu^-)
     6.05469295E-01    2    -1000024        14   # BR(~mu^-_L -> chi^-_1 nu_mu)
     2.97903992E-03    2    -1000037        14   # BR(~mu^-_L -> chi^-_2 nu_mu)
#    BR                NDA      ID1      ID2       ID3
DECAY   1000015     5.61501641E+01   # ~tau^-_1
#    BR                NDA      ID1      ID2
     8.83109395E-01    2     1000022        15   # BR(~tau^-_1 -> chi^0_1 tau^-)
     1.69195318E-02    2     1000023        15   # BR(~tau^-_1 -> chi^0_2 tau^-)
     1.76689129E-02    2     1000025        15   # BR(~tau^-_1 -> chi^0_3 tau^-)
     1.69046010E-02    2     1000035        15   # BR(~tau^-_1 -> chi^0_4 tau^-)
     3.36715816E-02    2    -1000024        16   # BR(~tau^-_1 -> chi^-_1 nu_tau)
     3.17259774E-02    2    -1000037        16   # BR(~tau^-_1 -> chi^-_2 nu_tau)
DECAY   2000015     1.44649055E+02   # ~tau^-_2
#    BR                NDA      ID1      ID2
     9.10450267E-02    2     1000022        15   # BR(~tau^-_2 -> chi^0_1 tau^-)
     2.97121892E-01    2     1000023        15   # BR(~tau^-_2 -> chi^0_2 tau^-)
     7.61880122E-03    2     1000025        15   # BR(~tau^-_2 -> chi^0_3 tau^-)
     8.28846919E-03    2     1000035        15   # BR(~tau^-_2 -> chi^0_4 tau^-)
     5.90989721E-01    2    -1000024        16   # BR(~tau^-_2 -> chi^-_1 nu_tau)
     4.93608971E-03    2    -1000037        16   # BR(~tau^-_2 -> chi^-_2 nu_tau)
#    BR                NDA      ID1      ID2       ID3
DECAY   1000012     1.44287933E+02   # ~nu_e
#    BR                NDA      ID1      ID2
     8.76357111E-02    2     1000022        12   # BR(~nu_e -> chi^0_1 nu_e)
     3.02467613E-01    2     1000023        12   # BR(~nu_e -> chi^0_2 nu_e)
     2.82031517E-04    2     1000025        12   # BR(~nu_e -> chi^0_3 nu_e)
     1.04977943E-03    2     1000035        12   # BR(~nu_e -> chi^0_4 nu_e)
     6.08175337E-01    2     1000024        11   # BR(~nu_e -> chi^+_1 e^-)
     3.89527650E-04    2     1000037        11   # BR(~nu_e -> chi^+_2 e^-)
#    BR                NDA      ID1      ID2       ID3
DECAY   1000014     1.44295293E+02   # ~nu_mu
#    BR                NDA      ID1      ID2
     8.76312470E-02    2     1000022        14   # BR(~nu_mu -> chi^0_1 nu_mu)
     3.02452206E-01    2     1000023        14   # BR(~nu_mu -> chi^0_2 nu_mu)
     2.82017153E-04    2     1000025        14   # BR(~nu_mu -> chi^0_3 nu_mu)
     1.04972597E-03    2     1000035        14   # BR(~nu_mu -> chi^0_4 nu_mu)
     6.08144635E-01    2     1000024        13   # BR(~nu_mu -> chi^+_1 mu^-)
     4.40168675E-04    2     1000037        13   # BR(~nu_mu -> chi^+_2 mu^-)
#    BR                NDA      ID1      ID2       ID3
DECAY   1000016     1.46369919E+02   # ~nu_tau
#    BR                NDA      ID1      ID2
     8.63908557E-02    2     1000022        16   # BR(~nu_tau -> chi^0_1 nu_tau)
     2.98171145E-01    2     1000023        16   # BR(~nu_tau -> chi^0_2 nu_tau)
     2.78025950E-04    2     1000025        16   # BR(~nu_tau -> chi^0_3 nu_tau)
     1.03486989E-03    2     1000035        16   # BR(~nu_tau -> chi^0_4 nu_tau)
     5.99613796E-01    2     1000024        15   # BR(~nu_tau -> chi^+_1 tau^-)
     1.45113070E-02    2     1000037        15   # BR(~nu_tau -> chi^+_2 tau^-)
#    BR                NDA      ID1      ID2       ID3
DECAY   2000001     5.13692057E+02   # ~d_R
#    BR                NDA      ID1      ID2
     1.09431688E-02    2     1000022         1   # BR(~d_R -> chi^0_1 d)
     9.89049509E-01    2     1000021         1   # BR(~d_R -> ~g d)
DECAY   1000001     6.44748914E+02   # ~d_L
#    BR                NDA      ID1      ID2
     2.22138579E-03    2     1000022         1   # BR(~d_L -> chi^0_1 d)
     6.83938394E-02    2     1000023         1   # BR(~d_L -> chi^0_2 d)
     1.80919611E-04    2     1000035         1   # BR(~d_L -> chi^0_4 d)
     1.36619660E-01    2    -1000024         2   # BR(~d_L -> chi^-_1 u)
     6.72812859E-04    2    -1000037         2   # BR(~d_L -> chi^-_2 u)
     7.91868094E-01    2     1000021         1   # BR(~d_L -> ~g d)
DECAY   2000003     5.13696169E+02   # ~s_R
#    BR                NDA      ID1      ID2
     1.09430843E-02    2     1000022         3   # BR(~s_R -> chi^0_1 s)
     9.89041632E-01    2     1000021         3   # BR(~s_R -> ~g s)
DECAY   1000003     6.44754480E+02   # ~s_L
#    BR                NDA      ID1      ID2
     2.22136901E-03    2     1000022         3   # BR(~s_L -> chi^0_1 s)
     6.83932602E-02    2     1000023         3   # BR(~s_L -> chi^0_2 s)
     1.82501289E-04    2     1000035         3   # BR(~s_L -> chi^0_4 s)
     1.36618484E-01    2    -1000024         4   # BR(~s_L -> chi^-_1 c)
     6.78190548E-04    2    -1000037         4   # BR(~s_L -> chi^-_2 c)
     7.91861320E-01    2     1000021         3   # BR(~s_L -> ~g s)
DECAY   1000005     1.02146579E+02   # ~b_1
#    BR                NDA      ID1      ID2
     5.42169641E-03    2     1000022         5   # BR(~b_1 -> chi^0_1 b)
     1.60931987E-01    2     1000023         5   # BR(~b_1 -> chi^0_2 b)
     7.15803011E-03    2     1000025         5   # BR(~b_1 -> chi^0_3 b)
     7.31858009E-03    2     1000035         5   # BR(~b_1 -> chi^0_4 b)
     3.20247049E-01    2    -1000024         6   # BR(~b_1 -> chi^-_1 t)
     4.98922658E-01    2    -1000037         6   # BR(~b_1 -> chi^-_2 t)
DECAY   2000005     5.57600047E+00   # ~b_2
#    BR                NDA      ID1      ID2
     4.04519464E-01    2     1000022         5   # BR(~b_2 -> chi^0_1 b)
     1.26563836E-04    2     1000023         5   # BR(~b_2 -> chi^0_2 b)
     1.44413228E-01    2     1000025         5   # BR(~b_2 -> chi^0_3 b)
     1.44744011E-01    2     1000035         5   # BR(~b_2 -> chi^0_4 b)
     2.41869275E-04    2    -1000024         6   # BR(~b_2 -> chi^-_1 t)
     2.97785853E-01    2    -1000037         6   # BR(~b_2 -> chi^-_2 t)
     4.05573592E-03    2     1000006       -24   # BR(~b_2 -> ~t_1 W^-)
     1.36361309E-03    2     1000005        23   # BR(~b_2 -> ~b_1 Z)
     2.74966125E-03    2     1000005        25   # BR(~b_2 -> ~b_1 h^0)
DECAY   2000002     5.30859830E+02   # ~u_R
#    BR                NDA      ID1      ID2
     4.23689809E-02    2     1000022         2   # BR(~u_R -> chi^0_1 u)
     9.57602752E-01    2     1000021         2   # BR(~u_R -> ~g u)
DECAY   1000002     6.44731248E+02   # ~u_L
#    BR                NDA      ID1      ID2
     2.14894245E-03    2     1000022         2   # BR(~u_L -> chi^0_1 u)
     6.85341287E-02    2     1000023         2   # BR(~u_L -> chi^0_2 u)
     1.32310616E-04    2     1000035         2   # BR(~u_L -> chi^0_4 u)
     1.37236233E-01    2     1000024         1   # BR(~u_L -> chi^+_1 d)
     7.91833600E-01    2     1000021         2   # BR(~u_L -> ~g u)
DECAY   2000004     5.30866783E+02   # ~c_R
#    BR                NDA      ID1      ID2
     4.23684269E-02    2     1000022         4   # BR(~c_R -> chi^0_1 c)
     9.57590266E-01    2     1000021         4   # BR(~c_R -> ~g c)
DECAY   1000004     6.44736783E+02   # ~c_L
#    BR                NDA      ID1      ID2
     2.14892411E-03    2     1000022         4   # BR(~c_L -> chi^0_1 c)
     6.85335421E-02    2     1000023         4   # BR(~c_L -> chi^0_2 c)
     1.34999030E-04    2     1000035         4   # BR(~c_L -> chi^0_4 c)
     1.37235077E-01    2     1000024         3   # BR(~c_L -> chi^+_1 s)
     7.91826817E-01    2     1000021         4   # BR(~c_L -> ~g c)
DECAY   1000006     1.01153807E+02   # ~t_1
#    BR                NDA      ID1      ID2
     1.04099084E-02    2     1000022         6   # BR(~t_1 -> chi^0_1 t)
     1.54506399E-01    2     1000023         6   # BR(~t_1 -> chi^0_2 t)
     2.44486149E-01    2     1000025         6   # BR(~t_1 -> chi^0_3 t)
     2.37934119E-01    2     1000035         6   # BR(~t_1 -> chi^0_4 t)
     3.10628056E-01    2     1000024         5   # BR(~t_1 -> chi^+_1 b)
     3.95716381E-02    2     1000037         5   # BR(~t_1 -> chi^+_2 b)
#    BR                NDA      ID1      ID2       ID3
     2.46062613E-03    3     1000022        24         5   # BR(~t_1 -> chi^0_1 W^+ b)
DECAY   2000006     1.52711702E+02   # ~t_2
#    BR                NDA      ID1      ID2
     5.73751723E-02    2     1000022         6   # BR(~t_2 -> chi^0_1 t)
     5.08032434E-03    2     1000023         6   # BR(~t_2 -> chi^0_2 t)
     1.97322606E-01    2     1000025         6   # BR(~t_2 -> chi^0_3 t)
     2.02742755E-01    2     1000035         6   # BR(~t_2 -> chi^0_4 t)
     1.01746113E-02    2     1000024         5   # BR(~t_2 -> chi^+_1 b)
     3.72288579E-01    2     1000037         5   # BR(~t_2 -> chi^+_2 b)
     6.92993459E-02    2     1000005        24   # BR(~t_2 -> ~b_1 W^+)
     3.82747901E-02    2     1000006        23   # BR(~t_2 -> ~t_1 Z)
     4.74393693E-02    2     1000006        25   # BR(~t_2 -> ~t_1 h^0)
DECAY   1000024     6.14589126E-04   # chi^+_1
#    BR                NDA      ID1      ID2
     9.97085043E-01    2     1000022        24   # BR(chi^+_1 -> chi^0_1 W^+)
#    BR                NDA      ID1      ID2       ID3
     2.91120871E-03    3     1000022        -5         6   # BR(chi^+_1 -> chi^0_1 b_bar t)
DECAY   1000037     1.36066412E+01   # chi^+_2
#    BR                NDA      ID1      ID2
     8.77771845E-02    2     1000022        24   # BR(chi^+_2 -> chi^0_1 W^+)
     2.95436026E-01    2     1000023        24   # BR(chi^+_2 -> chi^0_2 W^+)
     2.93541448E-01    2     1000024        23   # BR(chi^+_2 -> chi^+_1 Z)
     2.97850974E-01    2     1000024        25   # BR(chi^+_2 -> chi^+_1 h^0)
#    BR                NDA      ID1      ID2       ID3
     1.27463035E-02    3     1000024         6        -6   # BR(chi^+_2 -> chi^+_1 t t_bar)
     2.89556396E-03    3     1000022        -5         6   # BR(chi^+_2 -> chi^0_1 b_bar t)
     9.74932868E-03    3     1000023        -5         6   # BR(chi^+_2 -> chi^0_2 b_bar t)
DECAY   1000022     0.00000000E+00   # chi^0_1
DECAY   1000023     5.27416188E-04   # chi^0_2
#    BR                NDA      ID1      ID2
     9.70603195E-02    2     1000022        23   # BR(chi^0_2 -> chi^0_1 Z)
     9.02919940E-01    2     1000022        25   # BR(chi^0_2 -> chi^0_1 h^0)
#    BR                NDA      ID1      ID2       ID3
DECAY   1000025     1.52681379E+01   # chi^0_3
#    BR                NDA      ID1      ID2
     2.63960613E-01    2     1000024       -24   # BR(chi^0_3 -> chi^+_1 W^-)
     2.63960613E-01    2    -1000024        24   # BR(chi^0_3 -> chi^-_1 W^+)
     5.22450648E-02    2     1000022        23   # BR(chi^0_3 -> chi^0_1 Z)
     2.15324285E-01    2     1000023        23   # BR(chi^0_3 -> chi^0_2 Z)
     3.25180982E-02    2     1000022        25   # BR(chi^0_3 -> chi^0_1 h^0)
     1.50388636E-01    2     1000023        25   # BR(chi^0_3 -> chi^0_2 h^0)
#    BR                NDA      ID1      ID2       ID3
     1.67908545E-03    3     1000022         6        -6   # BR(chi^0_3 -> chi^0_1 t t_bar)
     4.28730568E-03    3     1000023         6        -6   # BR(chi^0_3 -> chi^0_2 t t_bar)
     7.79909563E-03    3     1000024         5        -6   # BR(chi^0_3 -> chi^+_1 b t_bar)
     7.79909563E-03    3    -1000024        -5         6   # BR(chi^0_3 -> chi^-_1 b_bar t)
DECAY   1000035     1.35277240E+01   # chi^0_4
#    BR                NDA      ID1      ID2
     2.95462747E-01    2     1000024       -24   # BR(chi^0_4 -> chi^+_1 W^-)
     2.95462747E-01    2    -1000024        24   # BR(chi^0_4 -> chi^-_1 W^+)
     3.04283007E-02    2     1000022        23   # BR(chi^0_4 -> chi^0_1 Z)
     5.37708144E-02    2     1000023        23   # BR(chi^0_4 -> chi^0_2 Z)
     5.30938347E-02    2     1000022        25   # BR(chi^0_4 -> chi^0_1 h^0)
     2.44846593E-01    2     1000023        25   # BR(chi^0_4 -> chi^0_2 h^0)
#    BR                NDA      ID1      ID2       ID3
     1.81351195E-03    3     1000022         6        -6   # BR(chi^0_4 -> chi^0_1 t t_bar)
     5.66001161E-03    3     1000023         6        -6   # BR(chi^0_4 -> chi^0_2 t t_bar)
     9.72717225E-03    3     1000024         5        -6   # BR(chi^0_4 -> chi^+_1 b t_bar)
     9.72717225E-03    3    -1000024        -5         6   # BR(chi^0_4 -> chi^-_1 b_bar t)
DECAY   1000021     2.58002662E+01   # ~g
#    BR                NDA      ID1      ID2
     1.66810696E-01    2     1000006        -6   # BR(~g -> ~t_1 t_bar)
     1.66810696E-01    2    -1000006         6   # BR(~g -> ~t^*_1 t)
     4.93114490E-02    2     2000006        -6   # BR(~g -> ~t_2 t_bar)
     4.93114490E-02    2    -2000006         6   # BR(~g -> ~t^*_2 t)
     1.86373506E-01    2     1000005        -5   # BR(~g -> ~b_1 b_bar)
     1.86373506E-01    2    -1000005         5   # BR(~g -> ~b^*_1 b)
     9.70659039E-02    2     2000005        -5   # BR(~g -> ~b_2 b_bar)
     9.70659039E-02    2    -2000005         5   # BR(~g -> ~b^*_2 b)
     2.28854626E-04    2     1000025        21   # BR(~g -> chi^0_3 g)
     2.22008417E-04    2     1000035        21   # BR(~g -> chi^0_4 g)
#    BR                NDA      ID1      ID2       ID3
DECAY        25     3.48291086E-03   # Gamma(h0)
     2.58620959E-03   2        22        22   # BR(h0 -> photon photon)
     1.62272644E-03   2        22        23   # BR(h0 -> photon Z)
     2.95868634E-02   2        23        23   # BR(h0 -> Z Z)
     2.45979638E-01   2       -24        24   # BR(h0 -> W W)
     8.02125282E-02   2        21        21   # BR(h0 -> gluon gluon)
     4.93265701E-09   2       -11        11   # BR(h0 -> Electron electron)
     2.19413241E-04   2       -13        13   # BR(h0 -> Muon muon)
     6.32644034E-02   2       -15        15   # BR(h0 -> Tau tau)
     1.40196445E-07   2        -2         2   # BR(h0 -> Up up)
     2.72091359E-02   2        -4         4   # BR(h0 -> Charm charm)
     5.71177123E-07   2        -1         1   # BR(h0 -> Down down)
     2.06581270E-04   2        -3         3   # BR(h0 -> Strange strange)
     5.49111784E-01   2        -5         5   # BR(h0 -> Bottom bottom)
DECAY        35     2.78487115E+01   # Gamma(HH)
     1.36768683E-07   2        22        22   # BR(HH -> photon photon)
     2.19912344E-07   2        22        23   # BR(HH -> photon Z)
     8.85126472E-06   2        23        23   # BR(HH -> Z Z)
     2.38160792E-06   2       -24        24   # BR(HH -> W W)
     4.46230751E-06   2        21        21   # BR(HH -> gluon gluon)
     1.87615754E-09   2       -11        11   # BR(HH -> Electron electron)
     8.35380421E-05   2       -13        13   # BR(HH -> Muon muon)
     2.41271410E-02   2       -15        15   # BR(HH -> Tau tau)
     2.28000142E-12   2        -2         2   # BR(HH -> Up up)
     4.42312484E-07   2        -4         4   # BR(HH -> Charm charm)
     3.09470170E-02   2        -6         6   # BR(HH -> Top top)
     1.33767944E-07   2        -1         1   # BR(HH -> Down down)
     4.83871692E-05   2        -3         3   # BR(HH -> Strange strange)
     1.22465170E-01   2        -5         5   # BR(HH -> Bottom bottom)
     4.25389612E-03   2  -1000024   1000024   # BR(HH -> Chargino1 chargino1)
     2.47578941E-01   2  -1000024   1000037   # BR(HH -> Chargino1 chargino2)
     2.47578941E-01   2  -1000037   1000024   # BR(HH -> Chargino2 chargino1)
     1.73559959E-04   2   1000022   1000022   # BR(HH -> neutralino1 neutralino1)
     1.22583692E-03   2   1000022   1000023   # BR(HH -> neutralino1 neutralino2)
     4.56482025E-02   2   1000022   1000025   # BR(HH -> neutralino1 neutralino3)
     2.82436181E-02   2   1000022   1000035   # BR(HH -> neutralino1 neutralino4)
     2.11297784E-03   2   1000023   1000023   # BR(HH -> neutralino2 neutralino2)
     1.68005305E-01   2   1000023   1000025   # BR(HH -> neutralino2 neutralino3)
     7.74518606E-02   2   1000023   1000035   # BR(HH -> neutralino2 neutralino4)
     3.89790292E-05   2        25        25   # BR(HH -> h0 h0)
DECAY        36     2.76602006E+01   # Gamma(A0)
     2.72812282E-07   2        22        22   # BR(A0 -> photon photon)
     3.59396521E-07   2        22        23   # BR(A0 -> photon Z)
     2.18885535E-05   2        21        21   # BR(A0 -> gluon gluon)
     1.83602782E-09   2       -11        11   # BR(A0 -> Electron electron)
     8.17505308E-05   2       -13        13   # BR(A0 -> Muon muon)
     2.36109096E-02   2       -15        15   # BR(A0 -> Tau tau)
     2.11372918E-12   2        -2         2   # BR(A0 -> Up up)
     4.10041613E-07   2        -4         4   # BR(A0 -> Charm charm)
     2.89529166E-02   2        -6         6   # BR(A0 -> Top top)
     1.30905935E-07   2        -1         1   # BR(A0 -> Down down)
     4.73516570E-05   2        -3         3   # BR(A0 -> Strange strange)
     1.19845319E-01   2        -5         5   # BR(A0 -> Bottom bottom)
     5.22793268E-03   2  -1000024   1000024   # BR(A0 -> Chargino1 chargino1)
     2.48627435E-01   2  -1000024   1000037   # BR(A0 -> Chargino1 chargino2)
     2.48627435E-01   2  -1000037   1000024   # BR(A0 -> Chargino2 chargino1)
     1.86165335E-04   2   1000022   1000022   # BR(A0 -> neutralino1 neutralino1)
     1.38111017E-03   2   1000022   1000023   # BR(A0 -> neutralino1 neutralino2)
     2.87005136E-02   2   1000022   1000025   # BR(A0 -> neutralino1 neutralino3)
     4.55909911E-02   2   1000022   1000035   # BR(A0 -> neutralino1 neutralino4)
     2.59738428E-03   2   1000023   1000023   # BR(A0 -> neutralino2 neutralino2)
     7.87552807E-02   2   1000023   1000025   # BR(A0 -> neutralino2 neutralino3)
     1.67728916E-01   2   1000023   1000035   # BR(A0 -> neutralino2 neutralino4)
     1.55251082E-05   2        23        25   # BR(A0 -> Z h0)
     6.64491885E-36   2        25        25   # BR(A0 -> h0 h0)
DECAY        37     2.87114787E+01   # Gamma(Hp)
     2.19029561E-09   2       -11        12   # BR(Hp -> Electron nu_e)
     9.36419782E-05   2       -13        14   # BR(Hp -> Muon nu_mu)
     2.64872794E-02   2       -15        16   # BR(Hp -> Tau nu_tau)
     1.36162916E-07   2        -1         2   # BR(Hp -> Down up)
     2.30084517E-06   2        -3         2   # BR(Hp -> Strange up)
     1.45500209E-06   2        -5         2   # BR(Hp -> Bottom up)
     2.93213476E-08   2        -1         4   # BR(Hp -> Down charm)
     4.95641679E-05   2        -3         4   # BR(Hp -> Strange charm)
     2.03753123E-04   2        -5         4   # BR(Hp -> Bottom charm)
     2.51423551E-06   2        -1         6   # BR(Hp -> Down top)
     5.48914699E-05   2        -3         6   # BR(Hp -> Strange top)
     1.75958651E-01   2        -5         6   # BR(Hp -> Bottom top)
     2.50763508E-03   2   1000022   1000024   # BR(Hp -> neutralino1 chargino1)
     7.03581731E-02   2   1000022   1000037   # BR(Hp -> neutralino1 chargino2)
     2.38174617E-08   2   1000023   1000024   # BR(Hp -> neutralino2 chargino1)
     2.42801563E-01   2   1000023   1000037   # BR(Hp -> neutralino2 chargino2)
     2.40887003E-01   2   1000024   1000025   # BR(Hp -> chargino1 neutralino3)
     2.40576402E-01   2   1000024   1000035   # BR(Hp -> chargino1 neutralino4)
     1.49812502E-05   2        24        25   # BR(Hp -> W h0)
     2.59384074E-13   2        24        35   # BR(Hp -> W HH)
     1.30040941E-13   2        24        36   # BR(Hp -> W A0)
DECAY         6     2.43000000E+00   # top
#    BR                NDA      ID1      ID2
     1.00000000E+00    2           5        24   # BR(t -> b W)
Block HiggsBoundsInputHiggsCouplingsFermions
# ScalarNormEffCoupSq PseudoSNormEffCoupSq NP IP1 IP2 IP2
    9.09801580E-01    0.00000000E+00        3  25   5   5  # h0-b-b eff. coupling^2, normalised to SM
    1.05014953E+02    0.00000000E+00        3  35   5   5  # H0-b-b eff. coupling^2, normalised to SM
    0.00000000E+00    1.04924754E+02        3  36   5   5  # A0-b-b eff. coupling^2, normalised to SM
#
    1.00085965E+00    0.00000000E+00        3  25   6   6  # h0-t-t eff. coupling^2, normalised to SM
    8.67099080E-03    0.00000000E+00        3  35   6   6  # H0-t-t eff. coupling^2, normalised to SM
    0.00000000E+00    9.53063941E-03        3  36   6   6  # A0-t-t eff. coupling^2, normalised to SM
#
    9.09801580E-01    0.00000000E+00        3  25  15  15  # h0-tau-tau eff. coupling^2, normalised to SM
    1.05014953E+02    0.00000000E+00        3  35  15  15  # H0-tau-tau eff. coupling^2, normalised to SM
    0.00000000E+00    1.04924754E+02        3  36  15  15  # A0-tau-tau eff. coupling^2, normalised to SM
#
Block HiggsBoundsInputHiggsCouplingsBosons
    9.99979697E-01        3  25  24  24  # h0-W-W eff. coupling^2, normalised to SM
    2.03026636E-05        3  35  24  24  # H0-W-W eff. coupling^2, normalised to SM
    0.00000000E+00        3  36  24  24  # A0-W-W eff. coupling^2, normalised to SM
#
    9.99979697E-01        3  25  23  23  # h0-Z-Z eff. coupling^2, normalised to SM
    2.03026636E-05        3  35  23  23  # H0-Z-Z eff. coupling^2, normalised to SM
    0.00000000E+00        3  36  23  23  # A0-Z-Z eff. coupling^2, normalised to SM
#
    1.27053245E+00        3  25  21  21  # h0-g-g eff. coupling^2, normalised to SM
    5.20377498E-03        3  35  21  21  # H0-g-g eff. coupling^2, normalised to SM
    1.19926294E-01        3  36  21  21  # A0-g-g eff. coupling^2, normalised to SM
#
    0.00000000E+00        3  25  25  23  # h0-h0-Z eff. coupling^2, normalised to SM
    0.00000000E+00        3  35  25  23  # H0-h0-Z eff. coupling^2, normalised to SM
    2.03026636E-05        3  36  25  23  # A0-h0-Z eff. coupling^2, normalised to SM
    0.00000000E+00        3  35  35  23  # H0-H0-Z eff. coupling^2, normalised to SM
    9.99979697E-01        3  36  35  23  # A0-H0-Z eff. coupling^2, normalised to SM
    0.00000000E+00        3  36  36  23  # A0-A0-Z eff. coupling^2, normalised to SM
#
    0.00000000E+00        4  25  21  21  23  # h0-g-g-Z eff. coupling^2, normalised to SM
    0.00000000E+00        4  35  21  21  23  # H0-g-g-Z eff. coupling^2, normalised to SM
    0.00000000E+00        4  36  21  21  23  # A0-g-g-Z eff. coupling^2, normalised to SM
Block SPhenoLowEnergy  # low energy observables
    1    3.23410610E-04   # BR(b -> s gamma)
    2    1.59023150E-06   # BR(b -> s mu+ mu-)
    3    3.52610986E-05   # BR(b -> s nu nu)
    4    2.56187447E-15   # BR(Bd -> e+ e-)
    5    1.09440354E-10   # BR(Bd -> mu+ mu-)
    6    2.29093945E-08   # BR(Bd -> tau+ tau-)
    7    8.62244401E-14   # BR(Bs -> e+ e-)
    8    3.68350486E-09   # BR(Bs -> mu+ mu-)
    9    7.81275081E-07   # BR(Bs -> tau+ tau-)
   10    9.67455895E-05   # BR(B_u -> tau nu)
   11    9.99344901E-01   # BR(B_u -> tau nu)/BR(B_u -> tau nu)_SM
   12    5.41940876E-01   # |Delta(M_Bd)| [ps^-1] 
   13    1.93636383E+01   # |Delta(M_Bs)| [ps^-1] 
   14    0.00000000E+00   # neutron EDM according to the chiral quark model
   15    0.00000000E+00   # neutron EDM according to the relativistic quark-parton model
   16    2.15709660E-03   # epsilon_K
   17    2.28165592E-15   # Delta(M_K)
   18    2.48051453E-11   # BR(K^0 -> pi^0 nu nu)
   19    8.29170582E-11   # BR(K^+ -> pi^+ nu nu)
   20    5.20770473E-17   # Delta(g-2)_electron/2
   21    2.22645696E-12   # Delta(g-2)_muon/2
   22    6.29835750E-10   # Delta(g-2)_tau/2
   23    0.00000000E+00   # electric dipole moment of the electron
   24    0.00000000E+00   # electric dipole moment of the muon
   25    0.00000000E+00   # electric dipole moment of the tau
   26    0.00000000E+00   # Br(mu -> e gamma)
   27    0.00000000E+00   # Br(tau -> e gamma)
   28    0.00000000E+00   # Br(tau -> mu gamma)
   29    0.00000000E+00   # Br(mu -> 3 e)
   30    0.00000000E+00   # Br(tau -> 3 e)
   31    0.00000000E+00   # Br(tau -> 3 mu)
   39   -3.18995171E-05   # Delta(rho_parameter)
   40    0.00000000E+00   # BR(Z -> e mu)
   41    0.00000000E+00   # BR(Z -> e tau)
   42    0.00000000E+00   # BR(Z -> mu tau)
Block FWCOEF Q=  1.60000000E+02  # Wilson coefficients at scale Q
#    id        order  M        value         comment
     0305 4422   00   0    -1.88819110E-01   # C7
     0305 4422   00   2    -1.91621327E-01   # C7
     0305 4322   00   2    -9.41570729E-05   # C7'
     0305 6421   00   0    -9.52278348E-02   # C8
     0305 6421   00   2    -1.01460091E-01   # C8
     0305 6321   00   2    -1.44538560E-04   # C8'
 03051111 4133   00   0     1.62639450E+00   # C9 e+e-
 03051111 4133   00   2     1.62661287E+00   # C9 e+e-
 03051111 4233   00   2     2.83656037E-05   # C9' e+e-
 03051111 4137   00   0    -4.44908661E+00   # C10 e+e-
 03051111 4137   00   2    -4.44825348E+00   # C10 e+e-
 03051111 4237   00   2    -2.09639111E-04   # C10' e+e-
 03051313 4133   00   0     1.62639450E+00   # C9 mu+mu-
 03051313 4133   00   2     1.62661285E+00   # C9 mu+mu-
 03051313 4233   00   2     2.83656020E-05   # C9' mu+mu-
 03051313 4137   00   0    -4.44908661E+00   # C10 mu+mu-
 03051313 4137   00   2    -4.44825349E+00   # C10 mu+mu-
 03051313 4237   00   2    -2.09639111E-04   # C10' mu+mu-
 03051212 4137   00   0     1.50535012E+00   # C11 nu_1 nu_1
 03051212 4137   00   2     1.50517172E+00   # C11 nu_1 nu_1
 03051212 4237   00   2     4.53341669E-05   # C11' nu_1 nu_1
 03051414 4137   00   0     1.50535012E+00   # C11 nu_2 nu_2
 03051414 4137   00   2     1.50517172E+00   # C11 nu_2 nu_2
 03051414 4237   00   2     4.53341672E-05   # C11' nu_2 nu_2
 03051616 4137   00   0     1.50535012E+00   # C11 nu_3 nu_3
 03051616 4137   00   2     1.50517172E+00   # C11 nu_3 nu_3
 03051616 4237   00   2     4.53342388E-05   # C11' nu_3 nu_3
Block IMFWCOEF Q=  1.60000000E+02  # Im(Wilson coefficients) at scale Q
#    id        order  M        value         comment
     0305 4422   00   0     3.85835379E-07   # C7
     0305 4422   00   2     2.74796883E-06   # C7
     0305 4322   00   2     3.94877362E-07   # C7'
     0305 6421   00   0     3.30493519E-07   # C8
     0305 6421   00   2    -1.62034925E-06   # C8
     0305 6321   00   2     1.13398721E-07   # C8'
 03051111 4133   00   2     4.92299905E-07   # C9 e+e-
 03051111 4233   00   2     5.53214881E-07   # C9' e+e-
 03051111 4137   00   2     1.88167151E-06   # C10 e+e-
 03051111 4237   00   2    -4.08939870E-06   # C10' e+e-
 03051313 4133   00   2     4.92299609E-07   # C9 mu+mu-
 03051313 4233   00   2     5.53214872E-07   # C9' mu+mu-
 03051313 4137   00   2     1.88167182E-06   # C10 mu+mu-
 03051313 4237   00   2    -4.08939873E-06   # C10' mu+mu-
 03051212 4137   00   2    -3.75511856E-07   # C11 nu_1 nu_1
 03051212 4237   00   2     8.84327961E-07   # C11' nu_1 nu_1
 03051414 4137   00   2    -3.75511841E-07   # C11 nu_2 nu_2
 03051414 4237   00   2     8.84327961E-07   # C11' nu_2 nu_2
 03051616 4137   00   2    -3.75507502E-07   # C11 nu_3 nu_3
 03051616 4237   00   2     8.84327959E-07   # C11' nu_3 nu_3
