BLOCK SPINFO
   1   SPheno
   2   v4.0.5be

BLOCK SPHENOINFO
   1   2
   2   2

BLOCK MODSEL
   1   0

BLOCK MINPAR
   3    31.130579
   4    1

BLOCK EXTPAR
   0    1541.4629
   1    154.37151
   2    209.31665
   3    3000
   11   -4111.7247
   12   -503.59575
   13   -240.84295
   23    1466.6698
   25    30.178404
   26    2711.9481
   31    1982.5285
   32    1982.5285
   33    730.13518
   34    266.22823
   35    266.22823
   36    1210.2287
   41    5000
   42    5000
   43    1337.9002
   44    5000
   45    5000
   46    1897.2927
   47    5000
   48    5000
   49    1288.089

BLOCK SMINPUTS
   1    127.90897
   2    1.1663787e-05
   3    0.1184
   4    91.1876
   5    4.18
   6    173.2
   7    1.777
   8    0
   11    0.00051099893
   12    0
   13    0.10565837
   14    0
   21    0.005
   22    0.0025
   23    0.095
   24    1.27

BLOCK GAUGE Q=  1541.4629
   1    0.35536298
   2    0.66519887
   3    1.219778

BLOCK YU Q=  1541.4629
   1   1    8.388974e-06
   2   2    0.0042615988
   3   3    1.0134554

BLOCK YD Q=  1541.4629
   1   1    0.00050872768
   2   2    0.0096658259
   3   3    0.50449844

BLOCK YE Q=  1541.4629
   1   1    8.87767e-05
   2   2    0.018356206
   3   3    0.30872119

BLOCK AU Q=  1541.4629
   1   1    0
   2   2    0
   3   3   -4111.7245

BLOCK AD Q=  1541.4629
   1   1    0
   2   2    0
   3   3   -503.5958

BLOCK AE Q=  1541.4629
   1   1    0
   2   2    0
   3   3   -240.84295

BLOCK MSOFT Q=  1541.4629
   1    154.37151
   2    209.31665
   3    3000
   21    5218718.6
   22   -2119986
   31    1982.5285
   32    1982.5285
   33    730.13518
   34    266.22823
   35    266.22823
   36    1210.2287
   41    5000
   42    5000
   43    1337.9002
   44    5000
   45    5000
   46    1897.2927
   47    5000
   48    5000
   49    1288.089

BLOCK MASS
   6    173.2
   23    91.1876
   24    80.429995
   15    1.777
   25    123.63149
   35    2710.4934
   36    2711.9481
   37    2712.7456
   1000001    5032.0519
   2000001    5021.209
   1000002    5031.611
   2000002    5022.4772
   1000003    5032.0568
   2000003    5021.2088
   1000004    5031.6129
   2000004    5022.4779
   1000005    1282.3564
   2000005    1354.7095
   1000006    1262.6546
   2000006    1881.8352
   1000011    1986.4841
   2000011    274.372
   1000012    1984.5445
   1000013    1986.4827
   2000013    274.37645
   1000014    1984.5415
   1000015    727.45379
   2000015    1213.3838
   1000016    727.71412
   1000021    3193.6828
   1000022    153.36517
   1000023    226.00951
   1000025   -1469.486
   1000035    1469.8914
   1000024    226.20705
   1000037    1472.1023

BLOCK ALPHA
      -0.032247832

BLOCK HMIX Q=  1541.4629
   1    1466.6698
   2    30.178404
   3    243.95818
   4    7354662.7

BLOCK STOPMIX
   1   1    0.95101419
   1   2    0.30914722
   2   1   -0.30914722
   2   2    0.95101419

BLOCK SBOTMIX
   1   1    0.54928849
   1   2    0.83563279
   2   1   -0.83563279
   2   2    0.54928849

BLOCK STAUMIX
   1   1    0.99653756
   1   2    0.083143771
   2   1   -0.083143771
   2   2    0.99653756

BLOCK NMIX
   1   1    0.99948672
   1   2   -0.0068572331
   1   3    0.030966482
   1   4   -0.0045113747
   2   1   -0.0086119726
   2   2   -0.99837457
   2   3    0.055358765
   2   4   -0.010462195
   3   1    0.018460678
   3   2   -0.031891419
   3   3   -0.70595022
   3   4   -0.70730222
   4   1   -0.024725178
   4   2    0.046734701
   4   3    0.70541532
   4   4   -0.70681947

BLOCK UMIX
   1   1   -0.99691284
   1   2    0.078516203
   2   1    0.078516203
   2   2    0.99691284

BLOCK VMIX
   1   1   -0.9998892
   1   2    0.014885676
   2   1    0.014885676
   2   2    0.9998892

BLOCK HIGGSBOUNDSINPUTHIGGSCOUPLINGSFERMIONS
       0, 910.73609,3,36,15,15

BLOCK HIGGSBOUNDSINPUTHIGGSCOUPLINGSBOSONS
       0,4,36,21,21,23

BLOCK SPHENOLOWENERGY
   1    0.00029226971
   2    1.5959019e-06
   3    3.5265258e-05
   4    2.1558426e-15
   5    9.2094606e-11
   6    1.9249463e-08
   7    7.2319815e-14
   8    3.0894829e-09
   9    6.5433704e-07
   10    9.6331962e-05
   11    0.99507229
   12    0.54193622
   13    19.360565
   14    0
   15    0
   16    0.0021571039
   17    2.2816567e-15
   18    2.481186e-11
   19    8.2929665e-11
   20    2.8912186e-15
   21    1.2360736e-10
   22    1.5919032e-07
   23    0
   24    0
   25    0
   26    0
   27    0
   28    0
   29    0
   30    0
   31    0
   39    7.7751433e-05
   40    0
   41    0
   42    0

BLOCK FWCOEF Q=  160
   305   4422   0   0   -0.18881911
   305   4422   0   2   -0.15376501
   305   4322   0   2    0.000143446
   305   6421   0   0   -0.095227835
   305   6421   0   2   -0.080523678
   305   6321   0   2   -6.9256281e-05
   3051111   4133   0   0    1.5930224
   3051111   4133   0   2    1.5938629
   3051111   4233   0   2    0.0001528687
   3051111   4137   0   0   -4.4157145
   3051111   4137   0   2   -4.4152267
   3051111   4237   0   2   -0.0011886334
   3051313   4133   0   0    1.5930224
   3051313   4133   0   2    1.5938617
   3051313   4233   0   2    0.00015286819
   3051313   4137   0   0   -4.4157145
   3051313   4137   0   2   -4.4152279
   3051313   4237   0   2   -0.001188634
   3051212   4137   0   0    1.5053501
   3051212   4137   0   2    1.5052672
   3051212   4237   0   2    0.00025896816
   3051414   4137   0   0    1.5053501
   3051414   4137   0   2    1.5052672
   3051414   4237   0   2    0.00025896819
   3051616   4137   0   0    1.5053501
   3051616   4137   0   2    1.5052726
   3051616   4237   0   2    0.00025897547

BLOCK IMFWCOEF Q=  160
   305   4422   0   0    3.8590759e-07
   305   4422   0   2    2.4257497e-05
   305   4322   0   2    5.1582316e-06
   305   6421   0   0    3.3055537e-07
   305   6421   0   2   -1.2621295e-05
   305   6321   0   2    2.1123641e-06
   3051111   4133   0   2   -9.049772e-08
   3051111   4233   0   2    3.2163791e-06
   3051111   4137   0   2    1.8531305e-05
   3051111   4237   0   2   -2.5013162e-05
   3051313   4133   0   2   -9.0517919e-08
   3051313   4233   0   2    3.2163729e-06
   3051313   4137   0   2    1.8531334e-05
   3051313   4237   0   2   -2.5013175e-05
   3051212   4137   0   2   -3.6186386e-06
   3051212   4237   0   2    5.44969e-06
   3051414   4137   0   2   -3.6186377e-06
   3051414   4237   0   2    5.44969e-06
   3051616   4137   0   2   -3.5221384e-06
   3051616   4237   0   2    5.449654e-06

DECAY 23  2.4952


DECAY 24  2.085


DECAY 2000011  0.65105846
    0.99998377   2    1000022    11

DECAY 1000011  27.926031
    0.60629877   2   -1000024    12
    0.30686169   2    1000023    11
    0.085951719   2    1000022    11
    0.00078461325   2   -1000037    12

DECAY 2000013  0.65108949
    0.99998107   2    1000022    13

DECAY 1000013  27.932323
    0.60616176   2   -1000024    14
    0.30679376   2    1000023    13
    0.085932753   2    1000022    13
    0.00078443338   2   -1000037    14
    0.00012680496   2    2000013    25
    0.00012062426   2    1000035    13

DECAY 1000015  8.6549577
    0.59950057   2   -1000024    16
    0.30384286   2    1000023    15
    0.096656572   2    1000022    15

DECAY 2000015  10.060978
    0.58235851   2    1000022    15
    0.20975967   2    1000016   -24
    0.10295424   2    1000015    23
    0.10160763   2    1000015    25
    0.0021455873   2   -1000024    16
    0.0011743559   2    1000023    15

DECAY 1000012  27.95412
    0.60868543   2    1000024    11
    0.30064519   2    1000023    12
    0.090301415   2    1000022    12
    0.00022879217   2    1000035    12
    0.00011115422   2    1000025    12

DECAY 1000014  27.956829
    0.6086283   2    1000024    13
    0.30061558   2    1000023    14
    0.090292524   2    1000022    14
    0.00022876798   2    1000035    14
    0.00012368827   2    1000037    13
    0.00011114247   2    1000025    14

DECAY 1000016  8.6709036
    0.6035124   2    1000024    15
    0.297833   2    1000023    16
    0.098654596   2    1000022    16

DECAY 2000001  143.32686
    0.98048037   2    1000021    1
    0.019502311   2    1000022    1

DECAY 1000001  208.47954
    0.6794797   2    1000021    1
    0.21031594   2   -1000024    2
    0.10514356   2    1000023    1
    0.003622986   2    1000022    1
    0.0010952728   2   -1000037    2
    0.0002324852   2    1000035    1
    0.00011005981   2    1000025    1

DECAY 2000003  143.34241
    0.98037386   2    1000021    3
    0.019500256   2    1000022    3

DECAY 1000003  208.48945
    0.67944986   2    1000021    3
    0.21030612   2   -1000024    4
    0.1051388   2    1000023    3
    0.0036228602   2    1000022    3
    0.0011025441   2   -1000037    4
    0.00025110289   2    1000035    3
    0.00012871215   2    1000025    3

DECAY 1000005  6.1615494
    0.58905066   2   -1000024    6
    0.30742808   2    1000023    5
    0.10352126   2    1000022    5

DECAY 2000005  11.133754
    0.62512242   2   -1000024    6
    0.32552984   2    1000023    5
    0.024956128   2    1000006   -24
    0.024391612   2    1000022    5

DECAY 2000002  151.85453
    0.92628859   2    1000021    2
    0.073647154   2    1000022    2

DECAY 1000002  208.47396
    0.67927775   2    1000021    2
    0.21156062   2    1000024    1
    0.10578506   2    1000023    2
    0.0031051141   2    1000022    2
    0.00015926143   2    1000035    2

DECAY 2000004  151.85758
    0.9262701   2    1000021    4
    0.073645676   2    1000022    4

DECAY 1000004  208.48344
    0.67924749   2    1000021    4
    0.21155135   2    1000024    3
    0.10578028   2    1000023    4
    0.0031049737   2    1000022    4
    0.00016290742   2    1000035    4

DECAY 1000006  15.759299
    0.60833653   2    1000024    5
    0.29060543   2    1000023    6
    0.072012224   2    1000023    4
    0.026543021   2    1000022    6
    0.0021851805   2    1000022    4
    0.00031461648   3    1000022    24    5

DECAY 2000006  134.00902
    0.24570812   2    1000006    25
    0.24349452   2    2000005    24
    0.23487294   2    1000006    23
    0.14577244   2    1000005    24
    0.040450435   2    1000037    5
    0.027391027   2    1000022    6
    0.02424005   2    1000035    6
    0.023220649   2    1000025    6
    0.0099676092   2    1000024    5
    0.0048822172   2    1000023    6

DECAY 1000024  9.7700227e-07
    0.33394752   3    1000022   -1    2
    0.33370037   3    1000022   -3    4
    0.11527696   3    1000022   -15    16
    0.10855559   3    1000022   -13    14
    0.10851954   3    1000022   -11    12

DECAY 1000037  13.805684
    0.23471135   2    1000023    24
    0.23395833   2    1000024    25
    0.23194163   2    1000024    23
    0.07275687   2    1000006   -5
    0.070383869   2    1000022    24
    0.069032686   2   -1000005    6
    0.057412559   2    1000016   -15
    0.01054813   2   -2000015    16
    0.0099006398   3    1000024    6   -6
    0.0062955757   3    1000023   -5    6
    0.0022418829   3    1000022   -5    6
    0.00042417928   2   -1000015    16
    0.00033094052   2   -2000013    14

DECAY 1000022 -1


DECAY 1000023  4.0028272e-08
    0.23326419   3    1000022    15   -15
    0.18628368   3    1000022    12   -12
    0.17398985   3    1000022    5   -5
    0.11015911   3    1000022    1   -1
    0.11015814   3    1000022    3   -3
    0.085903714   3    1000022    2   -2
    0.085691242   3    1000022    4   -4
    0.0065775451   3    1000022    13   -13
    0.0058397299   3    1000022    11   -11
    0.0021328121   2    1000022    22

DECAY 1000025  16.571972
    0.19440487   2    1000024   -24
    0.19440487   2   -1000024    24
    0.13146141   2    1000023    23
    0.11592038   2    1000023    25
    0.082904729   2    1000006   -6
    0.082904729   2   -1000006    6
    0.039656015   2    1000022    23
    0.031847032   2    1000022    25
    0.02358044   2    1000015   -15
    0.02358044   2   -1000015    15
    0.018530624   2    1000005   -5
    0.018530624   2   -1000005    5
    0.0076697867   2    2000005   -5
    0.0076697867   2   -2000005    5
    0.0065339394   3    1000024    5   -6
    0.0065339394   3   -1000024   -5    6
    0.0043045196   2    2000015   -15
    0.0043045196   2   -2000015    15
    0.0033722154   3    1000023    6   -6
    0.00090704987   3    1000022    6   -6
    0.00020865968   2    2000013   -13
    0.00020865968   2   -2000013    13
    0.00019380645   2    1000016   -16
    0.00019380645   2   -1000016    16

DECAY 1000035  15.20663
    0.21119953   2    1000024   -24
    0.21119953   2   -1000024    24
    0.14302824   2    1000023    25
    0.084192739   2    1000006   -6
    0.084192739   2   -1000006    6
    0.066510019   2    1000023    23
    0.039319025   2    1000022    25
    0.025578591   2    1000015   -15
    0.025578591   2   -1000015    15
    0.02398591   2    1000022    23
    0.019786604   2    1000005   -5
    0.019786604   2   -1000005    5
    0.0085885803   2    2000005   -5
    0.0085885803   2   -2000005    5
    0.0063847052   3    1000024    5   -6
    0.0063847052   3   -1000024   -5    6
    0.0047321573   2    2000015   -15
    0.0047321573   2   -2000015    15
    0.0035541499   3    1000023    6   -6
    0.00092959008   3    1000022    6   -6
    0.00043559407   2    1000016   -16
    0.00043559407   2   -1000016    16
    0.00028842731   2    2000013   -13
    0.00028842731   2   -2000013    13
    0.00013829709   2    2000011   -11
    0.00013829709   2   -2000011    11

DECAY 1000021  251.28426
    0.13195693   2    1000005   -5
    0.13195693   2   -1000005    5
    0.12686976   2    2000005   -5
    0.12686976   2   -2000005    5
    0.12364308   2    1000006   -6
    0.12364308   2   -1000006    6
    0.087526392   2    2000006   -6
    0.087526392   2   -2000006    6
    0.029186055   2    1000006   -4
    0.029186055   2   -1000006    4
    0.00037767819   3    1000037    5   -6
    0.00037767819   3   -1000037   -5    6
    0.00017805932   3    1000035    5   -5
    0.0001780042   3    1000025    5   -5
    0.00014592063   3    1000025    6   -6
    0.00014164525   3    1000035    6   -6

DECAY 25  0.0037021119
    0.59470437   2   -5    5
    0.20692158   2   -24    24
    0.072063784   2    21    21
    0.068427671   2   -15    15
    0.029308132   2   -4    4
    0.02437139   2    23    23
    0.0023493558   2    22    22
    0.0013919717   2    22    23
    0.00023735756   2   -13    13
    0.00022361998   2   -3    3
    6.1828538e-07   2   -1    1
    1.5103566e-07   2   -2    2
    5.3360819e-09   2   -11    11

DECAY 35  44.408697
    0.42139753   2   -5    5
    0.12467772   2   -15    15
    0.12152741   2   -1000024    1000037
    0.12152741   2   -1000037    1000024
    0.070824525   2    1000023    1000025
    0.048675454   2    1000023    1000035
    0.046169456   2   -1000006    1000006
    0.020771785   2    1000022    1000025
    0.015210119   2    1000022    1000035
    0.0029841257   2   -1000024    1000024
    0.0022546153   2   -6    6
    0.0014627832   2    1000023    1000023
    0.00087253532   2    1000022    1000023
    0.00042181913   2   -13    13
    0.00027133004   2   -1000005    1000005
    0.0002193741   2   -3    3
    0.00020070146   2   -2000015    1000015
    0.00020070146   2   -1000015    2000015
    0.00013326375   2    25    25
    0.00012999618   2    1000022    1000022
    5.0444849e-05   2    21    21
    8.4154011e-06   2   -1000015    1000015
    3.8118326e-06   2   -2000015    2000015
    1.7745002e-06   2    23    23
    6.1373906e-07   2   -24    24
    6.0647424e-07   2   -1    1
    4.314339e-07   2    22    23
    2.0307529e-07   2    22    22
    1.4653443e-07   2   -1000011    1000011
    1.4520525e-07   2   -1000013    1000013
    5.354205e-08   2   -4    4
    2.7425881e-08   2   -2000013    1000013
    2.7425881e-08   2   -1000013    2000013
    9.4740821e-09   2   -11    11
    6.4149524e-13   2   -2000011    1000011
    6.4149524e-13   2   -1000011    2000011
    2.7604113e-13   2   -2    2

DECAY 36  41.58849
    0.43632357   2   -5    5
    0.12985168   2   -1000024    1000037
    0.12985168   2   -1000037    1000024
    0.12888386   2   -15    15
    0.075277845   2    1000023    1000035
    0.052397415   2    1000023    1000025
    0.022078807   2    1000022    1000035
    0.016370524   2    1000022    1000025
    0.0033390258   2   -1000024    1000024
    0.0017508021   2   -6    6
    0.0016368442   2    1000023    1000023
    0.00096797451   2    1000022    1000023
    0.00043605148   2   -13    13
    0.00022676047   2   -3    3
    0.00022156796   2   -2000015    1000015
    0.00022156796   2   -1000015    2000015
    0.00014320857   2    1000022    1000022
    1.6931345e-05   2    21    21
    2.8879825e-06   2    23    25
    6.2689125e-07   2   -1    1
    1.6825097e-07   2    22    23
    9.4641417e-08   2    22    22
    4.3422253e-08   2   -4    4
    2.9095879e-08   2   -2000013    1000013
    2.9095879e-08   2   -1000013    2000013
    9.793818e-09   2   -11    11
    6.805525e-13   2   -2000011    1000011
    6.805525e-13   2   -1000011    2000011
    2.2388474e-13   2   -2    2
    1.7207239e-13   2    23    35
    1.7153587e-36   2    25    25

DECAY 37  47.372008
    0.50867688   2   -5    6
    0.11633577   2    1000023    1000037
    0.11451195   2    1000024    1000025
    0.11434424   2    1000024    1000035
    0.11098309   2   -15    16
    0.031686946   2    1000022    1000037
    0.0016343637   2    1000022    1000024
    0.00075126183   2   -5    4
    0.0003923649   2   -13    14
    0.00038406655   2   -2000015    1000016
    0.00019059205   2   -3    4
    8.0693762e-05   2   -1000005    1000006
    8.9151908e-06   2   -3    2
    6.4321244e-06   2   -1000015    1000016
    5.364785e-06   2   -5    2
    3.6280726e-06   2   -3    6
    2.5395805e-06   2    24    25
    5.2844107e-07   2   -1    2
    1.5349372e-07   2   -1    6
    1.3758236e-07   2    1000023    1000024
    5.0887997e-08   2   -1000013    1000014
    2.6055002e-08   2   -1    4
    9.1774559e-09   2   -11    12
    1.6646875e-12   2    24    35
    1.1902628e-12   2   -1000011    1000012

DECAY 6  2.43
    1   2    5    24

DECAY 15 -1
