BLOCK DCINFO
   1   SDECAY/HDECAY
   2   1.3b /3.4

BLOCK SPINFO
   1   SOFTSUSY
   2   3.4.0

BLOCK MODSEL
   1   0

BLOCK SMINPUTS
   1    127.90897
   2    1.1663787e-05
   3    0.1184
   4    91.1876
   5    4.18
   6    173.2
   7    1.777

BLOCK MINPAR
   3    5.69

BLOCK EXTPAR
   0   -1
   1   -516
   2   -2094.85
   3    3735.37
   11   -4578.3
   12    3688.13
   13   -3997.5
   23    129.23
   26    3234.39
   31    2753.8
   32    2753.8
   33    388.46
   34    1295.45
   35    1295.45
   36    1387.53
   41    3899.64
   42    3899.64
   43    3754.69
   44    2202.06
   45    2202.06
   46    2569.39
   47    1211.23
   48    1211.23
   49    1416.51

BLOCK MASS
   24    80.386575
   25    124.24108
   35    3234.6163
   36    3234.39
   37    3235.7675
   5    4.8187603
   1000001    4008.7036
   2000001    1376.4088
   1000002    4008.1122
   2000002    2328.4678
   1000003    4008.7036
   2000003    1376.4088
   1000004    4008.1122
   2000004    2328.4678
   1000005    1569.9225
   2000005    3823.0182
   1000006    2613.5269
   2000006    3832.7861
   1000011    2768.2243
   2000011    1306.7186
   1000012    2766.841
   1000013    2768.2243
   2000013    1306.7186
   1000014    2766.841
   1000015    453.66925
   2000015    1397.6726
   1000016    446.96765
   1000021    3830.9124
   1000022   -135.86642
   1000023    142.09369
   1000025   -511.04136
   1000035   -2147.9992
   1000024    139.48191
   1000037    2148.1646

BLOCK NMIX
   1   1    0.06640815
   1   2   -0.021661113
   1   3    0.71469322
   1   4    0.69594135
   2   1    0.056153589
   2   2   -0.028505308
   2   3   -0.69937571
   2   4    0.7119746
   3   1    0.99621064
   3   2    0.0040974577
   3   3   -0.0082247813
   3   4   -0.086486534
   4   1   -0.0010434588
   4   2    0.99935052
   4   3   -0.0044240423
   4   4    0.035747512

BLOCK UMIX
   1   1    0.0062409864
   1   2    0.99998053
   2   1   -0.99998053
   2   2    0.0062409864

BLOCK VMIX
   1   1    0.050553521
   1   2    0.99872135
   2   1    0.99872135
   2   2   -0.050553521

BLOCK STOPMIX
   1   1    0.08357376
   1   2    0.99650159
   2   1   -0.99650159
   2   2    0.08357376

BLOCK SBOTMIX
   1   1   -0.00056945588
   1   2    0.99999984
   2   1   -0.99999984
   2   2   -0.00056945588

BLOCK STAUMIX
   1   1    0.99998919
   1   2    0.0046497186
   2   1   -0.0046497186
   2   2    0.99998919

BLOCK ALPHA
      -0.18301874

BLOCK HMIX Q=  3105.648
   1    130.99717
   2    5.4146938
   3    242.27373
   4    10387629

BLOCK GAUGE Q=  3105.648
   1    0.36570382
   2    0.63846769
   3    1.0056813

BLOCK AU Q=  3105.648
   1   1    0
   2   2    0
   3   3   -4578.3

BLOCK AD Q=  3105.648
   1   1    0
   2   2    0
   3   3    3688.13

BLOCK AE Q=  3105.648
   1   1    0
   2   2    0
   3   3   -3997.5

BLOCK YU Q=  3105.648
   1   1    0
   2   2    0
   3   3    0.82719789

BLOCK YD Q=  3105.648
   1   1    0
   2   2    0
   3   3    0.074298161

BLOCK YE Q=  3105.648
   1   1    0
   2   2    0
   3   3    0.05604409

BLOCK MSOFT Q=  3105.648
   1   -516
   2   -2094.85
   3    3735.37
   21    10042463
   22    471947.3
   31    2753.8
   32    2753.8
   33    388.46
   34    1295.45
   35    1295.45
   36    1387.53
   41    3899.64
   42    3899.64
   43    3754.69
   44    2202.06
   45    2202.06
   46    2569.3899
   47    1211.23
   48    1211.23
   49    1416.51

BLOCK HIGGSBOUNDSINPUTHIGGSCOUPLINGSFERMIONS
       0, 29.318909,3,36,15,15

BLOCK HIGGSBOUNDSINPUTHIGGSCOUPLINGSBOSONS
       0,4,36,21,21,23

DECAY 6  1.4357996
    1   2    5    24

DECAY 1000021  236.42775
    0.1158385   2    2000001   -1
    0.1158385   2   -2000001    1
    0.1158385   2    2000003   -3
    0.1158385   2   -2000003    3
    0.10479264   2    1000005   -5
    0.10479264   2   -1000005    5
    0.06072504   2    2000002   -2
    0.06072504   2   -2000002    2
    0.060725019   2    2000004   -4
    0.060725019   2   -2000004    4
    0.042077815   2    1000006   -6
    0.042077815   2   -1000006    6
    2.4837782e-06   2    2000005   -5
    2.4837782e-06   2   -2000005    5

DECAY 1000006  75.443899
    0.46141197   2    1000024    5
    0.233795   2    1000023    6
    0.2239006   2    1000022    6
    0.079929564   2    1000025    6
    0.00065404649   2    1000037    5
    0.00030872252   2    1000035    6
    8.6988122e-08   2    1000005    24

DECAY 2000006  113.30808
    0.23381471   2    1000023    6
    0.22316409   2    1000022    6
    0.16944556   2    1000006    23
    0.1661929   2    1000006    25
    0.12641578   2    1000037    5
    0.063606592   2    1000035    6
    0.010554644   2    1000024    5
    0.0067479897   2    1000025    6
    5.7746465e-05   2    1000005    24

DECAY 1000005  1.0785368
    0.68268944   2    1000025    5
    0.15352319   2   -1000024    6
    0.084143055   2    1000022    5
    0.079644323   2    1000023    5

DECAY 2000005  111.14513
    0.46390677   2   -1000024    6
    0.33069086   2    1000006   -24
    0.13128056   2   -1000037    6
    0.065254765   2    1000035    5
    0.0046597973   2    1000025    5
    0.0020898819   2    1000022    5
    0.0020555887   2    1000023    5
    3.1528169e-05   2    1000005    25
    3.0246361e-05   2    1000005    23

DECAY 1000002  26.656088
    0.59552573   2    1000037    1
    0.29805585   2    1000035    2
    0.081930637   2    1000021    2
    0.021291594   2    1000025    2
    0.0029658675   2    1000024    1
    0.000183504   2    1000023    2
    4.6817153e-05   2    1000022    2

DECAY 2000002  5.0144385
    0.99173249   2    1000025    2
    0.0048218681   2    1000022    2
    0.003445613   2    1000023    2
    2.8004878e-08   2    1000035    2

DECAY 1000001  26.636614
    0.59768787   2   -1000037    2
    0.29862312   2    1000035    1
    0.082514682   2    1000021    1
    0.019550595   2    1000025    1
    0.0008935591   2    1000023    1
    0.00068493327   2    1000022    1
    4.5240981e-05   2   -1000024    2

DECAY 2000001  0.6254576
    0.99007316   2    1000025    1
    0.005792557   2    1000022    1
    0.0041342833   2    1000023    1

DECAY 1000004  27.005212
    0.60991196   2    1000037    3
    0.30525629   2    1000035    4
    0.05953669   2    1000021    4
    0.021988089   2    1000025    4
    0.0030686726   2    1000024    3
    0.00018986191   2    1000023    4
    4.844093e-05   2    1000022    4

DECAY 2000004  4.9927587
    0.99171679   2    1000025    4
    0.0048311049   2    1000022    4
    0.0034520767   2    1000023    4
    2.6661995e-08   2    1000035    4

DECAY 1000003  26.980322
    0.6122506   2   -1000037    4
    0.30589966   2    1000035    3
    0.059975126   2    1000021    3
    0.020194246   2    1000025    3
    0.00092470667   2    1000023    3
    0.00070883333   2    1000022    3
    4.6818663e-05   2   -1000024    4

DECAY 2000003  0.60635929
    0.99005363   2    1000025    3
    0.0058040604   2    1000022    3
    0.0041423083   2    1000023    3

DECAY 1000011  8.7884576
    0.40423521   2   -1000037    12
    0.39359231   2    1000025    11
    0.2017156   2    1000035    11
    0.00034088498   2    1000022    11
    9.8990859e-05   2   -1000024    12
    1.7005605e-05   2    1000023    11

DECAY 2000011  5.0027499
    0.98972245   2    1000025    11
    0.0059978261   2    1000022    11
    0.004279722   2    1000023    11

DECAY 1000013  8.7884575
    0.40423521   2   -1000037    14
    0.39359231   2    1000025    13
    0.20171559   2    1000035    13
    0.00034088498   2    1000022    13
    9.899086e-05   2   -1000024    14
    1.7005605e-05   2    1000023    13

DECAY 2000013  5.0027498
    0.98972245   2    1000025    13
    0.0059978261   2    1000022    13
    0.004279722   2    1000023    13

DECAY 1000015  0.023796599
    0.52408734   2    1000022    15
    0.47160011   2    1000023    15
    0.0043125511   2   -1000024    16

DECAY 2000015  5.8203015
    0.95174807   2    1000025    15
    0.014716913   2   -1000024    16
    0.013005773   2    1000022    15
    0.011184511   2    1000023    15
    0.0045421577   2    1000016   -24
    0.002492248   2    1000015    25
    0.0023103306   2    1000015    23

DECAY 1000012  8.7990609
    0.40131265   2    1000037    11
    0.381769   2    1000025    12
    0.20124359   2    1000035    12
    0.0064840815   2    1000024    11
    0.0046683994   2    1000023    12
    0.0045222791   2    1000022    12

DECAY 1000014  8.7990608
    0.40131264   2    1000037    13
    0.381769   2    1000025    14
    0.20124359   2    1000035    14
    0.0064840815   2    1000024    13
    0.0046683995   2    1000023    14
    0.0045222792   2    1000022    14

DECAY 1000016  0.041083575
    0.7392763   2    1000024    15
    0.1312137   2    1000023    16
    0.12950999   2    1000022    16

DECAY 1000024  6.578723e-10
    0.36119147   3    1000022    2   -1
    0.36119147   3    1000022    4   -3
    0.12039745   3    1000022   -11    12
    0.12039745   3    1000022   -13    14
    0.036822151   3    1000022   -15    16

DECAY 1000037  32.085611
    0.24784556   2    1000016   -15
    0.24778831   2   -1000015    16
    0.12821216   2    1000024    25
    0.1278516   2    1000024    23
    0.12537769   2    1000023    24
    0.11998178   2    1000022    24
    0.0029413807   2    1000025    24
    1.5189553e-06   2   -2000015    16
    5.1208429e-09   2   -1000005    6

DECAY 1000022 -1


DECAY 1000023  8.0820053e-09
    0.16679409   3    1000022   -1    1
    0.16679409   3    1000022   -3    3
    0.12844962   3    1000022   -2    2
    0.12844962   3    1000022   -4    4
    0.076720551   3    1000022   -16    16
    0.076701665   3    1000022   -12    12
    0.076701665   3    1000022   -14    14
    0.050424208   2    1000022    22
    0.038354618   3    1000022   -11    11
    0.038354618   3    1000022   -13    13
    0.020691317   3    1000022   -15    15
    0.0058592322   3    1000024   -2    1
    0.0058592322   3   -1000024   -1    2
    0.0058592322   3    1000024   -4    3
    0.0058592322   3   -1000024   -3    4
    0.0019530817   3    1000024   -12    11
    0.0019530817   3   -1000024    12   -11
    0.0019530817   3    1000024   -14    13
    0.0019530817   3   -1000024    14   -13
    0.00015734244   3    1000024   -16    15
    0.00015734244   3   -1000024    16   -15

DECAY 1000025  1.0359801
    0.24015349   2    1000024   -24
    0.24015349   2   -1000024    24
    0.1390449   2    1000023    23
    0.1268246   2    1000022    25
    0.1039429   2    1000022    23
    0.084741325   2    1000023    25
    0.017731736   2    1000016   -16
    0.017731736   2   -1000016    16
    0.014837905   2    1000015   -15
    0.014837905   2   -1000015    15

DECAY 1000035  32.078753
    0.1242429   2    1000016   -16
    0.1242429   2   -1000016    16
    0.12415736   2    1000024   -24
    0.12415736   2   -1000024    24
    0.12360505   2    1000015   -15
    0.12360505   2   -1000015    15
    0.079676317   2    1000023    25
    0.077770239   2    1000022    23
    0.049316424   2    1000023    23
    0.046293958   2    1000022    25
    0.0021061034   2    1000025    25
    0.00082426287   2    1000025    23
    8.2227374e-07   2    2000015   -15
    8.2227374e-07   2   -2000015    15
    7.697095e-08   2    2000011   -11
    7.697095e-08   2   -2000011    11
    7.697095e-08   2    2000013   -13
    7.697095e-08   2   -2000013    13
    2.2820421e-08   2    2000001   -1
    2.2820421e-08   2   -2000001    1
    2.2820421e-08   2    2000003   -3
    2.2820421e-08   2   -2000003    3
    1.6123699e-08   2    1000005   -5
    1.6123699e-08   2   -1000005    5

DECAY 25  0.0039140565
    0.60555025   2    5   -5
    0.19768013   2    24   -24
    0.080070362   2    21    21
    0.065985806   2   -15    15
    0.024358903   2    23    23
    0.022047241   2    4   -4
    0.002328548   2    22    22
    0.0014899302   2    22    23
    0.00025525977   2    3   -3
    0.00023356655   2   -13    13

DECAY 35  21.910066
    0.20223048   2    6   -6
    0.18572216   2    1000024   -1000037
    0.18572216   2    1000037   -1000024
    0.11970273   2    1000022    1000035
    0.11207995   2    1000022    1000025
    0.066517369   2    1000023    1000035
    0.052989496   2    1000023    1000025
    0.047334844   2    5   -5
    0.0090262605   2   -15    15
    0.0053060703   2    1000015   -2000015
    0.0053060703   2    2000015   -1000015
    0.0029216782   2    1000024   -1000024
    0.0027911229   2    1000022    1000022
    0.0013229448   2    1000023    1000023
    0.00027954536   2    25    25
    0.00017286694   2    1000022    1000023
    0.00017017351   2    1000025    1000025
    0.00010056233   2    21    21
    7.7032388e-05   2    24   -24
    6.2145469e-05   2    1000025    1000035
    3.9335376e-05   2    1000016   -1000016
    3.8437853e-05   2    23    23
    3.1760027e-05   2   -13    13
    1.9559642e-05   2    3   -3
    1.7234259e-05   2    1000015   -1000015
    4.7915721e-06   2    2000011   -2000011
    4.7915721e-06   2    2000013   -2000013
    2.0546336e-06   2    4   -4
    2.039079e-06   2    2000015   -2000015
    1.423298e-06   2    2000001   -2000001
    1.423298e-06   2    2000003   -2000003
    1.0640635e-06   2    1000005   -1000005
    2.5933261e-07   2    22    22
    1.5141898e-07   2    23    22

DECAY 36  21.917209
    0.2027893   2    6   -6
    0.18555762   2    1000024   -1000037
    0.18555762   2    1000037   -1000024
    0.11521882   2    1000023    1000035
    0.10906306   2    1000023    1000025
    0.070808072   2    1000022    1000035
    0.056113626   2    1000022    1000025
    0.047369658   2    5   -5
    0.0090240084   2   -15    15
    0.0053062876   2    1000015   -2000015
    0.0053062876   2   -1000015    2000015
    0.0032238468   2    1000024   -1000024
    0.0028561428   2    1000023    1000023
    0.0013570949   2    1000022    1000022
    0.00015201867   2    21    21
    0.00010444473   2    1000022    1000023
    7.8046716e-05   2    23    25
    4.0792083e-05   2    1000025    1000035
    3.1752076e-05   2   -13    13
    1.9601806e-05   2    3   -3
    1.93205e-05   2    1000025    1000025
    2.0640676e-06   2    4   -4
    3.176703e-07   2    22    22
    2.0279188e-07   2    23    22

DECAY 37  21.832403
    0.24758255   2    6   -5
    0.19134652   2    1000037    1000022
    0.1867505   2    1000024    1000035
    0.18293783   2    1000037    1000023
    0.17108006   2    1000024    1000025
    0.010657362   2   -2000015    1000016
    0.0090629197   2   -15    16
    0.00011776059   2    1000024    1000022
    0.00010373772   2    1000037    1000025
    9.3107058e-05   2    1000024    1000023
    7.9758237e-05   2    4   -5
    7.8492372e-05   2    24    25
    5.4385204e-05   2   -1000015    1000016
    3.188899e-05   2   -13    14
    2.1340879e-05   2    4   -3
    9.8324978e-07   2    2   -3
    7.9754815e-07   2    2   -5
    2.9893828e-13   2    24    36

DECAY 5 -1


DECAY 15 -1


DECAY 23  2.4952


DECAY 24  2.085
