BLOCK SPINFO
   1   SPheno
   2   v4.0.5be

BLOCK SPHENOINFO
   1   2
   2   2

BLOCK MODSEL
   1   0

BLOCK MINPAR
   3    39.332821
   4    1

BLOCK EXTPAR
   0    2660.3073
   1   -569.9886
   2    4085.4239
   3    4300.1543
   11   -4208.1842
   12   -7427.3728
   13    4179.5031
   23    2977.8072
   25    38.003308
   26    2254.1047
   31    2513.0742
   32    2513.0742
   33    4727.1227
   34    933.54906
   35    933.54906
   36    2324.5359
   41    3152.2899
   42    3152.2899
   43    3003.3586
   44    578.77781
   45    578.77781
   46    2269.5271
   47    2755.0458
   48    2755.0458
   49    675.6754

BLOCK SMINPUTS
   1    127.90897
   2    1.1663787e-05
   3    0.1184
   4    91.1876
   5    4.18
   6    173.2
   7    1.777
   8    0
   11    0.00051099893
   12    0
   13    0.10565837
   14    0
   21    0.005
   22    0.0025
   23    0.095
   24    1.27

BLOCK GAUGE Q=  2660.3073
   1    0.35536298
   2    0.66519887
   3    1.219778

BLOCK YU Q=  2660.3073
   1   1    8.3872743e-06
   2   2    0.0042607354
   3   3    1.0132501

BLOCK YD Q=  2660.3073
   1   1    0.00064050495
   2   2    0.012169594
   3   3    0.63518021

BLOCK YE Q=  2660.3073
   1   1    0.0001117728
   2   2    0.02311107
   3   3    0.38869017

BLOCK AU Q=  2660.3073
   1   1    0
   2   2    0
   3   3   -4208.1841

BLOCK AD Q=  2660.3073
   1   1    0
   2   2    0
   3   3   -7427.3724

BLOCK AE Q=  2660.3073
   1   1    0
   2   2    0
   3   3    4179.5031

BLOCK MSOFT Q=  2660.3073
   1   -569.9886
   2    4085.4239
   3    4300.1543
   21   -3680733.9
   22   -8689150.6
   31    2513.0742
   32    2513.0742
   33    4727.1227
   34    933.54906
   35    933.54906
   36    2324.5359
   41    3152.2899
   42    3152.2899
   43    3003.3586
   44    578.77781
   45    578.77781
   46    2269.5271
   47    2755.0458
   48    2755.0458
   49    675.6754

BLOCK MASS
   6    173.2
   23    91.1876
   24    80.429995
   15    1.777
   25    122.99096
   35    2253.7919
   36    2254.1047
   37    2255.8494
   1000001    3265.3442
   2000001    2842.1308
   1000002    3264.3539
   2000002    626.8398
   1000003    3265.3431
   2000003    2842.1276
   1000004    3264.352
   2000004    626.84108
   1000005    706.73658
   2000005    3053.8121
   1000006    2304.5134
   2000006    3071.0322
   1000011    2533.5866
   2000011    932.00417
   1000012    2531.9448
   1000013    2533.5753
   2000013    931.94356
   1000014    2531.9271
   1000015    2332.6117
   2000015    4734.2051
   1000016    4732.8746
   1000021    4245.952
   1000022   -560.23472
   1000023    2968.4817
   1000025   -2972.4364
   1000035    4048.9733
   1000024    2969.3001
   1000037    4049.0427

BLOCK ALPHA
      -0.02550753

BLOCK HMIX Q=  2660.3073
   1    2977.8072
   2    38.003308
   3    243.37796
   4    5080988.2

BLOCK STOPMIX
   1   1    0.14917625
   1   2    0.98881062
   2   1   -0.98881062
   2   2    0.14917625

BLOCK SBOTMIX
   1   1    0.021682539
   1   2    0.99976491
   2   1   -0.99976491
   2   2    0.021682539

BLOCK STAUMIX
   1   1    0.011682168
   1   2    0.99993176
   2   1   -0.99993176
   2   2    0.011682168

BLOCK NMIX
   1   1    0.9998771
   1   2    2.9389841e-05
   1   3    0.015486784
   1   4    0.0024362345
   2   1    0.0092207871
   2   2    0.051138095
   2   3   -0.70645788
   2   4    0.70584498
   3   1   -0.012672381
   3   2    0.0075715773
   3   3    0.70691431
   3   4    0.70714513
   4   1    0.00040551202
   4   2   -0.99866289
   4   3   -0.030815202
   4   4    0.04150534

BLOCK UMIX
   1   1   -0.044602208
   1   2    0.99900483
   2   1    0.99900483
   2   2    0.044602208

BLOCK VMIX
   1   1   -0.059867998
   1   2    0.9982063
   2   1    0.9982063
   2   2    0.059867998

BLOCK HIGGSBOUNDSINPUTHIGGSCOUPLINGSFERMIONS
       0, 1444.2514,3,36,15,15

BLOCK HIGGSBOUNDSINPUTHIGGSCOUPLINGSBOSONS
       0,4,36,21,21,23

BLOCK SPHENOLOWENERGY
   1    0.00031955911
   2    1.5912703e-06
   3    3.5272126e-05
   4    2.266164e-15
   5    9.6806567e-11
   6    2.0183992e-08
   7    7.5842942e-14
   8    3.2399647e-09
   9    6.8463703e-07
   10    9.5660063e-05
   11    0.98813183
   12    0.54167808
   13    19.347269
   14    0
   15    0
   16    0.0021564157
   17    2.2816509e-15
   18    2.4811672e-11
   19    8.2934189e-11
   20    3.836744e-16
   21    1.6399831e-11
   22    8.2005422e-09
   23    0
   24    0
   25    0
   26    0
   27    0
   28    0
   29    0
   30    0
   31    0
   39    6.6836237e-05
   40    0
   41    0
   42    0

BLOCK FWCOEF Q=  160
   305   4422   0   0   -0.18881911
   305   4422   0   2   -0.18635221
   305   4322   0   2    4.0015643e-05
   305   6421   0   0   -0.095227835
   305   6421   0   2   -0.10120576
   305   6321   0   2   -0.00012668713
   3051111   4133   0   0    1.6126221
   3051111   4133   0   2    1.6129556
   3051111   4233   0   2    0.00010811672
   3051111   4137   0   0   -4.4353142
   3051111   4137   0   2   -4.4355991
   3051111   4237   0   2   -0.00081653893
   3051313   4133   0   0    1.6126221
   3051313   4133   0   2    1.6129547
   3051313   4233   0   2    0.00010811581
   3051313   4137   0   0   -4.4353142
   3051313   4137   0   2   -4.4356001
   3051313   4237   0   2   -0.00081653863
   3051212   4137   0   0    1.5053501
   3051212   4137   0   2    1.5054123
   3051212   4237   0   2    0.00017712351
   3051414   4137   0   0    1.5053501
   3051414   4137   0   2    1.5054123
   3051414   4237   0   2    0.00017712367
   3051616   4137   0   0    1.5053501
   3051616   4137   0   2    1.5054124
   3051616   4237   0   2    0.00017716868

BLOCK IMFWCOEF Q=  160
   305   4422   0   0    3.8589725e-07
   305   4422   0   2    8.4522472e-06
   305   4322   0   2    4.3212407e-06
   305   6421   0   0    3.3054651e-07
   305   6421   0   2   -5.8356428e-06
   305   6321   0   2    2.3308102e-06
   3051111   4133   0   2    3.9905771e-07
   3051111   4233   0   2    2.9924238e-06
   3051111   4137   0   2   -2.3324387e-06
   3051111   4237   0   2   -2.2606011e-05
   3051313   4133   0   2    3.9905178e-07
   3051313   4233   0   2    2.9924206e-06
   3051313   4137   0   2   -2.3324449e-06
   3051313   4237   0   2   -2.2606018e-05
   3051212   4137   0   2    5.1210401e-07
   3051212   4237   0   2    4.9037215e-06
   3051414   4137   0   2    5.12104e-07
   3051414   4237   0   2    4.9037215e-06
   3051616   4137   0   2    5.1369206e-07
   3051616   4237   0   2    4.9037243e-06

DECAY 23  2.4952


DECAY 24  2.085


DECAY 2000011  1.9097138
    1   2    1000022    11

DECAY 1000011  2.8785771
    0.99999987   2    1000022    11

DECAY 2000013  1.9093088
    1   2    1000022    13

DECAY 1000013  2.8945784
    0.99446857   2    1000022    13
    0.0055314249   2    2000013    25

DECAY 1000015  10.406612
    1   2    1000022    15

DECAY 2000015  22.507072
    0.25694961   2    1000022    15
    0.13329406   2   -1000037    16
    0.11703415   2    1000023    15
    0.11601043   2    1000025    15
    0.094795143   2    1000015    23
    0.087797997   2    1000015    25
    0.066635215   2    1000035    15
    0.06327398   2    1000015    36
    0.063236869   2    1000015    35
    0.00097255005   2   -1000024    16

DECAY 1000012  2.8756946
    1   2    1000022    12

DECAY 1000014  2.8756704
    1   2    1000022    14

DECAY 1000016  22.634396
    0.25526401   2    1000022    16
    0.23303345   2    1000024    15
    0.18838936   2    1000015    24
    0.1319337   2    1000037    15
    0.12457157   2    1000015    37
    0.06601523   2    1000035    16
    0.00072326396   2    1000023    16

DECAY 2000001  1.4654693
    1   2    1000022    1

DECAY 1000001  0.43188914
    0.99347444   2    1000022    1
    0.0039675524   2   -1000024    2
    0.0024567581   2    1000023    1

DECAY 2000003  1.4654691
    1   2    1000022    3

DECAY 1000003  0.43353217
    0.98971381   2    1000022    3
    0.0040285204   2   -1000024    4
    0.0027788174   2    1000023    3
    0.0021386017   2    2000003    25
    0.00092031853   2    2000004   -37
    0.0004199281   2    1000025    3

DECAY 1000005  0.054624944
    1   2    1000022    5

DECAY 2000005  80.474127
    0.41988947   2    1000006   -24
    0.18616437   2    1000005    35
    0.18606222   2    1000005    36
    0.15424765   2    1000005    25
    0.047812069   2    1000005    23
    0.004942371   2    1000022    5
    0.00045985235   2    1000023    5
    0.00042199545   2    1000025    5

DECAY 2000002  0.056665034
    1   2    1000022    2

DECAY 1000002  0.43348799
    0.99012706   2    1000022    2
    0.007080226   2    1000024    1
    0.0027653745   2    1000023    2

DECAY 2000004  0.056653031
    1   2    1000022    4

DECAY 1000004  0.43420465
    0.98849179   2    1000022    4
    0.0077220503   2    1000024    3
    0.0027982212   2    1000023    4
    0.00046041698   2    2000004    35
    0.00046019261   2    2000004    36

DECAY 1000006  4.4806027
    0.98456948   2    1000022    6
    0.014387443   2    1000005    24
    0.00092961856   2    1000022    4
    0.00011228118   3    1000022    24    5

DECAY 2000006  81.55121
    0.38874766   2    1000005    37
    0.29480364   2    1000006    25
    0.21450753   2    1000006    23
    0.094122151   2    1000005    24
    0.0065100117   2    1000022    6
    0.001309001   2    1000024    5

DECAY 1000024  49.378038
    0.6499654   2   -1000005    6
    0.29012048   2    1000006   -5
    0.039685751   2    1000022    24
    0.013242834   2   -1000015    16
    0.0043187792   2    37    1000022
    0.0021325536   3    1000022   -5    6
    0.0002591311   2   -2000013    14

DECAY 1000037  97.064667
    0.099633855   2    2000006   -5
    0.098373037   2   -2000005    6
    0.067849025   2    1000014   -13
    0.067847664   2    1000012   -11
    0.067843865   2   -1000013    14
    0.067843087   2   -1000011    12
    0.067248419   2    1000004   -3
    0.067248094   2    1000002   -1
    0.067208601   2    1000024    25
    0.067204034   2   -1000003    4
    0.067204023   2   -1000001    2
    0.064006511   2    1000025    24
    0.063198905   2    1000024    23
    0.058377098   2    1000023    24
    0.0029320702   3    1000024    6   -6
    0.0023864143   3    1000023   -5    6
    0.0022995408   3    1000025   -5    6
    0.00087816999   2    1000006   -5
    0.00023233759   2   -1000005    6
    0.0001201328   2    1000022    24

DECAY 1000022 -1


DECAY 1000023  50.617069
    0.3142717   2    1000005   -5
    0.3142717   2   -1000005    5
    0.15029024   2    1000006   -6
    0.15029024   2   -1000006    6
    0.026180471   2    1000022    25
    0.025303439   2    1000022    23
    0.0064499777   2    1000015   -15
    0.0064499777   2   -1000015    15
    0.0038300759   2    1000022    35
    0.0016243308   3    1000022    6   -6
    0.00041354081   2    1000022    36
    0.00013653718   2    2000013   -13
    0.00013653718   2   -2000013    13

DECAY 1000025  50.113846
    0.31748934   2    1000005   -5
    0.31748934   2   -1000005    5
    0.15368027   2    1000006   -6
    0.15368027   2   -1000006    6
    0.02399702   2    1000022    25
    0.013627779   2    1000022    23
    0.0065735176   2    1000015   -15
    0.0065735176   2   -1000015    15
    0.0043314349   2    1000022    35
    0.0016447914   3    1000022    6   -6
    0.00038880375   2    1000022    36
    0.00014749091   2    2000013   -13
    0.00014749091   2   -2000013    13

DECAY 1000035  103.56867
    0.061883921   2    1000024   -24
    0.061883921   2   -1000024    24
    0.061680904   2    1000023    25
    0.056463457   2    1000025    23
    0.055990394   2    1000025    25
    0.047988011   2    2000005   -5
    0.047988011   2   -2000005    5
    0.044804   2    2000006   -6
    0.044804   2   -2000006    6
    0.031834971   2    1000014   -14
    0.031834971   2   -1000014    14
    0.031834401   2    1000012   -12
    0.031834401   2   -1000012    12
    0.031754247   2    1000013   -13
    0.031754247   2   -1000013    13
    0.031753818   2    1000011   -11
    0.031753818   2   -1000011    11
    0.031532274   2    1000004   -4
    0.031532274   2   -1000004    4
    0.031532206   2    1000002   -2
    0.031532206   2   -1000002    2
    0.03147037   2    1000003   -3
    0.03147037   2   -1000003    3
    0.031470281   2    1000001   -1
    0.031470281   2   -1000001    1
    0.0024450055   3    1000024    5   -6
    0.0024450055   3   -1000024   -5    6
    0.0014527725   3    1000023    6   -6
    0.0013228769   3    1000025    6   -6
    0.0012347135   2    1000023    23
    0.00042805544   2    1000006   -6
    0.00042805544   2   -1000006    6

DECAY 1000021  640.34764
    0.093903216   2    2000002   -2
    0.093903216   2   -2000002    2
    0.093903199   2    2000004   -4
    0.093903199   2   -2000004    4
    0.092763802   2    1000005   -5
    0.092763802   2   -1000005    5
    0.047076927   2    1000006   -6
    0.047076927   2   -1000006    6
    0.029895333   2    2000003   -3
    0.029895333   2   -2000003    3
    0.029895224   2    2000001   -1
    0.029895224   2   -2000001    1
    0.023255933   2    2000006   -6
    0.023255933   2   -2000006    6
    0.022870081   2    2000005   -5
    0.022870081   2   -2000005    5
    0.016409848   2    1000004   -4
    0.016409848   2   -1000004    4
    0.016409802   2    1000002   -2
    0.016409802   2   -1000002    2
    0.016381059   2    1000003   -3
    0.016381059   2   -1000003    3
    0.016381028   2    1000001   -1
    0.016381028   2   -1000001    1
    0.00071424685   2    1000006   -4
    0.00071424685   2   -1000006    4

DECAY 25  0.0036420605
    0.60528839   2   -5    5
    0.1961796   2   -24    24
    0.072446635   2    21    21
    0.069374104   2   -15    15
    0.029770218   2   -4    4
    0.022808555   2    23    23
    0.0023382674   2    22    22
    0.0013261052   2    22    23
    0.00024069539   2   -13    13
    0.00022664156   2   -3    3
    6.2663903e-07   2   -1    1
    1.5341983e-07   2   -2    2
    5.4111279e-09   2   -11    11

DECAY 35  25.526912
    0.68035101   2   -5    5
    0.31167091   2   -15    15
    0.0036875641   2   -1000005    1000005
    0.0026952787   2   -6    6
    0.0011646692   2   -13    13
    0.00035016653   2   -3    3
    4.2169721e-05   2    21    21
    2.987309e-05   2    1000022    1000022
    3.3709017e-06   2    25    25
    1.2545973e-06   2   -1000002    1000002
    1.254541e-06   2   -1000004    1000004
    9.6801595e-07   2   -1    1
    8.2277433e-07   2    23    23
    3.6782197e-07   2   -24    24
    1.0950914e-07   2   -1000011    1000011
    1.0684444e-07   2   -1000013    1000013
    3.1359836e-08   2    22    23
    2.9607217e-08   2    22    22
    2.6160149e-08   2   -11    11
    1.4981495e-08   2   -4    4
    7.7192644e-14   2   -2    2

DECAY 36  24.437917
    0.68285552   2   -5    5
    0.31288939   2   -15    15
    0.0026575377   2   -6    6
    0.0011692208   2   -13    13
    0.00035152386   2   -3    3
    4.1229077e-05   2    1000022    1000022
    3.330832e-05   2    21    21
    1.1999271e-06   2    23    25
    9.71767e-07   2   -1    1
    4.3209185e-08   2    22    22
    2.6262354e-08   2   -11    11
    1.6355401e-08   2    22    23
    1.4046115e-08   2   -4    4
    7.2376837e-14   2   -2    2
    3.0422042e-38   2    25    25

DECAY 37  31.253857
    0.77446039   2   -5    6
    0.22331178   2   -15    16
    0.001148011   2   -5    4
    0.0007894873   2   -13    14
    0.00026483751   2   -3    4
    1.2362035e-05   2   -3    2
    8.1979858e-06   2   -5    2
    3.0763597e-06   2   -3    6
    9.414827e-07   2    24    25
    7.3447905e-07   2   -1    2
    1.2326508e-07   2   -1    6
    3.5318952e-08   2   -1    4
    1.846619e-08   2   -11    12
    1.6125947e-10   2   -1000005    1000004
    1.6054167e-12   2    24    35
    7.037656e-13   2    24    36
    6.0400596e-18   2   -1000005    1000002

DECAY 6  2.43
    1   2    5    24

DECAY 15 -1
