BLOCK SPINFO
   1   SPheno
   2   v4.0.5be

BLOCK SPHENOINFO
   1   2
   2   2

BLOCK MODSEL
   1   0

BLOCK MINPAR
   3    38.382116
   4   -1

BLOCK EXTPAR
   0    3887.0869
   1    821.11062
   2    1858.7844
   3    4039.2743
   11    4957.5247
   12    3451.7028
   13   -6352.7728
   23   -1012.9292
   25    37.498437
   26    1690.5099
   31    1742.2456
   32    1742.2456
   33    3442.2849
   34    3035.11
   35    3035.11
   36    2945.8798
   41    3725.05
   42    3725.05
   43    3633.5685
   44    1198.0359
   45    1198.0359
   46    4020.1228
   47    758.05413
   48    758.05413
   49    2682.2286

BLOCK SMINPUTS
   1    127.90897
   2    1.1663787e-05
   3    0.1184
   4    91.1876
   5    4.18
   6    173.2
   7    1.777
   8    0
   11    0.00051099893
   12    0
   13    0.10565837
   14    0
   21    0.005
   22    0.0025
   23    0.095
   24    1.27

BLOCK GAUGE Q=  3887.0869
   1    0.35536298
   2    0.66519887
   3    1.219778

BLOCK YU Q=  3887.0869
   1   1    8.387353e-06
   2   2    0.0042607753
   3   3    1.0132596

BLOCK YD Q=  3887.0869
   1   1    0.00063200183
   2   2    0.012008035
   3   3    0.62674778

BLOCK YE Q=  3887.0869
   1   1    0.00011028894
   2   2    0.022804255
   3   3    0.38353006

BLOCK AU Q=  3887.0869
   1   1    0
   2   2    0
   3   3    4957.5247

BLOCK AD Q=  3887.0869
   1   1    0
   2   2    0
   3   3    3451.7027

BLOCK AE Q=  3887.0869
   1   1    0
   2   2    0
   3   3   -6352.7727

BLOCK MSOFT Q=  3887.0869
   1    821.11062
   2    1858.7844
   3    4039.2743
   21    2026038.3
   22   -740705.66
   31    1742.2456
   32    1742.2456
   33    3442.2849
   34    3035.11
   35    3035.11
   36    2945.8798
   41    3725.05
   42    3725.05
   43    3633.5685
   44    1198.0359
   45    1198.0359
   46    4020.1228
   47    758.05413
   48    758.05413
   49    2682.2286

BLOCK MASS
   6    173.2
   23    91.1876
   24    80.429995
   15    1.777
   25    124.61613
   35    1690.3842
   36    1690.5099
   37    1692.9875
   1000001    3889.8545
   2000001    1080.5213
   1000002    3889.0336
   2000002    1455.06
   1000003    3889.8501
   2000003    1080.5047
   1000004    3889.0292
   2000004    1455.0592
   1000005    2817.4584
   2000005    3732.1426
   1000006    3712.7797
   2000006    4069.5775
   1000011    1771.4323
   2000011    3036.3236
   1000012    1769.2385
   1000013    1771.4052
   2000013    3036.284
   1000014    1769.2169
   1000015    2921.0288
   2000015    3442.6744
   1000016    3441.1966
   1000021    4178.0697
   1000022    802.70911
   1000023    1027.5013
   1000025   -1028.0513
   1000035    1908.1465
   1000024    1024.2935
   1000037    1908.2495

BLOCK ALPHA
      -0.026230282

BLOCK HMIX Q=  3887.0869
   1   -1012.9292
   2    37.498437
   3    242.97004
   4    2857823.8

BLOCK STOPMIX
   1   1   -0.97167444
   1   2    0.23632348
   2   1   -0.23632348
   2   2   -0.97167444

BLOCK SBOTMIX
   1   1   -0.017927632
   1   2    0.99983929
   2   1   -0.99983929
   2   2   -0.017927632

BLOCK STAUMIX
   1   1   -0.016751585
   1   2    0.99985968
   2   1   -0.99985968
   2   2   -0.016751585

BLOCK NMIX
   1   1    0.99034383
   1   2   -0.0057687325
   1   3   -0.10952161
   1   4   -0.084798787
   2   1   -0.13751278
   2   2   -0.060884014
   2   3   -0.69870762
   2   4   -0.69942193
   3   1   -0.017433689
   3   2    0.019567166
   3   3   -0.70636228
   3   4    0.7073652
   4   1   -0.0023229675
   4   2    0.99793636
   4   3   -0.029411111
   4   4   -0.05703162

BLOCK UMIX
   1   1   -0.041544553
   1   2   -0.99913665
   2   1    0.99913665
   2   2   -0.041544553

BLOCK VMIX
   1   1   -0.080593818
   1   2    0.99674703
   2   1    0.99674703
   2   2    0.080593818

BLOCK HIGGSBOUNDSINPUTHIGGSCOUPLINGSFERMIONS
       0, 1406.1328,3,36,15,15

BLOCK HIGGSBOUNDSINPUTHIGGSCOUPLINGSBOSONS
       0,4,36,21,21,23

BLOCK SPHENOLOWENERGY
   1    0.00033260358
   2    1.5888046e-06
   3    3.5251671e-05
   4    2.8955879e-15
   5    1.2369456e-10
   6    2.5796477e-08
   7    9.8975428e-14
   8    4.2281675e-09
   9    8.9328687e-07
   10    9.4241022e-05
   11    0.97347368
   12    0.54178965
   13    19.347164
   14    0
   15    0
   16    0.0021567447
   17    2.281656e-15
   18    2.4799773e-11
   19    8.2902294e-11
   20   -2.8312715e-15
   21   -1.2104611e-10
   22   -1.9094549e-08
   23    0
   24    0
   25    0
   26    0
   27    0
   28    0
   29    0
   30    0
   31    0
   39    6.9352858e-05
   40    0
   41    0
   42    0

BLOCK FWCOEF Q=  160
   305   4422   0   0   -0.18881911
   305   4422   0   2   -0.20067242
   305   4322   0   2   -0.00024054452
   305   6421   0   0   -0.095227835
   305   6421   0   2   -0.11295458
   305   6321   0   2   -0.00035762677
   3051111   4133   0   0    1.6259644
   3051111   4133   0   2    1.6261484
   3051111   4233   0   2    0.00018682877
   3051111   4137   0   0   -4.4486565
   3051111   4137   0   2   -4.4469303
   3051111   4237   0   2   -0.0013843372
   3051313   4133   0   0    1.6259644
   3051313   4133   0   2    1.6261475
   3051313   4233   0   2    0.00018682656
   3051313   4137   0   0   -4.4486565
   3051313   4137   0   2   -4.4469311
   3051313   4237   0   2   -0.0013843361
   3051212   4137   0   0    1.5053501
   3051212   4137   0   2    1.5049806
   3051212   4237   0   2    0.00029939596
   3051414   4137   0   0    1.5053501
   3051414   4137   0   2    1.5049806
   3051414   4237   0   2    0.00029939638
   3051616   4137   0   0    1.5053501
   3051616   4137   0   2    1.5049807
   3051616   4237   0   2    0.00029951585

BLOCK IMFWCOEF Q=  160
   305   4422   0   0    3.8585179e-07
   305   4422   0   2   -1.1378557e-05
   305   4322   0   2    1.5438848e-06
   305   6421   0   0    3.3050758e-07
   305   6421   0   2    3.4182437e-06
   305   6321   0   2    8.5834203e-07
   3051111   4133   0   2   -4.1663765e-07
   3051111   4233   0   2    4.9907422e-06
   3051111   4137   0   2    3.3989514e-06
   3051111   4237   0   2   -3.6983996e-05
   3051313   4133   0   2   -4.166389e-07
   3051313   4233   0   2    4.9907378e-06
   3051313   4137   0   2    3.3989613e-06
   3051313   4237   0   2   -3.6984013e-05
   3051212   4137   0   2   -6.6620482e-07
   3051212   4237   0   2    7.9986598e-06
   3051414   4137   0   2   -6.6620511e-07
   3051414   4237   0   2    7.9986598e-06
   3051616   4137   0   2   -6.6412216e-07
   3051616   4237   0   2    7.9986578e-06

DECAY 23  2.4952


DECAY 24  2.085


DECAY 1000011  1.4225417
    0.94780535   2    1000022    11
    0.043557834   2    1000023    11
    0.0083832878   2   -1000024    12
    0.00025352461   2    1000025    11

DECAY 2000011  13.174581
    0.98255204   2    1000022    11
    0.01716972   2    1000023    11
    0.00027591108   2    1000025    11

DECAY 1000013  1.4305969
    0.94253498   2    1000022    13
    0.046066326   2    1000023    13
    0.0083357006   2   -1000024    14
    0.0030629972   2    1000025    13

DECAY 2000013  13.224794
    0.97882965   2    1000022    13
    0.018013169   2    1000023    13
    0.001862186   2   -1000024    14
    0.0012037928   2    1000025    13

DECAY 1000015  25.670611
    0.48328607   2    1000022    15
    0.25623615   2   -1000024    16
    0.13300102   2    1000023    15
    0.1274502   2    1000025    15

DECAY 2000015  34.239145
    0.42427545   2   -1000037    16
    0.21123708   2    1000035    15
    0.12592839   2    1000023    15
    0.12203485   2    1000025    15
    0.11098023   2    1000022    15
    0.0024115907   2    1000015    25
    0.0023846346   2    1000015    23
    0.00074777494   2   -1000024    16

DECAY 1000012  1.4529582
    0.96689247   2    1000022    12
    0.030773856   2    1000024    11
    0.0019612552   2    1000025    12
    0.00037241666   2    1000023    12

DECAY 1000014  1.4610011
    0.96154571   2    1000022    14
    0.036133556   2    1000024    13
    0.0019503859   2    1000025    14
    0.00037035273   2    1000023    14

DECAY 1000016  34.2574
    0.42152675   2    1000037    15
    0.24854834   2    1000024    15
    0.21169912   2    1000035    16
    0.11308233   2    1000022    16
    0.0047795316   2    1000015    24
    0.00030589235   2    1000025    16

DECAY 2000001  0.11891379
    0.99910576   2    1000022    1
    0.0008793458   2    1000023    1

DECAY 1000001  30.149338
    0.65374935   2   -1000037    2
    0.32638251   2    1000035    1
    0.017265876   2    1000022    1
    0.00169785   2   -1000024    2
    0.00065139819   2    1000023    1
    0.00025298278   2    1000025    1

DECAY 2000003  0.11897062
    0.99861096   2    1000022    3
    0.00099189006   2    1000023    3
    0.00026700975   2   -1000024    4
    0.0001301394   2    1000025    3

DECAY 1000003  30.160508
    0.65350574   2   -1000037    4
    0.32626094   2    1000035    3
    0.017263529   2    1000022    3
    0.0017371934   2   -1000024    4
    0.00080703571   2    1000023    3
    0.00041214204   2    1000025    3

DECAY 1000005  34.277107
    0.47765901   2   -1000024    6
    0.24058645   2    1000025    5
    0.23623676   2    1000023    5
    0.045378715   2    1000022    5

DECAY 2000005  118.03349
    0.54533604   2   -1000024    6
    0.15519126   2   -1000037    6
    0.10545941   2    1000025    5
    0.10324754   2    1000023    5
    0.075861692   2    1000035    5
    0.0065478342   2    1000022    5
    0.0045840872   2    1000005    25
    0.0037721441   2    1000005    23

DECAY 2000002  1.5580057
    0.98992841   2    1000022    2
    0.0099126068   2    1000023    2
    0.00015898449   2    1000025    2

DECAY 1000002  30.186922
    0.6495049   2    1000037    1
    0.32528038   2    1000035    2
    0.015124953   2    1000022    2
    0.0063807976   2    1000024    1
    0.0035760176   2    1000023    2
    0.00013295561   2    1000025    2

DECAY 2000004  1.5582621
    0.98975807   2    1000022    4
    0.0099558397   2    1000023    4
    0.00020083076   2    1000025    4

DECAY 1000004  30.197743
    0.64927077   2    1000037    3
    0.32516308   2    1000035    4
    0.015119837   2    1000022    4
    0.0066971191   2    1000024    3
    0.0035943085   2    1000023    4
    0.0001530208   2    1000025    4

DECAY 1000006  118.45122
    0.27271736   2    1000025    6
    0.2702442   2    1000023    6
    0.21550911   2    1000024    5
    0.1488604   2    1000037    5
    0.076076318   2    1000035    6
    0.0067230122   2    1000005    24
    0.0054723779   2    1000022    6
    0.0023292087   3    1000022    24    5
    0.0016744697   2    1000022    4
    0.00039354019   2    1000023    4

DECAY 2000006  175.04624
    0.40989012   2    1000024    5
    0.20693157   2    1000025    6
    0.20125912   2    1000023    6
    0.053803202   2    2000005    24
    0.051423503   2    1000022    6
    0.044023486   2    1000006    25
    0.029410221   2    1000006    23
    0.0016940757   2    1000037    5
    0.00090510411   2    1000035    6
    0.00065959521   2    1000005    24

DECAY 1000024  0.33134915
    0.99981175   2    1000022    24
    0.00018799876   3    1000022   -5    6

DECAY 1000037  14.953782
    0.23943058   2    1000024    25
    0.23469062   2    1000025    24
    0.23082783   2    1000023    24
    0.23038498   2    1000024    23
    0.011001436   2    1000014   -13
    0.010998098   2    1000012   -11
    0.010721714   2   -1000013    14
    0.010717628   2   -1000011    12
    0.0070118056   3    1000025   -5    6
    0.0066253891   3    1000024    6   -6
    0.0060955809   3    1000023   -5    6
    0.001285929   2    1000022    24
    0.00012369592   3    1000024    5   -5

DECAY 1000022 -1


DECAY 1000023  0.31250546
    0.97493559   2    1000022    25
    0.025061981   2    1000022    23

DECAY 1000025  0.8548844
    0.58670875   2    1000022    23
    0.41326822   2    1000022    25

DECAY 1000035  18.252108
    0.19976861   2    1000025    25
    0.18940505   2    1000024   -24
    0.18940505   2   -1000024    24
    0.17703913   2    1000023    25
    0.17543347   2    1000025    23
    0.017588726   2    1000023    23
    0.0049184886   3    1000024    5   -6
    0.0049184886   3   -1000024   -5    6
    0.0045224414   2    1000014   -14
    0.0045224414   2   -1000014    14
    0.0045210864   2    1000012   -12
    0.0045210864   2   -1000012    12
    0.0043645642   2    1000013   -13
    0.0043645642   2   -1000013    13
    0.0043628816   2    1000011   -11
    0.0043628816   2   -1000011    11
    0.0024350424   3    1000025    6   -6
    0.0021817488   3    1000023    6   -6
    0.0010138022   2    1000022    25
    0.00018990577   2    1000022    23

DECAY 1000021  466.23012
    0.11548119   2    2000003   -3
    0.11548119   2   -2000003    3
    0.11548068   2    2000001   -1
    0.11548068   2   -2000001    1
    0.10240763   2    2000004   -4
    0.10240763   2   -2000004    4
    0.10240761   2    2000002   -2
    0.10240761   2   -2000002    2
    0.039436583   2    1000005   -5
    0.039436583   2   -1000005    5
    0.0064743071   2    1000006   -6
    0.0064743071   2   -1000006    6
    0.0054133626   2    2000005   -5
    0.0054133626   2   -2000005    5
    0.0026930179   2    1000006   -4
    0.0026930179   2   -1000006    4
    0.002366369   2    1000004   -4
    0.002366369   2   -1000004    4
    0.0023663205   2    1000002   -2
    0.0023663205   2   -1000002    2
    0.0023534469   2    1000003   -3
    0.0023534469   2   -1000003    3
    0.0023533773   2    1000001   -1
    0.0023533773   2   -1000001    1
    0.00035460035   3    1000025    6   -6
    0.00034965826   3    1000024    5   -6
    0.00034965826   3   -1000024   -5    6
    0.00034358049   3    1000023    6   -6
    0.00010136943   3    1000022    6   -6

DECAY 25  0.0038615357
    0.58165094   2   -5    5
    0.22041562   2   -24    24
    0.072215834   2    21    21
    0.066651627   2   -15    15
    0.028359067   2   -4    4
    0.026479363   2    23    23
    0.0023243814   2    22    22
    0.001453071   2    22    23
    0.00023105997   2   -13    13
    0.00021828081   2   -3    3
    6.0352212e-07   2   -1    1
    1.4614228e-07   2   -2    2
    5.1944891e-09   2   -11    11

DECAY 35  43.080185
    0.8877623   2   -5    5
    0.10994075   2   -15    15
    0.0015422339   2   -6    6
    0.00036070518   2   -13    13
    0.00034104911   2   -3    3
    2.499717e-05   2    21    21
    2.2875369e-05   2    1000022    1000022
    2.5419245e-06   2    25    25
    9.4275233e-07   2   -1    1
    9.023376e-07   2    23    23
    6.0891864e-07   2   -24    24
    2.3996268e-08   2   -1000001    1000001
    2.3840453e-08   2   -1000003    1000003
    2.3069722e-08   2   -4    4
    8.1026781e-09   2   -11    11
    5.6841782e-09   2    22    22
    2.70665e-09   2    22    23
    1.1893629e-13   2   -2    2

DECAY 36  41.047819
    0.88747372   2   -5    5
    0.10990652   2   -15    15
    0.0015346692   2   -6    6
    0.00036059344   2   -13    13
    0.00034093923   2   -3    3
    0.00033831553   2    1000022    1000022
    4.2887725e-05   2    21    21
    1.2526108e-06   2    23    25
    9.4244677e-07   2   -1    1
    7.1325464e-08   2    22    22
    6.2214312e-08   2    22    23
    2.1940568e-08   2   -4    4
    8.1001631e-09   2   -11    11
    1.131441e-13   2   -2    2
    1.0214706e-38   2    25    25

DECAY 37  43.100075
    0.88221551   2   -5    6
    0.11572525   2   -15    16
    0.0013167802   2   -5    4
    0.00040913067   2   -13    14
    0.0003055332   2   -3    4
    1.4212036e-05   2   -3    2
    9.4031767e-06   2   -5    2
    2.0157331e-06   2   -3    6
    1.2006799e-06   2    24    25
    8.4756896e-07   2   -1    2
    7.2139751e-08   2   -1    6
    3.9980207e-08   2   -1    4
    9.5696089e-09   2   -11    12
    3.7725926e-12   2    24    35
    2.9455051e-12   2    24    36

DECAY 6  2.43
    1   2    5    24

DECAY 15 -1
