BLOCK SPINFO
   1   SPheno
   2   v4.0.5be

BLOCK SPHENOINFO
   1   2
   2   2

BLOCK MODSEL
   1   0

BLOCK MINPAR
   3    38.433992
   4   -1

BLOCK EXTPAR
   0    1511.5347
   1    43.306191
   2    1757.2564
   3    3000
   11    4669.9485
   12    148.726
   13    1538.1381
   23   -301.58058
   25    37.654582
   26    3180.1496
   31    885.31469
   32    885.31469
   33    1569.4122
   34    1595.0077
   35    1595.0077
   36    587.61367
   41    5000
   42    5000
   43    1844.5973
   44    5000
   45    5000
   46    1399.0078
   47    5000
   48    5000
   49    1349.7048

BLOCK SMINPUTS
   1    127.90897
   2    1.1663787e-05
   3    0.1184
   4    91.1876
   5    4.18
   6    173.2
   7    1.777
   8    0
   11    0.00051099893
   12    0
   13    0.10565837
   14    0
   21    0.005
   22    0.0025
   23    0.095
   24    1.27

BLOCK GAUGE Q=  1511.5347
   1    0.35536298
   2    0.66519887
   3    1.219778

BLOCK YU Q=  1511.5347
   1   1    8.3873283e-06
   2   2    0.0042607628
   3   3    1.0132566

BLOCK YD Q=  1511.5347
   1   1    0.00063463164
   2   2    0.012058001
   3   3    0.62935573

BLOCK YE Q=  1511.5347
   1   1    0.00011074786
   2   2    0.022899145
   3   3    0.38512596

BLOCK AU Q=  1511.5347
   1   1    0
   2   2    0
   3   3    4669.9488

BLOCK AD Q=  1511.5347
   1   1    0
   2   2    0
   3   3    148.72602

BLOCK AE Q=  1511.5347
   1   1    0
   2   2    0
   3   3    1538.1381

BLOCK MSOFT Q=  1511.5347
   1    43.306191
   2    1757.2564
   3    3000
   21    10065103
   22   -15481.488
   31    885.31469
   32    885.31469
   33    1569.4122
   34    1595.0077
   35    1595.0077
   36    587.61367
   41    5000
   42    5000
   43    1844.5973
   44    5000
   45    5000
   46    1399.0078
   47    5000
   48    5000
   49    1349.7048

BLOCK MASS
   6    173.2
   23    91.1876
   24    80.429995
   15    1.777
   25    123.53357
   35    3178.539
   36    3180.1496
   37    3180.0726
   1000001    5029.523
   2000001    5021.5701
   1000002    5029.0996
   2000002    5023.4443
   1000003    5029.5268
   2000003    5021.5757
   1000004    5029.1031
   2000004    5023.445
   1000005    1367.0808
   2000005    1805.4776
   1000006    1214.6219
   2000006    1881.0274
   1000011    904.6576
   2000011    1595.834
   1000012    900.88772
   1000013    904.65435
   2000013    1595.8276
   1000014    900.88636
   1000015    589.03755
   2000015    1583.4712
   1000016    1581.0149
   1000021    3194.5293
   1000022    42.601523
   1000023    305.23622
   1000025   -306.98447
   1000035    1803.836
   1000024    302.60022
   1000037    1804.0019

BLOCK ALPHA
      -0.026084925

BLOCK HMIX Q=  1511.5347
   1   -301.58058
   2    37.654582
   3    243.9588
   4    10113352

BLOCK STOPMIX
   1   1   -0.35987923
   1   2    0.9329989
   2   1   -0.9329989
   2   2   -0.35987923

BLOCK SBOTMIX
   1   1   -0.022275304
   1   2    0.99975187
   2   1   -0.99975187
   2   2   -0.022275304

BLOCK STAUMIX
   1   1   -0.010374137
   1   2    0.99994619
   2   1   -0.99994619
   2   2   -0.010374137

BLOCK NMIX
   1   1   -0.98879377
   1   2    0.00046803146
   1   3    0.14832784
   1   4    0.016896903
   2   1   -0.11692768
   2   2   -0.035905243
   2   3   -0.69910734
   2   4   -0.70447687
   3   1    0.092807862
   3   2   -0.02711122
   3   3    0.69943488
   3   4   -0.70812607
   4   1    0.0012206319
   4   2   -0.99898727
   4   3    0.0062148018
   4   4    0.044545596

BLOCK UMIX
   1   1   -0.0087770307
   1   2   -0.99996148
   2   1    0.99996148
   2   2   -0.0087770307

BLOCK VMIX
   1   1   -0.06295141
   1   2    0.99801659
   2   1    0.99801659
   2   2    0.06295141

BLOCK HIGGSBOUNDSINPUTHIGGSCOUPLINGSFERMIONS
       0, 1417.8675,3,36,15,15

BLOCK HIGGSBOUNDSINPUTHIGGSCOUPLINGSBOSONS
       0,4,36,21,21,23

BLOCK SPHENOLOWENERGY
   1    0.00027937018
   2    1.5976575e-06
   3    3.5229781e-05
   4    3.5280827e-15
   5    1.5071246e-10
   6    3.1357273e-08
   7    1.2034051e-13
   8    5.1408321e-09
   9    1.0837066e-06
   10    9.6165068e-05
   11    0.99334833
   12    0.542603
   13    19.386555
   14    0
   15    0
   16    0.0021594849
   17    2.2816811e-15
   18    2.4798678e-11
   19    8.2893647e-11
   20   -5.9043087e-15
   21   -2.5243553e-10
   22   -5.6693139e-08
   23    0
   24    0
   25    0
   26    0
   27    0
   28    0
   29    0
   30    0
   31    0
   39    7.4552277e-05
   40    0
   41    0
   42    0

BLOCK FWCOEF Q=  160
   305   4422   0   0   -0.18881911
   305   4422   0   2   -0.13678902
   305   4322   0   2    0.00025170349
   305   6421   0   0   -0.095227835
   305   6421   0   2   -0.073416968
   305   6321   0   2    1.8964832e-05
   3051111   4133   0   0    1.5925173
   3051111   4133   0   2    1.5937215
   3051111   4233   0   2    0.00023214704
   3051111   4137   0   0   -4.4152094
   3051111   4137   0   2   -4.4113655
   3051111   4237   0   2   -0.0018046612
   3051313   4133   0   0    1.5925173
   3051313   4133   0   2    1.5937171
   3051313   4233   0   2    0.00023214613
   3051313   4137   0   0   -4.4152094
   3051313   4137   0   2   -4.41137
   3051313   4237   0   2   -0.0018046636
   3051212   4137   0   0    1.5053501
   3051212   4137   0   2    1.5045168
   3051212   4237   0   2    0.00039324358
   3051414   4137   0   0    1.5053501
   3051414   4137   0   2    1.5045168
   3051414   4237   0   2    0.00039324363
   3051616   4137   0   0    1.5053501
   3051616   4137   0   2    1.5045174
   3051616   4237   0   2    0.00039325708

BLOCK IMFWCOEF Q=  160
   305   4422   0   0    3.8587005e-07
   305   4422   0   2   -2.1060138e-05
   305   4322   0   2    6.4781621e-06
   305   6421   0   0    3.3052322e-07
   305   6421   0   2    4.3899895e-06
   305   6321   0   2    2.9457005e-06
   3051111   4133   0   2   -2.1103266e-06
   3051111   4233   0   2    4.722302e-06
   3051111   4137   0   2    1.7058969e-05
   3051111   4237   0   2   -3.6718699e-05
   3051313   4133   0   2   -2.1102843e-06
   3051313   4233   0   2    4.7222897e-06
   3051313   4137   0   2    1.7059022e-05
   3051313   4237   0   2   -3.6718745e-05
   3051212   4137   0   2   -3.6366189e-06
   3051212   4237   0   2    8.0011964e-06
   3051414   4137   0   2   -3.6366204e-06
   3051414   4237   0   2    8.0011964e-06
   3051616   4137   0   2   -3.6306898e-06
   3051616   4237   0   2    8.0012166e-06

DECAY 23  2.4952


DECAY 24  2.085


DECAY 1000011  1.1365011
    0.97156548   2    1000022    11
    0.02662379   2    1000023    11
    0.0013849506   2    1000025    11
    0.00042577646   2   -1000024    12

DECAY 2000011  7.9944101
    0.97926001   2    1000022    11
    0.012728244   2    1000023    11
    0.0080117027   2    1000025    11

DECAY 1000013  1.1439423
    0.96542247   2    1000022    13
    0.029618345   2    1000023    13
    0.0045361838   2    1000025    13
    0.00042300456   2   -1000024    14

DECAY 2000013  8.0255141
    0.97550641   2    1000022    13
    0.013619666   2    1000023    13
    0.0089215234   2    1000025    13
    0.0019277132   2   -1000024    14

DECAY 1000015  4.7843495
    0.60714484   2    1000022    15
    0.19686858   2   -1000024    16
    0.099265171   2    1000023    15
    0.096721402   2    1000025    15

DECAY 2000015  6.5251999
    0.33439287   2    1000023    15
    0.32587731   2    1000025    15
    0.31147841   2    1000022    15
    0.014203775   2    1000015    25
    0.014032414   2    1000015    23

DECAY 1000012  1.1485953
    0.96069231   2    1000022    12
    0.021536315   2    1000024    11
    0.015863075   2    1000025    12
    0.0019082996   2    1000023    12

DECAY 1000014  1.1559923
    0.9545436   2    1000022    14
    0.027798777   2    1000024    13
    0.015761534   2    1000025    14
    0.0018960845   2    1000023    14

DECAY 1000016  6.5483903
    0.66901037   2    1000024    15
    0.29661678   2    1000022    16
    0.027890237   2    1000015    24
    0.005787805   2    1000025    16
    0.0006948075   2    1000023    16

DECAY 2000001  143.26824
    0.9804372   2    1000021    1
    0.01912937   2    1000022    1
    0.00026570133   2    1000023    1
    0.00016742592   2    1000025    1

DECAY 1000001  192.42839
    0.73426321   2    1000021    1
    0.17467852   2   -1000037    2
    0.087211833   2    1000035    1
    0.0035852138   2    1000022    1
    0.00021754469   2    1000025    1

DECAY 2000003  143.29758
    0.98024049   2    1000021    3
    0.019127698   2    1000022    3
    0.00031468587   2    1000023    3
    0.00021647251   2    1000025    3
    0.00010062099   2   -1000024    4

DECAY 1000003  192.44505
    0.7342017   2    1000021    3
    0.17466363   2   -1000037    4
    0.08720439   2    1000035    3
    0.0035865646   2    1000022    3
    0.00025413077   2    1000025    3

DECAY 1000005  19.875622
    0.47139669   2   -1000024    6
    0.23929789   2    1000023    5
    0.23849444   2    1000025    5
    0.050778829   2    1000022    5

DECAY 2000005  130.47098
    0.63304736   2    1000006   -24
    0.2607971   2   -1000024    6
    0.050591892   2    1000025    5
    0.050367835   2    1000023    5
    0.0040116135   2    1000022    5
    0.00063166527   2    1000005    25
    0.00055253328   2    1000005    23

DECAY 2000002  151.87528
    0.92615798   2    1000021    2
    0.07220802   2    1000022    2
    0.0010024398   2    1000023    2
    0.00063147509   2    1000025    2

DECAY 1000002  192.42213
    0.73405808   2    1000021    2
    0.17398205   2    1000037    1
    0.08712713   2    1000035    2
    0.0035471084   2    1000022    2
    0.00090537544   2    1000024    1
    0.00036746162   2    1000023    2

DECAY 2000004  151.87889
    0.92613604   2    1000021    4
    0.072206306   2    1000022    4
    0.001008306   2    1000023    4
    0.00063740121   2    1000025    4

DECAY 1000004  192.43869
    0.73399648   2    1000021    4
    0.17396728   2    1000037    3
    0.087119742   2    1000035    4
    0.0035468078   2    1000022    4
    0.00098013356   2    1000024    3
    0.00037207713   2    1000023    4

DECAY 1000006  43.193657
    0.44905615   2    1000024    5
    0.25628872   2    1000023    6
    0.24432107   2    1000025    6
    0.050107292   2    1000022    6
    0.00021051331   2    1000022    4

DECAY 2000006  141.06522
    0.34817686   2    1000006    23
    0.26553737   2    1000006    25
    0.12865852   2    1000025    6
    0.12775756   2    1000024    5
    0.12176952   2    1000023    6
    0.006092662   2    1000022    6
    0.0014017296   2    1000005    24
    0.00060578987   2    1000037    5

DECAY 1000024  0.19227644
    0.99970302   2    1000022    24
    0.00027152777   3    1000022   -5    6

DECAY 1000037  35.590479
    0.12520429   2    1000014   -13
    0.12520402   2    1000012   -11
    0.1249936   2   -1000013    14
    0.12499299   2   -1000011    12
    0.10802985   2    1000024    25
    0.10449415   2    1000023    24
    0.10376347   2    1000025    24
    0.10357332   2    1000024    23
    0.040264989   2    1000006   -5
    0.011955051   2    1000016   -15
    0.011754759   2   -2000015    16
    0.0060363591   3    1000024    6   -6
    0.0047323389   3    1000025   -5    6
    0.0044245371   3    1000023   -5    6
    0.00047377973   3    1000024    5   -5

DECAY 1000022 -1


DECAY 1000023  0.16134905
    0.50176273   2    1000022    25
    0.4981987   2    1000022    23

DECAY 1000025  0.22210419
    0.58509736   2    1000022    23
    0.41484774   2    1000022    25

DECAY 1000035  36.68403
    0.10070228   2    1000024   -24
    0.10070228   2   -1000024    24
    0.074464632   2    1000025    25
    0.067231972   2    1000023    25
    0.064374124   2    1000025    23
    0.060920595   2    1000014   -14
    0.060920595   2   -1000014    14
    0.060920473   2    1000012   -12
    0.060920473   2   -1000012    12
    0.060423697   2    1000013   -13
    0.060423697   2   -1000013    13
    0.060423394   2    1000011   -11
    0.060423394   2   -1000011    11
    0.036566372   2    1000023    23
    0.018056767   2    1000006   -6
    0.018056767   2   -1000006    6
    0.0058101018   2    1000016   -16
    0.0058101018   2   -1000016    16
    0.0056765958   2    2000015   -15
    0.0056765958   2   -2000015    15
    0.0034138149   3    1000024    5   -6
    0.0034138149   3   -1000024   -5    6
    0.0019216127   3    1000025    6   -6
    0.0018738181   3    1000023    6   -6
    0.000387992   3    1000023    5   -5
    0.00038791745   3    1000025    5   -5

DECAY 1000021  221.53222
    0.16922053   2    1000006   -6
    0.16922053   2   -1000006    6
    0.14242701   2    1000005   -5
    0.14242701   2   -1000005    5
    0.098834106   2    2000005   -5
    0.098834106   2   -2000005    5
    0.080582271   2    2000006   -6
    0.080582271   2   -2000006    6
    0.0086343788   2    1000006   -4
    0.0086343788   2   -1000006    4
    0.00017529667   3    1000035    5   -5
    0.00012567876   3    1000035    6   -6

DECAY 25  0.0037014184
    0.59324614   2   -5    5
    0.20478043   2   -24    24
    0.071156178   2    21    21
    0.068321909   2   -15    15
    0.029390342   2   -4    4
    0.024071529   2    23    23
    0.0048419495   2    1000022    1000022
    0.0023565353   2    22    22
    0.0013735462   2    22    23
    0.00023700549   2   -13    13
    0.00022365354   2   -3    3
    6.1837966e-07   2   -1    1
    1.5146007e-07   2   -2    2
    5.3281653e-09   2   -11    11

DECAY 35  99.390385
    0.6741919   2   -5    5
    0.089738993   2   -15    15
    0.059773312   2   -1000024    1000037
    0.059773312   2   -1000037    1000024
    0.032366007   2    1000025    1000035
    0.02639957   2    1000023    1000035
    0.01829865   2    1000022    1000023
    0.015766342   2    1000022    1000025
    0.0076386123   2   -2000015    1000015
    0.0076386123   2   -1000015    2000015
    0.0015285259   2    1000022    1000022
    0.0012008815   2    1000022    1000035
    0.00119527   2   -6    6
    0.0010927782   2   -1000024    1000024
    0.00077393447   2   -1000006    1000006
    0.00066616299   2    1000025    1000025
    0.00063768376   2    1000023    1000025
    0.00036572942   2   -2000006    1000006
    0.00036572942   2   -1000006    2000006
    0.00030217695   2   -13    13
    0.0001996163   2   -3    3
    6.7598472e-05   2    1000023    1000023
    5.8386741e-06   2    25    25
    5.7412187e-06   2    21    21
    4.7214442e-06   2   -1000015    1000015
    8.2151444e-07   2   -2000015    2000015
    5.5183803e-07   2   -1    1
    3.2280415e-07   2    23    23
    9.0399164e-08   2   -24    24
    4.7905621e-08   2   -1000011    1000011
    4.754594e-08   2   -1000013    1000013
    2.6216041e-08   2    22    23
    2.3755914e-08   2   -1000005    1000005
    1.3809527e-08   2   -4    4
    7.728511e-09   2    22    22
    6.7866426e-09   2   -11    11
    6.2440063e-10   2   -2000013    1000013
    6.2440063e-10   2   -1000013    2000013
    7.1184723e-14   2   -2    2
    1.4604823e-14   2   -2000011    1000011
    1.4604823e-14   2   -1000011    2000011

DECAY 36  94.145289
    0.66257497   2   -5    5
    0.088200051   2   -15    15
    0.063182377   2   -1000024    1000037
    0.063182377   2   -1000037    1000024
    0.034302521   2    1000023    1000035
    0.027758808   2    1000025    1000035
    0.018480221   2    1000022    1000025
    0.017482603   2    1000022    1000023
    0.0080681159   2   -2000015    1000015
    0.0080681159   2   -1000015    2000015
    0.0015962393   2    1000022    1000022
    0.0013333838   2    1000022    1000035
    0.0012081877   2   -6    6
    0.0011792199   2   -1000024    1000024
    0.00081222843   2    1000025    1000025
    0.00069129987   2   -2000006    1000006
    0.00069129987   2   -1000006    2000006
    0.00061351167   2    1000023    1000025
    0.0002969909   2   -13    13
    0.00019618594   2   -3    3
    6.6727481e-05   2    1000023    1000023
    1.3406282e-05   2    21    21
    5.7965177e-07   2    23    25
    5.4235565e-07   2   -1    1
    1.4166736e-08   2    22    23
    1.3473803e-08   2   -4    4
    6.6700852e-09   2   -11    11
    3.8930946e-09   2    22    22
    6.5441276e-10   2   -2000013    1000013
    6.5441276e-10   2   -1000013    2000013
    1.2647456e-13   2    23    35
    6.9458314e-14   2   -2    2
    1.5306781e-14   2   -2000011    1000011
    1.5306781e-14   2   -1000011    2000011
    4.570464e-42   2    25    25

DECAY 37  100.89849
    0.67527166   2   -5    6
    0.093106199   2   -15    16
    0.059020334   2    1000024    1000035
    0.058186188   2    1000023    1000037
    0.057811532   2    1000025    1000037
    0.035735234   2    1000022    1000024
    0.01507129   2   -1000015    1000016
    0.0024310307   2    1000022    1000037
    0.0010002849   2   -5    4
    0.00098748958   2    1000023    1000024
    0.00056381798   2   -2000005    1000006
    0.00032916363   2   -13    14
    0.00027449741   2   -1000005    1000006
    0.00017911076   2   -3    4
    1.340396e-05   2    1000024    1000025
    8.3942118e-06   2   -3    2
    7.1430659e-06   2   -5    2
    1.4563325e-06   2   -3    6
    5.4111482e-07   2    24    25
    4.9683242e-07   2   -1    2
    2.7947316e-07   2   -2000015    1000016
    1.8517212e-07   2   -1000011    1000012
    1.8467508e-07   2   -1000013    1000014
    5.4614667e-08   2   -1    6
    2.3716496e-08   2   -1    4
    7.6991715e-09   2   -11    12
    1.241671e-09   2   -2000013    1000014
    1.1446927e-13   2    24    35
    2.9043373e-14   2   -2000011    1000012

DECAY 6  2.43
    1   2    5    24

DECAY 15 -1
