BLOCK SPINFO
   1   SPheno
   2   v4.0.5be

BLOCK SPHENOINFO
   1   2
   2   2

BLOCK MODSEL
   1   0

BLOCK MINPAR
   3    51.316815
   4    1

BLOCK EXTPAR
   0    1869.0278
   1   -258.29857
   2    1968.7115
   3    3000
   11   -2548.0443
   12   -948.69907
   13   -149.72559
   23    1636.6916
   25    50.238945
   26    3251.5232
   31    1031.6319
   32    1031.6319
   33    544.03877
   34    1512.73
   35    1512.73
   36    1590.0279
   41    5000
   42    5000
   43    1822.1677
   44    5000
   45    5000
   46    1831.0127
   47    5000
   48    5000
   49    966.85994

BLOCK SMINPUTS
   1    127.90897
   2    1.1663787e-05
   3    0.1184
   4    91.1876
   5    4.18
   6    173.2
   7    1.777
   8    0
   11    0.00051099893
   12    0
   13    0.10565837
   14    0
   21    0.005
   22    0.0025
   23    0.095
   24    1.27

BLOCK GAUGE Q=  1869.0278
   1    0.35536298
   2    0.66519887
   3    1.219778

BLOCK YU Q=  1869.0278
   1   1    8.3860329e-06
   2   2    0.0042601047
   3   3    1.0131001

BLOCK YD Q=  1869.0278
   1   1    0.00084659816
   2   2    0.016085365
   3   3    0.83956009

BLOCK YE Q=  1869.0278
   1   1    0.00014773757
   2   2    0.030547444
   3   3    0.51375775

BLOCK AU Q=  1869.0278
   1   1    0
   2   2    0
   3   3   -2548.0472

BLOCK AD Q=  1869.0278
   1   1    0
   2   2    0
   3   3   -948.70033

BLOCK AE Q=  1869.0278
   1   1    0
   2   2    0
   3   3   -149.72553

BLOCK MSOFT Q=  1869.0278
   1   -258.29857
   2    1968.7115
   3    3000
   21    7938104.7
   22   -2614263.7
   31    1031.6319
   32    1031.6319
   33    544.03877
   34    1512.73
   35    1512.73
   36    1590.0279
   41    5000
   42    5000
   43    1822.1677
   44    5000
   45    5000
   46    1831.0127
   47    5000
   48    5000
   49    966.85994

BLOCK MASS
   6    173.2
   23    91.1876
   24    80.429995
   15    1.777
   25    120.87973
   35    3250.8067
   36    3251.5232
   37    3252.1469
   1000001    5038.8864
   2000001    5030.4651
   1000002    5038.4235
   2000002    5032.388
   1000003    5038.9019
   2000003    5030.457
   1000004    5038.4262
   2000004    5032.3885
   1000005    1012.6174
   2000005    1882.2135
   1000006    1773.0792
   2000006    1970.1686
   1000011    1053.0386
   2000011    1513.4384
   1000012    1049.6426
   1000013    1053.0008
   2000013    1513.4394
   1000014    1049.6441
   1000015    566.84768
   2000015    1590.5199
   1000016    576.11646
   1000021    3211.6076
   1000022   -257.78214
   1000023    1625.9452
   1000025   -1636.3549
   1000035    2012.5675
   1000024    1626.778
   1000037    2012.7154

BLOCK ALPHA
      -0.019506233

BLOCK HMIX Q=  1869.0278
   1    1636.6916
   2    50.238945
   3    243.79951
   4    10572403

BLOCK STOPMIX
   1   1    0.67702509
   1   2    0.73595993
   2   1   -0.73595993
   2   2    0.67702509

BLOCK SBOTMIX
   1   1    0.056052188
   1   2    0.99842784
   2   1   -0.99842784
   2   2    0.056052188

BLOCK STAUMIX
   1   1    0.99723854
   1   2    0.074264996
   2   1   -0.074264996
   2   2    0.99723854

BLOCK NMIX
   1   1    0.99960413
   1   2    0.0001006451
   1   3    0.027884726
   1   4    0.0037428783
   2   1    0.016914244
   2   2    0.15259078
   2   3   -0.70044403
   2   4    0.69699937
   3   1   -0.022357273
   3   2    0.014993583
   3   3    0.70647465
   3   4    0.70722621
   4   1    0.0023744232
   4   2   -0.98817571
   4   3   -0.097438043
   4   4    0.11835943

BLOCK UMIX
   1   1   -0.13706915
   1   2    0.99056148
   2   1    0.99056148
   2   2    0.13706915

BLOCK VMIX
   1   1   -0.16685819
   1   2    0.9859809
   2   1    0.9859809
   2   2    0.16685819

BLOCK HIGGSBOUNDSINPUTHIGGSCOUPLINGSFERMIONS
       0, 2523.9516,3,36,15,15

BLOCK HIGGSBOUNDSINPUTHIGGSCOUPLINGSBOSONS
       0,4,36,21,21,23

BLOCK SPHENOLOWENERGY
   1    0.00029385023
   2    1.5956465e-06
   3    3.5266143e-05
   4    2.1356347e-15
   5    9.1230768e-11
   6    1.9036965e-08
   7    7.1502065e-14
   8    3.0545305e-09
   9    6.4594107e-07
   10    9.5942751e-05
   11    0.99105188
   12    0.54193868
   13    19.358301
   14    0
   15    0
   16    0.0021571471
   17    2.2816579e-15
   18    2.4803901e-11
   19    8.2916161e-11
   20    3.4139756e-15
   21    1.4592246e-10
   22    8.9370613e-09
   23    0
   24    0
   25    0
   26    0
   27    0
   28    0
   29    0
   30    0
   31    0
   39    7.763845e-05
   40    0
   41    0
   42    0

BLOCK FWCOEF Q=  160
   305   4422   0   0   -0.18881911
   305   4422   0   2   -0.15557856
   305   4322   0   2    0.00020561907
   305   6421   0   0   -0.095227835
   305   6421   0   2   -0.082140079
   305   6321   0   2   -2.1756225e-05
   3051111   4133   0   0    1.6005308
   3051111   4133   0   2    1.6013163
   3051111   4233   0   2    0.00031422797
   3051111   4137   0   0   -4.4232229
   3051111   4137   0   2   -4.4229703
   3051111   4237   0   2   -0.0024149604
   3051313   4133   0   0    1.6005308
   3051313   4133   0   2    1.6013114
   3051313   4233   0   2    0.00031422619
   3051313   4137   0   0   -4.4232229
   3051313   4137   0   2   -4.4229752
   3051313   4237   0   2   -0.0024149638
   3051212   4137   0   0    1.5053501
   3051212   4137   0   2    1.5052986
   3051212   4237   0   2    0.00052528204
   3051414   4137   0   0    1.5053501
   3051414   4137   0   2    1.5052986
   3051414   4237   0   2    0.00052528216
   3051616   4137   0   0    1.5053501
   3051616   4137   0   2    1.5052983
   3051616   4237   0   2    0.00052531511

BLOCK IMFWCOEF Q=  160
   305   4422   0   0    3.8589978e-07
   305   4422   0   2    2.3446053e-05
   305   4322   0   2    5.6187002e-06
   305   6421   0   0    3.3054868e-07
   305   6421   0   2   -1.3015544e-05
   305   6321   0   2    2.157325e-06
   3051111   4133   0   2    3.3824124e-07
   3051111   4233   0   2    6.5878797e-06
   3051111   4137   0   2   -1.7251639e-06
   3051111   4237   0   2   -5.0639915e-05
   3051313   4133   0   2    3.3820578e-07
   3051313   4233   0   2    6.5878586e-06
   3051313   4137   0   2   -1.7251927e-06
   3051313   4237   0   2   -5.0639987e-05
   3051212   4137   0   2    4.308869e-07
   3051212   4237   0   2    1.1014808e-05
   3051414   4137   0   2    4.3088586e-07
   3051414   4237   0   2    1.1014808e-05
   3051616   4137   0   2    4.2569478e-07
   3051616   4237   0   2    1.1014791e-05

DECAY 23  2.4952


DECAY 24  2.085


DECAY 1000011  1.1685099
    1   2    1000022    11

DECAY 2000011  7.1639603
    0.99999997   2    1000022    11

DECAY 1000013  1.1684712
    1   2    1000022    13

DECAY 2000013  7.1721516
    0.99886136   2    1000022    13
    0.0011386421   2    1000013    25

DECAY 1000015  0.46108498
    1   2    1000022    15

DECAY 2000015  25.999448
    0.37647627   2    1000016   -24
    0.28961801   2    1000022    15
    0.18933136   2    1000015    23
    0.14457436   2    1000015    25

DECAY 1000012  1.1629157
    0.99998847   2    1000022    12

DECAY 1000014  1.1629179
    0.99998843   2    1000022    14

DECAY 1000016  0.46238055
    0.99999974   2    1000022    16

DECAY 2000001  142.1432
    0.98034783   2    1000021    1
    0.019638859   2    1000022    1

DECAY 1000001  188.05237
    0.74567136   2    1000021    1
    0.16348428   2   -1000037    2
    0.081423037   2    1000035    1
    0.0037131831   2    1000022    1
    0.0035560072   2   -1000024    2
    0.0021180071   2    1000023    1

DECAY 2000003  142.18366
    0.98006287   2    1000021    3
    0.019633378   2    1000022    3
    0.00014327411   2   -1000024    4

DECAY 1000003  188.0764
    0.74558465   2    1000021    3
    0.16346452   2   -1000037    4
    0.08141402   2    1000035    3
    0.0037128264   2    1000022    3
    0.0035630479   2   -1000024    4
    0.0021718784   2    1000023    3

DECAY 1000005  0.51372302
    1   2    1000022    5

DECAY 2000005  13.948461
    0.50634995   2    1000005    25
    0.17947143   2    1000005    23
    0.1143989   2   -1000024    6
    0.065476193   2    1000006   -24
    0.05974216   2    1000023    5
    0.056579475   2    1000025    5
    0.017981891   2    1000022    5

DECAY 2000002  150.7272
    0.92584252   2    1000021    2
    0.074110273   2    1000022    2

DECAY 1000002  188.03905
    0.74546823   2    1000021    2
    0.1619611   2    1000037    1
    0.081276417   2    1000035    2
    0.0052695702   2    1000024    1
    0.0037215084   2    1000022    2
    0.0022917304   2    1000023    2

DECAY 2000004  150.73009
    0.92582467   2    1000021    4
    0.074108847   2    1000022    4

DECAY 1000004  188.06147
    0.74538052   2    1000021    4
    0.16194381   2    1000037    3
    0.081266929   2    1000035    4
    0.0053771701   2    1000024    3
    0.0037210663   2    1000022    4
    0.0022951925   2    1000023    4

DECAY 1000006  4.6549682
    0.45464728   2    1000022    6
    0.35255169   2    1000005    24
    0.17970425   2    1000024    5
    0.011168948   2    1000022    4
    0.00130292   3    1000022    24    5
    0.00022514302   2    1000023    4
    0.00020117768   3   -1000015    16    5

DECAY 2000006  16.29359
    0.21399309   2    1000005    24
    0.18947734   2    1000006    23
    0.17936461   2    1000024    5
    0.14393337   2    1000025    6
    0.13622869   2    1000023    6
    0.12699845   2    1000022    6
    0.0075982388   2    2000005    24
    0.0024062165   2    1000006    25

DECAY 1000024  17.917375
    0.72658233   2   -1000005    6
    0.18761489   2    1000016   -15
    0.058784218   2    1000022    24
    0.011550916   2   -1000015    16
    0.0040727216   2    1000014   -13
    0.003790565   2    1000012   -11
    0.0025345909   2   -1000013    14
    0.0025343287   2   -1000011    12
    0.0020799926   3    1000022   -5    6
    0.00043999134   2   -2000015    16

DECAY 1000037  43.443553
    0.16894565   2    1000016   -15
    0.1659971   2   -1000015    16
    0.10554598   2   -1000013    14
    0.10554027   2   -1000011    12
    0.1050785   2    1000014   -13
    0.10507464   2    1000012   -11
    0.061722779   2    1000025    24
    0.058169108   2    1000023    24
    0.055694205   2    1000024    23
    0.05233121   2    1000024    25
    0.0074397246   2    1000006   -5
    0.0049818941   2   -1000005    6
    0.0009688327   2    1000022    24
    0.0009227955   2   -2000015    16
    0.00085165854   2    2000006   -5
    0.00033278894   3    1000023   -5    6
    0.00032444413   3    1000025   -5    6

DECAY 1000022 -1


DECAY 1000023  17.920821
    0.35567747   2    1000005   -5
    0.35567747   2   -1000005    5
    0.096826578   2    1000015   -15
    0.096826578   2   -1000015    15
    0.037174852   2    1000022    23
    0.037131724   2    1000022    25
    0.0031465099   2    1000016   -16
    0.0031465099   2   -1000016    16
    0.0018977309   2    1000013   -13
    0.0018977309   2   -1000013    13
    0.0017580551   2    1000011   -11
    0.0017580551   2   -1000011    11
    0.0013998219   2    1000012   -12
    0.0013998219   2   -1000012    12
    0.0013998162   2    1000014   -14
    0.0013998162   2   -1000014    14
    0.0010253679   3    1000022    6   -6
    0.00020887367   2    2000015   -15
    0.00020887367   2   -2000015    15

DECAY 1000025  17.455078
    0.37415561   2    1000005   -5
    0.37415561   2   -1000005    5
    0.094676095   2    1000015   -15
    0.094676095   2   -1000015    15
    0.036554176   2    1000022    25
    0.02310027   2    1000022    23
    0.0011474801   3    1000022    6   -6
    0.00037374301   2    2000015   -15
    0.00037374301   2   -2000015    15
    0.00014974484   2    1000013   -13
    0.00014974484   2   -1000013    13
    0.00011489189   2    1000016   -16
    0.00011489189   2   -1000016    16

DECAY 1000035  45.782375
    0.079826263   2    1000016   -16
    0.079826263   2   -1000016    16
    0.079047315   2    1000015   -15
    0.079047315   2   -1000015    15
    0.059438349   2    1000025    23
    0.05345368   2    1000024   -24
    0.05345368   2   -1000024    24
    0.050195051   2    1000012   -12
    0.050195051   2   -1000012    12
    0.050194943   2    1000014   -14
    0.050194943   2   -1000014    14
    0.049701047   2    1000013   -13
    0.049701047   2   -1000013    13
    0.049696409   2    1000011   -11
    0.049696409   2   -1000011    11
    0.048975601   2    1000023    25
    0.047501045   2    1000025    25
    0.0046137705   2    2000005   -5
    0.0046137705   2   -2000005    5
    0.0022776423   2    1000005   -5
    0.0022776423   2   -1000005    5
    0.0014313509   2    1000006   -6
    0.0014313509   2   -1000006    6
    0.00057653086   2    1000022    23
    0.00055566886   2    1000023    23
    0.00054582275   2    1000022    25
    0.00044024066   2    2000015   -15
    0.00044024066   2   -2000015    15
    0.00029637603   3    1000024    5   -6
    0.00029637603   3   -1000024   -5    6

DECAY 1000021  210.26203
    0.18328773   2    1000005   -5
    0.18328773   2   -1000005    5
    0.10242546   2    2000006   -6
    0.10242546   2   -2000006    6
    0.097480964   2    2000005   -5
    0.097480964   2   -2000005    5
    0.092090461   2    1000006   -6
    0.092090461   2   -1000006    6
    0.023947202   2    1000006   -4
    0.023947202   2   -1000006    4
    0.00042166632   3    1000023    6   -6
    0.00035649674   3    1000025    6   -6
    0.00013331425   3    1000037    5   -6
    0.00013331425   3   -1000037   -5    6

DECAY 25  0.0034166315
    0.63505014   2   -5    5
    0.16502343   2   -24    24
    0.074039909   2    21    21
    0.072240356   2   -15    15
    0.031296485   2   -4    4
    0.018384962   2    23    23
    0.0023233549   2    22    22
    0.0011522851   2    22    23
    0.00025087394   2   -13    13
    0.00023737886   2   -3    3
    6.5632771e-07   2   -1    1
    1.6129177e-07   2   -2    2
    5.63999e-09   2   -11    11

DECAY 35  68.696681
    0.59103856   2   -5    5
    0.3557242   2   -15    15
    0.016205969   2    1000022    1000023
    0.013907631   2    1000022    1000025
    0.010146899   2   -2000005    1000005
    0.010146899   2   -1000005    2000005
    0.0011454683   2   -13    13
    0.0005526016   2   -6    6
    0.00043250335   2   -3    3
    0.00030190294   2   -1000005    1000005
    0.0001147459   2   -2000015    1000015
    0.0001147459   2   -1000015    2000015
    7.7498266e-05   2    1000022    1000022
    7.4447466e-05   2    1000022    1000035
    7.5376976e-06   2    21    21
    3.5357438e-06   2    25    25
    2.1993668e-06   2   -1000015    1000015
    1.1956936e-06   2   -1    1
    7.1830527e-07   2   -2000015    2000015
    7.9624972e-08   2    22    23
    4.6659343e-08   2    22    22
    4.5242626e-08   2    23    23
    3.5332717e-08   2   -1000011    1000011
    3.390892e-08   2   -1000013    1000013
    2.620503e-08   2   -2000013    1000013
    2.620503e-08   2   -1000013    2000013
    2.5725967e-08   2   -11    11
    1.3685026e-08   2   -4    4
    1.230978e-08   2   -24    24
    1.1006727e-08   2   -2000013    2000013
    1.0802392e-08   2   -2000011    2000011
    6.1306504e-13   2   -2000011    1000011
    6.1306504e-13   2   -1000011    2000011
    7.0525585e-14   2   -2    2

DECAY 36  65.14138
    0.58946922   2   -5    5
    0.35463814   2   -15    15
    0.01686269   2    1000022    1000025
    0.014892816   2    1000022    1000023
    0.010876983   2   -2000005    1000005
    0.010876983   2   -1000005    2000005
    0.0011419023   2   -13    13
    0.00043106512   2   -3    3
    0.00039503354   2   -6    6
    0.00012330668   2   -2000015    1000015
    0.00012330668   2   -1000015    2000015
    8.2959984e-05   2    1000022    1000022
    6.9033884e-05   2    1000022    1000035
    1.5091656e-05   2    21    21
    1.1917173e-06   2   -1    1
    8.2584108e-08   2    23    25
    7.2170031e-08   2    22    23
    2.7501691e-08   2   -2000013    1000013
    2.7501691e-08   2   -1000013    2000013
    2.5645609e-08   2   -11    11
    2.5066036e-08   2    22    22
    1.03073e-08   2   -4    4
    6.4326502e-13   2   -2000011    1000011
    6.4326502e-13   2   -1000011    2000011
    5.3111704e-14   2   -2    2
    4.4726419e-39   2    25    25

DECAY 37  78.343751
    0.73301816   2   -5    6
    0.21861524   2   -15    16
    0.026596955   2    1000022    1000024
    0.014065179   2   -1000005    2000006
    0.0051339679   2   -1000005    1000006
    0.001086247   2   -5    4
    0.00077288283   2   -13    14
    0.00035557787   2   -3    4
    0.00020375306   2   -2000015    1000016
    0.00012323841   2    1000022    1000037
    1.6669357e-05   2   -3    2
    7.7569243e-06   2   -5    2
    1.5182399e-06   2   -1000015    1000016
    1.4062446e-06   2   -3    6
    9.8598998e-07   2   -1    2
    1.2180135e-07   2   -1000011    1000012
    1.2003481e-07   2   -1000013    1000014
    6.8743155e-08   2    24    25
    4.6788913e-08   2   -2000013    1000014
    4.6456332e-08   2   -1    4
    4.030427e-08   2   -1    6
    1.807781e-08   2   -11    12
    1.0945238e-12   2   -2000011    1000012
    7.5119962e-14   2    24    35

DECAY 6  2.43
    1   2    5    24

DECAY 15 -1
