BLOCK SPINFO
   1   SPheno
   2   v4.0.5be

BLOCK SPHENOINFO
   1   2
   2   2

BLOCK MODSEL
   1   0

BLOCK MINPAR
   3    26.739426
   4    1

BLOCK EXTPAR
   0    1508.6918
   1    56.812078
   2    1011.3384
   3    3000
   11    3990.127
   12   -465.41563
   13    1777.843
   23    102.63916
   25    25.800353
   26    207.15787
   31    1341.2461
   32    1341.2461
   33    806.81053
   34    1811.8161
   35    1811.8161
   36    843.89315
   41    5000
   42    5000
   43    1279.24
   44    5000
   45    5000
   46    1941.8751
   47    5000
   48    5000
   49    856.20804

BLOCK SMINPUTS
   1    127.90897
   2    1.1663787e-05
   3    0.1184
   4    91.1876
   5    4.18
   6    173.2
   7    1.777
   8    0
   11    0.00051099893
   12    0
   13    0.10565837
   14    0
   21    0.005
   22    0.0025
   23    0.095
   24    1.27

BLOCK GAUGE Q=  1508.6918
   1    0.35536298
   2    0.66519887
   3    1.219778

BLOCK YU Q=  1508.6918
   1   1    8.3906676e-06
   2   2    0.0042624591
   3   3    1.01366

BLOCK YD Q=  1508.6918
   1   1    0.00043501317
   2   2    0.0082652503
   3   3    0.43139675

BLOCK YE Q=  1508.6918
   1   1    7.591298e-05
   2   2    0.015696397
   3   3    0.26398757

BLOCK AU Q=  1508.6918
   1   1    0
   2   2    0
   3   3    3990.1271

BLOCK AD Q=  1508.6918
   1   1    0
   2   2    0
   3   3   -465.41562

BLOCK AE Q=  1508.6918
   1   1    0
   2   2    0
   3   3    1777.843

BLOCK MSOFT Q=  1508.6918
   1    56.812078
   2    1011.3384
   3    3000
   21    31208.663
   22    38693.493
   31    1341.2461
   32    1341.2461
   33    806.81053
   34    1811.8161
   35    1811.8161
   36    843.89315
   41    5000
   42    5000
   43    1279.24
   44    5000
   45    5000
   46    1941.8751
   47    5000
   48    5000
   49    856.20804

BLOCK MASS
   6    173.2
   23    91.1876
   24    80.429995
   15    1.777
   25    125.50367
   35    207.35656
   36    207.15787
   37    224.47182
   1000001    5030.2108
   2000001    5020.4339
   1000002    5029.7794
   2000002    5021.8508
   1000003    5030.2126
   2000003    5020.4365
   1000004    5029.7811
   2000004    5021.8515
   1000005    835.10427
   2000005    1259.432
   1000006    1194.6905
   2000006    1905.2223
   1000011    1349.6839
   2000011    1813.9959
   1000012    1347.0195
   1000013    1349.6797
   2000013    1813.9883
   1000014    1347.0153
   1000015    817.8858
   2000015    840.01978
   1000016    813.81884
   1000021    3194.4158
   1000022    45.616442
   1000023   -116.47166
   1000025    122.25551
   1000035    1051.2387
   1000024    108.08334
   1000037    1051.4033

BLOCK ALPHA
      -0.069000739

BLOCK HMIX Q=  1508.6918
   1    102.63916
   2    25.800353
   3    243.96375
   4    42914.381

BLOCK STOPMIX
   1   1   -0.96071437
   1   2    0.27753902
   2   1   -0.27753902
   2   2   -0.96071437

BLOCK SBOTMIX
   1   1    0.0075757033
   1   2    0.9999713
   2   1   -0.9999713
   2   2    0.0075757033

BLOCK STAUMIX
   1   1    0.99897942
   1   2    0.045167749
   2   1   -0.045167749
   2   2    0.99897942

BLOCK NMIX
   1   1   -0.871432
   1   2    0.01722576
   1   3   -0.44693553
   1   4    0.2013906
   2   1   -0.17620078
   2   2    0.048011492
   2   3    0.66974349
   2   4    0.71978597
   3   1   -0.45776287
   3   2   -0.059036617
   3   3    0.5929421
   3   4   -0.659839
   4   1    0.0035648966
   4   2   -0.99695178
   4   3   -0.010580968
   4   4    0.077217141

BLOCK UMIX
   1   1   -0.01495471
   1   2    0.99988817
   2   1    0.99988817
   2   2    0.01495471

BLOCK VMIX
   1   1   -0.10919269
   1   2    0.9940206
   2   1    0.9940206
   2   2    0.10919269

BLOCK HIGGSBOUNDSINPUTHIGGSCOUPLINGSFERMIONS
       0, 665.6582,3,36,15,15

BLOCK HIGGSBOUNDSINPUTHIGGSCOUPLINGSBOSONS
       0,4,36,21,21,23

BLOCK SPHENOLOWENERGY
   1    0.00055861975
   2    1.6203478e-06
   3    3.5227007e-05
   4    2.0022203e-15
   5    8.5531323e-11
   6    1.7832831e-08
   7    6.6690916e-14
   8    2.8489879e-09
   9    6.0161137e-07
   10    3.0857012e-05
   11    0.31874112
   12    0.54279013
   13    19.238687
   14    0
   15    0
   16    0.0021628027
   17    2.2818047e-15
   18    2.4792245e-11
   19    8.2881276e-11
   20    5.1848183e-15
   21    2.2166575e-10
   22    8.9461532e-08
   23    0
   24    0
   25    0
   26    0
   27    0
   28    0
   29    0
   30    0
   31    0
   39    7.9590906e-05
   40    0
   41    0
   42    0

BLOCK FWCOEF Q=  160
   305   4422   0   0   -0.18881911
   305   4422   0   2   -0.41112741
   305   4322   0   2   -0.0037679794
   305   6421   0   0   -0.095227835
   305   6421   0   2   -0.28514878
   305   6321   0   2   -0.0033569079
   3051111   4133   0   0    1.5921626
   3051111   4133   0   2    1.593226
   3051111   4233   0   2   -0.00032508109
   3051111   4137   0   0   -4.4148547
   3051111   4137   0   2   -4.4105364
   3051111   4237   0   2    0.0025371926
   3051313   4133   0   0    1.5921626
   3051313   4133   0   2    1.5932248
   3051313   4233   0   2   -0.00032535865
   3051313   4137   0   0   -4.4148547
   3051313   4137   0   2   -4.4105375
   3051313   4237   0   2    0.0025374702
   3051212   4137   0   0    1.5053501
   3051212   4137   0   2    1.5044202
   3051212   4237   0   2   -0.00055293931
   3051414   4137   0   0    1.5053501
   3051414   4137   0   2    1.5044202
   3051414   4237   0   2   -0.00055287868
   3051616   4137   0   0    1.5053501
   3051616   4137   0   2    1.50442
   3051616   4237   0   2   -0.00053579267

BLOCK IMFWCOEF Q=  160
   305   4422   0   0    3.8580832e-07
   305   4422   0   2    2.4102706e-05
   305   4322   0   2   -2.8173643e-06
   305   6421   0   0    3.3047034e-07
   305   6421   0   2   -1.3681203e-06
   305   6321   0   2   -1.2397125e-06
   3051111   4133   0   2   -1.4032776e-06
   3051111   4233   0   2    2.4943142e-06
   3051111   4137   0   2    1.1869709e-05
   3051111   4237   0   2   -1.9386595e-05
   3051313   4133   0   2   -1.4032728e-06
   3051313   4233   0   2    2.4943109e-06
   3051313   4137   0   2    1.1869723e-05
   3051313   4237   0   2   -1.9386607e-05
   3051212   4137   0   2   -2.3792243e-06
   3051212   4237   0   2    4.2246797e-06
   3051414   4137   0   2   -2.3792243e-06
   3051414   4237   0   2    4.2246797e-06
   3051616   4137   0   2   -2.382718e-06
   3051616   4237   0   2    4.2246538e-06

DECAY 23  2.4952


DECAY 24  2.085


DECAY 1000011  4.4910978
    0.40883972   2   -1000037    12
    0.2652462   2    1000022    11
    0.20264107   2    1000035    11
    0.11991722   2    1000025    11
    0.0027716916   2    1000023    11
    0.00058409112   2   -1000024    12

DECAY 2000011  9.0862115
    0.76080879   2    1000022    11
    0.20829786   2    1000025    11
    0.030887698   2    1000023    11

DECAY 1000013  4.49756
    0.40824318   2   -1000037    14
    0.26515749   2    1000022    13
    0.20234545   2    1000035    13
    0.12025299   2    1000025    13
    0.0034176409   2    1000023    13
    0.00058325002   2   -1000024    14

DECAY 2000013  9.1038346
    0.75952761   2    1000022    13
    0.20823414   2    1000025    13
    0.031262299   2    1000023    13
    0.00096951368   2   -1000024    14

DECAY 1000015  2.1544188
    0.45873207   2    1000022    15
    0.31543473   2    1000025    15
    0.22234908   2    1000023    15
    0.003484128   2   -1000024    16

DECAY 2000015  6.39687
    0.52713603   2    1000022    15
    0.19682372   2    1000025    15
    0.17508685   2   -1000024    16
    0.10095338   2    1000023    15

DECAY 1000012  4.5299985
    0.39492271   2    1000037    11
    0.30433351   2    1000022    12
    0.19958197   2    1000035    12
    0.044302474   2    1000025    12
    0.030809618   2    1000024    11
    0.026049716   2    1000023    12

DECAY 1000014  4.5364484
    0.39435251   2    1000037    13
    0.30389986   2    1000022    14
    0.19929376   2    1000035    14
    0.044239344   2    1000025    14
    0.032201926   2    1000024    13
    0.026012596   2    1000023    14

DECAY 1000016  2.1874728
    0.53517045   2    1000024    15
    0.37924724   2    1000022    16
    0.053838805   2    1000025    16
    0.031743505   2    1000023    16

DECAY 2000001  143.16264
    0.98042949   2    1000021    1
    0.014865161   2    1000022    1
    0.0040977396   2    1000025    1
    0.00060724494   2    1000023    1

DECAY 1000001  202.83547
    0.69700954   2    1000021    1
    0.19960763   2   -1000037    2
    0.099347721   2    1000035    1
    0.003243956   2    1000022    1
    0.00068725498   2    1000023    1

DECAY 2000003  143.17651
    0.98033642   2    1000021    3
    0.014873219   2    1000022    3
    0.0041140344   2    1000025    3
    0.00062848089   2    1000023    3

DECAY 1000003  202.8443
    0.69698008   2    1000021    3
    0.19959912   2   -1000037    4
    0.099343441   2    1000035    3
    0.0032505281   2    1000022    3
    0.00070228529   2    1000023    3

DECAY 1000005  6.1732414
    0.44126148   2   -1000024    6
    0.2175514   2    1000023    5
    0.18304833   2    1000025    5
    0.15813879   2    1000022    5

DECAY 2000005  30.408115
    0.79261205   2   -1000024    6
    0.068988882   2    1000023    5
    0.053268051   2    1000025    5
    0.035403389   2    1000022    5
    0.022445212   2   -1000037    6
    0.016692797   2    1000035    5
    0.0050009061   2    1000005    36
    0.0049162725   2    1000005    35
    0.0004628482   2    1000005    25
    0.00020959212   2    1000005    23

DECAY 2000002  151.71836
    0.9261126   2    1000021    2
    0.056123272   2    1000022    2
    0.015470838   2    1000025    2
    0.0022924294   2    1000023    2

DECAY 1000002  202.83261
    0.69679796   2    1000021    2
    0.19725458   2    1000037    1
    0.099086346   2    1000035    2
    0.0026004341   2    1000024    1
    0.002153652   2    1000025    2
    0.0020768571   2    1000022    2

DECAY 2000004  151.722
    0.92609049   2    1000021    4
    0.056122409   2    1000022    4
    0.015475677   2    1000025    4
    0.0022985628   2    1000023    4

DECAY 1000004  202.84138
    0.69676842   2    1000021    4
    0.19724614   2    1000037    3
    0.099082151   2    1000035    4
    0.0026338899   2    1000024    3
    0.0021574544   2    1000025    4
    0.0020771314   2    1000022    4

DECAY 1000006  28.937429
    0.39693955   2    1000023    6
    0.37689434   2    1000025    6
    0.17442345   2    1000024    5
    0.021750072   2    1000022    6
    0.018523305   2    1000037    5
    0.010303697   2    1000005    37
    0.00090209266   3    1000022    24    5
    0.00026235076   2    1000005    24

DECAY 2000006  216.15894
    0.29203073   2    2000005    24
    0.17261   2    1000024    5
    0.1684146   2    1000006    23
    0.16682805   2    1000006    25
    0.095411389   2    1000023    6
    0.074852122   2    1000025    6
    0.024954365   2    1000022    6
    0.001611012   2    2000005    37
    0.0014604632   2    1000006    35
    0.00095005752   2    1000006    36
    0.00050551824   2    1000037    5
    0.00030838186   2    1000035    6

DECAY 1000024  0.00026339817
    0.33361663   3    1000022   -1    2
    0.33307564   3    1000022   -3    4
    0.11119703   3    1000022   -11    12
    0.11119601   3    1000022   -13    14
    0.11091469   3    1000022   -15    16

DECAY 1000037  19.157241
    0.1232937   2    1000023    24
    0.11982696   2    1000024    23
    0.1190504   2    1000024    25
    0.11253483   2    1000025    24
    0.10836511   2    1000024    36
    0.10687106   2    1000024    35
    0.10056349   2    37    1000023
    0.076443122   2    37    1000025
    0.042840766   2    37    1000022
    0.038354183   2    1000016   -15
    0.037560979   2   -1000015    16
    0.0065097677   2    1000022    24
    0.0025507421   3    1000023   -5    6
    0.0024345165   3    1000024    6   -6
    0.0024159123   3    1000025   -5    6
    0.00016179065   3    1000022   -5    6
    0.0001143687   3    1000024    5   -5

DECAY 1000022 -1


DECAY 1000023  0.00080153901
    0.20347003   3    1000022    12   -12
    0.15197588   3    1000022    1   -1
    0.15197427   3    1000022    3   -3
    0.14973508   3    1000022    5   -5
    0.11853239   3    1000022    2   -2
    0.11816907   3    1000022    4   -4
    0.034258636   3    1000022    11   -11
    0.034258333   3    1000022    13   -13
    0.034173951   3    1000022    15   -15
    0.0030889313   2    1000022    22

DECAY 1000025  0.00012782814
    0.20160122   3    1000022    12   -12
    0.1542526   3    1000022    5   -5
    0.15009543   3    1000022    3   -3
    0.15009517   3    1000022    1   -1
    0.11709672   3    1000022    2   -2
    0.1167781   3    1000022    4   -4
    0.033493967   3    1000022    13   -13
    0.033492236   3    1000022    11   -11
    0.033226634   3    1000022    15   -15
    0.0014390014   3    1000024    1   -2
    0.0014390014   3   -1000024   -1    2
    0.0013833986   3    1000024    3   -4
    0.0013833986   3   -1000024   -3    4
    0.0012387373   2    1000022    22
    0.0004796269   3    1000024    11   -12
    0.0004796269   3   -1000024   -11    12
    0.00047948063   3    1000024    13   -14
    0.00047948063   3   -1000024   -13    14
    0.00044061891   3    1000024    15   -16
    0.00044061891   3   -1000024   -15    16

DECAY 1000035  19.574129
    0.11857547   2    1000024   -24
    0.11857547   2   -1000024    24
    0.10472757   2    37   -1000024
    0.10472757   2   -37    1000024
    0.076782434   2    1000023    23
    0.071886849   2    1000025    25
    0.06895252   2    1000023    35
    0.061117167   2    1000023    25
    0.040315448   2    1000025    35
    0.038888938   2    1000025    23
    0.034778113   2    1000023    36
    0.031899194   2    1000025    36
    0.021896508   2    1000022    35
    0.019877683   2    1000022    36
    0.018932639   2    1000016   -16
    0.018932639   2   -1000016    16
    0.018180988   2    1000015   -15
    0.018180988   2   -1000015    15
    0.0046980683   2    1000022    25
    0.0023554539   2    1000022    23
    0.0018953381   3    1000024    5   -6
    0.0018953381   3   -1000024   -5    6
    0.00089110064   3    1000023    6   -6
    0.00079126153   3    1000025    6   -6

DECAY 1000021  259.97216
    0.15784076   2    1000005   -5
    0.15784076   2   -1000005    5
    0.14339271   2    1000006   -6
    0.14339271   2   -1000006    6
    0.12971973   2    2000005   -5
    0.12971973   2   -2000005    5
    0.068391077   2    2000006   -6
    0.068391077   2   -2000006    6
    0.0010659118   3    1000035    6   -6

DECAY 25  0.014996787
    0.50713488   2   -5    5
    0.33649814   2    1000022    1000022
    0.062242632   2   -24    24
    0.060595687   2   -15    15
    0.017152452   2    21    21
    0.0076098812   2    23    23
    0.0073277789   2   -4    4
    0.00062790649   2    22    22
    0.00040612771   2    22    23
    0.00020907998   2   -13    13
    0.00019485506   2   -3    3
    5.3874807e-07   2   -1    1
    3.7761337e-08   2   -2    2
    4.7003447e-09   2   -11    11

DECAY 35  2.8037425
    0.84663981   2   -5    5
    0.11588458   2   -15    15
    0.020790653   2    1000022    1000022
    0.012872054   2    1000022    1000023
    0.0019051296   2    1000022    1000025
    0.00049340119   2    21    21
    0.00044861957   2   -24    24
    0.00039740032   2   -13    13
    0.00033665961   2   -3    3
    0.00016636119   2    23    23
    6.367628e-05   2   -1000024    1000024
    9.3080377e-07   2   -1    1
    3.7553481e-07   2    22    22
    2.6295538e-07   2   -4    4
    8.0765593e-08   2    22    23
    8.9326391e-09   2   -11    11
    1.3559528e-12   2   -2    2

DECAY 36  2.8256429
    0.84346474   2   -5    5
    0.11537773   2   -15    15
    0.028127444   2    1000022    1000022
    0.005787801   2    1000022    1000025
    0.0045181759   2    1000022    1000023
    0.001540962   2   -1000024    1000024
    0.00044974846   2    21    21
    0.00039554806   2   -13    13
    0.00033514742   2   -3    3
    1.4820606e-06   2    23    25
    9.2662262e-07   2   -1    1
    1.7653544e-07   2    22    22
    6.9646453e-08   2   -4    4
    4.1959016e-08   2    22    23
    8.8909974e-09   2   -11    11
    3.591036e-13   2   -2    2

DECAY 37  0.82221497
    0.46161714   2   -5    6
    0.3903208   2   -15    16
    0.12686994   2    1000022    1000024
    0.014216276   2    1000024    1000025
    0.0040317979   2   -5    4
    0.0013800948   2   -13    14
    0.0010634268   2   -3    4
    0.00026819246   2    24    25
    0.00014254737   2    1000023    1000024
    4.7938916e-05   2   -3    2
    2.8793034e-05   2   -5    2
    5.1326927e-06   2   -3    6
    2.950356e-06   2   -1    2
    2.3515179e-06   2    24    36
    2.2191392e-06   2    24    35
    2.2411541e-07   2   -1    6
    1.4505505e-07   2   -1    4
    3.2280575e-08   2   -11    12

DECAY 6  2.43
    1   2    5    24

DECAY 15 -1
