# SUSY Les Houches Accord 2 - MSSM spectrum + Decays
# SPheno v4.0.5be
# W. Porod, Comput. Phys. Commun. 153 (2003) 275-315, hep-ph/0301101;
# W. Porod, F.~Staub, Comput. Phys. Commun. 183 (2012) 2458
#                     arXiv:1104.1573 [hep-ph] 
# in case of problems send email to porod@physik.uni-wuerzburg.de
# Created: 20.12.2022,  12:07
Block SPINFO         # Program information
     1   SPheno      # spectrum calculator
     2   v4.0.5be    # version number
#
Block SPhenoINFO     # SPheno specific information
    1      2         # using 2-loop RGEs
    2      2         # using pole masses for boundary conditions at mZ
Block MODSEL  # Model selection
    1    0    # general MSSM
Block MINPAR  # Input parameters
    3    3.33460247E+01  # tanb at m_Z    
    4    1.00000000E+00  # Sign(mu)
Block EXTPAR  # non-universal input parameters
    0    2.48737650E+03  # scale for input parameters
    1   -4.13639113E-01  # M_1
    2   -3.98118620E+02  # M_2
    3    1.58896340E+03  # M_3
   11   -2.17916472E+03  # A_t
   12    1.78212005E+03  # A_b
   13   -1.19854648E+02  # A_tau
   23    8.70567646E+02  # mu
   25    3.23094735E+01  # tan(beta)
   26    9.00120914E+02  # m_A, pole mass
   31    1.00000000E+04  # M_L11
   32    1.00000000E+04  # M_L22
   33    1.00000000E+04  # M_L33
   34    1.00000000E+04  # M_E11
   35    1.00000000E+04  # M_E22
   36    1.00000000E+04  # M_E33
   41    1.00000000E+04  # M_Q11
   42    1.00000000E+04  # M_Q22
   43    2.89349024E+03  # M_Q33
   44    1.00000000E+04  # M_U11
   45    1.00000000E+04  # M_U22
   46    2.09779154E+03  # M_U33
   47    1.00000000E+04  # M_D11
   48    1.00000000E+04  # M_D22
   49    3.43339188E+03  # M_D33
Block SMINPUTS  # SM parameters
         1     1.27908970E+02  # alpha_em^-1(MZ)^MSbar
         2     1.16637870E-05  # G_mu [GeV^-2]
         3     1.18400000E-01  # alpha_s(MZ)^MSbar
         4     9.11876000E+01  # m_Z(pole)
         5     4.18000000E+00  # m_b(m_b), MSbar
         6     1.73200000E+02  # m_t(pole)
         7     1.77700000E+00  # m_tau(pole)
         8     0.00000000E+00  # m_nu_3
        11     5.10998930E-04  # m_e(pole)
        12     0.00000000E+00  # m_nu_1
        13     1.05658372E-01  # m_muon(pole)
        14     0.00000000E+00  # m_nu_2
        21     5.00000000E-03  # m_d(2 GeV), MSbar
        22     2.50000000E-03  # m_u(2 GeV), MSbar
        23     9.50000000E-02  # m_s(2 GeV), MSbar
        24     1.27000000E+00  # m_c(m_c), MSbar
Block gauge Q=  2.48737650E+03  # (SUSY scale)
   1    3.55362975E-01  # g'(Q)^DRbar
   2    6.65198874E-01  # g(Q)^DRbar
   3    1.21977796E+00  # g3(Q)^DRbar
Block Yu Q=  2.48737650E+03  # (SUSY scale)
  1  1     8.38838705E-06   # Y_u(Q)^DRbar
  2  2     4.26130062E-03   # Y_c(Q)^DRbar
  3  3     1.01338453E+00   # Y_t(Q)^DRbar
Block Yd Q=  2.48737650E+03  # (SUSY scale)
  1  1     5.44613735E-04   # Y_d(Q)^DRbar
  2  2     1.03476610E-02   # Y_s(Q)^DRbar
  3  3     5.40086168E-01   # Y_b(Q)^DRbar
Block Ye Q=  2.48737650E+03  # (SUSY scale)
  1  1     9.50390792E-05   # Y_e(Q)^DRbar
  2  2     1.96510674E-02   # Y_mu(Q)^DRbar
  3  3     3.30498625E-01   # Y_tau(Q)^DRbar
Block Au Q=  2.48737650E+03  # (SUSY scale)
  1  1     0.00000000E+00   # A_u(Q)^DRbar
  2  2     0.00000000E+00   # A_c(Q)^DRbar
  3  3    -2.17916580E+03   # A_t(Q)^DRbar
Block Ad Q=  2.48737650E+03  # (SUSY scale)
  1  1     0.00000000E+00   # A_d(Q)^DRbar
  2  2     0.00000000E+00   # A_s(Q)^DRbar
  3  3     1.78211888E+03   # A_b(Q)^DRbar
Block Ae Q=  2.48737650E+03  # (SUSY scale)
  1  1     0.00000000E+00   # A_e(Q)^DRbar
  2  2     0.00000000E+00   # A_mu(Q)^DRbar
  3  3    -1.19854644E+02   # A_tau(Q)^DRbar
Block MSOFT Q=  2.48737650E+03  # soft SUSY breaking masses at Q
   1   -4.13639113E-01  # M_1
   2   -3.98118620E+02  # M_2
   3    1.58896340E+03  # M_3
  21   -1.76278175E+05  # M^2_(H,d)
  22   -6.36185928E+05  # M^2_(H,u)
  31    1.00000000E+04  # M_(L,11)
  32    1.00000000E+04  # M_(L,22)
  33    1.00000000E+04  # M_(L,33)
  34    1.00000000E+04  # M_(E,11)
  35    1.00000000E+04  # M_(E,22)
  36    1.00000000E+04  # M_(E,33)
  41    1.00000000E+04  # M_(Q,11)
  42    1.00000000E+04  # M_(Q,22)
  43    2.89349024E+03  # M_(Q,33)
  44    1.00000000E+04  # M_(U,11)
  45    1.00000000E+04  # M_(U,22)
  46    2.09779154E+03  # M_(U,33)
  47    1.00000000E+04  # M_(D,11)
  48    1.00000000E+04  # M_(D,22)
  49    3.43339188E+03  # M_(D,33)
Block MASS  # Mass spectrum
#   PDG code      mass          particle
         6     1.73200000E+02  # m_t(pole)
        23     9.11876000E+01  # m_Z(pole)
        24     8.04299946E+01  # W+
        15     1.77700000E+00  # m_tau(pole)
        25     1.21486951E+02  # h0
        35     9.00177207E+02  # H0
        36     9.00120914E+02  # A0
        37     9.06929471E+02  # H+
   1000001     1.01183024E+04  # ~d_L
   2000001     1.00930983E+04  # ~d_R
   1000002     1.01179386E+04  # ~u_L
   2000002     1.00965111E+04  # ~u_R
   1000003     1.01183099E+04  # ~s_L
   2000003     1.00931105E+04  # ~s_R
   1000004     1.01179459E+04  # ~c_L
   2000004     1.00965132E+04  # ~c_R
   1000005     2.91616637E+03  # ~b_1
   2000005     3.46731984E+03  # ~b_2
   1000006     2.11627853E+03  # ~t_1
   2000006     2.92354799E+03  # ~t_2
   1000011     1.00213895E+04  # ~e_L-
   2000011     1.00086638E+04  # ~e_R-
   1000012     1.00206231E+04  # ~nu_eL
   1000013     1.00214230E+04  # ~mu_L-
   2000013     1.00087241E+04  # ~mu_R-
   1000014     1.00206548E+04  # ~nu_muL
   1000015     1.00250992E+04  # ~tau_1-
   2000015     1.00315744E+04  # ~tau_2-
   1000016     1.00296547E+04  # ~nu_tauL
   1000021     1.93378661E+03  # ~g
   1000022     5.81545911E-01  # ~chi_10
   1000023     4.32698083E+02  # ~chi_20
   1000025     8.84942110E+02  # ~chi_30
   1000035     8.89222357E+02  # ~chi_40
   1000024     4.32851048E+02  # ~chi_1+
   1000037     8.90504970E+02  # ~chi_2+
# Higgs mixing
Block alpha # Effective Higgs mixing angle
          -3.06297137E-02   # alpha
Block Hmix Q=  2.48737650E+03  # Higgs mixing parameters
   1    8.70567646E+02  # mu
   2    3.23094735E+01  # tan[beta](Q)
   3    2.43452483E+02  # v(Q)
   4    8.10217660E+05  # m^2_A(Q)
Block stopmix # stop mixing matrix
   1  1     8.12299634E-02   # Re[R_st(1,1)]
   1  2     9.96695386E-01   # Re[R_st(1,2)]
   2  1    -9.96695386E-01   # Re[R_st(2,1)]
   2  2     8.12299634E-02   # Re[R_st(2,2)]
Block sbotmix # sbottom mixing matrix
   1  1     9.99859313E-01   # Re[R_sb(1,1)]
   1  2     1.67735965E-02   # Re[R_sb(1,2)]
   2  1    -1.67735965E-02   # Re[R_sb(2,1)]
   2  2     9.99859313E-01   # Re[R_sb(2,2)]
Block staumix # stau mixing matrix
   1  1     4.27436449E-01   # Re[R_sta(1,1)]
   1  2     9.04045398E-01   # Re[R_sta(1,2)]
   2  1    -9.04045398E-01   # Re[R_sta(2,1)]
   2  2     4.27436449E-01   # Re[R_sta(2,2)]
Block Nmix # neutralino mixing matrix
   1  1    -9.98697784E-01   # Re[N(1,1)]
   1  2    -6.85887666E-04   # Re[N(1,2)]
   1  3    -5.09895197E-02   # Re[N(1,3)]
   1  4     1.52803950E-03   # Re[N(1,4)]
   2  1     5.12368256E-03   # Re[N(2,1)]
   2  2     9.91910738E-01   # Re[N(2,2)]
   2  3    -1.15281767E-01   # Re[N(2,3)]
   2  4    -5.28861924E-02   # Re[N(2,4)]
   3  1     3.70837038E-02   # Re[N(3,1)]
   3  2    -4.43629578E-02   # Re[N(3,2)]
   3  3    -7.04540785E-01   # Re[N(3,3)]
   3  4     7.07304043E-01   # Re[N(3,4)]
   4  1     3.46595335E-02   # Re[N(4,1)]
   4  2    -1.18930841E-01   # Re[N(4,2)]
   4  3    -6.98378454E-01   # Re[N(4,3)]
   4  4    -7.04926738E-01   # Re[N(4,4)]
Block Umix # chargino mixing matrix
   1  1    -9.86622961E-01   # Re[U(1,1)]
   1  2     1.63018809E-01   # Re[U(1,2)]
   2  1    -1.63018809E-01   # Re[U(2,1)]
   2  2    -9.86622961E-01   # Re[U(2,2)]
Block Vmix # chargino mixing matrix
   1  1     9.97170440E-01   # Re[V(1,1)]
   1  2     7.51738899E-02   # Re[V(1,2)]
   2  1     7.51738899E-02   # Re[V(2,1)]
   2  2    -9.97170440E-01   # Re[V(2,2)]
DECAY        23     2.49520000E+00   # Z
DECAY        24     2.08500000E+00   # W
DECAY   2000011     5.02878509E+01   # ~e^-_R
#    BR                NDA      ID1      ID2
     9.97437495E-01    2     1000022        11   # BR(~e^-_R -> chi^0_1 e^-)
     1.35385548E-03    2     1000025        11   # BR(~e^-_R -> chi^0_3 e^-)
     1.18245837E-03    2     1000035        11   # BR(~e^-_R -> chi^0_4 e^-)
DECAY   1000011     1.44389700E+02   # ~e^-_L
#    BR                NDA      ID1      ID2
     8.71806943E-02    2     1000022        11   # BR(~e^-_L -> chi^0_1 e^-)
     3.01101436E-01    2     1000023        11   # BR(~e^-_L -> chi^0_2 e^-)
     1.81295207E-04    2     1000025        11   # BR(~e^-_L -> chi^0_3 e^-)
     3.03198536E-03    2     1000035        11   # BR(~e^-_L -> chi^0_4 e^-)
     5.92523198E-01    2    -1000024        12   # BR(~e^-_L -> chi^-_1 nu_e)
     1.59813905E-02    2    -1000037        12   # BR(~e^-_L -> chi^-_2 nu_e)
#    BR                NDA      ID1      ID2       ID3
DECAY   2000013     5.04395587E+01   # ~mu^-_R
#    BR                NDA      ID1      ID2
     9.94447441E-01    2     1000022        13   # BR(~mu^-_R -> chi^0_1 mu^-)
     2.09469061E-03    2     1000025        13   # BR(~mu^-_R -> chi^0_3 mu^-)
     1.91072225E-03    2     1000035        13   # BR(~mu^-_R -> chi^0_4 mu^-)
     1.46052518E-03    2    -1000037        14   # BR(~mu^-_R -> chi^-_2 nu_mu)
DECAY   1000013     1.44465988E+02   # ~mu^-_L
#    BR                NDA      ID1      ID2
     8.71363338E-02    2     1000022        13   # BR(~mu^-_L -> chi^0_1 mu^-)
     3.00950501E-01    2     1000023        13   # BR(~mu^-_L -> chi^0_2 mu^-)
     4.41617547E-04    2     1000025        13   # BR(~mu^-_L -> chi^0_3 mu^-)
     3.28624008E-03    2     1000035        13   # BR(~mu^-_L -> chi^0_4 mu^-)
     5.92212301E-01    2    -1000024        14   # BR(~mu^-_L -> chi^-_1 nu_mu)
     1.59730064E-02    2    -1000037        14   # BR(~mu^-_L -> chi^-_2 nu_mu)
#    BR                NDA      ID1      ID2       ID3
DECAY   1000015     1.06645631E+02   # ~tau^-_1
#    BR                NDA      ID1      ID2
     4.13242633E-01    2     1000022        15   # BR(~tau^-_1 -> chi^0_1 tau^-)
     1.02750241E-01    2     1000023        15   # BR(~tau^-_1 -> chi^0_2 tau^-)
     9.03880135E-02    2     1000025        15   # BR(~tau^-_1 -> chi^0_3 tau^-)
     7.80454738E-02    2     1000035        15   # BR(~tau^-_1 -> chi^0_4 tau^-)
     2.01960078E-01    2    -1000024        16   # BR(~tau^-_1 -> chi^-_1 nu_tau)
     1.13613560E-01    2    -1000037        16   # BR(~tau^-_1 -> chi^-_2 nu_tau)
DECAY   2000015     1.52616863E+02   # ~tau^-_2
#    BR                NDA      ID1      ID2
     1.23767157E-01    2     1000022        15   # BR(~tau^-_2 -> chi^0_1 tau^-)
     2.17105335E-01    2     1000023        15   # BR(~tau^-_2 -> chi^0_2 tau^-)
     7.70182576E-02    2     1000025        15   # BR(~tau^-_2 -> chi^0_3 tau^-)
     8.58403240E-02    2     1000035        15   # BR(~tau^-_2 -> chi^0_4 tau^-)
     4.23720085E-01    2    -1000024        16   # BR(~tau^-_2 -> chi^-_1 nu_tau)
     7.25488413E-02    2    -1000037        16   # BR(~tau^-_2 -> chi^-_2 nu_tau)
#    BR                NDA      ID1      ID2       ID3
DECAY   1000012     1.44394014E+02   # ~nu_e
#    BR                NDA      ID1      ID2
     8.67243100E-02    2     1000022        12   # BR(~nu_e -> chi^0_1 nu_e)
     2.97764304E-01    2     1000023        12   # BR(~nu_e -> chi^0_2 nu_e)
     1.23840879E-03    2     1000025        12   # BR(~nu_e -> chi^0_3 nu_e)
     5.68002562E-03    2     1000035        12   # BR(~nu_e -> chi^0_4 nu_e)
     6.05194920E-01    2     1000024        11   # BR(~nu_e -> chi^+_1 e^-)
     3.39803194E-03    2     1000037        11   # BR(~nu_e -> chi^+_2 e^-)
#    BR                NDA      ID1      ID2       ID3
DECAY   1000014     1.44470270E+02   # ~nu_mu
#    BR                NDA      ID1      ID2
     8.66788088E-02    2     1000022        14   # BR(~nu_mu -> chi^0_1 nu_mu)
     2.97608084E-01    2     1000023        14   # BR(~nu_mu -> chi^0_2 nu_mu)
     1.23775916E-03    2     1000025        14   # BR(~nu_mu -> chi^0_3 nu_mu)
     5.67704607E-03    2     1000035        14   # BR(~nu_mu -> chi^0_4 nu_mu)
     6.04891522E-01    2     1000024        13   # BR(~nu_mu -> chi^+_1 mu^-)
     3.90677952E-03    2     1000037        13   # BR(~nu_mu -> chi^+_2 mu^-)
#    BR                NDA      ID1      ID2       ID3
DECAY   1000016     1.65984680E+02   # ~nu_tau
#    BR                NDA      ID1      ID2
     7.55115338E-02    2     1000022        16   # BR(~nu_tau -> chi^0_1 nu_tau)
     2.59267448E-01    2     1000023        16   # BR(~nu_tau -> chi^0_2 nu_tau)
     1.07832272E-03    2     1000025        16   # BR(~nu_tau -> chi^0_3 nu_tau)
     4.94578398E-03    2     1000035        16   # BR(~nu_tau -> chi^0_4 nu_tau)
     5.30429276E-01    2     1000024        15   # BR(~nu_tau -> chi^+_1 tau^-)
     1.28767635E-01    2     1000037        15   # BR(~nu_tau -> chi^+_2 tau^-)
#    BR                NDA      ID1      ID2       ID3
DECAY   2000001     7.44900046E+02   # ~d_R
#    BR                NDA      ID1      ID2
     7.54495526E-03    2     1000022         1   # BR(~d_R -> chi^0_1 d)
     9.92435499E-01    2     1000021         1   # BR(~d_R -> ~g d)
DECAY   1000001     8.75886670E+02   # ~d_L
#    BR                NDA      ID1      ID2
     1.59578199E-03    2     1000022         1   # BR(~d_L -> chi^0_1 d)
     4.97529547E-02    2     1000023         1   # BR(~d_L -> chi^0_2 d)
     1.30099525E-04    2     1000025         1   # BR(~d_L -> chi^0_3 d)
     7.83575006E-04    2     1000035         1   # BR(~d_L -> chi^0_4 d)
     9.86289290E-02    2    -1000024         2   # BR(~d_L -> chi^-_1 u)
     2.66081303E-03    2    -1000037         2   # BR(~d_L -> chi^-_2 u)
     8.46447847E-01    2     1000021         1   # BR(~d_L -> ~g d)
DECAY   2000003     7.44943312E+02   # ~s_R
#    BR                NDA      ID1      ID2
     7.54460100E-03    2     1000022         3   # BR(~s_R -> chi^0_1 s)
     9.92379241E-01    2     1000021         3   # BR(~s_R -> ~g s)
DECAY   1000003     8.75912172E+02   # ~s_L
#    BR                NDA      ID1      ID2
     1.59580051E-03    2     1000022         3   # BR(~s_L -> chi^0_1 s)
     4.97518677E-02    2     1000023         3   # BR(~s_L -> chi^0_2 s)
     1.42091143E-04    2     1000025         3   # BR(~s_L -> chi^0_3 s)
     7.95337875E-04    2     1000035         3   # BR(~s_L -> chi^0_4 s)
     9.86261497E-02    2    -1000024         4   # BR(~s_L -> chi^-_1 c)
     2.66482814E-03    2    -1000037         4   # BR(~s_L -> chi^-_2 c)
     8.46423925E-01    2     1000021         3   # BR(~s_L -> ~g s)
DECAY   1000005     1.83686779E+02   # ~b_1
#    BR                NDA      ID1      ID2
     2.50755215E-03    2     1000022         5   # BR(~b_1 -> chi^0_1 b)
     6.70745904E-02    2     1000023         5   # BR(~b_1 -> chi^0_2 b)
     3.77480732E-02    2     1000025         5   # BR(~b_1 -> chi^0_3 b)
     3.76631703E-02    2     1000035         5   # BR(~b_1 -> chi^0_4 b)
     1.30894060E-01    2    -1000024         6   # BR(~b_1 -> chi^-_1 t)
     2.67451061E-01    2    -1000037         6   # BR(~b_1 -> chi^-_2 t)
     3.93391099E-01    2     1000021         5   # BR(~b_1 -> ~g b)
     6.32703944E-02    2     1000006       -24   # BR(~b_1 -> ~t_1 W^-)
DECAY   2000005     1.67496223E+02   # ~b_2
#    BR                NDA      ID1      ID2
     1.17415775E-02    2     1000022         5   # BR(~b_2 -> chi^0_1 b)
     1.18406176E-03    2     1000023         5   # BR(~b_2 -> chi^0_2 b)
     5.22684118E-02    2     1000025         5   # BR(~b_2 -> chi^0_3 b)
     5.14453542E-02    2     1000035         5   # BR(~b_2 -> chi^0_4 b)
     2.35710955E-03    2    -1000024         6   # BR(~b_2 -> chi^-_1 t)
     1.02380629E-01    2    -1000037         6   # BR(~b_2 -> chi^-_2 t)
     7.75520602E-01    2     1000021         5   # BR(~b_2 -> ~g b)
     1.10553837E-03    2     2000006       -24   # BR(~b_2 -> ~t_2 W^-)
     3.97300033E-04    2     1000006       -37   # BR(~b_2 -> ~t_1 H^-)
     5.72345541E-04    2     1000005        23   # BR(~b_2 -> ~b_1 Z)
     9.49844049E-04    2     1000005        25   # BR(~b_2 -> ~b_1 h^0)
DECAY   2000002     7.62099656E+02   # ~u_R
#    BR                NDA      ID1      ID2
     2.95086749E-02    2     1000022         2   # BR(~u_R -> chi^0_1 u)
     9.70415496E-01    2     1000021         2   # BR(~u_R -> ~g u)
DECAY   1000002     8.75875262E+02   # ~u_L
#    BR                NDA      ID1      ID2
     1.62055366E-03    2     1000022         2   # BR(~u_L -> chi^0_1 u)
     4.99351905E-02    2     1000023         2   # BR(~u_L -> chi^0_2 u)
     6.36531100E-04    2     1000035         2   # BR(~u_L -> chi^0_4 u)
     1.00746648E-01    2     1000024         1   # BR(~u_L -> chi^+_1 d)
     5.65864753E-04    2     1000037         1   # BR(~u_L -> chi^+_2 d)
     8.46423823E-01    2     1000021         2   # BR(~u_L -> ~g u)
DECAY   2000004     7.62106988E+02   # ~c_R
#    BR                NDA      ID1      ID2
     2.95083960E-02    2     1000022         4   # BR(~c_R -> chi^0_1 c)
     9.70406351E-01    2     1000021         4   # BR(~c_R -> ~g c)
DECAY   1000004     8.75900710E+02   # ~c_L
#    BR                NDA      ID1      ID2
     1.62050769E-03    2     1000022         4   # BR(~c_L -> chi^0_1 c)
     4.99337862E-02    2     1000023         4   # BR(~c_L -> chi^0_2 c)
     6.38553029E-04    2     1000035         4   # BR(~c_L -> chi^0_4 c)
     1.00744445E-01    2     1000024         3   # BR(~c_L -> chi^+_1 s)
     5.89365536E-04    2     1000037         3   # BR(~c_L -> chi^+_2 s)
     8.46399899E-01    2     1000021         4   # BR(~c_L -> ~g c)
DECAY   1000006     6.38824426E+01   # ~t_1
#    BR                NDA      ID1      ID2
     7.23929387E-02    2     1000022         6   # BR(~t_1 -> chi^0_1 t)
     1.60937801E-04    2     1000023         6   # BR(~t_1 -> chi^0_2 t)
     2.22127993E-01    2     1000025         6   # BR(~t_1 -> chi^0_3 t)
     2.23212037E-01    2     1000035         6   # BR(~t_1 -> chi^0_4 t)
     3.24886968E-04    2     1000024         5   # BR(~t_1 -> chi^+_1 b)
     4.57167453E-01    2     1000037         5   # BR(~t_1 -> chi^+_2 b)
     2.46121673E-02    2     1000021         6   # BR(~t_1 -> ~g t)
#    BR                NDA      ID1      ID2       ID3
DECAY   2000006     1.83913767E+02   # ~t_2
#    BR                NDA      ID1      ID2
     2.41273365E-03    2     1000022         6   # BR(~t_2 -> chi^0_1 t)
     6.74086385E-02    2     1000023         6   # BR(~t_2 -> chi^0_2 t)
     1.35028236E-01    2     1000025         6   # BR(~t_2 -> chi^0_3 t)
     1.30639560E-01    2     1000035         6   # BR(~t_2 -> chi^0_4 t)
     1.37065223E-01    2     1000024         5   # BR(~t_2 -> chi^+_1 b)
     7.36975217E-02    2     1000037         5   # BR(~t_2 -> chi^+_2 b)
     3.79338394E-01    2     1000021         6   # BR(~t_2 -> ~g t)
     3.20385635E-02    2     1000006        23   # BR(~t_2 -> ~t_1 Z)
     4.23711297E-02    2     1000006        25   # BR(~t_2 -> ~t_1 h^0)
DECAY   1000024     1.52347323E-03   # chi^+_1
#    BR                NDA      ID1      ID2
     9.97365894E-01    2     1000022        24   # BR(chi^+_1 -> chi^0_1 W^+)
#    BR                NDA      ID1      ID2       ID3
     2.57502947E-03    3     1000022        -5         6   # BR(chi^+_1 -> chi^0_1 b_bar t)
DECAY   1000037     5.60210326E+00   # chi^+_2
#    BR                NDA      ID1      ID2
     1.09283946E-01    2     1000022        24   # BR(chi^+_2 -> chi^0_1 W^+)
     3.14754711E-01    2     1000023        24   # BR(chi^+_2 -> chi^0_2 W^+)
     2.88657199E-01    2     1000024        23   # BR(chi^+_2 -> chi^+_1 Z)
     2.82031665E-01    2     1000024        25   # BR(chi^+_2 -> chi^+_1 h^0)
#    BR                NDA      ID1      ID2       ID3
     6.60916686E-04    3     1000024         6        -6   # BR(chi^+_2 -> chi^+_1 t t_bar)
     1.69594315E-03    3     1000022        -5         6   # BR(chi^+_2 -> chi^0_1 b_bar t)
     2.79349955E-03    3     1000023        -5         6   # BR(chi^+_2 -> chi^0_2 b_bar t)
DECAY   1000022     0.00000000E+00   # chi^0_1
DECAY   1000023     1.41188637E-03   # chi^0_2
#    BR                NDA      ID1      ID2
     6.89416048E-01    2     1000022        23   # BR(chi^0_2 -> chi^0_1 Z)
     3.09743269E-01    2     1000022        25   # BR(chi^0_2 -> chi^0_1 h^0)
     1.11844057E-04    2     1000022        22   # BR(chi^0_2 -> chi^0_1 photon)
#    BR                NDA      ID1      ID2       ID3
     1.04139947E-04    3     1000022         6        -6   # BR(chi^0_2 -> chi^0_1 t t_bar)
     5.59293398E-04    3     1000022         5        -5   # BR(chi^0_2 -> chi^0_1 b b_bar)
DECAY   1000025     7.02929732E+00   # chi^0_3
#    BR                NDA      ID1      ID2
     2.31598929E-01    2     1000024       -24   # BR(chi^0_3 -> chi^+_1 W^-)
     2.31598929E-01    2    -1000024        24   # BR(chi^0_3 -> chi^-_1 W^+)
     4.07082620E-02    2     1000022        23   # BR(chi^0_3 -> chi^0_1 Z)
     2.18660261E-01    2     1000023        23   # BR(chi^0_3 -> chi^0_2 Z)
     4.02065900E-02    2     1000022        25   # BR(chi^0_3 -> chi^0_1 h^0)
     2.32875536E-01    2     1000023        25   # BR(chi^0_3 -> chi^0_2 h^0)
#    BR                NDA      ID1      ID2       ID3
     4.48827121E-04    3     1000022         6        -6   # BR(chi^0_3 -> chi^0_1 t t_bar)
     1.56396865E-04    3     1000022         5        -5   # BR(chi^0_3 -> chi^0_1 b b_bar)
     1.34048222E-04    3     1000023         6        -6   # BR(chi^0_3 -> chi^0_2 t t_bar)
     1.77108646E-03    3     1000024         5        -6   # BR(chi^0_3 -> chi^+_1 b t_bar)
     1.77108646E-03    3    -1000024        -5         6   # BR(chi^0_3 -> chi^-_1 b_bar t)
DECAY   1000035     5.70498998E+00   # chi^0_4
#    BR                NDA      ID1      ID2
     3.04533012E-01    2     1000024       -24   # BR(chi^0_4 -> chi^+_1 W^-)
     3.04533012E-01    2    -1000024        24   # BR(chi^0_4 -> chi^-_1 W^+)
     5.64176599E-02    2     1000022        23   # BR(chi^0_4 -> chi^0_1 Z)
     3.65940175E-02    2     1000023        23   # BR(chi^0_4 -> chi^0_2 Z)
     4.39391963E-02    2     1000022        25   # BR(chi^0_4 -> chi^0_1 h^0)
     2.46481996E-01    2     1000023        25   # BR(chi^0_4 -> chi^0_2 h^0)
#    BR                NDA      ID1      ID2       ID3
     6.55903632E-04    3     1000022         6        -6   # BR(chi^0_4 -> chi^0_1 t t_bar)
     2.00048780E-04    3     1000022         5        -5   # BR(chi^0_4 -> chi^0_1 b b_bar)
     1.60084984E-04    3     1000023         6        -6   # BR(chi^0_4 -> chi^0_2 t t_bar)
     3.20177462E-03    3     1000024         5        -6   # BR(chi^0_4 -> chi^+_1 b t_bar)
     3.20177462E-03    3    -1000024        -5         6   # BR(chi^0_4 -> chi^-_1 b_bar t)
DECAY   1000021     5.79719163E-02   # ~g
#    BR                NDA      ID1      ID2
     2.60946581E-04    2     1000022        21   # BR(~g -> chi^0_1 g)
     7.01366555E-03    2     1000025        21   # BR(~g -> chi^0_3 g)
     7.41305374E-03    2     1000035        21   # BR(~g -> chi^0_4 g)
#    BR                NDA      ID1      ID2       ID3
     9.06494107E-02    3     1000022         6        -6   # BR(~g -> chi^0_1 t t_bar)
     3.18709273E-03    3     1000022         5        -5   # BR(~g -> chi^0_1 b b_bar)
     1.41903604E-04    3     1000023         2        -2   # BR(~g -> chi^0_2 u u_bar)
     1.41903264E-04    3     1000023         4        -4   # BR(~g -> chi^0_2 c c_bar)
     3.11874040E-02    3     1000023         6        -6   # BR(~g -> chi^0_2 t t_bar)
     1.41360359E-04    3     1000023         1        -1   # BR(~g -> chi^0_2 d d_bar)
     1.41362057E-04    3     1000023         3        -3   # BR(~g -> chi^0_2 s s_bar)
     3.18557105E-02    3     1000023         5        -5   # BR(~g -> chi^0_2 b b_bar)
     1.76546907E-01    3     1000025         6        -6   # BR(~g -> chi^0_3 t t_bar)
     1.18693467E-02    3     1000025         5        -5   # BR(~g -> chi^0_3 b b_bar)
     1.64652843E-01    3     1000035         6        -6   # BR(~g -> chi^0_4 t t_bar)
     1.16709869E-02    3     1000035         5        -5   # BR(~g -> chi^0_4 b b_bar)
     1.48781722E-04    3     1000024         1        -2   # BR(~g -> chi^+_1 d u_bar)
     1.48781722E-04    3    -1000024        -1         2   # BR(~g -> chi^-_1 d_bar u)
     1.48783478E-04    3     1000024         3        -4   # BR(~g -> chi^+_1 s c_bar)
     1.48783478E-04    3    -1000024        -3         4   # BR(~g -> chi^-_1 s_bar c)
     3.61524734E-02    3     1000024         5        -6   # BR(~g -> chi^+_1 b t_bar)
     3.61524734E-02    3    -1000024        -5         6   # BR(~g -> chi^-_1 b_bar t)
     1.94982567E-01    3     1000037         5        -6   # BR(~g -> chi^+_2 b t_bar)
     1.94982567E-01    3    -1000037        -5         6   # BR(~g -> chi^-_2 b_bar t)
DECAY        25     3.58094965E-03   # Gamma(h0)
     2.25405787E-03   2        22        22   # BR(h0 -> photon photon)
     1.16650222E-03   2        22        23   # BR(h0 -> photon Z)
     1.90314665E-02   2        23        23   # BR(h0 -> Z Z)
     1.68754629E-01   2       -24        24   # BR(h0 -> W W)
     7.23505607E-02   2        21        21   # BR(h0 -> gluon gluon)
     5.64149284E-09   2       -11        11   # BR(h0 -> Electron electron)
     2.50941523E-04   2       -13        13   # BR(h0 -> Muon muon)
     7.23499341E-02   2       -15        15   # BR(h0 -> Tau tau)
     1.54517776E-07   2        -2         2   # BR(h0 -> Up up)
     2.99824647E-02   2        -4         4   # BR(h0 -> Charm charm)
     6.56197806E-07   2        -1         1   # BR(h0 -> Down down)
     2.37332375E-04   2        -3         3   # BR(h0 -> Strange strange)
     6.32927790E-01   2        -5         5   # BR(h0 -> Bottom bottom)
     6.93504756E-04   2   1000022   1000022   # BR(h0 -> neutralino1 neutralino1)
DECAY        35     1.45419739E+01   # Gamma(HH)
     8.02703180E-09   2        22        22   # BR(HH -> photon photon)
     1.57477281E-07   2        22        23   # BR(HH -> photon Z)
     4.22295266E-06   2        23        23   # BR(HH -> Z Z)
     6.33317244E-06   2       -24        24   # BR(HH -> W W)
     5.89992992E-05   2        21        21   # BR(HH -> gluon gluon)
     1.10485056E-08   2       -11        11   # BR(HH -> Electron electron)
     4.91749966E-04   2       -13        13   # BR(HH -> Muon muon)
     1.41994508E-01   2       -15        15   # BR(HH -> Tau tau)
     1.98801064E-13   2        -2         2   # BR(HH -> Up up)
     3.85482184E-08   2        -4         4   # BR(HH -> Charm charm)
     1.93834746E-03   2        -6         6   # BR(HH -> Top top)
     9.33684919E-07   2        -1         1   # BR(HH -> Down down)
     3.37721737E-04   2        -3         3   # BR(HH -> Strange strange)
     8.50397321E-01   2        -5         5   # BR(HH -> Bottom bottom)
     1.47604090E-03   2  -1000024   1000024   # BR(HH -> Chargino1 chargino1)
     3.50805865E-04   2   1000022   1000022   # BR(HH -> neutralino1 neutralino1)
     2.00300530E-03   2   1000022   1000023   # BR(HH -> neutralino1 neutralino2)
     1.07703554E-04   2   1000022   1000025   # BR(HH -> neutralino1 neutralino3)
     8.43272631E-05   2   1000022   1000035   # BR(HH -> neutralino1 neutralino4)
     7.30730398E-04   2   1000023   1000023   # BR(HH -> neutralino2 neutralino2)
     1.70345405E-05   2        25        25   # BR(HH -> h0 h0)
DECAY        36     1.43479093E+01   # Gamma(A0)
     2.81714124E-07   2        22        22   # BR(A0 -> photon photon)
     1.11446814E-06   2        22        23   # BR(A0 -> photon Z)
     9.78116451E-05   2        21        21   # BR(A0 -> gluon gluon)
     1.09684255E-08   2       -11        11   # BR(A0 -> Electron electron)
     4.88185523E-04   2       -13        13   # BR(A0 -> Muon muon)
     1.40967550E-01   2       -15        15   # BR(A0 -> Tau tau)
     1.86516880E-13   2        -2         2   # BR(A0 -> Up up)
     3.61438840E-08   2        -4         4   # BR(A0 -> Charm charm)
     2.13857908E-03   2        -6         6   # BR(A0 -> Top top)
     9.26924906E-07   2        -1         1   # BR(A0 -> Down down)
     3.35276666E-04   2        -3         3   # BR(A0 -> Strange strange)
     8.44274700E-01   2        -5         5   # BR(A0 -> Bottom bottom)
     6.12678916E-03   2  -1000024   1000024   # BR(A0 -> Chargino1 chargino1)
     3.56811446E-04   2   1000022   1000022   # BR(A0 -> neutralino1 neutralino1)
     1.97800186E-03   2   1000022   1000023   # BR(A0 -> neutralino1 neutralino2)
     1.17937951E-04   2   1000022   1000025   # BR(A0 -> neutralino1 neutralino3)
     7.87774096E-05   2   1000022   1000035   # BR(A0 -> neutralino1 neutralino4)
     3.03075213E-03   2   1000023   1000023   # BR(A0 -> neutralino2 neutralino2)
     6.45685445E-06   2        23        25   # BR(A0 -> Z h0)
     4.70040231E-37   2        25        25   # BR(A0 -> h0 h0)
DECAY        37     1.34044553E+01   # Gamma(Hp)
     1.24415106E-08   2       -11        12   # BR(Hp -> Electron nu_e)
     5.31913423E-04   2       -13        14   # BR(Hp -> Muon nu_mu)
     1.50454317E-01   2       -15        16   # BR(Hp -> Tau nu_tau)
     9.09401617E-07   2        -1         2   # BR(Hp -> Down up)
     1.51204893E-05   2        -3         2   # BR(Hp -> Strange up)
     9.37928681E-06   2        -5         2   # BR(Hp -> Bottom up)
     4.34721005E-08   2        -1         4   # BR(Hp -> Down charm)
     3.27806172E-04   2        -3         4   # BR(Hp -> Strange charm)
     1.31343109E-03   2        -5         4   # BR(Hp -> Bottom charm)
     1.68051178E-07   2        -1         6   # BR(Hp -> Down top)
     4.11070227E-06   2        -3         6   # BR(Hp -> Strange top)
     8.42734883E-01   2        -5         6   # BR(Hp -> Bottom top)
     4.33991334E-03   2   1000022   1000024   # BR(Hp -> neutralino1 chargino1)
     2.60800354E-04   2   1000022   1000037   # BR(Hp -> neutralino1 chargino2)
     5.88421343E-08   2   1000023   1000024   # BR(Hp -> neutralino2 chargino1)
     7.13010424E-06   2        24        25   # BR(Hp -> W h0)
     1.41603656E-09   2        24        35   # BR(Hp -> W HH)
     1.47601819E-09   2        24        36   # BR(Hp -> W A0)
DECAY         6     2.43000000E+00   # top
#    BR                NDA      ID1      ID2
     1.00000000E+00    2           5        24   # BR(t -> b W)
Block HiggsBoundsInputHiggsCouplingsFermions
# ScalarNormEffCoupSq PseudoSNormEffCoupSq NP IP1 IP2 IP2
    9.79999035E-01    0.00000000E+00        3  25   5   5  # h0-b-b eff. coupling^2, normalised to SM
    1.04392208E+03    0.00000000E+00        3  35   5   5  # H0-b-b eff. coupling^2, normalised to SM
    0.00000000E+00    1.04390208E+03        3  36   5   5  # A0-b-b eff. coupling^2, normalised to SM
#
    1.00001916E+00    0.00000000E+00        3  25   6   6  # h0-t-t eff. coupling^2, normalised to SM
    9.38784447E-04    0.00000000E+00        3  35   6   6  # H0-t-t eff. coupling^2, normalised to SM
    0.00000000E+00    9.57944257E-04        3  36   6   6  # A0-t-t eff. coupling^2, normalised to SM
#
    9.79999035E-01    0.00000000E+00        3  25  15  15  # h0-tau-tau eff. coupling^2, normalised to SM
    1.04392208E+03    0.00000000E+00        3  35  15  15  # H0-tau-tau eff. coupling^2, normalised to SM
    0.00000000E+00    1.04390208E+03        3  36  15  15  # A0-tau-tau eff. coupling^2, normalised to SM
#
Block HiggsBoundsInputHiggsCouplingsBosons
    9.99999903E-01        3  25  24  24  # h0-W-W eff. coupling^2, normalised to SM
    9.67729688E-08        3  35  24  24  # H0-W-W eff. coupling^2, normalised to SM
    0.00000000E+00        3  36  24  24  # A0-W-W eff. coupling^2, normalised to SM
#
    9.99999903E-01        3  25  23  23  # h0-Z-Z eff. coupling^2, normalised to SM
    9.67729688E-08        3  35  23  23  # H0-Z-Z eff. coupling^2, normalised to SM
    0.00000000E+00        3  36  23  23  # A0-Z-Z eff. coupling^2, normalised to SM
#
    1.26092309E+00        3  25  21  21  # h0-g-g eff. coupling^2, normalised to SM
    1.50554735E-02        3  35  21  21  # H0-g-g eff. coupling^2, normalised to SM
    1.36201276E-01        3  36  21  21  # A0-g-g eff. coupling^2, normalised to SM
#
    0.00000000E+00        3  25  25  23  # h0-h0-Z eff. coupling^2, normalised to SM
    0.00000000E+00        3  35  25  23  # H0-h0-Z eff. coupling^2, normalised to SM
    9.67729688E-08        3  36  25  23  # A0-h0-Z eff. coupling^2, normalised to SM
    0.00000000E+00        3  35  35  23  # H0-H0-Z eff. coupling^2, normalised to SM
    9.99999903E-01        3  36  35  23  # A0-H0-Z eff. coupling^2, normalised to SM
    0.00000000E+00        3  36  36  23  # A0-A0-Z eff. coupling^2, normalised to SM
#
    0.00000000E+00        4  25  21  21  23  # h0-g-g-Z eff. coupling^2, normalised to SM
    0.00000000E+00        4  35  21  21  23  # H0-g-g-Z eff. coupling^2, normalised to SM
    0.00000000E+00        4  36  21  21  23  # A0-g-g-Z eff. coupling^2, normalised to SM
Block SPhenoLowEnergy  # low energy observables
    1    3.37884772E-04   # BR(b -> s gamma)
    2    1.58618261E-06   # BR(b -> s mu+ mu-)
    3    3.52042841E-05   # BR(b -> s nu nu)
    4    5.00941046E-15   # BR(Bd -> e+ e-)
    5    2.13971610E-10   # BR(Bd -> mu+ mu-)
    6    4.33507999E-08   # BR(Bd -> tau+ tau-)
    7    1.65898547E-13   # BR(Bs -> e+ e-)
    8    7.08641368E-09   # BR(Bs -> mu+ mu-)
    9    1.45775304E-06   # BR(Bs -> tau+ tau-)
   10    8.99576374E-05   # BR(B_u -> tau nu)
   11    9.29227954E-01   # BR(B_u -> tau nu)/BR(B_u -> tau nu)_SM
   12    5.42654325E-01   # |Delta(M_Bd)| [ps^-1] 
   13    1.93494214E+01   # |Delta(M_Bs)| [ps^-1] 
   14    0.00000000E+00   # neutron EDM according to the chiral quark model
   15    0.00000000E+00   # neutron EDM according to the relativistic quark-parton model
   16    2.16023753E-03   # epsilon_K
   17    2.28169675E-15   # Delta(M_K)
   18    2.47700503E-11   # BR(K^0 -> pi^0 nu nu)
   19    8.28326263E-11   # BR(K^+ -> pi^+ nu nu)
   20   -3.27301742E-16   # Delta(g-2)_electron/2
   21   -1.39932494E-11   # Delta(g-2)_muon/2
   22   -3.96412883E-09   # Delta(g-2)_tau/2
   23    0.00000000E+00   # electric dipole moment of the electron
   24    0.00000000E+00   # electric dipole moment of the muon
   25    0.00000000E+00   # electric dipole moment of the tau
   26    0.00000000E+00   # Br(mu -> e gamma)
   27    0.00000000E+00   # Br(tau -> e gamma)
   28    0.00000000E+00   # Br(tau -> mu gamma)
   29    0.00000000E+00   # Br(mu -> 3 e)
   30    0.00000000E+00   # Br(tau -> 3 e)
   31    0.00000000E+00   # Br(tau -> 3 mu)
   39    7.97162252E-05   # Delta(rho_parameter)
   40    0.00000000E+00   # BR(Z -> e mu)
   41    0.00000000E+00   # BR(Z -> e tau)
   42    0.00000000E+00   # BR(Z -> mu tau)
Block FWCOEF Q=  1.60000000E+02  # Wilson coefficients at scale Q
#    id        order  M        value         comment
     0305 4422   00   0    -1.88819110E-01   # C7
     0305 4422   00   2    -2.02839265E-01   # C7
     0305 4322   00   2    -7.14487386E-04   # C7'
     0305 6421   00   0    -9.52278348E-02   # C8
     0305 6421   00   2    -1.28995424E-01   # C8
     0305 6321   00   2    -8.98482475E-04   # C8'
 03051111 4133   00   0     1.61005635E+00   # C9 e+e-
 03051111 4133   00   2     1.61058908E+00   # C9 e+e-
 03051111 4233   00   2     9.64957867E-05   # C9' e+e-
 03051111 4137   00   0    -4.43274845E+00   # C10 e+e-
 03051111 4137   00   2    -4.42635045E+00   # C10 e+e-
 03051111 4237   00   2    -7.29420423E-04   # C10' e+e-
 03051313 4133   00   0     1.61005635E+00   # C9 mu+mu-
 03051313 4133   00   2     1.61058893E+00   # C9 mu+mu-
 03051313 4233   00   2     9.64865448E-05   # C9' mu+mu-
 03051313 4137   00   0    -4.43274845E+00   # C10 mu+mu-
 03051313 4137   00   2    -4.42635059E+00   # C10 mu+mu-
 03051313 4237   00   2    -7.29411404E-04   # C10' mu+mu-
 03051212 4137   00   0     1.50535012E+00   # C11 nu_1 nu_1
 03051212 4137   00   2     1.50396314E+00   # C11 nu_1 nu_1
 03051212 4237   00   2     1.58319125E-04   # C11' nu_1 nu_1
 03051414 4137   00   0     1.50535012E+00   # C11 nu_2 nu_2
 03051414 4137   00   2     1.50396314E+00   # C11 nu_2 nu_2
 03051414 4237   00   2     1.58321120E-04   # C11' nu_2 nu_2
 03051616 4137   00   0     1.50535012E+00   # C11 nu_3 nu_3
 03051616 4137   00   2     1.50396314E+00   # C11 nu_3 nu_3
 03051616 4237   00   2     1.58883101E-04   # C11' nu_3 nu_3
Block IMFWCOEF Q=  1.60000000E+02  # Im(Wilson coefficients) at scale Q
#    id        order  M        value         comment
     0305 4422   00   0     3.85844504E-07   # C7
     0305 4422   00   2    -8.56191927E-06   # C7
     0305 4322   00   2     1.31563779E-06   # C7'
     0305 6421   00   0     3.30501335E-07   # C8
     0305 6421   00   2    -1.72383069E-05   # C8
     0305 6321   00   2     2.86786594E-07   # C8'
 03051111 4133   00   2     6.32822584E-07   # C9 e+e-
 03051111 4233   00   2     4.64304363E-06   # C9' e+e-
 03051111 4137   00   2     3.60543699E-06   # C10 e+e-
 03051111 4237   00   2    -3.51785283E-05   # C10' e+e-
 03051313 4133   00   2     6.32820362E-07   # C9 mu+mu-
 03051313 4233   00   2     4.64304263E-06   # C9' mu+mu-
 03051313 4137   00   2     3.60543962E-06   # C10 mu+mu-
 03051313 4237   00   2    -3.51785313E-05   # C10' mu+mu-
 03051212 4137   00   2    -7.51936945E-07   # C11 nu_1 nu_1
 03051212 4237   00   2     7.63544963E-06   # C11' nu_1 nu_1
 03051414 4137   00   2    -7.51936822E-07   # C11 nu_2 nu_2
 03051414 4237   00   2     7.63544963E-06   # C11' nu_2 nu_2
 03051616 4137   00   2    -7.51902335E-07   # C11 nu_3 nu_3
 03051616 4237   00   2     7.63544961E-06   # C11' nu_3 nu_3
