BLOCK SPINFO
   1   SPheno
   2   v4.0.5be

BLOCK SPHENOINFO
   1   2
   2   2

BLOCK MODSEL
   1   0

BLOCK MINPAR
   3    29.938244
   4   -1

BLOCK EXTPAR
   0    1269.6224
   1   -515.14892
   2    1571.1947
   3    3000
   11   -2543.1173
   12   -497.54389
   13    1287.1254
   23   -1992.4746
   25    29.394269
   26    1875.1068
   31    1984.8193
   32    1984.8193
   33    1970.6719
   34    1617.0489
   35    1617.0489
   36    1680.9316
   41    5000
   42    5000
   43    1748.4654
   44    5000
   45    5000
   46    1011.0311
   47    5000
   48    5000
   49    714.12927

BLOCK SMINPUTS
   1    127.90897
   2    1.1663787e-05
   3    0.1184
   4    91.1876
   5    4.18
   6    173.2
   7    1.777
   8    0
   11    0.00051099893
   12    0
   13    0.10565837
   14    0
   21    0.005
   22    0.0025
   23    0.095
   24    1.27

BLOCK GAUGE Q=  1269.6224
   1    0.35536298
   2    0.66519887
   3    1.219778

BLOCK YU Q=  1269.6224
   1   1    8.3892227e-06
   2   2    0.0042617251
   3   3    1.0134855

BLOCK YD Q=  1269.6224
   1   1    0.00049552394
   2   2    0.0094149548
   3   3    0.49140447

BLOCK YE Q=  1269.6224
   1   1    8.647255e-05
   2   2    0.017879781
   3   3    0.3007085

BLOCK AU Q=  1269.6224
   1   1    0
   2   2    0
   3   3   -2543.1172

BLOCK AD Q=  1269.6224
   1   1    0
   2   2    0
   3   3   -497.54385

BLOCK AE Q=  1269.6224
   1   1    0
   2   2    0
   3   3    1287.1254

BLOCK MSOFT Q=  1269.6224
   1   -515.14892
   2    1571.1947
   3    3000
   21   -423750.54
   22   -3940374.4
   31    1984.8193
   32    1984.8193
   33    1970.6719
   34    1617.0489
   35    1617.0489
   36    1680.9316
   41    5000
   42    5000
   43    1748.4654
   44    5000
   45    5000
   46    1011.0311
   47    5000
   48    5000
   49    714.12927

BLOCK MASS
   6    173.2
   23    91.1876
   24    80.429995
   15    1.777
   25    121.1249
   35    1874.5317
   36    1875.1068
   37    1877.5389
   1000001    5015.4551
   2000001    5008.0985
   1000002    5015.0044
   2000002    5009.58
   1000003    5015.4682
   2000003    5008.0933
   1000004    5015.0074
   2000004    5009.581
   1000005    563.65522
   2000005    1734.4554
   1000006    920.45644
   2000006    1751.241
   1000011    1992.6374
   2000011    1619.0031
   1000012    1990.6798
   1000013    1992.6395
   2000013    1618.992
   1000014    1990.6753
   1000015    1679.3664
   2000015    1979.7429
   1000016    1975.4027
   1000021    3174.5211
   1000022   -517.02603
   1000023    1619.3785
   1000025   -1975.785
   1000035    1982.8839
   1000024    1619.4212
   1000037    1983.7055

BLOCK ALPHA
      -0.03366594

BLOCK HMIX Q=  1269.6224
   1   -1992.4746
   2    29.394269
   3    244.19366
   4    3516025.4

BLOCK STOPMIX
   1   1    0.1632734
   1   2    0.98658086
   2   1   -0.98658086
   2   2    0.1632734

BLOCK SBOTMIX
   1   1   -0.075051283
   1   2    0.99717968
   2   1   -0.99717968
   2   2   -0.075051283

BLOCK STAUMIX
   1   1   -0.091829615
   1   2    0.99577473
   2   1   -0.99577473
   2   2   -0.091829615

BLOCK NMIX
   1   1   -0.99966955
   1   2   -0.00026304135
   1   3    0.024722002
   1   4   -0.0070383758
   2   1    0.0018814309
   2   2    0.98960878
   2   3    0.11220183
   2   4    0.089898086
   3   1   -0.022455121
   3   2    0.015904621
   3   3   -0.70650223
   3   4    0.70717565
   4   1   -0.012369844
   4   2    0.14290357
   4   3   -0.69832239
   4   4   -0.70126414

BLOCK UMIX
   1   1   -0.98613896
   1   2   -0.16592154
   2   1    0.16592154
   2   2   -0.98613896

BLOCK VMIX
   1   1   -0.99091924
   1   2    0.13445842
   2   1    0.13445842
   2   2    0.99091924

BLOCK HIGGSBOUNDSINPUTHIGGSCOUPLINGSFERMIONS
       0, 864.02306,3,36,15,15

BLOCK HIGGSBOUNDSINPUTHIGGSCOUPLINGSBOSONS
       0,4,36,21,21,23

BLOCK SPHENOLOWENERGY
   1    0.000357054
   2    1.588298e-06
   3    3.5268767e-05
   4    2.0064466e-15
   5    8.5709183e-11
   6    1.7711895e-08
   7    6.795392e-14
   8    2.9028614e-09
   9    6.0813626e-07
   10    9.4632628e-05
   11    0.97751882
   12    0.54308674
   13    19.388978
   14    0
   15    0
   16    0.0021646979
   17    2.281735e-15
   18    2.480474e-11
   19    8.2918477e-11
   20   -2.1835734e-15
   21   -9.3353718e-11
   22   -2.6376512e-08
   23    0
   24    0
   25    0
   26    0
   27    0
   28    0
   29    0
   30    0
   31    0
   39    6.884213e-05
   40    0
   41    0
   42    0

BLOCK FWCOEF Q=  160
   305   4422   0   0   -0.18881911
   305   4422   0   2   -0.22868182
   305   4322   0   2   -0.00046244089
   305   6421   0   0   -0.095227835
   305   6421   0   2   -0.12785003
   305   6321   0   2   -0.00041473806
   3051111   4133   0   0    1.5860841
   3051111   4133   0   2    1.586786
   3051111   4233   0   2    5.166026e-05
   3051111   4137   0   0   -4.4087762
   3051111   4137   0   2   -4.4087006
   3051111   4237   0   2   -0.00040468748
   3051313   4133   0   0    1.5860841
   3051313   4133   0   2    1.5867846
   3051313   4233   0   2    5.1659658e-05
   3051313   4137   0   0   -4.4087762
   3051313   4137   0   2   -4.408702
   3051313   4237   0   2   -0.00040468726
   3051212   4137   0   0    1.5053501
   3051212   4137   0   2    1.5053371
   3051212   4237   0   2    8.8308922e-05
   3051414   4137   0   0    1.5053501
   3051414   4137   0   2    1.5053371
   3051414   4237   0   2    8.8309031e-05
   3051616   4137   0   0    1.5053501
   3051616   4137   0   2    1.5053371
   3051616   4237   0   2    8.8339649e-05

BLOCK IMFWCOEF Q=  160
   305   4422   0   0    3.8569595e-07
   305   4422   0   2   -1.2026586e-05
   305   4322   0   2   -3.7023538e-06
   305   6421   0   0    3.3037409e-07
   305   6421   0   2    8.3351186e-06
   305   6321   0   2   -1.6741486e-06
   3051111   4133   0   2    2.1605487e-08
   3051111   4233   0   2    1.7222381e-06
   3051111   4137   0   2    7.7162105e-07
   3051111   4237   0   2   -1.3519331e-05
   3051313   4133   0   2    2.15954e-08
   3051313   4233   0   2    1.7222363e-06
   3051313   4137   0   2    7.7161263e-07
   3051313   4237   0   2   -1.3519336e-05
   3051212   4137   0   2   -1.0955628e-07
   3051212   4237   0   2    2.9502111e-06
   3051414   4137   0   2   -1.0955629e-07
   3051414   4237   0   2    2.9502111e-06
   3051616   4137   0   2   -1.0956237e-07
   3051616   4237   0   2    2.950211e-06

DECAY 23  2.4952


DECAY 24  2.085


DECAY 2000011  6.5559227
    1   2    1000022    11

DECAY 1000011  5.1367746
    0.42401845   2    1000022    11
    0.38279359   2   -1000024    12
    0.1931774   2    1000023    11

DECAY 2000013  6.5558633
    1   2    1000022    13

DECAY 1000013  5.138867
    0.42384763   2    1000022    13
    0.38264118   2   -1000024    14
    0.19310447   2    1000023    13
    0.00039570913   2    2000013    25

DECAY 1000015  6.879622
    0.99957175   2    1000022    15
    0.00028847705   2   -1000024    16
    0.00013977756   2    1000023    15

DECAY 2000015  5.8270045
    0.37841549   2    1000022    15
    0.3113365   2   -1000024    16
    0.15816373   2    1000023    15
    0.079888628   2    1000015    25
    0.072191642   2    1000015    23

DECAY 1000012  5.1191746
    0.42410112   2    1000022    12
    0.38450079   2    1000024    11
    0.19139243   2    1000023    12

DECAY 1000014  5.1191554
    0.4241015   2    1000022    14
    0.38450335   2    1000024    13
    0.19138939   2    1000023    14

DECAY 1000016  5.7513893
    0.37374443   2    1000022    16
    0.3213281   2    1000024    15
    0.1589322   2    1000023    16
    0.14599527   2    1000015    24

DECAY 2000001  144.19344
    0.98102378   2    1000021    1
    0.018966844   2    1000022    1

DECAY 1000001  195.89299
    0.72602606   2    1000021    1
    0.17586084   2   -1000024    2
    0.088491433   2    1000023    1
    0.0044153726   2   -1000037    2
    0.0034853165   2    1000022    1
    0.0016890746   2    1000035    1

DECAY 2000003  144.20547
    0.98093825   2    1000021    3
    0.018965279   2    1000022    3

DECAY 1000003  195.90214
    0.72599908   2    1000021    3
    0.17585333   2   -1000024    4
    0.088488103   2    1000023    3
    0.0044217382   2   -1000037    4
    0.0034851902   2    1000022    3
    0.001704618   2    1000035    3

DECAY 1000005  0.0081643391
    1   2    1000022    5

DECAY 2000005  46.345168
    0.7407697   2    1000006   -24
    0.15173201   2    1000005    23
    0.10064619   2    1000005    25
    0.0042029619   2    1000022    5
    0.002649149   2    1000023    5

DECAY 2000002  152.55971
    0.92823645   2    1000021    2
    0.071728991   2    1000022    2

DECAY 1000002  195.88059
    0.72583235   2    1000021    2
    0.17755779   2    1000024    1
    0.088605288   2    1000023    2
    0.003505871   2    1000022    2
    0.0028994137   2    1000037    1
    0.0015878813   2    1000035    2

DECAY 2000004  152.56233
    0.92822077   2    1000021    4
    0.071727763   2    1000022    4

DECAY 1000004  195.88848
    0.72580441   2    1000021    4
    0.17755182   2    1000024    3
    0.088601812   2    1000023    4
    0.0035057317   2    1000022    4
    0.0029304281   2    1000037    3
    0.0015910944   2    1000035    4

DECAY 1000006  0.84410435
    0.97877889   2    1000022    6
    0.021217682   2    1000005    24

DECAY 2000006  55.462077
    0.41405075   2    1000006    25
    0.31766639   2    1000006    23
    0.2579423   2    1000005    24
    0.0053252804   2    1000024    5
    0.0050152847   2    1000022    6

DECAY 1000024  1.9798986
    0.6568209   2    1000006   -5
    0.33401797   2   -1000005    6
    0.0083180481   2    1000022    24
    0.00034719372   3    1000022   -5    6
    0.00018504339   3    1000022   -15    16
    0.00015480635   3    1000022   -13    14
    0.00015480143   3    1000022   -11    12

DECAY 1000037  57.767693
    0.60473137   2    1000006   -5
    0.21160422   2   -1000005    6
    0.039035752   2    1000023    24
    0.034570167   2    1000024    23
    0.034297552   2   -2000005    6
    0.033674349   2    1000024    25
    0.024058313   2    1000022    24
    0.014803759   2    2000006   -5
    0.0022291696   2   -1000015    16
    0.00078574419   3    1000022   -5    6
    0.0001877032   3    1000023   -5    6

DECAY 1000022 -1


DECAY 1000023  1.8974442
    0.33494091   2    1000006   -6
    0.33494091   2   -1000006    6
    0.15920371   2    1000005   -5
    0.15920371   2   -1000005    5
    0.006447614   2    1000022    23
    0.0042300599   2    1000022    25
    0.00024689378   3    1000022    12   -12
    0.00019504197   3    1000022    6   -6
    0.00012136356   2    1000006   -4
    0.00012136356   2   -1000006    4
    0.00010670139   3    1000022    15   -15

DECAY 1000025  64.439133
    0.3100127   2    1000006   -6
    0.3100127   2   -1000006    6
    0.092494108   2    1000005   -5
    0.092494108   2   -1000005    5
    0.036153441   2    1000023    25
    0.035167782   2    1000024   -24
    0.035167782   2   -1000024    24
    0.03209229   2    1000023    23
    0.015092378   2    1000022    25
    0.010700346   2    2000006   -6
    0.010700346   2   -2000006    6
    0.0058601126   2    2000005   -5
    0.0058601126   2   -2000005    5
    0.0051533018   2    1000022    23
    0.0010508445   2    1000015   -15
    0.0010508445   2   -1000015    15
    0.00046889637   3    1000022    6   -6
    0.00020279579   3    1000024    5   -6
    0.00020279579   3   -1000024   -5    6

DECAY 1000035  58.810424
    0.32222203   2    1000006   -6
    0.32222203   2   -1000006    6
    0.097001276   2    1000005   -5
    0.097001276   2   -1000005    5
    0.033113229   2    1000023    25
    0.02817639   2    1000024   -24
    0.02817639   2   -1000024    24
    0.018062272   2    1000022    23
    0.014363537   2    1000022    25
    0.011033497   2    2000006   -6
    0.011033497   2   -2000006    6
    0.0070570603   2    2000005   -5
    0.0070570603   2   -2000005    5
    0.001110651   2    1000015   -15
    0.001110651   2   -1000015    15
    0.00045507662   3    1000022    6   -6
    0.00042520119   2    1000023    23
    0.00016996733   3    1000024    5   -6
    0.00016996733   3   -1000024   -5    6

DECAY 1000021  258.00515
    0.17086931   2    1000005   -5
    0.17086931   2   -1000005    5
    0.14683451   2    1000006   -6
    0.14683451   2   -1000006    6
    0.092213137   2    2000006   -6
    0.092213137   2   -2000006    6
    0.089557141   2    2000005   -5
    0.089557141   2   -2000005    5
    0.00022117068   3    1000023    6   -6
    0.00016243024   3    1000024    5   -6
    0.00016243024   3   -1000024   -5    6
    0.00010447352   3    1000037    5   -6
    0.00010447352   3   -1000037   -5    6

DECAY 25  0.0034522415
    0.63488987   2   -5    5
    0.16797857   2   -24    24
    0.072482264   2   -15    15
    0.070874637   2    21    21
    0.030986558   2   -4    4
    0.018806406   2    23    23
    0.0023226735   2    22    22
    0.0011682915   2    22    23
    0.00025139636   2   -13    13
    0.00023850282   2   -3    3
    6.594394e-07   2   -1    1
    1.5969359e-07   2   -2    2
    5.6517226e-09   2   -11    11

DECAY 35  41.520852
    0.92474723   2   -5    5
    0.071336309   2   -15    15
    0.0031367648   2   -6    6
    0.00024720504   2   -13    13
    0.000224716   2   -1000005    1000005
    0.00020208686   2   -3    3
    5.6854379e-05   2    25    25
    3.2888333e-05   2    1000022    1000022
    1.0714766e-05   2    21    21
    2.9184596e-06   2    23    23
    1.6980837e-06   2   -24    24
    5.5881812e-07   2   -1    1
    2.4794596e-08   2    22    22
    1.9414464e-08   2   -4    4
    9.7929276e-09   2    22    23
    5.5528906e-09   2   -11    11
    1.0008741e-13   2   -2    2

DECAY 36  39.877685
    0.92457609   2   -5    5
    0.071303994   2   -15    15
    0.0035800508   2   -6    6
    0.00024709222   2   -13    13
    0.00020199313   2   -3    3
    5.100347e-05   2    1000022    1000022
    3.5027125e-05   2    21    21
    4.0597732e-06   2    23    25
    5.5855898e-07   2   -1    1
    5.2478663e-08   2    22    22
    5.0016449e-08   2    22    23
    2.2638624e-08   2   -4    4
    5.5503587e-09   2   -11    11
    1.167403e-13   2   -2    2
    7.0116575e-39   2    25    25

DECAY 37  34.953134
    0.89849205   2   -5    6
    0.09628313   2   -15    16
    0.0032996127   2   -1000005    1000006
    0.0013355156   2   -5    4
    0.00034039561   2   -13    14
    0.00022020498   2   -3    4
    1.0255193e-05   2   -3    2
    9.5369649e-06   2   -5    2
    4.6574896e-06   2    24    25
    3.8264487e-06   2   -3    6
    6.1131115e-07   2   -1    2
    1.6078466e-07   2   -1    6
    2.9875062e-08   2   -1    4
    7.9618887e-09   2   -11    12
    9.5672099e-12   2    24    35
    3.3115075e-12   2    24    36

DECAY 6  2.43
    1   2    5    24

DECAY 15 -1
