BLOCK SPINFO
   1   SPheno
   2   v4.0.5be

BLOCK SPHENOINFO
   1   2
   2   2

BLOCK MODSEL
   1   0

BLOCK MINPAR
   3    58.118413
   4    1

BLOCK EXTPAR
   0    1562.5701
   1    369.34051
   2    1445.176
   3    3000
   11   -4183.1962
   12   -1745.0274
   13   -102.39273
   23    588.1669
   25    58.189782
   26    3903.0003
   31    1401.2536
   32    1401.2536
   33    1505.9097
   34    988.55983
   35    988.55983
   36    1283.9665
   41    5000
   42    5000
   43    1963.1007
   44    5000
   45    5000
   46    1322.3567
   47    5000
   48    5000
   49    1209.5795

BLOCK SMINPUTS
   1    127.90897
   2    1.1663787e-05
   3    0.1184
   4    91.1876
   5    4.18
   6    173.2
   7    1.777
   8    0
   11    0.00051099893
   12    0
   13    0.10565837
   14    0
   21    0.005
   22    0.0025
   23    0.095
   24    1.27

BLOCK GAUGE Q=  1562.5701
   1    0.35536298
   2    0.66519887
   3    1.219778

BLOCK YU Q=  1562.5701
   1   1    8.3856101e-06
   2   2    0.0042598899
   3   3    1.0130491

BLOCK YD Q=  1562.5701
   1   1    0.0009805317
   2   2    0.018630102
   3   3    0.9723802

BLOCK YE Q=  1562.5701
   1   1    0.00017110995
   2   2    0.035380111
   3   3    0.59503527

BLOCK AU Q=  1562.5701
   1   1    0
   2   2    0
   3   3   -4183.1961

BLOCK AD Q=  1562.5701
   1   1    0
   2   2    0
   3   3   -1745.0276

BLOCK AE Q=  1562.5701
   1   1    0
   2   2    0
   3   3   -102.39273

BLOCK MSOFT Q=  1562.5701
   1    369.34051
   2    1445.176
   3    3000
   21    15000030
   22   -318541.97
   31    1401.2536
   32    1401.2536
   33    1505.9097
   34    988.55983
   35    988.55983
   36    1283.9665
   41    5000
   42    5000
   43    1963.1007
   44    5000
   45    5000
   46    1322.3567
   47    5000
   48    5000
   49    1209.5795

BLOCK MASS
   6    173.2
   23    91.1876
   24    80.429995
   15    1.777
   25    123.93286
   35    3895.5788
   36    3903.0003
   37    3896.7915
   1000001    5030.5007
   2000001    5021.586
   1000002    5030.0632
   2000002    5024.0483
   1000003    5030.5112
   2000003    5021.599
   1000004    5030.0715
   2000004    5024.049
   1000005    1258.7454
   2000005    1960.5562
   1000006    1219.4532
   2000006    2002.2294
   1000011    1416.0975
   2000011    986.40494
   1000012    1413.51
   1000013    1416.1178
   2000013    986.45966
   1000014    1413.5252
   1000015    1290.5259
   2000015    1524.9814
   1000016    1520.5627
   1000021    3196.6997
   1000022    365.18899
   1000023    596.03808
   1000025   -598.21606
   1000035    1500.162
   1000024    593.52525
   1000037    1500.2252

BLOCK ALPHA
      -0.017241306

BLOCK HMIX Q=  1562.5701
   1    588.1669
   2    58.189782
   3    243.94316
   4    15233411

BLOCK STOPMIX
   1   1    0.24708947
   1   2    0.96899267
   2   1   -0.96899267
   2   2    0.24708947

BLOCK SBOTMIX
   1   1    0.034909204
   1   2    0.99939049
   2   1   -0.99939049
   2   2    0.034909204

BLOCK STAUMIX
   1   1    0.094996986
   1   2    0.99547756
   2   1   -0.99547756
   2   2    0.094996986

BLOCK NMIX
   1   1   -0.98932387
   1   2    0.0056382918
   1   3   -0.12331771
   1   4    0.077454688
   2   1   -0.14209646
   2   2   -0.063220205
   2   3    0.69813063
   2   4   -0.6988744
   3   1   -0.032254328
   3   2    0.026535927
   3   3    0.70478393
   3   4    0.70819144
   4   1   -0.0025554267
   4   2    0.99763082
   4   3    0.02619122
   4   4   -0.063562803

BLOCK UMIX
   1   1   -0.037051715
   1   2    0.99931335
   2   1    0.99931335
   2   2    0.037051715

BLOCK VMIX
   1   1   -0.089961961
   1   2    0.9959452
   2   1    0.9959452
   2   2    0.089961961

BLOCK HIGGSBOUNDSINPUTHIGGSCOUPLINGSFERMIONS
       0, 3386.0507,3,36,15,15

BLOCK HIGGSBOUNDSINPUTHIGGSCOUPLINGSBOSONS
       0,4,36,21,21,23

BLOCK SPHENOLOWENERGY
   1    0.00024247007
   2    1.6141147e-06
   3    3.5298493e-05
   4    2.8945038e-15
   5    1.2364356e-10
   6    2.5518015e-08
   7    9.7004435e-14
   8    4.1438192e-09
   9    8.6687141e-07
   10    9.6107278e-05
   11    0.99275139
   12    0.54216194
   13    19.364273
   14    0
   15    0
   16    0.0021576859
   17    2.2816632e-15
   18    2.4823711e-11
   19    8.2963486e-11
   20    8.1714663e-15
   21    3.4941385e-10
   22    9.3168642e-08
   23    0
   24    0
   25    0
   26    0
   27    0
   28    0
   29    0
   30    0
   31    0
   39    8.2275275e-05
   40    0
   41    0
   42    0

BLOCK FWCOEF Q=  160
   305   4422   0   0   -0.18881911
   305   4422   0   2   -0.087702534
   305   4322   0   2    0.00068867591
   305   6421   0   0   -0.095227835
   305   6421   0   2   -0.044975657
   305   6321   0   2    0.00022546579
   3051111   4133   0   0    1.5944193
   3051111   4133   0   2    1.596099
   3051111   4233   0   2    0.0005369136
   3051111   4137   0   0   -4.4171114
   3051111   4137   0   2   -4.4200772
   3051111   4237   0   2   -0.0041645151
   3051313   4133   0   0    1.5944193
   3051313   4133   0   2    1.5960915
   3051313   4233   0   2    0.00053690936
   3051313   4137   0   0   -4.4171114
   3051313   4137   0   2   -4.4200847
   3051313   4237   0   2   -0.0041645252
   3051212   4137   0   0    1.5053501
   3051212   4137   0   2    1.5060038
   3051212   4237   0   2    0.00090709425
   3051414   4137   0   0    1.5053501
   3051414   4137   0   2    1.5060038
   3051414   4237   0   2    0.00090709436
   3051616   4137   0   0    1.5053501
   3051616   4137   0   2    1.5060038
   3051616   4237   0   2    0.00090712448

BLOCK IMFWCOEF Q=  160
   305   4422   0   0    3.8591331e-07
   305   4422   0   2    3.7682232e-05
   305   4322   0   2    1.3735261e-05
   305   6421   0   0    3.3056027e-07
   305   6421   0   2   -1.0898002e-05
   305   6321   0   2    5.9167567e-06
   3051111   4133   0   2   -5.7941634e-07
   3051111   4233   0   2    1.0531769e-05
   3051111   4137   0   2    5.2641938e-06
   3051111   4237   0   2   -8.1697549e-05
   3051313   4133   0   2   -5.7954438e-07
   3051313   4233   0   2    1.0531703e-05
   3051313   4137   0   2    5.2641386e-06
   3051313   4237   0   2   -8.1697739e-05
   3051212   4137   0   2   -1.0232541e-06
   3051212   4237   0   2    1.7794976e-05
   3051414   4137   0   2   -1.0232557e-06
   3051414   4237   0   2    1.7794976e-05
   3051616   4137   0   2   -1.0228817e-06
   3051616   4237   0   2    1.7794977e-05

DECAY 23  2.4952


DECAY 24  2.085


DECAY 2000011  3.6547786
    0.98839911   2    1000022    11
    0.01103691   2    1000023    11
    0.00056391644   2    1000025    11

DECAY 1000011  1.578675
    0.94065561   2    1000022    11
    0.051747074   2    1000023    11
    0.0073663912   2   -1000024    12
    0.00023090219   2    1000025    11

DECAY 2000013  3.6750824
    0.98310175   2    1000022    13
    0.012292781   2    1000023    13
    0.0027170202   2   -1000024    14
    0.0018884539   2    1000025    13

DECAY 1000013  1.6041265
    0.92604058   2    1000022    13
    0.058179008   2    1000023    13
    0.0075976342   2    1000025    13
    0.007249706   2   -1000024    14
    0.00093306702   2    2000013    25

DECAY 1000015  16.740573
    0.33673792   2   -1000024    16
    0.33010571   2    1000022    15
    0.16821917   2    1000023    15
    0.1649372   2    1000025    15

DECAY 2000015  9.867061
    0.39131963   2    1000023    15
    0.39086653   2    1000025    15
    0.1750755   2    1000022    15
    0.019523624   2    1000015    23
    0.018845183   2    1000015    25
    0.0022601717   2   -1000024    16
    0.0014052087   2   -1000037    16
    0.00070415037   2    1000035    15

DECAY 1000012  1.6231256
    0.95254021   2    1000022    12
    0.042094686   2    1000024    11
    0.0049477887   2    1000025    12
    0.00041731623   2    1000023    12

DECAY 1000014  1.6469918
    0.93875022   2    1000022    14
    0.055962309   2    1000024    13
    0.0048761902   2    1000025    14
    0.00041127729   2    1000023    14

DECAY 1000016  9.8688247
    0.78643503   2    1000024    15
    0.17182018   2    1000022    16
    0.039305005   2    1000015    24
    0.00095269457   2    1000037    15
    0.00092805767   2    1000025    16
    0.00048079928   2    1000035    16

DECAY 2000001  142.98077
    0.98060519   2    1000021    1
    0.018988757   2    1000022    1
    0.00038514726   2    1000023    1

DECAY 1000001  196.98698
    0.7164697   2    1000021    1
    0.18633974   2   -1000037    2
    0.092942654   2    1000035    1
    0.0036764361   2    1000022    1
    0.00030008711   2   -1000024    2
    0.00015732369   2    1000023    1
    0.00011406714   2    1000025    1

DECAY 2000003  143.04935
    0.9801445   2    1000021    3
    0.018983336   2    1000022    3
    0.00049948296   2    1000023    3
    0.00023534251   2   -1000024    4
    0.00013682292   2    1000025    3

DECAY 1000003  197.02368
    0.71634181   2    1000021    3
    0.18630564   2   -1000037    4
    0.092925718   2    1000035    3
    0.0036784034   2    1000022    3
    0.00030891515   2   -1000024    4
    0.00024059183   2    1000023    3
    0.00019892546   2    1000025    3

DECAY 1000005  28.170797
    0.47100748   2   -1000024    6
    0.24962697   2    1000025    5
    0.24668547   2    1000023    5
    0.032680079   2    1000022    5

DECAY 2000005  139.65842
    0.50643843   2    1000006   -24
    0.2301389   2   -1000024    6
    0.10817667   2    1000025    5
    0.10615124   2    1000023    5
    0.021411939   2   -1000037    6
    0.010643165   2    1000035    5
    0.0075215178   2    1000005    25
    0.0051002733   2    1000022    5
    0.0044178697   2    1000005    23

DECAY 2000002  151.56098
    0.92678095   2    1000021    2
    0.071690882   2    1000022    2
    0.001452924   2    1000023    2

DECAY 1000002  196.98127
    0.71625934   2    1000021    2
    0.18506873   2    1000037    1
    0.092764701   2    1000035    2
    0.0032343264   2    1000022    2
    0.0017694468   2    1000024    1
    0.00085622846   2    1000023    2

DECAY 2000004  151.56452
    0.92675941   2    1000021    4
    0.071689274   2    1000022    4
    0.0014585839   2    1000023    4

DECAY 1000004  197.01763
    0.7161312   2    1000021    4
    0.18503521   2    1000037    3
    0.092747826   2    1000035    4
    0.0032337903   2    1000022    4
    0.0019398179   2    1000024    3
    0.00086043987   2    1000023    4

DECAY 1000006  29.181075
    0.50369183   2    1000024    5
    0.21074638   2    1000025    6
    0.20970623   2    1000023    6
    0.075722139   2    1000022    6
    0.00014874496   2    1000022    4

DECAY 2000006  152.19873
    0.28240616   2    1000006    25
    0.25053711   2    1000006    23
    0.20112332   2    1000024    5
    0.11107064   2    1000025    6
    0.11010304   2    1000023    6
    0.022305402   2    1000037    5
    0.011269985   2    1000035    6
    0.0089151265   2    1000005    24
    0.0022692122   2    1000022    6

DECAY 1000024  0.30738488
    0.99975458   2    1000022    24
    0.00024075066   3    1000022   -5    6

DECAY 1000037  13.500345
    0.24154682   2    1000025    24
    0.23795604   2    1000023    24
    0.23785512   2    1000024    23
    0.23669552   2    1000024    25
    0.0063693149   3    1000024    6   -6
    0.0061143532   2    1000012   -11
    0.0061122534   2    1000014   -13
    0.0059391268   3    1000023   -5    6
    0.0058041828   2   -1000011    12
    0.0058014722   2   -1000013    14
    0.005774874   3    1000025   -5    6
    0.0021910663   2    1000006   -5
    0.00088337807   2    1000022    24
    0.00021448634   3    1000024    15   -15
    0.00018873546   3    1000024    5   -5
    0.0001297928   3    1000022   -15    16
    0.0001268645   2   -1000015    16
    0.000103645   3    1000023   -15    16
    0.00010345437   3    1000025   -15    16

DECAY 1000022 -1


DECAY 1000023  0.27270989
    0.92179814   2    1000022    25
    0.078188019   2    1000022    23

DECAY 1000025  0.67766932
    0.63241884   2    1000022    23
    0.36755343   2    1000022    25

DECAY 1000035  15.573978
    0.20785166   2    1000024   -24
    0.20785166   2   -1000024    24
    0.17890846   2    1000025    23
    0.1735836   2    1000023    25
    0.16479117   2    1000025    25
    0.030459774   2    1000023    23
    0.0046209875   3    1000024    5   -6
    0.0046209875   3   -1000024   -5    6
    0.0026627189   2    1000012   -12
    0.0026627189   2   -1000012    12
    0.0026618084   2    1000014   -14
    0.0026618084   2   -1000014    14
    0.0024968172   2    1000011   -11
    0.0024968172   2   -1000011    11
    0.0024956454   2    1000013   -13
    0.0024956454   2   -1000013    13
    0.0020152139   3    1000023    6   -6
    0.0019086799   3    1000025    6   -6
    0.00062481407   2    1000022    25
    0.00054879851   2    1000006   -6
    0.00054879851   2   -1000006    6
    0.00017712683   2    1000022    23

DECAY 1000021  209.23563
    0.16139708   2    1000005   -5
    0.16139708   2   -1000005    5
    0.1549177   2    1000006   -6
    0.1549177   2   -1000006    6
    0.090023747   2    2000006   -6
    0.090023747   2   -2000006    6
    0.088028085   2    2000005   -5
    0.088028085   2   -2000005    5
    0.0055398514   2    1000006   -4
    0.0055398514   2   -1000006    4

DECAY 25  0.0037245776
    0.58866164   2   -5    5
    0.21245876   2   -24    24
    0.072362476   2    21    21
    0.067907704   2   -15    15
    0.029192459   2   -4    4
    0.025176144   2    23    23
    0.0023662156   2    22    22
    0.0014164239   2    22    23
    0.00023557886   2   -13    13
    0.00022183599   2   -3    3
    6.1335323e-07   2   -1    1
    1.5043862e-07   2   -2    2
    5.2960913e-09   2   -11    11

DECAY 35  226.73084
    0.62298347   2   -5    5
    0.13734288   2   -15    15
    0.048791942   2   -1000024    1000037
    0.048791942   2   -1000037    1000024
    0.031569382   2   -2000005    1000005
    0.031569382   2   -1000005    2000005
    0.028595995   2    1000025    1000035
    0.019935466   2    1000023    1000035
    0.0097417561   2    1000022    1000025
    0.0086052335   2    1000022    1000023
    0.0035175047   2   -2000006    1000006
    0.0035175047   2   -1000006    2000006
    0.001286375   2   -1000006    1000006
    0.0010683273   2   -1000024    1000024
    0.00054575378   2    1000022    1000022
    0.00051440704   2    1000022    1000035
    0.0004805567   2   -13    13
    0.00029963226   2   -6    6
    0.00026581037   2   -1000005    1000005
    0.00022364735   2   -3    3
    0.00012215145   2    1000025    1000025
    8.7207711e-05   2    1000023    1000025
    5.9691828e-05   2   -1000037    1000037
    3.0037101e-05   2    1000035    1000035
    2.1834509e-05   2   -2000015    1000015
    2.1834509e-05   2   -1000015    2000015
    3.6944965e-06   2    1000023    1000023
    3.5868413e-06   2    25    25
    9.5016521e-07   2   -2000015    2000015
    6.9015196e-07   2   -1000015    1000015
    6.1825343e-07   2   -1    1
    4.8062757e-07   2    21    21
    7.2123192e-08   2    22    23
    5.6128433e-08   2    23    23
    1.3084859e-08   2    22    22
    1.222798e-08   2   -24    24
    1.0792162e-08   2   -11    11
    6.2682951e-09   2   -2000011    2000011
    6.201928e-09   2   -2000013    2000013
    5.0951438e-09   2   -4    4
    5.0327203e-09   2   -1000011    1000011
    4.8954586e-09   2   -1000013    1000013
    1.0874049e-09   2   -2000013    1000013
    1.0874049e-09   2   -1000013    2000013
    2.625785e-14   2   -2    2
    2.5435871e-14   2   -2000011    1000011
    2.5435871e-14   2   -1000011    2000011

DECAY 36  204.39205
    0.60028547   2   -5    5
    0.13240542   2   -15    15
    0.054173765   2   -1000024    1000037
    0.054173765   2   -1000037    1000024
    0.035354458   2   -2000005    1000005
    0.035354458   2   -1000005    2000005
    0.031129891   2    1000023    1000035
    0.022676603   2    1000025    1000035
    0.010867889   2    1000022    1000023
    0.0095138139   2    1000022    1000025
    0.0049662088   2   -2000006    1000006
    0.0049662088   2   -1000006    2000006
    0.0013438445   2   -1000024    1000024
    0.00069269872   2    1000022    1000035
    0.00065680313   2    1000022    1000022
    0.00046328417   2   -13    13
    0.00021551836   2   -3    3
    0.00019784795   2   -6    6
    0.00017607538   2   -1000037    1000037
    0.00013953782   2    1000025    1000025
    9.2381686e-05   2    1000023    1000025
    8.8545701e-05   2    1000035    1000035
    2.5155802e-05   2   -2000015    1000015
    2.5155802e-05   2   -1000015    2000015
    9.5405509e-06   2    21    21
    4.8423286e-06   2    1000023    1000023
    5.9577851e-07   2   -1    1
    1.2833852e-07   2    23    25
    4.6191875e-08   2    22    23
    3.1873463e-08   2    22    22
    1.0404232e-08   2   -11    11
    3.4783954e-09   2   -4    4
    1.2046903e-09   2   -2000013    1000013
    1.2046903e-09   2   -1000013    2000013
    1.2118968e-10   2    23    35
    2.8177826e-14   2   -2000011    1000011
    2.8177826e-14   2   -1000011    2000011
    1.7926275e-14   2   -2    2
    2.5950138e-37   2    25    25

DECAY 37  246.0098
    0.67110289   2   -5    6
    0.10699847   2   -15    16
    0.06018437   2   -1000005    2000006
    0.045115352   2    1000024    1000035
    0.044981458   2    1000025    1000037
    0.04469913   2    1000023    1000037
    0.017129101   2    1000022    1000024
    0.0052420358   2   -2000005    1000006
    0.0011054494   2   -1000005    1000006
    0.0010559266   2    1000022    1000037
    0.00099533763   2   -5    4
    0.00061681056   2    1000023    1000024
    0.00037827769   2   -13    14
    0.00018710106   2   -3    4
    0.00014931299   2    1000024    1000025
    4.1503655e-05   2   -1000015    1000016
    8.7888912e-06   2   -3    2
    7.107737e-06   2   -5    2
    5.3580041e-07   2   -3    6
    5.1876865e-07   2   -1    2
    3.2820087e-07   2   -2000015    1000016
    1.0615672e-07   2    24    25
    2.4405026e-08   2   -1    4
    2.2689184e-08   2   -2000011    1000012
    2.2602914e-08   2   -2000013    1000014
    1.1796693e-08   2   -1    6
    8.8479544e-09   2   -11    12
    1.9522901e-09   2   -1000013    1000014
    4.4288837e-10   2    1000035    1000037
    4.5661259e-14   2   -1000011    1000012
    1.4517244e-14   2    24    35

DECAY 6  2.43
    1   2    5    24

DECAY 15 -1
