BLOCK SPINFO
   1   SPheno
   2   v4.0.5be

BLOCK SPHENOINFO
   1   2
   2   2

BLOCK MODSEL
   1   0

BLOCK MINPAR
   3    7.4290396
   4    1

BLOCK EXTPAR
   0    1358.469
   1   -1238.0565
   2   -1229.4044
   3    3000
   11   -3834.8912
   12   -1187.5133
   13    119.28841
   23    142.97396
   25    7.1444386
   26    617.27125
   31    1131.1408
   32    1131.1408
   33    1715.6215
   34    1157.4192
   35    1157.4192
   36    515.47218
   41    5000
   42    5000
   43    1897.6335
   44    5000
   45    5000
   46    1102.0928
   47    5000
   48    5000
   49    1989.6765

BLOCK SMINPUTS
   1    127.90897
   2    1.1663787e-05
   3    0.1184
   4    91.1876
   5    4.18
   6    173.2
   7    1.777
   8    0
   11    0.00051099893
   12    0
   13    0.10565837
   14    0
   21    0.005
   22    0.0025
   23    0.095
   24    1.27

BLOCK GAUGE Q=  1358.469
   1    0.35536298
   2    0.66519887
   3    1.219778

BLOCK YU Q=  1358.469
   1   1    8.4661042e-06
   2   2    0.004300781
   3   3    1.0227734

BLOCK YD Q=  1358.469
   1   1    0.00012154357
   2   2    0.0023093277
   3   3    0.12053313

BLOCK YE Q=  1358.469
   1   1    2.1210241e-05
   2   2    0.0043856051
   3   3    0.073758663

BLOCK AU Q=  1358.469
   1   1    0
   2   2    0
   3   3   -3834.8911

BLOCK AD Q=  1358.469
   1   1    0
   2   2    0
   3   3   -1187.5133

BLOCK AE Q=  1358.469
   1   1    0
   2   2    0
   3   3    119.28841

BLOCK MSOFT Q=  1358.469
   1   -1238.0565
   2   -1229.4044
   3    3000
   21    336850.27
   22   -12549.761
   31    1131.1408
   32    1131.1408
   33    1715.6215
   34    1157.4192
   35    1157.4192
   36    515.47218
   41    5000
   42    5000
   43    1897.6335
   44    5000
   45    5000
   46    1102.0928
   47    5000
   48    5000
   49    1989.6765

BLOCK MASS
   6    173.2
   23    91.1876
   24    80.429995
   15    1.777
   25    121.1357
   35    617.81152
   36    617.27125
   37    622.51229
   1000001    5023.1755
   2000001    5014.2482
   1000002    5022.7659
   2000002    5015.232
   1000003    5023.1761
   2000003    5014.2484
   1000004    5022.7666
   2000004    5015.233
   1000005    1873.3017
   2000005    2013.6382
   1000006    966.96981
   2000006    1908.4753
   1000011    1144.2413
   2000011    1164.1903
   1000012    1141.2193
   1000013    1144.2409
   2000013    1164.1897
   1000014    1141.2189
   1000015    527.36573
   2000015    1723.3847
   1000016    1721.2648
   1000021    3184.4218
   1000022   -144.48642
   1000023    149.92946
   1000025   -1233.0826
   1000035   -1275.38
   1000024    147.76209
   1000037    1275.3168

BLOCK ALPHA
      -0.14177148

BLOCK HMIX Q=  1358.469
   1    142.97396
   2    7.1444386
   3    244.08843
   4    381023.8

BLOCK STOPMIX
   1   1    0.20889551
   1   2    0.97793797
   2   1   -0.97793797
   2   2    0.20889551

BLOCK SBOTMIX
   1   1    0.99995442
   1   2    0.0095478023
   2   1   -0.0095478023
   2   2    0.99995442

BLOCK STAUMIX
   1   1    0.00057990038
   1   2    0.99999983
   2   1   -0.99999983
   2   2    0.00057990038

BLOCK NMIX
   1   1   -0.024398081
   1   2    0.041462441
   1   3   -0.71353086
   1   4   -0.69897018
   2   1    0.025843101
   2   2   -0.044772186
   2   3   -0.70062118
   2   4    0.71165831
   3   1    0.99204116
   3   2    0.12279902
   3   3    0.00047659228
   3   4   -0.02783011
   4   1    0.12079407
   4   2   -0.99055374
   4   3    0.0018597032
   4   4   -0.064873834

BLOCK UMIX
   1   1    0.0024758745
   1   2    0.99999693
   2   1   -0.99999693
   2   2    0.0024758745

BLOCK VMIX
   1   1    0.086522419
   1   2    0.9962499
   2   1    0.9962499
   2   2   -0.086522419

BLOCK HIGGSBOUNDSINPUTHIGGSCOUPLINGSFERMIONS
       0, 51.043004,3,36,15,15

BLOCK HIGGSBOUNDSINPUTHIGGSCOUPLINGSBOSONS
       0,4,36,21,21,23

BLOCK SPHENOLOWENERGY
   1    0.00037084665
   2    1.5889985e-06
   3    3.528683e-05
   4    2.6366386e-15
   5    1.1263421e-10
   6    2.357883e-08
   7    8.8819126e-14
   8    3.7943503e-09
   9    8.0481571e-07
   10    9.6005592e-05
   11    0.99170101
   12    0.54511104
   13    19.474293
   14    0
   15    0
   16    0.0021702006
   17    2.2817922e-15
   18    2.4849206e-11
   19    8.3008177e-11
   20   -1.4182159e-15
   21   -6.0633205e-11
   22   -1.1470176e-08
   23    0
   24    0
   25    0
   26    0
   27    0
   28    0
   29    0
   30    0
   31    0
   39   -5.4330239e-05
   40    0
   41    0
   42    0

BLOCK FWCOEF Q=  160
   305   4422   0   0   -0.18881911
   305   4422   0   2   -0.23717245
   305   4322   0   2   -0.0011496035
   305   6421   0   0   -0.095227835
   305   6421   0   2   -0.15790572
   305   6321   0   2   -0.0013355687
   3051111   4133   0   0    1.5882101
   3051111   4133   0   2    1.5896882
   3051111   4233   0   2   -3.252079e-06
   3051111   4137   0   0   -4.4109022
   3051111   4137   0   2   -4.412559
   3051111   4237   0   2    2.6260279e-05
   3051313   4133   0   0    1.5882101
   3051313   4133   0   2    1.589688
   3051313   4233   0   2   -3.2521573e-06
   3051313   4137   0   0   -4.4109022
   3051313   4137   0   2   -4.4125592
   3051313   4237   0   2    2.6260353e-05
   3051212   4137   0   0    1.5053501
   3051212   4137   0   2    1.5057187
   3051212   4237   0   2   -5.7283801e-06
   3051414   4137   0   0    1.5053501
   3051414   4137   0   2    1.5057187
   3051414   4237   0   2   -5.7283632e-06
   3051616   4137   0   0    1.5053501
   3051616   4137   0   2    1.5057189
   3051616   4237   0   2   -5.7236726e-06

BLOCK IMFWCOEF Q=  160
   305   4422   0   0    3.858283e-07
   305   4422   0   2   -2.4998757e-06
   305   4322   0   2    1.7420087e-06
   305   6421   0   0    3.3048746e-07
   305   6421   0   2   -2.4918848e-06
   305   6321   0   2    7.5152666e-07
   3051111   4133   0   2   -4.106509e-06
   3051111   4233   0   2    1.6786195e-07
   3051111   4137   0   2    3.2017621e-05
   3051111   4237   0   2   -1.3030128e-06
   3051313   4133   0   2   -4.1065066e-06
   3051313   4233   0   2    1.6786193e-07
   3051313   4137   0   2    3.2017623e-05
   3051313   4237   0   2   -1.3030129e-06
   3051212   4137   0   2   -6.8448178e-06
   3051212   4237   0   2    2.8421156e-07
   3051414   4137   0   2   -6.8448178e-06
   3051414   4237   0   2    2.8421156e-07
   3051616   4137   0   2   -6.8405948e-06
   3051616   4237   0   2    2.842105e-07

DECAY 23  2.4952


DECAY 24  2.085


DECAY 1000011  0.0086663155
    0.53829753   2    1000023    11
    0.45481326   2    1000022    11
    0.006889169   2   -1000024    12

DECAY 2000011  0.0071539182
    0.52813824   2    1000023    11
    0.47186035   2    1000022    11

DECAY 1000013  0.0090897679
    0.53606425   2    1000023    13
    0.45736748   2    1000022    13
    0.0065682302   2   -1000024    14

DECAY 2000013  0.0080164591
    0.49769671   2    1000023    13
    0.44851083   2    1000022    13
    0.053792455   2   -1000024    14

DECAY 1000015  0.099843121
    0.48542378   2   -1000024    16
    0.26241686   2    1000022    15
    0.25215936   2    1000023    15

DECAY 2000015  5.4045253
    0.5744867   2   -1000037    16
    0.24625606   2    1000035    15
    0.14245713   2    1000025    15
    0.018432326   2    1000022    15
    0.018023422   2    1000023    15

DECAY 1000012  0.10379666
    0.70047309   2    1000024    11
    0.16037511   2    1000023    12
    0.1391518   2    1000022    12

DECAY 1000014  0.10421904
    0.70168711   2    1000024    13
    0.15972509   2    1000023    14
    0.1385878   2    1000022    14

DECAY 1000016  5.4173511
    0.56475049   2    1000037    15
    0.31663832   2    1000035    16
    0.054942868   2    1000025    16
    0.054524225   2    1000024    15
    0.004726278   2    1000023    16
    0.0040950341   2    1000022    16
    0.00016393507   2    1000015    37
    0.00015885606   2    1000015    24

DECAY 2000001  143.38367
    0.98276542   2    1000021    1
    0.016960732   2    1000025    1
    0.0002492105   2    1000035    1

DECAY 1000001  200.52174
    0.70736431   2    1000021    1
    0.19300724   2   -1000037    2
    0.098845357   2    1000035    1
    0.00028243884   2    1000025    1
    0.00026831885   2    1000023    1
    0.0002309796   2    1000022    1

DECAY 2000003  143.38475
    0.98275816   2    1000021    3
    0.016960605   2    1000025    3
    0.00024920864   2    1000035    3

DECAY 1000003  200.52418
    0.707356   2    1000021    3
    0.19300498   2   -1000037    4
    0.098844168   2    1000035    3
    0.00028243544   2    1000025    3
    0.00026961439   2    1000023    3
    0.00023232387   2    1000022    3

DECAY 1000005  122.2521
    0.62197712   2    1000006   -24
    0.30715608   2   -1000024    6
    0.039475953   2   -1000037    6
    0.019880619   2    1000035    5
    0.006771413   2    1000006   -37
    0.0023801833   2    1000022    5
    0.0022955775   2    1000023    5

DECAY 2000005  1.5992393
    0.35774306   2   -1000024    6
    0.27021725   2    1000025    5
    0.18274593   2    1000022    5
    0.17823568   2    1000023    5
    0.0062313715   2    1000006   -24
    0.0038519166   2    1000035    5
    0.00033793524   2   -1000037    6
    0.00029634793   2    1000005    25
    0.00016915208   2    1000005    23

DECAY 2000002  150.90198
    0.93448027   2    1000021    2
    0.064478732   2    1000025    2
    0.00094741414   2    1000035    2

DECAY 1000002  200.52461
    0.70714149   2    1000021    2
    0.19154087   2    1000037    1
    0.09060987   2    1000035    2
    0.0087306983   2    1000025    2
    0.0016478422   2    1000024    1
    0.00017758753   2    1000023    2
    0.00015164343   2    1000022    2

DECAY 2000004  150.90569
    0.93445749   2    1000021    4
    0.06447715   2    1000025    4
    0.0009474339   2    1000035    4

DECAY 1000004  200.52699
    0.70713311   2    1000021    4
    0.19153863   2    1000037    3
    0.09060881   2    1000035    4
    0.008730603   2    1000025    4
    0.0016504687   2    1000024    3
    0.00018224613   2    1000023    4
    0.00015613811   2    1000022    4

DECAY 1000006  34.968898
    0.50880035   2    1000024    5
    0.24935121   2    1000023    6
    0.24184785   2    1000022    6

DECAY 2000006  138.89892
    0.35156401   2    1000006    25
    0.28724206   2    1000006    23
    0.14385815   2    1000023    6
    0.13873932   2    1000022    6
    0.033189466   2    1000037    5
    0.023321582   2    1000024    5
    0.014165709   2    1000035    6
    0.0032725761   2    1000006    36
    0.0028878642   2    1000006    35
    0.001759262   2    1000025    6

DECAY 1000024  1.1506653e-09
    0.44947036   3    1000022   -1    2
    0.21716794   3    1000022   -3    4
    0.149828   3    1000022   -11    12
    0.14905397   3    1000022   -13    14
    0.034479729   3    1000022   -15    16

DECAY 1000037  18.272503
    0.14056438   2    1000023    24
    0.13998425   2    1000024    25
    0.13789909   2    1000024    23
    0.13566962   2    1000022    24
    0.095633818   2    1000024    35
    0.095555311   2    1000024    36
    0.093795216   2    37    1000023
    0.082594264   2    37    1000022
    0.019048976   2    1000006   -5
    0.012103686   2    1000014   -13
    0.012103633   2    1000012   -11
    0.011680629   2   -1000013    14
    0.011680557   2   -1000011    12
    0.0041003117   3    1000022   -5    6
    0.0039581998   3    1000024    6   -6
    0.0036136719   3    1000023   -5    6

DECAY 1000022 -1


DECAY 1000023  2.680936e-08
    0.55491777   2    1000022    22
    0.11905481   3    1000022    12   -12
    0.089024667   3    1000022    1   -1
    0.088709238   3    1000022    3   -3
    0.069431324   3    1000022    2   -2
    0.032511213   3    1000022    4   -4
    0.020090047   3    1000022    11   -11
    0.019978159   3    1000022    13   -13
    0.0032543926   3    1000022    15   -15
    0.00082487751   3    1000024    1   -2
    0.00082487751   3   -1000024   -1    2
    0.00027497526   3    1000024    11   -12
    0.00027497526   3   -1000024   -11    12
    0.00027174755   3    1000024    13   -14
    0.00027174755   3   -1000024   -13    14
    0.00013901466   3    1000024    3   -4
    0.00013901466   3   -1000024   -3    4

DECAY 1000025  10.265338
    0.19828518   2    1000015   -15
    0.19828518   2   -1000015    15
    0.10877091   2    1000024   -24
    0.10877091   2   -1000024    24
    0.056341127   2    37   -1000024
    0.056341127   2   -37    1000024
    0.046015856   2    1000006   -6
    0.046015856   2   -1000006    6
    0.034109366   2    1000023    25
    0.023441796   2    1000022    23
    0.022618777   2    1000023    23
    0.020535982   2    1000022    35
    0.018287236   2    1000022    25
    0.011255803   2    1000023    35
    0.010373684   2    1000023    36
    0.0062697717   2    1000022    36
    0.0035040258   2    2000013   -13
    0.0035040258   2   -2000013    13
    0.0035039773   2    2000011   -11
    0.0035039773   2   -2000011    11
    0.003355129   3    1000024    5   -6
    0.003355129   3   -1000024   -5    6
    0.0021734593   2    1000013   -13
    0.0021734593   2   -1000013    13
    0.0021734405   2    1000011   -11
    0.0021734405   2   -1000011    11
    0.00090184963   2    1000014   -14
    0.00090184963   2   -1000014    14
    0.0009018434   2    1000012   -12
    0.0009018434   2   -1000012    12
    0.00065097614   3    1000023    6   -6
    0.00059554763   3    1000022    6   -6

DECAY 1000035  18.67174
    0.12970397   2    1000023    25
    0.11624366   2    1000024   -24
    0.11624366   2   -1000024    24
    0.081065087   2    1000022    35
    0.079479084   2    1000022    23
    0.073235136   2    1000023    23
    0.069568546   2    1000022    25
    0.067837191   2    37   -1000024
    0.067837191   2   -37    1000024
    0.04440326   2    1000023    35
    0.042468066   2    1000023    36
    0.025629855   2    1000022    36
    0.01235741   2    1000006   -6
    0.01235741   2   -1000006    6
    0.0066482296   2    1000014   -14
    0.0066482296   2   -1000014    14
    0.0066481987   2    1000012   -12
    0.0066481987   2   -1000012    12
    0.0049053746   2    1000013   -13
    0.0049053746   2   -1000013    13
    0.0049053455   2    1000011   -11
    0.0049053455   2   -1000011    11
    0.0036668871   3    1000024    5   -6
    0.0036668871   3   -1000024   -5    6
    0.0022266636   3    1000023    6   -6
    0.0020467432   3    1000022    6   -6
    0.0017210286   2    1000015   -15
    0.0017210286   2   -1000015    15

DECAY 1000021  189.322
    0.19500353   2    1000006   -6
    0.19500353   2   -1000006    6
    0.10870932   2    2000006   -6
    0.10870932   2   -2000006    6
    0.10644603   2    1000005   -5
    0.10644603   2   -1000005    5
    0.089668371   2    2000005   -5
    0.089668371   2   -2000005    5
    0.00010326673   3    1000025    6   -6

DECAY 25  0.0037162689
    0.65259261   2   -5    5
    0.15622712   2   -24    24
    0.074393416   2   -15    15
    0.066884598   2    21    21
    0.028676546   2   -4    4
    0.017494539   2    23    23
    0.0021461468   2    22    22
    0.0010818818   2    22    23
    0.00025802179   2   -13    13
    0.00024428959   2   -3    3
    6.7543266e-07   2   -1    1
    1.4778821e-07   2   -2    2
    5.8006715e-09   2   -11    11

DECAY 35  0.98247183
    0.49794112   2   -5    5
    0.35295165   2   -6    6
    0.073035086   2   -15    15
    0.028851566   2   -1000024    1000024
    0.026335196   2    25    25
    0.0075494746   2    1000022    1000022
    0.0048350067   2   -24    24
    0.0044178296   2    1000023    1000023
    0.0024417224   2    23    23
    0.00067711358   2    21    21
    0.00051668384   2    1000022    1000023
    0.00025269799   2   -13    13
    0.00018594427   2   -3    3
    7.6294369e-06   2   -4    4
    7.2803257e-07   2    22    22
    5.1408206e-07   2   -1    1
    2.7784861e-08   2    22    23
    5.6782014e-09   2   -11    11
    3.9347394e-11   2   -2    2

DECAY 36  1.066641
    0.45400775   2   -5    5
    0.42527891   2   -6    6
    0.066572895   2   -15    15
    0.034308302   2   -1000024    1000024
    0.0093260809   2    1000023    1000023
    0.0051000909   2    1000022    1000022
    0.0037906148   2    23    25
    0.0011149936   2    21    21
    0.00023033174   2   -13    13
    0.00016950623   2   -3    3
    9.241977e-05   2    1000022    1000023
    6.2506181e-06   2   -4    4
    1.2679399e-06   2    22    22
    4.6863553e-07   2   -1    1
    1.1705278e-07   2    22    23
    5.1756249e-09   2   -11    11
    3.2243024e-11   2   -2    2
    1.0858014e-34   2    25    25

DECAY 37  0.93755019
    0.91559484   2   -5    6
    0.073283665   2   -15    16
    0.0045123257   2    24    25
    0.0025990469   2    1000022    1000024
    0.0021213721   2    1000023    1000024
    0.00070944178   2   -5    4
    0.00069635865   2   -3    6
    0.00025908794   2   -13    14
    0.00017818758   2   -3    4
    3.1928573e-05   2   -1    6
    7.8337099e-06   2   -3    2
    5.0661074e-06   2   -5    2
    4.738376e-07   2   -1    2
    3.6225931e-07   2   -1    4
    6.0600943e-09   2   -11    12
    5.6863398e-09   2    24    36
    3.3031352e-09   2    24    35

DECAY 6  2.43
    1   2    5    24

DECAY 15 -1
