BLOCK DCINFO
   1   SDECAY/HDECAY
   2   1.3b /3.4

BLOCK SPINFO
   1   SOFTSUSY
   2   3.4.0

BLOCK MODSEL
   1   0

BLOCK SMINPUTS
   1    127.90897
   2    1.1663787e-05
   3    0.1184
   4    91.1876
   5    4.18
   6    173.2
   7    1.777

BLOCK MINPAR
   3    8.33

BLOCK EXTPAR
   0   -1
   1    603.25
   2   -1183.36
   3    3397.97
   11   -5579.1
   12   -984.22
   13    3766.37
   23   -457.09
   26    3744.07
   31    882.1
   32    882.1
   33    1336.34
   34    878.94
   35    878.94
   36    1169.35
   41    2903.3
   42    2903.3
   43    2889.73
   44    3960.72
   45    3960.72
   46    1184.62
   47    1951.53
   48    1951.53
   49    979.94

BLOCK MASS
   24    80.378988
   25    125.92236
   35    3744.2734
   36    3744.0699
   37    3745.1999
   5    4.8187603
   1000001    2955.1376
   2000001    1983.7942
   1000002    2954.265
   2000002    4000.1409
   1000003    2955.1376
   2000003    1983.7942
   1000004    2954.265
   2000004    4000.1409
   1000005    968.60459
   2000005    2899.0284
   1000006    1146.5553
   2000006    2917.0915
   1000011    909.82608
   2000011    860.91995
   1000012    906.30227
   1000013    909.82608
   2000013    860.91995
   1000014    906.30227
   1000015    1156.0352
   2000015    1355.4496
   1000016    1352.8489
   1000021    3418.7522
   1000022    465.61739
   1000023   -467.02489
   1000025    605.2717
   1000035   -1222.3643
   1000024    467.23155
   1000037    1222.5179

BLOCK NMIX
   1   1   -0.2022347
   1   2   -0.027612772
   1   3    0.69660402
   1   4    0.6878092
   2   1    0.032858252
   2   2    0.080724209
   2   3    0.70634844
   2   4   -0.70247834
   3   1    0.97878357
   3   2   -0.0063315653
   3   3    0.12014103
   3   4    0.16585769
   4   1   -0.0020469896
   4   2    0.9963338
   4   3   -0.037159805
   4   4    0.077031879

BLOCK UMIX
   1   1    0.05252745
   1   2    0.99861948
   2   1   -0.99861948
   2   2    0.05252745

BLOCK VMIX
   1   1   -0.10895312
   1   2   -0.99404689
   2   1    0.99404689
   2   2   -0.10895312

BLOCK STOPMIX
   1   1    0.11247802
   1   2    0.99365421
   2   1   -0.99365421
   2   2    0.11247802

BLOCK SBOTMIX
   1   1   -0.00083406806
   1   2    0.99999965
   2   1   -0.99999965
   2   2   -0.00083406806

BLOCK STAUMIX
   1   1   -0.026650965
   1   2    0.9996448
   2   1   -0.9996448
   2   2   -0.026650965

BLOCK ALPHA
      -0.12467117

BLOCK HMIX Q=  1833.287
   1   -462.06485
   2    7.9921065
   3    241.99586
   4    14017946

BLOCK GAUGE Q=  1833.287
   1    0.36381059
   2    0.63827107
   3    1.0189774

BLOCK AU Q=  1833.287
   1   1    0
   2   2    0
   3   3   -5579.1

BLOCK AD Q=  1833.287
   1   1    0
   2   2    0
   3   3   -984.22

BLOCK AE Q=  1833.287
   1   1    0
   2   2    0
   3   3    3766.37

BLOCK YU Q=  1833.287
   1   1    0
   2   2    0
   3   3    0.82708007

BLOCK YD Q=  1833.287
   1   1    0
   2   2    0
   3   3    0.10963688

BLOCK YE Q=  1833.287
   1   1    0
   2   2    0
   3   3    0.08320053

BLOCK MSOFT Q=  1833.287
   1    603.25
   2   -1183.36
   3    3397.97
   21    13545715
   22   -82187.989
   31    882.1
   32    882.1
   33    1336.34
   34    878.94
   35    878.94
   36    1169.35
   41    2903.3
   42    2903.3
   43    2889.73
   44    3960.72
   45    3960.72
   46    1184.62
   47    1951.53
   48    1951.53
   49    979.93998

BLOCK HIGGSBOUNDSINPUTHIGGSCOUPLINGSFERMIONS
       0, 63.873766,3,36,15,15

BLOCK HIGGSBOUNDSINPUTHIGGSCOUPLINGSBOSONS
       0,4,36,21,21,23

DECAY 6  1.4352535
    1   2    5    24

DECAY 1000021  180.10013
    0.14379184   2    1000005   -5
    0.14379184   2   -1000005    5
    0.13101006   2    1000006   -6
    0.13101006   2   -1000006    6
    0.07679645   2    2000001   -1
    0.07679645   2   -2000001    1
    0.07679645   2    2000003   -3
    0.07679645   2   -2000003    3
    0.013716076   2    2000005   -5
    0.013716076   2   -2000005    5
    0.013178967   2    2000006   -6
    0.013178967   2   -2000006    6
    0.011197044   2    1000002   -2
    0.011197044   2   -1000002    2
    0.01119698   2    1000004   -4
    0.01119698   2   -1000004    4
    0.011158067   2    1000001   -1
    0.011158067   2   -1000001    1
    0.011158067   2    1000003   -3
    0.011158067   2   -1000003    3

DECAY 1000006  21.723274
    0.47825553   2    1000024    5
    0.23728964   2    1000023    6
    0.21287661   2    1000022    6
    0.071578208   2    1000025    6
    6.3707225e-09   2    1000005    24

DECAY 2000006  179.42699
    0.33563061   2    1000006    23
    0.3127134   2    1000006    25
    0.10374288   2    1000023    6
    0.098041272   2    1000022    6
    0.084585417   2    1000037    5
    0.043619999   2    1000035    6
    0.011644503   2    1000024    5
    0.0099800719   2    1000025    6
    4.1847705e-05   2    1000005    24

DECAY 1000005  0.47284004
    0.42842283   2    1000025    5
    0.25620358   2   -1000024    6
    0.17043036   2    1000022    5
    0.14494324   2    1000023    5

DECAY 2000005  177.61333
    0.65102253   2    1000006   -24
    0.20668256   2   -1000024    6
    0.091534801   2   -1000037    6
    0.044428135   2    1000035    5
    0.0022899986   2    1000025    5
    0.0021937695   2    1000023    5
    0.0018034943   2    1000022    5
    2.3208434e-05   2    1000005    25
    2.1509769e-05   2    1000005    23

DECAY 1000002  24.775845
    0.64574072   2    1000037    1
    0.32413786   2    1000035    2
    0.014048612   2    1000025    2
    0.01069865   2    1000024    1
    0.0034083577   2    1000023    2
    0.0019657991   2    1000022    2

DECAY 2000002  29.704709
    0.71307785   2    1000021    2
    0.27466352   2    1000025    2
    0.011942386   2    1000022    2
    0.00031520981   2    1000023    2
    1.0373542e-06   2    1000035    2

DECAY 1000001  24.725934
    0.65334568   2   -1000037    2
    0.32546655   2    1000035    1
    0.016136775   2    1000025    1
    0.0025057251   2    1000023    1
    0.0024924601   2   -1000024    2
    5.281233e-05   2    1000022    1

DECAY 2000001  0.96564736
    0.95462103   2    1000025    1
    0.044210733   2    1000022    1
    0.0011662767   2    1000023    1
    1.9647751e-06   2    1000035    1

DECAY 1000004  25.16767
    0.64567738   2    1000037    3
    0.32410609   2    1000035    4
    0.014088111   2    1000025    4
    0.010735662   2    1000024    3
    0.0034201495   2    1000023    4
    0.0019726136   2    1000022    4

DECAY 2000004  24.956894
    0.64153647   2    1000021    4
    0.34313763   2    1000025    4
    0.014930534   2    1000022    4
    0.00039407662   2    1000023    4
    1.2920981e-06   2    1000035    4

DECAY 1000003  25.116801
    0.65330296   2   -1000037    4
    0.32544572   2    1000035    3
    0.016182685   2    1000025    3
    0.0025144779   2    1000023    3
    0.0025011639   2   -1000024    4
    5.2997172e-05   2    1000022    3

DECAY 2000003  0.95818226
    0.95459155   2    1000025    3
    0.04423947   2    1000022    3
    0.0011670267   2    1000023    3
    1.953401e-06   2    1000035    3

DECAY 1000011  0.42035588
    0.82914216   2    1000025    11
    0.097555768   2    1000022    11
    0.047059493   2    1000023    11
    0.026242575   2   -1000024    12

DECAY 2000011  1.2061253
    0.92102316   2    1000025    11
    0.076955498   2    1000022    11
    0.0020213435   2    1000023    11

DECAY 1000013  0.42035584
    0.82914216   2    1000025    13
    0.097555771   2    1000022    13
    0.047059494   2    1000023    13
    0.026242577   2   -1000024    14

DECAY 2000013  1.2061251
    0.92102315   2    1000025    13
    0.076955502   2    1000022    13
    0.0020213436   2    1000023    13

DECAY 1000015  3.4768273
    0.88313353   2    1000025    15
    0.066486657   2    1000022    15
    0.032634755   2   -1000024    16
    0.017745058   2    1000023    15

DECAY 2000015  1.9538969
    0.55160969   2    1000025    15
    0.19500728   2   -1000037    16
    0.097055293   2    1000035    15
    0.079370666   2    1000022    15
    0.05760617   2    1000023    15
    0.010499496   2   -1000024    16
    0.0046986299   2    1000015    25
    0.0041527718   2    1000015    23

DECAY 1000012  0.42874587
    0.83692596   2    1000025    12
    0.10965245   2    1000024    11
    0.03566199   2    1000022    12
    0.017759603   2    1000023    12

DECAY 1000014  0.42874587
    0.83692596   2    1000025    14
    0.10965244   2    1000024    13
    0.035661991   2    1000022    14
    0.017759603   2    1000023    14

DECAY 1000016  1.9752272
    0.56526516   2    1000025    16
    0.1845084   2    1000037    15
    0.12395477   2    1000024    15
    0.0930929   2    1000035    16
    0.016574123   2    1000022    16
    0.0083282879   2   -1000015   -24
    0.0082763567   2    1000023    16

DECAY 1000024  5.9005278e-12
    0.60003992   3    1000022    2   -1
    0.19997499   3    1000022   -11    12
    0.19997499   3    1000022   -13    14
    2.0218206e-06   3    1000023   -11    12
    2.0218206e-06   3    1000023   -13    14

DECAY 1000037  14.412515
    0.1865791   2    1000024    25
    0.18200719   2    1000024    23
    0.17835876   2    1000023    24
    0.17252227   2    1000022    24
    0.068907016   2    1000012   -11
    0.068907016   2    1000014   -13
    0.068226444   2   -1000011    12
    0.068226444   2   -1000013    14
    0.0053088223   2    1000025    24
    0.00094791888   2    1000006   -5
    7.5179319e-06   2   -1000005    6
    1.503973e-06   2   -1000015    16

DECAY 1000022 -1


DECAY 1000023  5.6831646e-12
    0.34611279   2    1000022    22
    0.14197059   3    1000022   -1    1
    0.14197059   3    1000022   -3    3
    0.10941376   3    1000022   -2    2
    0.065137133   3    1000022   -16    16
    0.065132414   3    1000022   -12    12
    0.065132414   3    1000022   -14    14
    0.032565151   3    1000022   -11    11
    0.032565151   3    1000022   -13    13

DECAY 1000025  0.37457755
    0.28851756   2    1000024   -24
    0.28851756   2   -1000024    24
    0.22037314   2    1000023    23
    0.18494138   2    1000022    25
    0.016663928   2    1000022    23
    0.00098643334   2    1000023    25

DECAY 1000035  14.380785
    0.17869359   2    1000024   -24
    0.17869359   2   -1000024    24
    0.1662243   2    1000023    25
    0.15658005   2    1000022    23
    0.03474419   2    1000012   -12
    0.03474419   2   -1000012    12
    0.03474419   2    1000014   -14
    0.03474419   2   -1000014    14
    0.033927054   2    1000011   -11
    0.033927054   2   -1000011    11
    0.033927054   2    1000013   -13
    0.033927054   2   -1000013    13
    0.020171693   2    1000023    23
    0.019517883   2    1000022    25
    0.005089448   2    1000025    23
    0.00033233295   2    1000025    25
    4.827653e-06   2    1000005   -5
    4.827653e-06   2   -1000005    5
    7.5623619e-07   2    1000015   -15
    7.5623619e-07   2   -1000015    15
    2.3818122e-07   2    2000011   -11
    2.3818122e-07   2   -2000011    11
    2.3818122e-07   2    2000013   -13
    2.3818122e-07   2   -2000013    13

DECAY 25  0.0041192108
    0.57897776   2    5   -5
    0.22581174   2    24   -24
    0.077515332   2    21    21
    0.063474633   2   -15    15
    0.02855052   2    23    23
    0.021178551   2    4   -4
    0.002377175   2    22    22
    0.0016447055   2    22    23
    0.00024491381   2    3   -3
    0.00022467087   2   -13    13

DECAY 35  47.571258
    0.25911028   2    1000024   -1000037
    0.25911028   2    1000037   -1000024
    0.16701114   2    1000022    1000035
    0.086513507   2    1000023    1000035
    0.05462818   2    5   -5
    0.0486092   2    6   -6
    0.047169103   2    1000022    1000025
    0.032021814   2    1000023    1000025
    0.010279677   2   -15    15
    0.0066250881   2    1000025    1000035
    0.0062402815   2    1000024   -1000024
    0.004757086   2    1000006   -1000006
    0.0037745597   2    1000015   -2000015
    0.0037745597   2    2000015   -1000015
    0.003139804   2    1000022    1000023
    0.0031150521   2    1000025    1000025
    0.0023850678   2    1000022    1000022
    0.00090904873   2    1000023    1000023
    0.00042490411   2    1000037   -1000037
    0.00021494278   2    1000035    1000035
    5.0127544e-05   2    25    25
    3.6134656e-05   2   -13    13
    2.303541e-05   2    3   -3
    1.95216e-05   2    1000015   -1000015
    1.3450699e-05   2    24   -24
    7.0558626e-06   2    21    21
    6.777021e-06   2    1000012   -1000012
    6.777021e-06   2    1000014   -1000014
    6.7135829e-06   2    23    23
    5.3537121e-06   2    1000016   -1000016
    3.7635757e-06   2    2000015   -2000015
    2.0772927e-06   2    1000011   -1000011
    2.0772927e-06   2    1000013   -1000013
    1.3682191e-06   2    2000011   -2000011
    1.3682191e-06   2    2000013   -2000013
    4.9271368e-07   2    4   -4
    1.9809719e-07   2    1000005   -1000005
    1.0187366e-07   2    22    22
    2.8938055e-08   2    23    22

DECAY 36  47.342992
    0.25834477   2    1000024   -1000037
    0.25834477   2    1000037   -1000024
    0.17245222   2    1000023    1000035
    0.0842273   2    1000022    1000035
    0.054916261   2    5   -5
    0.050037119   2    1000023    1000025
    0.048954298   2    6   -6
    0.031526004   2    1000022    1000025
    0.010329195   2   -15    15
    0.0085062483   2    1000024   -1000024
    0.0038031149   2    1000015   -2000015
    0.0038031149   2   -1000015    2000015
    0.0033272132   2    1000025    1000035
    0.0031609238   2    1000022    1000023
    0.0021671046   2    1000037   -1000037
    0.0017385283   2    1000025    1000025
    0.0016071936   2    1000023    1000023
    0.0015539817   2    1000022    1000022
    0.001089727   2    1000035    1000035
    3.6959585e-05   2    21    21
    3.6308694e-05   2   -13    13
    2.3171909e-05   2    3   -3
    1.370774e-05   2    23    25
    4.9811559e-07   2    4   -4
    2.1567412e-07   2    22    22
    4.8333828e-08   2    23    22

DECAY 37  47.275466
    0.26504256   2    1000037    1000023
    0.26196745   2    1000024    1000035
    0.25161102   2    1000037    1000022
    0.10270741   2    6   -5
    0.078953053   2    1000024    1000025
    0.010904729   2    1000024    1000022
    0.010347071   2   -15    16
    0.009955056   2    1000037    1000025
    0.0076300743   2   -1000015    1000016
    0.00064804609   2    1000024    1000023
    9.1637052e-05   2    4   -5
    4.9871326e-05   2    1000006   -1000005
    3.637153e-05   2   -13    14
    2.3325316e-05   2    4   -3
    1.3745267e-05   2    24    25
    8.214981e-06   2   -1000011    1000012
    8.214981e-06   2   -1000013    1000014
    1.1607335e-06   2    2   -3
    9.1636178e-07   2    2   -5
    6.7570531e-08   2   -2000015    1000016
    7.7282974e-09   2    1000037    1000035
    5.1280865e-14   2    24    36

DECAY 5 -1


DECAY 15 -1


DECAY 23  2.4952


DECAY 24  2.085
