BLOCK SPINFO
   1   SPheno
   2   v4.0.5be

BLOCK SPHENOINFO
   1   2
   2   2

BLOCK MODSEL
   1   0

BLOCK MINPAR
   3    39.825471
   4    1

BLOCK EXTPAR
   0    1228.0147
   1   -295.87989
   2   -917.52406
   3    3000
   11    3096.839
   12    1799.8548
   13    1480.5834
   23    268.96736
   25    38.764475
   26    4153.1591
   31    804.13516
   32    804.13516
   33    1722.857
   34    1737.1392
   35    1737.1392
   36    1441.619
   41    5000
   42    5000
   43    1226.4272
   44    5000
   45    5000
   46    1451.065
   47    5000
   48    5000
   49    1309.4381

BLOCK SMINPUTS
   1    127.90897
   2    1.1663787e-05
   3    0.1184
   4    91.1876
   5    4.18
   6    173.2
   7    1.777
   8    0
   11    0.00051099893
   12    0
   13    0.10565837
   14    0
   21    0.005
   22    0.0025
   23    0.095
   24    1.27

BLOCK GAUGE Q=  1228.0147
   1    0.35536298
   2    0.66519887
   3    1.219778

BLOCK YU Q=  1228.0147
   1   1    8.3871615e-06
   2   2    0.004260678
   3   3    1.0132365

BLOCK YD Q=  1228.0147
   1   1    0.00065332482
   2   2    0.012413172
   3   3    0.6478935

BLOCK YE Q=  1228.0147
   1   1    0.00011400996
   2   2    0.023573644
   3   3    0.39646991

BLOCK AU Q=  1228.0147
   1   1    0
   2   2    0
   3   3    3096.839

BLOCK AD Q=  1228.0147
   1   1    0
   2   2    0
   3   3    1799.8548

BLOCK AE Q=  1228.0147
   1   1    0
   2   2    0
   3   3    1480.5834

BLOCK MSOFT Q=  1228.0147
   1   -295.87989
   2   -917.52406
   3    3000
   21    17104955
   22    4930.8531
   31    804.13516
   32    804.13516
   33    1722.857
   34    1737.1392
   35    1737.1392
   36    1441.619
   41    5000
   42    5000
   43    1226.4272
   44    5000
   45    5000
   46    1451.065
   47    5000
   48    5000
   49    1309.4381

BLOCK MASS
   6    173.2
   23    91.1876
   24    80.429995
   15    1.777
   25    124.49557
   35    4151.1527
   36    4153.1591
   37    4152.2983
   1000001    5017.4537
   2000001    5007.5418
   1000002    5017.0166
   2000002    5011.2198
   1000003    5017.4604
   2000003    5007.5535
   1000004    5017.0231
   2000004    5011.2208
   1000005    1167.6092
   2000005    1300.4417
   1000006    1040.5728
   2000006    1449.2213
   1000011    821.73898
   2000011    1733.7182
   1000012    817.52811
   1000013    821.77576
   2000013    1733.7488
   1000014    817.56525
   1000015    1449.9216
   2000015    1736.1716
   1000016    1733.9592
   1000021    3170.6829
   1000022   -245.24768
   1000023    272.16273
   1000025   -315.67887
   1000035   -963.3923
   1000024    265.50808
   1000037    963.54625

BLOCK ALPHA
      -0.025133898

BLOCK HMIX Q=  1228.0147
   1    268.96736
   2    38.764475
   3    244.17461
   4    17248730

BLOCK STOPMIX
   1   1   -0.84927079
   1   2    0.52795751
   2   1   -0.52795751
   2   2   -0.84927079

BLOCK SBOTMIX
   1   1    0.99830288
   1   2    0.058235414
   2   1   -0.058235414
   2   2    0.99830288

BLOCK STAUMIX
   1   1    0.01713889
   1   2    0.99985312
   2   1   -0.99985312
   2   2    0.01713889

BLOCK NMIX
   1   1   -0.49218282
   1   2    0.06527017
   1   3   -0.64061236
   1   4   -0.58575736
   2   1    0.056672778
   2   2   -0.047967475
   2   3   -0.69888498
   2   4    0.71136988
   3   1   -0.86862422
   3   2   -0.047012414
   3   3    0.3172262
   3   4    0.37768946
   4   1    0.0060192714
   4   2   -0.99560472
   4   3   -0.023305132
   4   4   -0.090509005

BLOCK UMIX
   1   1   -0.033025323
   1   2    0.99945452
   2   1   -0.99945452
   2   2   -0.033025323

BLOCK VMIX
   1   1    0.12816005
   1   2    0.9917535
   2   1    0.9917535
   2   2   -0.12816005

BLOCK HIGGSBOUNDSINPUTHIGGSCOUPLINGSFERMIONS
       0, 1502.6845,3,36,15,15

BLOCK HIGGSBOUNDSINPUTHIGGSCOUPLINGSBOSONS
       0,4,36,21,21,23

BLOCK SPHENOLOWENERGY
   1    0.00037320081
   2    1.5867565e-06
   3    3.5226247e-05
   4    2.7984656e-15
   5    1.1954777e-10
   6    2.5047088e-08
   7    9.3852528e-14
   8    4.0093939e-09
   9    8.5115769e-07
   10    9.6191607e-05
   11    0.99362248
   12    0.54368756
   13    19.423866
   14    0
   15    0
   16    0.0021661626
   17    2.2817489e-15
   18    2.4769559e-11
   19    8.2835493e-11
   20   -1.4584991e-14
   21   -6.2365401e-10
   22   -9.0695346e-08
   23    0
   24    0
   25    0
   26    0
   27    0
   28    0
   29    0
   30    0
   31    0
   39    8.8316228e-05
   40    0
   41    0
   42    0

BLOCK FWCOEF Q=  160
   305   4422   0   0   -0.18881911
   305   4422   0   2   -0.25042143
   305   4322   0   2   -0.0003627951
   305   6421   0   0   -0.095227835
   305   6421   0   2   -0.12500372
   305   6321   0   2   -0.00020368377
   3051111   4133   0   0    1.5851116
   3051111   4133   0   2    1.5871679
   3051111   4233   0   2    0.00022790761
   3051111   4137   0   0   -4.4078037
   3051111   4137   0   2   -4.4035725
   3051111   4237   0   2   -0.0017899698
   3051313   4133   0   0    1.5851116
   3051313   4133   0   2    1.5871633
   3051313   4233   0   2    0.00022790656
   3051313   4137   0   0   -4.4078037
   3051313   4137   0   2   -4.4035771
   3051313   4237   0   2   -0.0017899737
   3051212   4137   0   0    1.5053501
   3051212   4137   0   2    1.5044414
   3051212   4237   0   2    0.00039070241
   3051414   4137   0   0    1.5053501
   3051414   4137   0   2    1.5044414
   3051414   4237   0   2    0.00039070243
   3051616   4137   0   0    1.5053501
   3051616   4137   0   2    1.5044416
   3051616   4237   0   2    0.0003907083

BLOCK IMFWCOEF Q=  160
   305   4422   0   0    3.8575916e-07
   305   4422   0   2   -2.3092147e-05
   305   4322   0   2   -5.2643861e-06
   305   6421   0   0    3.3042823e-07
   305   6421   0   2   -1.5701528e-05
   305   6321   0   2   -1.96991e-06
   3051111   4133   0   2    9.0238548e-08
   3051111   4233   0   2    4.4538484e-06
   3051111   4137   0   2   -1.1362244e-06
   3051111   4237   0   2   -3.4987553e-05
   3051313   4133   0   2    9.0113668e-08
   3051313   4233   0   2    4.4538323e-06
   3051313   4137   0   2   -1.1361998e-06
   3051313   4237   0   2   -3.4987623e-05
   3051212   4137   0   2    4.8103188e-07
   3051212   4237   0   2    7.6368578e-06
   3051414   4137   0   2    4.8102817e-07
   3051414   4237   0   2    7.6368578e-06
   3051616   4137   0   2    4.857392e-07
   3051616   4237   0   2    7.6368699e-06

DECAY 23  2.4952


DECAY 24  2.085


DECAY 1000011  0.8108797
    0.84647698   2    1000025    11
    0.14461197   2    1000022    11
    0.0078043354   2   -1000024    12
    0.0011067177   2    1000023    11

DECAY 2000011  8.1975671
    0.74950865   2    1000025    11
    0.24722593   2    1000022    11
    0.0032469628   2    1000023    11

DECAY 1000013  0.81821359
    0.83975914   2    1000025    13
    0.14710977   2    1000022    13
    0.0077348903   2   -1000024    14
    0.0053961929   2    1000023    13

DECAY 2000013  8.2344448
    0.74638651   2    1000025    13
    0.2470403   2    1000022    13
    0.0043141516   2    1000023    13
    0.0022174229   2   -1000024    14

DECAY 1000015  15.147685
    0.35520893   2    1000025    15
    0.27973502   2   -1000024    16
    0.22813697   2    1000022    15
    0.13691157   2    1000023    15

DECAY 2000015  18.279225
    0.40009557   2   -1000037    16
    0.19737632   2    1000035    15
    0.13879112   2    1000023    15
    0.13155059   2    1000025    15
    0.13037991   2    1000022    15
    0.00071760726   2    1000015    25
    0.00067392079   2    1000015    23
    0.00041495487   2   -1000024    16

DECAY 1000012  0.88607692
    0.51134261   2    1000025    12
    0.36225429   2    1000022    12
    0.10674692   2    1000024    11
    0.019656178   2    1000023    12

DECAY 1000014  0.89336934
    0.50720781   2    1000025    14
    0.35932005   2    1000022    14
    0.11397509   2    1000024    13
    0.019497055   2    1000023    14

DECAY 1000016  18.319022
    0.39168259   2    1000037    15
    0.29506163   2    1000024    15
    0.19863455   2    1000035    16
    0.06773078   2    1000025    16
    0.043099925   2    1000022    16
    0.0024264224   2    1000023    16
    0.0013641041   2    1000015    24

DECAY 2000001  144.63455
    0.98080873   2    1000021    1
    0.0144684   2    1000025    1
    0.0046600726   2    1000022    1

DECAY 1000001  205.05801
    0.69683463   2    1000021    1
    0.19958487   2   -1000037    2
    0.099240899   2    1000035    1
    0.0025063775   2    1000022    1
    0.0012386079   2    1000025    1
    0.00036100801   2    1000023    1
    0.00023361373   2   -1000024    2

DECAY 2000003  144.66621
    0.98060245   2    1000021    3
    0.014475837   2    1000025    3
    0.0047022766   2    1000022    3
    0.00011322506   2    1000023    3
    0.00010539861   2   -1000024    4

DECAY 1000003  205.07587
    0.6967774   2    1000021    3
    0.19956794   2   -1000037    4
    0.099232453   2    1000035    3
    0.0025367076   2    1000022    3
    0.00124597   2    1000025    3
    0.0003972954   2    1000023    3
    0.00024223325   2   -1000024    4

DECAY 1000005  33.206012
    0.59928228   2   -1000024    6
    0.12751444   2    1000023    5
    0.11809257   2    1000022    5
    0.094537513   2    1000006   -24
    0.024168787   2    1000025    5
    0.02081932   2   -1000037    6
    0.015585087   2    1000035    5

DECAY 2000005  20.468191
    0.47333654   2   -1000024    6
    0.23934539   2    1000023    5
    0.20167732   2    1000022    5
    0.076288507   2    1000025    5
    0.0071448062   2    1000006   -24
    0.00086168798   2   -1000037    6
    0.00053708569   2    1000005    25
    0.00046333826   2    1000035    5
    0.00034532713   2    1000005    23

DECAY 2000002  153.35279
    0.92754733   2    1000021    2
    0.054624056   2    1000025    2
    0.017593158   2    1000022    2
    0.00023300057   2    1000023    2

DECAY 1000002  205.0559
    0.69661971   2    1000021    2
    0.19650332   2    1000037    1
    0.09880554   2    1000035    2
    0.0043461586   2    1000025    2
    0.0035180435   2    1000024    1
    0.00015357996   2    1000023    2

DECAY 2000004  153.35643
    0.92752561   2    1000021    4
    0.054624409   2    1000025    4
    0.017596785   2    1000022    4
    0.00023893413   2    1000023    4

DECAY 1000004  205.07365
    0.69656241   2    1000021    4
    0.19648667   2    1000037    3
    0.098797166   2    1000035    4
    0.004347043   2    1000025    4
    0.0035920362   2    1000024    3
    0.00015801325   2    1000023    4

DECAY 1000006  32.269118
    0.37424282   2    1000024    5
    0.30835172   2    1000023    6
    0.25400827   2    1000022    6
    0.059426225   2    1000025    6
    0.0031391046   2    1000037    5
    0.0007512257   3    1000022    24    5

DECAY 2000006  99.634435
    0.21958689   2    1000006    23
    0.21923495   2    1000005    24
    0.20804424   2    1000024    5
    0.12410764   2    1000023    6
    0.074747109   2    1000022    6
    0.067055925   2    1000025    6
    0.060127274   2    1000006    25
    0.018947998   2    1000037    5
    0.0080616297   2    1000035    6

DECAY 1000024  1.037005e-05
    0.33671679   3    1000022   -1    2
    0.33040326   3    1000022   -3    4
    0.1122855   3    1000022   -11    12
    0.11227545   3    1000022   -13    14
    0.108319   3    1000022   -15    16

DECAY 1000037  9.5337497
    0.21810882   2    1000023    24
    0.21530261   2    1000024    23
    0.20307833   2    1000024    25
    0.13979257   2    1000022    24
    0.07885971   2    1000025    24
    0.034332622   2    1000012   -11
    0.034316691   2    1000014   -13
    0.033041519   2   -1000011    12
    0.033025746   2   -1000013    14
    0.0035240268   3    1000023   -5    6
    0.0026206801   3    1000024    6   -6
    0.0024858585   3    1000022   -5    6
    0.0011556791   3    1000025   -5    6
    0.00034734015   3    1000024    5   -5

DECAY 1000022 -1


DECAY 1000023  3.461703e-05
    0.20163277   3    1000022    12   -12
    0.15070877   3    1000022    1   -1
    0.1506878   3    1000022    3   -3
    0.11754031   3    1000022    2   -2
    0.11600569   3    1000022    5   -5
    0.11419121   3    1000022    4   -4
    0.048203332   2    1000022    22
    0.034009345   3    1000022    11   -11
    0.034002803   3    1000022    13   -13
    0.032079254   3    1000022    15   -15
    0.00017118952   3    1000024    1   -2
    0.00017118952   3   -1000024   -1    2
    0.00014348751   3    1000024    3   -4
    0.00014348751   3   -1000024   -3    4

DECAY 1000025  0.00095741918
    0.14246126   3    1000024    1   -2
    0.14246126   3   -1000024   -1    2
    0.14210919   3    1000024    3   -4
    0.14210919   3   -1000024   -3    4
    0.047454365   3    1000024    11   -12
    0.047454365   3   -1000024   -11    12
    0.047453801   3    1000024    13   -14
    0.047453801   3   -1000024   -13    14
    0.047280222   3    1000024    15   -16
    0.047280222   3   -1000024   -15    16
    0.028394104   3    1000023    12   -12
    0.021253143   3    1000023    1   -1
    0.0212521   3    1000023    3   -3
    0.019470352   3    1000023    5   -5
    0.016575341   3    1000023    2   -2
    0.016405182   3    1000023    4   -4
    0.0054576523   2    1000023    22
    0.0047961965   3    1000023    11   -11
    0.0047959304   3    1000023    13   -13
    0.0047069564   3    1000023    15   -15
    0.0006073933   3    1000022    12   -12
    0.00049219523   3    1000022    1   -1
    0.00049218873   3    1000022    3   -3
    0.00042084415   3    1000022    5   -5
    0.00038284282   3    1000022    2   -2
    0.00038195536   3    1000022    4   -4
    0.000221639   2    1000022    22
    0.0001287678   3    1000022    11   -11
    0.00012872888   3    1000022    13   -13
    0.00011881553   3    1000022    15   -15

DECAY 1000035  10.725622
    0.19730319   2    1000024   -24
    0.19730319   2   -1000024    24
    0.15058782   2    1000023    25
    0.14631986   2    1000023    23
    0.082021152   2    1000022    25
    0.049759388   2    1000025    25
    0.034159753   2    1000022    23
    0.01544907   2    1000012   -12
    0.01544907   2   -1000012    12
    0.015441847   2    1000014   -14
    0.015441847   2   -1000014    14
    0.014789109   2    1000025    23
    0.014451035   2    1000011   -11
    0.014451035   2   -1000011    11
    0.014444118   2    1000013   -13
    0.014444118   2   -1000013    13
    0.0030620592   3    1000024    5   -6
    0.0030620592   3   -1000024   -5    6
    0.0009512953   3    1000023    6   -6
    0.00060496293   3    1000022    6   -6
    0.00027600591   3    1000025    6   -6

DECAY 1000021  294.48415
    0.14064071   2    1000006   -6
    0.14064071   2   -1000006    6
    0.1190196   2    1000005   -5
    0.1190196   2   -1000005    5
    0.11028839   2    2000005   -5
    0.11028839   2   -2000005    5
    0.087243738   2    2000006   -6
    0.087243738   2   -2000006    6
    0.042613492   2    1000006   -4
    0.042613492   2   -1000006    4
    0.00027194793   3    1000035    6   -6

DECAY 25  0.003813877
    0.5823479   2   -5    5
    0.22033387   2   -24    24
    0.071078994   2    21    21
    0.066787279   2   -15    15
    0.028781246   2   -4    4
    0.026405886   2    23    23
    0.0023578391   2    22    22
    0.0014564065   2    22    23
    0.00023157933   2   -13    13
    0.00021824759   2   -3    3
    6.0343257e-07   2   -1    1
    1.4831845e-07   2   -2    2
    5.2061665e-09   2   -11    11

DECAY 35  118.72588
    0.40236862   2   -5    5
    0.12540181   2   -1000024    1000037
    0.12540181   2   -1000037    1000024
    0.10526838   2   -15    15
    0.061492776   2    1000023    1000035
    0.051086874   2    1000022    1000035
    0.023911042   2   -2000005    1000005
    0.023911042   2   -1000005    2000005
    0.014677714   2    1000025    1000035
    0.013432042   2    1000022    1000022
    0.013368557   2    1000023    1000025
    0.0052568719   2    1000025    1000025
    0.0050038419   2   -1000024    1000024
    0.0045877245   2   -2000015    1000015
    0.0045877245   2   -1000015    2000015
    0.0045112217   2    1000022    1000023
    0.0039517167   2   -1000006    1000006
    0.0035508432   2   -2000006    2000006
    0.0033667308   2    1000022    1000025
    0.00089698461   2   -2000006    1000006
    0.00089698461   2   -1000006    2000006
    0.00080010875   2    1000023    1000023
    0.00077242742   2   -6    6
    0.0003465283   2   -13    13
    0.00030695278   2   -1000037    1000037
    0.00023533037   2   -1000005    1000005
    0.00022035955   2   -2000005    2000005
    0.00021167435   2   -3    3
    0.00015516046   2    1000035    1000035
    7.1767346e-06   2   -1000015    1000015
    5.3210773e-06   2   -2000015    2000015
    3.9564196e-06   2    21    21
    2.5602339e-06   2    25    25
    5.8523077e-07   2   -1    1
    7.8599964e-08   2    23    23
    4.6777065e-08   2    22    23
    3.1711089e-08   2   -1000011    1000011
    3.1460451e-08   2   -1000013    1000013
    2.6142616e-08   2    22    22
    1.5907533e-08   2   -24    24
    1.2175788e-08   2   -2000011    2000011
    1.2063281e-08   2   -2000013    2000013
    1.0543662e-08   2   -4    4
    7.7820515e-09   2   -11    11
    4.0119079e-10   2   -2000013    1000013
    4.0119079e-10   2   -1000013    2000013
    5.4351761e-14   2   -2    2
    9.3839028e-15   2   -2000011    1000011
    9.3839028e-15   2   -1000011    2000011

DECAY 36  114.46336
    0.38766297   2   -5    5
    0.13019919   2   -1000024    1000037
    0.13019919   2   -1000037    1000024
    0.10142827   2   -15    15
    0.066340297   2    1000023    1000035
    0.05134541   2    1000022    1000035
    0.025033831   2   -2000005    1000005
    0.025033831   2   -1000005    2000005
    0.014790543   2    1000023    1000025
    0.014418287   2    1000025    1000035
    0.012896725   2    1000022    1000022
    0.005378196   2    1000022    1000023
    0.0051411331   2   -1000024    1000024
    0.0049594997   2    1000025    1000025
    0.0048646608   2   -2000006    1000006
    0.0048646608   2   -1000006    2000006
    0.0047659645   2   -2000015    1000015
    0.0047659645   2   -1000015    2000015
    0.0033074545   2    1000022    1000025
    0.00093587298   2    1000023    1000023
    0.00071381746   2   -6    6
    0.00033388022   2   -13    13
    0.00027199433   2   -1000037    1000037
    0.00020394222   2   -3    3
    0.0001378866   2    1000035    1000035
    5.7535144e-06   2    21    21
    5.6385195e-07   2   -1    1
    1.7937417e-07   2    23    25
    1.3938715e-08   2    22    23
    9.9178627e-09   2   -4    4
    7.498089e-09   2   -11    11
    4.7731426e-10   2    22    22
    4.1445198e-10   2   -2000013    1000013
    4.1445198e-10   2   -1000013    2000013
    3.1205153e-13   2    23    35
    5.1128229e-14   2   -2    2
    9.6940747e-15   2   -2000011    1000011
    9.6940747e-15   2   -1000011    2000011
    4.2557518e-38   2    25    25

DECAY 37  120.36083
    0.40659111   2   -5    6
    0.12425548   2    1000024    1000035
    0.12305623   2    1000023    1000037
    0.10942601   2   -15    16
    0.10045363   2    1000022    1000037
    0.035959265   2   -2000005    1000006
    0.033967408   2    1000024    1000025
    0.02865885   2    1000025    1000037
    0.0134472   2   -2000005    2000006
    0.0090685203   2   -1000015    1000016
    0.0075350969   2    1000022    1000024
    0.0051128345   2   -1000005    2000006
    0.00084884526   2   -1000005    1000006
    0.000602094   2   -5    4
    0.00041905716   2    1000023    1000024
    0.00038685988   2   -13    14
    0.00019243151   2   -3    4
    9.0451277e-06   2   -3    2
    4.2995718e-06   2   -5    2
    3.2291005e-06   2   -2000015    1000016
    1.4696448e-06   2   -3    6
    5.3408189e-07   2   -1    2
    1.7053396e-07   2    24    25
    1.2288464e-07   2   -1000011    1000012
    1.2253765e-07   2   -1000013    1000014
    5.4248432e-08   2   -1    6
    2.5526224e-08   2   -1    4
    9.0486927e-09   2   -11    12
    5.3753766e-09   2    1000035    1000037
    7.9751892e-10   2   -2000013    1000014
    2.2319447e-14   2    24    35
    1.8654333e-14   2   -2000011    1000012

DECAY 6  2.43
    1   2    5    24

DECAY 15 -1
