BLOCK SPINFO
   1   SPheno
   2   v4.0.5be

BLOCK SPHENOINFO
   1   2
   2   2

BLOCK MODSEL
   1   0

BLOCK MINPAR
   3    36.406278
   4   -1

BLOCK EXTPAR
   0    1474.9571
   1   -200.45128
   2    204.00275
   3    3000
   11   -2733.6767
   12   -641.72721
   13    1592.9741
   23   -578.80638
   25    35.567847
   26    946.89873
   31    1878.8761
   32    1878.8761
   33    1584.28
   34    982.95224
   35    982.95224
   36    1338.8636
   41    5000
   42    5000
   43    1760.5923
   44    5000
   45    5000
   46    1298.5987
   47    5000
   48    5000
   49    1919.6121

BLOCK SMINPUTS
   1    127.90897
   2    1.1663787e-05
   3    0.1184
   4    91.1876
   5    4.18
   6    173.2
   7    1.777
   8    0
   11    0.00051099893
   12    0
   13    0.10565837
   14    0
   21    0.005
   22    0.0025
   23    0.095
   24    1.27

BLOCK GAUGE Q=  1474.9571
   1    0.35536298
   2    0.66519887
   3    1.219778

BLOCK YU Q=  1474.9571
   1   1    8.3876853e-06
   2   2    0.0042609441
   3   3    1.0132998

BLOCK YD Q=  1474.9571
   1   1    0.00059948725
   2   2    0.011390258
   3   3    0.5945035

BLOCK YE Q=  1474.9571
   1   1    0.00010461491
   2   2    0.021631045
   3   3    0.3637986

BLOCK AU Q=  1474.9571
   1   1    0
   2   2    0
   3   3   -2733.6766

BLOCK AD Q=  1474.9571
   1   1    0
   2   2    0
   3   3   -641.7272

BLOCK AE Q=  1474.9571
   1   1    0
   2   2    0
   3   3    1592.9741

BLOCK MSOFT Q=  1474.9571
   1   -200.45128
   2    204.00275
   3    3000
   21    591284.85
   22   -307135.99
   31    1878.8761
   32    1878.8761
   33    1584.28
   34    982.95224
   35    982.95224
   36    1338.8636
   41    5000
   42    5000
   43    1760.5923
   44    5000
   45    5000
   46    1298.5987
   47    5000
   48    5000
   49    1919.6121

BLOCK MASS
   6    173.2
   23    91.1876
   24    80.429995
   15    1.777
   25    123.39471
   35    946.64805
   36    946.89873
   37    951.38552
   1000001    5028.2891
   2000001    5017.4773
   1000002    5027.8348
   2000002    5018.7247
   1000003    5028.2932
   2000003    5017.4821
   1000004    5027.8381
   2000004    5018.7255
   1000005    1747.1329
   2000005    1941.7588
   1000006    1222.2662
   2000006    1779.8892
   1000011    1882.6306
   2000011    985.86542
   1000012    1880.5694
   1000013    1882.6238
   2000013    985.84858
   1000014    1880.5619
   1000015    1335.1503
   2000015    1585.1411
   1000016    1582.1068
   1000021    3187.4678
   1000022   -198.80652
   1000023    217.68501
   1000025   -592.13653
   1000035    594.07668
   1000024    217.92758
   1000037    597.76083

BLOCK ALPHA
      -0.028219819

BLOCK HMIX Q=  1474.9571
   1   -578.80638
   2    35.567847
   3    244.02138
   4    896617.2

BLOCK STOPMIX
   1   1    0.2413478
   1   2    0.97043868
   2   1   -0.97043868
   2   2    0.2413478

BLOCK SBOTMIX
   1   1   -0.99773136
   1   2    0.06732116
   2   1   -0.06732116
   2   2   -0.99773136

BLOCK STAUMIX
   1   1   -0.053748167
   1   2    0.99855452
   2   1   -0.99855452
   2   2   -0.053748167

BLOCK NMIX
   1   1    0.99579676
   1   2    0.0063604427
   1   3   -0.08587864
   1   4    0.031196393
   2   1   -0.005325474
   2   2   -0.98661459
   2   3   -0.15410059
   2   4   -0.053068756
   3   1   -0.08286862
   3   2    0.071574117
   3   3   -0.69881378
   3   4    0.70687286
   4   1    0.03864249
   4   2   -0.14638421
   4   3    0.69320788
   4   4    0.70465683

BLOCK UMIX
   1   1   -0.97634665
   1   2   -0.21621104
   2   1    0.21621104
   2   2   -0.97634665

BLOCK VMIX
   1   1   -0.99723079
   1   2    0.074369042
   2   1    0.074369042
   2   2    0.99723079

BLOCK HIGGSBOUNDSINPUTHIGGSCOUPLINGSFERMIONS
       0, 1265.0717,3,36,15,15

BLOCK HIGGSBOUNDSINPUTHIGGSCOUPLINGSBOSONS
       0,4,36,21,21,23

BLOCK SPHENOLOWENERGY
   1    0.00040325063
   2    1.5872108e-06
   3    3.521502e-05
   4    1.2594473e-15
   5    5.377076e-11
   6    9.4253038e-09
   7    4.2494385e-14
   8    1.8143233e-09
   9    3.2365214e-07
   10    8.6540684e-05
   11    0.89393214
   12    0.54336282
   13    19.364131
   14    0
   15    0
   16    0.0021657801
   17    2.2817538e-15
   18    2.4771502e-11
   19    8.2836523e-11
   20   -5.0991453e-15
   21   -2.1800562e-10
   22   -7.5941802e-08
   23    0
   24    0
   25    0
   26    0
   27    0
   28    0
   29    0
   30    0
   31    0
   39    8.158307e-05
   40    0
   41    0
   42    0

BLOCK FWCOEF Q=  160
   305   4422   0   0   -0.18881911
   305   4422   0   2   -0.27658755
   305   4322   0   2   -0.0010610062
   305   6421   0   0   -0.095227835
   305   6421   0   2   -0.16158696
   305   6321   0   2   -0.00095765712
   3051111   4133   0   0    1.5915859
   3051111   4133   0   2    1.5926848
   3051111   4233   0   2    2.3168524e-05
   3051111   4137   0   0   -4.414278
   3051111   4137   0   2   -4.4088697
   3051111   4237   0   2   -0.00017776423
   3051313   4133   0   0    1.5915859
   3051313   4133   0   2    1.5926828
   3051313   4233   0   2    2.3156947e-05
   3051313   4137   0   0   -4.414278
   3051313   4137   0   2   -4.4088717
   3051313   4237   0   2   -0.00017775481
   3051212   4137   0   0    1.5053501
   3051212   4137   0   2    1.5041875
   3051212   4237   0   2    3.8737006e-05
   3051414   4137   0   0    1.5053501
   3051414   4137   0   2    1.5041875
   3051414   4237   0   2    3.8739392e-05
   3051616   4137   0   0    1.5053501
   3051616   4137   0   2    1.504188
   3051616   4237   0   2    3.9411454e-05

BLOCK IMFWCOEF Q=  160
   305   4422   0   0    3.8574728e-07
   305   4422   0   2   -1.909601e-05
   305   4322   0   2   -6.3354771e-06
   305   6421   0   0    3.3041806e-07
   305   6421   0   2    5.7096165e-06
   305   6321   0   2   -2.3374444e-06
   3051111   4133   0   2    1.8506409e-07
   3051111   4233   0   2    3.5524321e-06
   3051111   4137   0   2    8.8096596e-06
   3051111   4237   0   2   -2.7661517e-05
   3051313   4133   0   2    1.8504367e-07
   3051313   4233   0   2    3.5524211e-06
   3051313   4137   0   2    8.8096642e-06
   3051313   4237   0   2   -2.7661544e-05
   3051212   4137   0   2   -1.6306789e-06
   3051212   4237   0   2    6.0288844e-06
   3051414   4137   0   2   -1.6306784e-06
   3051414   4237   0   2    6.0288844e-06
   3051616   4137   0   2   -1.6206962e-06
   3051616   4237   0   2    6.0288808e-06

DECAY 23  2.4952


DECAY 24  2.085


DECAY 2000011  4.5377076
    0.99624734   2    1000022    11
    0.0030634181   2    1000025    11
    0.00066120723   2    1000035    11

DECAY 1000011  26.360644
    0.5833549   2   -1000024    12
    0.29958297   2    1000023    11
    0.089079565   2    1000022    11
    0.023762723   2   -1000037    12
    0.0040295635   2    1000035    11
    0.00019028247   2    1000025    11

DECAY 2000013  4.54538
    0.99455986   2    1000022    13
    0.0034604953   2    1000025    13
    0.0010533438   2    1000035    13
    0.00076957049   2   -1000037    14

DECAY 1000013  26.375442
    0.58302537   2   -1000024    14
    0.29942915   2    1000023    13
    0.089034023   2    1000022    13
    0.023749265   2   -1000037    14
    0.0042860578   2    1000035    13
    0.00045359689   2    1000025    13

DECAY 1000015  11.09448
    0.57623068   2    1000022    15
    0.18423996   2   -1000037    16
    0.10019635   2    1000025    15
    0.09525484   2    1000035    15
    0.02919552   2   -1000024    16
    0.014882645   2    1000023    15

DECAY 2000015  25.079434
    0.50243484   2   -1000024    16
    0.26188297   2    1000023    15
    0.078940487   2    1000022    15
    0.064266472   2    1000035    15
    0.06170011   2    1000025    15
    0.024493764   2   -1000037    16
    0.0032046203   2    1000015    25
    0.0030767406   2    1000015    23

DECAY 1000012  26.408852
    0.60676566   2    1000024    11
    0.29526553   2    1000023    12
    0.084667391   2    1000022    12
    0.0070860472   2    1000035    12
    0.0034135243   2    1000025    12
    0.0028018432   2    1000037    11

DECAY 1000014  26.423022
    0.60646796   2    1000024    13
    0.29510594   2    1000023    14
    0.084621632   2    1000022    14
    0.0070822062   2    1000035    14
    0.0034116741   2    1000025    14
    0.0033105839   2    1000037    13

DECAY 1000016  25.211501
    0.5361884   2    1000024    15
    0.25729167   2    1000023    16
    0.11795999   2    1000037    15
    0.073918077   2    1000022    16
    0.0062148903   2    1000015    24
    0.0056859903   2    1000035    16
    0.0027409847   2    1000025    16

DECAY 2000001  143.67611
    0.98056791   2    1000021    1
    0.019272567   2    1000022    1
    0.00013030344   2    1000025    1

DECAY 1000001  208.79008
    0.68015565   2    1000021    1
    0.20133466   2   -1000024    2
    0.10259919   2    1000023    1
    0.0096324443   2   -1000037    2
    0.0030886405   2    1000022    1
    0.0024210652   2    1000035    1
    0.00076835497   2    1000025    1

DECAY 2000003  143.70174
    0.98039648   2    1000021    3
    0.01926981   2    1000022    3
    0.00017295209   2    1000025    3

DECAY 1000003  208.80491
    0.68010934   2    1000021    3
    0.20132054   2   -1000024    4
    0.10259345   2    1000023    3
    0.0096402124   2   -1000037    4
    0.0030888796   2    1000022    3
    0.0024498489   2    1000035    3
    0.0007977329   2    1000025    3

DECAY 1000005  86.253544
    0.31965611   2   -1000037    6
    0.3129833   2    1000006   -24
    0.16619099   2   -1000024    6
    0.089091799   2    1000023    5
    0.054042872   2    1000025    5
    0.053766639   2    1000035    5
    0.0042682897   2    1000022    5

DECAY 2000005  24.138479
    0.45810707   2   -1000037    6
    0.23142575   2    1000025    5
    0.22904472   2    1000035    5
    0.044890952   2    1000022    5
    0.011755654   2    1000006   -24
    0.011032094   2   -1000024    6
    0.0057306958   2    1000023    5
    0.0034525568   2    1000005    25
    0.0023463608   2    2000006   -24
    0.0022141492   2    1000005    23

DECAY 2000002  152.18424
    0.92660065   2    1000021    2
    0.072798604   2    1000022    2
    0.00049175605   2    1000025    2
    0.00010691024   2    1000035    2

DECAY 1000002  208.78546
    0.67994409   2    1000021    2
    0.21002544   2    1000024    1
    0.10298731   2    1000023    2
    0.0035651235   2    1000022    2
    0.0020055755   2    1000035    2
    0.001139709   2    1000037    1
    0.00033274761   2    1000025    2

DECAY 2000004  152.18778
    0.9265792   2    1000021    4
    0.072796921   2    1000022    4
    0.00049752451   2    1000025    4
    0.00011266089   2    1000035    4

DECAY 1000004  208.80014
    0.67989763   2    1000021    4
    0.2100137   2    1000024    3
    0.10298014   2    1000023    4
    0.0035648829   2    1000022    4
    0.0020096468   2    1000035    4
    0.0011970471   2    1000037    3
    0.00033694549   2    1000025    4

DECAY 1000006  29.931708
    0.45104675   2    1000037    5
    0.21300422   2    1000025    6
    0.19595265   2    1000035    6
    0.076842424   2    1000022    6
    0.042172121   2    1000024    5
    0.019635064   2    1000023    6
    0.0012994307   2    1000023    4

DECAY 2000006  93.625462
    0.1824399   2    1000006    25
    0.16453994   2    1000035    6
    0.15901911   2    1000006    23
    0.14933982   2    1000024    5
    0.1490219   2    1000025    6
    0.1196395   2    1000037    5
    0.069562914   2    1000023    6
    0.0064369115   2    1000022    6

DECAY 1000024  2.1085682e-09
    0.35392865   3    1000022   -1    2
    0.34645885   3    1000022   -3    4
    0.10291853   3    1000022   -11    12
    0.10291149   3    1000022   -13    14
    0.093782138   3    1000022   -15    16

DECAY 1000037  3.7813717
    0.30875882   2    1000023    24
    0.29985455   2    1000024    23
    0.27466824   2    1000024    25
    0.11499685   2    1000022    24
    0.0011734254   3    1000023   -5    6
    0.00044472701   3    1000022   -5    6

DECAY 1000022 -1


DECAY 1000023  1.9413435e-09
    0.22697761   2    1000022    22
    0.15211016   3    1000022    12   -12
    0.13285623   3    1000022    1   -1
    0.13281831   3    1000022    3   -3
    0.10371531   3    1000022    2   -2
    0.097702824   3    1000022    4   -4
    0.080737805   3    1000022    5   -5
    0.025655516   3    1000022    11   -11
    0.025646616   3    1000022    13   -13
    0.021779624   3    1000022    15   -15

DECAY 1000025  4.853138
    0.25485513   2    1000024   -24
    0.25485513   2   -1000024    24
    0.21126593   2    1000023    23
    0.2053262   2    1000023    25
    0.055539668   2    1000022    25
    0.01546914   2    1000022    23
    0.0012914748   3    1000024    5   -6
    0.0012914748   3   -1000024   -5    6

DECAY 1000035  4.0678384
    0.29059094   2    1000024   -24
    0.29059094   2   -1000024    24
    0.20992911   2    1000023    25
    0.086100251   2    1000022    23
    0.06221434   2    1000022    25
    0.058334235   2    1000023    23
    0.0010902083   3    1000024    5   -6
    0.0010902083   3   -1000024   -5    6

DECAY 1000021  196.36074
    0.16419146   2    1000006   -6
    0.16419146   2   -1000006    6
    0.12167828   2    2000006   -6
    0.12167828   2   -2000006    6
    0.11763008   2    1000005   -5
    0.11763008   2   -1000005    5
    0.094964625   2    2000005   -5
    0.094964625   2   -2000005    5
    0.0013819538   2    1000006   -4
    0.0013819538   2   -1000006    4

DECAY 25  0.0038016633
    0.6072824   2   -5    5
    0.19640161   2   -24    24
    0.070929717   2    21    21
    0.069744934   2   -15    15
    0.028566421   2   -4    4
    0.023021869   2    23    23
    0.0022623891   2    22    22
    0.001319079   2    22    23
    0.00024197707   2   -13    13
    0.00022881996   2   -3    3
    6.3266524e-07   2   -1    1
    1.4721425e-07   2   -2    2
    5.4399343e-09   2   -11    11

DECAY 35  23.609855
    0.72982899   2   -5    5
    0.10626185   2   -15    15
    0.043386029   2   -1000024    1000037
    0.043386029   2   -1000037    1000024
    0.029421506   2    1000023    1000025
    0.011631175   2    1000023    1000035
    0.011491693   2   -1000024    1000024
    0.0090621243   2    1000022    1000035
    0.0056876547   2    1000023    1000023
    0.0039637247   2    1000022    1000023
    0.0031707008   2    1000022    1000025
    0.0014851443   2   -6    6
    0.0004666619   2    1000022    1000022
    0.00037124341   2   -13    13
    0.00027597051   2   -3    3
    5.4702599e-05   2    25    25
    4.3007381e-05   2    21    21
    6.0250524e-06   2   -24    24
    4.229823e-06   2    23    23
    7.6304494e-07   2   -1    1
    5.9842671e-07   2    22    23
    1.4573432e-07   2    22    22
    1.9128162e-08   2   -4    4
    8.3408752e-09   2   -11    11
    9.86361e-14   2   -2    2

DECAY 36  23.110775
    0.7265738   2   -5    5
    0.10578546   2   -15    15
    0.043278732   2   -1000024    1000037
    0.043278732   2   -1000037    1000024
    0.028747175   2    1000023    1000035
    0.013815421   2   -1000024    1000024
    0.012601432   2    1000023    1000025
    0.009684572   2    1000022    1000025
    0.0068316739   2    1000023    1000023
    0.0033400027   2    1000022    1000023
    0.0030602801   2    1000022    1000035
    0.0016766676   2   -6    6
    0.00060357533   2    1000022    1000022
    0.00036957623   2   -13    13
    0.00027472281   2   -3    3
    7.0429675e-05   2    21    21
    6.4045584e-06   2    23    25
    7.5959506e-07   2   -1    1
    4.7950417e-07   2    22    23
    7.1215932e-08   2    22    22
    1.8481588e-08   2   -4    4
    8.3034182e-09   2   -11    11
    9.5365389e-14   2   -2    2
    1.2116907e-35   2    25    25

DECAY 37  20.979192
    0.70014687   2   -5    6
    0.12020231   2   -15    16
    0.053539963   2    1000023    1000037
    0.051403472   2    1000024    1000035
    0.050730883   2    1000024    1000025
    0.013887996   2    1000022    1000037
    0.0082670165   2    1000022    1000024
    0.0010854694   2   -5    4
    0.00042496072   2   -13    14
    0.00027964421   2   -3    4
    1.2908145e-05   2   -3    2
    7.7513969e-06   2   -5    2
    7.2085037e-06   2    24    25
    2.4467804e-06   2   -3    6
    7.7616419e-07   2   -1    2
    1.8280771e-07   2    1000023    1000024
    9.4611129e-08   2   -1    6
    3.664327e-08   2   -1    4
    9.9398758e-09   2   -11    12
    1.5407822e-10   2    24    35
    1.1742845e-10   2    24    36

DECAY 6  2.43
    1   2    5    24

DECAY 15 -1
