BLOCK SPINFO
   1   SPheno
   2   v4.0.5be

BLOCK SPHENOINFO
   1   2
   2   2

BLOCK MODSEL
   1   0

BLOCK MINPAR
   3    43.820272
   4   -1

BLOCK EXTPAR
   0    3851.0427
   1   -10.178042
   2   -4436.2002
   3    4613.8627
   11    2514.2014
   12    5638.6355
   13    3282.4536
   23   -2588.1552
   25    45.58145
   26    2973.5112
   31    2695.6322
   32    2695.6322
   33    3225.7276
   34    2020.0317
   35    2020.0317
   36    4401.6738
   41    4546.6068
   42    4546.6068
   43    4269.0305
   44    2305.6644
   45    2305.6644
   46    3311.295
   47    1475.0995
   48    1475.0995
   49    1573.8128

BLOCK SMINPUTS
   1    127.90897
   2    1.1663787e-05
   3    0.1184
   4    91.1876
   5    4.18
   6    173.2
   7    1.777
   8    0
   11    0.00051099893
   12    0
   13    0.10565837
   14    0
   21    0.005
   22    0.0025
   23    0.095
   24    1.27

BLOCK GAUGE Q=  3851.0427
   1    0.35536298
   2    0.66519887
   3    1.219778

BLOCK YU Q=  3851.0427
   1   1    8.3863896e-06
   2   2    0.0042602859
   3   3    1.0131432

BLOCK YD Q=  3851.0427
   1   1    0.00076814537
   2   2    0.014594762
   3   3    0.76175951

BLOCK YE Q=  3851.0427
   1   1    0.00013404698
   2   2    0.027716665
   3   3    0.46614871

BLOCK AU Q=  3851.0427
   1   1    0
   2   2    0
   3   3    2514.2014

BLOCK AD Q=  3851.0427
   1   1    0
   2   2    0
   3   3    5638.6358

BLOCK AE Q=  3851.0427
   1   1    0
   2   2    0
   3   3    3282.4534

BLOCK MSOFT Q=  3851.0427
   1   -10.178042
   2   -4436.2002
   3    4613.8627
   21    3446368.4
   22   -6421805.5
   31    2695.6322
   32    2695.6322
   33    3225.7276
   34    2020.0317
   35    2020.0317
   36    4401.6738
   41    4546.6068
   42    4546.6068
   43    4269.0305
   44    2305.6644
   45    2305.6644
   46    3311.295
   47    1475.0995
   48    1475.0995
   49    1573.8128

BLOCK MASS
   6    173.2
   23    91.1876
   24    80.429995
   15    1.777
   25    120.32676
   35    2969.8927
   36    2973.5112
   37    2972.0904
   1000001    4714.086
   2000001    1686.9264
   1000002    4713.4071
   2000002    2479.9512
   1000003    4714.0726
   2000003    1686.9085
   1000004    4713.3934
   2000004    2479.9512
   1000005    1701.2108
   2000005    4315.6793
   1000006    3435.0061
   2000006    4317.4684
   1000011    2730.2605
   2000011    2028.6296
   1000012    2728.6822
   1000013    2730.2336
   2000013    2028.5591
   1000014    2728.6449
   1000015    3249.0899
   2000015    4385.2222
   1000016    3248.4422
   1000021    4731.853
   1000022   -9.9087008
   1000023   -2555.9809
   1000025    2558.2057
   1000035   -4438.8742
   1000024    2556.1638
   1000037    4439.0582

BLOCK ALPHA
      -0.022947821

BLOCK HMIX Q=  3851.0427
   1   -2588.1552
   2    45.58145
   3    243.00022
   4    8841768.7

BLOCK STOPMIX
   1   1   -0.047118174
   1   2    0.99888932
   2   1   -0.99888932
   2   2   -0.047118174

BLOCK SBOTMIX
   1   1   -0.031806822
   1   2    0.99949404
   2   1   -0.99949404
   2   2   -0.031806822

BLOCK STAUMIX
   1   1   -0.99967838
   1   2    0.025360137
   2   1   -0.025360137
   2   2   -0.99967838

BLOCK NMIX
   1   1    0.99984684
   1   2   -1.7342796e-05
   1   3   -0.017494065
   1   4    0.00049810741
   2   1    0.012721003
   2   2    0.029941067
   2   3    0.70690211
   2   4   -0.70656289
   3   1    0.012016354
   3   2   -0.0076191928
   3   3    0.70691876
   3   4    0.70715162
   4   1   -0.00027211525
   4   2    0.99952263
   4   3   -0.015787092
   4   4    0.026555857

BLOCK UMIX
   1   1   -0.022350413
   1   2   -0.9997502
   2   1   -0.9997502
   2   2    0.022350413

BLOCK VMIX
   1   1    0.037629616
   1   2    0.99929176
   2   1    0.99929176
   2   2   -0.037629616

BLOCK HIGGSBOUNDSINPUTHIGGSCOUPLINGSFERMIONS
       0, 2077.6686,3,36,15,15

BLOCK HIGGSBOUNDSINPUTHIGGSCOUPLINGSBOSONS
       0,4,36,21,21,23

BLOCK SPHENOLOWENERGY
   1    0.00032571952
   2    1.5900097e-06
   3    3.526166e-05
   4    2.4156154e-15
   5    1.0319176e-10
   6    2.1568147e-08
   7    8.2922847e-14
   8    3.5424378e-09
   9    7.499879e-07
   10    9.5671345e-05
   11    0.98824836
   12    0.54174928
   13    19.352241
   14    0
   15    0
   16    0.0021565704
   17    2.2816545e-15
   18    2.4805245e-11
   19    8.2917843e-11
   20    1.0570863e-15
   21    4.5191029e-11
   22    1.1724303e-08
   23    0
   24    0
   25    0
   26    0
   27    0
   28    0
   29    0
   30    0
   31    0
   39    6.8606367e-05
   40    0
   41    0
   42    0

BLOCK FWCOEF Q=  160
   305   4422   0   0   -0.18881911
   305   4422   0   2   -0.19435577
   305   4322   0   2   -0.00011166712
   305   6421   0   0   -0.095227835
   305   6421   0   2   -0.10292225
   305   6321   0   2   -0.00015651628
   3051111   4133   0   0    1.6259939
   3051111   4133   0   2    1.6262124
   3051111   4233   0   2    0.00015223279
   3051111   4137   0   0   -4.448686
   3051111   4137   0   2   -4.4479518
   3051111   4237   0   2   -0.0011278974
   3051313   4133   0   0    1.6259939
   3051313   4133   0   2    1.6262114
   3051313   4233   0   2    0.00015223199
   3051313   4137   0   0   -4.448686
   3051313   4137   0   2   -4.4479527
   3051313   4237   0   2   -0.0011278975
   3051212   4137   0   0    1.5053501
   3051212   4137   0   2    1.5051916
   3051212   4237   0   2    0.00024393196
   3051414   4137   0   0    1.5053501
   3051414   4137   0   2    1.5051916
   3051414   4237   0   2    0.00024393208
   3051616   4137   0   0    1.5053501
   3051616   4137   0   2    1.5051916
   3051616   4237   0   2    0.00024396551

BLOCK IMFWCOEF Q=  160
   305   4422   0   0    3.8585605e-07
   305   4422   0   2    7.2074309e-07
   305   4322   0   2    3.9442781e-07
   305   6421   0   0    3.3051123e-07
   305   6421   0   2    6.1997343e-06
   305   6321   0   2    3.0145499e-07
   3051111   4133   0   2    1.2012943e-07
   3051111   4233   0   2    3.7115418e-06
   3051111   4137   0   2   -5.7807889e-07
   3051111   4237   0   2   -2.7501815e-05
   3051313   4133   0   2    1.201295e-07
   3051313   4233   0   2    3.7115374e-06
   3051313   4137   0   2   -5.7807862e-07
   3051313   4237   0   2   -2.7501827e-05
   3051212   4137   0   2    1.300773e-07
   3051212   4237   0   2    5.9478564e-06
   3051414   4137   0   2    1.3007725e-07
   3051414   4237   0   2    5.9478564e-06
   3051616   4137   0   2    1.3035829e-07
   3051616   4237   0   2    5.9478564e-06

DECAY 23  2.4952


DECAY 24  2.085


DECAY 2000011  10.189514
    1   2    1000022    11

DECAY 1000011  3.4287083
    0.99987423   2    1000022    11

DECAY 2000013  10.18917
    1   2    1000022    13

DECAY 1000013  3.4375832
    0.9972867   2    1000022    13
    0.0024048806   2    2000013    25
    0.00016476553   2    1000023    13

DECAY 1000015  6.1427784
    0.66723269   2    1000022    15
    0.16677563   2    1000023    15
    0.16490398   2    1000025    15
    0.0010877054   2   -1000024    16

DECAY 2000015  45.109751
    0.4879937   2    1000022    15
    0.18267611   2   -1000024    16
    0.091509215   2    1000025    15
    0.091426492   2    1000023    15
    0.074595385   2    1000016   -24
    0.03713719   2    1000015    23
    0.034661908   2    1000015    25

DECAY 1000012  3.4273815
    0.99981287   2    1000022    12
    0.00014880563   2    1000024    11

DECAY 1000014  3.4279585
    0.99963093   2    1000022    14
    0.00033076784   2    1000024    13

DECAY 1000016  6.1217564
    0.66639339   2    1000022    16
    0.33335868   2    1000024    15
    0.00018152413   2    1000023    16

DECAY 2000001  0.94144532
    1   2    1000022    1

DECAY 1000001  1.4757815
    0.4457847   2    1000022    1
    0.36065789   2   -1000037    2
    0.18049835   2    1000035    1
    0.0070009991   2   -1000024    2
    0.0053773391   2    1000023    1
    0.00067580376   2    1000025    1

DECAY 2000003  0.94143753
    1   2    1000022    3

DECAY 1000003  1.4890827
    0.44180558   2    1000022    3
    0.35739941   2   -1000037    4
    0.17886948   2    1000035    3
    0.0086622006   2    1000023    3
    0.0075054956   2   -1000024    4
    0.0039971772   2    1000025    3
    0.0017603575   2    2000003    25

DECAY 1000005  0.96190547
    1   2    1000022    5

DECAY 2000005  89.1861
    0.41285307   2   -1000024    6
    0.1863019   2    1000005    23
    0.11757653   2    1000023    5
    0.11752934   2    1000025    5
    0.092900143   2    1000005    25
    0.066099458   2    1000006   -24
    0.006739571   2    1000022    5

DECAY 2000002  5.536282
    1   2    1000022    2

DECAY 1000002  1.4922462
    0.44063092   2    1000022    2
    0.35469504   2    1000037    1
    0.17764318   2    1000035    2
    0.019636792   2    1000024    1
    0.0071863488   2    1000023    2
    0.00020771274   2    1000025    2

DECAY 2000004  5.5362785
    1   2    1000022    4

DECAY 1000004  1.502932
    0.4374967   2    1000022    4
    0.35214013   2    1000037    3
    0.17636061   2    1000035    4
    0.026095747   2    1000024    3
    0.0074182254   2    1000023    4
    0.00048824286   2    1000025    4

DECAY 1000006  35.412207
    0.39429614   2    1000024    5
    0.21502121   2    1000022    6
    0.19500011   2    1000025    6
    0.19489267   2    1000023    6
    0.00074922002   2    1000005    24

DECAY 2000006  100.09437
    0.33232118   2    1000005    24
    0.20968132   2    1000024    5
    0.18321785   2    1000023    6
    0.18272485   2    1000025    6
    0.056396899   2    1000006    25
    0.029469828   2    1000006    23
    0.0061880788   2    1000022    6

DECAY 1000024  15.678704
    0.88321926   2   -1000005    6
    0.11094744   2    1000022    24
    0.0052814215   3    1000022   -5    6
    0.00033004829   2   -2000003    4
    0.00017066025   2   -2000013    14

DECAY 1000037  74.962485
    0.11986102   2    1000024    25
    0.11308473   2    1000024    23
    0.11304983   2    1000023    24
    0.11293815   2    1000025    24
    0.10074737   2    1000014   -13
    0.10074396   2    1000012   -11
    0.10069714   2   -1000013    14
    0.10069473   2   -1000011    12
    0.056165277   2    1000016   -15
    0.056073706   2   -1000015    16
    0.010349703   3    1000024    6   -6
    0.0066142706   3    1000025   -5    6
    0.0063384586   3    1000023   -5    6
    0.0022829283   2    2000006   -5
    0.00016527743   3    1000024    5   -5

DECAY 1000022 -1


DECAY 1000023  15.465697
    0.44411776   2    1000005   -5
    0.44411776   2   -1000005    5
    0.054371558   2    1000022    25
    0.053021693   2    1000022    23
    0.0036145369   3    1000022    6   -6
    0.00017437894   2    2000003   -3
    0.00017437894   2   -2000003    3
    0.00013986969   3    1000022    5   -5

DECAY 1000025  15.515191
    0.44341517   2    1000005   -5
    0.44341517   2   -1000005    5
    0.059387035   2    1000022    23
    0.049566431   2    1000022    25
    0.0034667468   3    1000022    6   -6
    0.00017367966   2    2000003   -3
    0.00017367966   2   -2000003    3
    0.00014043422   3    1000022    5   -5

DECAY 1000035  82.092807
    0.10417045   2    1000024   -24
    0.10417045   2   -1000024    24
    0.10263252   2    1000023    25
    0.097094998   2    1000025    23
    0.093821017   2    1000025    25
    0.046026453   2    1000014   -14
    0.046026453   2   -1000014    14
    0.046024927   2    1000012   -12
    0.046024927   2   -1000012    12
    0.045934666   2    1000013   -13
    0.045934666   2   -1000013    13
    0.045933518   2    1000011   -11
    0.045933518   2   -1000011    11
    0.025651918   2    1000016   -16
    0.025651918   2   -1000016    16
    0.025584251   2    1000015   -15
    0.025584251   2   -1000015    15
    0.0062785663   2    1000023    23
    0.0061065815   3    1000024    5   -6
    0.0061065815   3   -1000024   -5    6
    0.0035549491   3    1000023    6   -6
    0.0032619102   3    1000025    6   -6
    0.0010713272   2    2000005   -5
    0.0010713272   2   -2000005    5

DECAY 1000021  506.20932
    0.10541419   2    2000003   -3
    0.10541419   2   -2000003    3
    0.10541354   2    2000001   -1
    0.10541354   2   -2000001    1
    0.10490563   2    1000005   -5
    0.10490563   2   -1000005    5
    0.0727821   2    2000002   -2
    0.0727821   2   -2000002    2
    0.072782093   2    2000004   -4
    0.072782093   2   -2000004    4
    0.031204082   2    1000006   -6
    0.031204082   2   -1000006    6
    0.0039096439   2    2000005   -5
    0.0039096439   2   -2000005    5
    0.0034077266   2    2000006   -6
    0.0034077266   2   -2000006    6

DECAY 25  0.0033931889
    0.64505128   2   -5    5
    0.15585321   2   -24    24
    0.073629239   2    21    21
    0.073031936   2   -15    15
    0.031321548   2   -4    4
    0.017173088   2    23    23
    0.0022926968   2    22    22
    0.0010965874   2    22    23
    0.00025335246   2   -13    13
    0.00024182554   2   -3    3
    5.4394539e-05   2    1000022    1000022
    6.686216e-07   2   -1    1
    1.6142251e-07   2   -2    2
    5.6957111e-09   2   -11    11

DECAY 35  248.75252
    0.94456567   2   -5    5
    0.05326975   2   -15    15
    0.00084550815   2   -6    6
    0.00043192593   2    1000022    1000025
    0.00038039822   2    1000022    1000023
    0.00028814065   2   -3    3
    0.0001883483   2   -13    13
    2.0643401e-05   2    21    21
    7.735288e-06   2    1000022    1000022
    7.9635157e-07   2   -1    1
    5.6799106e-07   2    25    25
    3.6609127e-07   2    23    23
    1.1201738e-07   2   -24    24
    1.0807561e-08   2   -4    4
    1.0184254e-08   2    22    22
    8.0902864e-09   2    22    23
    4.2301922e-09   2   -11    11
    4.6734441e-10   2   -1000001    1000001
    4.5706513e-10   2   -1000003    1000003
    5.570035e-14   2   -2    2

DECAY 36  214.06428
    0.94461571   2   -5    5
    0.053262945   2   -15    15
    0.00065546976   2   -6    6
    0.00051715343   2    1000022    1000023
    0.00044319418   2    1000022    1000025
    0.00028813307   2   -3    3
    0.00018832545   2   -13    13
    1.8528943e-05   2    21    21
    9.0222421e-06   2    1000022    1000022
    7.9632756e-07   2   -1    1
    6.893934e-07   2    23    25
    1.1693622e-08   2    22    22
    9.7903323e-09   2    22    23
    8.2059811e-09   2   -4    4
    4.2296683e-09   2   -11    11
    3.1822431e-12   2    23    35
    4.2286367e-14   2   -2    2
    4.5429588e-38   2    25    25

DECAY 37  234.94853
    0.94867867   2   -5    6
    0.04857744   2   -15    16
    0.0014067706   2   -5    4
    0.0008747452   2    1000022    1000024
    0.00026594624   2   -3    4
    0.0001717386   2   -13    14
    1.2454867e-05   2   -3    2
    1.0045794e-05   2   -5    2
    7.6459052e-07   2   -3    6
    7.3767064e-07   2   -1    2
    6.2760681e-07   2    24    25
    3.4601421e-08   2   -1    4
    1.7011928e-08   2   -1    6
    4.0169836e-09   2   -11    12
    2.970134e-13   2    24    35

DECAY 6  2.43
    1   2    5    24

DECAY 15 -1
