BLOCK SPINFO
   1   SPheno
   2   v4.0.5be

BLOCK SPHENOINFO
   1   2
   2   2

BLOCK MODSEL
   1   0

BLOCK MINPAR
   3    22.230874
   4   -1

BLOCK EXTPAR
   0    4196.008
   1   -1309.4087
   2   -1963.7145
   3    4634.5659
   11   -6376.4342
   12   -4373.1772
   13   -594.12937
   23   -274.83185
   25    21.274757
   26    1991.9901
   31    1953.742
   32    1953.742
   33    1495.6577
   34    2121.7731
   35    2121.7731
   36    4267.3872
   41    4471.5845
   42    4471.5845
   43    4276.0299
   44    1035.7505
   45    1035.7505
   46    3981.4893
   47    2065.7591
   48    2065.7591
   49    3816.7109

BLOCK SMINPUTS
   1    127.90897
   2    1.1663787e-05
   3    0.1184
   4    91.1876
   5    4.18
   6    173.2
   7    1.777
   8    0
   11    0.00051099893
   12    0
   13    0.10565837
   14    0
   21    0.005
   22    0.0025
   23    0.095
   24    1.27

BLOCK GAUGE Q=  4196.008
   1    0.35536298
   2    0.66519887
   3    1.219778

BLOCK YU Q=  4196.008
   1   1    8.3936292e-06
   2   2    0.0042639636
   3   3    1.0140178

BLOCK YD Q=  4196.008
   1   1    0.00035883486
   2   2    0.0068178624
   3   3    0.35585174

BLOCK YE Q=  4196.008
   1   1    6.2619308e-05
   2   2    0.012947687
   3   3    0.21775879

BLOCK AU Q=  4196.008
   1   1    0
   2   2    0
   3   3   -6376.4341

BLOCK AD Q=  4196.008
   1   1    0
   2   2    0
   3   3   -4373.1772

BLOCK AE Q=  4196.008
   1   1    0
   2   2    0
   3   3   -594.12937

BLOCK MSOFT Q=  4196.008
   1   -1309.4087
   2   -1963.7145
   3    4634.5659
   21    3849240.6
   22    275456.57
   31    1953.742
   32    1953.742
   33    1495.6577
   34    2121.7731
   35    2121.7731
   36    4267.3872
   41    4471.5845
   42    4471.5845
   43    4276.0299
   44    1035.7505
   45    1035.7505
   46    3981.4893
   47    2065.7591
   48    2065.7591
   49    3816.7109

BLOCK MASS
   6    173.2
   23    91.1876
   24    80.429995
   15    1.777
   25    125.45695
   35    1991.9766
   36    1991.9901
   37    1993.9542
   1000001    4640.5992
   2000001    2277.4319
   1000002    4639.9141
   2000002    1347.7484
   1000003    4640.5976
   2000003    2277.4281
   1000004    4639.9125
   2000004    1347.7472
   1000005    3974.8177
   2000005    4372.455
   1000006    3999.5466
   2000006    4402.1199
   1000011    1986.3854
   2000011    2119.8228
   1000012    1984.3908
   1000013    1986.3759
   2000013    2119.8053
   1000014    1984.3819
   1000015    1533.0551
   2000015    4264.1165
   1000016    1531.6413
   1000021    4786.3125
   1000022   -289.16336
   1000023    293.74841
   1000025   -1282.9765
   1000035   -2016.8862
   1000024    291.49361
   1000037    2016.9453

BLOCK ALPHA
      -0.045224566

BLOCK HMIX Q=  4196.008
   1   -274.83185
   2    21.274757
   3    242.88927
   4    3968024.7

BLOCK STOPMIX
   1   1    0.27296301
   1   2    0.96202453
   2   1   -0.96202453
   2   2    0.27296301

BLOCK SBOTMIX
   1   1   -0.00038758442
   1   2    0.99999993
   2   1   -0.99999993
   2   2   -0.00038758442

BLOCK STAUMIX
   1   1   -0.99999981
   1   2    0.00061307268
   2   1   -0.00061307268
   2   2   -0.99999981

BLOCK NMIX
   1   1   -0.032639584
   1   2    0.033392418
   1   3    0.70952039
   1   4   -0.70313614
   2   1    0.018904141
   2   2   -0.023140081
   2   3    0.70457716
   2   4    0.70899802
   3   1   -0.99928507
   3   2   -0.0041043669
   3   3   -0.0098268947
   3   4    0.03627578
   4   1    0.0025762232
   4   2   -0.99916597
   4   3    0.0074351634
   4   4   -0.040067994

BLOCK UMIX
   1   1   -0.010505442
   1   2   -0.99994482
   2   1   -0.99994482
   2   2    0.010505442

BLOCK VMIX
   1   1    0.056621907
   1   2    0.99839569
   2   1    0.99839569
   2   2   -0.056621907

BLOCK HIGGSBOUNDSINPUTHIGGSCOUPLINGSFERMIONS
       0, 452.61528,3,36,15,15

BLOCK HIGGSBOUNDSINPUTHIGGSCOUPLINGSBOSONS
       0,4,36,21,21,23

BLOCK SPHENOLOWENERGY
   1    0.00033769654
   2    1.5885641e-06
   3    3.525637e-05
   4    2.1611106e-15
   5    9.2320371e-11
   6    1.9337096e-08
   7    7.3199106e-14
   8    3.1270695e-09
   9    6.636373e-07
   10    9.6031393e-05
   11    0.99196753
   12    0.54192444
   13    19.358997
   14    0
   15    0
   16    0.0021570899
   17    2.2816568e-15
   18    2.4804944e-11
   19    8.2911688e-11
   20    1.3011168e-15
   21    5.5626738e-11
   22    1.6278262e-08
   23    0
   24    0
   25    0
   26    0
   27    0
   28    0
   29    0
   30    0
   31    0
   39    4.8750071e-05
   40    0
   41    0
   42    0

BLOCK FWCOEF Q=  160
   305   4422   0   0   -0.18881911
   305   4422   0   2   -0.20724406
   305   4322   0   2   -0.00036309407
   305   6421   0   0   -0.095227835
   305   6421   0   2   -0.11404054
   305   6321   0   2   -0.00037064743
   3051111   4133   0   0    1.6280944
   3051111   4133   0   2    1.6282088
   3051111   4233   0   2    9.4333236e-05
   3051111   4137   0   0   -4.4507865
   3051111   4137   0   2   -4.4494954
   3051111   4237   0   2   -0.00069707239
   3051313   4133   0   0    1.6280944
   3051313   4133   0   2    1.6282085
   3051313   4233   0   2    9.4333079e-05
   3051313   4137   0   0   -4.4507865
   3051313   4137   0   2   -4.4494956
   3051313   4237   0   2   -0.00069707236
   3051212   4137   0   0    1.5053501
   3051212   4137   0   2    1.505075
   3051212   4237   0   2    0.00015068625
   3051414   4137   0   0    1.5053501
   3051414   4137   0   2    1.505075
   3051414   4237   0   2    0.00015068628
   3051616   4137   0   0    1.5053501
   3051616   4137   0   2    1.5050749
   3051616   4237   0   2    0.00015069392

BLOCK IMFWCOEF Q=  160
   305   4422   0   0    3.8581474e-07
   305   4422   0   2    3.5200659e-06
   305   4322   0   2   -1.8940047e-06
   305   6421   0   0    3.3047584e-07
   305   6421   0   2    6.0340202e-06
   305   6321   0   2   -8.5115105e-07
   3051111   4133   0   2   -1.1123211e-06
   3051111   4233   0   2    2.1206475e-06
   3051111   4137   0   2    8.4232333e-06
   3051111   4237   0   2   -1.5670538e-05
   3051313   4133   0   2   -1.1123205e-06
   3051313   4233   0   2    2.1206469e-06
   3051313   4137   0   2    8.4232366e-06
   3051313   4237   0   2   -1.567054e-05
   3051212   4137   0   2   -1.748085e-06
   3051212   4237   0   2    3.3875002e-06
   3051414   4137   0   2   -1.748085e-06
   3051414   4237   0   2    3.3875002e-06
   3051616   4137   0   2   -1.7499248e-06
   3051616   4237   0   2    3.3875001e-06

DECAY 23  2.4952


DECAY 24  2.085


DECAY 1000011  0.86486564
    0.99375287   2    1000025    11
    0.0024658086   2    1000022    11
    0.0021363277   2   -1000024    12
    0.0016449893   2    1000023    11

DECAY 2000011  4.2857798
    0.99659535   2    1000025    11
    0.0025500699   2    1000022    11
    0.00085439047   2    1000023    11

DECAY 1000013  0.87119159
    0.98651906   2    1000025    13
    0.006115546   2    1000022    13
    0.0052445885   2    1000023    13
    0.0021208042   2   -1000024    14

DECAY 2000013  4.2992736
    0.99344029   2    1000025    13
    0.0033393803   2    1000022    13
    0.0016369519   2    1000023    13
    0.0015826546   2   -1000024    14

DECAY 1000015  1.522872
    0.44582502   2    1000022    15
    0.43809237   2    1000023    15
    0.11513896   2    1000025    15
    0.0009436444   2   -1000024    16

DECAY 2000015  25.813251
    0.68557791   2    1000025    15
    0.15435982   2   -1000024    16
    0.07859328   2    1000022    15
    0.07693182   2    1000023    15
    0.0017621986   2    1000016   -37
    0.00088144701   2    1000015    36
    0.00088020399   2    1000015    35
    0.00050672272   2    1000016   -24
    0.00025303813   2    1000015    23
    0.0002286553   2    1000015    25

DECAY 1000012  0.91466478
    0.90765548   2    1000025    12
    0.058616695   2    1000024    11
    0.023634802   2    1000022    12
    0.01009302   2    1000023    12

DECAY 1000014  0.92098416
    0.90141188   2    1000025    14
    0.065091885   2    1000024    13
    0.023472516   2    1000022    14
    0.010023718   2    1000023    14

DECAY 1000016  1.5734168
    0.87829142   2    1000024    15
    0.10702177   2    1000025    16
    0.010294804   2    1000022    16
    0.0043920073   2    1000023    16

DECAY 2000001  0.5934259
    0.99703029   2    1000025    1
    0.0022143927   2    1000022    1
    0.0007451457   2    1000023    1

DECAY 1000001  40.876564
    0.65740029   2   -1000037    2
    0.32849872   2    1000035    1
    0.012880925   2    1000025    1
    0.00076222305   2    1000022    1
    0.00034841415   2    1000023    1
    0.00010942794   2   -1000024    2

DECAY 2000003  0.59748659
    0.99024951   2    1000025    3
    0.0039124156   2    1000022    3
    0.0034099477   2   -1000024    4
    0.0024274437   2    1000023    3

DECAY 1000003  40.882454
    0.65730519   2   -1000037    4
    0.32845117   2    1000035    3
    0.012879071   2    1000025    3
    0.00081440431   2    1000022    3
    0.00039991216   2    1000023    3
    0.00015001055   2   -1000024    4

DECAY 1000005  21.554531
    0.45776715   2   -1000024    6
    0.23152885   2    1000022    5
    0.22813545   2    1000023    5
    0.082531591   2    1000025    5

DECAY 2000005  152.72345
    0.57674999   2   -1000024    6
    0.15778399   2   -1000037    6
    0.11248515   2    1000006   -24
    0.078038279   2    1000035    5
    0.036182348   2    1000022    5
    0.035571553   2    1000023    5
    0.0031867252   2    1000025    5

DECAY 2000002  0.030342119
    0.87166896   2    1000025    2
    0.096170303   2    1000022    2
    0.032160678   2    1000023    2

DECAY 1000002  40.911448
    0.65461942   2    1000037    1
    0.32752295   2    1000035    2
    0.01411129   2    1000025    2
    0.0031759359   2    1000024    1
    0.0003767751   2    1000022    2
    0.00019362361   2    1000023    2

DECAY 2000004  0.031218598
    0.84694368   2    1000025    4
    0.10051986   2    1000022    4
    0.038393329   2    1000023    4
    0.014143136   2    1000024    3

DECAY 1000004  40.917328
    0.65452493   2    1000037    3
    0.32747555   2    1000035    4
    0.014109308   2    1000025    4
    0.0032792102   2    1000024    3
    0.0003968487   2    1000022    4
    0.00021405366   2    1000023    4

DECAY 1000006  163.67667
    0.45121309   2    1000024    5
    0.24400803   2    1000023    6
    0.2386335   2    1000022    6
    0.042914569   2    1000025    6
    0.015122059   2    1000037    5
    0.0074915431   2    1000035    6
    0.00061323115   3    1000022    24    5

DECAY 2000006  162.70726
    0.27885535   2    1000023    6
    0.27606035   2    1000022    6
    0.1305116   2    1000037    5
    0.11463686   2    1000024    5
    0.069439984   2    1000006    25
    0.064950755   2    1000035    6
    0.060418096   2    1000006    23
    0.0051267116   2    1000025    6

DECAY 1000024  1.8230257e-10
    0.52754137   3    1000022   -1    2
    0.17585297   3    1000022   -11    12
    0.17406592   3    1000022   -13    14
    0.11694304   3    1000022   -3    4
    0.005596697   3    1000022   -15    16

DECAY 1000037  21.330958
    0.21086372   2    1000024    25
    0.20430762   2    1000023    24
    0.20290929   2    1000024    23
    0.20116677   2    1000022    24
    0.074343836   2    1000016   -15
    0.074201209   2   -1000015    16
    0.012092125   3    1000024    6   -6
    0.0087370418   3    1000023   -5    6
    0.0081248748   3    1000022   -5    6
    0.0013040751   2    1000025    24
    0.00042558177   2    1000014   -13
    0.00042535356   2    1000012   -11
    0.00037659901   2   -1000013    14
    0.00037636628   2   -1000011    12
    0.00026220512   3    1000024    5   -5

DECAY 1000022 -1


DECAY 1000023  2.0300639e-08
    0.74605578   2    1000022    22
    0.06891206   3    1000022    12   -12
    0.051530227   3    1000022    1   -1
    0.051273721   3    1000022    3   -3
    0.040189474   3    1000022    2   -2
    0.01325594   3    1000022    4   -4
    0.011629026   3    1000022    11   -11
    0.011537892   3    1000022    13   -13
    0.0013383613   3    1000024    1   -2
    0.0013383613   3   -1000024   -1    2
    0.00061709837   3    1000022    15   -15
    0.00044613534   3    1000024    11   -12
    0.00044613534   3   -1000024   -11    12
    0.00044129331   3    1000024    13   -14
    0.00044129331   3   -1000024   -13    14
    0.00026375386   3    1000024    3   -4
    0.00026375386   3   -1000024   -3    4

DECAY 1000025  3.791469
    0.23236321   2    1000024   -24
    0.23236321   2   -1000024    24
    0.17310143   2    1000023    23
    0.15637171   2    1000022    25
    0.13353757   2    1000023    25
    0.056084154   2    1000022    23
    0.0055488811   3    1000024    5   -6
    0.0055488811   3   -1000024   -5    6
    0.0025819043   3    1000022    6   -6
    0.0024574296   3    1000023    6   -6

DECAY 1000035  22.491439
    0.19291163   2    1000024   -24
    0.19291163   2   -1000024    24
    0.13475097   2    1000022    25
    0.13198291   2    1000023    23
    0.11484921   2    1000023    25
    0.06124647   2    1000022    23
    0.035399803   2    1000016   -16
    0.035399803   2   -1000016    16
    0.035029429   2    1000015   -15
    0.035029429   2   -1000015    15
    0.0084387168   3    1000024    5   -6
    0.0084387168   3   -1000024   -5    6
    0.0054142701   3    1000022    6   -6
    0.0052289596   3    1000023    6   -6
    0.001043234   2    1000025    25
    0.00020195754   2    1000014   -14
    0.00020195754   2   -1000014    14
    0.00020184773   2    1000012   -12
    0.00020184773   2   -1000012    12
    0.00017713683   2    1000013   -13
    0.00017713683   2   -1000013    13
    0.00017702793   2    1000011   -11
    0.00017702793   2   -1000011    11
    0.00013517177   3    1000023    5   -5
    0.00012631958   3    1000022    5   -5

DECAY 1000021  444.59102
    0.13506674   2    2000004   -4
    0.13506674   2   -2000004    4
    0.1350667   2    2000002   -2
    0.1350667   2   -2000002    2
    0.095351746   2    2000003   -3
    0.095351746   2   -2000003    3
    0.095351563   2    2000001   -1
    0.095351563   2   -2000001    1
    0.015345701   2    1000005   -5
    0.015345701   2   -1000005    5
    0.012426907   2    1000006   -6
    0.012426907   2   -1000006    6
    0.0043616396   2    2000005   -5
    0.0043616396   2   -2000005    5
    0.004238059   2    2000006   -6
    0.004238059   2   -2000006    6
    0.00057815744   2    1000002   -2
    0.00057815744   2   -1000002    2
    0.00057814848   2    1000004   -4
    0.00057814848   2   -1000004    4
    0.00057285442   2    1000003   -3
    0.00057285442   2   -1000003    3
    0.00057284207   2    1000001   -1
    0.00057284207   2   -1000001    1
    0.00047086522   2    1000006   -4
    0.00047086522   2   -1000006    4

DECAY 25  0.0039563548
    0.56707969   2   -5    5
    0.23502188   2   -24    24
    0.071785816   2    21    21
    0.065289499   2   -15    15
    0.028707844   2    23    23
    0.027809146   2   -4    4
    0.0023364668   2    22    22
    0.0015294997   2    22    23
    0.00022642736   2   -13    13
    0.00021300083   2   -3    3
    5.8892513e-07   2   -1    1
    1.4330574e-07   2   -2    2
    5.0903328e-09   2   -11    11

DECAY 35  14.955401
    0.79820824   2   -5    5
    0.14060377   2   -15    15
    0.031384266   2    1000023    1000025
    0.013442782   2    1000022    1000025
    0.010255897   2   -6    6
    0.0033371346   2   -1000024    1000024
    0.0011667976   2    1000022    1000022
    0.00060912364   2    1000023    1000023
    0.00048474822   2   -13    13
    0.00031095453   2   -3    3
    0.00011049305   2    1000022    1000023
    6.1196094e-05   2    25    25
    9.3751862e-06   2    23    23
    9.109981e-06   2    21    21
    4.9989808e-06   2   -24    24
    8.5971444e-07   2   -1    1
    1.4456436e-07   2   -4    4
    5.7254943e-08   2    22    22
    4.4771501e-08   2    22    23
    1.0888538e-08   2   -11    11
    7.4529976e-13   2   -2    2

DECAY 36  14.607746
    0.79664941   2   -5    5
    0.14032852   2   -15    15
    0.032469191   2    1000022    1000025
    0.013388803   2    1000023    1000025
    0.01033988   2   -6    6
    0.003820795   2   -1000024    1000024
    0.0015434102   2    1000022    1000022
    0.00056339376   2    1000023    1000023
    0.00048379704   2   -13    13
    0.00031034412   2   -3    3
    4.7273851e-05   2    21    21
    4.0933664e-05   2    1000022    1000023
    1.2935255e-05   2    23    25
    8.5802623e-07   2   -1    1
    2.0855183e-07   2    22    22
    1.411233e-07   2   -4    4
    9.486689e-08   2    22    23
    1.0867171e-08   2   -11    11
    7.2758186e-13   2   -2    2
    2.1309188e-36   2    25    25

DECAY 37  14.08261
    0.80830143   2   -5    6
    0.13993936   2   -15    16
    0.049352891   2    1000024    1000025
    0.0011858133   2   -5    4
    0.00049473604   2   -13    14
    0.00034581799   2    1000023    1000024
    0.00029312861   2   -3    4
    3.2487567e-05   2    1000022    1000024
    1.7101738e-05   2   -3    6
    1.3656364e-05   2   -3    2
    1.3476916e-05   2    24    25
    8.4679328e-06   2   -5    2
    8.1298133e-07   2   -1    2
    7.6473308e-07   2   -1    6
    4.4833264e-08   2   -1    4
    1.1571927e-08   2   -11    12
    2.9217441e-12   2    24    35
    2.8231843e-12   2    24    36

DECAY 6  2.43
    1   2    5    24

DECAY 15 -1
