BLOCK SPINFO
   1   SPheno
   2   v4.0.5be

BLOCK SPHENOINFO
   1   2
   2   2

BLOCK MODSEL
   1   0

BLOCK MINPAR
   3    29.426724
   4    1

BLOCK EXTPAR
   0    1057.703
   1    664.77601
   2    1505.253
   3    3000
   11   -2056.8016
   12    771.47384
   13    1441.9931
   23    1514.8269
   25    28.541532
   26    2925.6714
   31    1336.6352
   32    1336.6352
   33    1935.0557
   34    1779.2151
   35    1779.2151
   36    1602.4875
   41    5000
   42    5000
   43    1219.769
   44    5000
   45    5000
   46    1112.7632
   47    5000
   48    5000
   49    864.25926

BLOCK SMINPUTS
   1    127.90897
   2    1.1663787e-05
   3    0.1184
   4    91.1876
   5    4.18
   6    173.2
   7    1.777
   8    0
   11    0.00051099893
   12    0
   13    0.10565837
   14    0
   21    0.005
   22    0.0025
   23    0.095
   24    1.27

BLOCK GAUGE Q=  1057.703
   1    0.35536298
   2    0.66519887
   3    1.219778

BLOCK YU Q=  1057.703
   1   1    8.3895168e-06
   2   2    0.0042618745
   3   3    1.013521

BLOCK YD Q=  1057.703
   1   1    0.00048116549
   2   2    0.0091421443
   3   3    0.47716539

BLOCK YE Q=  1057.703
   1   1    8.3966896e-05
   2   2    0.017361691
   3   3    0.29199508

BLOCK AU Q=  1057.703
   1   1    0
   2   2    0
   3   3   -2056.8016

BLOCK AD Q=  1057.703
   1   1    0
   2   2    0
   3   3    771.47389

BLOCK AE Q=  1057.703
   1   1    0
   2   2    0
   3   3    1441.9931

BLOCK MSOFT Q=  1057.703
   1    664.77601
   2    1505.253
   3    3000
   21    6281116.2
   22   -2267737.6
   31    1336.6352
   32    1336.6352
   33    1935.0557
   34    1779.2151
   35    1779.2151
   36    1602.4875
   41    5000
   42    5000
   43    1219.769
   44    5000
   45    5000
   46    1112.7632
   47    5000
   48    5000
   49    864.25926

BLOCK MASS
   6    173.2
   23    91.1876
   24    80.429995
   15    1.777
   25    120.36458
   35    2925.9459
   36    2925.6714
   37    2927.8839
   1000001    5004.769
   2000001    4997.2567
   1000002    5004.3136
   2000002    4999.3712
   1000003    5004.7771
   2000003    4997.2585
   1000004    5004.3174
   2000004    4999.3727
   1000005    710.41649
   2000005    1138.96
   1000006    915.38217
   2000006    1222.1514
   1000011    1347.6908
   2000011    1779.8269
   1000012    1344.9709
   1000013    1347.6901
   2000013    1779.8324
   1000014    1344.9755
   1000015    1604.8872
   2000015    1943.9875
   1000016    1940.7834
   1000021    3156.1707
   1000022    668.15159
   1000023    1465.1455
   1000025   -1507.648
   1000035    1588.1995
   1000024    1465.1808
   1000037    1588.3582

BLOCK ALPHA
      -0.034028261

BLOCK HMIX Q=  1057.703
   1    1514.8269
   2    28.541532
   3    244.36501
   4    8559553.1

BLOCK STOPMIX
   1   1    0.5390955
   1   2    0.84224464
   2   1   -0.84224464
   2   2    0.5390955

BLOCK SBOTMIX
   1   1    0.10475604
   1   2    0.99449795
   2   1   -0.99449795
   2   2    0.10475604

BLOCK STAUMIX
   1   1    0.062241508
   1   2    0.99806112
   2   1   -0.99806112
   2   2    0.062241508

BLOCK NMIX
   1   1   -0.99911544
   1   2    0.0018376758
   1   3   -0.037910052
   1   4    0.018104777
   2   1    0.032454634
   2   2    0.61706905
   2   3   -0.56363826
   2   4    0.54816458
   3   1    0.013955715
   3   2   -0.017654196
   3   3   -0.70647979
   3   4   -0.70737534
   4   1   -0.022809359
   4   2    0.7867088
   4   3    0.42633444
   4   4   -0.44587884

BLOCK UMIX
   1   1   -0.57428765
   1   2    0.81865359
   2   1    0.81865359
   2   2    0.57428765

BLOCK VMIX
   1   1   -0.60314684
   1   2    0.79763017
   2   1    0.79763017
   2   2    0.60314684

BLOCK HIGGSBOUNDSINPUTHIGGSCOUPLINGSFERMIONS
       0, 814.61903,3,36,15,15

BLOCK HIGGSBOUNDSINPUTHIGGSCOUPLINGSBOSONS
       0,4,36,21,21,23

BLOCK SPHENOLOWENERGY
   1    0.00029544268
   2    1.5955597e-06
   3    3.5270094e-05
   4    2.1572305e-15
   5    9.2154249e-11
   6    1.9279279e-08
   7    7.2552003e-14
   8    3.0994133e-09
   9    6.5701536e-07
   10    9.6409909e-05
   11    0.99587745
   12    0.54231254
   13    19.374973
   14    0
   15    0
   16    0.0021582842
   17    2.2816685e-15
   18    2.4802979e-11
   19    8.2914114e-11
   20    4.0741541e-15
   21    1.7418375e-10
   22    3.5601766e-08
   23    0
   24    0
   25    0
   26    0
   27    0
   28    0
   29    0
   30    0
   31    0
   39    6.967101e-05
   40    0
   41    0
   42    0

BLOCK FWCOEF Q=  160
   305   4422   0   0   -0.18881911
   305   4422   0   2   -0.15793295
   305   4322   0   2    8.2510639e-05
   305   6421   0   0   -0.095227835
   305   6421   0   2   -0.082042317
   305   6321   0   2   -7.5236078e-05
   3051111   4133   0   0    1.579529
   3051111   4133   0   2    1.5806847
   3051111   4233   0   2    7.6498073e-05
   3051111   4137   0   0   -4.4022211
   3051111   4137   0   2   -4.4022771
   3051111   4237   0   2   -0.000606096
   3051313   4133   0   0    1.579529
   3051313   4133   0   2    1.5806827
   3051313   4233   0   2    7.6497857e-05
   3051313   4137   0   0   -4.4022211
   3051313   4137   0   2   -4.4022791
   3051313   4237   0   2   -0.00060609632
   3051212   4137   0   0    1.5053501
   3051212   4137   0   2    1.5053671
   3051212   4237   0   2    0.00013246098
   3051414   4137   0   0    1.5053501
   3051414   4137   0   2    1.5053671
   3051414   4237   0   2    0.000132461
   3051616   4137   0   0    1.5053501
   3051616   4137   0   2    1.5053673
   3051616   4237   0   2    0.00013246665

BLOCK IMFWCOEF Q=  160
   305   4422   0   0    3.8589043e-07
   305   4422   0   2    1.4272626e-05
   305   4322   0   2    3.6947441e-06
   305   6421   0   0    3.3054067e-07
   305   6421   0   2   -3.5564362e-06
   305   6321   0   2    1.5493315e-06
   3051111   4133   0   2    1.7166472e-09
   3051111   4233   0   2    1.7385034e-06
   3051111   4137   0   2    6.3481773e-07
   3051111   4237   0   2   -1.3783781e-05
   3051313   4133   0   2    1.6997153e-09
   3051313   4233   0   2    1.7385013e-06
   3051313   4137   0   2    6.3480734e-07
   3051313   4237   0   2   -1.3783789e-05
   3051212   4137   0   2   -6.3876447e-08
   3051212   4237   0   2    3.0124344e-06
   3051414   4137   0   2   -6.3876742e-08
   3051414   4237   0   2    3.0124344e-06
   3051616   4137   0   2   -6.0078583e-08
   3051616   4237   0   2    3.0124362e-06

DECAY 23  2.4952


DECAY 24  2.085


DECAY 1000011  0.9546662
    1   2    1000022    11

DECAY 2000011  6.5896154
    0.99980106   2    1000022    11
    0.00014853625   2    1000023    11

DECAY 1000013  0.95467217
    1   2    1000022    13

DECAY 2000013  6.5929878
    0.99929629   2    1000022    13
    0.00023980464   2    1000013    25
    0.00020195851   2    1000023    13
    0.00011271656   2   -1000024    14

DECAY 1000015  5.6050232
    0.98044389   2    1000022    15
    0.010872565   2   -1000024    16
    0.005292387   2    1000023    15
    0.0033233129   2    1000025    15

DECAY 2000015  6.4432805
    0.29454414   2    1000022    15
    0.20351837   2   -1000037    16
    0.15033585   2   -1000024    16
    0.12288002   2    1000023    15
    0.10217412   2    1000035    15
    0.043147209   2    1000015    23
    0.042496645   2    1000015    25
    0.040903651   2    1000025    15

DECAY 1000012  0.96340409
    1   2    1000022    12

DECAY 1000014  0.96341162
    1   2    1000022    14

DECAY 1000016  6.4852548
    0.2935858   2    1000022    16
    0.23949074   2    1000024    15
    0.20152202   2    1000037    15
    0.091737604   2    1000035    16
    0.087635925   2    1000023    16
    0.085897321   2    1000015    24
    0.00013059181   2    1000025    16

DECAY 2000001  145.2164
    0.98147295   2    1000021    1
    0.018498706   2    1000022    1

DECAY 1000001  198.0492
    0.72360351   2    1000021    1
    0.12056781   2   -1000037    2
    0.061330175   2   -1000024    2
    0.056249878   2    1000035    1
    0.034744315   2    1000023    1
    0.0034669639   2    1000022    1

DECAY 2000003  145.23029
    0.98138043   2    1000021    3
    0.018497023   2    1000022    3

DECAY 1000003  198.05852
    0.72357371   2    1000021    3
    0.12056531   2   -1000037    4
    0.061332074   2   -1000024    4
    0.056253561   2    1000035    3
    0.034753849   2    1000023    3
    0.0034668646   2    1000022    3

DECAY 1000005  0.0052759073
    1   2    1000022    5

DECAY 2000005  14.054799
    0.73957037   2    1000006   -24
    0.17347509   2    1000005    25
    0.082270425   2    1000005    23
    0.0046841175   2    1000022    5

DECAY 2000002  153.51283
    0.92986607   2    1000021    2
    0.070027633   2    1000022    2

DECAY 1000002  198.03942
    0.7233995   2    1000021    2
    0.11444545   2    1000037    1
    0.067643938   2    1000024    1
    0.055095563   2    1000035    2
    0.036067908   2    1000023    2
    0.0033264776   2    1000022    2

DECAY 2000004  153.51591
    0.92984803   2    1000021    4
    0.07002624   2    1000022    4

DECAY 1000004  198.04816
    0.72336924   2    1000021    4
    0.11445177   2    1000037    3
    0.06766442   2    1000024    3
    0.055094762   2    1000035    4
    0.036068536   2    1000023    4
    0.0033263363   2    1000022    4

DECAY 1000006  0.33512967
    0.75242745   2    1000022    6
    0.24218777   2    1000005    24
    0.0053847856   2    1000022    4

DECAY 2000006  15.112989
    0.62221912   2    1000006    23
    0.17839878   2    1000005    24
    0.17715829   2    1000006    25
    0.020040213   2    1000022    6
    0.0021836069   2    2000005    24

DECAY 1000024  27.08049
    0.51180102   2    1000006   -5
    0.23811631   2   -2000005    6
    0.19861407   2   -1000005    6
    0.025536116   2    1000022    24
    0.017425214   2    2000006   -5
    0.0021478294   2    1000014   -13
    0.0021451544   2    1000012   -11
    0.0018613946   2   -1000013    14
    0.0018613734   2   -1000011    12
    0.00048603191   3    1000022   -5    6

DECAY 1000037  15.405085
    0.33359598   2    2000006   -5
    0.26785556   2   -2000005    6
    0.11318697   2   -1000005    6
    0.10254702   2    1000006   -5
    0.036647307   2    1000023    24
    0.023859284   2   -1000013    14
    0.023859157   2   -1000011    12
    0.023128352   2    1000014   -13
    0.02312139   2    1000012   -11
    0.022736486   2    1000022    24
    0.020194985   2    1000024    23
    0.0074061529   2    1000025    24
    0.0013314024   2    1000024    25
    0.00051284049   3    1000022   -5    6

DECAY 1000022 -1


DECAY 1000023  27.953446
    0.34550939   2    1000006   -6
    0.34550939   2   -1000006    6
    0.081607116   2    1000005   -5
    0.081607116   2   -1000005    5
    0.034353702   2    2000005   -5
    0.034353702   2   -2000005    5
    0.020143934   2    2000006   -6
    0.020143934   2   -2000006    6
    0.018945498   2    1000022    25
    0.0033021947   2    1000006   -4
    0.0033021947   2   -1000006    4
    0.0025318715   2    1000022    23
    0.0011009293   2    1000013   -13
    0.0011009293   2   -1000013    13
    0.001099667   2    1000011   -11
    0.001099667   2   -1000011    11
    0.0010267914   2    1000012   -12
    0.0010267914   2   -1000012    12
    0.001026717   2    1000014   -14
    0.001026717   2   -1000014    14
    0.00017588529   3    1000022    6   -6

DECAY 1000025  35.722343
    0.33774696   2    1000006   -6
    0.33774696   2   -1000006    6
    0.086115452   2    1000005   -5
    0.086115452   2   -1000005    5
    0.026938816   2    1000022    23
    0.026498354   2    2000005   -5
    0.026498354   2   -2000005    5
    0.025749855   2    2000006   -6
    0.025749855   2   -2000006    6
    0.020543176   2    1000022    25
    0.00023435898   3    1000022    6   -6

DECAY 1000035  16.6081
    0.14630023   2    1000006   -6
    0.14630023   2   -1000006    6
    0.12954155   2    2000005   -5
    0.12954155   2   -2000005    5
    0.10016655   2    2000006   -6
    0.10016655   2   -2000006    6
    0.049350273   2    1000005   -5
    0.049350273   2   -1000005    5
    0.021653934   2    1000024   -24
    0.021653934   2   -1000024    24
    0.018407817   2    1000022    25
    0.010745337   2    1000012   -12
    0.010745337   2   -1000012    12
    0.010744968   2    1000014   -14
    0.010744968   2   -1000014    14
    0.0098974131   2    1000013   -13
    0.0098974131   2   -1000013    13
    0.0098934681   2    1000011   -11
    0.0098934681   2   -1000011    11
    0.0030302084   2    1000022    23
    0.00075335765   2    1000023    25
    0.00024229783   3    1000022    6   -6
    0.00019407814   3    1000025    12   -12
    0.00014510337   3    1000025    1   -1
    0.00014510211   3    1000025    3   -3
    0.00014201317   3    1000025    5   -5
    0.00011316584   3    1000025    2   -2
    0.00011293352   3    1000025    4   -4

DECAY 1000021  305.72628
    0.13761827   2    1000005   -5
    0.13761827   2   -1000005    5
    0.12314598   2    2000006   -6
    0.12314598   2   -2000006    6
    0.11565862   2    2000005   -5
    0.11565862   2   -2000005    5
    0.11419297   2    1000006   -6
    0.11419297   2   -1000006    6
    0.0084819031   2    1000006   -4
    0.0084819031   2   -1000006    4
    0.00030377777   3    1000025    6   -6
    0.00024469077   3    1000024    5   -6
    0.00024469077   3   -1000024   -5    6
    0.00020668214   3    1000037    5   -6
    0.00020668214   3   -1000037   -5    6
    0.00017749318   3    1000023    6   -6
    0.00016414211   3    1000035    6   -6

DECAY 25  0.0033662084
    0.64288077   2   -5    5
    0.15779678   2   -24    24
    0.073188059   2   -15    15
    0.073141865   2    21    21
    0.031665942   2   -4    4
    0.01740029   2    23    23
    0.0023205847   2    22    22
    0.0011105494   2    22    23
    0.00025386725   2   -13    13
    0.00024045827   2   -3    3
    6.6484236e-07   2   -1    1
    1.6319753e-07   2   -2    2
    5.7072835e-09   2   -11    11

DECAY 35  46.81035
    0.31063568   2   -5    5
    0.24500879   2   -1000006    1000006
    0.1759609   2   -2000006    2000006
    0.11786788   2   -15    15
    0.049925237   2   -2000006    1000006
    0.049925237   2   -1000006    2000006
    0.022849006   2    1000022    1000025
    0.0067590126   2   -2000005    1000005
    0.0067590126   2   -1000005    2000005
    0.0062981672   2    1000022    1000023
    0.0037833509   2    1000022    1000035
    0.0023891072   2   -6    6
    0.00045975828   2   -1000005    1000005
    0.00041824459   2   -13    13
    0.00025217047   2   -2000005    2000005
    0.00023025767   2   -1000024    1000024
    0.00020267056   2   -3    3
    0.00012912181   2    1000022    1000022
    0.00010513787   2    1000023    1000023
    3.7510464e-05   2    25    25
    1.8016434e-06   2    21    21
    5.6030911e-07   2   -1    1
    3.745962e-07   2    23    23
    1.1690468e-07   2   -24    24
    9.1844197e-08   2   -1000011    1000011
    9.0820636e-08   2   -1000013    1000013
    5.6222276e-08   2   -4    4
    3.4746756e-08   2    22    23
    1.4501821e-08   2    22    22
    9.3935819e-09   2   -11    11
    2.8980521e-13   2   -2    2

DECAY 36  47.818891
    0.29461736   2   -5    5
    0.26007981   2   -2000006    1000006
    0.26007981   2   -1000006    2000006
    0.11166192   2   -15    15
    0.017169476   2   -1000024    1000024
    0.013580435   2    1000022    1000023
    0.0094771865   2    1000022    1000025
    0.0093115325   2    1000022    1000035
    0.0079517254   2    1000023    1000023
    0.0069843373   2   -2000005    1000005
    0.0069843373   2   -1000005    2000005
    0.0013291438   2   -6    6
    0.00039632836   2   -13    13
    0.00019193296   2   -3    3
    0.00016957955   2    1000022    1000022
    1.2269219e-05   2    21    21
    1.300686e-06   2    22    23
    5.8579476e-07   2    23    25
    5.3062393e-07   2   -1    1
    3.5564367e-07   2    22    22
    3.2531355e-08   2   -4    4
    8.90136e-09   2   -11    11
    1.6763594e-13   2   -2    2
    8.5259994e-36   2    25    25

DECAY 37  42.945664
    0.48095414   2   -5    6
    0.26171034   2   -2000005    1000006
    0.11806293   2   -15    16
    0.072706246   2   -2000005    2000006
    0.024745048   2   -1000005    1000006
    0.021844364   2    1000022    1000024
    0.014321134   2    1000022    1000037
    0.0042934446   2   -1000005    2000006
    0.00070880292   2   -5    4
    0.00041739463   2   -13    14
    0.00020761452   2   -3    4
    9.7196571e-06   2   -3    2
    6.755242e-06   2    1000023    1000024
    5.0615842e-06   2   -5    2
    4.7341393e-06   2   -3    6
    6.5418294e-07   2    24    25
    5.7567525e-07   2   -1    2
    3.9583106e-07   2   -1000011    1000012
    3.942528e-07   2   -1000013    1000014
    2.0304207e-07   2   -1    6
    2.8733354e-08   2   -1    4
    9.7629038e-09   2   -11    12
    1.6802556e-12   2    24    36
    8.6654558e-13   2    24    35

DECAY 6  2.43
    1   2    5    24

DECAY 15 -1
