BLOCK SPINFO
   1   SPheno
   2   v4.0.5be

BLOCK SPHENOINFO
   1   2
   2   2

BLOCK MODSEL
   1   0

BLOCK MINPAR
   3    18.216691
   4   -1

BLOCK EXTPAR
   0    3623.1038
   1    355.22777
   2   -3801.6247
   3    4224.1401
   11   -6146.5812
   12    7070.8432
   13   -7831.5525
   23   -1791.1522
   25    17.425082
   26    635.17498
   31    3316.785
   32    3316.785
   33    316.66523
   34    2933.1866
   35    2933.1866
   36    2049.4516
   41    2876.6285
   42    2876.6285
   43    3944.1247
   44    2008.3641
   45    2008.3641
   46    3209.2896
   47    2718.9608
   48    2718.9608
   49    3519.5739

BLOCK SMINPUTS
   1    127.90897
   2    1.1663787e-05
   3    0.1184
   4    91.1876
   5    4.18
   6    173.2
   7    1.777
   8    0
   11    0.00051099893
   12    0
   13    0.10565837
   14    0
   21    0.005
   22    0.0025
   23    0.095
   24    1.27

BLOCK GAUGE Q=  3623.1038
   1    0.35536298
   2    0.66519887
   3    1.219778

BLOCK YU Q=  3623.1038
   1   1    8.3981675e-06
   2   2    0.0042662691
   3   3    1.0145661

BLOCK YD Q=  3623.1038
   1   1    0.00029406248
   2   2    0.0055871871
   3   3    0.29161783

BLOCK YE Q=  3623.1038
   1   1    5.1316053e-05
   2   2    0.010610532
   3   3    0.17845169

BLOCK AU Q=  3623.1038
   1   1    0
   2   2    0
   3   3   -6146.581

BLOCK AD Q=  3623.1038
   1   1    0
   2   2    0
   3   3    7070.8429

BLOCK AE Q=  3623.1038
   1   1    0
   2   2    0
   3   3   -7831.5526

BLOCK MSOFT Q=  3623.1038
   1    355.22777
   2   -3801.6247
   3    4224.1401
   21   -2878065.4
   22   -3018242.1
   31    3316.785
   32    3316.785
   33    316.66523
   34    2933.1866
   35    2933.1866
   36    2049.4516
   41    2876.6285
   42    2876.6285
   43    3944.1247
   44    2008.3641
   45    2008.3641
   46    3209.2896
   47    2718.9608
   48    2718.9608
   49    3519.5739

BLOCK MASS
   6    173.2
   23    91.1876
   24    80.429995
   15    1.777
   25    124.42735
   35    635.2397
   36    635.17498
   37    640.05093
   1000001    3069.0411
   2000001    2876.9379
   1000002    3068.0194
   2000002    2187.0635
   1000003    3069.0403
   2000003    2876.9358
   1000004    3068.0182
   2000004    2187.063
   1000005    3652.3141
   2000005    4029.6225
   1000006    3243.809
   2000006    4046.7491
   1000011    3349.1542
   2000011    2933.3452
   1000012    3347.8116
   1000013    3349.1509
   2000013    2933.3373
   1000014    3347.8075
   1000015    428.84812
   2000015    2024.4756
   1000016    424.67505
   1000021    4278.2004
   1000022    350.20228
   1000023   -1811.6031
   1000025    1813.8187
   1000035   -3775.6586
   1000024    1811.5749
   1000037    3775.744

BLOCK ALPHA
      -0.05847806

BLOCK HMIX Q=  3623.1038
   1   -1791.1522
   2    17.425082
   3    243.04309
   4    403447.25

BLOCK STOPMIX
   1   1    0.14581972
   1   2    0.98931118
   2   1   -0.98931118
   2   2    0.14581972

BLOCK SBOTMIX
   1   1   -0.032301568
   1   2    0.99947817
   2   1   -0.99947817
   2   2   -0.032301568

BLOCK STAUMIX
   1   1   -0.99993975
   1   2    0.010976999
   2   1   -0.010976999
   2   2   -0.99993975

BLOCK NMIX
   1   1    0.99967232
   1   2    3.0264221e-05
   1   3   -0.025346752
   1   4   -0.0035763655
   2   1    0.015395101
   2   2    0.028921093
   2   3    0.70690723
   2   4   -0.70654705
   3   1    0.0204489
   3   2   -0.0092155645
   3   3    0.70671456
   3   4    0.70714316
   4   1   -0.00028718162
   4   2    0.99953921
   4   3   -0.013937411
   4   4    0.026963369

BLOCK UMIX
   1   1   -0.019643976
   1   2   -0.99980704
   2   1   -0.99980704
   2   2    0.019643976

BLOCK VMIX
   1   1    0.038091603
   1   2    0.99927425
   2   1    0.99927425
   2   2   -0.038091603

BLOCK HIGGSBOUNDSINPUTHIGGSCOUPLINGSFERMIONS
       0, 303.63348,3,36,15,15

BLOCK HIGGSBOUNDSINPUTHIGGSCOUPLINGSBOSONS
       0,4,36,21,21,23

BLOCK SPHENOLOWENERGY
   1    0.00039237996
   2    1.5884166e-06
   3    3.5266644e-05
   4    2.450324e-15
   5    1.0467516e-10
   6    2.1919387e-08
   7    8.2963133e-14
   8    3.5441858e-09
   9    7.5197597e-07
   10    9.119125e-05
   11    0.9419707
   12    0.54232921
   13    19.353777
   14    0
   15    0
   16    0.0021593325
   17    2.2816848e-15
   18    2.4812759e-11
   19    8.2927511e-11
   20    3.88813e-16
   21    1.6622778e-11
   22   -2.0870087e-09
   23    0
   24    0
   25    0
   26    0
   27    0
   28    0
   29    0
   30    0
   31    0
   39    4.080084e-05
   40    0
   41    0
   42    0

BLOCK FWCOEF Q=  160
   305   4422   0   0   -0.18881911
   305   4422   0   2   -0.26028486
   305   4322   0   2   -0.0014296091
   305   6421   0   0   -0.095227835
   305   6421   0   2   -0.17089427
   305   6321   0   2   -0.0015027242
   3051111   4133   0   0    1.6228844
   3051111   4133   0   2    1.6231028
   3051111   4233   0   2   -1.0709056e-05
   3051111   4137   0   0   -4.4455765
   3051111   4137   0   2   -4.4452847
   3051111   4237   0   2    7.9766809e-05
   3051313   4133   0   0    1.6228844
   3051313   4133   0   2    1.6231027
   3051313   4233   0   2   -1.0711753e-05
   3051313   4137   0   0   -4.4455765
   3051313   4137   0   2   -4.4452849
   3051313   4237   0   2    7.9769466e-05
   3051212   4137   0   0    1.5053501
   3051212   4137   0   2    1.5052877
   3051212   4237   0   2   -1.7262684e-05
   3051414   4137   0   0    1.5053501
   3051414   4137   0   2    1.5052877
   3051414   4237   0   2   -1.7262102e-05
   3051616   4137   0   0    1.5053501
   3051616   4137   0   2    1.5052873
   3051616   4237   0   2   -1.7098021e-05

BLOCK IMFWCOEF Q=  160
   305   4422   0   0    3.8578468e-07
   305   4422   0   2    1.3580528e-06
   305   4322   0   2   -2.4520845e-06
   305   6421   0   0    3.3045009e-07
   305   6421   0   2    6.9428637e-06
   305   6321   0   2   -1.2595042e-06
   3051111   4133   0   2   -1.4508024e-06
   3051111   4233   0   2    1.2328385e-06
   3051111   4137   0   2    1.1782516e-05
   3051111   4237   0   2   -9.178496e-06
   3051313   4133   0   2   -1.4508012e-06
   3051313   4233   0   2    1.2328383e-06
   3051313   4137   0   2    1.1782517e-05
   3051313   4237   0   2   -9.1784965e-06
   3051212   4137   0   2   -2.5364009e-06
   3051212   4237   0   2    1.9864468e-06
   3051414   4137   0   2   -2.5364009e-06
   3051414   4237   0   2    1.9864468e-06
   3051616   4137   0   2   -2.5440623e-06
   3051616   4237   0   2    1.9864499e-06

DECAY 23  2.4952


DECAY 24  2.085


DECAY 2000011  14.316131
    0.99974239   2    1000022    11
    0.00016423732   2    1000025    11

DECAY 1000011  4.1292377
    0.99615088   2    1000022    11
    0.0024650601   2    1000023    11
    0.0013788397   2   -1000024    12

DECAY 2000013  14.321115
    0.9993919   2    1000022    13
    0.00025156894   2    1000025    13
    0.00018104463   2    1000023    13
    0.00017548181   2   -1000024    14

DECAY 1000013  4.1332228
    0.9951905   2    1000022    13
    0.002916626   2    1000023    13
    0.0013775066   2   -1000024    14
    0.00045789758   2    1000025    13

DECAY 1000015  0.059705071
    0.99999997   2    1000022    15

DECAY 2000015  44.038082
    0.37706593   2    1000016   -37
    0.21720618   2    1000022    15
    0.18868027   2    1000015    36
    0.18865944   2    1000015    35
    0.013423343   2    1000016   -24
    0.0066821058   2    1000015    23
    0.0059804735   2    1000015    25
    0.0011540095   2   -1000024    16
    0.0005782709   2    1000023    15
    0.00056997193   2    1000025    15

DECAY 1000012  4.1382152
    0.99334851   2    1000022    12
    0.0051678479   2    1000024    11
    0.00076280047   2    1000023    12
    0.00072083754   2    1000025    12

DECAY 1000014  4.1419575
    0.99244975   2    1000022    14
    0.0060679541   2    1000024    13
    0.0007621088   2    1000023    14
    0.00072018392   2    1000025    14

DECAY 1000016  0.054575955
    1   2    1000022    16

DECAY 2000001  1.5582916
    0.99975226   2    1000022    1
    0.00015703676   2    1000025    1

DECAY 1000001  0.42616283
    0.97816682   2    1000022    1
    0.010386047   2   -1000024    2
    0.0092256933   2    1000023    1
    0.0022212468   2    1000025    1

DECAY 2000003  1.5595873
    0.99892161   2    1000022    3
    0.00041707242   2   -1000024    4
    0.00036397832   2    1000025    3
    0.00029733828   2    1000023    3

DECAY 1000003  0.42759458
    0.97489408   2    1000022    3
    0.011447411   2   -1000024    4
    0.010138611   2    1000023    3
    0.0031534646   2    1000025    3
    0.00029654896   2    2000004   -37

DECAY 1000005  9.0107768
    0.38674762   2   -1000024    6
    0.2232171   2    1000022    5
    0.19543938   2    1000023    5
    0.19387154   2    1000025    5
    0.00072434172   2    1000006   -24

DECAY 2000005  103.10491
    0.50513077   2   -1000024    6
    0.39364988   2    1000006   -24
    0.044402031   2    1000006   -37
    0.021074983   2    1000025    5
    0.021047487   2    1000023    5
    0.005334344   2    1000022    5
    0.0039822234   2   -1000037    6
    0.0025593341   2    1000035    5
    0.0016498212   2    1000005    25
    0.001169127   2    1000005    23

DECAY 2000002  4.6341179
    0.99993244   2    1000022    2

DECAY 1000002  0.4395441
    0.94870048   2    1000022    2
    0.037829144   2    1000024    1
    0.013066458   2    1000023    2
    0.00040391302   2    1000025    2

DECAY 2000004  4.6342683
    0.99989886   2    1000022    4

DECAY 1000004  0.44094914
    0.94567683   2    1000022    4
    0.03953373   2    1000024    3
    0.013562747   2    1000023    4
    0.00093645971   2    1000025    4
    0.00014477605   2    2000004    36
    0.00014474052   2    2000004    35

DECAY 1000006  67.613336
    0.45218941   2    1000024    5
    0.2230406   2    1000025    6
    0.22250711   2    1000023    6
    0.10222162   2    1000022    6

DECAY 2000006  116.87806
    0.25516494   2    1000006    25
    0.22953574   2    1000023    6
    0.22917467   2    1000025    6
    0.17978645   2    1000006    23
    0.049755021   2    1000024    5
    0.021604404   2    1000006    36
    0.01993772   2    1000006    35
    0.0060458409   2    1000022    6
    0.0049076814   2    1000037    5
    0.0023568452   2    1000005    24
    0.0017306826   2    1000035    6

DECAY 1000024  2.6471759
    0.44607508   2    1000022    24
    0.3404687   2    37    1000022
    0.19754961   2    1000016   -15
    0.014496392   3    1000022   -5    6
    0.0013693092   2   -1000015    16

DECAY 1000037  119.13043
    0.13584222   2   -1000015    16
    0.13580067   2    1000016   -15
    0.071626475   2    1000024    25
    0.066156648   2    37    1000023
    0.064917398   2    1000023    24
    0.064174343   2    1000024    23
    0.064104338   2    1000025    24
    0.055091402   2    1000024    36
    0.054948856   2    37    1000025
    0.054855804   2    1000024    35
    0.048237347   2    1000004   -3
    0.048237203   2    1000002   -1
    0.048163701   2   -1000003    4
    0.0481637   2   -1000001    2
    0.0063693333   2    1000014   -13
    0.0063692195   2    1000012   -11
    0.0063385494   2   -1000013    14
    0.0063384555   2   -1000011    12
    0.0058968839   3    1000024    6   -6
    0.0038186911   3    1000025   -5    6
    0.0032278893   3    1000023   -5    6
    0.0011852138   2    1000006   -5

DECAY 1000022 -1


DECAY 1000023  2.9889525
    0.28813431   2    1000022    25
    0.25310957   2    1000022    23
    0.18157106   2    1000022    35
    0.092890602   2    1000022    36
    0.087222416   2    1000015   -15
    0.087222416   2   -1000015    15
    0.0087870573   3    1000022    6   -6
    0.00051030194   2    1000016   -16
    0.00051030194   2   -1000016    16

DECAY 1000025  2.5528681
    0.2675517   2    1000022    25
    0.2675401   2    1000022    35
    0.1684548   2    1000022    23
    0.10002305   2    1000015   -15
    0.10002305   2   -1000015    15
    0.086173153   2    1000022    36
    0.0090557982   3    1000022    6   -6
    0.00056660329   2    1000016   -16
    0.00056660329   2   -1000016    16

DECAY 1000035  126.89518
    0.063796234   2    1000016   -16
    0.063796234   2   -1000016    16
    0.063712158   2    1000015   -15
    0.063712158   2   -1000015    15
    0.062027961   2    37   -1000024
    0.062027961   2   -37    1000024
    0.061236201   2    1000023    25
    0.060338378   2    1000024   -24
    0.060338378   2   -1000024    24
    0.057131934   2    1000025    35
    0.05507392   2    1000025    23
    0.048516803   2    1000025    25
    0.045153987   2    1000023    35
    0.022648034   2    1000004   -4
    0.022648034   2   -1000004    4
    0.022647972   2    1000002   -2
    0.022647972   2   -1000002    2
    0.022594034   2    1000003   -3
    0.022594034   2   -1000003    3
    0.022593982   2    1000001   -1
    0.022593982   2   -1000001    1
    0.0063844386   2    1000023    36
    0.0055850344   2    1000023    23
    0.0050627364   2    1000025    36
    0.002991237   2    1000014   -14
    0.002991237   2   -1000014    14
    0.0029911833   2    1000012   -12
    0.0029911833   2   -1000012    12
    0.0029717798   2    1000013   -13
    0.0029717798   2   -1000013    13
    0.0029717351   2    1000011   -11
    0.0029717351   2   -1000011    11
    0.0028557999   3    1000024    5   -6
    0.0028557999   3   -1000024   -5    6
    0.0023632747   3    1000023    6   -6
    0.0019730589   3    1000025    6   -6
    0.00054718276   2    1000006   -6
    0.00054718276   2   -1000006    6

DECAY 1000021  367.21468
    0.094079684   2    2000004   -4
    0.094079684   2   -2000004    4
    0.094079663   2    2000002   -2
    0.094079663   2   -2000002    2
    0.051740951   2    2000003   -3
    0.051740951   2   -2000003    3
    0.051740828   2    2000001   -1
    0.051740828   2   -2000001    1
    0.040680601   2    1000004   -4
    0.040680601   2   -1000004    4
    0.04068055   2    1000002   -2
    0.04068055   2   -1000002    2
    0.040623231   2    1000003   -3
    0.040623231   2   -1000003    3
    0.040623182   2    1000001   -1
    0.040623182   2   -1000001    1
    0.029142497   2    1000006   -6
    0.029142497   2   -1000006    6
    0.012686612   2    1000005   -5
    0.012686612   2   -1000005    5
    0.0021923709   2    2000005   -5
    0.0021923709   2   -2000005    5
    0.0015682586   2    2000006   -6
    0.0015682586   2   -2000006    6
    0.00014400761   2    1000006   -4
    0.00014400761   2   -1000006    4

DECAY 25  0.004146834
    0.60807254   2   -5    5
    0.20117639   2   -24    24
    0.06994757   2   -15    15
    0.066445367   2    21    21
    0.026329485   2   -4    4
    0.024077085   2    23    23
    0.0021488574   2    22    22
    0.0013295874   2    22    23
    0.00024125712   2   -13    13
    0.00023107945   2   -3    3
    6.3891996e-07   2   -1    1
    1.3568357e-07   2   -2    2
    5.4237353e-09   2   -11    11

DECAY 35  4.0043114
    0.84946977   2   -5    5
    0.12986343   2   -15    15
    0.017268138   2   -6    6
    0.0020624841   2    25    25
    0.0004141483   2   -13    13
    0.00038310004   2   -3    3
    0.00026975591   2   -24    24
    0.00013809258   2    23    23
    0.00010566153   2    21    21
    1.0593857e-06   2   -1    1
    3.9514818e-07   2   -4    4
    7.9029328e-08   2    22    22
    2.3720635e-08   2    22    23
    9.3059582e-09   2   -11    11
    2.0380732e-12   2   -2    2

DECAY 36  3.9627125
    0.84668027   2   -5    5
    0.12942547   2   -15    15
    0.022656217   2   -6    6
    0.00041275154   2   -13    13
    0.00038180246   2   -3    3
    0.00023283433   2    23    25
    0.00020886395   2    21    21
    1.0557975e-06   2   -1    1
    3.6227234e-07   2   -4    4
    2.7992808e-07   2    22    22
    8.1268265e-08   2    22    23
    9.2745731e-09   2   -11    11
    1.8689762e-12   2   -2    2
    5.3151268e-35   2    25    25

DECAY 37  3.1186922
    0.86085777   2   -5    6
    0.13619772   2   -15    16
    0.0014054164   2   -5    4
    0.00048151463   2   -13    14
    0.00042618895   2   -3    4
    0.00030839531   2    24    25
    0.00025397512   2   -1000015    1000016
    3.6518132e-05   2   -3    6
    1.9543067e-05   2   -3    2
    1.0036195e-05   2   -5    2
    1.6504235e-06   2   -1    6
    1.1818183e-06   2   -1    2
    7.1527927e-08   2   -1    4
    1.1262678e-08   2   -11    12
    1.1924735e-09   2    24    36
    1.1155006e-09   2    24    35

DECAY 6  2.43
    1   2    5    24

DECAY 15 -1
