BLOCK SPINFO
   1   SPheno
   2   v4.0.5be

BLOCK SPHENOINFO
   1   2
   2   2

BLOCK MODSEL
   1   0

BLOCK MINPAR
   3    45.970655
   4    1

BLOCK EXTPAR
   0    2257.3733
   1   -3833.5685
   2    409.95187
   3    4058.0503
   11    3236.462
   12    139.89353
   13   -1450.2296
   23    355.65861
   25    44.952734
   26    1513.0252
   31    3077.8151
   32    3077.8151
   33    2519.3367
   34    2482.7762
   35    2482.7762
   36    3141.0175
   41    2960.9115
   42    2960.9115
   43    1077.3998
   44    2138.3522
   45    2138.3522
   46    4607.1932
   47    2202.2616
   48    2202.2616
   49    1974.7151

BLOCK SMINPUTS
   1    127.90897
   2    1.1663787e-05
   3    0.1184
   4    91.1876
   5    4.18
   6    173.2
   7    1.777
   8    0
   11    0.00051099893
   12    0
   13    0.10565837
   14    0
   21    0.005
   22    0.0025
   23    0.095
   24    1.27

BLOCK GAUGE Q=  2257.3733
   1    0.35536298
   2    0.66519887
   3    1.219778

BLOCK YU Q=  2257.3733
   1   1    8.3864464e-06
   2   2    0.0042603148
   3   3    1.0131501

BLOCK YD Q=  2257.3733
   1   1    0.00075755529
   2   2    0.01439355
   3   3    0.75125747

BLOCK YE Q=  2257.3733
   1   1    0.00013219894
   2   2    0.027334548
   3   3    0.45972212

BLOCK AU Q=  2257.3733
   1   1    0
   2   2    0
   3   3    3236.462

BLOCK AD Q=  2257.3733
   1   1    0
   2   2    0
   3   3    139.89354

BLOCK AE Q=  2257.3733
   1   1    0
   2   2    0
   3   3   -1450.2296

BLOCK MSOFT Q=  2257.3733
   1   -3833.5685
   2    409.95187
   3    4058.0503
   21    2231612.8
   22   -307873.72
   31    3077.8151
   32    3077.8151
   33    2519.3367
   34    2482.7762
   35    2482.7762
   36    3141.0175
   41    2960.9115
   42    2960.9115
   43    1077.3998
   44    2138.3522
   45    2138.3522
   46    4607.1932
   47    2202.2616
   48    2202.2616
   49    1974.7151

BLOCK MASS
   6    173.2
   23    91.1876
   24    80.429995
   15    1.777
   25    122.94274
   35    1512.2471
   36    1513.0252
   37    1515.0848
   1000001    3034.0462
   2000001    2253.278
   1000002    3032.9733
   2000002    2194.048
   1000003    3034.0426
   2000003    2253.2712
   1000004    3032.9697
   2000004    2194.0476
   1000005    1095.6049
   2000005    2002.9782
   1000006    1097.6274
   2000006    4642.4991
   1000011    3086.8246
   2000011    2485.4585
   1000012    3085.3737
   1000013    3086.8068
   2000013    2485.4221
   1000014    3085.3573
   1000015    2522.4685
   2000015    3134.2274
   1000016    2520.9112
   1000021    3989.6736
   1000022    334.02729
   1000023   -369.67113
   1000025    471.90472
   1000035   -3799.4012
   1000024    336.78158
   1000037    472.43999

BLOCK ALPHA
      -0.022004042

BLOCK HMIX Q=  2257.3733
   1    355.65861
   2    44.952734
   3    243.55593
   4    2289245.4

BLOCK STOPMIX
   1   1   -0.99973672
   1   2    0.022945447
   2   1   -0.022945447
   2   2   -0.99973672

BLOCK SBOTMIX
   1   1    0.99993053
   1   2    0.011787253
   2   1   -0.011787253
   2   2    0.99993053

BLOCK STAUMIX
   1   1    0.99995995
   1   2    0.008949928
   2   1   -0.008949928
   2   2    0.99995995

BLOCK NMIX
   1   1    0.0061996872
   1   2    0.48897312
   1   3   -0.64362931
   1   4    0.58873437
   2   1   -0.0086071511
   2   2   -0.070274023
   2   3   -0.70183186
   2   4   -0.70881557
   3   1    0.0039452424
   3   2   -0.86946351
   3   3   -0.30524192
   3   4    0.3883877
   4   1    0.99993596
   4   2   -0.00020610844
   4   3   -0.00084627332
   4   4   -0.011283858

BLOCK UMIX
   1   1   -0.43933761
   1   2    0.89832203
   2   1    0.89832203
   2   2    0.43933761

BLOCK VMIX
   1   1   -0.56032308
   1   2    0.82827414
   2   1    0.82827414
   2   2    0.56032308

BLOCK HIGGSBOUNDSINPUTHIGGSCOUPLINGSFERMIONS
       0, 2020.7483,3,36,15,15

BLOCK HIGGSBOUNDSINPUTHIGGSCOUPLINGSBOSONS
       0,4,36,21,21,23

BLOCK SPHENOLOWENERGY
   1    0.00034261624
   2    1.5877569e-06
   3    3.5245426e-05
   4    2.5061799e-15
   5    1.0706138e-10
   6    2.2425379e-08
   7    8.3320588e-14
   8    3.5594601e-09
   9    7.5542873e-07
   10    9.1450253e-05
   11    0.9446461
   12    0.54187666
   13    19.336322
   14    0
   15    0
   16    0.0021572011
   17    2.281663e-15
   18    2.4795155e-11
   19    8.2892331e-11
   20    2.6758652e-15
   21    1.1440093e-10
   22    4.2706369e-08
   23    0
   24    0
   25    0
   26    0
   27    0
   28    0
   29    0
   30    0
   31    0
   39    8.366855e-05
   40    0
   41    0
   42    0

BLOCK FWCOEF Q=  160
   305   4422   0   0   -0.18881911
   305   4422   0   2   -0.21168337
   305   4322   0   2   -0.00041666814
   305   6421   0   0   -0.095227835
   305   6421   0   2   -0.1210599
   305   6321   0   2   -0.0004941496
   3051111   4133   0   0    1.6070594
   3051111   4133   0   2    1.6073752
   3051111   4233   0   2    0.00037431037
   3051111   4137   0   0   -4.4297515
   3051111   4137   0   2   -4.4274278
   3051111   4237   0   2   -0.002849089
   3051313   4133   0   0    1.6070594
   3051313   4133   0   2    1.6073746
   3051313   4233   0   2    0.00037430371
   3051313   4137   0   0   -4.4297515
   3051313   4137   0   2   -4.4274284
   3051313   4237   0   2   -0.0028490864
   3051212   4137   0   0    1.5053501
   3051212   4137   0   2    1.5048598
   3051212   4237   0   2    0.00061881036
   3051414   4137   0   0    1.5053501
   3051414   4137   0   2    1.5048598
   3051414   4237   0   2    0.00061881156
   3051616   4137   0   0    1.5053501
   3051616   4137   0   2    1.5048604
   3051616   4237   0   2    0.0006191505

BLOCK IMFWCOEF Q=  160
   305   4422   0   0    3.8579566e-07
   305   4422   0   2    4.155577e-05
   305   4322   0   2   -7.9712737e-07
   305   6421   0   0    3.304595e-07
   305   6421   0   2   -2.3505787e-06
   305   6321   0   2   -6.8829638e-07
   3051111   4133   0   2    1.5120852e-06
   3051111   4233   0   2    9.3009075e-06
   3051111   4137   0   2    2.094449e-06
   3051111   4237   0   2   -7.0817841e-05
   3051313   4133   0   2    1.5120565e-06
   3051313   4233   0   2    9.3008879e-06
   3051313   4137   0   2    2.0944805e-06
   3051313   4237   0   2   -7.0817894e-05
   3051212   4137   0   2   -1.9376923e-07
   3051212   4237   0   2    1.5381342e-05
   3051414   4137   0   2   -1.9376806e-07
   3051414   4237   0   2    1.5381342e-05
   3051616   4137   0   2   -1.8222254e-07
   3051616   4237   0   2    1.5381342e-05

DECAY 23  2.4952


DECAY 24  2.085


DECAY 2000011  0.0015298096
    0.57857795   2    1000023    11
    0.30276498   2    1000022    11
    0.11811651   2    1000025    11
    0.00043926175   2   -1000024    12
    0.00010129499   2   -1000037    12

DECAY 1000011  39.073255
    0.53523106   2   -1000037    12
    0.24951063   2    1000025    11
    0.13105725   2   -1000024    12
    0.082307272   2    1000022    11
    0.0018937891   2    1000023    11

DECAY 2000013  0.072239202
    0.39769383   2   -1000024    14
    0.25313398   2    1000023    13
    0.21068533   2    1000022    13
    0.091709214   2   -1000037    14
    0.046777638   2    1000025    13

DECAY 1000013  39.117716
    0.53461934   2   -1000037    14
    0.24932981   2    1000025    13
    0.1309075   2   -1000024    14
    0.082687724   2    1000022    13
    0.0024529464   2    1000023    13

DECAY 1000015  41.421214
    0.40032959   2   -1000037    16
    0.20885723   2    1000025    15
    0.16646308   2    1000022    15
    0.1219991   2    1000023    15
    0.102351   2   -1000024    16

DECAY 2000015  25.781713
    0.39788989   2   -1000024    16
    0.24527816   2    1000023    15
    0.2041354   2    1000022    15
    0.099275023   2   -1000037    16
    0.047908388   2    1000025    15
    0.0027903165   2    1000016   -24
    0.001374868   2    1000015    23
    0.001347953   2    1000015    25

DECAY 1000012  39.119708
    0.45424026   2    1000037    11
    0.25151294   2    1000025    12
    0.21281945   2    1000024    11
    0.079972658   2    1000022    12
    0.0014546823   2    1000023    12

DECAY 1000014  39.164057
    0.453939   2    1000037    13
    0.25122667   2    1000025    14
    0.21349966   2    1000024    13
    0.079881652   2    1000022    14
    0.0014530268   2    1000023    14

DECAY 1000016  41.470402
    0.38777579   2    1000037    15
    0.36095328   2    1000024    15
    0.18925381   2    1000025    16
    0.060912148   2    1000022    16
    0.001104976   2    1000023    16

DECAY 2000001  0.00020116325
    0.49832079   2    1000023    1
    0.28059452   2    1000022    1
    0.099880097   2    1000025    1
    0.098642819   2   -1000024    2
    0.022561776   2   -1000037    2

DECAY 1000001  38.341846
    0.53521301   2   -1000037    2
    0.25112264   2    1000025    1
    0.13116277   2   -1000024    2
    0.080903798   2    1000022    1
    0.001597771   2    1000023    1

DECAY 2000003  0.01775689
    0.40341553   2   -1000024    4
    0.24890539   2    1000023    3
    0.20985095   2    1000022    3
    0.092269951   2   -1000037    4
    0.045558183   2    1000025    3

DECAY 1000003  38.355006
    0.53503761   2   -1000037    4
    0.25106513   2    1000025    3
    0.13113633   2   -1000024    4
    0.081007273   2    1000022    3
    0.0017526697   2    1000023    3

DECAY 1000005  36.082107
    0.34375377   2   -1000024    6
    0.29305617   2   -1000037    6
    0.14335626   2    1000022    5
    0.13221984   2    1000023    5
    0.087613957   2    1000025    5

DECAY 2000005  42.324037
    0.39482759   2   -1000024    6
    0.24454904   2    1000023    5
    0.20574389   2    1000022    5
    0.094004669   2   -1000037    6
    0.046047446   2    1000025    5
    0.0060664949   2    1000006   -24
    0.0057230875   2    1000005    25
    0.0030377813   2    1000005    23

DECAY 2000002  0.00059173955
    0.57908691   2    1000023    2
    0.30367611   2    1000022    2
    0.1172321   2    1000025    2

DECAY 1000002  38.4054
    0.45406996   2    1000037    1
    0.24980086   2    1000025    2
    0.21291767   2    1000024    1
    0.081472067   2    1000022    2
    0.0017394398   2    1000023    2

DECAY 2000004  0.0020829163
    0.34499095   2    1000023    4
    0.24878583   2    1000024    3
    0.21210627   2    1000022    4
    0.10859956   2    1000037    3
    0.085517395   2    1000025    4

DECAY 1000004  38.418515
    0.45397425   2    1000037    3
    0.24971955   2    1000025    4
    0.21309991   2    1000024    3
    0.081453579   2    1000022    4
    0.0017527071   2    1000023    4

DECAY 1000006  36.896045
    0.28109056   2    1000024    5
    0.22358516   2    1000023    6
    0.17156355   2    1000022    6
    0.16827603   2    1000037    5
    0.14038527   2    1000025    6
    0.011591301   2    1000022    4
    0.0032705753   3    1000022    24    5
    0.00023755958   2    1000023    4

DECAY 2000006  280.31975
    0.23424164   2    1000024    5
    0.16759286   2    1000023    6
    0.11770495   2    1000022    6
    0.10754185   2    1000005    24
    0.099378675   2    1000037    5
    0.086654178   2    1000021    6
    0.076929182   2    1000006    25
    0.053698553   2    1000006    23
    0.047457768   2    1000025    6
    0.0038948108   2    1000035    6
    0.0023788211   2    1000005    37
    0.0011812101   2    1000006    36
    0.0011745641   2    1000006    35
    0.00016137483   2    2000005    37

DECAY 1000024  2.3419373e-10
    0.48715042   3    1000022   -1    2
    0.17132677   3    1000022   -3    4
    0.16238189   3    1000022   -11    12
    0.16119734   3    1000022   -13    14
    0.017943581   3    1000022   -15    16

DECAY 1000037  1.5823097
    0.4593479   2    1000023    24
    0.27949721   2    1000022    24
    0.21014381   2    1000024    23
    0.051010024   2    1000024    25

DECAY 1000022 -1


DECAY 1000023  0.00041292019
    0.10326115   3    1000024    1   -2
    0.10326115   3   -1000024   -1    2
    0.1025654   3    1000024    3   -4
    0.1025654   3   -1000024   -3    4
    0.074927723   3    1000022    12   -12
    0.056023349   3    1000022    1   -1
    0.056019144   3    1000022    3   -3
    0.048705723   3    1000022    5   -5
    0.043698472   3    1000022    2   -2
    0.043006121   3    1000022    4   -4
    0.034420221   3    1000024    11   -12
    0.034420221   3   -1000024   -11    12
    0.03441917   3    1000024    13   -14
    0.03441917   3   -1000024   -13    14
    0.03398341   3    1000024    15   -16
    0.03398341   3   -1000024   -15    16
    0.02280157   2    1000022    22
    0.01264286   3    1000022    11   -11
    0.012641393   3    1000022    13   -13
    0.012234942   3    1000022    15   -15

DECAY 1000025  1.5990192
    0.35562344   2    1000023    23
    0.2972065   2    1000024   -24
    0.2972065   2   -1000024    24
    0.045938532   2    1000022    25
    0.0039711967   2    1000022    23

DECAY 1000035  71.441345
    0.079132996   2    2000004   -4
    0.079132996   2   -2000004    4
    0.079132955   2    2000002   -2
    0.079132955   2   -2000002    2
    0.043720673   2    2000013   -13
    0.043720673   2   -2000013    13
    0.043718762   2    2000011   -11
    0.043718762   2   -2000011    11
    0.023218017   2    2000005   -5
    0.023218017   2   -2000005    5
    0.023168353   2    1000024   -24
    0.023168353   2   -1000024    24
    0.019194795   2    1000023    25
    0.018768453   2    37   -1000024
    0.018768453   2   -37    1000024
    0.01871496   2    2000003   -3
    0.01871496   2   -2000003    3
    0.018714837   2    2000001   -1
    0.018714837   2   -2000001    1
    0.014902061   2    1000023    35
    0.014720923   2    1000022    25
    0.013920298   2    1000023    23
    0.013636427   2    2000015   -15
    0.013636427   2   -2000015    15
    0.013187391   2    1000022    23
    0.011282909   2    1000022    35
    0.010472989   2    1000016   -16
    0.010472989   2   -1000016    16
    0.010438189   2    1000015   -15
    0.010438189   2   -1000015    15
    0.0093801048   2    1000005   -5
    0.0093801048   2   -1000005    5
    0.0093180825   2    1000037   -24
    0.0093180825   2   -1000037    24
    0.0093157387   2    1000006   -6
    0.0093157387   2   -1000006    6
    0.0085499669   2    1000023    36
    0.0080459865   2    1000022    36
    0.0058886696   2    1000025    25
    0.0053710578   2    1000025    23
    0.0044923396   2    37   -1000037
    0.0044923396   2   -37    1000037
    0.0038763787   2    1000014   -14
    0.0038763787   2   -1000014    14
    0.0038762188   2    1000012   -12
    0.0038762188   2   -1000012    12
    0.0038563258   2    1000013   -13
    0.0038563258   2   -1000013    13
    0.003856153   2    1000011   -11
    0.003856153   2   -1000011    11
    0.0026985533   2    1000025    35
    0.0016523725   2    1000025    36
    0.0015306827   3    1000023    6   -6
    0.0015000067   3    1000024    5   -6
    0.0015000067   3   -1000024   -5    6
    0.0014647266   2    1000003   -3
    0.0014647266   2   -1000003    3
    0.0014647143   2    1000001   -1
    0.0014647143   2   -1000001    1
    0.0014615878   2    1000004   -4
    0.0014615878   2   -1000004    4
    0.00146158   2    1000002   -2
    0.00146158   2   -1000002    2
    0.0011087082   3    1000022    6   -6
    0.00060202303   3    1000037    5   -6
    0.00060202303   3   -1000037   -5    6
    0.00041810377   3    1000025    6   -6

DECAY 1000021  622.18484
    0.081401398   2    1000006   -6
    0.081401398   2   -1000006    6
    0.08112488   2    1000005   -5
    0.08112488   2   -1000005    5
    0.053095671   2    2000005   -5
    0.053095671   2   -2000005    5
    0.046180828   2    2000004   -4
    0.046180828   2   -2000004    4
    0.046180819   2    2000002   -2
    0.046180819   2   -2000002    2
    0.044015937   2    2000003   -3
    0.044015937   2   -2000003    3
    0.044015688   2    2000001   -1
    0.044015688   2   -2000001    1
    0.036295565   2    1000006   -4
    0.036295565   2   -1000006    4
    0.016907766   2    1000004   -4
    0.016907766   2   -1000004    4
    0.016907669   2    1000002   -2
    0.016907669   2   -1000002    2
    0.016875031   2    1000003   -3
    0.016875031   2   -1000003    3
    0.01687492   2    1000001   -1
    0.01687492   2   -1000001    1

DECAY 25  0.0035828533
    0.60085566   2   -5    5
    0.19837081   2   -24    24
    0.075272642   2    21    21
    0.069082109   2   -15    15
    0.029200614   2   -4    4
    0.02304078   2    23    23
    0.002369141   2    22    22
    0.0013421045   2    22    23
    0.0002395488   2   -13    13
    0.00022581233   2   -3    3
    6.2434891e-07   2   -1    1
    1.5047985e-07   2   -2    2
    5.3853499e-09   2   -11    11

DECAY 35  52.197682
    0.60580016   2   -5    5
    0.12464003   2   -15    15
    0.057943604   2   -1000024    1000037
    0.057943604   2   -1000037    1000024
    0.046746222   2   -1000024    1000024
    0.039768656   2    1000023    1000025
    0.018304151   2    1000022    1000022
    0.016740509   2   -1000037    1000037
    0.011589063   2    1000022    1000023
    0.0097664791   2    1000022    1000025
    0.0091807042   2    1000025    1000025
    0.00049136424   2   -6    6
    0.00042754213   2   -13    13
    0.00038212433   2    1000023    1000023
    0.00024502461   2   -3    3
    1.9869633e-05   2    21    21
    8.0553684e-06   2    25    25
    1.0286174e-06   2    23    23
    8.1268515e-07   2   -24    24
    6.7744941e-07   2   -1    1
    2.4584022e-07   2    22    23
    6.2728483e-08   2    22    22
    9.6043684e-09   2   -11    11
    6.637136e-09   2   -4    4
    3.4224471e-14   2   -2    2

DECAY 36  50.290702
    0.59727222   2   -5    5
    0.12289188   2   -15    15
    0.063260317   2   -1000024    1000024
    0.046265864   2   -1000024    1000037
    0.046265864   2   -1000037    1000024
    0.030445448   2   -1000037    1000037
    0.027285942   2    1000023    1000025
    0.025070808   2    1000022    1000022
    0.01646664   2    1000025    1000025
    0.014503649   2    1000022    1000025
    0.0086059816   2    1000022    1000023
    0.00049814751   2   -6    6
    0.00046932775   2    1000023    1000023
    0.00042154284   2   -13    13
    0.00024156798   2   -3    3
    3.208093e-05   2    21    21
    1.4188042e-06   2    23    25
    6.6789209e-07   2   -1    1
    3.9776619e-07   2    22    23
    2.1901332e-07   2    22    22
    9.4696134e-09   2   -11    11
    6.351012e-09   2   -4    4
    3.2759459e-14   2   -2    2
    8.9464965e-39   2    25    25

DECAY 37  50.89658
    0.59904285   2   -5    6
    0.12580678   2   -15    16
    0.097878652   2    1000022    1000037
    0.085124356   2    1000024    1000025
    0.061905863   2    1000023    1000037
    0.028481398   2    1000023    1000024
    0.00089781989   2   -5    4
    0.0004447728   2   -13    14
    0.00023509205   2   -3    4
    0.00015574743   2    1000022    1000024
    1.0920133e-05   2   -3    2
    6.4113674e-06   2   -5    2
    6.02018e-06   2    1000025    1000037
    1.4112614e-06   2    24    25
    1.176038e-06   2   -3    6
    6.5234982e-07   2   -1    2
    3.8414095e-08   2   -1    6
    3.0572089e-08   2   -1    4
    1.0403282e-08   2   -11    12
    4.9140467e-12   2    24    35
    9.9010736e-13   2    24    36

DECAY 6  2.43
    1   2    5    24

DECAY 15 -1
