BLOCK SPINFO
   1   SPheno
   2   v4.0.5be

BLOCK SPHENOINFO
   1   2
   2   2

BLOCK MODSEL
   1   0

BLOCK MINPAR
   3    33.337851
   4    1

BLOCK EXTPAR
   0    3115.5028
   1   -1278.7143
   2    2794.4345
   3    2694.8708
   11   -6569.8834
   12   -5799.9323
   13    4188.0703
   23    2578.1582
   25    32.234736
   26    1031.4069
   31    1417.7641
   32    1417.7641
   33    2516.784
   34    4385.6293
   35    4385.6293
   36    4356.0346
   41    2300.163
   42    2300.163
   43    4504.1061
   44    4357.0443
   45    4357.0443
   46    2033.8187
   47    1375.4532
   48    1375.4532
   49    1909.0266

BLOCK SMINPUTS
   1    127.90897
   2    1.1663787e-05
   3    0.1184
   4    91.1876
   5    4.18
   6    173.2
   7    1.777
   8    0
   11    0.00051099893
   12    0
   13    0.10565837
   14    0
   21    0.005
   22    0.0025
   23    0.095
   24    1.27

BLOCK GAUGE Q=  3115.5028
   1    0.35536298
   2    0.66519887
   3    1.219778

BLOCK YU Q=  3115.5028
   1   1    8.3884057e-06
   2   2    0.0042613101
   3   3    1.0133868

BLOCK YD Q=  3115.5028
   1   1    0.00054335516
   2   2    0.010323748
   3   3    0.53883806

BLOCK YE Q=  3115.5028
   1   1    9.4819449e-05
   2   2    0.019605655
   3   3    0.32973486

BLOCK AU Q=  3115.5028
   1   1    0
   2   2    0
   3   3   -6569.8834

BLOCK AD Q=  3115.5028
   1   1    0
   2   2    0
   3   3   -5799.9299

BLOCK AE Q=  3115.5028
   1   1    0
   2   2    0
   3   3    4188.0702

BLOCK MSOFT Q=  3115.5028
   1   -1278.7143
   2    2794.4345
   3    2694.8708
   21   -5668141.9
   22   -6716622.8
   31    1417.7641
   32    1417.7641
   33    2516.784
   34    4385.6293
   35    4385.6293
   36    4356.0346
   41    2300.163
   42    2300.163
   43    4504.1061
   44    4357.0443
   45    4357.0443
   46    2033.8187
   47    1375.4532
   48    1375.4532
   49    1909.0266

BLOCK MASS
   6    173.2
   23    91.1876
   24    80.429995
   15    1.777
   25    125.76242
   35    1031.3359
   36    1031.4069
   37    1034.3236
   1000001    2455.328
   2000001    1538.9874
   1000002    2454.081
   2000002    4424.2215
   1000003    2455.3276
   2000003    1538.9854
   1000004    2454.0803
   2000004    4424.2209
   1000005    2046.9883
   2000005    4514.2074
   1000006    2146.507
   2000006    4521.9316
   1000011    1454.1337
   2000011    4390.2697
   1000012    1451.6415
   1000013    1454.1371
   2000013    4390.2482
   1000014    1451.6467
   1000015    2541.4088
   2000015    4346.8828
   1000016    2539.6149
   1000021    2872.3583
   1000022   -1269.8753
   1000023    2562.2498
   1000025   -2577.5524
   1000035    2798.9648
   1000024    2562.9793
   1000037    2799.1199

BLOCK ALPHA
      -0.030652799

BLOCK HMIX Q=  3115.5028
   1    2578.1582
   2    32.234736
   3    243.20844
   4    1063800.2

BLOCK STOPMIX
   1   1    0.05892215
   1   2    0.99826258
   2   1   -0.99826258
   2   2    0.05892215

BLOCK SBOTMIX
   1   1    0.010897153
   1   2    0.99994062
   2   1   -0.99994062
   2   2    0.010897153

BLOCK STAUMIX
   1   1    0.99993114
   1   2    0.011735041
   2   1   -0.011735041
   2   2    0.99993114

BLOCK NMIX
   1   1    0.99968635
   1   2    0.00018117811
   1   3    0.022709021
   1   4    0.010557655
   2   1    0.0083539021
   2   2    0.24159677
   2   3   -0.68786408
   2   4    0.68440063
   3   1   -0.023522157
   3   2    0.0098022945
   3   3    0.70667561
   3   4    0.70707864
   4   1    0.002029033
   4   2   -0.97032721
   4   3   -0.16412462
   4   4    0.1775503

BLOCK UMIX
   1   1   -0.23301337
   1   2    0.97247353
   2   1    0.97247353
   2   2    0.23301337

BLOCK VMIX
   1   1   -0.25201066
   1   2    0.96772446
   2   1    0.96772446
   2   2    0.25201066

BLOCK HIGGSBOUNDSINPUTHIGGSCOUPLINGSFERMIONS
       0, 1039.0782,3,36,15,15

BLOCK HIGGSBOUNDSINPUTHIGGSCOUPLINGSBOSONS
       0,4,36,21,21,23

BLOCK SPHENOLOWENERGY
   1    0.00033885317
   2    1.5893775e-06
   3    3.5275959e-05
   4    2.7121026e-15
   5    1.1585572e-10
   6    2.4122278e-08
   7    9.0456254e-14
   8    3.864219e-09
   9    8.1548639e-07
   10    9.2653283e-05
   11    0.95707294
   12    0.54179781
   13    19.335175
   14    0
   15    0
   16    0.0021568603
   17    2.2816605e-15
   18    2.4820178e-11
   19    8.2940055e-11
   20    9.0358988e-16
   21    3.8629273e-11
   22    1.0833658e-08
   23    0
   24    0
   25    0
   26    0
   27    0
   28    0
   29    0
   30    0
   31    0
   39    6.6850506e-05
   40    0
   41    0
   42    0

BLOCK FWCOEF Q=  160
   305   4422   0   0   -0.18881911
   305   4422   0   2   -0.2052396
   305   4322   0   2   -8.3015835e-05
   305   6421   0   0   -0.095227835
   305   6421   0   2   -0.12550729
   305   6321   0   2   -0.00039411224
   3051111   4133   0   0    1.6179921
   3051111   4133   0   2    1.6183014
   3051111   4233   0   2    4.2682541e-05
   3051111   4137   0   0   -4.4406842
   3051111   4137   0   2   -4.4413206
   3051111   4237   0   2   -0.00032040922
   3051313   4133   0   0    1.6179921
   3051313   4133   0   2    1.6182996
   3051313   4233   0   2    4.267654e-05
   3051313   4137   0   0   -4.4406842
   3051313   4137   0   2   -4.4413224
   3051313   4237   0   2   -0.00032040358
   3051212   4137   0   0    1.5053501
   3051212   4137   0   2    1.5054898
   3051212   4237   0   2    6.9420311e-05
   3051414   4137   0   0    1.5053501
   3051414   4137   0   2    1.5054898
   3051414   4237   0   2    6.9421599e-05
   3051616   4137   0   0    1.5053501
   3051616   4137   0   2    1.50549
   3051616   4237   0   2    6.9784561e-05

BLOCK IMFWCOEF Q=  160
   305   4422   0   0    3.8589406e-07
   305   4422   0   2    1.9238984e-05
   305   4322   0   2    1.0308455e-05
   305   6421   0   0    3.3054378e-07
   305   6421   0   2   -2.6546644e-05
   305   6321   0   2    6.9040286e-06
   3051111   4133   0   2   -3.0509772e-07
   3051111   4233   0   2    3.2433664e-06
   3051111   4137   0   2    3.6231264e-06
   3051111   4237   0   2   -2.432727e-05
   3051313   4133   0   2   -3.0514089e-07
   3051313   4233   0   2    3.2433654e-06
   3051313   4137   0   2    3.6230846e-06
   3051313   4237   0   2   -2.4327276e-05
   3051212   4137   0   2   -7.5447758e-07
   3051212   4237   0   2    5.2707756e-06
   3051414   4137   0   2   -7.5447793e-07
   3051414   4237   0   2    5.2707756e-06
   3051616   4137   0   2   -7.5114006e-07
   3051616   4237   0   2    5.2707765e-06

DECAY 23  2.4952


DECAY 24  2.085


DECAY 1000011  0.10292601
    1   2    1000022    11

DECAY 2000011  18.517056
    0.99967903   2    1000022    11
    0.00028306192   2    1000025    11

DECAY 1000013  0.10292983
    1   2    1000022    13

DECAY 2000013  18.55097
    0.99784553   2    1000022    13
    0.00074369073   2   -1000024    14
    0.00067065679   2    1000025    13
    0.00040839516   2    1000023    13
    0.00027723752   2    1000013    25

DECAY 1000015  1.8011549
    1   2    1000022    15

DECAY 2000015  40.104973
    0.4553018   2    1000022    15
    0.12056492   2    1000016   -37
    0.093274653   2   -1000024    16
    0.060302706   2    1000015    36
    0.06024706   2    1000015    35
    0.054662152   2    1000016   -24
    0.049404856   2    1000025    15
    0.046711307   2    1000023    15
    0.027242358   2    1000015    23
    0.024408096   2    1000015    25
    0.0052651365   2   -1000037    16
    0.0026149629   2    1000035    15

DECAY 1000012  0.10035695
    1   2    1000022    12

DECAY 1000014  0.10036199
    1   2    1000022    14

DECAY 1000016  1.7938139
    0.99898586   2    1000022    16
    0.00050723852   3    1000014    15   -13
    0.00050689866   3    1000012    15   -11

DECAY 2000001  0.087460418
    1   2    1000022    1

DECAY 1000001  0.18339868
    0.99997397   2    1000022    1

DECAY 2000003  0.087459326
    1   2    1000022    3

DECAY 1000003  0.18511864
    0.99068972   2    1000022    3
    0.0093102785   2    2000003    25

DECAY 1000005  0.43518379
    1   2    1000022    5

DECAY 2000005  356.50791
    0.35397837   2    1000021    5
    0.2819386   2    1000006   -24
    0.11091612   2   -1000024    6
    0.049044123   2    1000006   -37
    0.048396129   2   -1000037    6
    0.041803895   2    1000005    36
    0.041799837   2    1000005    35
    0.020741124   2    1000035    5
    0.017257319   2    1000023    5
    0.016607898   2    1000025    5
    0.010791315   2    1000005    25
    0.0052125917   2    1000005    23
    0.0015126833   2    1000022    5

DECAY 1000002  0.18391191
    1   2    1000022    2

DECAY 2000002  125.18459
    0.93356488   2    1000021    2
    0.066413511   2    1000022    2

DECAY 1000004  0.18391144
    1   2    1000022    4

DECAY 2000004  125.18648
    0.93354972   2    1000021    4
    0.066412486   2    1000022    4

DECAY 1000006  1.978815
    0.99999433   2    1000022    6

DECAY 2000006  379.75264
    0.32848888   2    1000021    6
    0.20047107   2    1000006    25
    0.13289993   2    1000006    23
    0.078501395   2    1000005    37
    0.055373917   2    1000025    6
    0.051911855   2    1000023    6
    0.040427754   2    1000037    5
    0.031153136   2    1000024    5
    0.023470384   2    1000035    6
    0.023098916   2    1000006    36
    0.022824194   2    1000006    35
    0.0098356169   2    1000005    24
    0.0015429522   2    1000022    6

DECAY 1000024  12.862399
    0.51921573   2    1000006   -5
    0.20853343   2   -1000005    6
    0.11344103   2    1000022    24
    0.054315813   2    37    1000022
    0.026028885   2    1000014   -13
    0.025695973   2    1000012   -11
    0.021896658   2   -1000011    12
    0.021896561   2   -1000013    14
    0.0043747518   3    1000022   -5    6
    0.0011602526   2    1000004   -3
    0.00115598   2    1000002   -1
    0.00096748007   2   -1000003    4
    0.00096623404   2   -1000001    2
    0.00024506026   2   -2000003    4

DECAY 1000037  39.905522
    0.15564653   2   -1000011    12
    0.155646   2   -1000013    14
    0.15452726   2    1000014   -13
    0.15452052   2    1000012   -11
    0.046561604   2   -1000001    2
    0.046560948   2   -1000003    4
    0.046421716   2    1000004   -3
    0.046420987   2    1000002   -1
    0.045527539   2    1000025    24
    0.036206411   2    1000023    24
    0.034360163   2    1000024    23
    0.032035776   2    1000024    25
    0.016755297   2    1000006   -5
    0.0091532787   2    1000016   -15
    0.0089830653   2   -1000015    16
    0.0063178467   2   -1000005    6
    0.0034291928   2    1000022    24
    0.0007450095   2    37    1000022
    0.00014617706   3    1000022   -5    6

DECAY 1000022 -1


DECAY 1000023  13.838315
    0.23290353   2    1000006   -6
    0.23290353   2   -1000006    6
    0.1000008   2    1000005   -5
    0.1000008   2   -1000005    5
    0.095632551   2    1000022    25
    0.093273605   2    1000022    23
    0.04832717   2    1000022    35
    0.011492491   2    1000013   -13
    0.011492491   2   -1000013    13
    0.01133828   2    1000011   -11
    0.01133828   2   -1000011    11
    0.010564915   2    1000012   -12
    0.010564915   2   -1000012    12
    0.010564844   2    1000014   -14
    0.010564844   2   -1000014    14
    0.0024258727   2    1000022    36
    0.0024175824   3    1000022    6   -6
    0.00049404017   2    1000004   -4
    0.00049404017   2   -1000004    4
    0.00049344321   2    1000002   -2
    0.00049344321   2   -1000002    2
    0.00047255387   2    1000003   -3
    0.00047255387   2   -1000003    3
    0.00047064149   2    1000001   -1
    0.00047064149   2   -1000001    1
    0.00011827328   2    2000003   -3
    0.00011827328   2   -2000003    3

DECAY 1000025  12.694935
    0.28823478   2    1000006   -6
    0.28823478   2   -1000006    6
    0.11976137   2    1000005   -5
    0.11976137   2   -1000005    5
    0.1001063   2    1000022    25
    0.062444826   2    1000022    35
    0.014775277   2    1000022    23
    0.0026869397   3    1000022    6   -6
    0.0025952773   2    1000022    36
    0.0001817696   2    1000013   -13
    0.0001817696   2   -1000013    13
    0.00017248231   2    2000003   -3
    0.00017248231   2   -2000003    3
    0.00010423922   2    1000012   -12
    0.00010423922   2   -1000012    12
    0.00010423853   2    1000014   -14
    0.00010423853   2   -1000014    14

DECAY 1000035  41.406427
    0.075017857   2    1000012   -12
    0.075017857   2   -1000012    12
    0.075017463   2    1000014   -14
    0.075017463   2   -1000014    14
    0.074497988   2    1000013   -13
    0.074497988   2   -1000013    13
    0.074494642   2    1000011   -11
    0.074494642   2   -1000011    11
    0.044979788   2    1000025    23
    0.035309414   2    1000024   -24
    0.035309414   2   -1000024    24
    0.030821292   2    1000023    25
    0.030007585   2    1000025    25
    0.022455106   2    1000002   -2
    0.022455106   2   -1000002    2
    0.022454832   2    1000004   -4
    0.022454832   2   -1000004    4
    0.02233716   2    1000003   -3
    0.02233716   2   -1000003    3
    0.022336854   2    1000001   -1
    0.022336854   2   -1000001    1
    0.0080960098   2    1000006   -6
    0.0080960098   2   -1000006    6
    0.0043847308   2    1000016   -16
    0.0043847308   2   -1000016    16
    0.0043484998   2    1000015   -15
    0.0043484998   2   -1000015    15
    0.0030402114   2    1000005   -5
    0.0030402114   2   -1000005    5
    0.0028449126   2    1000022    25
    0.0028444131   2    1000022    23
    0.00064783741   2    1000022    35

DECAY 1000021  147.45184
    0.14653478   2    2000003   -3
    0.14653478   2   -2000003    3
    0.14653448   2    2000001   -1
    0.14653448   2   -2000001    1
    0.069814899   2    1000005   -5
    0.069814899   2   -1000005    5
    0.053248789   2    1000006   -6
    0.053248789   2   -1000006    6
    0.021023173   2    1000002   -2
    0.021023173   2   -1000002    2
    0.021023159   2    1000004   -4
    0.021023159   2   -1000004    4
    0.020907835   2    1000003   -3
    0.020907835   2   -1000003    3
    0.020907799   2    1000001   -1
    0.020907799   2   -1000001    1

DECAY 25  0.0040844778
    0.56930254   2   -5    5
    0.2350062   2   -24    24
    0.069866676   2    21    21
    0.065745008   2   -15    15
    0.028877741   2    23    23
    0.026954681   2   -4    4
    0.0022852271   2    22    22
    0.001521844   2    22    23
    0.00022831295   2   -13    13
    0.00021105187   2   -3    3
    5.8352762e-07   2   -1    1
    1.3890155e-07   2   -2    2
    5.1327195e-09   2   -11    11

DECAY 35  16.136795
    0.82485825   2   -5    5
    0.17207338   2   -15    15
    0.0021665236   2   -6    6
    0.00062903366   2   -13    13
    0.00018832023   2   -3    3
    5.229121e-05   2    21    21
    1.6839483e-05   2    25    25
    8.3185619e-06   2   -24    24
    6.4168479e-06   2    23    23
    5.2040959e-07   2   -1    1
    3.5680491e-08   2    22    22
    3.3248339e-08   2   -4    4
    2.3084114e-08   2    22    23
    1.4132375e-08   2   -11    11
    1.7139139e-13   2   -2    2

DECAY 36  15.678181
    0.82493022   2   -5    5
    0.17208265   2   -15    15
    0.002069871   2   -6    6
    0.00062905891   2   -13    13
    0.00018833703   2   -3    3
    8.9675286e-05   2    21    21
    9.4978706e-06   2    23    25
    5.2045616e-07   2   -1    1
    8.6695058e-08   2    22    22
    3.4479372e-08   2    22    23
    2.8054878e-08   2   -4    4
    1.4132947e-08   2   -11    11
    1.4458174e-13   2   -2    2
    5.4419742e-36   2    25    25

DECAY 37  16.041466
    0.85467191   2   -5    6
    0.14331132   2   -15    16
    0.0013116134   2   -5    4
    0.0005066593   2   -13    14
    0.00016757839   2   -3    4
    9.4169209e-06   2    24    25
    9.3662979e-06   2   -5    2
    7.7432945e-06   2   -3    2
    3.7304914e-06   2   -3    6
    4.6474068e-07   2   -1    2
    1.6042291e-07   2   -1    6
    2.2957273e-08   2   -1    4
    1.1850814e-08   2   -11    12
    2.0140731e-11   2    24    35
    1.7858683e-11   2    24    36

DECAY 6  2.43
    1   2    5    24

DECAY 15 -1
