BLOCK SPINFO
   1   SPheno
   2   v4.0.5be

BLOCK SPHENOINFO
   1   2
   2   2

BLOCK MODSEL
   1   0

BLOCK MINPAR
   3    48.047548
   4   -1

BLOCK EXTPAR
   0    1613.8686
   1   -846.51391
   2    815.77814
   3    3000
   11    4716.8075
   12   -867.36856
   13   -562.58597
   23   -491.73776
   25    48.484107
   26    4413.5657
   31    842.97162
   32    842.97162
   33    1211.9087
   34    1429.1913
   35    1429.1913
   36    1833.2936
   41    5000
   42    5000
   43    1832.6509
   44    5000
   45    5000
   46    1550.4994
   47    5000
   48    5000
   49    848.87588

BLOCK SMINPUTS
   1    127.90897
   2    1.1663787e-05
   3    0.1184
   4    91.1876
   5    4.18
   6    173.2
   7    1.777
   8    0
   11    0.00051099893
   12    0
   13    0.10565837
   14    0
   21    0.005
   22    0.0025
   23    0.095
   24    1.27

BLOCK GAUGE Q=  1613.8686
   1    0.35536298
   2    0.66519887
   3    1.219778

BLOCK YU Q=  1613.8686
   1   1    8.3861553e-06
   2   2    0.0042601669
   3   3    1.0131149

BLOCK YD Q=  1613.8686
   1   1    0.00081703856
   2   2    0.015523733
   3   3    0.81024622

BLOCK YE Q=  1613.8686
   1   1    0.0001425792
   2   2    0.029480857
   3   3    0.49581952

BLOCK AU Q=  1613.8686
   1   1    0
   2   2    0
   3   3    4716.8077

BLOCK AD Q=  1613.8686
   1   1    0
   2   2    0
   3   3   -867.36869

BLOCK AE Q=  1613.8686
   1   1    0
   2   2    0
   3   3   -562.58597

BLOCK MSOFT Q=  1613.8686
   1   -846.51391
   2    815.77814
   3    3000
   21    19289328
   22   -151649.61
   31    842.97162
   32    842.97162
   33    1211.9087
   34    1429.1913
   35    1429.1913
   36    1833.2936
   41    5000
   42    5000
   43    1832.6509
   44    5000
   45    5000
   46    1550.4994
   47    5000
   48    5000
   49    848.87588

BLOCK MASS
   6    173.2
   23    91.1876
   24    80.429995
   15    1.777
   25    125.54934
   35    4404.4914
   36    4413.5657
   37    4406.1155
   1000001    5035.0348
   2000001    5024.4315
   1000002    5034.6035
   2000002    5027.6786
   1000003    5035.0426
   2000003    5024.4428
   1000004    5034.6102
   2000004    5027.6792
   1000005    947.47999
   2000005    1814.6518
   1000006    1367.2459
   2000006    1904.977
   1000011    860.05179
   2000011    1426.7541
   1000012    856.09438
   1000013    860.08678
   2000013    1426.7944
   1000014    856.13468
   1000015    1229.7523
   2000015    1839.1059
   1000016    1227.3818
   1000021    3202.2014
   1000022    488.97081
   1000023   -494.63849
   1000025   -848.35401
   1000035    864.87715
   1000024    490.02755
   1000037    865.04349

BLOCK ALPHA
      -0.02084426

BLOCK HMIX Q=  1613.8686
   1   -491.73776
   2    48.484107
   3    243.88719
   4    19479562

BLOCK STOPMIX
   1   1   -0.43096539
   1   2    0.90236846
   2   1   -0.90236846
   2   2   -0.43096539

BLOCK SBOTMIX
   1   1   -0.029545621
   1   2    0.99956343
   2   1   -0.99956343
   2   2   -0.029545621

BLOCK STAUMIX
   1   1   -0.99978034
   1   2    0.020958964
   2   1   -0.020958964
   2   2   -0.99978034

BLOCK NMIX
   1   1   -0.022633603
   1   2   -0.14727215
   1   3   -0.70436913
   1   4   -0.69401928
   2   1    0.091406149
   2   2    0.042611277
   2   3   -0.70426154
   2   4    0.70274098
   3   1   -0.99555021
   3   2    0.0037625557
   3   3   -0.04838445
   3   4    0.08077482
   4   1    0.0035241073
   4   2   -0.98817055
   4   3    0.074422807
   4   4    0.13404399

BLOCK UMIX
   1   1   -0.10553166
   1   2   -0.99441594
   2   1    0.99441594
   2   2   -0.10553166

BLOCK VMIX
   1   1   -0.19003023
   1   2    0.98177824
   2   1    0.98177824
   2   2    0.19003023

BLOCK HIGGSBOUNDSINPUTHIGGSCOUPLINGSFERMIONS
       0, 2350.7087,3,36,15,15

BLOCK HIGGSBOUNDSINPUTHIGGSCOUPLINGSBOSONS
       0,4,36,21,21,23

BLOCK SPHENOLOWENERGY
   1    0.00027037891
   2    1.599359e-06
   3    3.5212974e-05
   4    3.87327e-15
   5    1.6545453e-10
   6    3.4217698e-08
   7    1.3334255e-13
   8    5.6961392e-09
   9    1.1933908e-06
   10    9.6361731e-05
   11    0.99537979
   12    0.54223672
   13    19.379399
   14    0
   15    0
   16    0.0021580443
   17    2.2816663e-15
   18    2.4786993e-11
   19    8.286601e-11
   20   -1.0753459e-14
   21   -4.5975486e-10
   22   -1.1615567e-07
   23    0
   24    0
   25    0
   26    0
   27    0
   28    0
   29    0
   30    0
   31    0
   39    8.0574168e-05
   40    0
   41    0
   42    0

BLOCK FWCOEF Q=  160
   305   4422   0   0   -0.18881911
   305   4422   0   2   -0.12591468
   305   4322   0   2    0.00034316053
   305   6421   0   0   -0.095227835
   305   6421   0   2   -0.064390799
   305   6321   0   2    0.00011391921
   3051111   4133   0   0    1.5952092
   3051111   4133   0   2    1.5959475
   3051111   4233   0   2    0.00041501588
   3051111   4137   0   0   -4.4179013
   3051111   4137   0   2   -4.4124091
   3051111   4237   0   2   -0.003213707
   3051313   4133   0   0    1.5952092
   3051313   4133   0   2    1.5959405
   3051313   4233   0   2    0.00041501378
   3051313   4137   0   0   -4.4179013
   3051313   4137   0   2   -4.4124161
   3051313   4237   0   2   -0.0032137138
   3051212   4137   0   0    1.5053501
   3051212   4137   0   2    1.5041703
   3051212   4237   0   2    0.00069987497
   3051414   4137   0   0    1.5053501
   3051414   4137   0   2    1.5041703
   3051414   4237   0   2    0.00069987501
   3051616   4137   0   0    1.5053501
   3051616   4137   0   2    1.5041702
   3051616   4237   0   2    0.00069988475

BLOCK IMFWCOEF Q=  160
   305   4422   0   0    3.858985e-07
   305   4422   0   2   -3.8821694e-05
   305   4322   0   2    7.2695406e-06
   305   6421   0   0    3.3054759e-07
   305   6421   0   2    1.0252647e-05
   305   6321   0   2    3.5843378e-06
   3051111   4133   0   2   -2.4915908e-06
   3051111   4233   0   2    7.9630481e-06
   3051111   4137   0   2    1.8580521e-05
   3051111   4237   0   2   -6.1668923e-05
   3051313   4133   0   2   -2.4916626e-06
   3051313   4233   0   2    7.9630146e-06
   3051313   4137   0   2    1.858076e-05
   3051313   4237   0   2   -6.1669048e-05
   3051212   4137   0   2   -3.7395254e-06
   3051212   4237   0   2    1.3430142e-05
   3051414   4137   0   2   -3.739525e-06
   3051414   4237   0   2    1.3430142e-05
   3051616   4137   0   2   -3.7411606e-06
   3051616   4237   0   2    1.3430141e-05

DECAY 23  2.4952


DECAY 24  2.085


DECAY 1000011  0.09744034
    0.45190261   2    1000022    11
    0.39469809   2   -1000024    12
    0.14549103   2    1000023    11
    0.0079082518   2    1000025    11

DECAY 2000011  3.0184936
    0.98368031   2    1000025    11
    0.015360012   2    1000023    11
    0.00094771855   2    1000022    11

DECAY 1000013  0.10414179
    0.45537248   2    1000022    13
    0.36934347   2   -1000024    14
    0.16784025   2    1000023    13
    0.0074437862   2    1000025    13

DECAY 2000013  3.057843
    0.97111654   2    1000025    13
    0.018261209   2    1000023    13
    0.0062068855   2   -1000024    14
    0.0040530241   2    1000022    13
    0.00029687828   2    1000013    25

DECAY 1000015  8.9566649
    0.30388806   2   -1000037    16
    0.24896667   2    1000022    15
    0.2375707   2    1000023    15
    0.15042954   2    1000035    15
    0.046613538   2    1000025    15
    0.012531481   2   -1000024    16

DECAY 2000015  21.823806
    0.3494932   2   -1000024    16
    0.2608243   2    1000025    15
    0.17891855   2    1000023    15
    0.17542677   2    1000022    15
    0.014142888   2    1000016   -24
    0.0075791934   2    1000015    25
    0.0069461498   2    1000015    23
    0.0044527779   2   -1000037    16
    0.0022161703   2    1000035    15

DECAY 1000012  0.15470222
    0.79525636   2    1000024    11
    0.20206124   2    1000022    12
    0.0022642479   2    1000025    12
    0.00041815828   2    1000023    12

DECAY 1000014  0.16135715
    0.80365141   2    1000024    13
    0.19375431   2    1000022    14
    0.0021933148   2    1000025    14
    0.00040096868   2    1000023    14

DECAY 1000016  8.9610944
    0.49916652   2    1000024    15
    0.29605989   2    1000037    15
    0.1497884   2    1000035    16
    0.047171563   2    1000025    16
    0.0077972692   2    1000022    16

DECAY 2000001  142.49458
    0.98141338   2    1000021    1
    0.018414273   2    1000025    1
    0.00016153075   2    1000023    1

DECAY 1000001  204.26947
    0.69001508   2    1000021    1
    0.20208974   2   -1000037    2
    0.099908752   2    1000035    1
    0.0033570211   2    1000025    1
    0.0023709988   2   -1000024    2
    0.0021844509   2    1000022    1

DECAY 2000003  142.54287
    0.98108912   2    1000021    3
    0.018408451   2    1000025    3
    0.00024345112   2    1000023    3
    0.0001639455   2   -1000024    4

DECAY 1000003  204.29577
    0.68993018   2    1000021    3
    0.20206439   2   -1000037    4
    0.099896667   2    1000035    3
    0.0033568541   2    1000025    3
    0.002379097   2   -1000024    4
    0.0022415424   2    1000022    3
    0.0001312626   2    1000023    3

DECAY 1000005  12.277665
    0.46220503   2   -1000024    6
    0.27100851   2    1000022    5
    0.26499029   2    1000023    5
    0.0017035681   2    1000025    5

DECAY 2000005  125.00916
    0.46376484   2    1000006   -24
    0.23942394   2   -1000024    6
    0.08494251   2   -1000037    6
    0.081512   2    1000022    5
    0.080580358   2    1000023    5
    0.038164043   2    1000035    5
    0.0053594108   2    1000005    23
    0.0046008467   2    1000005    25
    0.0016520535   2    1000025    5

DECAY 2000002  150.78487
    0.92969394   2    1000021    2
    0.069657619   2    1000025    2
    0.0006101468   2    1000023    2

DECAY 1000002  204.26637
    0.68980585   2    1000021    2
    0.19696987   2    1000037    1
    0.099647217   2    1000035    2
    0.0076877119   2    1000024    1
    0.0030835018   2    1000025    2
    0.0024368698   2    1000022    2
    0.00036898154   2    1000023    2

DECAY 2000004  150.78843
    0.92967201   2    1000021    4
    0.069656034   2    1000025    4
    0.00061596977   2    1000023    4

DECAY 1000004  204.29248
    0.68972078   2    1000021    4
    0.1969462   2    1000037    3
    0.099634787   2    1000035    4
    0.0078010706   2    1000024    3
    0.003083169   2    1000025    4
    0.0024407556   2    1000022    4
    0.00037324024   2    1000023    4

DECAY 1000006  41.75548
    0.41059512   2    1000024    5
    0.26145016   2    1000023    6
    0.23744326   2    1000022    6
    0.048803272   2    1000037    5
    0.025247093   2    1000035    6
    0.015167437   2    1000025    6
    0.00089485238   2    1000005    24
    0.0002218485   2    1000022    4
    0.00014357815   3    1000022    24    5

DECAY 2000006  133.35217
    0.29069011   2    1000006    23
    0.20424811   2    1000024    5
    0.16793529   2    1000006    25
    0.12405529   2    1000022    6
    0.11753333   2    1000023    6
    0.046941784   2    1000037    5
    0.026896701   2    1000035    6
    0.010563075   2    1000005    24
    0.0089915747   2    1000025    6
    0.0021447389   2    2000005    24

DECAY 1000024  1.3103477e-12
    0.67940262   2    1000022    211
    0.16423558   3    1000022   -11    12
    0.1563618   3    1000022   -13    14

DECAY 1000037  6.0573443
    0.27487451   2    1000023    24
    0.24839921   2    1000022    24
    0.24268676   2    1000024    23
    0.23073082   2    1000024    25
    0.0013777322   3    1000023   -5    6
    0.0011888201   3    1000022   -5    6
    0.00025669919   2    1000012   -11
    0.00025442188   2    1000014   -13

DECAY 1000022 -1


DECAY 1000023  6.8182975e-08
    0.57337611   2    1000022    22
    0.057924644   3    1000022    12   -12
    0.043315719   3    1000022    1   -1
    0.043174184   3    1000022    3   -3
    0.041642397   3    1000024    1   -2
    0.041642397   3   -1000024   -1    2
    0.033782606   3    1000022    2   -2
    0.028909257   3    1000024    3   -4
    0.028909257   3   -1000024   -3    4
    0.016850936   3    1000022    4   -4
    0.013878843   3    1000024    11   -12
    0.013878843   3   -1000024   -11    12
    0.013842627   3    1000024    13   -14
    0.013842627   3   -1000024   -13    14
    0.0097708772   3    1000022    11   -11
    0.0097212307   3    1000022    13   -13
    0.0068195645   3    1000024    15   -16
    0.0068195645   3   -1000024   -15    16
    0.001898309   3    1000022    15   -15

DECAY 1000025  2.5384379
    0.22324948   2    1000024   -24
    0.22324948   2   -1000024    24
    0.21467044   2    1000022    23
    0.16523169   2    1000023    25
    0.15855584   2    1000022    25
    0.013167047   2    1000023    23
    0.00088700914   3    1000024    5   -6
    0.00088700914   3   -1000024   -5    6

DECAY 1000035  7.4916776
    0.20769772   2    1000023    23
    0.20316298   2    1000024   -24
    0.20316298   2   -1000024    24
    0.19831038   2    1000023    25
    0.16883517   2    1000022    25
    0.016430708   2    1000022    23
    0.00091591542   3    1000024    5   -6
    0.00091591542   3   -1000024   -5    6
    0.00010168509   2    1000012   -12
    0.00010168509   2   -1000012    12
    0.00010075901   2    1000014   -14
    0.00010075901   2   -1000014    14

DECAY 1000021  232.27479
    0.16990346   2    1000005   -5
    0.16990346   2   -1000005    5
    0.15016796   2    1000006   -6
    0.15016796   2   -1000006    6
    0.094009953   2    2000005   -5
    0.094009953   2   -2000005    5
    0.073758711   2    2000006   -6
    0.073758711   2   -2000006    6
    0.012061151   2    1000006   -4
    0.012061151   2   -1000006    4

DECAY 25  0.0039384837
    0.56457559   2   -5    5
    0.23837426   2   -24    24
    0.070540755   2    21    21
    0.065028354   2   -15    15
    0.029170077   2    23    23
    0.027958733   2   -4    4
    0.0023646664   2    22    22
    0.0015490964   2    22    23
    0.0002254628   2   -13    13
    0.0002122692   2   -3    3
    5.8690212e-07   2   -1    1
    1.4407625e-07   2   -2    2
    5.0686457e-09   2   -11    11

DECAY 35  292.01338
    0.72978368   2   -5    5
    0.061795943   2   -15    15
    0.052694167   2   -1000024    1000037
    0.052694167   2   -1000037    1000024
    0.027010967   2    1000023    1000025
    0.025918638   2    1000022    1000025
    0.0093386685   2   -2000005    1000005
    0.0093386685   2   -1000005    2000005
    0.008363121   2    1000022    1000035
    0.0072781247   2    1000023    1000035
    0.005006141   2   -1000024    1000024
    0.0014742524   2   -1000037    1000037
    0.0014709139   2   -1000006    1000006
    0.0013603754   2    1000022    1000022
    0.0010087731   2   -2000006    2000006
    0.00091832571   2   -2000006    1000006
    0.00091832571   2   -1000006    2000006
    0.00074254824   2    1000025    1000025
    0.0006804488   2    1000022    1000023
    0.00047143532   2    1000025    1000035
    0.00042029929   2   -2000015    1000015
    0.00042029929   2   -1000015    2000015
    0.00041137823   2   -6    6
    0.00020185398   2   -13    13
    0.00014832634   2   -3    3
    5.4511654e-05   2    1000035    1000035
    4.8459425e-05   2   -1000005    1000005
    1.8271107e-05   2   -2000005    2000005
    5.2721405e-06   2    21    21
    1.1275384e-06   2    25    25
    1.0209412e-06   2   -1000015    1000015
    5.279326e-07   2   -2000015    2000015
    4.1001727e-07   2   -1    1
    3.3848564e-07   2    1000023    1000023
    4.8489841e-08   2    23    23
    3.566379e-08   2    22    23
    1.2364129e-08   2    22    22
    9.1821594e-09   2   -24    24
    8.3736468e-09   2   -1000011    1000011
    8.2633558e-09   2   -1000013    1000013
    4.5330265e-09   2   -11    11
    4.4914505e-09   2   -4    4
    4.4617102e-09   2   -2000011    2000011
    4.4111243e-09   2   -2000013    2000013
    5.6751193e-10   2   -2000013    1000013
    5.6751193e-10   2   -1000013    2000013
    2.3149869e-14   2   -2    2
    1.3274349e-14   2   -2000011    1000011
    1.3274349e-14   2   -1000011    2000011

DECAY 36  258.49069
    0.70446514   2   -5    5
    0.059665471   2   -1000024    1000037
    0.059665471   2   -1000037    1000024
    0.059611034   2   -15    15
    0.03045019   2    1000023    1000025
    0.029522332   2    1000022    1000025
    0.010580814   2   -2000005    1000005
    0.010580814   2   -1000005    2000005
    0.0098073255   2    1000023    1000035
    0.0079515323   2    1000022    1000035
    0.005679215   2   -1000024    1000024
    0.002500423   2   -2000006    1000006
    0.002500423   2   -1000006    2000006
    0.0016804725   2   -1000037    1000037
    0.0014909002   2    1000022    1000022
    0.00084817556   2    1000025    1000025
    0.00079432175   2    1000022    1000023
    0.00047558975   2   -2000015    1000015
    0.00047558975   2   -1000015    2000015
    0.00045577613   2    1000025    1000035
    0.00036847723   2   -6    6
    0.00019469932   2   -13    13
    0.0001430867   2   -3    3
    8.3494668e-05   2    1000035    1000035
    8.2506673e-06   2    21    21
    4.3834732e-07   2    1000023    1000023
    3.9553806e-07   2   -1    1
    1.2978662e-07   2    23    25
    5.4807748e-09   2    22    23
    4.3722818e-09   2   -11    11
    3.9800891e-09   2   -4    4
    6.364595e-10   2   -2000013    1000013
    6.364595e-10   2   -1000013    2000013
    4.7188185e-10   2    22    22
    2.6230127e-10   2    23    35
    2.0514192e-14   2   -2    2
    1.4886853e-14   2   -2000011    1000011
    1.4886853e-14   2   -1000011    2000011
    5.2386601e-38   2    25    25

DECAY 37  295.26272
    0.72469399   2   -5    6
    0.068894584   2   -15    16
    0.056295092   2    1000022    1000037
    0.054261257   2    1000024    1000025
    0.052720754   2    1000023    1000037
    0.014819356   2    1000024    1000035
    0.013933145   2   -1000005    2000006
    0.0058213353   2   -1000005    1000006
    0.0025702188   2    1000023    1000024
    0.0022782603   2   -2000005    1000006
    0.0010752435   2   -5    4
    0.00086138029   2    1000035    1000037
    0.00083302194   2   -2000015    1000016
    0.000384761   2   -2000005    2000006
    0.00024356686   2   -13    14
    0.00016694654   2    1000022    1000024
    0.00013171047   2   -3    4
    7.6783471e-06   2   -5    2
    6.1951084e-06   2   -3    2
    5.4631009e-07   2   -3    6
    3.6528654e-07   2   -1    2
    3.6059629e-07   2   -1000015    1000016
    1.1307961e-07   2    24    25
    3.2514004e-08   2   -1000011    1000012
    3.2360789e-08   2   -1000013    1000014
    1.7277673e-08   2   -1    4
    1.6041882e-08   2   -1    6
    1.0755224e-08   2    1000025    1000037
    5.6970542e-09   2   -11    12
    1.1378198e-09   2   -2000013    1000014
    5.2107947e-14   2    24    35
    2.6614848e-14   2   -2000011    1000012

DECAY 6  2.43
    1   2    5    24

DECAY 15 -1
