BLOCK SPINFO
   1   SPheno
   2   v4.0.5be

BLOCK SPHENOINFO
   1   2
   2   2

BLOCK MODSEL
   1   0

BLOCK MINPAR
   3    37.014836
   4   -1

BLOCK EXTPAR
   0    3812.7675
   1    3629.1665
   2    2515.0342
   3    1874.3199
   11    6438.5986
   12   -3583.768
   13   -3064.752
   23   -238.89446
   25    35.87472
   26    4181.3937
   31    2578.9465
   32    2578.9465
   33    3370.318
   34    1258.4588
   35    1258.4588
   36    540.25648
   41    4288.0298
   42    4288.0298
   43    4918.3638
   44    4978.6559
   45    4978.6559
   46    2983.7443
   47    3335.27
   48    3335.27
   49    4392.0936

BLOCK SMINPUTS
   1    127.90897
   2    1.1663787e-05
   3    0.1184
   4    91.1876
   5    4.18
   6    173.2
   7    1.777
   8    0
   11    0.00051099893
   12    0
   13    0.10565837
   14    0
   21    0.005
   22    0.0025
   23    0.095
   24    1.27

BLOCK GAUGE Q=  3812.7675
   1    0.35536298
   2    0.66519887
   3    1.219778

BLOCK YU Q=  3812.7675
   1   1    8.3876288e-06
   2   2    0.0042609154
   3   3    1.0132929

BLOCK YD Q=  3812.7675
   1   1    0.00060465545
   2   2    0.011488454
   3   3    0.59962873

BLOCK YE Q=  3812.7675
   1   1    0.0001055168
   2   2    0.021817527
   3   3    0.36693491

BLOCK AU Q=  3812.7675
   1   1    0
   2   2    0
   3   3    6438.5986

BLOCK AD Q=  3812.7675
   1   1    0
   2   2    0
   3   3   -3583.768

BLOCK AE Q=  3812.7675
   1   1    0
   2   2    0
   3   3   -3064.752

BLOCK MSOFT Q=  3812.7675
   1    3629.1665
   2    2515.0342
   3    1874.3199
   21    17591168
   22    81847.565
   31    2578.9465
   32    2578.9465
   33    3370.318
   34    1258.4588
   35    1258.4588
   36    540.25648
   41    4288.0298
   42    4288.0298
   43    4918.3638
   44    4978.6559
   45    4978.6559
   46    2983.7443
   47    3335.27
   48    3335.27
   49    4392.0936

BLOCK MASS
   6    173.2
   23    91.1876
   24    80.429995
   15    1.777
   25    126.2066
   35    4180.0316
   36    4181.3937
   37    4181.0237
   1000001    4366.3671
   2000001    3403.5202
   1000002    4365.7328
   2000002    5039.6328
   1000003    4366.3625
   2000003    3403.5112
   1000004    4365.7282
   2000004    5039.6321
   1000005    4433.1977
   2000005    4913.2551
   1000006    2954.773
   2000006    4919.903
   1000011    2607.399
   2000011    1294.428
   1000012    2605.7645
   1000013    2607.3767
   2000013    1294.3514
   1000014    2605.7421
   1000015    569.03545
   2000015    3384.6166
   1000016    3383.2799
   1000021    2207.6537
   1000022    247.67194
   1000023   -250.53394
   1000025    2583.4047
   1000035    3579.7292
   1000024    249.77294
   1000037    2583.1822

BLOCK ALPHA
      -0.02704443

BLOCK HMIX Q=  3812.7675
   1   -238.89446
   2    35.87472
   3    242.963
   4    17484053

BLOCK STOPMIX
   1   1   -0.055523685
   1   2    0.99845737
   2   1   -0.99845737
   2   2   -0.055523685

BLOCK SBOTMIX
   1   1   -0.00232019
   1   2    0.99999731
   2   1   -0.99999731
   2   2   -0.00232019

BLOCK STAUMIX
   1   1   -0.00087315172
   1   2    0.99999962
   2   1   -0.99999962
   2   2   -0.00087315172

BLOCK NMIX
   1   1   -0.0091986744
   1   2    0.022959198
   1   3    0.70896919
   1   4    0.70480561
   2   1   -0.0084944811
   2   2    0.020235904
   2   3   -0.7052364
   2   4    0.70863247
   3   1    0.00145755
   3   2    0.99953101
   3   3   -0.0020066356
   3   4   -0.030522429
   4   1    0.99992055
   4   2   -0.0010738641
   4   3    0.00053392674
   4   4    0.012548227

BLOCK UMIX
   1   1   -0.0028444816
   1   2   -0.99999595
   2   1    0.99999595
   2   2   -0.0028444816

BLOCK VMIX
   1   1   -0.043218506
   1   2    0.99906564
   2   1    0.99906564
   2   2    0.043218506

BLOCK HIGGSBOUNDSINPUTHIGGSCOUPLINGSFERMIONS
       0, 1286.9955,3,36,15,15

BLOCK HIGGSBOUNDSINPUTHIGGSCOUPLINGSBOSONS
       0,4,36,21,21,23

BLOCK SPHENOLOWENERGY
   1    0.00031209509
   2    1.5910645e-06
   3    3.524471e-05
   4    3.4576161e-15
   5    1.4770385e-10
   6    3.0826986e-08
   7    1.1742967e-13
   8    5.0165371e-09
   9    1.0607947e-06
   10    9.6379315e-05
   11    0.99556142
   12    0.54215839
   13    19.370117
   14    0
   15    0
   16    0.0021580686
   17    2.2816664e-15
   18    2.479858e-11
   19    8.2892871e-11
   20   -1.5858379e-15
   21   -6.77989e-11
   22   -1.3021811e-08
   23    0
   24    0
   25    0
   26    0
   27    0
   28    0
   29    0
   30    0
   31    0
   39    6.3792342e-05
   40    0
   41    0
   42    0

BLOCK FWCOEF Q=  160
   305   4422   0   0   -0.18881911
   305   4422   0   2   -0.17878104
   305   4322   0   2    0.00023778494
   305   6421   0   0   -0.095227835
   305   6421   0   2   -0.091847992
   305   6321   0   2    9.1747094e-05
   3051111   4133   0   0    1.6252219
   3051111   4133   0   2    1.6254411
   3051111   4233   0   2    0.00024431556
   3051111   4137   0   0   -4.447914
   3051111   4137   0   2   -4.4455268
   3051111   4237   0   2   -0.0018124403
   3051313   4133   0   0    1.6252219
   3051313   4133   0   2    1.6254399
   3051313   4233   0   2    0.00024431519
   3051313   4137   0   0   -4.447914
   3051313   4137   0   2   -4.445528
   3051313   4237   0   2   -0.001812441
   3051212   4137   0   0    1.5053501
   3051212   4137   0   2    1.5048357
   3051212   4237   0   2    0.00039204665
   3051414   4137   0   0    1.5053501
   3051414   4137   0   2    1.5048357
   3051414   4237   0   2    0.00039204666
   3051616   4137   0   0    1.5053501
   3051616   4137   0   2    1.5048358
   3051616   4237   0   2    0.00039205067

BLOCK IMFWCOEF Q=  160
   305   4422   0   0    3.8583098e-07
   305   4422   0   2   -1.049848e-05
   305   4322   0   2    5.5524194e-06
   305   6421   0   0    3.3048975e-07
   305   6421   0   2    1.4034741e-05
   305   6321   0   2    3.4131832e-06
   3051111   4133   0   2   -1.6849944e-06
   3051111   4233   0   2    4.7260458e-06
   3051111   4137   0   2    1.3408094e-05
   3051111   4237   0   2   -3.506036e-05
   3051313   4133   0   2   -1.6849871e-06
   3051313   4233   0   2    4.7260405e-06
   3051313   4137   0   2    1.3408107e-05
   3051313   4237   0   2   -3.5060374e-05
   3051212   4137   0   2   -2.8655155e-06
   3051212   4237   0   2    7.5838623e-06
   3051414   4137   0   2   -2.8655157e-06
   3051414   4237   0   2    7.5838623e-06
   3051616   4137   0   2   -2.8640003e-06
   3051616   4237   0   2    7.5838626e-06

DECAY 23  2.4952


DECAY 24  2.085


DECAY 2000011  0.0009461658
    0.53998756   2    1000022    11
    0.45973147   2    1000023    11
    0.0002809768   2   -1000024    12

DECAY 1000011  0.018329672
    0.42807242   2   -1000037    12
    0.21027197   2    1000025    11
    0.20023247   2    1000022    11
    0.15147541   2    1000023    11
    0.0099476458   2   -1000024    12

DECAY 2000013  0.023677424
    0.48000023   2   -1000024    14
    0.26307417   2    1000022    13
    0.2569256   2    1000023    13

DECAY 1000013  0.042628095
    0.37200411   2    1000022    13
    0.34791949   2    1000023    13
    0.18373057   2   -1000037    14
    0.090247153   2    1000025    13
    0.0042773542   2   -1000024    14
    0.0018213175   2    2000013    25

DECAY 1000015  1.9921782
    0.49973095   2   -1000024    16
    0.25278984   2    1000022    15
    0.24747922   2    1000023    15

DECAY 2000015  16.785931
    0.3094004   2   -1000037    16
    0.26883712   2    1000022    15
    0.26592636   2    1000023    15
    0.15472185   2    1000025    15
    0.00055605013   2    1000015    25
    0.00054841773   2    1000015    23

DECAY 1000012  0.067885969
    0.61965746   2    1000024    11
    0.12890006   2    1000022    12
    0.10178627   2    1000023    12
    0.10044496   2    1000037    11
    0.049211249   2    1000025    12

DECAY 1000014  0.092091611
    0.71984735   2    1000024    13
    0.09501873   2    1000022    14
    0.075031784   2    1000023    14
    0.073897592   2    1000037    13
    0.036204548   2    1000025    14

DECAY 1000016  16.811077
    0.53651758   2    1000024    15
    0.30755922   2    1000037    15
    0.15361022   2    1000025    16
    0.0010943979   2    1000015    24
    0.00068085671   2    1000022    16
    0.00053772781   2    1000023    16

DECAY 2000001  90.146735
    0.99999618   2    1000021    1

DECAY 1000001  215.39747
    0.88656632   2    1000021    1
    0.075393571   2   -1000037    2
    0.037635201   2    1000025    1
    0.00030775962   2    1000035    1

DECAY 2000003  90.163432
    0.99980061   2    1000021    3

DECAY 1000003  215.40984
    0.8865132   2    1000021    3
    0.075388986   2   -1000037    4
    0.037632914   2    1000025    3
    0.00030773896   2    1000035    3

DECAY 1000005  261.11575
    0.75786515   2    1000021    5
    0.12030519   2   -1000024    6
    0.060671691   2    1000022    5
    0.060009815   2    1000023    5
    0.0011474937   2    1000035    5

DECAY 2000005  480.21322
    0.51441997   2    1000021    5
    0.20701153   2   -1000024    6
    0.13439036   2    1000006   -24
    0.047452914   2   -1000037    6
    0.036621462   2    1000022    5
    0.036236664   2    1000023    5
    0.023540804   2    1000025    5
    0.00031809013   2    1000035    5

DECAY 1000002  215.36283
    0.88640317   2    1000021    2
    0.075230979   2    1000037    1
    0.037663106   2    1000025    2
    0.00033129586   2    1000024    1
    0.00030007088   2    1000035    2

DECAY 2000002  262.53739
    0.9894721   2    1000021    2
    0.010521162   2    1000035    2

DECAY 1000004  215.37513
    0.88635004   2    1000021    4
    0.075226436   2    1000037    3
    0.037660829   2    1000025    4
    0.00038400978   2    1000024    3
    0.0003000498   2    1000035    4

DECAY 2000004  262.54087
    0.98945846   2    1000021    4
    0.010521011   2    1000035    4

DECAY 1000006  161.01729
    0.36693417   2    1000024    5
    0.26662938   2    1000021    6
    0.18410769   2    1000023    6
    0.18213541   2    1000022    6
    0.00013182931   2    1000037    5

DECAY 2000006  503.86002
    0.4918514   2    1000021    6
    0.10778855   2    1000006    25
    0.099537514   2    1000023    6
    0.098503372   2    1000022    6
    0.070668366   2    1000024    5
    0.064350741   2    1000006    23
    0.044545532   2    1000037    5
    0.022444032   2    1000025    6
    0.00030498444   2    1000035    6

DECAY 1000024  6.9724982e-12
    0.59914292   3    1000022   -1    2
    0.19972744   3    1000022   -11    12
    0.19518694   3    1000022   -13    14
    0.0059427067   3    1000022   -3    4

DECAY 1000037  22.583559
    0.24742829   2    1000024    25
    0.23778082   2    1000023    24
    0.23635238   2    1000024    23
    0.23518896   2    1000022    24
    0.018319715   3    1000024    6   -6
    0.012571318   3    1000023   -5    6
    0.012147882   3    1000022   -5    6
    0.00013151948   3    1000024    5   -5

DECAY 1000022 -1


DECAY 1000023  3.1986164e-09
    0.89309009   2    1000022    22
    0.030591563   3    1000022    12   -12
    0.02287488   3    1000022    1   -1
    0.022545881   3    1000022    3   -3
    0.017841064   3    1000022    2   -2
    0.0051624149   3    1000022    11   -11
    0.0050459627   3    1000022    13   -13
    0.00084432995   3    1000024    1   -2
    0.00084432995   3   -1000024   -1    2
    0.00028147737   3    1000024    11   -12
    0.00028147737   3   -1000024   -11    12
    0.00026982096   3    1000024    13   -14
    0.00026982096   3   -1000024   -13    14

DECAY 1000025  23.69092
    0.22634446   2    1000024   -24
    0.22634446   2   -1000024    24
    0.15000673   2    1000023    25
    0.13287931   2    1000022    25
    0.12790416   2    1000023    23
    0.097266901   2    1000022    23
    0.011132656   3    1000024    5   -6
    0.011132656   3   -1000024   -5    6
    0.0085058784   3    1000023    6   -6
    0.0082847555   3    1000022    6   -6

DECAY 1000035  61.094007
    0.13983874   2    1000015   -15
    0.13983874   2   -1000015    15
    0.11121357   2    2000013   -13
    0.11121357   2   -2000013    13
    0.11120961   2    2000011   -11
    0.11120961   2   -2000011    11
    0.039221692   2    1000024   -24
    0.039221692   2   -1000024    24
    0.022182768   2    1000023    25
    0.021629671   2    1000023    23
    0.019659655   2    1000022    25
    0.019036434   2    1000006   -6
    0.019036434   2   -1000006    6
    0.018049383   2    1000022    23
    0.0081656871   2    1000014   -14
    0.0081656871   2   -1000014    14
    0.0081653714   2    1000012   -12
    0.0081653714   2   -1000012    12
    0.0080773903   2    1000013   -13
    0.0080773903   2   -1000013    13
    0.0080770775   2    1000011   -11
    0.0080770775   2   -1000011    11
    0.0022994229   3    1000024    5   -6
    0.0022994229   3   -1000024   -5    6
    0.0018808294   3    1000023    6   -6
    0.0018362112   3    1000022    6   -6
    0.00045242821   2    2000003   -3
    0.00045242821   2   -2000003    3
    0.000452383   2    2000001   -1
    0.000452383   2   -2000001    1
    0.00042095501   2    1000016   -16
    0.00042095501   2   -1000016    16
    0.00041204452   2    2000015   -15
    0.00041204452   2   -2000015    15
    0.00018260121   2    1000037   -24
    0.00018260121   2   -1000037    24
    0.00015076605   2    1000025    25

DECAY 1000021  0.050988288
    0.2483444   3    1000024    5   -6
    0.2483444   3   -1000024   -5    6
    0.22673015   3    1000023    6   -6
    0.22452442   3    1000022    6   -6
    0.020747476   3    1000022    5   -5
    0.020477328   3    1000023    5   -5
    0.0054864871   2    1000022    21
    0.0051218904   2    1000023    21

DECAY 25  0.004038674
    0.55313033   2   -5    5
    0.24885089   2   -24    24
    0.071664468   2    21    21
    0.06374891   2   -15    15
    0.03084272   2    23    23
    0.027391376   2   -4    4
    0.0023417842   2    22    22
    0.0015999562   2    22    23
    0.0002210926   2   -13    13
    0.00020775799   2   -3    3
    5.7442899e-07   2   -1    1
    1.411506e-07   2   -2    2
    4.9703926e-09   2   -11    11

DECAY 35  95.090153
    0.64583041   2   -5    5
    0.11780002   2   -15    15
    0.071307947   2   -1000024    1000037
    0.071307947   2   -1000037    1000024
    0.037368111   2    1000023    1000025
    0.033917707   2    1000022    1000025
    0.0084235548   2   -2000015    1000015
    0.0084235548   2   -1000015    2000015
    0.0018424126   2    1000023    1000035
    0.0012503224   2   -6    6
    0.00087762876   2    1000022    1000035
    0.00073024728   2   -1000024    1000024
    0.0004070231   2   -13    13
    0.00024321366   2   -3    3
    0.00015549277   2    1000022    1000022
    0.00010831108   2    1000023    1000023
    3.9576036e-06   2    21    21
    8.522225e-07   2    25    25
    6.7238083e-07   2   -1    1
    2.3309059e-07   2    1000022    1000023
    1.3732257e-07   2    23    23
    1.2826596e-07   2   -1000015    1000015
    2.7573679e-08   2   -24    24
    2.5503337e-08   2   -1000011    1000011
    2.529093e-08   2   -1000013    1000013
    1.6758281e-08   2   -4    4
    1.0291727e-08   2    22    23
    9.1404745e-09   2   -11    11
    7.6151708e-09   2    22    22
    1.9099283e-10   2   -2000013    1000013
    1.9099283e-10   2   -1000013    2000013
    8.6381619e-14   2   -2    2
    4.4673426e-15   2   -2000011    1000011
    4.4673426e-15   2   -1000011    2000011

DECAY 36  90.719239
    0.63608094   2   -5    5
    0.1160236   2   -15    15
    0.074823844   2   -1000024    1000037
    0.074823844   2   -1000037    1000024
    0.039697154   2    1000022    1000025
    0.035104578   2    1000023    1000025
    0.0088492807   2   -2000015    1000015
    0.0088492807   2   -1000015    2000015
    0.0019645406   2    1000022    1000035
    0.0011800605   2   -6    6
    0.00090368445   2    1000023    1000035
    0.00077012815   2   -1000024    1000024
    0.00040088465   2   -13    13
    0.00023953799   2   -3    3
    0.00014834869   2    1000022    1000022
    0.00012831852   2    1000023    1000023
    9.040062e-06   2    21    21
    1.9177424e-06   2    1000022    1000023
    6.6221636e-07   2   -1    1
    3.1902649e-07   2    23    25
    1.5698085e-08   2   -4    4
    9.0026e-09   2   -11    11
    5.3525778e-09   2    22    23
    4.1662795e-09   2    22    22
    2.001141e-10   2   -2000013    1000013
    2.001141e-10   2   -1000013    2000013
    8.0918213e-14   2   -2    2
    5.6777058e-14   2    23    35
    4.6806895e-15   2   -2000011    1000011
    4.6806895e-15   2   -1000011    2000011
    2.0203885e-41   2    25    25

DECAY 37  96.402745
    0.64843639   2   -5    6
    0.11883387   2   -15    16
    0.071017767   2    1000022    1000037
    0.070560091   2    1000024    1000025
    0.070058602   2    1000023    1000037
    0.016678429   2   -1000015    1000016
    0.0026771666   2    1000024    1000035
    0.00096042504   2   -5    4
    0.00042012002   2   -13    14
    0.00021967123   2   -3    4
    6.9928321e-05   2    1000023    1000024
    4.7277821e-05   2    1000022    1000024
    1.0326127e-05   2   -3    2
    6.8584248e-06   2   -5    2
    2.0474236e-06   2   -3    6
    6.0945872e-07   2   -1    2
    3.0023389e-07   2    24    25
    7.8884072e-08   2   -1    6
    2.9285621e-08   2   -1    4
    9.8266508e-09   2   -11    12
    3.7526297e-10   2   -1000013    1000014
    8.7773862e-15   2   -1000011    1000012

DECAY 6  2.43
    1   2    5    24

DECAY 15 -1
