BLOCK SPINFO
   1   SPheno
   2   v4.0.5be

BLOCK SPHENOINFO
   1   2
   2   2

BLOCK MODSEL
   1   0

BLOCK MINPAR
   3    54.49706
   4   -1

BLOCK EXTPAR
   0    1793.6795
   1   -229.54654
   2   -523.22431
   3    3000
   11    2397.0295
   12    950.52062
   13   -743.50063
   23   -294.51541
   25    55.07439
   26    3649.7989
   31    659.14931
   32    659.14931
   33    588.88614
   34    1575.4679
   35    1575.4679
   36    1356.1959
   41    5000
   42    5000
   43    1641.8701
   44    5000
   45    5000
   46    1927.3314
   47    5000
   48    5000
   49    992.20773

BLOCK SMINPUTS
   1    127.90897
   2    1.1663787e-05
   3    0.1184
   4    91.1876
   5    4.18
   6    173.2
   7    1.777
   8    0
   11    0.00051099893
   12    0
   13    0.10565837
   14    0
   21    0.005
   22    0.0025
   23    0.095
   24    1.27

BLOCK GAUGE Q=  1793.6795
   1    0.35536298
   2    0.66519887
   3    1.219778

BLOCK YU Q=  1793.6795
   1   1    8.3857541e-06
   2   2    0.0042599631
   3   3    1.0130664

BLOCK YD Q=  1793.6795
   1   1    0.00092805147
   2   2    0.017632978
   3   3    0.92033625

BLOCK YE Q=  1793.6795
   1   1    0.00016195177
   2   2    0.033486489
   3   3    0.56318766

BLOCK AU Q=  1793.6795
   1   1    0
   2   2    0
   3   3    2397.0295

BLOCK AD Q=  1793.6795
   1   1    0
   2   2    0
   3   3    950.52059

BLOCK AE Q=  1793.6795
   1   1    0
   2   2    0
   3   3   -743.50063

BLOCK MSOFT Q=  1793.6795
   1   -229.54654
   2   -523.22431
   3    3000
   21    13436008
   22   -2528.907
   31    659.14931
   32    659.14931
   33    588.88614
   34    1575.4679
   35    1575.4679
   36    1356.1959
   41    5000
   42    5000
   43    1641.8701
   44    5000
   45    5000
   46    1927.3314
   47    5000
   48    5000
   49    992.20773

BLOCK MASS
   6    173.2
   23    91.1876
   24    80.429995
   15    1.777
   25    122.09175
   35    3641.9848
   36    3649.7989
   37    3643.53
   1000001    5039.4911
   2000001    5028.469
   1000002    5039.0256
   2000002    5030.9593
   1000003    5039.4974
   2000003    5028.479
   1000004    5039.0314
   2000004    5030.9598
   1000005    1031.4705
   2000005    1673.3211
   1000006    1641.4201
   2000006    1960.0626
   1000011    670.65763
   2000011    1574.6058
   1000012    665.50251
   1000013    670.6621
   2000013    1574.6016
   1000014    665.51769
   1000015    604.84104
   2000015    1355.5639
   1000016    602.4213
   1000021    3207.6868
   1000022   -215.1081
   1000023   -291.53875
   1000025    294.15683
   1000035   -567.68248
   1000024    279.97205
   1000037    567.87333

BLOCK ALPHA
      -0.018385189

BLOCK HMIX Q=  1793.6795
   1   -294.51541
   2    55.07439
   3    243.82029
   4    13321032

BLOCK STOPMIX
   1   1   -0.94847229
   1   2    0.31686009
   2   1   -0.31686009
   2   2   -0.94847229

BLOCK SBOTMIX
   1   1   -0.029381883
   1   2    0.99956826
   2   1   -0.99956826
   2   2   -0.029381883

BLOCK STAUMIX
   1   1   -0.99982372
   1   2    0.018775862
   2   1   -0.018775862
   2   2   -0.99982372

BLOCK NMIX
   1   1    0.89378122
   1   2   -0.066205185
   1   3   -0.35412879
   1   4    0.26714192
   2   1    0.4438823
   2   2    0.19905614
   2   3    0.61480824
   2   4   -0.62077047
   3   1    0.058759106
   3   2   -0.066647117
   3   3    0.6973019
   3   4    0.71124931
   4   1    0.025903708
   4   2   -0.97547511
   4   3    0.10185125
   4   4   -0.19340019

BLOCK UMIX
   1   1   -0.1435756
   1   2   -0.98963935
   2   1   -0.98963935
   2   2    0.1435756

BLOCK VMIX
   1   1    0.27309132
   1   2    0.96198811
   2   1    0.96198811
   2   2   -0.27309132

BLOCK HIGGSBOUNDSINPUTHIGGSCOUPLINGSFERMIONS
       0, 3033.1884,3,36,15,15

BLOCK HIGGSBOUNDSINPUTHIGGSCOUPLINGSBOSONS
       0,4,36,21,21,23

BLOCK SPHENOLOWENERGY
   1    0.00030029501
   2    1.5913547e-06
   3    3.5201237e-05
   4    3.0976782e-15
   5    1.323262e-10
   6    2.7527775e-08
   7    1.0640617e-13
   8    4.5455555e-09
   9    9.5774857e-07
   10    9.5769707e-05
   11    0.98926441
   12    0.54247567
   13    19.382175
   14    0
   15    0
   16    0.0021592154
   17    2.2816789e-15
   18    2.476027e-11
   19    8.2811108e-11
   20    2.9821542e-14
   21    1.2755516e-09
   22    4.8247672e-07
   23    0
   24    0
   25    0
   26    0
   27    0
   28    0
   29    0
   30    0
   31    0
   39    0.00010061851
   40    0
   41    0
   42    0

BLOCK FWCOEF Q=  160
   305   4422   0   0   -0.18881911
   305   4422   0   2   -0.16299258
   305   4322   0   2    0.00011385786
   305   6421   0   0   -0.095227835
   305   6421   0   2   -0.088424691
   305   6321   0   2   -3.9511586e-05
   3051111   4133   0   0    1.5992513
   3051111   4133   0   2    1.600303
   3051111   4233   0   2    0.00044247192
   3051111   4137   0   0   -4.4219434
   3051111   4137   0   2   -4.4152667
   3051111   4237   0   2   -0.0034026598
   3051313   4133   0   0    1.5992513
   3051313   4133   0   2    1.6002954
   3051313   4233   0   2    0.00044246789
   3051313   4137   0   0   -4.4219434
   3051313   4137   0   2   -4.4152742
   3051313   4237   0   2   -0.0034026728
   3051212   4137   0   0    1.5053501
   3051212   4137   0   2    1.5039212
   3051212   4237   0   2    0.00074033613
   3051414   4137   0   0    1.5053501
   3051414   4137   0   2    1.5039212
   3051414   4237   0   2    0.00074033624
   3051616   4137   0   0    1.5053501
   3051616   4137   0   2    1.5039211
   3051616   4237   0   2    0.00074036733

BLOCK IMFWCOEF Q=  160
   305   4422   0   0    3.8585043e-07
   305   4422   0   2    2.756421e-05
   305   4322   0   2    3.6673101e-06
   305   6421   0   0    3.3050641e-07
   305   6421   0   2    1.9174741e-05
   305   6321   0   2    1.4220345e-06
   3051111   4133   0   2   -2.6025469e-07
   3051111   4233   0   2    8.8573978e-06
   3051111   4137   0   2    1.6015498e-07
   3051111   4237   0   2   -6.8130247e-05
   3051313   4133   0   2   -2.6066138e-07
   3051313   4233   0   2    8.857338e-06
   3051313   4137   0   2    1.6047908e-07
   3051313   4237   0   2   -6.813049e-05
   3051212   4137   0   2    3.7966862e-07
   3051212   4237   0   2    1.4823515e-05
   3051414   4137   0   2    3.7966909e-07
   3051414   4237   0   2    1.4823515e-05
   3051616   4137   0   2    3.7740845e-07
   3051616   4237   0   2    1.4823508e-05

DECAY 23  2.4952


DECAY 24  2.085


DECAY 1000011  1.539246
    0.30091489   2   -1000037    12
    0.26107067   2    1000022    11
    0.24000306   2    1000023    11
    0.14254743   2    1000035    11
    0.053908999   2   -1000024    12
    0.0015549541   2    1000025    11

DECAY 2000011  7.5699057
    0.80405383   2    1000022    11
    0.19205407   2    1000023    11
    0.0033611511   2    1000025    11
    0.00053084983   2    1000035    11

DECAY 1000013  1.5492961
    0.2989851   2   -1000037    14
    0.26035073   2    1000022    13
    0.24085828   2    1000023    13
    0.14163919   2    1000035    13
    0.053559956   2   -1000024    14
    0.0046067333   2    1000025    13

DECAY 2000013  7.6359965
    0.79764862   2    1000022    13
    0.19201192   2    1000023    13
    0.0054152094   2    1000025    13
    0.0042249804   2   -1000024    14
    0.00056235843   2    1000035    13

DECAY 1000015  3.1457127
    0.36582537   2    1000023    15
    0.34289465   2    1000025    15
    0.23052606   2    1000022    15
    0.026512082   2   -1000024    16
    0.023164065   2   -1000037    16
    0.011077778   2    1000035    15

DECAY 2000015  22.585933
    0.3376407   2   -1000024    16
    0.27190746   2    1000022    15
    0.18441283   2    1000023    15
    0.16887402   2    1000025    15
    0.013404677   2    1000016   -24
    0.0070515971   2   -1000037    16
    0.0066216765   2    1000015    23
    0.0064077037   2    1000015    25
    0.0036793409   2    1000035    15

DECAY 1000012  1.6247633
    0.4273729   2    1000022    12
    0.24665136   2    1000037    11
    0.18214916   2    1000024    11
    0.13090125   2    1000035    12
    0.011218605   2    1000025    12
    0.001706723   2    1000023    12

DECAY 1000014  1.6348238
    0.42475712   2    1000022    14
    0.24521634   2    1000037    13
    0.1870498   2    1000024    13
    0.13013038   2    1000035    14
    0.011150069   2    1000025    14
    0.0016962955   2    1000023    14

DECAY 1000016  3.2350546
    0.78089616   2    1000024    15
    0.18443408   2    1000022    16
    0.019339943   2    1000037    15
    0.010063921   2    1000035    16
    0.0045690697   2    1000025    16
    0.00069683223   2    1000023    16

DECAY 2000001  142.40604
    0.9803695   2    1000021    1
    0.015690723   2    1000022    1
    0.0038583885   2    1000023    1

DECAY 1000001  206.35809
    0.68209956   2    1000021    1
    0.20523548   2   -1000037    2
    0.10064822   2    1000035    1
    0.0054394821   2    1000022    1
    0.004404277   2   -1000024    2
    0.00153799   2    1000023    1
    0.00063499428   2    1000025    1

DECAY 2000003  142.46871
    0.97994553   2    1000021    3
    0.01571106   2    1000022    3
    0.0039384357   2    1000023    3
    0.00021249841   2   -1000024    4
    0.00017299846   2    1000025    3

DECAY 1000003  206.39152
    0.68199226   2    1000021    3
    0.20520316   2   -1000037    4
    0.10063356   2    1000035    3
    0.0054574299   2    1000022    3
    0.0044116643   2   -1000024    4
    0.0015942968   2    1000023    3
    0.00070762596   2    1000025    3

DECAY 1000005  29.088971
    0.46950451   2   -1000024    6
    0.24422724   2    1000025    5
    0.19404788   2    1000023    5
    0.086299444   2    1000022    5
    0.003718491   2   -1000037    6
    0.0022024305   2    1000035    5

DECAY 2000005  76.135357
    0.38311295   2   -1000024    6
    0.18116092   2   -1000037    6
    0.17034294   2    1000025    5
    0.13319054   2    1000023    5
    0.076527279   2    1000035    5
    0.04762543   2    1000022    5
    0.0041675077   2    1000005    23
    0.0038724188   2    1000005    25

DECAY 2000002  151.05636
    0.92594215   2    1000021    2
    0.059197973   2    1000022    2
    0.01455619   2    1000023    2
    0.0002550408   2    1000025    2

DECAY 1000002  206.35354
    0.68187998   2    1000021    2
    0.1939123   2    1000037    1
    0.098754923   2    1000035    2
    0.015933428   2    1000024    1
    0.0082570887   2    1000023    2
    0.00092530744   2    1000022    2
    0.00033697148   2    1000025    2

DECAY 2000004  151.05996
    0.92592005   2    1000021    4
    0.059197426   2    1000022    4
    0.014560428   2    1000023    4
    0.00026107832   2    1000025    4

DECAY 1000004  206.38683
    0.68177258   2    1000021    4
    0.19388429   2    1000037    3
    0.098739393   2    1000035    4
    0.016077452   2    1000024    3
    0.0082591499   2    1000023    4
    0.0009257847   2    1000022    4
    0.00034134877   2    1000025    4

DECAY 1000006  75.20236
    0.399892   2    1000024    5
    0.21988308   2    1000025    6
    0.16710797   2    1000023    6
    0.096112115   2    1000037    5
    0.052236649   2    1000035    6
    0.051820834   2    1000022    6
    0.0066972008   2    1000005    24
    0.003052064   2    1000023    4
    0.0028469174   3    1000022    24    5
    0.00035117247   2    1000022    4

DECAY 2000006  99.361527
    0.31442433   2    1000024    5
    0.18143256   2    1000025    6
    0.15269629   2    1000023    6
    0.091159494   2    2000005    24
    0.071854834   2    1000037    5
    0.054546682   2    1000006    23
    0.052943267   2    1000006    25
    0.043207458   2    1000022    6
    0.036066249   2    1000035    6
    0.0016688335   2    1000005    24

DECAY 1000024  0.0018015905
    0.33324188   3    1000022   -1    2
    0.3328349   3    1000022   -3    4
    0.11135206   3    1000022   -15    16
    0.11128559   3    1000022   -13    14
    0.11128557   3    1000022   -11    12

DECAY 1000037  4.3577022
    0.28812053   2    1000023    24
    0.24571635   2    1000024    23
    0.2434322   2    1000025    24
    0.20283487   2    1000024    25
    0.019070288   2    1000022    24
    0.00029788407   3    1000023   -5    6
    0.00025474772   3    1000025   -5    6

DECAY 1000022 -1


DECAY 1000023  4.9079744e-05
    0.19465253   3    1000022    12   -12
    0.164418   3    1000022    5   -5
    0.14438318   3    1000022    1   -1
    0.14438253   3    1000022    3   -3
    0.11267517   3    1000022    2   -2
    0.1124849   3    1000022    4   -4
    0.034666658   3    1000022    15   -15
    0.029638601   3    1000022    13   -13
    0.029623757   3    1000022    11   -11
    0.0050152785   3    1000024    1   -2
    0.0050152785   3   -1000024   -1    2
    0.0047288005   3    1000024    3   -4
    0.0047288005   3   -1000024   -3    4
    0.0038988485   2    1000022    22
    0.0016733211   3    1000024    11   -12
    0.0016733211   3   -1000024   -11    12
    0.0016726429   3    1000024    13   -14
    0.0016726429   3   -1000024   -13    14
    0.0014978685   3    1000024    15   -16
    0.0014978685   3   -1000024   -15    16

DECAY 1000025  0.0044893799
    0.2034564   3    1000022    12   -12
    0.15178898   3    1000022    1   -1
    0.15178758   3    1000022    3   -3
    0.15142609   3    1000022    5   -5
    0.11838362   3    1000022    2   -2
    0.11811997   3    1000022    4   -4
    0.03476776   3    1000022    15   -15
    0.034266211   3    1000022    13   -13
    0.034264976   3    1000022    11   -11
    0.0014147777   2    1000022    22

DECAY 1000035  5.5787018
    0.23848453   2    1000024   -24
    0.23848453   2   -1000024    24
    0.21525175   2    1000025    23
    0.14787818   2    1000025    25
    0.13151614   2    1000023    25
    0.016604911   2    1000023    23
    0.0089257761   2    1000022    25
    0.0018291319   2    1000022    23
    0.0003796806   3    1000024    5   -6
    0.0003796806   3   -1000024   -5    6

DECAY 1000021  238.68784
    0.15991629   2    1000005   -5
    0.15991629   2   -1000005    5
    0.11752727   2    1000006   -6
    0.11752727   2   -1000006    6
    0.10535138   2    2000005   -5
    0.10535138   2   -2000005    5
    0.06964863   2    2000006   -6
    0.06964863   2   -2000006    6
    0.04746292   2    1000006   -4
    0.04746292   2   -1000006    4

DECAY 25  0.0035454689
    0.61741984   2   -5    5
    0.18244668   2   -24    24
    0.074192352   2    21    21
    0.070652756   2   -15    15
    0.030407864   2   -4    4
    0.020828707   2    23    23
    0.002324864   2    22    22
    0.0012500167   2    22    23
    0.00024503004   2   -13    13
    0.00023108428   2   -3    3
    6.3892438e-07   2   -1    1
    1.5670826e-07   2   -2    2
    5.5085887e-09   2   -11    11

DECAY 35  259.67401
    0.69410998   2   -5    5
    0.097399378   2   -15    15
    0.048520909   2   -1000024    1000037
    0.048520909   2   -1000037    1000024
    0.028092235   2    1000025    1000035
    0.019150623   2    1000023    1000035
    0.012483164   2   -2000005    1000005
    0.012483164   2   -1000005    2000005
    0.0093295079   2   -1000024    1000024
    0.0073519425   2    1000022    1000025
    0.006317107   2    1000022    1000023
    0.0037541401   2    1000022    1000022
    0.0037169603   2    1000022    1000035
    0.002332323   2   -1000037    1000037
    0.0014530058   2   -2000015    1000015
    0.0014530058   2   -1000015    2000015
    0.0012480522   2    1000035    1000035
    0.00054014057   2    1000025    1000025
    0.00033295137   2   -13    13
    0.00032415606   2   -6    6
    0.00028859477   2   -1000006    1000006
    0.00021335341   2    1000023    1000025
    0.00018222851   2   -3    3
    0.00016598229   2   -2000006    1000006
    0.00016598229   2   -1000006    2000006
    3.9170667e-05   2   -1000005    1000005
    2.2037867e-05   2   -2000005    2000005
    4.2791615e-06   2    21    21
    2.5144259e-06   2   -1000015    1000015
    1.3232974e-06   2   -2000015    2000015
    5.0378095e-07   2   -1    1
    1.158067e-07   2    1000023    1000023
    4.9076037e-08   2    25    25
    4.4919183e-08   2    23    23
    2.2975715e-08   2    22    23
    1.0607163e-08   2   -24    24
    8.9361498e-09   2   -1000011    1000011
    8.8027021e-09   2   -1000013    1000013
    7.4775092e-09   2   -11    11
    3.8800369e-09   2    22    22
    3.2957652e-09   2   -4    4
    3.1082605e-09   2   -2000011    2000011
    3.0552827e-09   2   -2000013    2000013
    2.491045e-10   2   -2000013    1000013
    2.491045e-10   2   -1000013    2000013
    1.6986495e-14   2   -2    2
    5.8265959e-15   2   -2000011    1000011
    5.8265959e-15   2   -1000011    2000011

DECAY 36  231.20785
    0.67132927   2   -5    5
    0.094190167   2   -15    15
    0.053939369   2   -1000024    1000037
    0.053939369   2   -1000037    1000024
    0.028000633   2    1000025    1000035
    0.024379527   2    1000023    1000035
    0.01407752   2   -2000005    1000005
    0.01407752   2   -1000005    2000005
    0.01119893   2   -1000024    1000024
    0.0078038087   2    1000022    1000023
    0.0074363783   2    1000022    1000025
    0.0045282126   2    1000022    1000022
    0.0044986612   2    1000022    1000035
    0.0033002335   2   -1000037    1000037
    0.0017581619   2    1000035    1000035
    0.0016320542   2   -2000015    1000015
    0.0016320542   2   -1000015    2000015
    0.00057984233   2    1000025    1000025
    0.00032197728   2   -13    13
    0.00031307367   2   -2000006    1000006
    0.00031307367   2   -1000006    2000006
    0.00031230589   2   -6    6
    0.00025090905   2    1000023    1000025
    0.00017617047   2   -3    3
    9.9409965e-06   2    21    21
    4.8703403e-07   2   -1    1
    1.4406585e-07   2    1000023    1000023
    9.722461e-08   2    23    25
    5.9134481e-08   2    22    23
    3.5922183e-08   2    22    22
    7.2310041e-09   2   -11    11
    3.084818e-09   2   -4    4
    2.7794523e-10   2   -2000013    1000013
    2.7794523e-10   2   -1000013    2000013
    1.3863581e-10   2    23    35
    1.5899978e-14   2   -2    2
    6.5011676e-15   2   -2000011    1000011
    6.5011676e-15   2   -1000011    2000011
    1.9104712e-40   2    25    25

DECAY 37  251.82149
    0.69799292   2   -5    6
    0.085935183   2   -15    16
    0.052510328   2    1000024    1000035
    0.052203399   2    1000025    1000037
    0.049604191   2    1000023    1000037
    0.023217588   2   -1000005    1000006
    0.013974034   2    1000022    1000024
    0.0089406694   2    1000022    1000037
    0.0050370612   2    1000023    1000024
    0.0035926339   2   -1000005    2000006
    0.0030010713   2   -2000015    1000016
    0.0023254645   2    1000024    1000025
    0.0010350448   2   -5    4
    0.00030381148   2   -13    14
    0.0001693208   2   -3    4
    0.00013815242   2   -2000005    1000006
    7.9478075e-06   2   -3    2
    7.3912876e-06   2   -5    2
    1.5640128e-06   2    1000035    1000037
    1.0314955e-06   2   -1000015    1000016
    5.2064526e-07   2   -3    6
    4.6972018e-07   2   -1    2
    8.8842548e-08   2    24    25
    3.616832e-08   2   -1000011    1000012
    3.5975054e-08   2   -1000013    1000014
    2.2096479e-08   2   -1    4
    1.2331011e-08   2   -1    6
    7.1061822e-09   2   -11    12
    5.1762137e-10   2   -2000013    1000014
    4.7627001e-14   2    24    35
    1.2107618e-14   2   -2000011    1000012

DECAY 6  2.43
    1   2    5    24

DECAY 15 -1
