BLOCK DCINFO
   1   SDECAY/HDECAY
   2   1.3b /3.4

BLOCK SPINFO
   1   SOFTSUSY
   2   3.4.0

BLOCK MODSEL
   1   0

BLOCK SMINPUTS
   1    127.90897
   2    1.1663787e-05
   3    0.1184
   4    91.1876
   5    4.18
   6    173.2
   7    1.777

BLOCK MINPAR
   3    35.11

BLOCK EXTPAR
   0   -1
   1    1577.07
   2    1600.92
   3    1823.85
   11   -4028.82
   12   -2647.61
   13    1488.27
   23    1164.38
   26    2424.45
   31    1526.09
   32    1526.09
   33    2942.79
   34    3974.79
   35    3974.79
   36    3317.64
   41    2804.48
   42    2804.48
   43    2775.82
   44    3466.77
   45    3466.77
   46    2544.11
   47    1873.55
   48    1873.55
   49    2238.58

BLOCK MASS
   24    80.383723
   25    127.35833
   35    2424.538
   36    2424.45
   37    2425.9985
   5    4.8187603
   1000001    2866.7496
   2000001    1958.9379
   1000002    2865.8012
   2000002    3511.9498
   1000003    2866.7496
   2000003    1958.9379
   1000004    2865.8012
   2000004    3511.9498
   1000005    2294.0767
   2000005    2789.0007
   1000006    2495.7649
   2000006    2828.8281
   1000011    1546.2293
   2000011    3979.6094
   1000012    1543.8847
   1000013    1546.2293
   2000013    3979.6094
   1000014    1543.8847
   1000015    2948.3076
   2000015    3315.1428
   1000016    2947.3099
   1000021    2033.7588
   1000022    1189.2338
   1000023   -1200.9408
   1000025    1570.222
   1000035    1643.0338
   1000024    1193.5044
   1000037    1642.898

BLOCK NMIX
   1   1    0.084518846
   1   2   -0.12574585
   1   3    0.70173296
   1   4   -0.69614323
   2   1   -0.0109912
   2   2    0.019030823
   2   3    0.70648549
   2   4    0.70738623
   3   1    0.99360098
   3   2    0.084622448
   3   3   -0.045937797
   3   4    0.059041041
   4   1   -0.074113713
   4   2    0.98826355
   4   3    0.079616794
   4   4   -0.10725425

BLOCK UMIX
   1   1   -0.10864261
   1   2    0.99408087
   2   1   -0.99408087
   2   2   -0.10864261

BLOCK VMIX
   1   1   -0.14637641
   1   2    0.98922897
   2   1   -0.98922897
   2   2   -0.14637641

BLOCK STOPMIX
   1   1    0.3464436
   1   2    0.9380708
   2   1   -0.9380708
   2   2    0.3464436

BLOCK SBOTMIX
   1   1    0.036713656
   1   2    0.99932583
   2   1   -0.99932583
   2   2    0.036713656

BLOCK STAUMIX
   1   1    0.99951796
   1   2    0.031045767
   2   1   -0.031045767
   2   2    0.99951796

BLOCK ALPHA
      -0.029425954

BLOCK HMIX Q=  2656.469
   1    1186.073
   2    34.088034
   3    242.4753
   4    6649586.7

BLOCK GAUGE Q=  2656.469
   1    0.36437978
   2    0.63699664
   3    1.0207827

BLOCK AU Q=  2656.469
   1   1    0
   2   2    0
   3   3   -4028.82

BLOCK AD Q=  2656.469
   1   1    0
   2   2    0
   3   3   -2647.61

BLOCK AE Q=  2656.469
   1   1    0
   2   2    0
   3   3    1488.27

BLOCK YU Q=  2656.469
   1   1    0
   2   2    0
   3   3    0.81952411

BLOCK YD Q=  2656.469
   1   1    0
   2   2    0
   3   3    0.44433004

BLOCK YE Q=  2656.469
   1   1    0
   2   2    0
   3   3    0.36070737

BLOCK MSOFT Q=  2656.469
   1    1577.07
   2    1600.92
   3    1823.85
   21    4529672.7
   22   -1288499.5
   31    1526.09
   32    1526.09
   33    2942.79
   34    3974.79
   35    3974.79
   36    3317.64
   41    2804.48
   42    2804.48
   43    2775.82
   44    3466.77
   45    3466.77
   46    2544.11
   47    1873.55
   48    1873.55
   49    2238.58

BLOCK HIGGSBOUNDSINPUTHIGGSCOUPLINGSFERMIONS
       0, 1161.9941,3,36,15,15

BLOCK HIGGSBOUNDSINPUTHIGGSCOUPLINGSBOSONS
       0,4,36,21,21,23

DECAY 6  1.4293175
    1   2    5    24

DECAY 1000021  0.38912991
    0.25   2    2000001   -1
    0.25   2   -2000001    1
    0.25   2    2000003   -3
    0.25   2   -2000003    3

DECAY 1000006  58.916783
    0.32656583   2    1000024    5
    0.29492409   2    1000021    6
    0.17620529   2    1000023    6
    0.16556144   2    1000022    6
    0.032238864   2    1000025    6
    0.0031078038   2    1000037    5
    0.0013199714   2    1000035    6
    7.6708447e-05   2    1000005    24

DECAY 2000006  91.344361
    0.34055525   2    1000021    6
    0.13037833   2    1000023    6
    0.12745292   2    1000022    6
    0.1089058   2    1000037    5
    0.087154593   2    1000024    5
    0.081609352   2    1000006    23
    0.05649512   2    1000035    6
    0.050639862   2    1000006    25
    0.0096930491   2    1000025    6
    0.0071157189   2    1000005    24

DECAY 1000005  15.625923
    0.37231972   2    1000021    5
    0.29663313   2   -1000024    6
    0.15490639   2    1000022    5
    0.151306   2    1000023    5
    0.024106053   2    1000025    5
    0.00039222085   2   -1000037    6
    0.00033648384   2    1000035    5

DECAY 2000005  92.153802
    0.3666793   2    1000021    5
    0.25954111   2   -1000024    6
    0.12392137   2    1000006   -24
    0.10946261   2   -1000037    6
    0.052914465   2    1000035    5
    0.040081448   2    1000022    5
    0.039500205   2    1000023    5
    0.0037750027   2    1000005    25
    0.0032772727   2    1000005    23
    0.00084721432   2    1000025    5

DECAY 1000002  66.948224
    0.76893262   2    1000021    2
    0.1472718   2    1000037    1
    0.071394036   2    1000035    2
    0.0061355661   2    1000025    2
    0.0048650333   2    1000024    1
    0.0013685486   2    1000022    2
    3.239152e-05   2    1000023    2

DECAY 2000002  118.21601
    0.95678511   2    1000021    2
    0.042605691   2    1000025    2
    0.00037681912   2    1000022    2
    0.00022603487   2    1000035    2
    6.3402673e-06   2    1000023    2

DECAY 1000001  66.993745
    0.76969662   2    1000021    1
    0.14876433   2   -1000037    2
    0.075619524   2    1000035    1
    0.0026798802   2   -1000024    2
    0.0022913955   2    1000022    1
    0.00089784144   2    1000025    1
    5.04068e-05   2    1000023    1

DECAY 2000001  0.14814313
    0.97424689   2    1000025    1
    0.021642222   2    1000022    1
    0.0037531923   2    1000035    1
    0.00035769558   2    1000023    1

DECAY 1000004  55.044423
    0.70911715   2    1000021    4
    0.18536735   2    1000037    3
    0.08986161   2    1000035    4
    0.0077301341   2    1000025    4
    0.006152127   2    1000024    3
    0.0017306679   2    1000022    4
    4.0958609e-05   2    1000023    4

DECAY 2000004  91.047936
    0.9419447   2    1000021    4
    0.057236145   2    1000025    4
    0.00050708971   2    1000022    4
    0.00030353043   2    1000035    4
    8.5317727e-06   2    1000023    4

DECAY 1000003  55.067045
    0.71001435   2    1000021    3
    0.18729628   2   -1000037    4
    0.0952059   2    1000035    3
    0.0033897612   2   -1000024    4
    0.0028984674   2    1000022    3
    0.0011314857   2    1000025    3
    6.3755532e-05   2    1000023    3

DECAY 2000003  0.14896057
    0.97392174   2    1000025    3
    0.02198692   2    1000022    3
    0.0037280435   2    1000035    3
    0.00036329467   2    1000023    3

DECAY 1000011  0.030466775
    0.79003366   2   -1000024    12
    0.20472982   2    1000022    11
    0.0052365172   2    1000023    11

DECAY 2000011  15.002117
    0.9862605   2    1000025    11
    0.0083025968   2    1000022    11
    0.0052970325   2    1000035    11
    0.00013986541   2    1000023    11

DECAY 1000013  0.030466775
    0.79003367   2   -1000024    14
    0.20472981   2    1000022    13
    0.005236517   2    1000023    13

DECAY 2000013  15.002117
    0.9862605   2    1000025    13
    0.0083025968   2    1000022    13
    0.0052970325   2    1000035    13
    0.00013986541   2    1000023    13

DECAY 1000015  24.437097
    0.45534119   2   -1000037    16
    0.20691045   2    1000035    15
    0.11191018   2    1000022    15
    0.10819388   2    1000023    15
    0.10682319   2    1000025    15
    0.010821106   2   -1000024    16

DECAY 2000015  23.874824
    0.4362589   2    1000025    15
    0.26560148   2   -1000024    16
    0.13583575   2    1000023    15
    0.13574464   2    1000022    15
    0.0078595121   2    1000016   -24
    0.0054409611   2   -1000037    16
    0.0051665768   2    1000035    15
    0.0041628625   2    1000015    25
    0.0039293275   2    1000015    23

DECAY 1000012  0.075092716
    0.5757802   2    1000024    11
    0.41592378   2    1000022    12
    0.0082960212   2    1000023    12

DECAY 1000014  0.075092713
    0.57578019   2    1000024    13
    0.41592379   2    1000022    14
    0.0082960215   2    1000023    14

DECAY 1000016  24.418062
    0.45481204   2    1000037    15
    0.24583573   2    1000035    16
    0.23031449   2    1000024    15
    0.058471527   2    1000025    16
    0.010349013   2    1000022    16
    0.00021719507   2    1000023    16

DECAY 1000024  1.6205581e-09
    0.35567173   3    1000022    2   -1
    0.35567173   3    1000022    4   -3
    0.11858021   3    1000022   -11    12
    0.11858021   3    1000022   -13    14
    0.051496116   3    1000022   -15    16

DECAY 1000037  9.3677828
    0.24702394   2    1000024    23
    0.24121382   2    1000024    25
    0.23774725   2    1000022    24
    0.23683059   2    1000023    24
    0.0094665328   2    1000012   -11
    0.0094665328   2    1000014   -13
    0.0091256658   2   -1000011    12
    0.0091256658   2   -1000013    14

DECAY 1000022 -1


DECAY 1000023  2.7204133e-07
    0.12551949   2    1000022    22
    0.12039886   3    1000022   -1    1
    0.12039886   3    1000022   -3    3
    0.092738943   3    1000022   -2    2
    0.092738943   3    1000022   -4    4
    0.055336049   3    1000022   -12    12
    0.055336049   3    1000022   -14    14
    0.055333251   3    1000022   -16    16
    0.032560889   3    1000024   -2    1
    0.032560889   3   -1000024   -1    2
    0.032560889   3    1000024   -4    3
    0.032560889   3   -1000024   -3    4
    0.027671312   3    1000022   -11    11
    0.027671312   3    1000022   -13    13
    0.024155198   3    1000022   -15    15
    0.012535987   3    1000022   -5    5
    0.010853804   3    1000024   -12    11
    0.010853804   3   -1000024    12   -11
    0.010853804   3    1000024   -14    13
    0.010853804   3   -1000024    14   -13
    0.0082534951   3    1000024   -16    15
    0.0082534951   3   -1000024    16   -15

DECAY 1000025  2.4822058
    0.31599059   2    1000024   -24
    0.31599059   2   -1000024    24
    0.18034472   2    1000023    23
    0.17839834   2    1000022    25
    0.0033070291   2    1000022    23
    0.0026439255   2    1000023    25
    0.00050062977   2    1000011   -11
    0.00050062977   2   -1000011    11
    0.00050062977   2    1000013   -13
    0.00050062977   2   -1000013    13
    0.00033057179   2    1000012   -12
    0.00033057179   2   -1000012    12
    0.00033057179   2    1000014   -14
    0.00033057179   2   -1000014    14

DECAY 1000035  9.3219589
    0.25360533   2    1000023    23
    0.24920232   2    1000022    25
    0.22421864   2    1000024   -24
    0.22421864   2   -1000024    24
    0.0061763507   2    1000022    23
    0.0052230845   2    1000023    25
    0.0051766287   2    1000012   -12
    0.0051766287   2   -1000012    12
    0.0051766287   2    1000014   -14
    0.0051766287   2   -1000014    14
    0.0041622816   2    1000011   -11
    0.0041622816   2   -1000011    11
    0.0041622816   2    1000013   -13
    0.0041622816   2   -1000013    13

DECAY 25  0.004732565
    0.59144094   2    5   -5
    0.22897649   2    24   -24
    0.071145186   2    21    21
    0.056072709   2   -15    15
    0.029571825   2    23    23
    0.01860323   2    4   -4
    0.002155341   2    22    22
    0.0016201253   2    22    23
    0.00021570935   2    3   -3
    0.00019844494   2   -13    13

DECAY 35  38.611428
    0.85277911   2    5   -5
    0.14356641   2   -15    15
    0.0022442147   2    6   -6
    0.00051490473   2    1000022    1000023
    0.00048969422   2   -13    13
    0.00026885051   2    3   -3
    5.8050713e-05   2    1000024   -1000024
    5.2747815e-05   2    1000022    1000022
    1.9151766e-05   2    21    21
    4.6336876e-06   2    25    25
    1.1493368e-06   2    24   -24
    5.730005e-07   2    23    23
    4.4341589e-07   2    1000023    1000023
    2.6477407e-08   2    22    22
    2.2975748e-08   2    4   -4
    9.4273033e-09   2    23    22

DECAY 36  38.730025
    0.8501705   2    5   -5
    0.14312275   2   -15    15
    0.0022530574   2    6   -6
    0.0020524732   2    1000024   -1000024
    0.0015683208   2    1000022    1000022
    0.00048817993   2   -13    13
    0.00026803686   2    3   -3
    4.2021128e-05   2    21    21
    2.1083755e-05   2    1000023    1000023
    1.2297155e-05   2    1000022    1000023
    1.1582282e-06   2    23    25
    6.6979005e-08   2    22    22
    2.82425e-08   2    23    22
    2.2961562e-08   2    4   -4

DECAY 37  33.713412
    0.83276048   2    6   -5
    0.16452468   2   -15    16
    0.0013989255   2    4   -5
    0.00056118013   2   -13    14
    0.00039494797   2    1000024    1000023
    0.00030309105   2    4   -3
    2.5977028e-05   2    1000024    1000022
    1.539731e-05   2    2   -3
    1.398923e-05   2    2   -5
    1.3344195e-06   2    24    25
    3.4733763e-13   2    24    36

DECAY 5 -1


DECAY 15 -1


DECAY 23  2.4952


DECAY 24  2.085
