BLOCK DCINFO
   1   SDECAY/HDECAY
   2   1.3b /3.4

BLOCK SPINFO
   1   SOFTSUSY
   2   3.4.0

BLOCK MODSEL
   1   0

BLOCK SMINPUTS
   1    127.90897
   2    1.1663787e-05
   3    0.1184
   4    91.1876
   5    4.18
   6    173.2
   7    1.777

BLOCK MINPAR
   3    49.24

BLOCK EXTPAR
   0   -1
   1    1014.65
   2   -2371.91
   3    2948.59
   11   -4262.86
   12   -1905.39
   13    2709.26
   23    1394.25
   26    2807.67
   31    2339.94
   32    2339.94
   33    2683.96
   34    2670.99
   35    2670.99
   36    2888.53
   41    834.51
   42    834.51
   43    3624.75
   44    1393.53
   45    1393.53
   46    1760.21
   47    3862.84
   48    3862.84
   49    1678.52

BLOCK MASS
   24    80.380626
   25    127.00762
   35    2807.6933
   36    2807.67
   37    2809.0099
   5    4.8187603
   1000001    1015.7507
   2000001    3923.6857
   1000002    1012.7146
   2000002    1509.6981
   1000003    1015.7507
   2000003    3923.6857
   1000004    1012.7146
   2000004    1509.6981
   1000005    1781.7678
   2000005    3661.24
   1000006    1841.3087
   2000006    3668.3265
   1000011    2358.4655
   2000011    2676.7658
   1000012    2356.8464
   1000013    2358.4655
   2000013    2676.7658
   1000014    2356.8464
   1000015    2691.9212
   2000015    2883.5781
   1000016    2692.5805
   1000021    3021.8926
   1000022    1002.2979
   1000023   -1426.4798
   1000025    1432.0582
   1000035   -2372.7539
   1000024    1427.0321
   1000037    2372.9202

BLOCK NMIX
   1   1    0.99698304
   1   2    0.0010797947
   1   3    0.063161067
   1   4   -0.045103491
   2   1   -0.012792939
   2   2   -0.0568382
   2   3    0.70654069
   2   4    0.70527017
   3   1    0.0765551
   3   2   -0.014634426
   3   3   -0.70421641
   3   4    0.70569427
   4   1   -0.0006845051
   4   2    0.99827556
   4   3    0.029835948
   4   4    0.05054959

BLOCK UMIX
   1   1   -0.042062754
   1   2    0.99911497
   2   1   -0.99911497
   2   2   -0.042062754

BLOCK VMIX
   1   1    0.071356916
   1   2    0.99745085
   2   1    0.99745085
   2   2   -0.071356916

BLOCK STOPMIX
   1   1    0.060291715
   1   2    0.9981808
   2   1   -0.9981808
   2   2    0.060291715

BLOCK SBOTMIX
   1   1    0.013341576
   1   2    0.999911
   2   1   -0.999911
   2   2    0.013341576

BLOCK STAUMIX
   1   1    0.99473774
   1   2    0.102454
   2   1   -0.102454
   2   2    0.99473774

BLOCK ALPHA
      -0.020717593

BLOCK HMIX Q=  2524.876
   1    1416.5828
   2    48.333519
   3    243.03708
   4    8170948.2

BLOCK GAUGE Q=  2524.876
   1    0.36434321
   2    0.63603025
   3    1.0167439

BLOCK AU Q=  2524.876
   1   1    0
   2   2    0
   3   3   -4262.86

BLOCK AD Q=  2524.876
   1   1    0
   2   2    0
   3   3   -1905.39

BLOCK AE Q=  2524.876
   1   1    0
   2   2    0
   3   3    2709.26

BLOCK YU Q=  2524.876
   1   1    0
   2   2    0
   3   3    0.8143687

BLOCK YD Q=  2524.876
   1   1    0
   2   2    0
   3   3    0.56151978

BLOCK YE Q=  2524.876
   1   1    0
   2   2    0
   3   3    0.46188339

BLOCK MSOFT Q=  2524.876
   1    1014.65
   2   -2371.91
   3    2948.59
   21    5987949.8
   22   -2004194.5
   31    2339.94
   32    2339.94
   33    2683.96
   34    2670.99
   35    2670.99
   36    2888.53
   41    834.50998
   42    834.50998
   43    3624.75
   44    1393.53
   45    1393.53
   46    1760.21
   47    3862.84
   48    3862.84
   49    1678.52

BLOCK HIGGSBOUNDSINPUTHIGGSCOUPLINGSFERMIONS
       0, 2336.1291,3,36,15,15

BLOCK HIGGSBOUNDSINPUTHIGGSCOUPLINGSBOSONS
       0,4,36,21,21,23

DECAY 6  1.4251209
    1   2    5    24

DECAY 1000021  308.45837
    0.077465368   2    1000002   -2
    0.077465368   2   -1000002    2
    0.077465361   2    1000004   -4
    0.077465361   2   -1000004    4
    0.077347704   2    1000001   -1
    0.077347704   2   -1000001    1
    0.077347704   2    1000003   -3
    0.077347704   2   -1000003    3
    0.055358575   2    2000002   -2
    0.055358575   2   -2000002    2
    0.055358561   2    2000004   -4
    0.055358561   2   -2000004    4
    0.041809665   2    1000005   -5
    0.041809665   2   -1000005    5
    0.037847062   2    1000006   -6
    0.037847062   2   -1000006    6

DECAY 1000006  9.2894527
    0.41101452   2    1000024    5
    0.21877377   2    1000022    6
    0.19296879   2    1000023    6
    0.17724293   2    1000025    6

DECAY 2000006  136.85332
    0.17801496   2    1000006    25
    0.17501192   2    1000006    23
    0.14096638   2    1000021    6
    0.12710313   2    1000025    6
    0.12564571   2    1000023    6
    0.12390946   2    1000024    5
    0.071611533   2    1000037    5
    0.036335638   2    1000035    6
    0.017718379   2    1000005    24
    0.0036828897   2    1000022    6

DECAY 1000005  3.1220918
    0.38363334   2   -1000024    6
    0.2307428   2    1000023    5
    0.22243554   2    1000025    5
    0.16318833   2    1000022    5

DECAY 2000005  135.4517
    0.34085322   2    1000006   -24
    0.25318278   2   -1000024    6
    0.15058894   2    1000021    5
    0.074123158   2   -1000037    6
    0.061041028   2    1000023    5
    0.060504734   2    1000025    5
    0.036545124   2    1000035    5
    0.010184745   2    1000005    25
    0.0091743214   2    1000005    23
    0.0038019443   2    1000022    5

DECAY 1000002  7.3375106e-05
    1   2    1000022    2

DECAY 2000002  1.1272271
    0.9997935   2    1000022    2
    0.00020011649   2    1000025    2
    6.3787418e-06   2    1000023    2

DECAY 1000001  0.00011766076
    1   2    1000022    1

DECAY 2000001  52.023276
    0.96302086   2    1000021    1
    0.03678699   2    1000022    1
    0.00018691135   2    1000025    1
    5.2318157e-06   2    1000023    1
    8.0625313e-09   2    1000035    1

DECAY 1000004  6.181364e-05
    1   2    1000022    4

DECAY 2000004  1.1018589
    0.9998047   2    1000022    4
    0.00018925246   2    1000025    4
    6.0487386e-06   2    1000023    4

DECAY 1000003  0.00010140147
    1   2    1000022    3

DECAY 2000003  37.628307
    0.94657564   2    1000021    3
    0.053147345   2    1000022    3
    0.00026946091   2    1000025    3
    7.5426764e-06   2    1000023    3
    1.1536406e-08   2    1000035    3

DECAY 1000011  2.1186186
    0.98468879   2    1000022    11
    0.0074176904   2    1000023    11
    0.0063692642   2   -1000024    12
    0.001524256   2    1000025    11

DECAY 2000011  10.431934
    0.99583954   2    1000022    11
    0.0040467237   2    1000025    11
    0.00011371034   2    1000023    11
    2.9148772e-08   2    1000035    11

DECAY 1000013  2.1186186
    0.98468879   2    1000022    13
    0.0074176904   2    1000023    13
    0.0063692642   2   -1000024    14
    0.001524256   2    1000025    13

DECAY 2000013  10.431934
    0.99583954   2    1000022    13
    0.0040467237   2    1000025    13
    0.00011371034   2    1000023    13
    2.914877e-08   2    1000035    13

DECAY 1000015  10.429471
    0.28908053   2    1000023    15
    0.27509192   2    1000025    15
    0.26934269   2    1000022    15
    0.10135872   2   -1000037    16
    0.050633152   2    1000035    15
    0.014492995   2   -1000024    16

DECAY 2000015  25.930328
    0.4465253   2    1000022    15
    0.26264176   2   -1000024    16
    0.13701606   2    1000025    15
    0.13257297   2    1000023    15
    0.0094792178   2    1000016   -24
    0.0048429028   2    1000015    25
    0.0044557366   2    1000015    23
    0.001643594   2   -1000037    16
    0.00082245368   2    1000035    15

DECAY 1000012  2.1287781
    0.97134948   2    1000022    12
    0.018201216   2    1000024    11
    0.0060642903   2    1000025    12
    0.0043850177   2    1000023    12

DECAY 1000014  2.1287781
    0.97134948   2    1000022    14
    0.018201216   2    1000024    13
    0.0060642903   2    1000025    14
    0.0043850177   2    1000023    14

DECAY 1000016  10.218338
    0.58300425   2    1000024    15
    0.2556736   2    1000022    16
    0.10530905   2    1000037    15
    0.052802777   2    1000035    16
    0.0018654296   2    1000025    16
    0.0013448884   2    1000023    16

DECAY 1000024  0.73231751
    0.91846881   2    1000022    24
    0.030347352   2    1000002   -1
    0.030347342   2    1000004   -3
    0.010418272   2   -1000001    2
    0.010418219   2   -1000003    4

DECAY 1000037  90.810074
    0.20834189   2   -1000001    2
    0.20834184   2   -1000003    4
    0.20820055   2    1000002   -1
    0.20820054   2    1000004   -3
    0.042981772   2    1000024    25
    0.041532988   2    1000024    23
    0.040810985   2    1000023    24
    0.039826045   2    1000025    24
    0.0011442463   2    1000006   -5
    0.00051595777   2    1000022    24
    3.407752e-05   2   -1000005    6
    1.9070809e-05   2    1000012   -11
    1.9070809e-05   2    1000014   -13
    1.548451e-05   2   -1000011    12
    1.548451e-05   2   -1000013    14

DECAY 1000022 -1


DECAY 1000023  0.73340696
    0.90025774   2    1000022    23
    0.023268217   2    1000022    25
    0.010436817   2    1000002   -2
    0.010436817   2   -1000002    2
    0.010436764   2    1000004   -4
    0.010436764   2   -1000004    4
    0.0086817212   2    1000001   -1
    0.0086817212   2   -1000001    1
    0.0086817212   2    1000003   -3
    0.0086817212   2   -1000003    3

DECAY 1000025  0.70081037
    0.9588715   2    1000022    25
    0.030411676   2    1000022    23
    0.0026792044   2    1000001   -1
    0.0026792044   2   -1000001    1
    0.0026792044   2    1000003   -3
    0.0026792044   2   -1000003    3
    8.6253305e-10   2    1000002   -2
    8.6253305e-10   2   -1000002    2
    8.6252886e-10   2    1000004   -4
    8.6252886e-10   2   -1000004    4

DECAY 1000035  90.727043
    0.1043273   2    1000002   -2
    0.1043273   2   -1000002    2
    0.10432728   2    1000004   -4
    0.10432728   2   -1000004    4
    0.10410511   2    1000001   -1
    0.10410511   2   -1000001    1
    0.10410511   2    1000003   -3
    0.10410511   2   -1000003    3
    0.04025761   2    1000024   -24
    0.04025761   2   -1000024    24
    0.0402335   2    1000023    25
    0.038546862   2    1000025    23
    0.0026497289   2    1000023    23
    0.0026225074   2    1000025    25
    0.00053416499   2    1000006   -6
    0.00053416499   2   -1000006    6
    0.00045251991   2    1000022    23
    7.9587616e-05   2    1000022    25
    1.7187139e-05   2    1000005   -5
    1.7187139e-05   2   -1000005    5
    9.37182e-06   2    1000012   -12
    9.37182e-06   2   -1000012    12
    9.37182e-06   2    1000014   -14
    9.37182e-06   2   -1000014    14
    7.5544781e-06   2    1000011   -11
    7.5544781e-06   2   -1000011    11
    7.5544781e-06   2    1000013   -13
    7.5544781e-06   2   -1000013    13
    1.5247763e-08   2    2000002   -2
    1.5247763e-08   2   -2000002    2
    1.5247747e-08   2    2000004   -4
    1.5247747e-08   2   -2000004    4

DECAY 25  0.0049518483
    0.61957443   2    5   -5
    0.21093168   2    24   -24
    0.067460727   2    21    21
    0.053261519   2   -15    15
    0.027098534   2    23    23
    0.017740151   2    4   -4
    0.0020367028   2    22    22
    0.0015027409   2    22    23
    0.00020499035   2    3   -3
    0.00018852306   2   -13    13

DECAY 35  91.299528
    0.82090633   2    5   -5
    0.16603076   2   -15    15
    0.0094847198   2    1000022    1000023
    0.0021122252   2    1000022    1000025
    0.00059499181   2   -13    13
    0.00053636825   2    6   -6
    0.00021617822   2    3   -3
    9.8441865e-05   2    1000022    1000022
    1.8366728e-05   2    21    21
    7.2123756e-07   2    25    25
    2.2761715e-07   2    1000001   -1000001
    2.2761715e-07   2    1000003   -1000003
    1.5557563e-07   2    1000002   -1000002
    1.5557563e-07   2    1000004   -1000004
    7.4656932e-08   2    24   -24
    3.7238939e-08   2    23    23
    9.5562738e-09   2    23    22
    5.4665161e-09   2    4   -4
    5.1325995e-10   2    22    22

DECAY 36  91.282799
    0.82106447   2    5   -5
    0.16606028   2   -15    15
    0.0090313751   2    1000022    1000025
    0.0022520717   2    1000022    1000023
    0.00059509664   2   -13    13
    0.00054025022   2    6   -6
    0.00021622313   2    3   -3
    0.00021306848   2    1000022    1000022
    2.7022794e-05   2    21    21
    7.5598666e-08   2    23    25
    3.7509914e-08   2    22    22
    1.8088788e-08   2    23    22
    5.501575e-09   2    4   -4

DECAY 37  73.248239
    0.77588959   2    6   -5
    0.20704499   2   -15    16
    0.014725245   2    1000024    1000022
    0.0013053246   2    4   -5
    0.00074197019   2   -13    14
    0.00026530183   2    4   -3
    1.3478371e-05   2    2   -3
    1.3053229e-05   2    2   -5
    4.7275618e-07   2    1000002   -1000001
    4.7275618e-07   2    1000004   -1000003
    9.4414716e-08   2    24    25
    7.7546532e-14   2    24    36

DECAY 5 -1


DECAY 15 -1


DECAY 23  2.4952


DECAY 24  2.085
