BLOCK SPINFO
   1   SPheno
   2   v4.0.5be

BLOCK SPHENOINFO
   1   2
   2   2

BLOCK MODSEL
   1   0

BLOCK MINPAR
   3    11.998437
   4   -1

BLOCK EXTPAR
   0    1275.1534
   1   -156.02609
   2    161.60556
   3    3000
   11    2322.3275
   12   -1696.9852
   13    1026.0296
   23   -205.61968
   25    11.528896
   26    3594.4454
   31    1745.4504
   32    1745.4504
   33    1272.0777
   34    1175.0519
   35    1175.0519
   36    1897.2867
   41    5000
   42    5000
   43    1636.6638
   44    5000
   45    5000
   46    1113.4538
   47    5000
   48    5000
   49    1929.1266

BLOCK SMINPUTS
   1    127.90897
   2    1.1663787e-05
   3    0.1184
   4    91.1876
   5    4.18
   6    173.2
   7    1.777
   8    0
   11    0.00051099893
   12    0
   13    0.10565837
   14    0
   21    0.005
   22    0.0025
   23    0.095
   24    1.27

BLOCK GAUGE Q=  1275.1534
   1    0.35536298
   2    0.66519887
   3    1.219778

BLOCK YU Q=  1275.1534
   1   1    8.4158533e-06
   2   2    0.0042752535
   3   3    1.0167027

BLOCK YD Q=  1275.1534
   1   1    0.00019496926
   2   2    0.0037044159
   3   3    0.19334841

BLOCK YE Q=  1275.1534
   1   1    3.4023561e-05
   2   2    0.0070349934
   3   3    0.11831702

BLOCK AU Q=  1275.1534
   1   1    0
   2   2    0
   3   3    2322.3275

BLOCK AD Q=  1275.1534
   1   1    0
   2   2    0
   3   3   -1696.9852

BLOCK AE Q=  1275.1534
   1   1    0
   2   2    0
   3   3    1026.0296

BLOCK MSOFT Q=  1275.1534
   1   -156.02609
   2    161.60556
   3    3000
   21    12736205
   22    104197.61
   31    1745.4504
   32    1745.4504
   33    1272.0777
   34    1175.0519
   35    1175.0519
   36    1897.2867
   41    5000
   42    5000
   43    1636.6638
   44    5000
   45    5000
   46    1113.4538
   47    5000
   48    5000
   49    1929.1266

BLOCK MASS
   6    173.2
   23    91.1876
   24    80.429995
   15    1.777
   25    122.58414
   35    3593.9917
   36    3594.4454
   37    3595.124
   1000001    5019.8449
   2000001    5008.8241
   1000002    5019.3969
   2000002    5011.4238
   1000003    5019.8459
   2000003    5008.8251
   1000004    5019.3979
   2000004    5011.4249
   1000005    1602.8155
   2000005    1938.324
   1000006    995.36568
   2000006    1633.5868
   1000011    1750.5818
   2000011    1172.7732
   1000012    1748.3966
   1000013    1750.5823
   2000013    1172.7752
   1000014    1748.3971
   1000015    1277.262
   2000015    1897.1018
   1000016    1274.4142
   1000021    3173.2415
   1000022   -142.78317
   1000023    144.85173
   1000025   -232.28393
   1000035    250.85479
   1000024    147.23935
   1000037    255.94619

BLOCK ALPHA
      -0.083290937

BLOCK HMIX Q=  1275.1534
   1   -205.61968
   2    11.528896
   3    244.15822
   4    12920038

BLOCK STOPMIX
   1   1   -0.22387486
   1   2    0.9746179
   2   1   -0.9746179
   2   2   -0.22387486

BLOCK SBOTMIX
   1   1   -0.99999872
   1   2    0.0016028914
   2   1   -0.0016028914
   2   2   -0.99999872

BLOCK STAUMIX
   1   1   -0.99999544
   1   2    0.0030213643
   2   1   -0.0030213643
   2   2   -0.99999544

BLOCK NMIX
   1   1   -0.90515099
   1   2   -0.0708644
   1   3    0.3384925
   1   4   -0.24718972
   2   1   -0.043964033
   2   2   -0.77365343
   2   3   -0.53049411
   2   4   -0.34366195
   3   1   -0.4180845
   3   2    0.14229149
   3   3   -0.60314781
   3   4    0.66420719
   4   1    0.063041285
   4   2   -0.61334471
   4   3    0.49011381
   4   4    0.61613514

BLOCK UMIX
   1   1   -0.70110116
   1   2   -0.71306183
   2   1    0.71306183
   2   2   -0.70110116

BLOCK VMIX
   1   1   -0.88765073
   1   2    0.4605173
   2   1    0.4605173
   2   2    0.88765073

BLOCK HIGGSBOUNDSINPUTHIGGSCOUPLINGSFERMIONS
       0, 132.91545,3,36,15,15

BLOCK HIGGSBOUNDSINPUTHIGGSCOUPLINGSBOSONS
       0,4,36,21,21,23

BLOCK SPHENOLOWENERGY
   1    0.00031516112
   2    1.585328e-06
   3    3.5124815e-05
   4    2.4874475e-15
   5    1.0626094e-10
   6    2.2245051e-08
   7    8.391474e-14
   8    3.5848351e-09
   9    7.6038482e-07
   10    9.6747697e-05
   11    0.99936667
   12    0.54361304
   13    19.423499
   14    0
   15    0
   16    0.0021638396
   17    2.2817246e-15
   18    2.4714067e-11
   19    8.2697865e-11
   20   -2.4949342e-15
   21   -1.0666708e-10
   22   -4.6672606e-08
   23    0
   24    0
   25    0
   26    0
   27    0
   28    0
   29    0
   30    0
   31    0
   39    2.4609605e-05
   40    0
   41    0
   42    0

BLOCK FWCOEF Q=  160
   305   4422   0   0   -0.18881911
   305   4422   0   2   -0.18168345
   305   4322   0   2   -3.7271769e-05
   305   6421   0   0   -0.095227835
   305   6421   0   2   -0.096417877
   305   6321   0   2   -9.8845983e-05
   3051111   4133   0   0    1.5859787
   3051111   4133   0   2    1.5873675
   3051111   4233   0   2    1.6964846e-05
   3051111   4137   0   0   -4.4086708
   3051111   4137   0   2   -4.3944387
   3051111   4237   0   2   -0.00013254529
   3051313   4133   0   0    1.5859787
   3051313   4133   0   2    1.5873673
   3051313   4233   0   2    1.6964836e-05
   3051313   4137   0   0   -4.4086708
   3051313   4137   0   2   -4.3944389
   3051313   4237   0   2   -0.00013254531
   3051212   4137   0   0    1.5053501
   3051212   4137   0   2    1.5022592
   3051212   4237   0   2    2.8918458e-05
   3051414   4137   0   0    1.5053501
   3051414   4137   0   2    1.5022592
   3051414   4237   0   2    2.8918458e-05
   3051616   4137   0   0    1.5053501
   3051616   4137   0   2    1.5022602
   3051616   4237   0   2    2.8918196e-05

BLOCK IMFWCOEF Q=  160
   305   4422   0   0    3.8583131e-07
   305   4422   0   2   -6.1581966e-06
   305   4322   0   2    9.3753824e-07
   305   6421   0   0    3.3049003e-07
   305   6421   0   2    6.1603218e-07
   305   6321   0   2    3.6591153e-07
   3051111   4133   0   2    4.3444933e-07
   3051111   4233   0   2    3.481449e-07
   3051111   4137   0   2    6.4996168e-06
   3051111   4237   0   2   -2.7223486e-06
   3051313   4133   0   2    4.3444614e-07
   3051313   4233   0   2    3.4814474e-07
   3051313   4137   0   2    6.4996218e-06
   3051313   4237   0   2   -2.722349e-06
   3051212   4137   0   2   -1.1423145e-06
   3051212   4237   0   2    5.9397655e-07
   3051414   4137   0   2   -1.1423143e-06
   3051414   4237   0   2    5.9397655e-07
   3051616   4137   0   2   -1.1237694e-06
   3051616   4237   0   2    5.9397054e-07

DECAY 23  2.4952


DECAY 24  2.085


DECAY 2000011  5.6690249
    0.82657273   2    1000022    11
    0.1677173   2    1000025    11
    0.0037616839   2    1000035    11
    0.0019482868   2    1000023    11

DECAY 1000011  24.671265
    0.30416553   2   -1000037    12
    0.30270461   2   -1000024    12
    0.19574733   2    1000023    11
    0.1006768   2    1000035    11
    0.094725316   2    1000022    11
    0.0019804129   2    1000025    11

DECAY 2000013  5.6712016
    0.82627973   2    1000022    13
    0.16772136   2    1000025    13
    0.0038047495   2    1000035    13
    0.0020030917   2    1000023    13
    0.00010028861   2   -1000024    14

DECAY 1000013  24.672954
    0.3041448   2   -1000037    14
    0.30268398   2   -1000024    14
    0.19575342   2    1000023    13
    0.100686   2    1000035    13
    0.094726739   2    1000022    13
    0.0020048111   2    1000025    13

DECAY 1000015  17.932287
    0.30039282   2   -1000024    16
    0.2934075   2   -1000037    16
    0.199764   2    1000023    15
    0.10161262   2    1000035    15
    0.096244332   2    1000022    15
    0.0085787347   2    1000025    15

DECAY 2000015  10.437619
    0.74535745   2    1000022    15
    0.17298275   2    1000025    15
    0.024819531   2   -1000037    16
    0.024585932   2   -1000024    16
    0.015612701   2    1000035    15
    0.015349286   2    1000023    15
    0.00065393103   2    1000016   -24
    0.00032083578   2    1000015    23
    0.0003175843   2    1000015    25

DECAY 1000012  24.729352
    0.48346232   2    1000024    11
    0.17272842   2    1000023    12
    0.12639685   2    1000037    11
    0.124969   2    1000035    12
    0.052294683   2    1000022    12
    0.040148732   2    1000025    12

DECAY 1000014  24.731033
    0.48346458   2    1000024    13
    0.17271673   2    1000023    14
    0.12642099   2    1000037    13
    0.12496054   2    1000035    14
    0.052291144   2    1000022    14
    0.040146016   2    1000025    14

DECAY 1000016  18.010594
    0.48757647   2    1000024    15
    0.17076829   2    1000023    16
    0.13054178   2    1000037    15
    0.12047622   2    1000035    16
    0.051719351   2    1000022    16
    0.038917892   2    1000025    16

DECAY 2000001  144.4765
    0.98068537   2    1000021    1
    0.015832029   2    1000022    1
    0.003368681   2    1000025    1

DECAY 1000001  209.59633
    0.68147232   2    1000021    1
    0.10664321   2   -1000037    2
    0.10345549   2   -1000024    2
    0.0617227   2    1000023    1
    0.040916761   2    1000035    1
    0.004930964   2    1000025    1
    0.00085855189   2    1000022    1

DECAY 2000003  144.47931
    0.98066693   2    1000021    3
    0.015832804   2    1000022    3
    0.0033720339   2    1000025    3

DECAY 1000003  209.59962
    0.6814621   2    1000021    3
    0.10664841   2   -1000037    4
    0.1034557   2   -1000024    4
    0.061723575   2    1000023    3
    0.040917682   2    1000035    3
    0.0049332484   2    1000025    3
    0.00085928456   2    1000022    3

DECAY 1000005  84.584742
    0.37430613   2    1000006   -24
    0.37366153   2   -1000037    6
    0.15490931   2   -1000024    6
    0.052077678   2    1000023    5
    0.034131585   2    1000035    5
    0.0086388208   2    1000025    5
    0.0022749364   2    1000022    5

DECAY 2000005  3.8625509
    0.26901323   2    1000022    5
    0.18259555   2   -1000024    6
    0.1800112   2    1000025    5
    0.17625832   2   -1000037    6
    0.1032501   2    1000023    5
    0.088631926   2    1000035    5

DECAY 2000002  153.12459
    0.92706703   2    1000021    2
    0.059782606   2    1000022    2
    0.012720325   2    1000025    2
    0.00028900755   2    1000035    2
    0.00014102862   2    1000023    2

DECAY 1000002  209.59364
    0.6812583   2    1000021    2
    0.16582236   2    1000024    1
    0.064267465   2    1000023    2
    0.044477174   2    1000037    1
    0.038024951   2    1000035    2
    0.0056666781   2    1000022    2
    0.00048306759   2    1000025    2

DECAY 2000004  153.12827
    0.92704509   2    1000021    4
    0.059781906   2    1000022    4
    0.012725235   2    1000025    4
    0.00029349767   2    1000035    4
    0.00014242882   2    1000023    4

DECAY 1000004  209.59688
    0.68124799   2    1000021    4
    0.16582315   2    1000024    3
    0.064267494   2    1000023    4
    0.044479681   2    1000037    3
    0.038027675   2    1000035    4
    0.0056671204   2    1000022    4
    0.0004868832   2    1000025    4

DECAY 1000006  37.289755
    0.4166967   2    1000037    5
    0.2174511   2    1000035    6
    0.18861935   2    1000025    6
    0.086256626   2    1000022    6
    0.053845971   2    1000024    5
    0.037121979   2    1000023    6

DECAY 2000006  88.526436
    0.19360822   2    1000006    25
    0.19184845   2    1000006    23
    0.17370241   2    1000024    5
    0.17238529   2    1000025    6
    0.13363154   2    1000035    6
    0.1054451   2    1000023    6
    0.020035511   2    1000022    6
    0.0093434819   2    1000037    5

DECAY 1000024  5.9318932e-10
    0.28134137   3    1000022   -1    2
    0.19033859   3    1000022   -3    4
    0.1558781   3    1000023   -1    2
    0.093189747   3    1000022   -11    12
    0.09292922   3    1000022   -13    14
    0.052034787   3    1000023   -11    12
    0.051530547   3    1000023   -13    14
    0.04322927   3    1000022   -15    16
    0.037430716   3    1000023   -3    4
    0.0020976624   3    1000023   -15    16

DECAY 1000037  0.52633381
    0.55870198   2    1000022    24
    0.31703349   2    1000023    24
    0.12423203   2    1000024    23

DECAY 1000022 -1


DECAY 1000023  8.8711824e-11
    0.93001174   2    1000022    22
    0.020556414   3    1000022    12   -12
    0.015472938   3    1000022    1   -1
    0.015099169   3    1000022    3   -3
    0.012071691   3    1000022    2   -2
    0.0034593624   3    1000022    11   -11
    0.0033286898   3    1000022    13   -13

DECAY 1000025  0.48556614
    0.47692346   2    1000024   -24
    0.47692346   2   -1000024    24
    0.0092534844   3    1000023    12   -12
    0.006913646   3    1000023    1   -1
    0.0069136036   3    1000023    3   -3
    0.006826352   3    1000023    5   -5
    0.0053923804   3    1000023    2   -2
    0.0053847002   3    1000023    4   -4
    0.0015606909   3    1000023    11   -11
    0.0015606751   3    1000023    13   -13
    0.001556179   3    1000023    15   -15
    0.00033418919   2    1000023    22

DECAY 1000035  0.53059112
    0.37919269   2    1000022    23
    0.30629222   2    1000024   -24
    0.30629222   2   -1000024    24
    0.0081349306   2    1000023    23

DECAY 1000021  216.72606
    0.18529252   2    1000006   -6
    0.18529252   2   -1000006    6
    0.12023181   2    1000005   -5
    0.12023181   2   -1000005    5
    0.10917766   2    2000006   -6
    0.10917766   2   -2000006    6
    0.085156468   2    2000005   -5
    0.085156468   2   -2000005    5

DECAY 25  0.0035911912
    0.61010962   2   -5    5
    0.19025216   2   -24    24
    0.07362972   2    21    21
    0.069877942   2   -15    15
    0.030159481   2   -4    4
    0.021937685   2    23    23
    0.0022850734   2    22    22
    0.0012761639   2    22    23
    0.00024238484   2   -13    13
    0.0002289669   2   -3    3
    6.3307018e-07   2   -1    1
    1.554268e-07   2   -2    2
    5.4491123e-09   2   -11    11

DECAY 35  55.730904
    0.21552258   2   -1000024    1000024
    0.12130093   2   -1000024    1000037
    0.12130093   2   -1000037    1000024
    0.10502798   2   -5    5
    0.090527423   2    1000022    1000022
    0.076194672   2    1000025    1000035
    0.063620202   2   -1000037    1000037
    0.060758805   2    1000035    1000035
    0.056505082   2    1000022    1000023
    0.020721593   2    1000025    1000025
    0.018449587   2   -6    6
    0.018343909   2   -15    15
    0.014265082   2    1000022    1000025
    0.0086704684   2    1000023    1000023
    0.0038905234   2    1000022    1000035
    0.0033145163   2    1000023    1000025
    0.00058889058   2    1000023    1000035
    0.00033911332   2   -2000015    1000015
    0.00033911332   2   -1000015    2000015
    7.017305e-05   2   -2000006    2000006
    6.3856834e-05   2   -13    13
    5.4724021e-05   2   -2000006    1000006
    5.4724021e-05   2   -1000006    2000006
    3.8002034e-05   2   -3    3
    1.5005893e-05   2    25    25
    9.6082851e-06   2   -1000006    1000006
    2.7756424e-06   2    23    23
    1.7459391e-06   2    21    21
    1.1117185e-06   2   -1000005    1000005
    7.548992e-07   2   -1000015    1000015
    6.66129e-07   2   -24    24
    4.5090824e-07   2   -1000011    1000011
    4.5050497e-07   2   -1000013    1000013
    2.4308967e-07   2   -4    4
    2.1777076e-07   2   -2000011    2000011
    2.1762181e-07   2   -2000013    2000013
    1.6990775e-07   2    22    23
    1.0506291e-07   2   -1    1
    2.3564545e-08   2    22    22
    1.4341122e-09   2   -11    11
    4.2948334e-10   2   -2000013    1000013
    4.2948334e-10   2   -1000013    2000013
    1.2530491e-12   2   -2    2
    1.0045661e-14   2   -2000011    1000011
    1.0045661e-14   2   -1000011    2000011

DECAY 36  55.296838
    0.18568308   2   -1000024    1000024
    0.15373894   2   -1000024    1000037
    0.15373894   2   -1000037    1000024
    0.10050244   2   -5    5
    0.083635289   2    1000025    1000035
    0.074931915   2    1000022    1000022
    0.059232191   2    1000022    1000023
    0.041388772   2    1000035    1000035
    0.032777687   2   -1000037    1000037
    0.030709575   2    1000025    1000025
    0.030034675   2    1000022    1000025
    0.017554591   2   -15    15
    0.016947901   2   -6    6
    0.01125079   2    1000023    1000023
    0.0054837764   2    1000023    1000025
    0.001332792   2    1000022    1000035
    0.00034194061   2   -2000015    1000015
    0.00034194061   2   -1000015    2000015
    0.00011461769   2    1000023    1000035
    7.2419892e-05   2   -2000006    1000006
    7.2419892e-05   2   -1000006    2000006
    6.1109234e-05   2   -13    13
    3.6366298e-05   2   -3    3
    9.9411174e-06   2    21    21
    5.2905289e-06   2    23    25
    2.4040731e-07   2    22    23
    2.2042807e-07   2   -4    4
    1.0054009e-07   2   -1    1
    2.1523707e-08   2    22    22
    1.3724046e-09   2   -11    11
    4.3239631e-10   2   -2000013    1000013
    4.3239631e-10   2   -1000013    2000013
    1.1362683e-12   2   -2    2
    1.0113795e-14   2   -2000011    1000011
    1.0113795e-14   2   -1000011    2000011
    4.9423273e-41   2    25    25

DECAY 37  55.608252
    0.31116855   2    1000022    1000037
    0.21293006   2    1000024    1000035
    0.13668773   2    1000023    1000024
    0.12094726   2   -5    6
    0.10407842   2    1000025    1000037
    0.087884466   2    1000024    1000025
    0.018613126   2   -15    16
    0.0029270825   2    1000023    1000037
    0.0026591926   2    1000035    1000037
    0.00074368413   2   -2000005    1000006
    0.00068195442   2   -2000015    1000016
    0.00029150816   2    1000022    1000024
    0.00015358632   2   -5    4
    9.3890758e-05   2   -1000005    1000006
    6.580403e-05   2   -13    14
    3.5114696e-05   2   -3    4
    2.4803386e-05   2   -3    6
    5.2661667e-06   2    24    25
    2.7049837e-06   2   -1000015    1000016
    1.6376728e-06   2   -3    2
    1.1352181e-06   2   -1    6
    1.0967623e-06   2   -5    2
    8.6857757e-07   2   -2000011    1000012
    8.6836549e-07   2   -2000013    1000014
    9.6820164e-08   2   -1    2
    7.9840463e-08   2   -1000005    2000006
    1.4886082e-08   2   -1    4
    1.5391631e-09   2   -11    12
    8.4800946e-10   2   -1000013    1000014
    4.5578865e-14   2    24    35
    1.9834991e-14   2   -1000011    1000012

DECAY 6  2.43
    1   2    5    24

DECAY 15 -1
