BLOCK SPINFO
   1   SPheno
   2   v4.0.5be

BLOCK SPHENOINFO
   1   2
   2   2

BLOCK MODSEL
   1   0

BLOCK MINPAR
   3    38.423717
   4   -1

BLOCK EXTPAR
   0    1628.3394
   1   -30.822897
   2   -521.00752
   3    3000
   11   -3241.4589
   12    921.90105
   13    350.16721
   23   -1253.8364
   25    38.080148
   26    1830.4067
   31    1432.2709
   32    1432.2709
   33    499.85698
   34    1158.8667
   35    1158.8667
   36    594.6418
   41    5000
   42    5000
   43    1383.9055
   44    5000
   45    5000
   46    1954.7067
   47    5000
   48    5000
   49    1089.5154

BLOCK SMINPUTS
   1    127.90897
   2    1.1663787e-05
   3    0.1184
   4    91.1876
   5    4.18
   6    173.2
   7    1.777
   8    0
   11    0.00051099893
   12    0
   13    0.10565837
   14    0
   21    0.005
   22    0.0025
   23    0.095
   24    1.27

BLOCK GAUGE Q=  1628.3394
   1    0.35536298
   2    0.66519887
   3    1.219778

BLOCK YU Q=  1628.3394
   1   1    8.3872626e-06
   2   2    0.0042607294
   3   3    1.0132487

BLOCK YD Q=  1628.3394
   1   1    0.00064179911
   2   2    0.012194183
   3   3    0.63646361

BLOCK YE Q=  1628.3394
   1   1    0.00011199864
   2   2    0.023157766
   3   3    0.38947553

BLOCK AU Q=  1628.3394
   1   1    0
   2   2    0
   3   3   -3241.4589

BLOCK AD Q=  1628.3394
   1   1    0
   2   2    0
   3   3    921.90106

BLOCK AE Q=  1628.3394
   1   1    0
   2   2    0
   3   3    350.16721

BLOCK MSOFT Q=  1628.3394
   1   -30.822897
   2   -521.00752
   3    3000
   21    1870252.3
   22   -1535217.9
   31    1432.2709
   32    1432.2709
   33    499.85698
   34    1158.8667
   35    1158.8667
   36    594.6418
   41    5000
   42    5000
   43    1383.9055
   44    5000
   45    5000
   46    1954.7067
   47    5000
   48    5000
   49    1089.5154

BLOCK MASS
   6    173.2
   23    91.1876
   24    80.429995
   15    1.777
   25    123.56187
   35    1829.4437
   36    1830.4067
   37    1832.5382
   1000001    5034.0688
   2000001    5023.48
   1000002    5033.6129
   2000002    5024.6649
   1000003    5034.0764
   2000003    5023.4804
   1000004    5033.6158
   2000004    5024.6655
   1000005    1077.6965
   2000005    1400.6825
   1000006    1355.546
   2000006    1956.0305
   1000011    1436.0665
   2000011    1161.8047
   1000012    1433.4951
   1000013    1436.0687
   2000013    1161.7733
   1000014    1433.4843
   1000015    450.26188
   2000015    631.15594
   1000016    498.10787
   1000021    3198.2178
   1000022   -30.527972
   1000023   -548.45763
   1000025    1250.4304
   1000035   -1254.3522
   1000024    548.64529
   1000037    1254.7715

BLOCK ALPHA
      -0.026256409

BLOCK HMIX Q=  1628.3394
   1   -1253.8364
   2    38.080148
   3    243.91747
   4    3350388.8

BLOCK STOPMIX
   1   1    0.97324276
   1   2    0.2297793
   2   1   -0.2297793
   2   2    0.97324276

BLOCK SBOTMIX
   1   1   -0.19795629
   1   2    0.98021085
   2   1   -0.98021085
   2   2   -0.19795629

BLOCK STAUMIX
   1   1   -0.85988093
   1   2    0.51049465
   2   1   -0.51049465
   2   2   -0.85988093

BLOCK NMIX
   1   1    0.9993687
   1   2   -0.00025279162
   1   3   -0.035487216
   1   4    0.0016727767
   2   1    0.0030908144
   2   2    0.99630654
   2   3    0.078288098
   2   4   -0.035138342
   3   1    0.023876331
   3   2   -0.030603894
   3   3    0.70594398
   3   4    0.70720324
   4   1    0.026126085
   4   2   -0.08022855
   4   3    0.70303252
   4   4   -0.70613461

BLOCK UMIX
   1   1   -0.99381303
   1   2   -0.111066
   2   1   -0.111066
   2   2    0.99381303

BLOCK VMIX
   1   1    0.99874197
   1   2    0.050144488
   2   1    0.050144488
   2   2   -0.99874197

BLOCK HIGGSBOUNDSINPUTHIGGSCOUPLINGSFERMIONS
       0, 1450.0976,3,36,15,15

BLOCK HIGGSBOUNDSINPUTHIGGSCOUPLINGSBOSONS
       0,4,36,21,21,23

BLOCK SPHENOLOWENERGY
   1    0.00037035123
   2    1.5864311e-06
   3    3.5232169e-05
   4    1.4080017e-15
   5    6.0129326e-11
   6    1.1491508e-08
   7    4.8240672e-14
   8    2.0602406e-09
   9    4.017973e-07
   10    9.2834327e-05
   11    0.95894306
   12    0.5429228
   13    19.356352
   14    0
   15    0
   16    0.0021645537
   17    2.2817349e-15
   18    2.4795255e-11
   19    8.2888665e-11
   20    6.7790265e-15
   21    2.8982118e-10
   22    2.400237e-07
   23    0
   24    0
   25    0
   26    0
   27    0
   28    0
   29    0
   30    0
   31    0
   39    0.00010768757
   40    0
   41    0
   42    0

BLOCK FWCOEF Q=  160
   305   4422   0   0   -0.18881911
   305   4422   0   2   -0.24386557
   305   4322   0   2   -0.00053193063
   305   6421   0   0   -0.095227835
   305   6421   0   2   -0.13440823
   305   6321   0   2   -0.00044008022
   3051111   4133   0   0    1.595189
   3051111   4133   0   2    1.5956737
   3051111   4233   0   2    0.0001853866
   3051111   4137   0   0   -4.4178811
   3051111   4137   0   2   -4.4141881
   3051111   4237   0   2   -0.0014355738
   3051313   4133   0   0    1.595189
   3051313   4133   0   2    1.5956713
   3051313   4233   0   2    0.00018538443
   3051313   4137   0   0   -4.4178811
   3051313   4137   0   2   -4.4141905
   3051313   4237   0   2   -0.0014355742
   3051212   4137   0   0    1.5053501
   3051212   4137   0   2    1.5045644
   3051212   4237   0   2    0.00031262346
   3051414   4137   0   0    1.5053501
   3051414   4137   0   2    1.5045644
   3051414   4237   0   2    0.00031262379
   3051616   4137   0   0    1.5053501
   3051616   4137   0   2    1.5045656
   3051616   4237   0   2    0.00031271244

BLOCK IMFWCOEF Q=  160
   305   4422   0   0    3.8567024e-07
   305   4422   0   2    1.4791737e-05
   305   4322   0   2   -4.6544736e-06
   305   6421   0   0    3.3035206e-07
   305   6421   0   2    2.3270872e-05
   305   6321   0   2   -1.8062589e-06
   3051111   4133   0   2   -1.5387711e-06
   3051111   4233   0   2    4.7066172e-06
   3051111   4137   0   2    1.47624e-05
   3051111   4237   0   2   -3.6467225e-05
   3051313   4133   0   2   -1.5387751e-06
   3051313   4233   0   2    4.7066056e-06
   3051313   4137   0   2    1.4762439e-05
   3051313   4237   0   2   -3.6467259e-05
   3051212   4137   0   2   -2.8706238e-06
   3051212   4237   0   2    7.9415449e-06
   3051414   4137   0   2   -2.8706232e-06
   3051414   4237   0   2    7.9415449e-06
   3051616   4137   0   2   -2.8517865e-06
   3051616   4237   0   2    7.941485e-06

DECAY 23  2.4952


DECAY 24  2.085


DECAY 2000011  5.8222612
    0.99999421   2    1000022    11

DECAY 1000011  15.508294
    0.58723152   2   -1000024    12
    0.29613913   2    1000023    11
    0.11595849   2    1000022    11
    0.00056267082   2   -1000037    12
    0.00010059796   2    1000035    11

DECAY 2000013  5.8222576
    0.99997048   2    1000022    13

DECAY 1000013  15.511091
    0.58712713   2   -1000024    14
    0.29609105   2    1000023    13
    0.11593899   2    1000022    13
    0.00056258133   2   -1000037    14
    0.00012796125   2    1000035    13
    0.00011593038   2    2000013    25

DECAY 1000015  1.0250851
    1   2    1000022    15

DECAY 2000015  5.3645134
    0.46617633   2    1000022    15
    0.23188485   2    1000015    23
    0.22367362   2    1000016   -24
    0.059210287   2    1000015    25
    0.012603456   2   -1000024    16
    0.0064514611   2    1000023    15

DECAY 1000012  15.522281
    0.59074976   2    1000024    11
    0.2930314   2    1000023    12
    0.11586542   2    1000022    12
    0.00019798713   2    1000035    12
    0.00011175033   2    1000037    11

DECAY 1000014  15.523052
    0.59072145   2    1000024    13
    0.29301312   2    1000023    14
    0.11585879   2    1000022    14
    0.00019795627   2    1000035    14
    0.00016500663   2    1000037    13

DECAY 1000016  0.6211958
    0.99938611   2    1000022    16
    0.00030726263   3    1000015   -2    1
    0.00030662402   3    1000015   -4    3

DECAY 2000001  143.02723
    0.98039524   2    1000021    1
    0.019582464   2    1000022    1

DECAY 1000001  206.85998
    0.68319131   2    1000021    1
    0.20658857   2   -1000024    2
    0.10370031   2    1000023    1
    0.0034017092   2    1000022    1
    0.0023244743   2   -1000037    2
    0.00067896338   2    1000035    1
    0.00011465871   2    1000025    1

DECAY 2000003  143.05336
    0.98021643   2    1000021    3
    0.019579019   2    1000022    3

DECAY 1000003  206.87555
    0.6831437   2    1000021    3
    0.20657333   2   -1000024    4
    0.1036931   2    1000023    3
    0.0034015486   2    1000022    3
    0.002332054   2   -1000037    4
    0.00071011828   2    1000035    3
    0.0001461442   2    1000025    3

DECAY 1000005  1.2961538
    0.49410268   2    1000022    5
    0.32297598   2   -1000024    6
    0.18292134   2    1000023    5

DECAY 2000005  15.88698
    0.47797395   2   -1000024    6
    0.25691964   2    1000023    5
    0.13259103   2    1000005    23
    0.09285803   2    1000005    25
    0.014684046   2    1000025    5
    0.014183613   2    1000035    5
    0.010789689   2    1000022    5

DECAY 2000002  151.56489
    0.92598277   2    1000021    2
    0.07393497   2    1000022    2

DECAY 1000002  206.85264
    0.68298617   2    1000021    2
    0.20863046   2    1000024    1
    0.10392354   2    1000023    2
    0.003382249   2    1000022    2
    0.00053815396   2    1000035    2
    0.00047395112   2    1000037    1

DECAY 2000004  151.56808
    0.92596327   2    1000021    4
    0.073933408   2    1000022    4

DECAY 1000004  206.8676
    0.68293796   2    1000021    4
    0.20861636   2    1000024    3
    0.10391608   2    1000023    4
    0.0033820059   2    1000022    4
    0.00054195634   2    1000035    4
    0.00053628518   2    1000037    3

DECAY 1000006  15.879353
    0.48396182   2    1000024    5
    0.23333893   2    1000023    6
    0.17275645   2    1000005    24
    0.069888504   2    1000023    4
    0.020390158   2    1000022    6
    0.016086025   2    1000037    5
    0.00317245   2    1000022    4
    0.00040565565   3    1000022    24    5

DECAY 2000006  105.00515
    0.27538806   2    2000005    24
    0.20734267   2    1000006    25
    0.16420297   2    1000006    23
    0.1250986   2    1000037    5
    0.070172712   2    1000025    6
    0.066210866   2    1000035    6
    0.038911782   2    1000022    6
    0.033431431   2    1000005    24
    0.012929385   2    1000024    5
    0.006311518   2    1000023    6

DECAY 1000024  0.27901722
    0.72707695   2   -1000015    16
    0.26889528   2    1000016   -15
    0.0037220794   2    1000022    24
    0.0002536821   3    1000022   -15    16

DECAY 1000037  11.672822
    0.23002113   2    1000023    24
    0.22532725   2    1000024    25
    0.22021332   2    1000024    23
    0.11446506   2    1000016   -15
    0.081921782   2   -2000015    16
    0.071485133   2    1000022    24
    0.031667448   2   -1000005    6
    0.014588051   2   -1000015    16
    0.0041590656   3    1000023   -5    6
    0.0036601512   3    1000024    6   -6
    0.001954061   3    1000022   -5    6
    0.00032744122   3    1000024    5   -5
    0.00011810063   3    1000024    15   -15

DECAY 1000022 -1


DECAY 1000023  0.27843413
    0.36639845   2    1000015   -15
    0.36639845   2   -1000015    15
    0.13161167   2    1000016   -16
    0.13161167   2   -1000016    16
    0.0021980408   2    1000022    25
    0.0014869108   2    1000022    23
    0.00025417597   3    1000022    15   -15

DECAY 1000025  13.938278
    0.18470305   2    1000024   -24
    0.18470305   2   -1000024    24
    0.16474603   2    1000023    23
    0.15195164   2    1000023    25
    0.047698212   2    1000015   -15
    0.047698212   2   -1000015    15
    0.040103884   2    2000015   -15
    0.040103884   2   -2000015    15
    0.034775   2    1000005   -5
    0.034775   2   -1000005    5
    0.032808862   2    1000022    23
    0.027483482   2    1000022    25
    0.0030073977   3    1000024    5   -6
    0.0030073977   3   -1000024   -5    6
    0.00089665515   3    1000023    6   -6
    0.00077672788   3    1000022    6   -6
    0.00026272708   2    1000016   -16
    0.00026272708   2   -1000016    16
    0.00010630666   3    1000023    5   -5

DECAY 1000035  12.244042
    0.21343959   2    1000024   -24
    0.21343959   2   -1000024    24
    0.18930518   2    1000023    25
    0.050205913   2    1000015   -15
    0.050205913   2   -1000015    15
    0.049045149   2    2000015   -15
    0.049045149   2   -2000015    15
    0.039970733   2    1000005   -5
    0.039970733   2   -1000005    5
    0.03467907   2    1000022    25
    0.030942953   2    1000022    23
    0.027060693   2    1000023    23
    0.0037506985   3    1000024    5   -6
    0.0037506985   3   -1000024   -5    6
    0.0014189916   2    1000016   -16
    0.0014189916   2   -1000016    16
    0.0011247511   3    1000023    6   -6
    0.00095473073   3    1000022    6   -6
    0.00012560773   3    1000023    5   -5

DECAY 1000021  254.15034
    0.14651655   2    1000005   -5
    0.14651655   2   -1000005    5
    0.12149653   2    2000005   -5
    0.12149653   2   -2000005    5
    0.11777563   2    1000006   -6
    0.11777563   2   -1000006    6
    0.078145065   2    2000006   -6
    0.078145065   2   -2000006    6
    0.033544399   2    1000006   -4
    0.033544399   2   -1000006    4
    0.0016304773   3    1000037    5   -6
    0.0016304773   3   -1000037   -5    6
    0.00064930725   3    1000025    6   -6
    0.00062464677   3    1000035    6   -6
    0.00016159454   3    1000025    5   -5
    0.00015434839   3    1000035    5   -5

DECAY 25  0.0037315853
    0.5985371   2   -5    5
    0.20374793   2   -24    24
    0.071526404   2    21    21
    0.068584314   2   -15    15
    0.029109986   2   -4    4
    0.023963862   2    23    23
    0.0023456083   2    22    22
    0.0013682184   2    22    23
    0.0003533644   2    1000022    1000022
    0.00023793374   2   -13    13
    0.00022450709   2   -3    3
    6.2074164e-07   2   -1    1
    1.5001487e-07   2   -2    2
    5.3490348e-09   2   -11    11

DECAY 35  71.14494
    0.86218533   2   -5    5
    0.091931868   2   -15    15
    0.010467294   2   -1000024    1000037
    0.010467294   2   -1000037    1000024
    0.010092635   2    1000023    1000025
    0.0045711399   2    1000022    1000025
    0.0036730261   2    1000022    1000035
    0.0013843057   2   -1000024    1000024
    0.0010436238   2   -6    6
    0.00072992971   2   -1000015    1000015
    0.00068730515   2    1000023    1000023
    0.0006063839   2   -2000015    2000015
    0.00058063628   2    1000023    1000035
    0.00049884858   2    1000022    1000023
    0.00029104323   2   -13    13
    0.00024030154   2   -2000015    1000015
    0.00024030154   2   -1000015    2000015
    0.00019896543   2   -3    3
    7.1000142e-05   2    1000022    1000022
    2.243213e-05   2    21    21
    1.3392036e-05   2    25    25
    1.164529e-06   2    23    23
    7.0168943e-07   2   -24    24
    5.5018786e-07   2   -1    1
    1.0400758e-07   2    22    23
    2.3140653e-08   2    22    22
    6.7707916e-09   2   -4    4
    6.5376766e-09   2   -11    11
    3.4880819e-14   2   -2    2

DECAY 36  67.671222
    0.85936783   2   -5    5
    0.091616701   2   -15    15
    0.010913038   2   -1000024    1000037
    0.010913038   2   -1000037    1000024
    0.010202728   2    1000023    1000035
    0.004698541   2    1000022    1000035
    0.0039738961   2    1000022    1000025
    0.0022438186   2   -1000024    1000024
    0.0011913574   2   -6    6
    0.0011142855   2    1000023    1000023
    0.00096202824   2   -2000015    1000015
    0.00096202824   2   -1000015    2000015
    0.00069380594   2    1000023    1000025
    0.00055064324   2    1000022    1000023
    0.0002900699   2   -13    13
    0.00019829657   2   -3    3
    7.5165077e-05   2    1000022    1000022
    3.0179958e-05   2    21    21
    1.6309866e-06   2    23    25
    5.4833881e-07   2   -1    1
    2.6141219e-07   2    22    23
    9.0092044e-08   2    22    22
    7.7832368e-09   2   -4    4
    6.5158028e-09   2   -11    11
    4.0099174e-14   2   -2    2
    4.9724762e-37   2    25    25

DECAY 37  59.246719
    0.85395019   2   -5    6
    0.091323422   2   -15    16
    0.013465744   2    1000024    1000025
    0.013170034   2    1000023    1000037
    0.013085347   2    1000024    1000035
    0.0097428157   2    1000022    1000037
    0.00160948   2   -2000015    1000016
    0.0012722131   2   -5    4
    0.0012264526   2    1000022    1000024
    0.00059070395   2   -1000015    1000016
    0.00032286128   2   -13    14
    0.00021740212   2   -3    4
    1.0122561e-05   2   -3    2
    9.0849203e-06   2   -5    2
    1.8726588e-06   2    24    25
    1.5447963e-06   2   -3    6
    6.0354142e-07   2   -1    2
    5.6339962e-08   2   -1    6
    2.8541572e-08   2   -1    4
    1.2482705e-08   2    1000023    1000024
    7.551759e-09   2   -11    12
    6.5127498e-12   2    24    35
    1.0100965e-12   2    24    36

DECAY 6  2.43
    1   2    5    24

DECAY 15 -1
