BLOCK SPINFO
   1   SPheno
   2   v4.0.5be

BLOCK SPHENOINFO
   1   2
   2   2

BLOCK MODSEL
   1   0

BLOCK MINPAR
   3    15.618193
   4   -1

BLOCK EXTPAR
   0    3418.2937
   1   -2363.5313
   2    2390.2657
   3    3505.5443
   11   -2292.1055
   12    6027.3837
   13   -495.07603
   23   -289.03314
   25    14.911873
   26    3345.9592
   31    4480.6801
   32    4480.6801
   33    1123.8468
   34    2407.9007
   35    2407.9007
   36    486.55688
   41    2258.3647
   42    2258.3647
   43    2162.5284
   44    2772.2786
   45    2772.2786
   46    4975.0251
   47    1888.018
   48    1888.018
   49    3825.8108

BLOCK SMINPUTS
   1    127.90897
   2    1.1663787e-05
   3    0.1184
   4    91.1876
   5    4.18
   6    173.2
   7    1.777
   8    0
   11    0.00051099893
   12    0
   13    0.10565837
   14    0
   21    0.005
   22    0.0025
   23    0.095
   24    1.27

BLOCK GAUGE Q=  3418.2937
   1    0.35536298
   2    0.66519887
   3    1.219778

BLOCK YU Q=  3418.2937
   1   1    8.4032038e-06
   2   2    0.0042688275
   3   3    1.0151745

BLOCK YD Q=  3418.2937
   1   1    0.00025180093
   2   2    0.0047842177
   3   3    0.24970762

BLOCK YE Q=  3418.2937
   1   1    4.3941104e-05
   2   2    0.0090856268
   3   3    0.1528053

BLOCK AU Q=  3418.2937
   1   1    0
   2   2    0
   3   3   -2292.1061

BLOCK AD Q=  3418.2937
   1   1    0
   2   2    0
   3   3    6027.394

BLOCK AE Q=  3418.2937
   1   1    0
   2   2    0
   3   3   -495.07599

BLOCK MSOFT Q=  3418.2937
   1   -2363.5313
   2    2390.2657
   3    3505.5443
   21    10999139
   22    34230.762
   31    4480.6801
   32    4480.6801
   33    1123.8468
   34    2407.9007
   35    2407.9007
   36    486.55688
   41    2258.3647
   42    2258.3647
   43    2162.5284
   44    2772.2786
   45    2772.2786
   46    4975.0251
   47    1888.018
   48    1888.018
   49    3825.8108

BLOCK MASS
   6    173.2
   23    91.1876
   24    80.429995
   15    1.777
   25    120.3638
   35    3345.857
   36    3345.9592
   37    3347.1717
   1000001    2440.4747
   2000001    2054.32
   1000002    2439.1446
   2000002    2915.6587
   1000003    2440.4736
   2000003    2054.3185
   1000004    2439.1436
   2000004    2915.658
   1000005    2327.4186
   2000005    3930.5048
   1000006    2329.2216
   2000006    5016.5822
   1000011    4493.946
   2000011    2420.1226
   1000012    4492.8211
   1000013    4493.9432
   2000013    2420.1154
   1000014    4492.8184
   1000015    523.99207
   2000015    1167.0169
   1000016    1163.6786
   1000021    3591.1526
   1000022    289.49399
   1000023   -291.26687
   1000025   -2334.7444
   1000035    2402.1361
   1000024    290.47767
   1000037    2402.3567

BLOCK ALPHA
      -0.064066205

BLOCK HMIX Q=  3418.2937
   1   -289.03314
   2    14.911873
   3    243.14177
   4    11195443

BLOCK STOPMIX
   1   1    0.99985866
   1   2    0.016812714
   2   1   -0.016812714
   2   2    0.99985866

BLOCK SBOTMIX
   1   1   -0.99999726
   1   2    0.0023405261
   2   1   -0.0023405261
   2   2   -0.99999726

BLOCK STAUMIX
   1   1   -0.0061726401
   1   2    0.99998095
   2   1   -0.99998095
   2   2   -0.0061726401

BLOCK NMIX
   1   1   -0.010782209
   1   2   -0.024660964
   1   3   -0.70820973
   1   4   -0.70548888
   2   1    0.015895312
   2   2    0.022172158
   2   3   -0.70599068
   2   4    0.70769548
   3   1   -0.99981548
   3   2    0.0003161787
   3   3   -0.0035859907
   3   4    0.018869264
   4   1    0.00030237903
   4   2   -0.99944992
   4   3    0.0018116606
   4   4    0.033113353

BLOCK UMIX
   1   1   -0.00256687
   1   2   -0.99999671
   2   1    0.99999671
   2   2   -0.00256687

BLOCK VMIX
   1   1   -0.046851781
   1   2    0.99890185
   2   1    0.99890185
   2   2    0.046851781

BLOCK HIGGSBOUNDSINPUTHIGGSCOUPLINGSFERMIONS
       0, 222.36395,3,36,15,15

BLOCK HIGGSBOUNDSINPUTHIGGSCOUPLINGSBOSONS
       0,4,36,21,21,23

BLOCK SPHENOLOWENERGY
   1    0.00032898515
   2    1.5898005e-06
   3    3.5263863e-05
   4    2.4397039e-15
   5    1.0422141e-10
   6    2.1819686e-08
   7    8.2376074e-14
   8    3.5191042e-09
   9    7.4649693e-07
   10    9.667489e-05
   11    0.9986146
   12    0.54192909
   13    19.362874
   14    0
   15    0
   16    0.0021570855
   17    2.281656e-15
   18    2.4805063e-11
   19    8.2919761e-11
   20   -5.1004741e-16
   21   -2.180623e-11
   22   -9.3119989e-09
   23    0
   24    0
   25    0
   26    0
   27    0
   28    0
   29    0
   30    0
   31    0
   39    2.9659134e-05
   40    0
   41    0
   42    0

BLOCK FWCOEF Q=  160
   305   4422   0   0   -0.18881911
   305   4422   0   2   -0.19849286
   305   4322   0   2   -0.00019082484
   305   6421   0   0   -0.095227835
   305   6421   0   2   -0.10405179
   305   6321   0   2   -0.00017278694
   3051111   4133   0   0    1.6208053
   3051111   4133   0   2    1.6212051
   3051111   4233   0   2    7.075494e-05
   3051111   4137   0   0   -4.4434974
   3051111   4137   0   2   -4.4429507
   3051111   4237   0   2   -0.00052853013
   3051313   4133   0   0    1.6208053
   3051313   4133   0   2    1.621205
   3051313   4233   0   2    7.0754918e-05
   3051313   4137   0   0   -4.4434974
   3051313   4137   0   2   -4.4429507
   3051313   4237   0   2   -0.00052853016
   3051212   4137   0   0    1.5053501
   3051212   4137   0   2    1.5052338
   3051212   4237   0   2    0.00011443926
   3051414   4137   0   0    1.5053501
   3051414   4137   0   2    1.5052338
   3051414   4237   0   2    0.00011443926
   3051616   4137   0   0    1.5053501
   3051616   4137   0   2    1.5052329
   3051616   4237   0   2    0.00011443938

BLOCK IMFWCOEF Q=  160
   305   4422   0   0    3.8581973e-07
   305   4422   0   2   -1.0119323e-05
   305   4322   0   2   -1.4638179e-06
   305   6421   0   0    3.3048012e-07
   305   6421   0   2    1.2889806e-06
   305   6321   0   2   -5.2549021e-07
   3051111   4133   0   2    9.663177e-07
   3051111   4233   0   2    1.3568503e-06
   3051111   4137   0   2   -4.1287574e-06
   3051111   4237   0   2   -1.0135198e-05
   3051313   4133   0   2    9.6631679e-07
   3051313   4233   0   2    1.35685e-06
   3051313   4137   0   2   -4.1287574e-06
   3051313   4237   0   2   -1.0135199e-05
   3051212   4137   0   2    9.3099075e-07
   3051212   4237   0   2    2.1945099e-06
   3051414   4137   0   2    9.3099075e-07
   3051414   4237   0   2    2.1945099e-06
   3051616   4137   0   2    9.1458787e-07
   3051616   4237   0   2    2.194507e-06

DECAY 23  2.4952


DECAY 24  2.085


DECAY 2000011  0.062756476
    0.93056065   2    1000025    11
    0.047550469   2    1000023    11
    0.021887435   2    1000022    11

DECAY 1000011  33.299144
    0.60603696   2   -1000037    12
    0.30263382   2    1000035    11
    0.090222425   2    1000025    11
    0.00055385287   2    1000023    11
    0.0005451754   2    1000022    11

DECAY 2000013  0.07046823
    0.82858825   2    1000025    13
    0.069649501   2    1000023    13
    0.054786758   2   -1000024    14
    0.046975484   2    1000022    13

DECAY 1000013  33.30642
    0.6059036   2   -1000037    14
    0.30256722   2    1000035    13
    0.09020258   2    1000025    13
    0.00066324435   2    1000023    13
    0.00065527259   2    1000022    13

DECAY 1000015  0.2341623
    0.49880818   2   -1000024    16
    0.25241749   2    1000022    15
    0.24877433   2    1000023    15

DECAY 2000015  0.50578934
    0.48134047   2    1000022    15
    0.47836307   2    1000023    15
    0.020253465   2    1000015    25
    0.020019404   2    1000015    23

DECAY 1000012  33.306994
    0.6041746   2    1000037    11
    0.30256113   2    1000035    12
    0.090358898   2    1000025    12
    0.0025848271   2    1000024    11
    0.00021034752   2    1000022    12
    0.00011018843   2    1000023    12

DECAY 1000014  33.314259
    0.6040419   2    1000037    13
    0.30249468   2    1000035    14
    0.090339058   2    1000025    14
    0.0028038892   2    1000024    13
    0.00021030152   2    1000022    14
    0.00011016433   2    1000023    14

DECAY 1000016  0.51780793
    0.95636407   2    1000024    15
    0.038899483   2    1000015    24
    0.0031098564   2    1000022    16
    0.0016265939   2    1000023    16

DECAY 2000001  0.00041131649
    0.67949471   2    1000023    1
    0.31445478   2    1000022    1
    0.0060505077   2   -1000024    2

DECAY 1000001  0.042965992
    0.48032774   2   -1000037    2
    0.24268984   2    1000035    1
    0.12571335   2    1000022    1
    0.090916524   2    1000023    1
    0.057150507   2    1000025    1
    0.0032018983   2   -1000024    2

DECAY 2000003  0.0022031824
    0.40777812   2   -1000024    4
    0.32950582   2    1000023    3
    0.26271606   2    1000022    3

DECAY 1000003  0.044887397
    0.45943549   2   -1000037    4
    0.23228583   2    1000035    3
    0.13237066   2    1000022    3
    0.098980661   2    1000023    3
    0.054702978   2    1000025    3
    0.02217652   2   -1000024    4

DECAY 1000005  48.418064
    0.94202883   2   -1000024    6
    0.029103917   2    1000022    5
    0.028867257   2    1000023    5

DECAY 2000005  19.154526
    0.44213884   2    1000021    5
    0.25082935   2   -1000024    6
    0.12627285   2    1000022    5
    0.12553351   2    1000023    5
    0.047963446   2    1000025    5
    0.0032134549   2    1000006   -24
    0.0024275572   2    1000005    25
    0.0016093744   2    1000005    23

DECAY 1000002  0.091008971
    0.50333863   2    1000024    1
    0.210983   2    1000037    1
    0.10685631   2    1000035    2
    0.081017065   2    1000022    2
    0.071656451   2    1000023    2
    0.02614855   2    1000025    2

DECAY 2000002  0.84019447
    0.99719752   2    1000025    2
    0.0019191366   2    1000023    2
    0.00088326324   2    1000022    2

DECAY 1000004  0.092933928
    0.50449852   2    1000024    3
    0.20659899   2    1000037    3
    0.10456339   2    1000035    4
    0.083936806   2    1000022    4
    0.074797575   2    1000023    4
    0.025604718   2    1000025    4

DECAY 2000004  0.84225824
    0.99474769   2    1000025    4
    0.0025306977   2    1000023    4
    0.0014936078   2    1000022    4
    0.0012274959   2    1000024    3

DECAY 1000006  48.816138
    0.46900995   2    1000023    6
    0.46632745   2    1000022    6
    0.059493821   2    1000024    5
    0.0050323316   3    1000022    24    5

DECAY 2000006  329.34976
    0.30911874   2    1000024    5
    0.28195046   2    1000021    6
    0.15497269   2    1000023    6
    0.15399491   2    1000022    6
    0.035575244   2    1000005    24
    0.024991124   2    1000006    25
    0.020714342   2    1000025    6
    0.017752263   2    1000006    23
    0.00062072735   2    1000037    5
    0.00030947606   2    1000035    6

DECAY 1000024  9.6791396e-13
    0.71035682   2    1000022    211
    0.148918   3    1000022   -11    12
    0.14072517   3    1000022   -13    14

DECAY 1000037  33.358996
    0.18527315   2    1000016   -15
    0.18501986   2   -2000015    16
    0.15249401   2    1000024    25
    0.14926342   2    1000023    24
    0.14858196   2    1000024    23
    0.14830326   2    1000022    24
    0.012955502   3    1000024    6   -6
    0.0076382293   3    1000023   -5    6
    0.0070428984   3    1000022   -5    6
    0.0033970337   2    1000006   -5

DECAY 1000022 -1


DECAY 1000023  9.451191e-10
    0.95461212   2    1000022    22
    0.012974102   3    1000022    12   -12
    0.0097008866   3    1000022    1   -1
    0.009383455   3    1000022    3   -3
    0.0075663571   3    1000022    2   -2
    0.0021894181   3    1000022    11   -11
    0.0020777402   3    1000022    13   -13
    0.00045637119   3    1000024    1   -2
    0.00045637119   3   -1000024   -1    2
    0.00015216162   3    1000024    11   -12
    0.00015216162   3   -1000024   -11    12
    0.00013942625   3    1000024    13   -14
    0.00013942625   3   -1000024   -13    14

DECAY 1000025  20.915265
    0.2528076   2    1000015   -15
    0.2528076   2   -1000015    15
    0.072900225   2    1000024   -24
    0.072900225   2   -1000024    24
    0.049711877   2    1000022    23
    0.04916742   2    1000023    25
    0.039636387   2    1000016   -16
    0.039636387   2   -1000016    16
    0.03939601   2    2000015   -15
    0.03939601   2   -2000015    15
    0.03776435   2    1000022    25
    0.023156814   2    1000023    23
    0.0047642167   2    2000003   -3
    0.0047642167   2   -2000003    3
    0.0047641676   2    2000001   -1
    0.0047641676   2   -2000001    1
    0.0032881471   3    1000024    5   -6
    0.0032881471   3   -1000024   -5    6
    0.002602603   3    1000023    6   -6
    0.0024718802   3    1000022    6   -6

DECAY 1000035  34.634941
    0.14352239   2    1000024   -24
    0.14352239   2   -1000024    24
    0.10606083   2    1000023    25
    0.089332212   2    1000016   -16
    0.089332212   2   -1000016    16
    0.088957629   2    2000015   -15
    0.088957629   2   -2000015    15
    0.081347586   2    1000022    25
    0.079623355   2    1000023    23
    0.063582558   2    1000022    23
    0.006875478   3    1000024    5   -6
    0.006875478   3   -1000024   -5    6
    0.0044016096   3    1000023    6   -6
    0.0041504387   3    1000022    6   -6
    0.0017132704   2    1000005   -5
    0.0017132704   2   -1000005    5

DECAY 1000021  315.3253
    0.076287906   2    2000003   -3
    0.076287906   2   -2000003    3
    0.076287795   2    2000001   -1
    0.076287795   2   -2000001    1
    0.056696092   2    1000005   -5
    0.056696092   2   -1000005    5
    0.055920038   2    1000006   -6
    0.055920038   2   -1000006    6
    0.048909162   2    1000004   -4
    0.048909162   2   -1000004    4
    0.048909112   2    1000002   -2
    0.048909112   2   -1000002    2
    0.048817838   2    1000003   -3
    0.048817838   2   -1000003    3
    0.048817764   2    1000001   -1
    0.048817764   2   -1000001    1
    0.019578564   2    2000004   -4
    0.019578564   2   -2000004    4
    0.019578557   2    2000002   -2
    0.019578557   2   -2000002    2

DECAY 25  0.0033616987
    0.64060109   2   -5    5
    0.15799417   2   -24    24
    0.075133231   2    21    21
    0.073242536   2   -15    15
    0.031690775   2   -4    4
    0.017421788   2    23    23
    0.0023105791   2    22    22
    0.0011101882   2    22    23
    0.00025404647   2   -13    13
    0.00024076223   2   -3    3
    6.6568437e-07   2   -1    1
    1.6332567e-07   2   -2    2
    5.711312e-09   2   -11    11

DECAY 35  20.897639
    0.42205727   2   -5    5
    0.14138716   2   -1000024    1000037
    0.14138716   2   -1000037    1000024
    0.079980503   2    1000023    1000035
    0.077019226   2   -15    15
    0.061614742   2    1000022    1000035
    0.03125537   2    1000022    1000025
    0.025513844   2   -6    6
    0.014474241   2    1000023    1000025
    0.0028629797   2   -1000024    1000024
    0.00079122877   2   -2000015    1000015
    0.00079122877   2   -1000015    2000015
    0.00027087208   2   -13    13
    0.00026821424   2    1000022    1000022
    0.00016600114   2   -3    3
    0.00010939776   2    1000023    1000023
    3.3085417e-05   2    25    25
    5.2030267e-06   2    23    23
    3.0165256e-06   2    1000022    1000023
    1.5864249e-06   2   -2000015    2000015
    1.5602474e-06   2    21    21
    1.3648e-06   2   -24    24
    4.5894492e-07   2   -1    1
    3.4830461e-07   2   -4    4
    1.3461614e-07   2   -1000015    1000015
    1.0593054e-08   2    22    23
    6.0834451e-09   2   -11    11
    4.1287552e-11   2    22    22
    1.7954343e-12   2   -2    2

DECAY 36  20.5889
    0.41697216   2   -5    5
    0.143532   2   -1000024    1000037
    0.143532   2   -1000037    1000024
    0.081779354   2    1000022    1000035
    0.076092556   2   -15    15
    0.061985621   2    1000023    1000035
    0.031568806   2    1000023    1000025
    0.024285092   2   -6    6
    0.014845465   2    1000022    1000025
    0.0029518647   2   -1000024    1000024
    0.00080322196   2   -2000015    1000015
    0.00080322196   2   -1000015    2000015
    0.00026761034   2   -13    13
    0.00021727177   2    1000022    1000022
    0.00016400084   2   -3    3
    0.00014808874   2    1000023    1000023
    2.4271666e-05   2    21    21
    1.7207471e-05   2    1000022    1000023
    9.3599155e-06   2    23    25
    4.5341337e-07   2   -1    1
    3.2791152e-07   2   -4    4
    2.1629962e-08   2    22    23
    2.044177e-08   2    22    22
    6.010189e-09   2   -11    11
    1.6903645e-12   2   -2    2
    4.0257238e-41   2    25    25

DECAY 37  20.837252
    0.44472625   2   -5    6
    0.14304531   2    1000022    1000037
    0.14223573   2    1000024    1000035
    0.14186426   2    1000023    1000037
    0.07835999   2   -15    16
    0.045842962   2    1000024    1000025
    0.0015867642   2   -1000015    1000016
    0.00071804773   2    1000023    1000024
    0.00062146861   2   -5    4
    0.00050566819   2    1000022    1000024
    0.0002770305   2   -13    14
    0.00015167183   2   -3    4
    3.6773716e-05   2   -3    6
    9.2630742e-06   2    24    25
    7.0974515e-06   2   -3    2
    5.1398665e-06   2   -2000015    1000016
    4.4379234e-06   2   -5    2
    1.676308e-06   2   -1    6
    4.1995796e-07   2   -1    2
    3.493855e-08   2   -1    4
    6.4797723e-09   2   -11    12
    2.5662215e-13   2    24    35
    1.712262e-13   2    24    36

DECAY 6  2.43
    1   2    5    24

DECAY 15 -1
