BLOCK SPINFO
   1   SPheno
   2   v4.0.5be

BLOCK SPHENOINFO
   1   2
   2   2

BLOCK MODSEL
   1   0

BLOCK MINPAR
   3    15.283807
   4    1

BLOCK EXTPAR
   0    1641.7178
   1    3.5461976
   2   -715.14112
   3    3000
   11   -2806.0932
   12    1998.8574
   13   -333.68692
   23    1981.2714
   25    14.704121
   26    4697.8512
   31    1073.542
   32    1073.542
   33    1974.9699
   34    1666.8565
   35    1666.8565
   36    1314.956
   41    5000
   42    5000
   43    1392.4185
   44    5000
   45    5000
   46    1898.6768
   47    5000
   48    5000
   49    1828.6324

BLOCK SMINPUTS
   1    127.90897
   2    1.1663787e-05
   3    0.1184
   4    91.1876
   5    4.18
   6    173.2
   7    1.777
   8    0
   11    0.00051099893
   12    0
   13    0.10565837
   14    0
   21    0.005
   22    0.0025
   23    0.095
   24    1.27

BLOCK GAUGE Q=  1641.7178
   1    0.35536298
   2    0.66519887
   3    1.219778

BLOCK YU Q=  1641.7178
   1   1    8.4037391e-06
   2   2    0.0042690995
   3   3    1.0152392

BLOCK YD Q=  1641.7178
   1   1    0.00024830867
   2   2    0.0047178647
   3   3    0.24624439

BLOCK YE Q=  1641.7178
   1   1    4.3331678e-05
   2   2    0.0089596167
   3   3    0.15068601

BLOCK AU Q=  1641.7178
   1   1    0
   2   2    0
   3   3   -2806.0931

BLOCK AD Q=  1641.7178
   1   1    0
   2   2    0
   3   3    1998.8575

BLOCK AE Q=  1641.7178
   1   1    0
   2   2    0
   3   3   -333.68692

BLOCK MSOFT Q=  1641.7178
   1    3.5461976
   2   -715.14112
   3    3000
   21    18017674
   22   -3786886.8
   31    1073.542
   32    1073.542
   33    1974.9699
   34    1666.8565
   35    1666.8565
   36    1314.956
   41    5000
   42    5000
   43    1392.4185
   44    5000
   45    5000
   46    1898.6768
   47    5000
   48    5000
   49    1828.6324

BLOCK MASS
   6    173.2
   23    91.1876
   24    80.429995
   15    1.777
   25    121.98644
   35    4697.0969
   36    4697.8512
   37    4698.1177
   1000001    5032.427
   2000001    5021.7211
   1000002    5031.9775
   2000002    5025.6613
   1000003    5032.4293
   2000003    5021.7208
   1000004    5031.9785
   2000004    5025.662
   1000005    1422.9124
   2000005    1870.6614
   1000006    1391.5596
   2000006    1936.8464
   1000011    1085.3984
   2000011    1662.2484
   1000012    1082.1544
   1000013    1085.4007
   2000013    1662.2547
   1000014    1082.1593
   1000015    1310.4559
   2000015    1983.5582
   1000016    1981.2804
   1000021    3196.0405
   1000022    2.978408
   1000023   -756.30927
   1000025    1980.7749
   1000035   -1981.9794
   1000024    756.43488
   1000037    1982.715

BLOCK ALPHA
      -0.065386801

BLOCK HMIX Q=  1641.7178
   1    1981.2714
   2    14.704121
   3    243.93761
   4    22069805

BLOCK STOPMIX
   1   1    0.97162935
   1   2    0.23650877
   2   1   -0.23650877
   2   2    0.97162935

BLOCK SBOTMIX
   1   1    0.99924933
   1   2    0.038739938
   2   1   -0.038739938
   2   2    0.99924933

BLOCK STAUMIX
   1   1    0.023277312
   1   2    0.99972905
   2   1   -0.99972905
   2   2    0.023277312

BLOCK NMIX
   1   1   -0.99974981
   1   2   -0.00041415835
   1   3   -0.022300655
   1   4    0.0016830559
   2   1    0.00055891365
   2   2    0.9989092
   2   3   -0.04464062
   2   4   -0.013686209
   3   1    0.016960877
   3   2   -0.021898973
   3   3   -0.70659423
   3   4    0.70707663
   4   1    0.01457188
   4   2   -0.041239218
   4   3   -0.70585727
   4   4   -0.70700247

BLOCK UMIX
   1   1   -0.99800267
   1   2    0.063171738
   2   1   -0.063171738
   2   2   -0.99800267

BLOCK VMIX
   1   1    0.99981025
   1   2    0.019480105
   2   1    0.019480105
   2   2   -0.99981025

BLOCK HIGGSBOUNDSINPUTHIGGSCOUPLINGSFERMIONS
       0, 216.21118,3,36,15,15

BLOCK HIGGSBOUNDSINPUTHIGGSCOUPLINGSBOSONS
       0,4,36,21,21,23

BLOCK SPHENOLOWENERGY
   1    0.00031262676
   2    1.5906043e-06
   3    3.5237671e-05
   4    2.312229e-15
   5    9.8775787e-11
   6    2.0676722e-08
   7    7.7792095e-14
   8    3.3232754e-09
   9    7.0486541e-07
   10    9.6757246e-05
   11    0.9994653
   12    0.54210907
   13    19.369755
   14    0
   15    0
   16    0.002157792
   17    2.281663e-15
   18    2.4798389e-11
   19    8.2896157e-11
   20   -2.6004599e-15
   21   -1.1117943e-10
   22   -1.9270211e-08
   23    0
   24    0
   25    0
   26    0
   27    0
   28    0
   29    0
   30    0
   31    0
   39    2.6281524e-05
   40    0
   41    0
   42    0

BLOCK FWCOEF Q=  160
   305   4422   0   0   -0.18881911
   305   4422   0   2   -0.17950129
   305   4322   0   2    2.1460124e-05
   305   6421   0   0   -0.095227835
   305   6421   0   2   -0.091953035
   305   6321   0   2   -4.4905754e-05
   3051111   4133   0   0    1.5949846
   3051111   4133   0   2    1.5952215
   3051111   4233   0   2    3.1851719e-05
   3051111   4137   0   0   -4.4176767
   3051111   4137   0   2   -4.4144936
   3051111   4237   0   2   -0.00024638958
   3051313   4133   0   0    1.5949846
   3051313   4133   0   2    1.595221
   3051313   4233   0   2    3.1851708e-05
   3051313   4137   0   0   -4.4176767
   3051313   4137   0   2   -4.4144941
   3051313   4237   0   2   -0.00024638961
   3051212   4137   0   0    1.5053501
   3051212   4137   0   2    1.5046721
   3051212   4237   0   2    5.3651997e-05
   3051414   4137   0   0    1.5053501
   3051414   4137   0   2    1.5046721
   3051414   4237   0   2    5.3651997e-05
   3051616   4137   0   0    1.5053501
   3051616   4137   0   2    1.5046716
   3051616   4237   0   2    5.3652973e-05

BLOCK IMFWCOEF Q=  160
   305   4422   0   0    3.8586118e-07
   305   4422   0   2   -3.5851784e-06
   305   4322   0   2    1.4011279e-06
   305   6421   0   0    3.3051562e-07
   305   6421   0   2   -7.2967467e-06
   305   6321   0   2    5.9067279e-07
   3051111   4133   0   2   -1.721706e-06
   3051111   4233   0   2    6.1730892e-07
   3051111   4137   0   2    1.3512578e-05
   3051111   4237   0   2   -4.7763981e-06
   3051313   4133   0   2   -1.7217161e-06
   3051313   4233   0   2    6.1730876e-07
   3051313   4137   0   2    1.3512595e-05
   3051313   4237   0   2   -4.7763986e-06
   3051212   4137   0   2   -2.6592161e-06
   3051212   4237   0   2    1.0400875e-06
   3051414   4137   0   2   -2.6592159e-06
   3051414   4237   0   2    1.0400875e-06
   3051616   4137   0   2   -2.6687657e-06
   3051616   4237   0   2    1.0401036e-06

DECAY 23  2.4952


DECAY 24  2.085


DECAY 1000011  5.1445419
    0.48930366   2   -1000024    12
    0.26529947   2    1000022    11
    0.24539687   2    1000023    11

DECAY 2000011  8.3479604
    0.9999998   2    1000022    11

DECAY 1000013  5.1445841
    0.48930459   2   -1000024    14
    0.26529802   2    1000022    13
    0.24539739   2    1000023    13

DECAY 2000013  8.349055
    0.99987264   2    1000022    13
    0.00012596333   2    1000013    25

DECAY 1000015  6.5906668
    0.99835434   2    1000022    15
    0.0010965928   2   -1000024    16
    0.00054907188   2    1000023    15

DECAY 2000015  22.044009
    0.57546788   2   -1000024    16
    0.28851421   2    1000023    15
    0.11328284   2    1000022    15
    0.0113954   2    1000015    25
    0.011339533   2    1000015    23

DECAY 1000012  5.0898534
    0.48927417   2    1000024    11
    0.26652056   2    1000022    12
    0.24420527   2    1000023    12

DECAY 1000014  5.0899445
    0.48927672   2    1000024    13
    0.266517   2    1000022    14
    0.24420628   2    1000023    14

DECAY 1000016  22.054623
    0.57698966   2    1000024    15
    0.28777064   2    1000023    16
    0.11261538   2    1000022    16
    0.02262432   2    1000015    24

DECAY 2000001  143.10373
    0.98041145   2    1000021    1
    0.0195815   2    1000022    1

DECAY 1000001  205.54301
    0.68800466   2    1000021    1
    0.20507918   2   -1000024    2
    0.10270706   2    1000023    1
    0.003399665   2    1000022    1
    0.00061381043   2   -1000037    2
    0.00014781974   2    1000035    1

DECAY 2000003  143.10687
    0.98038977   2    1000021    3
    0.019581078   2    1000022    3

DECAY 1000003  205.54616
    0.68799524   2    1000021    3
    0.2050761   2   -1000024    4
    0.10270556   2    1000023    3
    0.0033996198   2    1000022    3
    0.00062016658   2   -1000037    4
    0.00015166479   2    1000035    3

DECAY 1000005  9.4138485
    0.63662876   2   -1000024    6
    0.34187714   2    1000023    5
    0.0214941   2    1000022    5

DECAY 2000005  2.261369
    0.45981496   2    1000022    5
    0.23797623   2    1000006   -24
    0.19692498   2    1000005    25
    0.10352762   2    1000005    23
    0.0011536119   2   -1000024    6
    0.00060259349   2    1000023    5

DECAY 2000002  151.93201
    0.92614102   2    1000021    2
    0.073832616   2    1000022    2

DECAY 1000002  205.53263
    0.6878118   2    1000021    2
    0.20581304   2    1000024    1
    0.10274317   2    1000023    2
    0.0034313149   2    1000022    2
    0.00011486924   2    1000035    2

DECAY 2000004  151.93462
    0.92612518   2    1000021    4
    0.073831348   2    1000022    4

DECAY 1000004  205.53556
    0.68780215   2    1000021    4
    0.20581019   2    1000024    3
    0.10274171   2    1000023    4
    0.003431266   2    1000022    4
    0.00011802477   2    1000035    4

DECAY 1000006  8.8048464
    0.64274522   2    1000024    5
    0.30458512   2    1000023    6
    0.040023228   2    1000022    6
    0.01091294   2    1000023    4
    0.0010321877   3    1000022    24    5
    0.00070129674   2    1000022    4

DECAY 2000006  62.20763
    0.41667675   2    1000005    24
    0.27051695   2    1000006    25
    0.22746826   2    1000006    23
    0.064680461   2    1000022    6
    0.013867449   2    1000024    5
    0.0067901389   2    1000023    6

DECAY 1000024  0.00033874865
    0.46121533   2    1000022    24
    0.24922745   3    1000022   -11    12
    0.24922353   3    1000022   -13    14
    0.024353063   3    1000022   -5    6
    0.015755991   3    1000022   -15    16
    0.00011232201   3    1000022   -1    2
    0.00011232132   3    1000022   -3    4

DECAY 1000037  28.421434
    0.47536375   2   -1000005    6
    0.13512286   2    1000024    25
    0.12776535   2    1000023    24
    0.12622899   2    1000024    23
    0.065312113   2    1000006   -5
    0.046627289   2    1000022    24
    0.0057328284   3    1000024    6   -6
    0.005644833   3    1000023   -5    6
    0.0049099784   2   -1000015    16
    0.0041607758   2    2000006   -5
    0.0017597319   3    1000022   -5    6
    0.00060097468   2   -1000011    12
    0.00060097251   2   -1000013    14

DECAY 1000022 -1


DECAY 1000023  0.00034601408
    0.44112346   2    1000022    23
    0.25601229   3    1000022    12   -12
    0.12275177   3    1000022    11   -11
    0.12275084   3    1000022    13   -13
    0.031085361   2    1000022    25
    0.011156329   3    1000022    5   -5
    0.0079385604   3    1000022    15   -15
    0.0069538108   3    1000022    6   -6

DECAY 1000025  33.911208
    0.25425046   2    1000006   -6
    0.25425046   2   -1000006    6
    0.1173223   2    1000023    25
    0.10609328   2    1000024   -24
    0.10609328   2   -1000024    24
    0.083112883   2    1000023    23
    0.020584606   2    1000022    25
    0.016544996   2    1000022    23
    0.012328983   2    1000005   -5
    0.012328983   2   -1000005    5
    0.0039021544   3    1000024    5   -6
    0.0039021544   3   -1000024   -5    6
    0.0026765294   3    1000023    6   -6
    0.0020819842   2    1000015   -15
    0.0020819842   2   -1000015    15
    0.000862765   3    1000022    6   -6
    0.00061764346   2    2000005   -5
    0.00061764346   2   -2000005    5

DECAY 1000035  31.904509
    0.28270022   2    1000006   -6
    0.28270022   2   -1000006    6
    0.11260631   2    1000024   -24
    0.11260631   2   -1000024    24
    0.095749412   2    1000023    25
    0.024845911   2    1000023    23
    0.023798378   2    1000022    23
    0.016866344   2    1000022    25
    0.01318262   2    1000005   -5
    0.01318262   2   -1000005    5
    0.005751623   3    1000024    5   -6
    0.005751623   3   -1000024   -5    6
    0.0024890369   3    1000023    6   -6
    0.0022020874   2    1000015   -15
    0.0022020874   2   -1000015    15
    0.0010117205   3    1000022    6   -6
    0.00067137655   2    2000005   -5
    0.00067137655   2   -2000005    5
    0.00016187118   2    1000012   -12
    0.00016187118   2   -1000012    12
    0.00016186993   2    1000014   -14
    0.00016186993   2   -1000014    14

DECAY 1000021  202.72973
    0.14995625   2    1000005   -5
    0.14995625   2   -1000005    5
    0.14361094   2    1000006   -6
    0.14361094   2   -1000006    6
    0.10087208   2    2000005   -5
    0.10087208   2   -2000005    5
    0.10018358   2    2000006   -6
    0.10018358   2   -2000006    6
    0.0048518438   2    1000006   -4
    0.0048518438   2   -1000006    4
    0.00023530716   3    1000037    5   -6
    0.00023530716   3   -1000037   -5    6
    0.00020805065   3    1000025    6   -6
    0.00019929416   3    1000035    6   -6

DECAY 25  0.0035165342
    0.61714023   2   -5    5
    0.18179364   2   -24    24
    0.074371749   2    21    21
    0.070677211   2   -15    15
    0.030580115   2   -4    4
    0.020709944   2    23    23
    0.0023366306   2    22    22
    0.0012474295   2    22    23
    0.00066538046   2    1000022    1000022
    0.00024513143   2   -13    13
    0.00023173482   2   -3    3
    6.4072333e-07   2   -1    1
    1.5759612e-07   2   -2    2
    5.5108672e-09   2   -11    11

DECAY 35  76.454875
    0.15413676   2   -1000024    1000037
    0.15413676   2   -1000037    1000024
    0.13348349   2   -2000006    1000006
    0.13348349   2   -1000006    2000006
    0.10192876   2   -5    5
    0.079159053   2    1000023    1000025
    0.074116201   2    1000023    1000035
    0.040900638   2   -1000006    1000006
    0.027253694   2    1000022    1000035
    0.027176332   2   -15    15
    0.02636751   2   -2000006    2000006
    0.021005217   2    1000022    1000025
    0.0080396131   2   -6    6
    0.0073001766   2   -2000005    1000005
    0.0073001766   2   -1000005    2000005
    0.0018499713   2   -1000024    1000024
    0.00092387141   2    1000023    1000023
    0.00051221765   2    1000022    1000023
    0.00042130766   2    1000025    1000035
    0.0001060748   2    1000035    1000035
    9.1957978e-05   2   -13    13
    6.6718692e-05   2    1000022    1000022
    5.0161319e-05   2   -3    3
    4.2340888e-05   2   -1000037    1000037
    3.551554e-05   2   -2000005    2000005
    3.2557254e-05   2    1000025    1000025
    3.1852138e-05   2   -1000005    1000005
    1.9084438e-05   2   -2000015    1000015
    1.9084438e-05   2   -1000015    2000015
    2.871298e-06   2    25    25
    1.9920612e-06   2    21    21
    4.5556338e-07   2    23    23
    3.2199942e-07   2   -1000015    1000015
    2.8291393e-07   2   -1000011    1000011
    2.818165e-07   2   -1000013    1000013
    1.452699e-07   2   -2000013    2000013
    1.4497952e-07   2   -2000011    2000011
    1.4179417e-07   2   -4    4
    1.3867482e-07   2   -1    1
    8.044912e-08   2   -24    24
    4.0960101e-08   2    22    23
    3.1239926e-08   2   -2000013    1000013
    3.1239926e-08   2   -1000013    2000013
    2.4547096e-08   2   -2000015    2000015
    1.9005769e-08   2    22    22
    2.0650091e-09   2   -11    11
    7.3100999e-13   2   -2    2
    7.3071638e-13   2   -2000011    1000011
    7.3071638e-13   2   -1000011    2000011

DECAY 36  76.010097
    0.16858082   2   -2000006    1000006
    0.16858082   2   -1000006    2000006
    0.1550702   2   -1000024    1000037
    0.1550702   2   -1000037    1000024
    0.098039387   2   -5    5
    0.079293444   2    1000023    1000035
    0.074920161   2    1000023    1000025
    0.027529742   2    1000022    1000025
    0.026142082   2   -15    15
    0.021040531   2    1000022    1000035
    0.0073769565   2   -2000005    1000005
    0.0073769565   2   -1000005    2000005
    0.0067631797   2   -6    6
    0.001895137   2   -1000024    1000024
    0.00094625909   2    1000023    1000023
    0.00049807811   2    1000022    1000023
    0.00028664134   2    1000035    1000035
    0.00014844775   2    1000025    1000025
    0.00012911453   2    1000025    1000035
    8.8456693e-05   2   -13    13
    6.8310939e-05   2    1000022    1000022
    6.1717895e-05   2   -1000037    1000037
    4.8253099e-05   2   -3    3
    1.9243145e-05   2   -2000015    1000015
    1.9243145e-05   2   -1000015    2000015
    5.1092017e-06   2    21    21
    1.1697776e-06   2    23    25
    1.3340182e-07   2   -1    1
    1.1681995e-07   2   -4    4
    3.1302585e-08   2   -2000013    1000013
    3.1302585e-08   2   -1000013    2000013
    2.2888503e-08   2    22    23
    2.0310212e-09   2    22    22
    1.9864179e-09   2   -11    11
    7.3217067e-13   2   -2000011    1000011
    7.3217067e-13   2   -1000011    2000011
    6.0226537e-13   2   -2    2
    7.2187852e-36   2    25    25

DECAY 37  68.616426
    0.22482704   2   -1000005    2000006
    0.17303319   2    1000023    1000037
    0.17211256   2    1000024    1000035
    0.1720411   2    1000024    1000025
    0.14257644   2   -5    6
    0.0536678   2    1000022    1000037
    0.031985582   2   -15    16
    0.015639941   2   -2000005    1000006
    0.011240272   2   -1000005    1000006
    0.0011226884   2    1000022    1000024
    0.0010016828   2   -2000005    2000006
    0.00023351805   2    1000025    1000037
    0.00019530285   2   -5    4
    0.0001130804   2   -13    14
    8.9346093e-05   2    1000035    1000037
    5.2656795e-05   2   -3    4
    4.2939924e-05   2   -1000015    1000016
    1.5813988e-05   2   -3    6
    2.4719236e-06   2   -3    2
    1.3946621e-06   2   -5    2
    1.2963738e-06   2    24    25
    1.2388772e-06   2   -1000011    1000012
    1.2371588e-06   2   -1000013    1000014
    7.2170395e-07   2   -1    6
    4.5604072e-07   2   -2000015    1000016
    1.4569483e-07   2   -1    2
    7.048495e-08   2   -2000013    1000014
    1.3408231e-08   2   -1    4
    2.6449624e-09   2   -11    12
    4.3513067e-10   2    1000023    1000024
    1.6486627e-12   2   -2000011    1000012
    2.1999755e-14   2    24    35

DECAY 6  2.43
    1   2    5    24

DECAY 15 -1
