BLOCK SPINFO
   1   SPheno
   2   v4.0.5be

BLOCK SPHENOINFO
   1   2
   2   2

BLOCK MODSEL
   1   0

BLOCK MINPAR
   3    48.143492
   4    1

BLOCK EXTPAR
   0    4030.7664
   1   -696.30963
   2    3269.4597
   3    4749.3647
   11    6206.622
   12    5400.1636
   13    3119.6631
   23    1481.1824
   25    46.890018
   26    922.50212
   31    1416.4224
   32    1416.4224
   33    1599.2174
   34    2410.6632
   35    2410.6632
   36    2617.1965
   41    3868.1509
   42    3868.1509
   43    3308.3135
   44    2210.8901
   45    2210.8901
   46    4709.593
   47    51.089516
   48    51.089516
   49    4090.3168

BLOCK SMINPUTS
   1    127.90897
   2    1.1663787e-05
   3    0.1184
   4    91.1876
   5    4.18
   6    173.2
   7    1.777
   8    0
   11    0.00051099893
   12    0
   13    0.10565837
   14    0
   21    0.005
   22    0.0025
   23    0.095
   24    1.27

BLOCK GAUGE Q=  4030.7664
   1    0.35536298
   2    0.66519887
   3    1.219778

BLOCK YU Q=  4030.7664
   1   1    8.3862786e-06
   2   2    0.0042602295
   3   3    1.0131298

BLOCK YD Q=  4030.7664
   1   1    0.0007901871
   2   2    0.015013555
   3   3    0.78361799

BLOCK YE Q=  4030.7664
   1   1    0.00013789343
   2   2    0.028511987
   3   3    0.47952472

BLOCK AU Q=  4030.7664
   1   1    0
   2   2    0
   3   3    6206.622

BLOCK AD Q=  4030.7664
   1   1    0
   2   2    0
   3   3    5400.1638

BLOCK AE Q=  4030.7664
   1   1    0
   2   2    0
   3   3    3119.6632

BLOCK MSOFT Q=  4030.7664
   1   -696.30963
   2    3269.4597
   3    4749.3647
   21   -1247946.8
   22   -1983640.8
   31    1416.4224
   32    1416.4224
   33    1599.2174
   34    2410.6632
   35    2410.6632
   36    2617.1965
   41    3868.1509
   42    3868.1509
   43    3308.3135
   44    2210.8901
   45    2210.8901
   46    4709.593
   47    51.089516
   48    51.089516
   49    4090.3168

BLOCK MASS
   6    173.2
   23    91.1876
   24    80.429995
   15    1.777
   25    125.4423
   35    922.39617
   36    922.50212
   37    927.01406
   1000001    4058.5703
   2000001    729.73601
   1000002    4057.7867
   2000002    2407.8552
   1000003    4058.5675
   2000003    729.72769
   1000004    4057.7839
   2000004    2407.8545
   1000005    3445.6125
   2000005    4194.9
   1000006    3438.5044
   2000006    4725.0421
   1000011    1469.5604
   2000011    2413.0823
   1000012    1467.0762
   1000013    1469.5257
   2000013    2413.0247
   1000014    1467.0465
   1000015    1629.626
   2000015    2576.6481
   1000016    1628.3255
   1000021    4840.5336
   1000022   -683.656
   1000023    1497.9809
   1000025   -1500.8839
   1000035    3272.3826
   1000024    1497.9654
   1000037    3272.5685

BLOCK ALPHA
      -0.021431862

BLOCK HMIX Q=  4030.7664
   1    1481.1824
   2    46.890018
   3    242.93307
   4    851010.17

BLOCK STOPMIX
   1   1   -0.9968853
   1   2    0.078865123
   2   1   -0.078865123
   2   2   -0.9968853

BLOCK SBOTMIX
   1   1    0.9998035
   1   2    0.019823265
   2   1   -0.019823265
   2   2    0.9998035

BLOCK STAUMIX
   1   1    0.999521
   1   2    0.030947847
   2   1   -0.030947847
   2   2    0.999521

BLOCK NMIX
   1   1    0.99918541
   1   2    0.00031475392
   1   3    0.036903531
   1   4    0.016325989
   2   1   -0.014558283
   2   2   -0.031362097
   2   3    0.70695588
   2   4   -0.70641196
   3   1    0.037635692
   3   2   -0.011339683
   3   3   -0.70615224
   3   4   -0.70696816
   4   1    0.00034449059
   4   2   -0.99944371
   4   3   -0.014160338
   4   4    0.03019329

BLOCK UMIX
   1   1   -0.020178028
   1   2    0.9997964
   2   1    0.9997964
   2   2    0.020178028

BLOCK VMIX
   1   1   -0.04289898
   1   2    0.99907941
   2   1    0.99907941
   2   2    0.04289898

BLOCK HIGGSBOUNDSINPUTHIGGSCOUPLINGSFERMIONS
       0, 2198.6738,3,36,15,15

BLOCK HIGGSBOUNDSINPUTHIGGSCOUPLINGSBOSONS
       0,4,36,21,21,23

BLOCK SPHENOLOWENERGY
   1    0.00036366982
   2    1.5874974e-06
   3    3.5258946e-05
   4    2.778421e-15
   5    1.1869103e-10
   6    2.4849157e-08
   7    9.215559e-14
   8    3.9368816e-09
   9    8.3492731e-07
   10    7.8288481e-05
   11    0.80869003
   12    0.54186082
   13    19.270223
   14    0
   15    0
   16    0.0021574139
   17    2.2816776e-15
   18    2.4804707e-11
   19    8.2914681e-11
   20    1.1212969e-15
   21    4.7932561e-11
   22    1.4627003e-08
   23    0
   24    0
   25    0
   26    0
   27    0
   28    0
   29    0
   30    0
   31    0
   39    7.1756736e-05
   40    0
   41    0
   42    0

BLOCK FWCOEF Q=  160
   305   4422   0   0   -0.18881911
   305   4422   0   2   -0.23253246
   305   4322   0   2   -0.00087650306
   305   6421   0   0   -0.095227835
   305   6421   0   2   -0.14315872
   305   6321   0   2   -0.00096427929
   3051111   4133   0   0    1.627665
   3051111   4133   0   2    1.6278307
   3051111   4233   0   2    0.00016610063
   3051111   4137   0   0   -4.4503571
   3051111   4137   0   2   -4.4493541
   3051111   4237   0   2   -0.0012273392
   3051313   4133   0   0    1.627665
   3051313   4133   0   2    1.6278295
   3051313   4233   0   2    0.00016606456
   3051313   4137   0   0   -4.4503571
   3051313   4137   0   2   -4.4493552
   3051313   4237   0   2   -0.0012273059
   3051212   4137   0   0    1.5053501
   3051212   4137   0   2    1.5051346
   3051212   4237   0   2    0.00026534145
   3051414   4137   0   0    1.5053501
   3051414   4137   0   2    1.5051346
   3051414   4237   0   2    0.00026534911
   3051616   4137   0   0    1.5053501
   3051616   4137   0   2    1.5051346
   3051616   4237   0   2    0.00026750698

BLOCK IMFWCOEF Q=  160
   305   4422   0   0    3.857332e-07
   305   4422   0   2    1.1679972e-05
   305   4322   0   2   -1.6175883e-06
   305   6421   0   0    3.30406e-07
   305   6421   0   2   -1.5697753e-06
   305   6321   0   2   -8.9388814e-07
   3051111   4133   0   2   -2.6261812e-07
   3051111   4233   0   2    8.8935924e-06
   3051111   4137   0   2    2.6622937e-06
   3051111   4237   0   2   -6.5746377e-05
   3051313   4133   0   2   -2.6261282e-07
   3051313   4233   0   2    8.8935809e-06
   3051313   4137   0   2    2.662298e-06
   3051313   4237   0   2   -6.5746416e-05
   3051212   4137   0   2   -5.5197555e-07
   3051212   4237   0   2    1.4213773e-05
   3051414   4137   0   2   -5.5197571e-07
   3051414   4237   0   2    1.4213773e-05
   3051616   4137   0   2   -5.5152911e-07
   3051616   4237   0   2    1.4213772e-05

DECAY 23  2.4952


DECAY 24  2.085


DECAY 1000011  1.132925
    1   2    1000022    11

DECAY 2000011  10.247273
    0.99927511   2    1000022    11
    0.00063009184   2    1000025    11

DECAY 1000013  1.1328894
    1   2    1000022    13

DECAY 2000013  10.280989
    0.99597025   2    1000022    13
    0.0014333755   2   -1000024    14
    0.001339627   2    1000025    13
    0.00081112134   2    1000023    13
    0.00044546281   2    1000013    25

DECAY 1000015  1.5823421
    0.88895482   2    1000022    15
    0.056749838   2    1000023    15
    0.053902123   2    1000025    15
    0.00039321805   2   -1000024    16

DECAY 2000015  30.601943
    0.36478137   2    1000022    15
    0.16828747   2   -1000024    16
    0.084347762   2    1000025    15
    0.0842464   2    1000023    15
    0.078042364   2    1000016   -24
    0.071050095   2    1000016   -37
    0.038731667   2    1000015    23
    0.038106128   2    1000015    36
    0.038045422   2    1000015    35
    0.034361317   2    1000015    25

DECAY 1000012  1.1262338
    1   2    1000022    12

DECAY 1000014  1.1261856
    1   2    1000022    14

DECAY 1000016  1.5604782
    0.88689352   2    1000022    16
    0.1129434   2    1000024    15
    0.00010273755   2    1000025    16

DECAY 2000001  0.0060842134
    1   2    1000022    1

DECAY 1000001  7.1136154
    0.61437945   2   -1000037    2
    0.30714035   2    1000035    1
    0.074788837   2    1000022    1
    0.0015534299   2    1000023    1
    0.0015257189   2   -1000024    2
    0.00061175588   2    1000025    1

DECAY 2000003  0.0060819749
    1   2    1000022    3

DECAY 1000003  7.1294695
    0.61300901   2   -1000037    4
    0.30645568   2    1000035    3
    0.074625721   2    1000022    3
    0.0024991297   2    1000023    3
    0.0016751146   2   -1000024    4
    0.0015564242   2    1000025    3
    0.00016425758   2    2000003    25

DECAY 1000005  73.995195
    0.61780104   2   -1000024    6
    0.18722746   2    1000023    5
    0.18607186   2    1000025    5
    0.006932136   2    1000022    5
    0.0019675034   2    1000035    5

DECAY 2000005  81.964266
    0.47423842   2   -1000024    6
    0.23769191   2    1000023    5
    0.23735126   2    1000025    5
    0.027549721   2    1000022    5
    0.010613667   2    1000005    25
    0.0083088377   2    1000006   -24
    0.0040516048   2    1000005    23
    0.00012955005   2   -1000037    6

DECAY 2000002  4.5410155
    0.9992786   2    1000022    2
    0.00062710203   2    1000025    2

DECAY 1000002  7.1382827
    0.61038319   2    1000037    1
    0.3055058   2    1000035    2
    0.075043446   2    1000022    2
    0.0068754753   2    1000024    1
    0.0021519876   2    1000023    2

DECAY 2000004  4.5416614
    0.99913547   2    1000022    4
    0.00066242586   2    1000025    4
    0.00013031154   2    1000023    4

DECAY 1000004  7.1529665
    0.60912684   2    1000037    3
    0.30487654   2    1000035    4
    0.074889353   2    1000022    4
    0.0087527691   2    1000024    3
    0.0022235796   2    1000023    4
    0.00011626348   2    1000025    4

DECAY 1000006  74.560862
    0.3690292   2    1000024    5
    0.30754686   2    1000025    6
    0.30738219   2    1000023    6
    0.0071215789   2    1000022    6
    0.0036146041   2    1000037    5
    0.0029248979   2    1000022    4
    0.0023051443   3    1000022    24    5

DECAY 2000006  278.91467
    0.27989803   2    1000024    5
    0.16325071   2    1000005    24
    0.13910427   2    1000025    6
    0.1390335   2    1000023    6
    0.13473568   2    1000006    25
    0.08215822   2    1000006    23
    0.035824831   2    1000022    6
    0.012996354   2    1000005    37
    0.0065685578   2    1000006    36
    0.0064117411   2    1000006    35

DECAY 1000024  0.96477233
    0.96597809   2    1000022    24
    0.026864813   3    1000022   -5    6
    0.0060727181   2   -2000003    4
    0.00099125464   3    1000022   -15    16

DECAY 1000037  102.09168
    0.08991633   2    1000014   -13
    0.08991444   2    1000012   -11
    0.089892227   2   -1000013    14
    0.089890082   2   -1000011    12
    0.079744896   2    1000016   -15
    0.079613733   2   -1000015    16
    0.069107862   2    1000024    25
    0.064639535   2    1000025    24
    0.064553388   2    1000024    23
    0.063380763   2    1000023    24
    0.05429892   2    37    1000025
    0.050949222   2    1000024    36
    0.050893673   2    37    1000023
    0.050803018   2    1000024    35
    0.0051283006   3    1000024    6   -6
    0.0034996488   3    1000023   -5    6
    0.0033107159   3    1000025   -5    6
    0.00015131686   2    1000022    24
    0.00014374857   3    1000024    5   -5
    0.00010321716   2    37    1000022

DECAY 1000022 -1


DECAY 1000023  1.6425329
    0.49682968   2    1000022    23
    0.48984578   2    1000022    25
    0.0051035779   3    1000022    6   -6
    0.003747235   3    1000022    5   -5
    0.0018774934   2    2000003   -3
    0.0018774934   2   -2000003    3
    0.00047629763   3    1000022    15   -15

DECAY 1000025  0.88857496
    0.83330492   2    1000022    25
    0.13795058   2    1000022    23
    0.0087452002   3    1000022    6   -6
    0.0076695414   3    1000022    5   -5
    0.0044711993   2    2000003   -3
    0.0044711993   2   -2000003    3
    0.0011774218   2    2000001   -1
    0.0011774218   2   -2000001    1
    0.00096549522   3    1000022    15   -15

DECAY 1000035  107.05301
    0.062278101   2    1000024   -24
    0.062278101   2   -1000024    24
    0.058440248   2    1000023    25
    0.054054882   2    1000025    23
    0.053690939   2    1000025    25
    0.048438924   2    37   -1000024
    0.048438924   2   -37    1000024
    0.047417139   2    1000025    35
    0.043542565   2    1000023    35
    0.042916754   2    1000014   -14
    0.042916754   2   -1000014    14
    0.042915878   2    1000012   -12
    0.042915878   2   -1000012    12
    0.04281223   2    1000013   -13
    0.04281223   2   -1000013    13
    0.042811183   2    1000011   -11
    0.042811183   2   -1000011    11
    0.038054859   2    1000016   -16
    0.038054859   2   -1000016    16
    0.037922846   2    1000015   -15
    0.037922846   2   -1000015    15
    0.0070694239   2    1000023    23
    0.0049738963   2    1000023    36
    0.0045394364   2    1000025    36
    0.0028610208   3    1000024    5   -6
    0.0028610208   3   -1000024   -5    6
    0.0019547508   3    1000023    6   -6
    0.001805163   3    1000025    6   -6
    0.00010055602   2    1000022    23

DECAY 1000021  584.39487
    0.11707945   2    2000003   -3
    0.11707945   2   -2000003    3
    0.11707933   2    2000001   -1
    0.11707933   2   -2000001    1
    0.069426952   2    2000004   -4
    0.069426952   2   -2000004    4
    0.069426929   2    2000002   -2
    0.069426929   2   -2000002    2
    0.03060309   2    1000006   -6
    0.03060309   2   -1000006    6
    0.029827609   2    1000005   -5
    0.029827609   2   -1000005    5
    0.014791267   2    1000006   -4
    0.014791267   2   -1000006    4
    0.0108327   2    1000004   -4
    0.0108327   2   -1000004    4
    0.010832641   2    1000002   -2
    0.010832641   2   -1000002    2
    0.010812938   2    1000003   -3
    0.010812938   2   -1000003    3
    0.010812867   2    1000001   -1
    0.010812867   2   -1000001    1
    0.0076007662   2    2000005   -5
    0.0076007662   2   -2000005    5
    0.00033940072   3    1000024    5   -6
    0.00033940072   3   -1000024   -5    6
    0.00033450934   3    1000023    6   -6
    0.00033400334   3    1000025    6   -6
    0.00013158636   3    1000035    6   -6
    0.00010635076   3    1000022    6   -6

DECAY 25  0.014001538
    0.34933174   2   -1000001    1000001
    0.34913129   2   -1000003    1000003
    0.16670688   2   -5    5
    0.066307579   2   -24    24
    0.031835043   2    21    21
    0.019522416   2   -15    15
    0.008097121   2    23    23
    0.0078630311   2   -4    4
    0.0006403561   2    22    22
    0.00043422425   2    22    23
    6.7745386e-05   2   -13    13
    6.2370751e-05   2   -3    3
    1.7244924e-07   2   -1    1
    4.0519676e-08   2   -2    2
    1.5229902e-09   2   -11    11

DECAY 35  26.301886
    0.78799818   2   -5    5
    0.21064718   2   -15    15
    0.00074016806   2   -13    13
    0.00025739526   2   -3    3
    0.00024904212   2   -6    6
    5.0600296e-05   2    25    25
    4.9901455e-05   2    21    21
    3.8785511e-06   2   -24    24
    2.6505554e-06   2    23    23
    7.1172455e-07   2   -1    1
    1.0558931e-07   2   -1000001    1000001
    1.0498977e-07   2   -1000003    1000003
    4.1334909e-08   2    22    22
    2.0783846e-08   2    22    23
    1.6629779e-08   2   -11    11
    3.7681479e-09   2   -4    4
    1.9439768e-14   2   -2    2

DECAY 36  25.466102
    0.78800429   2   -5    5
    0.21064745   2   -15    15
    0.00074015897   2   -13    13
    0.00027402706   2   -6    6
    0.00025738764   2   -3    3
    7.1780807e-05   2    21    21
    4.0831708e-06   2    23    25
    7.1170338e-07   2   -1    1
    6.7556288e-08   2    22    22
    2.473648e-08   2    22    23
    1.662957e-08   2   -11    11
    3.501384e-09   2   -4    4
    1.8067871e-14   2   -2    2
    7.5097178e-36   2    25    25

DECAY 37  21.354421
    0.7965195   2   -5    6
    0.20121762   2   -15    16
    0.0012402561   2   -5    4
    0.00071138085   2   -13    14
    0.00028199021   2   -3    4
    1.3012105e-05   2   -3    2
    8.8567388e-06   2   -5    2
    4.9797242e-06   2    24    25
    1.5147978e-06   2   -3    6
    7.8264953e-07   2   -1    2
    5.1788395e-08   2   -1    6
    3.6514525e-08   2   -1    4
    1.6639272e-08   2   -11    12
    1.3319373e-10   2    24    35
    1.1860929e-10   2    24    36

DECAY 6  2.43
    1   2    5    24

DECAY 15 -1
