BLOCK SPINFO
   1   SPheno
   2   v4.0.5be

BLOCK SPHENOINFO
   1   2
   2   2

BLOCK MODSEL
   1   0

BLOCK MINPAR
   3    18.52473
   4    1

BLOCK EXTPAR
   0    1619.1757
   1    237.38302
   2   -1757.7461
   3    3000
   11   -3320.2286
   12   -500.73637
   13    1064.7473
   23    1778.4449
   25    17.84094
   26    1644.1596
   31    1638.9711
   32    1638.9711
   33    1534.0878
   34    1282.399
   35    1282.399
   36    780.33255
   41    5000
   42    5000
   43    1381.1478
   44    5000
   45    5000
   46    1916.8759
   47    5000
   48    5000
   49    1123.8087

BLOCK SMINPUTS
   1    127.90897
   2    1.1663787e-05
   3    0.1184
   4    91.1876
   5    4.18
   6    173.2
   7    1.777
   8    0
   11    0.00051099893
   12    0
   13    0.10565837
   14    0
   21    0.005
   22    0.0025
   23    0.095
   24    1.27

BLOCK GAUGE Q=  1619.1757
   1    0.35536298
   2    0.66519887
   3    1.219778

BLOCK YU Q=  1619.1757
   1   1    8.3975324e-06
   2   2    0.0042659465
   3   3    1.0144894

BLOCK YD Q=  1619.1757
   1   1    0.00030105764
   2   2    0.0057200952
   3   3    0.29855485

BLOCK YE Q=  1619.1757
   1   1    5.253676e-05
   2   2    0.010862936
   3   3    0.18269671

BLOCK AU Q=  1619.1757
   1   1    0
   2   2    0
   3   3   -3320.2287

BLOCK AD Q=  1619.1757
   1   1    0
   2   2    0
   3   3   -500.73629

BLOCK AE Q=  1619.1757
   1   1    0
   2   2    0
   3   3    1064.7473

BLOCK MSOFT Q=  1619.1757
   1    237.38302
   2   -1757.7461
   3    3000
   21   -498218.85
   22   -3126791.3
   31    1638.9711
   32    1638.9711
   33    1534.0878
   34    1282.399
   35    1282.399
   36    780.33255
   41    5000
   42    5000
   43    1381.1478
   44    5000
   45    5000
   46    1916.8759
   47    5000
   48    5000
   49    1123.8087

BLOCK MASS
   6    173.2
   23    91.1876
   24    80.429995
   15    1.777
   25    122.83359
   35    1644.0231
   36    1644.1596
   37    1646.3906
   1000001    5030.634
   2000001    5022.7524
   1000002    5030.1929
   2000002    5023.822
   1000003    5030.6368
   2000003    5022.751
   1000004    5030.1937
   2000004    5023.8226
   1000005    1137.0354
   2000005    1410.6394
   1000006    1363.2696
   2000006    1923.1193
   1000011    1652.1195
   2000011    1285.7062
   1000012    1649.8559
   1000013    1652.1202
   2000013    1285.6996
   1000014    1649.8537
   1000015    782.82713
   2000015    1547.6733
   1000016    1544.7754
   1000021    3196.5729
   1000022    236.99823
   1000023   -1733.8459
   1000025    1775.7626
   1000035   -1837.1503
   1000024    1734.0866
   1000037    1837.5298

BLOCK ALPHA
      -0.054314131

BLOCK HMIX Q=  1619.1757
   1    1778.4449
   2    17.84094
   3    243.93421
   4    2703260.7

BLOCK STOPMIX
   1   1    0.9634069
   1   2    0.26804319
   2   1   -0.26804319
   2   2    0.9634069

BLOCK SBOTMIX
   1   1    0.093085239
   1   2    0.99565814
   2   1   -0.99565814
   2   2    0.093085239

BLOCK STAUMIX
   1   1    0.029369716
   1   2    0.99956862
   2   1   -0.99956862
   2   2    0.029369716

BLOCK NMIX
   1   1   -0.99966115
   1   2   -0.00028278906
   1   3   -0.025551559
   1   4    0.0049620832
   2   1    0.010918724
   2   2    0.66536222
   2   3   -0.53552184
   2   4   -0.51999063
   3   1    0.021575581
   3   2   -0.016480786
   3   3   -0.70661107
   3   4    0.7070811
   4   1    0.0096363989
   4   2   -0.74633867
   4   3   -0.46180545
   4   4   -0.47918832

BLOCK UMIX
   1   1   -0.62656532
   1   2    0.77936891
   2   1   -0.77936891
   2   2   -0.62656532

BLOCK VMIX
   1   1    0.65216674
   1   2    0.75807555
   2   1    0.75807555
   2   2   -0.65216674

BLOCK HIGGSBOUNDSINPUTHIGGSCOUPLINGSFERMIONS
       0, 318.29913,3,36,15,15

BLOCK HIGGSBOUNDSINPUTHIGGSCOUPLINGSBOSONS
       0,4,36,21,21,23

BLOCK SPHENOLOWENERGY
   1    0.00032128519
   2    1.5899558e-06
   3    3.5248473e-05
   4    2.2824707e-15
   5    9.7504469e-11
   6    2.0406516e-08
   7    7.6655552e-14
   8    3.2747201e-09
   9    6.9443991e-07
   10    9.6229945e-05
   11    0.99401849
   12    0.54211995
   13    19.36736
   14    0
   15    0
   16    0.0021578195
   17    2.281664e-15
   18    2.4808159e-11
   19    8.2918109e-11
   20   -1.3440938e-15
   21   -5.7463986e-11
   22   -1.4354464e-08
   23    0
   24    0
   25    0
   26    0
   27    0
   28    0
   29    0
   30    0
   31    0
   39    5.2264839e-05
   40    0
   41    0
   42    0

BLOCK FWCOEF Q=  160
   305   4422   0   0   -0.18881911
   305   4422   0   2   -0.18744275
   305   4322   0   2   -0.00020388479
   305   6421   0   0   -0.095227835
   305   6421   0   2   -0.10542463
   305   6321   0   2   -0.00035131782
   3051111   4133   0   0    1.5945352
   3051111   4133   0   2    1.594972
   3051111   4233   0   2    3.4541752e-05
   3051111   4137   0   0   -4.4172273
   3051111   4137   0   2   -4.4151557
   3051111   4237   0   2   -0.00026700974
   3051313   4133   0   0    1.5945352
   3051313   4133   0   2    1.5949715
   3051313   4233   0   2    3.4541614e-05
   3051313   4137   0   0   -4.4172273
   3051313   4137   0   2   -4.4151562
   3051313   4237   0   2   -0.0002670097
   3051212   4137   0   0    1.5053501
   3051212   4137   0   2    1.5049027
   3051212   4237   0   2    5.8147478e-05
   3051414   4137   0   0    1.5053501
   3051414   4137   0   2    1.5049027
   3051414   4237   0   2    5.8147503e-05
   3051616   4137   0   0    1.5053501
   3051616   4137   0   2    1.5049027
   3051616   4237   0   2    5.8154345e-05

BLOCK IMFWCOEF Q=  160
   305   4422   0   0    3.8587284e-07
   305   4422   0   2   -1.7936489e-06
   305   4322   0   2    2.0837344e-06
   305   6421   0   0    3.3052561e-07
   305   6421   0   2   -1.1460114e-05
   305   6321   0   2    8.2394357e-07
   3051111   4133   0   2   -1.6312006e-06
   3051111   4233   0   2    9.9186675e-07
   3051111   4137   0   2    1.3956218e-05
   3051111   4237   0   2   -7.6808532e-06
   3051313   4133   0   2   -1.631197e-06
   3051313   4233   0   2    9.9186631e-07
   3051313   4137   0   2    1.3956222e-05
   3051313   4237   0   2   -7.6808544e-06
   3051212   4137   0   2   -2.967104e-06
   3051212   4237   0   2    1.6727945e-06
   3051414   4137   0   2   -2.967104e-06
   3051414   4237   0   2    1.6727945e-06
   3051616   4137   0   2   -2.9675816e-06
   3051616   4237   0   2    1.6727929e-06

DECAY 23  2.4952


DECAY 24  2.085


DECAY 2000011  6.0245593
    1   2    1000022    11

DECAY 1000011  1.9915488
    0.99999999   2    1000022    11

DECAY 2000013  6.0245252
    1   2    1000022    13

DECAY 1000013  1.992384
    0.99958252   2    1000022    13
    0.00041747955   2    2000013    25

DECAY 1000015  3.2423052
    1   2    1000022    15

DECAY 2000015  2.757831
    0.67374508   2    1000022    15
    0.16765539   2    1000015    25
    0.15859953   2    1000015    23

DECAY 1000012  1.9843835
    0.99999978   2    1000022    12

DECAY 1000014  1.9843805
    0.99999978   2    1000022    14

DECAY 1000016  2.718756
    0.67935432   2    1000022    16
    0.32064568   2    1000015    24

DECAY 2000001  143.13544
    0.9804991   2    1000021    1
    0.019490645   2    1000022    1

DECAY 1000001  192.44104
    0.73354539   2    1000021    1
    0.10496896   2   -1000037    2
    0.070148498   2   -1000024    2
    0.048357822   2    1000035    1
    0.039324448   2    1000023    1
    0.0036184435   2    1000022    1

DECAY 2000003  143.14029
    0.98046489   2    1000021    3
    0.019489994   2    1000022    3

DECAY 1000003  192.44528
    0.73353078   2    1000021    3
    0.10497001   2   -1000037    4
    0.070150984   2   -1000024    4
    0.048359547   2    1000035    3
    0.039327368   2    1000023    3
    0.0036183768   2    1000022    3

DECAY 1000005  0.58502666
    1   2    1000022    5

DECAY 2000005  1.0866924
    0.56091143   2    1000005    25
    0.27140934   2    1000005    23
    0.16767923   2    1000022    5

DECAY 2000002  151.62286
    0.92634736   2    1000021    2
    0.073614264   2    1000022    2

DECAY 1000002  192.42897
    0.73335286   2    1000021    2
    0.099303715   2    1000037    1
    0.075992671   2    1000024    1
    0.047911331   2    1000035    2
    0.039783922   2    1000023    2
    0.0036414157   2    1000022    2

DECAY 2000004  151.62565
    0.92633036   2    1000021    4
    0.07361291   2    1000022    4

DECAY 1000004  192.4329
    0.73333801   2    1000021    4
    0.099306663   2    1000037    3
    0.075999198   2    1000024    3
    0.047911856   2    1000035    4
    0.039785222   2    1000023    4
    0.0036413418   2    1000022    4

DECAY 1000006  0.71195381
    0.55237772   2    1000022    6
    0.44761568   2    1000005    24

DECAY 2000006  79.651633
    0.41057331   2    2000005    24
    0.27574477   2    1000006    25
    0.23928002   2    1000006    23
    0.047454501   2    1000022    6
    0.012433162   2    1000024    5
    0.010234244   2    1000005    24
    0.0033453472   2    1000023    6
    0.00093464496   2    1000037    5

DECAY 1000024  9.1359849
    0.61131795   2   -2000005    6
    0.16391003   2   -1000005    6
    0.077601001   2    1000006   -5
    0.073864408   2    1000022    24
    0.028595963   2   -1000015    16
    0.016672662   2    1000016   -15
    0.013292224   2   -2000015    16
    0.0031937807   2    1000014   -13
    0.003192561   2    1000012   -11
    0.0027943053   2   -1000011    12
    0.0027942561   2   -1000013    14
    0.0027373022   3    1000022   -5    6

DECAY 1000037  12.776169
    0.4117707   2    1000006   -5
    0.27184834   2   -2000005    6
    0.090247734   2    1000023    24
    0.044831636   2   -1000005    6
    0.043178255   2    1000022    24
    0.032991885   2    1000016   -15
    0.032867231   2   -2000015    16
    0.01411942   2   -1000011    12
    0.014119313   2   -1000013    14
    0.01367187   2    1000014   -13
    0.013668853   2    1000012   -11
    0.0094311226   2   -1000015    16
    0.0055075656   2    1000024    23
    0.0016617414   3    1000022   -5    6

DECAY 1000022 -1


DECAY 1000023  6.7404441
    0.20429132   2    1000006   -6
    0.20429132   2   -1000006    6
    0.10022291   2    2000005   -5
    0.10022291   2   -2000005    5
    0.08887818   2    1000005   -5
    0.08887818   2   -1000005    5
    0.065909982   2    1000022    23
    0.047133989   2    1000022    25
    0.018600977   2    1000015   -15
    0.018600977   2   -1000015    15
    0.011411479   2    2000015   -15
    0.011411479   2   -2000015    15
    0.010470115   2    1000016   -16
    0.010470115   2   -1000016    16
    0.0022008126   2    1000014   -14
    0.0022008126   2   -1000014    14
    0.0022006976   2    1000012   -12
    0.0022006976   2   -1000012    12
    0.0021617285   2    1000013   -13
    0.0021617285   2   -1000013    13
    0.0021609293   2    1000011   -11
    0.0021609293   2   -1000011    11
    0.0015787121   3    1000022    6   -6

DECAY 1000025  14.293793
    0.36460839   2    1000006   -6
    0.36460839   2   -1000006    6
    0.05685671   2    1000005   -5
    0.05685671   2   -1000005    5
    0.053939918   2    1000022    25
    0.026777947   2    1000022    23
    0.02268551   2    2000005   -5
    0.02268551   2   -2000005    5
    0.01337842   2    1000015   -15
    0.01337842   2   -1000015    15
    0.0015108994   3    1000022    6   -6
    0.0011967109   2    2000015   -15
    0.0011967109   2   -2000015    15

DECAY 1000035  20.03433
    0.32446233   2    1000006   -6
    0.32446233   2   -1000006    6
    0.068986553   2    2000005   -5
    0.068986553   2   -2000005    5
    0.037148653   2    1000024   -24
    0.037148653   2   -1000024    24
    0.020164306   2    1000022    23
    0.015278597   2    1000022    25
    0.011528298   2    1000005   -5
    0.011528298   2   -1000005    5
    0.0099870694   2    2000015   -15
    0.0099870694   2   -2000015    15
    0.0097817208   2    1000016   -16
    0.0097817208   2   -1000016    16
    0.0042674825   2    1000014   -14
    0.0042674825   2   -1000014    14
    0.0042673854   2    1000012   -12
    0.0042673854   2   -1000012    12
    0.0040575184   2    1000013   -13
    0.0040575184   2   -1000013    13
    0.00405678   2    1000011   -11
    0.00405678   2   -1000011    11
    0.0033572554   2    1000015   -15
    0.0033572554   2   -1000015    15
    0.00056540829   3    1000022    6   -6

DECAY 1000021  234.49423
    0.15384136   2    1000005   -5
    0.15384136   2   -1000005    5
    0.13090121   2    2000005   -5
    0.13090121   2   -2000005    5
    0.12562555   2    1000006   -6
    0.12562555   2   -1000006    6
    0.08883323   2    2000006   -6
    0.08883323   2   -2000006    6
    0.0010169545   3    1000025    6   -6
    0.00015324682   3    1000035    6   -6

DECAY 25  0.0036324492
    0.60766703   2   -5    5
    0.19333251   2   -24    24
    0.07297264   2    21    21
    0.069752202   2   -15    15
    0.02975645   2   -4    4
    0.02240594   2    23    23
    0.0023313187   2    22    22
    0.0013107975   2    22    23
    0.00024193219   2   -13    13
    0.00022838754   2   -3    3
    6.3146713e-07   2   -1    1
    1.5334866e-07   2   -2    2
    5.4389328e-09   2   -11    11

DECAY 35  5.3795936
    0.77575931   2   -5    5
    0.19543982   2   -15    15
    0.027095906   2   -6    6
    0.00067988075   2   -13    13
    0.00042275087   2   -3    3
    0.00037686948   2    1000022    1000022
    9.407851e-05   2    25    25
    5.4163938e-05   2   -1000015    1000015
    2.9530074e-05   2    23    23
    2.5137666e-05   2    21    21
    2.0733529e-05   2   -24    24
    1.1687324e-06   2   -1    1
    5.8374851e-07   2   -4    4
    4.0911542e-08   2    22    22
    1.5412084e-08   2    22    23
    1.5272559e-08   2   -11    11
    3.0104029e-12   2   -2    2

DECAY 36  5.2498499
    0.77741813   2   -5    5
    0.19583627   2   -15    15
    0.025053239   2   -6    6
    0.0006812574   2   -13    13
    0.00043861937   2    1000022    1000022
    0.00042360228   2   -3    3
    0.0001066637   2    21    21
    4.0028845e-05   2    23    25
    1.171087e-06   2   -1    1
    5.2737273e-07   2   -4    4
    2.9452852e-07   2    22    22
    1.7414473e-07   2    22    23
    1.5303508e-08   2   -11    11
    2.7200611e-12   2   -2    2
    1.6436713e-34   2    25    25

DECAY 37  6.0385275
    0.81061293   2   -5    6
    0.18711134   2   -15    16
    0.0011628744   2   -5    4
    0.00066150645   2   -13    14
    0.00034156623   2   -3    4
    4.7420398e-05   2   -3    6
    3.5018307e-05   2    24    25
    1.586327e-05   2   -3    2
    8.3041254e-06   2   -5    2
    2.152278e-06   2   -1    6
    9.4633818e-07   2   -1    2
    6.385846e-08   2   -1    4
    1.5472705e-08   2   -11    12
    1.6748096e-11   2    24    35
    1.244737e-11   2    24    36

DECAY 6  2.43
    1   2    5    24

DECAY 15 -1
