BLOCK SPINFO
   1   SPheno
   2   v4.0.5be

BLOCK SPHENOINFO
   1   2
   2   2

BLOCK MODSEL
   1   0

BLOCK MINPAR
   3    15.773872
   4   -1

BLOCK EXTPAR
   0    1285.9618
   1    1325.5984
   2    678.63753
   3    3000
   11   -3103.5823
   12   -1076.5211
   13   -957.24761
   23   -352.35722
   25    15.21811
   26    2184.4522
   31    493.50938
   32    493.50938
   33    1875.3281
   34    931.92028
   35    931.92028
   36    545.92933
   41    5000
   42    5000
   43    1228.3332
   44    5000
   45    5000
   46    1540.2609
   47    5000
   48    5000
   49    1562.6597

BLOCK SMINPUTS
   1    127.90897
   2    1.1663787e-05
   3    0.1184
   4    91.1876
   5    4.18
   6    173.2
   7    1.777
   8    0
   11    0.00051099893
   12    0
   13    0.10565837
   14    0
   21    0.005
   22    0.0025
   23    0.095
   24    1.27

BLOCK GAUGE Q=  1285.9618
   1    0.35536298
   2    0.66519887
   3    1.219778

BLOCK YU Q=  1285.9618
   1   1    8.4024543e-06
   2   2    0.0042684468
   3   3    1.015084

BLOCK YD Q=  1285.9618
   1   1    0.00025694911
   2   2    0.0048820331
   3   3    0.254813

BLOCK YE Q=  1285.9618
   1   1    4.4839498e-05
   2   2    0.0092713861
   3   3    0.15592946

BLOCK AU Q=  1285.9618
   1   1    0
   2   2    0
   3   3   -3103.5823

BLOCK AD Q=  1285.9618
   1   1    0
   2   2    0
   3   3   -1076.5211

BLOCK AE Q=  1285.9618
   1   1    0
   2   2    0
   3   3   -957.24761

BLOCK MSOFT Q=  1285.9618
   1    1325.5984
   2    678.63753
   3    3000
   21    4623134.7
   22   -83990.851
   31    493.50938
   32    493.50938
   33    1875.3281
   34    931.92028
   35    931.92028
   36    545.92933
   41    5000
   42    5000
   43    1228.3332
   44    5000
   45    5000
   46    1540.2609
   47    5000
   48    5000
   49    1562.6597

BLOCK MASS
   6    173.2
   23    91.1876
   24    80.429995
   15    1.777
   25    123.23036
   35    2184.1634
   36    2184.4522
   37    2186.0548
   1000001    5020.644
   2000001    5010.4206
   1000002    5020.2093
   2000002    5011.6544
   1000003    5020.6452
   2000003    5010.4218
   1000004    5020.2105
   2000004    5011.6554
   1000005    1171.303
   2000005    1556.6074
   1000006    1088.7453
   2000006    1518.9023
   1000011    508.861
   2000011    938.34475
   1000012    502.23869
   1000013    508.85914
   2000013    938.34297
   1000014    502.23732
   1000015    554.35277
   2000015    1880.0533
   1000016    1878.0049
   1000021    3174.6029
   1000022    350.17773
   1000023   -363.65393
   1000025    720.6846
   1000035    1322.2941
   1000024    355.10507
   1000037    721.05382

BLOCK ALPHA
      -0.063597167

BLOCK HMIX Q=  1285.9618
   1   -352.35722
   2    15.21811
   3    244.14085
   4    4771831.6

BLOCK STOPMIX
   1   1    0.91056341
   1   2    0.41336942
   2   1   -0.41336942
   2   2    0.91056341

BLOCK SBOTMIX
   1   1   -0.99995399
   1   2    0.0095923563
   2   1   -0.0095923563
   2   2   -0.99995399

BLOCK STAUMIX
   1   1   -0.0024259254
   1   2    0.99999706
   2   1   -0.99999706
   2   2   -0.0024259254

BLOCK NMIX
   1   1   -0.029590221
   1   2    0.14388018
   1   3    0.70931011
   1   4    0.68942156
   2   1   -0.019867876
   2   2    0.056798974
   2   3   -0.7020423
   2   4    0.70958844
   3   1   -0.010042104
   3   2   -0.98795333
   3   3    0.062903317
   3   4    0.14103388
   4   1   -0.99931419
   4   2    0.0045383212
   4   3   -0.0076775006
   4   4   -0.035939076

BLOCK UMIX
   1   1   -0.090619722
   1   2   -0.99588557
   2   1    0.99588557
   2   2   -0.090619722

BLOCK VMIX
   1   1   -0.20258623
   1   2    0.97926443
   2   1    0.97926443
   2   2    0.20258623

BLOCK HIGGSBOUNDSINPUTHIGGSCOUPLINGSFERMIONS
       0, 231.59086,3,36,15,15

BLOCK HIGGSBOUNDSINPUTHIGGSCOUPLINGSBOSONS
       0,4,36,21,21,23

BLOCK SPHENOLOWENERGY
   1    0.00035687757
   2    1.5883375e-06
   3    3.5263854e-05
   4    2.3880185e-15
   5    1.0201352e-10
   6    2.1358754e-08
   7    8.0480622e-14
   8    3.4381323e-09
   9    7.2937268e-07
   10    9.6480202e-05
   11    0.99660355
   12    0.54320785
   13    19.407823
   14    0
   15    0
   16    0.0021630208
   17    2.2817166e-15
   18    2.4795436e-11
   19    8.2896763e-11
   20   -7.5122341e-15
   21   -3.2117461e-10
   22   -2.7724841e-08
   23    0
   24    0
   25    0
   26    0
   27    0
   28    0
   29    0
   30    0
   31    0
   39    5.6632333e-05
   40    0
   41    0
   42    0

BLOCK FWCOEF Q=  160
   305   4422   0   0   -0.18881911
   305   4422   0   2   -0.22995387
   305   4322   0   2   -0.00037569864
   305   6421   0   0   -0.095227835
   305   6421   0   2   -0.1230097
   305   6321   0   2   -0.00032035679
   3051111   4133   0   0    1.5863131
   3051111   4133   0   2    1.588012
   3051111   4233   0   2    3.4029446e-05
   3051111   4137   0   0   -4.4090052
   3051111   4137   0   2   -4.4083379
   3051111   4237   0   2   -0.00026620193
   3051313   4133   0   0    1.5863131
   3051313   4133   0   2    1.588011
   3051313   4233   0   2    3.4029394e-05
   3051313   4137   0   0   -4.4090052
   3051313   4137   0   2   -4.4083389
   3051313   4237   0   2   -0.00026620201
   3051212   4137   0   0    1.5053501
   3051212   4137   0   2    1.5052309
   3051212   4237   0   2    5.8091382e-05
   3051414   4137   0   0    1.5053501
   3051414   4137   0   2    1.5052309
   3051414   4237   0   2    5.8091387e-05
   3051616   4137   0   0    1.5053501
   3051616   4137   0   2    1.5052313
   3051616   4237   0   2    5.8092245e-05

BLOCK IMFWCOEF Q=  160
   305   4422   0   0    3.8579695e-07
   305   4422   0   2   -1.3619627e-05
   305   4322   0   2   -3.1051929e-06
   305   6421   0   0    3.3046061e-07
   305   6421   0   2    6.6756346e-07
   305   6321   0   2   -1.120469e-06
   3051111   4133   0   2   -1.193462e-06
   3051111   4233   0   2    7.8085149e-07
   3051111   4137   0   2    5.9777669e-06
   3051111   4237   0   2   -6.1155656e-06
   3051313   4133   0   2   -1.1934913e-06
   3051313   4233   0   2    7.8085098e-07
   3051313   4137   0   2    5.97776e-06
   3051313   4237   0   2   -6.1155675e-06
   3051212   4137   0   2   -8.6568638e-07
   3051212   4237   0   2    1.3345502e-06
   3051414   4137   0   2   -8.6568709e-07
   3051414   4237   0   2    1.3345502e-06
   3051616   4137   0   2   -8.5863064e-07
   3051616   4237   0   2    1.3345417e-06

DECAY 23  2.4952


DECAY 24  2.085


DECAY 1000011  0.021006521
    0.48467544   2    1000022    11
    0.46087598   2   -1000024    12
    0.054447544   2    1000023    11

DECAY 2000011  0.0044824929
    0.6823094   2    1000022    11
    0.29984334   2    1000023    11
    0.017840752   2    1000025    11

DECAY 1000013  0.021230948
    0.48531544   2    1000022    13
    0.45599621   2   -1000024    14
    0.058687329   2    1000023    13

DECAY 2000013  0.0068992457
    0.53003007   2    1000022    13
    0.27756566   2    1000023    13
    0.16933292   2   -1000024    14
    0.011747038   2    1000025    13
    0.011004023   2    1000013    25
    0.00032029862   2   -1000037    14

DECAY 1000015  0.18562307
    0.49909307   2   -1000024    16
    0.26857456   2    1000022    15
    0.23233237   2    1000023    15

DECAY 2000015  19.606888
    0.60905739   2   -1000037    16
    0.30318866   2    1000025    15
    0.030198936   2    1000035    15
    0.028132179   2    1000022    15
    0.022041989   2    1000023    15
    0.006365587   2   -1000024    16
    0.00051177779   2    1000015    23
    0.00050348321   2    1000015    25

DECAY 1000012  0.062538003
    0.72562525   2    1000024    11
    0.23801905   2    1000022    12
    0.036355698   2    1000023    12

DECAY 1000014  0.062753858
    0.72657267   2    1000024    13
    0.23719722   2    1000022    14
    0.036230108   2    1000023    14

DECAY 1000016  19.661807
    0.58636612   2    1000037    15
    0.29515419   2    1000025    16
    0.07471674   2    1000024    15
    0.030986069   2    1000035    16
    0.0099881151   2    1000022    16
    0.0017699722   2    1000023    16
    0.0010188021   2    1000015    24

DECAY 2000001  144.11091
    0.9831957   2    1000021    1
    0.01677792   2    1000035    1

DECAY 1000001  206.97653
    0.68971214   2    1000021    1
    0.20313625   2   -1000037    2
    0.099599359   2    1000025    1
    0.0030794819   2    1000035    1
    0.0023520783   2    1000022    1
    0.0017360445   2   -1000024    2
    0.00038464165   2    1000023    1

DECAY 2000003  144.11573
    0.98316372   2    1000021    3
    0.016777365   2    1000035    3

DECAY 1000003  206.98082
    0.68969845   2    1000021    3
    0.20313245   2   -1000037    4
    0.099597362   2    1000025    3
    0.0030794195   2    1000035    3
    0.0023577463   2    1000022    3
    0.0017443462   2   -1000024    4
    0.00039022705   2    1000023    3

DECAY 1000005  25.637033
    0.69545814   2   -1000024    6
    0.17518777   2   -1000037    6
    0.075513233   2    1000025    5
    0.028573934   2    1000022    5
    0.024248123   2    1000023    5
    0.001018802   2    1000006   -24

DECAY 2000005  3.6777481
    0.47430013   2   -1000024    6
    0.24615342   2    1000022    5
    0.241731   2    1000023    5
    0.018282722   2    1000035    5
    0.0067729595   2    1000006   -24
    0.0044200931   2   -1000037    6
    0.0037480404   2    1000005    25
    0.0023991296   2    1000005    23
    0.0021925063   2    1000025    5

DECAY 2000002  151.50751
    0.93604424   2    1000021    2
    0.063855715   2    1000035    2

DECAY 1000002  206.97399
    0.68950177   2    1000021    2
    0.1963962   2    1000037    1
    0.10031491   2    1000025    2
    0.0086756852   2    1000024    1
    0.0027804882   2    1000035    2
    0.0020312705   2    1000022    2
    0.00029968061   2    1000023    2

DECAY 2000004  151.51115
    0.93602205   2    1000021    4
    0.06385421   2    1000035    4

DECAY 1000004  206.97821
    0.68948799   2    1000021    4
    0.19639233   2    1000037    3
    0.10031306   2    1000025    4
    0.0086867755   2    1000024    3
    0.00278044   2    1000035    4
    0.0020353601   2    1000022    4
    0.00030405191   2    1000023    4

DECAY 1000006  24.30911
    0.32255822   2    1000022    6
    0.31913617   2    1000023    6
    0.24109107   2    1000024    5
    0.072567187   2    1000037    5
    0.044369186   2    1000025    6
    0.00026865287   3    1000022    24    5

DECAY 2000006  107.41959
    0.23221739   2    1000005    24
    0.18408693   2    1000024    5
    0.16835997   2    1000006    23
    0.1271516   2    1000023    6
    0.1188886   2    1000006    25
    0.11517445   2    1000022    6
    0.035189561   2    1000037    5
    0.01818115   2    1000025    6
    0.00075035689   2    1000035    6

DECAY 1000024  3.5919249e-09
    0.3886858   3    1000022   -1    2
    0.28226088   3    1000022   -3    4
    0.12983708   3    1000022   -11    12
    0.12953906   3    1000022   -13    14
    0.06967719   3    1000022   -15    16

DECAY 1000037  8.1870927
    0.16825059   2    1000023    24
    0.15076381   2    1000024    23
    0.15059824   2    1000022    24
    0.13812221   2    1000024    25
    0.098535223   2    1000014   -13
    0.098533905   2    1000012   -11
    0.096873955   2   -1000013    14
    0.096872554   2   -1000011    12
    0.00079441924   3    1000023   -5    6
    0.00061678562   3    1000022   -5    6

DECAY 1000022 -1


DECAY 1000023  2.0696417e-06
    0.21825554   2    1000022    22
    0.14299762   3    1000022    12   -12
    0.10684941   3    1000022    1   -1
    0.10678806   3    1000022    3   -3
    0.083333676   3    1000022    2   -2
    0.07405225   3    1000022    4   -4
    0.030739471   3    1000022    5   -5
    0.029969202   3    1000024    1   -2
    0.029969202   3   -1000024   -1    2
    0.026918038   3    1000024    3   -4
    0.026918038   3   -1000024   -3    4
    0.024097319   3    1000022    11   -11
    0.024075974   3    1000022    13   -13
    0.018793053   3    1000022    15   -15
    0.0099948632   3    1000024    11   -12
    0.0099948632   3   -1000024   -11    12
    0.009987303   3    1000024    13   -14
    0.009987303   3   -1000024   -13    14
    0.0081394038   3    1000024    15   -16
    0.0081394038   3   -1000024   -15    16

DECAY 1000025  9.4369833
    0.14004035   2    1000024   -24
    0.14004035   2   -1000024    24
    0.1392734   2    1000023    25
    0.12572361   2    1000023    23
    0.097476586   2    1000022    25
    0.042927783   2    1000014   -14
    0.042927783   2   -1000014    14
    0.04292734   2    1000012   -12
    0.04292734   2   -1000012    12
    0.041699076   2    1000013   -13
    0.041699076   2   -1000013    13
    0.04169835   2    1000011   -11
    0.04169835   2   -1000011    11
    0.017898254   2    1000022    23
    0.00049972137   3    1000024    5   -6
    0.00049972137   3   -1000024   -5    6

DECAY 1000035  16.436382
    0.13712516   2    1000015   -15
    0.13712516   2   -1000015    15
    0.049739544   2    2000013   -13
    0.049739544   2   -2000013    13
    0.049739157   2    2000011   -11
    0.049739157   2   -2000011    11
    0.045695399   2    1000024   -24
    0.045695399   2   -1000024    24
    0.04248752   2    1000023    25
    0.037581269   2    1000014   -14
    0.037581269   2   -1000014    14
    0.0375812   2    1000012   -12
    0.0375812   2   -1000012    12
    0.036394979   2    1000023    23
    0.036000435   2    1000013   -13
    0.036000435   2   -1000013    13
    0.036000345   2    1000011   -11
    0.036000345   2   -1000011    11
    0.030044883   2    1000022    25
    0.014501876   2    1000022    23
    0.0038106544   2    1000037   -24
    0.0038106544   2   -1000037    24
    0.0033975903   2    1000025    25
    0.00086330761   3    1000024    5   -6
    0.00086330761   3   -1000024   -5    6
    0.00081973015   2    1000005   -5
    0.00081973015   2   -1000005    5
    0.00079504527   2    1000006   -6
    0.00079504527   2   -1000006    6
    0.00057532961   3    1000023    6   -6
    0.00048836824   3    1000022    6   -6
    0.00036029252   2    1000025    23

DECAY 1000021  252.57105
    0.13883138   2    1000005   -5
    0.13883138   2   -1000005    5
    0.13127911   2    1000006   -6
    0.13127911   2   -1000006    6
    0.1220557   2    2000006   -6
    0.1220557   2   -2000006    6
    0.10731972   2    2000005   -5
    0.10731972   2   -2000005    5
    0.00039513376   2    1000006   -4
    0.00039513376   2   -1000006    4

DECAY 25  0.0036651491
    0.60123786   2   -5    5
    0.20010811   2   -24    24
    0.07255477   2    21    21
    0.068989464   2   -15    15
    0.029583635   2   -4    4
    0.023378427   2    23    23
    0.0023356473   2    22    22
    0.001346213   2    22    23
    0.00023921558   2   -13    13
    0.00022587766   2   -3    3
    6.2452889e-07   2   -1    1
    1.524569e-07   2   -2    2
    5.3778548e-09   2   -11    11

DECAY 35  28.703782
    0.22035838   2   -1000024    1000037
    0.22035838   2   -1000037    1000024
    0.21639523   2   -5    5
    0.11096584   2    1000023    1000025
    0.11003886   2    1000022    1000025
    0.037673621   2   -15    15
    0.025373419   2   -1000024    1000024
    0.017903937   2    1000023    1000035
    0.012622604   2   -6    6
    0.012111116   2    1000022    1000035
    0.008570994   2    1000022    1000022
    0.0035071108   2   -1000037    1000037
    0.0017070137   2    1000025    1000025
    0.0010682301   2    1000023    1000023
    0.001030321   2    1000022    1000023
    0.00012542474   2   -13    13
    8.3564309e-05   2   -3    3
    4.4096791e-05   2    1000025    1000035
    3.5328443e-05   2    25    25
    6.9478339e-06   2    23    23
    3.2475678e-06   2   -24    24
    1.5309977e-06   2   -1000011    1000011
    1.5287803e-06   2   -1000013    1000013
    1.2391742e-06   2    21    21
    5.7799101e-07   2   -2000011    2000011
    5.7729654e-07   2   -2000013    2000013
    2.3133426e-07   2   -1000015    1000015
    2.3103448e-07   2   -1    1
    2.1681287e-07   2    22    23
    1.5458544e-07   2   -4    4
    2.9237895e-08   2    22    22
    5.2650509e-09   2   -2000013    1000013
    5.2650509e-09   2   -1000013    2000013
    2.8172479e-09   2   -11    11
    7.9692864e-13   2   -2    2
    1.2315052e-13   2   -2000011    1000011
    1.2315052e-13   2   -1000011    2000011

DECAY 36  28.478074
    0.22239547   2   -1000024    1000037
    0.22239547   2   -1000037    1000024
    0.21135655   2   -5    5
    0.11348404   2    1000023    1000025
    0.10941081   2    1000022    1000025
    0.036791474   2   -15    15
    0.02535638   2   -1000024    1000024
    0.018373797   2    1000022    1000035
    0.012497747   2   -6    6
    0.011788883   2    1000023    1000035
    0.0074893505   2    1000022    1000022
    0.0033550958   2   -1000037    1000037
    0.0017204333   2    1000022    1000023
    0.0016480768   2    1000025    1000025
    0.001558863   2    1000023    1000023
    0.00014272076   2    1000025    1000035
    0.00012248631   2   -13    13
    8.1606428e-05   2   -3    3
    2.0514796e-05   2    21    21
    9.6746152e-06   2    23    25
    2.2562112e-07   2   -1    1
    1.6793178e-07   2    22    23
    1.4978199e-07   2   -4    4
    9.1145435e-09   2    22    22
    5.2290595e-09   2   -2000013    1000013
    5.2290595e-09   2   -1000013    2000013
    2.7512429e-09   2   -11    11
    7.722156e-13   2   -2    2
    1.2230824e-13   2   -2000011    1000011
    1.2230824e-13   2   -1000011    2000011
    5.3593645e-37   2    25    25

DECAY 37  28.335798
    0.24233657   2    1000022    1000037
    0.23490424   2    1000024    1000025
    0.22788542   2    1000023    1000037
    0.21986977   2   -5    6
    0.038388145   2   -15    16
    0.029401986   2    1000024    1000035
    0.0060165546   2    1000023    1000024
    0.00043905259   2    1000022    1000024
    0.0003080607   2   -5    4
    0.00019053657   2    1000035    1000037
    0.00013571588   2   -13    14
    7.6913638e-05   2   -3    4
    1.8016271e-05   2   -3    6
    9.7562912e-06   2    24    25
    6.0775578e-06   2   -1000011    1000012
    6.0744093e-06   2   -1000013    1000014
    3.5815748e-06   2   -3    2
    2.1998703e-06   2   -5    2
    8.2114749e-07   2   -1    6
    2.7434607e-07   2    1000025    1000037
    2.1300096e-07   2   -1    2
    1.74606e-08   2   -1    4
    1.0976743e-08   2   -2000013    1000014
    3.1744086e-09   2   -11    12
    1.1622149e-12   2    24    35
    5.0755781e-13   2    24    36
    2.5674968e-13   2   -2000011    1000012

DECAY 6  2.43
    1   2    5    24

DECAY 15 -1
