# SUSY Les Houches Accord 2 - MSSM spectrum + Decays
# SPheno v4.0.5be
# W. Porod, Comput. Phys. Commun. 153 (2003) 275-315, hep-ph/0301101;
# W. Porod, F.~Staub, Comput. Phys. Commun. 183 (2012) 2458
#                     arXiv:1104.1573 [hep-ph] 
# in case of problems send email to porod@physik.uni-wuerzburg.de
# Created: 07.09.2021,  19:37
Block SPINFO         # Program information
     1   SPheno      # spectrum calculator
     2   v4.0.5be    # version number
#
Block SPhenoINFO     # SPheno specific information
    1      2         # using 2-loop RGEs
    2      2         # using pole masses for boundary conditions at mZ
Block MODSEL  # Model selection
    1    0    # general MSSM
Block MINPAR  # Input parameters
    3    2.16698992E+01  # tanb at m_Z    
    4    1.00000000E+00  # Sign(mu)
Block EXTPAR  # non-universal input parameters
    0    3.72693486E+03  # scale for input parameters
    1   -4.16373345E+01  # M_1
    2   -1.51530865E+02  # M_2
    3    2.10627548E+03  # M_3
   11    5.35743565E+03  # A_t
   12   -1.14472864E+03  # A_b
   13    3.96973720E+02  # A_tau
   23    1.59583311E+02  # mu
   25    2.07072857E+01  # tan(beta)
   26    8.09883383E+02  # m_A, pole mass
   31    1.00000000E+04  # M_L11
   32    1.00000000E+04  # M_L22
   33    1.00000000E+04  # M_L33
   34    1.00000000E+04  # M_E11
   35    1.00000000E+04  # M_E22
   36    1.00000000E+04  # M_E33
   41    1.00000000E+04  # M_Q11
   42    1.00000000E+04  # M_Q22
   43    4.88557843E+03  # M_Q33
   44    1.00000000E+04  # M_U11
   45    1.00000000E+04  # M_U22
   46    2.82649560E+03  # M_U33
   47    1.00000000E+04  # M_D11
   48    1.00000000E+04  # M_D22
   49    2.11203618E+03  # M_D33
Block SMINPUTS  # SM parameters
         1     1.27908970E+02  # alpha_em^-1(MZ)^MSbar
         2     1.16637870E-05  # G_mu [GeV^-2]
         3     1.18400000E-01  # alpha_s(MZ)^MSbar
         4     9.11876000E+01  # m_Z(pole)
         5     4.18000000E+00  # m_b(m_b), MSbar
         6     1.73200000E+02  # m_t(pole)
         7     1.77700000E+00  # m_tau(pole)
         8     0.00000000E+00  # m_nu_3
        11     5.10998930E-04  # m_e(pole)
        12     0.00000000E+00  # m_nu_1
        13     1.05658372E-01  # m_muon(pole)
        14     0.00000000E+00  # m_nu_2
        21     5.00000000E-03  # m_d(2 GeV), MSbar
        22     2.50000000E-03  # m_u(2 GeV), MSbar
        23     9.50000000E-02  # m_s(2 GeV), MSbar
        24     1.27000000E+00  # m_c(m_c), MSbar
Block gauge Q=  3.72693486E+03  # (SUSY scale)
   1    3.55362975E-01  # g'(Q)^DRbar
   2    6.65198874E-01  # g(Q)^DRbar
   3    1.21977796E+00  # g3(Q)^DRbar
Block Yu Q=  3.72693486E+03  # (SUSY scale)
  1  1     8.39414318E-06   # Y_u(Q)^DRbar
  2  2     4.26422474E-03   # Y_c(Q)^DRbar
  3  3     1.01407992E+00   # Y_t(Q)^DRbar
Block Yd Q=  3.72693486E+03  # (SUSY scale)
  1  1     3.49284888E-04   # Y_d(Q)^DRbar
  2  2     6.63641287E-03   # Y_s(Q)^DRbar
  3  3     3.46381159E-01   # Y_b(Q)^DRbar
Block Ye Q=  3.72693486E+03  # (SUSY scale)
  1  1     6.09527671E-05   # Y_e(Q)^DRbar
  2  2     1.26030991E-02   # Y_mu(Q)^DRbar
  3  3     2.11963393E-01   # Y_tau(Q)^DRbar
Block Au Q=  3.72693486E+03  # (SUSY scale)
  1  1     0.00000000E+00   # A_u(Q)^DRbar
  2  2     0.00000000E+00   # A_c(Q)^DRbar
  3  3     5.35743567E+03   # A_t(Q)^DRbar
Block Ad Q=  3.72693486E+03  # (SUSY scale)
  1  1     0.00000000E+00   # A_d(Q)^DRbar
  2  2     0.00000000E+00   # A_s(Q)^DRbar
  3  3    -1.14472863E+03   # A_b(Q)^DRbar
Block Ae Q=  3.72693486E+03  # (SUSY scale)
  1  1     0.00000000E+00   # A_e(Q)^DRbar
  2  2     0.00000000E+00   # A_mu(Q)^DRbar
  3  3     3.96973718E+02   # A_tau(Q)^DRbar
Block MSOFT Q=  3.72693486E+03  # soft SUSY breaking masses at Q
   1   -4.16373345E+01  # M_1
   2   -1.51530865E+02  # M_2
   3    2.10627548E+03  # M_3
  21    6.09067907E+05  # M^2_(H,d)
  22    1.97369757E+05  # M^2_(H,u)
  31    1.00000000E+04  # M_(L,11)
  32    1.00000000E+04  # M_(L,22)
  33    1.00000000E+04  # M_(L,33)
  34    1.00000000E+04  # M_(E,11)
  35    1.00000000E+04  # M_(E,22)
  36    1.00000000E+04  # M_(E,33)
  41    1.00000000E+04  # M_(Q,11)
  42    1.00000000E+04  # M_(Q,22)
  43    4.88557843E+03  # M_(Q,33)
  44    1.00000000E+04  # M_(U,11)
  45    1.00000000E+04  # M_(U,22)
  46    2.82649560E+03  # M_(U,33)
  47    1.00000000E+04  # M_(D,11)
  48    1.00000000E+04  # M_(D,22)
  49    2.11203618E+03  # M_(D,33)
Block MASS  # Mass spectrum
#   PDG code      mass          particle
         6     1.73200000E+02  # m_t(pole)
        23     9.11876000E+01  # m_Z(pole)
        24     8.04299946E+01  # W+
        15     1.77700000E+00  # m_tau(pole)
        25     1.28154822E+02  # h0
        35     8.09810810E+02  # H0
        36     8.09883383E+02  # A0
        37     8.14991826E+02  # H+
   1000001     1.01169420E+04  # ~d_L
   2000001     1.00914359E+04  # ~d_R
   1000002     1.01165784E+04  # ~u_L
   2000002     1.00946275E+04  # ~u_R
   1000003     1.01169433E+04  # ~s_L
   2000003     1.00914376E+04  # ~s_R
   1000004     1.01165797E+04  # ~c_L
   2000004     1.00946283E+04  # ~c_R
   1000005     2.22186185E+03  # ~b_1
   2000005     4.90153608E+03  # ~b_2
   1000006     2.83090481E+03  # ~t_1
   2000006     4.90657382E+03  # ~t_2
   1000011     1.00216695E+04  # ~e_L-
   2000011     1.00089596E+04  # ~e_R-
   1000012     1.00208964E+04  # ~nu_eL
   1000013     1.00216742E+04  # ~mu_L-
   2000013     1.00089688E+04  # ~mu_R-
   1000014     1.00209011E+04  # ~nu_muL
   1000015     1.00115471E+04  # ~tau_1-
   2000015     1.00230055E+04  # ~tau_2-
   1000016     1.00222252E+04  # ~nu_tauL
   1000021     2.52491941E+03  # ~g
   1000022     4.02364535E+01  # ~chi_10
   1000023     1.28258152E+02  # ~chi_20
   1000025     1.90639416E+02  # ~chi_30
   1000035     2.34226228E+02  # ~chi_40
   1000024     1.29167566E+02  # ~chi_1+
   1000037     2.36722188E+02  # ~chi_2+
# Higgs mixing
Block alpha # Effective Higgs mixing angle
          -4.77094280E-02   # alpha
Block Hmix Q=  3.72693486E+03  # Higgs mixing parameters
   1    1.59583311E+02  # mu
   2    2.07072857E+01  # tan[beta](Q)
   3    2.42992281E+02  # v(Q)
   4    6.55911094E+05  # m^2_A(Q)
Block stopmix # stop mixing matrix
   1  1    -4.44340429E-02   # Re[R_st(1,1)]
   1  2     9.99012320E-01   # Re[R_st(1,2)]
   2  1    -9.99012320E-01   # Re[R_st(2,1)]
   2  2    -4.44340429E-02   # Re[R_st(2,2)]
Block sbotmix # sbottom mixing matrix
   1  1     5.15192549E-04   # Re[R_sb(1,1)]
   1  2     9.99999867E-01   # Re[R_sb(1,2)]
   2  1    -9.99999867E-01   # Re[R_sb(2,1)]
   2  2     5.15192549E-04   # Re[R_sb(2,2)]
Block staumix # stau mixing matrix
   1  1     2.16492666E-02   # Re[R_sta(1,1)]
   1  2     9.99765627E-01   # Re[R_sta(1,2)]
   2  1    -9.99765627E-01   # Re[R_sta(2,1)]
   2  2     2.16492666E-02   # Re[R_sta(2,2)]
Block Nmix # neutralino mixing matrix
   1  1    -9.62364089E-01   # Re[N(1,1)]
   1  2     2.15546137E-02   # Re[N(1,2)]
   1  3    -2.66416125E-01   # Re[N(1,3)]
   1  4    -4.91244129E-02   # Re[N(1,4)]
   2  1     1.90440019E-01   # Re[N(2,1)]
   2  2     7.05652877E-01   # Re[N(2,2)]
   2  3    -5.58499156E-01   # Re[N(2,3)]
   2  4    -3.92256688E-01   # Re[N(2,4)]
   3  1     1.43508156E-01   # Re[N(3,1)]
   3  2    -1.66596232E-01   # Re[N(3,2)]
   3  3    -6.63697203E-01   # Re[N(3,3)]
   3  4     7.14952535E-01   # Re[N(3,4)]
   4  1     1.30358617E-01   # Re[N(4,1)]
   4  2    -6.88356820E-01   # Re[N(4,2)]
   4  3    -4.20246551E-01   # Re[N(4,3)]
   4  4    -5.76683931E-01   # Re[N(4,4)]
Block Umix # chargino mixing matrix
   1  1    -6.04371080E-01   # Re[U(1,1)]
   1  2     7.96702955E-01   # Re[U(1,2)]
   2  1    -7.96702955E-01   # Re[U(2,1)]
   2  2    -6.04371080E-01   # Re[U(2,2)]
Block Vmix # chargino mixing matrix
   1  1     8.30917428E-01   # Re[V(1,1)]
   1  2     5.56395748E-01   # Re[V(1,2)]
   2  1     5.56395748E-01   # Re[V(2,1)]
   2  2    -8.30917428E-01   # Re[V(2,2)]
DECAY        23     2.49520000E+00   # Z
DECAY        24     2.08500000E+00   # W
DECAY   2000011     5.02875759E+01   # ~e^-_R
#    BR                NDA      ID1      ID2
     9.26184505E-01    2     1000022        11   # BR(~e^-_R -> chi^0_1 e^-)
     3.62582281E-02    2     1000023        11   # BR(~e^-_R -> chi^0_2 e^-)
     2.05812083E-02    2     1000025        11   # BR(~e^-_R -> chi^0_3 e^-)
     1.69760436E-02    2     1000035        11   # BR(~e^-_R -> chi^0_4 e^-)
DECAY   1000011     1.44819050E+02   # ~e^-_L
#    BR                NDA      ID1      ID2
     7.38961986E-02    2     1000022        11   # BR(~e^-_L -> chi^0_1 e^-)
     1.98491474E-01    2     1000023        11   # BR(~e^-_L -> chi^0_2 e^-)
     2.46163954E-03    2     1000025        11   # BR(~e^-_L -> chi^0_3 e^-)
     1.16473311E-01    2     1000035        11   # BR(~e^-_L -> chi^0_4 e^-)
     2.22438820E-01    2    -1000024        12   # BR(~e^-_L -> chi^-_1 nu_e)
     3.86238557E-01    2    -1000037        12   # BR(~e^-_L -> chi^-_2 nu_e)
#    BR                NDA      ID1      ID2       ID3
DECAY   2000013     5.03508380E+01   # ~mu^-_R
#    BR                NDA      ID1      ID2
     9.25066254E-01    2     1000022        13   # BR(~mu^-_R -> chi^0_1 mu^-)
     3.64085734E-02    2     1000023        13   # BR(~mu^-_R -> chi^0_2 mu^-)
     2.08318621E-02    2     1000025        13   # BR(~mu^-_R -> chi^0_3 mu^-)
     1.70655442E-02    2     1000035        13   # BR(~mu^-_R -> chi^0_4 mu^-)
     3.98580147E-04    2    -1000024        14   # BR(~mu^-_R -> chi^-_1 nu_mu)
     2.29186392E-04    2    -1000037        14   # BR(~mu^-_R -> chi^-_2 nu_mu)
DECAY   1000013     1.44850766E+02   # ~mu^-_L
#    BR                NDA      ID1      ID2
     7.38955701E-02    2     1000022        13   # BR(~mu^-_L -> chi^0_1 mu^-)
     1.98516274E-01    2     1000023        13   # BR(~mu^-_L -> chi^0_2 mu^-)
     2.55733415E-03    2     1000025        13   # BR(~mu^-_L -> chi^0_3 mu^-)
     1.16486433E-01    2     1000035        13   # BR(~mu^-_L -> chi^0_4 mu^-)
     2.22390220E-01    2    -1000024        14   # BR(~mu^-_L -> chi^-_1 nu_mu)
     3.86154169E-01    2    -1000037        14   # BR(~mu^-_L -> chi^-_2 nu_mu)
#    BR                NDA      ID1      ID2       ID3
DECAY   1000015     6.82274714E+01   # ~tau^-_1
#    BR                NDA      ID1      ID2
     6.93687894E-01    2     1000022        15   # BR(~tau^-_1 -> chi^0_1 tau^-)
     7.20619372E-02    2     1000023        15   # BR(~tau^-_1 -> chi^0_2 tau^-)
     7.08687776E-02    2     1000025        15   # BR(~tau^-_1 -> chi^0_3 tau^-)
     3.17547344E-02    2     1000035        15   # BR(~tau^-_1 -> chi^0_4 tau^-)
     9.19813335E-02    2    -1000024        16   # BR(~tau^-_1 -> chi^-_1 nu_tau)
     3.96453233E-02    2    -1000037        16   # BR(~tau^-_1 -> chi^-_2 nu_tau)
DECAY   2000015     1.53750844E+02   # ~tau^-_2
#    BR                NDA      ID1      ID2
     7.30590755E-02    2     1000022        15   # BR(~tau^-_2 -> chi^0_1 tau^-)
     2.03184791E-01    2     1000023        15   # BR(~tau^-_2 -> chi^0_2 tau^-)
     2.88724362E-02    2     1000025        15   # BR(~tau^-_2 -> chi^0_3 tau^-)
     1.21733881E-01    2     1000035        15   # BR(~tau^-_2 -> chi^0_4 tau^-)
     2.05653605E-01    2    -1000024        16   # BR(~tau^-_2 -> chi^-_1 nu_tau)
     3.67496211E-01    2    -1000037        16   # BR(~tau^-_2 -> chi^-_2 nu_tau)
#    BR                NDA      ID1      ID2       ID3
DECAY   1000012     1.44823553E+02   # ~nu_e
#    BR                NDA      ID1      ID2
     8.73876738E-02    2     1000022        12   # BR(~nu_e -> chi^0_1 nu_e)
     1.11040431E-01    2     1000023        12   # BR(~nu_e -> chi^0_2 nu_e)
     1.80095140E-02    2     1000025        12   # BR(~nu_e -> chi^0_3 nu_e)
     1.74795777E-01    2     1000035        12   # BR(~nu_e -> chi^0_4 nu_e)
     4.20408940E-01    2     1000024        11   # BR(~nu_e -> chi^+_1 e^-)
     1.88357664E-01    2     1000037        11   # BR(~nu_e -> chi^+_2 e^-)
#    BR                NDA      ID1      ID2       ID3
DECAY   1000014     1.44855267E+02   # ~nu_mu
#    BR                NDA      ID1      ID2
     8.73685827E-02    2     1000022        14   # BR(~nu_mu -> chi^0_1 nu_mu)
     1.11016173E-01    2     1000023        14   # BR(~nu_mu -> chi^0_2 nu_mu)
     1.80055796E-02    2     1000025        14   # BR(~nu_mu -> chi^0_3 nu_mu)
     1.74757590E-01    2     1000035        14   # BR(~nu_mu -> chi^0_4 nu_mu)
     4.20455806E-01    2     1000024        13   # BR(~nu_mu -> chi^+_1 mu^-)
     1.88396268E-01    2     1000037        13   # BR(~nu_mu -> chi^+_2 mu^-)
#    BR                NDA      ID1      ID2       ID3
DECAY   1000016     1.53795349E+02   # ~nu_tau
#    BR                NDA      ID1      ID2
     8.23007446E-02    2     1000022        16   # BR(~nu_tau -> chi^0_1 nu_tau)
     1.04576658E-01    2     1000023        16   # BR(~nu_tau -> chi^0_2 nu_tau)
     1.69611642E-02    2     1000025        16   # BR(~nu_tau -> chi^0_3 nu_tau)
     1.64620776E-01    2     1000035        16   # BR(~nu_tau -> chi^0_4 nu_tau)
     4.32896698E-01    2     1000024        15   # BR(~nu_tau -> chi^+_1 tau^-)
     1.98643960E-01    2     1000037        15   # BR(~nu_tau -> chi^+_2 tau^-)
#    BR                NDA      ID1      ID2       ID3
DECAY   2000001     7.05574446E+02   # ~d_R
#    BR                NDA      ID1      ID2
     7.39498439E-03    2     1000022         1   # BR(~d_R -> chi^0_1 d)
     2.89510595E-04    2     1000023         1   # BR(~d_R -> chi^0_2 d)
     1.64344671E-04    2     1000025         1   # BR(~d_R -> chi^0_3 d)
     1.35551138E-04    2     1000035         1   # BR(~d_R -> chi^0_4 d)
     9.92015575E-01    2     1000021         1   # BR(~d_R -> ~g d)
DECAY   1000001     8.37079670E+02   # ~d_L
#    BR                NDA      ID1      ID2
     1.97995254E-03    2     1000022         1   # BR(~d_L -> chi^0_1 d)
     2.39965776E-02    2     1000023         1   # BR(~d_L -> chi^0_2 d)
     1.96275633E-03    2     1000025         1   # BR(~d_L -> chi^0_3 d)
     2.69063983E-02    2     1000035         1   # BR(~d_L -> chi^0_4 d)
     3.88491367E-02    2    -1000024         2   # BR(~d_L -> chi^-_1 u)
     6.74578973E-02    2    -1000037         2   # BR(~d_L -> chi^-_2 u)
     8.38847281E-01    2     1000021         1   # BR(~d_L -> ~g d)
DECAY   2000003     7.05592220E+02   # ~s_R
#    BR                NDA      ID1      ID2
     7.39568627E-03    2     1000022         3   # BR(~s_R -> chi^0_1 s)
     2.93400083E-04    2     1000023         3   # BR(~s_R -> chi^0_2 s)
     1.69841354E-04    2     1000025         3   # BR(~s_R -> chi^0_3 s)
     1.37752392E-04    2     1000035         3   # BR(~s_R -> chi^0_4 s)
     9.91990796E-01    2     1000021         3   # BR(~s_R -> ~g s)
DECAY   1000003     8.37092292E+02   # ~s_L
#    BR                NDA      ID1      ID2
     1.98067243E-03    2     1000022         3   # BR(~s_L -> chi^0_1 s)
     2.39995113E-02    2     1000023         3   # BR(~s_L -> chi^0_2 s)
     1.96737551E-03    2     1000025         3   # BR(~s_L -> chi^0_3 s)
     2.69078595E-02    2     1000035         3   # BR(~s_L -> chi^0_4 s)
     3.88499058E-02    2    -1000024         4   # BR(~s_L -> chi^-_1 c)
     6.74599073E-02    2    -1000037         4   # BR(~s_L -> chi^-_2 c)
     8.38834768E-01    2     1000021         3   # BR(~s_L -> ~g s)
DECAY   1000005     1.16485675E+01   # ~b_1
#    BR                NDA      ID1      ID2
     1.30935643E-01    2     1000022         5   # BR(~b_1 -> chi^0_1 b)
     1.45127463E-01    2     1000023         5   # BR(~b_1 -> chi^0_2 b)
     1.99680120E-01    2     1000025         5   # BR(~b_1 -> chi^0_3 b)
     8.02097575E-02    2     1000035         5   # BR(~b_1 -> chi^0_4 b)
     2.83948899E-01    2    -1000024         6   # BR(~b_1 -> chi^-_1 t)
     1.60098118E-01    2    -1000037         6   # BR(~b_1 -> chi^-_2 t)
DECAY   2000005     4.33074795E+02   # ~b_2
#    BR                NDA      ID1      ID2
     3.76570326E-03    2     1000022         5   # BR(~b_2 -> chi^0_1 b)
     3.08491771E-02    2     1000023         5   # BR(~b_2 -> chi^0_2 b)
     1.37045209E-02    2     1000025         5   # BR(~b_2 -> chi^0_3 b)
     2.98716759E-02    2     1000035         5   # BR(~b_2 -> chi^0_4 b)
     1.07438708E-01    2    -1000024         6   # BR(~b_2 -> chi^-_1 t)
     2.22220595E-01    2    -1000037         6   # BR(~b_2 -> chi^-_2 t)
     4.82148215E-01    2     1000021         5   # BR(~b_2 -> ~g b)
     1.07855704E-01    2     1000006       -24   # BR(~b_2 -> ~t_1 W^-)
     1.02155782E-03    2     1000006       -37   # BR(~b_2 -> ~t_1 H^-)
     5.45656027E-04    2     1000005        36   # BR(~b_2 -> ~b_1 A^0)
     5.45777984E-04    2     1000005        35   # BR(~b_2 -> ~b_1 H^0)
DECAY   2000002     7.22762693E+02   # ~u_R
#    BR                NDA      ID1      ID2
     2.88856114E-02    2     1000022         2   # BR(~u_R -> chi^0_1 u)
     1.13081810E-03    2     1000023         2   # BR(~u_R -> chi^0_2 u)
     6.41888925E-04    2     1000025         2   # BR(~u_R -> chi^0_3 u)
     5.29454059E-04    2     1000035         2   # BR(~u_R -> chi^0_4 u)
     9.68812227E-01    2     1000021         2   # BR(~u_R -> ~g u)
DECAY   1000002     8.37067374E+02   # ~u_L
#    BR                NDA      ID1      ID2
     1.19394607E-03    2     1000022         2   # BR(~u_L -> chi^0_1 u)
     2.90863830E-02    2     1000023         2   # BR(~u_L -> chi^0_2 u)
     1.05745050E-03    2     1000025         2   # BR(~u_L -> chi^0_3 u)
     2.35093833E-02    2     1000035         2   # BR(~u_L -> chi^0_4 u)
     7.34312008E-02    2     1000024         1   # BR(~u_L -> chi^+_1 d)
     3.29001915E-02    2     1000037         1   # BR(~u_L -> chi^+_2 d)
     8.38821445E-01    2     1000021         2   # BR(~u_L -> ~g u)
DECAY   2000004     7.22770031E+02   # ~c_R
#    BR                NDA      ID1      ID2
     2.88853316E-02    2     1000022         4   # BR(~c_R -> chi^0_1 c)
     1.13158359E-03    2     1000023         4   # BR(~c_R -> chi^0_2 c)
     6.44463599E-04    2     1000025         4   # BR(~c_R -> chi^0_3 c)
     5.31126763E-04    2     1000035         4   # BR(~c_R -> chi^0_4 c)
     9.68802446E-01    2     1000021         4   # BR(~c_R -> ~g c)
DECAY   1000004     8.37079963E+02   # ~c_L
#    BR                NDA      ID1      ID2
     1.19393877E-03    2     1000022         4   # BR(~c_L -> chi^0_1 c)
     2.90866216E-02    2     1000023         4   # BR(~c_L -> chi^0_2 c)
     1.05966837E-03    2     1000025         4   # BR(~c_L -> chi^0_3 c)
     2.35104818E-02    2     1000035         4   # BR(~c_L -> chi^0_4 c)
     7.34368072E-02    2     1000024         3   # BR(~c_L -> chi^+_1 s)
     3.29035531E-02    2     1000037         3   # BR(~c_L -> chi^+_2 s)
     8.38808929E-01    2     1000021         4   # BR(~c_L -> ~g c)
DECAY   1000006     1.27677002E+02   # ~t_1
#    BR                NDA      ID1      ID2
     4.70073646E-02    2     1000022         6   # BR(~t_1 -> chi^0_1 t)
     7.51437687E-02    2     1000023         6   # BR(~t_1 -> chi^0_2 t)
     2.32655484E-01    2     1000025         6   # BR(~t_1 -> chi^0_3 t)
     1.40492275E-01    2     1000035         6   # BR(~t_1 -> chi^0_4 t)
     1.52061565E-01    2     1000024         5   # BR(~t_1 -> chi^+_1 b)
     2.96324801E-01    2     1000037         5   # BR(~t_1 -> chi^+_2 b)
     5.63144446E-02    2     1000021         6   # BR(~t_1 -> ~g t)
#    BR                NDA      ID1      ID2       ID3
DECAY   2000006     4.49690401E+02   # ~t_2
#    BR                NDA      ID1      ID2
     1.41277881E-03    2     1000022         6   # BR(~t_2 -> chi^0_1 t)
     5.82664959E-02    2     1000023         6   # BR(~t_2 -> chi^0_2 t)
     1.12861745E-01    2     1000025         6   # BR(~t_2 -> chi^0_3 t)
     9.84696626E-02    2     1000035         6   # BR(~t_2 -> chi^0_4 t)
     7.67053851E-02    2     1000024         5   # BR(~t_2 -> chi^+_1 b)
     4.52698127E-02    2     1000037         5   # BR(~t_2 -> chi^+_2 b)
     4.65391044E-01    2     1000021         6   # BR(~t_2 -> ~g t)
     1.03359832E-03    2     1000005        37   # BR(~t_2 -> ~b_1 H^+)
     5.21177334E-02    2     1000006        23   # BR(~t_2 -> ~t_1 Z)
     4.94394220E-04    2     1000006        36   # BR(~t_2 -> ~t_1 A^0)
     8.74697201E-02    2     1000006        25   # BR(~t_2 -> ~t_1 h^0)
     4.83883297E-04    2     1000006        35   # BR(~t_2 -> ~t_1 H^0)
DECAY   1000024     1.74599280E-02   # chi^+_1
#    BR                NDA      ID1      ID2
     9.99999488E-01    2     1000022        24   # BR(chi^+_1 -> chi^0_1 W^+)
#    BR                NDA      ID1      ID2       ID3
DECAY   1000037     6.40115974E-01   # chi^+_2
#    BR                NDA      ID1      ID2
     1.23788063E-01    2     1000022        24   # BR(chi^+_2 -> chi^0_1 W^+)
     7.87424981E-01    2     1000023        24   # BR(chi^+_2 -> chi^0_2 W^+)
     8.85415429E-02    2     1000024        23   # BR(chi^+_2 -> chi^+_1 Z)
#    BR                NDA      ID1      ID2       ID3
DECAY   1000022     0.00000000E+00   # chi^0_1
DECAY   1000023     5.64072758E-04   # chi^0_2
#    BR                NDA      ID1      ID2
     1.01185214E-03    2     1000022        22   # BR(chi^0_2 -> chi^0_1 photon)
#    BR                NDA      ID1      ID2       ID3
     1.18724437E-01    3     1000022         2        -2   # BR(chi^0_2 -> chi^0_1 u u_bar)
     1.18574487E-01    3     1000022         4        -4   # BR(chi^0_2 -> chi^0_1 c c_bar)
     1.52226911E-01    3     1000022         1        -1   # BR(chi^0_2 -> chi^0_1 d d_bar)
     1.52226111E-01    3     1000022         3        -3   # BR(chi^0_2 -> chi^0_1 s s_bar)
     1.50732974E-01    3     1000022         5        -5   # BR(chi^0_2 -> chi^0_1 b b_bar)
     3.43458689E-02    3     1000022        11       -11   # BR(chi^0_2 -> chi^0_1 e^- e^+)
     3.43456051E-02    3     1000022        13       -13   # BR(chi^0_2 -> chi^0_1 mu^- mu^+)
     3.42674853E-02    3     1000022        15       -15   # BR(chi^0_2 -> chi^0_1 tau^- tau^+)
     2.03544268E-01    3     1000022        12       -12   # BR(chi^0_2 -> chi^0_1 nu_e nu_bar_e)
DECAY   1000025     1.31083622E-01   # chi^0_3
#    BR                NDA      ID1      ID2
     7.53782595E-01    2     1000022        23   # BR(chi^0_3 -> chi^0_1 Z)
     2.25283153E-01    2     1000022        25   # BR(chi^0_3 -> chi^0_1 h^0)
#    BR                NDA      ID1      ID2       ID3
     1.27981140E-03    3     1000023         2        -2   # BR(chi^0_3 -> chi^0_2 u u_bar)
     1.27410176E-03    3     1000023         4        -4   # BR(chi^0_3 -> chi^0_2 c c_bar)
     1.64091234E-03    3     1000023         1        -1   # BR(chi^0_3 -> chi^0_2 d d_bar)
     1.64087800E-03    3     1000023         3        -3   # BR(chi^0_3 -> chi^0_2 s s_bar)
     1.57667477E-03    3     1000023         5        -5   # BR(chi^0_3 -> chi^0_2 b b_bar)
     3.70312248E-04    3     1000023        11       -11   # BR(chi^0_3 -> chi^0_2 e^- e^+)
     3.70299511E-04    3     1000023        13       -13   # BR(chi^0_3 -> chi^0_2 mu^- mu^+)
     3.66731679E-04    3     1000023        15       -15   # BR(chi^0_3 -> chi^0_2 tau^- tau^+)
     2.19446396E-03    3     1000023        12       -12   # BR(chi^0_3 -> chi^0_2 nu_e nu_bar_e)
     1.68834220E-03    3     1000024         1        -2   # BR(chi^0_3 -> chi^+_1 d u_bar)
     1.68834220E-03    3    -1000024        -1         2   # BR(chi^0_3 -> chi^-_1 d_bar u)
     1.68566392E-03    3     1000024         3        -4   # BR(chi^0_3 -> chi^+_1 s c_bar)
     1.68566392E-03    3    -1000024        -3         4   # BR(chi^0_3 -> chi^-_1 s_bar c)
     5.62786520E-04    3     1000024        11       -12   # BR(chi^0_3 -> chi^+_1 e^- nu_bar_e)
     5.62786520E-04    3    -1000024       -11        12   # BR(chi^0_3 -> chi^-_1 e^+ nu_e)
     5.62783813E-04    3     1000024        13       -14   # BR(chi^0_3 -> chi^+_1 mu^- nu_bar_mu)
     5.62783813E-04    3    -1000024       -13        14   # BR(chi^0_3 -> chi^-_1 mu^+ nu_mu)
     5.60731544E-04    3     1000024        15       -16   # BR(chi^0_3 -> chi^+_1 tau^- nu_bar_tau)
     5.60731544E-04    3    -1000024       -15        16   # BR(chi^0_3 -> chi^-_1 tau^+ nu_tau)
DECAY   1000035     1.12933179E+00   # chi^0_4
#    BR                NDA      ID1      ID2
     4.75082004E-01    2     1000024       -24   # BR(chi^0_4 -> chi^+_1 W^-)
     4.75082004E-01    2    -1000024        24   # BR(chi^0_4 -> chi^-_1 W^+)
     2.64275676E-02    2     1000022        23   # BR(chi^0_4 -> chi^0_1 Z)
     1.09968950E-04    2     1000023        23   # BR(chi^0_4 -> chi^0_2 Z)
     2.30625783E-02    2     1000022        25   # BR(chi^0_4 -> chi^0_1 h^0)
#    BR                NDA      ID1      ID2       ID3
DECAY   1000021     3.97355154E+00   # ~g
#    BR                NDA      ID1      ID2
     4.78791257E-01    2     1000005        -5   # BR(~g -> ~b_1 b_bar)
     4.78791257E-01    2    -1000005         5   # BR(~g -> ~b^*_1 b)
     1.44525252E-04    2     1000025        21   # BR(~g -> chi^0_3 g)
     1.03526350E-04    2     1000035        21   # BR(~g -> chi^0_4 g)
#    BR                NDA      ID1      ID2       ID3
     1.73839944E-03    3     1000022         6        -6   # BR(~g -> chi^0_1 t t_bar)
     3.52181207E-03    3     1000023         6        -6   # BR(~g -> chi^0_2 t t_bar)
     1.26303510E-04    3     1000023         5        -5   # BR(~g -> chi^0_2 b b_bar)
     1.04095179E-02    3     1000025         6        -6   # BR(~g -> chi^0_3 t t_bar)
     5.61820647E-03    3     1000035         6        -6   # BR(~g -> chi^0_4 t t_bar)
     1.25350638E-04    3     1000035         5        -5   # BR(~g -> chi^0_4 b b_bar)
     3.86107738E-03    3     1000024         5        -6   # BR(~g -> chi^+_1 b t_bar)
     3.86107738E-03    3    -1000024        -5         6   # BR(~g -> chi^-_1 b_bar t)
     6.33090541E-03    3     1000037         5        -6   # BR(~g -> chi^+_2 b t_bar)
     6.33090541E-03    3    -1000037        -5         6   # BR(~g -> chi^-_2 b_bar t)
DECAY        25     4.57836807E-03   # Gamma(h0)
     2.18252764E-03   2        22        22   # BR(h0 -> photon photon)
     1.66006393E-03   2        22        23   # BR(h0 -> photon Z)
     3.43871326E-02   2        23        23   # BR(h0 -> Z Z)
     2.67622636E-01   2       -24        24   # BR(h0 -> W W)
     6.59536599E-02   2        21        21   # BR(h0 -> gluon gluon)
     4.34828078E-09   2       -11        11   # BR(h0 -> Electron electron)
     1.93420771E-04   2       -13        13   # BR(h0 -> Muon muon)
     5.57734642E-02   2       -15        15   # BR(h0 -> Tau tau)
     1.15129979E-07   2        -2         2   # BR(h0 -> Up up)
     2.23449641E-02   2        -4         4   # BR(h0 -> Charm charm)
     5.01070311E-07   2        -1         1   # BR(h0 -> Down down)
     1.81226132E-04   2        -3         3   # BR(h0 -> Strange strange)
     4.82608906E-01   2        -5         5   # BR(h0 -> Bottom bottom)
     6.70913779E-02   2   1000022   1000022   # BR(h0 -> neutralino1 neutralino1)
DECAY        35     1.47581331E+01   # Gamma(HH)
     6.34011753E-07   2        22        22   # BR(HH -> photon photon)
     2.01768129E-06   2        22        23   # BR(HH -> photon Z)
     1.72212381E-05   2        23        23   # BR(HH -> Z Z)
     2.84857256E-05   2       -24        24   # BR(HH -> W W)
     2.54492134E-05   2        21        21   # BR(HH -> gluon gluon)
     3.94414605E-09   2       -11        11   # BR(HH -> Electron electron)
     1.75541507E-04   2       -13        13   # BR(HH -> Muon muon)
     5.06871298E-02   2       -15        15   # BR(HH -> Tau tau)
     3.30755918E-13   2        -2         2   # BR(HH -> Up up)
     6.41392071E-08   2        -4         4   # BR(HH -> Charm charm)
     3.72406782E-03   2        -6         6   # BR(HH -> Top top)
     3.42268622E-07   2        -1         1   # BR(HH -> Down down)
     1.23796597E-04   2        -3         3   # BR(HH -> Strange strange)
     3.20519834E-01   2        -5         5   # BR(HH -> Bottom bottom)
     1.90493759E-01   2  -1000024   1000024   # BR(HH -> Chargino1 chargino1)
     7.91464123E-02   2  -1000024   1000037   # BR(HH -> Chargino1 chargino2)
     7.91464123E-02   2  -1000037   1000024   # BR(HH -> Chargino2 chargino1)
     3.28034812E-02   2  -1000037   1000037   # BR(HH -> Chargino2 chargino2)
     1.10995082E-02   2   1000022   1000022   # BR(HH -> neutralino1 neutralino1)
     5.00140414E-02   2   1000022   1000023   # BR(HH -> neutralino1 neutralino2)
     1.42316190E-02   2   1000022   1000025   # BR(HH -> neutralino1 neutralino3)
     7.48749742E-05   2   1000022   1000035   # BR(HH -> neutralino1 neutralino4)
     4.61442545E-02   2   1000023   1000023   # BR(HH -> neutralino2 neutralino2)
     9.57546198E-03   2   1000023   1000025   # BR(HH -> neutralino2 neutralino3)
     5.34383631E-03   2   1000023   1000035   # BR(HH -> neutralino2 neutralino4)
     8.74644107E-03   2   1000025   1000025   # BR(HH -> neutralino3 neutralino3)
     6.74500440E-02   2   1000025   1000035   # BR(HH -> neutralino3 neutralino4)
     3.02449613E-02   2   1000035   1000035   # BR(HH -> neutralino4 neutralino4)
     1.80304034E-04   2        25        25   # BR(HH -> h0 h0)
DECAY        36     1.46323550E+01   # Gamma(A0)
     2.09221172E-07   2        22        22   # BR(A0 -> photon photon)
     1.38980097E-06   2        22        23   # BR(A0 -> photon Z)
     5.96410058E-05   2        21        21   # BR(A0 -> gluon gluon)
     3.87904555E-09   2       -11        11   # BR(A0 -> Electron electron)
     1.72644040E-04   2       -13        13   # BR(A0 -> Muon muon)
     4.98514927E-02   2       -15        15   # BR(A0 -> Tau tau)
     3.04331369E-13   2        -2         2   # BR(A0 -> Up up)
     5.89941587E-08   2        -4         4   # BR(A0 -> Charm charm)
     4.23256742E-03   2        -6         6   # BR(A0 -> Top top)
     3.36615218E-07   2        -1         1   # BR(A0 -> Down down)
     1.21751731E-04   2        -3         3   # BR(A0 -> Strange strange)
     3.15242582E-01   2        -5         5   # BR(A0 -> Bottom bottom)
     1.90472669E-01   2  -1000024   1000024   # BR(A0 -> Chargino1 chargino1)
     8.15205408E-02   2  -1000024   1000037   # BR(A0 -> Chargino1 chargino2)
     8.15205408E-02   2  -1000037   1000024   # BR(A0 -> Chargino2 chargino1)
     3.16513809E-02   2  -1000037   1000037   # BR(A0 -> Chargino2 chargino2)
     1.08803222E-02   2   1000022   1000022   # BR(A0 -> neutralino1 neutralino1)
     4.71636558E-02   2   1000022   1000023   # BR(A0 -> neutralino1 neutralino2)
     1.80066268E-02   2   1000022   1000025   # BR(A0 -> neutralino1 neutralino3)
     6.19164840E-06   2   1000022   1000035   # BR(A0 -> neutralino1 neutralino4)
     4.43820896E-02   2   1000023   1000023   # BR(A0 -> neutralino2 neutralino2)
     1.28123475E-02   2   1000023   1000025   # BR(A0 -> neutralino2 neutralino3)
     6.73874780E-03   2   1000023   1000035   # BR(A0 -> neutralino2 neutralino4)
     1.33460886E-02   2   1000025   1000025   # BR(A0 -> neutralino3 neutralino3)
     5.88302734E-02   2   1000025   1000035   # BR(A0 -> neutralino3 neutralino4)
     3.29588909E-02   2   1000035   1000035   # BR(A0 -> neutralino4 neutralino4)
     2.69570929E-05   2        23        25   # BR(A0 -> Z h0)
     5.00801401E-39   2        25        25   # BR(A0 -> h0 h0)
DECAY        37     1.43331666E+01   # Gamma(Hp)
     4.41555756E-09   2       -11        12   # BR(Hp -> Electron nu_e)
     1.88778871E-04   2       -13        14   # BR(Hp -> Muon nu_mu)
     5.33969308E-02   2       -15        16   # BR(Hp -> Tau nu_tau)
     3.32916763E-07   2        -1         2   # BR(Hp -> Down up)
     5.52621470E-06   2        -3         2   # BR(Hp -> Strange up)
     3.45350444E-06   2        -5         2   # BR(Hp -> Bottom up)
     1.86026492E-08   2        -1         4   # BR(Hp -> Down charm)
     1.20048460E-04   2        -3         4   # BR(Hp -> Strange charm)
     4.83612109E-04   2        -5         4   # BR(Hp -> Bottom charm)
     3.32704470E-07   2        -1         6   # BR(Hp -> Down top)
     7.41428782E-06   2        -3         6   # BR(Hp -> Strange top)
     3.09321830E-01   2        -5         6   # BR(Hp -> Bottom top)
     8.76110029E-02   2   1000022   1000024   # BR(Hp -> neutralino1 chargino1)
     3.98769490E-04   2   1000022   1000037   # BR(Hp -> neutralino1 chargino2)
     7.38193575E-03   2   1000023   1000024   # BR(Hp -> neutralino2 chargino1)
     2.40456947E-01   2   1000023   1000037   # BR(Hp -> neutralino2 chargino2)
     8.20934076E-02   2   1000024   1000025   # BR(Hp -> chargino1 neutralino3)
     8.22600792E-02   2   1000025   1000037   # BR(Hp -> neutralino3 chargino2)
     1.34347277E-01   2   1000024   1000035   # BR(Hp -> chargino1 neutralino4)
     1.89395263E-03   2   1000035   1000037   # BR(Hp -> neutralino4 chargino2)
     2.83444089E-05   2        24        25   # BR(Hp -> W h0)
     3.52206660E-10   2        24        35   # BR(Hp -> W HH)
     3.28243591E-10   2        24        36   # BR(Hp -> W A0)
DECAY         6     2.43000000E+00   # top
#    BR                NDA      ID1      ID2
     1.00000000E+00    2           5        24   # BR(t -> b W)
Block HiggsBoundsInputHiggsCouplingsFermions
# ScalarNormEffCoupSq PseudoSNormEffCoupSq NP IP1 IP2 IP2
    9.77545290E-01    0.00000000E+00        3  25   5   5  # h0-b-b eff. coupling^2, normalised to SM
    4.28814136E+02    0.00000000E+00        3  35   5   5  # H0-b-b eff. coupling^2, normalised to SM
    0.00000000E+00    4.28791681E+02        3  36   5   5  # A0-b-b eff. coupling^2, normalised to SM
#
    1.00005237E+00    0.00000000E+00        3  25   6   6  # h0-t-t eff. coupling^2, normalised to SM
    2.27976739E-03    0.00000000E+00        3  35   6   6  # H0-t-t eff. coupling^2, normalised to SM
    0.00000000E+00    2.33213480E-03        3  36   6   6  # A0-t-t eff. coupling^2, normalised to SM
#
    9.77545290E-01    0.00000000E+00        3  25  15  15  # h0-tau-tau eff. coupling^2, normalised to SM
    4.28814136E+02    0.00000000E+00        3  35  15  15  # H0-tau-tau eff. coupling^2, normalised to SM
    0.00000000E+00    4.28791681E+02        3  36  15  15  # A0-tau-tau eff. coupling^2, normalised to SM
#
Block HiggsBoundsInputHiggsCouplingsBosons
    9.99999703E-01        3  25  24  24  # h0-W-W eff. coupling^2, normalised to SM
    2.97313542E-07        3  35  24  24  # H0-W-W eff. coupling^2, normalised to SM
    0.00000000E+00        3  36  24  24  # A0-W-W eff. coupling^2, normalised to SM
#
    9.99999703E-01        3  25  23  23  # h0-Z-Z eff. coupling^2, normalised to SM
    2.97313542E-07        3  35  23  23  # H0-Z-Z eff. coupling^2, normalised to SM
    0.00000000E+00        3  36  23  23  # A0-Z-Z eff. coupling^2, normalised to SM
#
    1.26434915E+00        3  25  21  21  # h0-g-g eff. coupling^2, normalised to SM
    7.60001139E-03        3  35  21  21  # H0-g-g eff. coupling^2, normalised to SM
    1.10008065E-01        3  36  21  21  # A0-g-g eff. coupling^2, normalised to SM
#
    0.00000000E+00        3  25  25  23  # h0-h0-Z eff. coupling^2, normalised to SM
    0.00000000E+00        3  35  25  23  # H0-h0-Z eff. coupling^2, normalised to SM
    2.97313542E-07        3  36  25  23  # A0-h0-Z eff. coupling^2, normalised to SM
    0.00000000E+00        3  35  35  23  # H0-H0-Z eff. coupling^2, normalised to SM
    9.99999703E-01        3  36  35  23  # A0-H0-Z eff. coupling^2, normalised to SM
    0.00000000E+00        3  36  36  23  # A0-A0-Z eff. coupling^2, normalised to SM
#
    0.00000000E+00        4  25  21  21  23  # h0-g-g-Z eff. coupling^2, normalised to SM
    0.00000000E+00        4  35  21  21  23  # H0-g-g-Z eff. coupling^2, normalised to SM
    0.00000000E+00        4  36  21  21  23  # A0-g-g-Z eff. coupling^2, normalised to SM
Block SPhenoLowEnergy  # low energy observables
    1    3.75418227E-04   # BR(b -> s gamma)
    2    1.58673814E-06   # BR(b -> s mu+ mu-)
    3    3.52423335E-05   # BR(b -> s nu nu)
    4    2.32938547E-15   # BR(Bd -> e+ e-)
    5    9.95087723E-11   # BR(Bd -> mu+ mu-)
    6    2.08352793E-08   # BR(Bd -> tau+ tau-)
    7    7.80713807E-14   # BR(Bs -> e+ e-)
    8    3.33520925E-09   # BR(Bs -> mu+ mu-)
    9    7.07566972E-07   # BR(Bs -> tau+ tau-)
   10    9.25243434E-05   # BR(B_u -> tau nu)
   11    9.55741044E-01   # BR(B_u -> tau nu)/BR(B_u -> tau nu)_SM
   12    5.42462763E-01   # |Delta(M_Bd)| [ps^-1] 
   13    1.93634623E+01   # |Delta(M_Bs)| [ps^-1] 
   14    0.00000000E+00   # neutron EDM according to the chiral quark model
   15    0.00000000E+00   # neutron EDM according to the relativistic quark-parton model
   16    2.15951109E-03   # epsilon_K
   17    2.28168547E-15   # Delta(M_K)
   18    2.47915411E-11   # BR(K^0 -> pi^0 nu nu)
   19    8.28849193E-11   # BR(K^+ -> pi^+ nu nu)
   20   -1.13078163E-16   # Delta(g-2)_electron/2
   21   -4.83445953E-12   # Delta(g-2)_muon/2
   22   -1.36864077E-09   # Delta(g-2)_tau/2
   23    0.00000000E+00   # electric dipole moment of the electron
   24    0.00000000E+00   # electric dipole moment of the muon
   25    0.00000000E+00   # electric dipole moment of the tau
   26    0.00000000E+00   # Br(mu -> e gamma)
   27    0.00000000E+00   # Br(tau -> e gamma)
   28    0.00000000E+00   # Br(tau -> mu gamma)
   29    0.00000000E+00   # Br(mu -> 3 e)
   30    0.00000000E+00   # Br(tau -> 3 e)
   31    0.00000000E+00   # Br(tau -> 3 mu)
   39    5.45110293E-05   # Delta(rho_parameter)
   40    0.00000000E+00   # BR(Z -> e mu)
   41    0.00000000E+00   # BR(Z -> e tau)
   42    0.00000000E+00   # BR(Z -> mu tau)
Block FWCOEF Q=  1.60000000E+02  # Wilson coefficients at scale Q
#    id        order  M        value         comment
     0305 4422   00   0    -1.88819110E-01   # C7
     0305 4422   00   2    -2.44012718E-01   # C7
     0305 4322   00   2    -9.97719869E-04   # C7'
     0305 6421   00   0    -9.52278348E-02   # C8
     0305 6421   00   2    -1.54721177E-01   # C8
     0305 6321   00   2    -1.12038300E-03   # C8'
 03051111 4133   00   0     1.62394266E+00   # C9 e+e-
 03051111 4133   00   2     1.62420362E+00   # C9 e+e-
 03051111 4233   00   2     2.25387197E-05   # C9' e+e-
 03051111 4137   00   0    -4.44663476E+00   # C10 e+e-
 03051111 4137   00   2    -4.44395040E+00   # C10 e+e-
 03051111 4237   00   2    -1.64908166E-04   # C10' e+e-
 03051313 4133   00   0     1.62394266E+00   # C9 mu+mu-
 03051313 4133   00   2     1.62420356E+00   # C9 mu+mu-
 03051313 4233   00   2     2.25363059E-05   # C9' mu+mu-
 03051313 4137   00   0    -4.44663476E+00   # C10 mu+mu-
 03051313 4137   00   2    -4.44395047E+00   # C10 mu+mu-
 03051313 4237   00   2    -1.64905782E-04   # C10' mu+mu-
 03051212 4137   00   0     1.50535012E+00   # C11 nu_1 nu_1
 03051212 4137   00   2     1.50477077E+00   # C11 nu_1 nu_1
 03051212 4237   00   2     3.56798616E-05   # C11' nu_1 nu_1
 03051414 4137   00   0     1.50535012E+00   # C11 nu_2 nu_2
 03051414 4137   00   2     1.50477077E+00   # C11 nu_2 nu_2
 03051414 4237   00   2     3.56803824E-05   # C11' nu_2 nu_2
 03051616 4137   00   0     1.50535012E+00   # C11 nu_3 nu_3
 03051616 4137   00   2     1.50477077E+00   # C11 nu_3 nu_3
 03051616 4237   00   2     3.58271427E-05   # C11' nu_3 nu_3
Block IMFWCOEF Q=  1.60000000E+02  # Im(Wilson coefficients) at scale Q
#    id        order  M        value         comment
     0305 4422   00   0     3.85817904E-07   # C7
     0305 4422   00   2     1.67802274E-06   # C7
     0305 4322   00   2    -9.55418442E-07   # C7'
     0305 6421   00   0     3.30478550E-07   # C8
     0305 6421   00   2    -1.33280504E-05   # C8
     0305 6321   00   2    -7.01387386E-07   # C8'
 03051111 4133   00   2     6.98323556E-07   # C9 e+e-
 03051111 4233   00   2     1.87603451E-06   # C9' e+e-
 03051111 4137   00   2     1.40638068E-06   # C10 e+e-
 03051111 4237   00   2    -1.38993631E-05   # C10' e+e-
 03051313 4133   00   2     6.98322602E-07   # C9 mu+mu-
 03051313 4233   00   2     1.87603437E-06   # C9' mu+mu-
 03051313 4137   00   2     1.40638162E-06   # C10 mu+mu-
 03051313 4237   00   2    -1.38993635E-05   # C10' mu+mu-
 03051212 4137   00   2    -2.78047108E-07   # C11 nu_1 nu_1
 03051212 4237   00   2     3.00739479E-06   # C11' nu_1 nu_1
 03051414 4137   00   2    -2.78047059E-07   # C11 nu_2 nu_2
 03051414 4237   00   2     3.00739479E-06   # C11' nu_2 nu_2
 03051616 4137   00   2    -2.78033112E-07   # C11 nu_3 nu_3
 03051616 4237   00   2     3.00739478E-06   # C11' nu_3 nu_3
