BLOCK SPINFO
   1   SPheno
   2   v4.0.5be

BLOCK SPHENOINFO
   1   2
   2   2

BLOCK MODSEL
   1   0

BLOCK MINPAR
   3    14.322263
   4    1

BLOCK EXTPAR
   0    4018.3383
   1    1743.4017
   2    1125.4131
   3    4000
   11    7283.4399
   12    1059.7133
   13    1926.4096
   23    468.06712
   25    13.609634
   26    2000
   31    1666.6112
   32    1666.6112
   33    383.15242
   34    1067.3132
   35    1067.3132
   36    506.3583
   41    4000
   42    4000
   43    4000
   44    4000
   45    4000
   46    4000
   47    4000
   48    4000
   49    4000

BLOCK SMINPUTS
   1    127.90897
   2    1.1663787e-05
   3    0.1184
   4    91.1876
   5    4.18
   6    173.2
   7    1.777
   8    0
   11    0.00051099893
   12    0
   13    0.10565837
   14    0
   21    0.005
   22    0.0025
   23    0.095
   24    1.27

BLOCK GAUGE Q=  4018.3383
   1    0.35536298
   2    0.66519887
   3    1.219778

BLOCK YU Q=  4018.3383
   1   1    8.406975e-06
   2   2    0.0042707433
   3   3    1.0156301

BLOCK YD Q=  4018.3383
   1   1    0.00022991454
   2   2    0.0043683763
   3   3    0.22800318

BLOCK YE Q=  4018.3383
   1   1    4.0121769e-05
   2   2    0.0082959094
   3   3    0.13952355

BLOCK AU Q=  4018.3383
   1   1    0
   2   2    0
   3   3    7283.4399

BLOCK AD Q=  4018.3383
   1   1    0
   2   2    0
   3   3    1059.7133

BLOCK AE Q=  4018.3383
   1   1    0
   2   2    0
   3   3    1926.4096

BLOCK MSOFT Q=  4018.3383
   1    1743.4017
   2    1125.4131
   3    4000
   21    3752818.8
   22    130328.86
   31    1666.6112
   32    1666.6112
   33    383.15242
   34    1067.3132
   35    1067.3132
   36    506.3583
   41    4000
   42    4000
   43    4000
   44    4000
   45    4000
   46    4000
   47    4000
   48    4000
   49    4000

BLOCK MASS
   6    173.2
   23    91.1876
   24    80.429995
   15    1.777
   25    127.1609
   35    1999.8599
   36    2000
   37    2001.7483
   1000001    4156.3574
   2000001    4143.7652
   1000002    4155.6098
   2000002    4144.0134
   1000003    4156.3565
   2000003    4143.764
   1000004    4155.6089
   2000004    4144.0126
   1000005    4066.3599
   2000005    4141.036
   1000006    3898.7227
   2000006    4141.6238
   1000011    1680.2918
   2000011    1090.4298
   1000012    1678.0538
   1000013    1680.2887
   2000013    1090.4208
   1000014    1678.0503
   1000015    428.86573
   2000015    545.56739
   1000016    421.82328
   1000021    4249.4221
   1000022    469.85863
   1000023   -477.40608
   1000025    1174.0267
   1000035    1710.29
   1000024    472.10534
   1000037    1174.1994
   1000039    1e-09

BLOCK ALPHA
      -0.070126939

BLOCK HMIX Q=  4018.3383
   1    468.06712
   2    13.609634
   3    242.91397
   4    4000000

BLOCK STOPMIX
   1   1   -0.57202466
   1   2    0.82023642
   2   1   -0.82023642
   2   2   -0.57202466

BLOCK SBOTMIX
   1   1    0.99981816
   1   2    0.019069401
   2   1   -0.019069401
   2   2    0.99981816

BLOCK STAUMIX
   1   1    0.99746044
   1   2    0.071222691
   2   1   -0.071222691
   2   2    0.99746044

BLOCK NMIX
   1   1   -0.026757875
   1   2    0.085589964
   1   3   -0.70798963
   1   4    0.70050629
   2   1   -0.013214362
   2   2    0.031744558
   2   3    0.70511232
   2   4    0.70826145
   3   1    0.0067180971
   3   2    0.99581664
   3   3    0.038334315
   3   4   -0.082671422
   4   1   -0.99953202
   4   2    0.0039821668
   4   3    0.00988885
   4   4   -0.028672096

BLOCK UMIX
   1   1   -0.054515989
   1   2    0.9985129
   2   1    0.9985129
   2   2    0.054515989

BLOCK VMIX
   1   1   -0.11763668
   1   2    0.9930567
   2   1    0.9930567
   2   2    0.11763668

BLOCK HIGGSBOUNDSINPUTHIGGSCOUPLINGSFERMIONS
       0, 185.22214,3,36,15,15

BLOCK HIGGSBOUNDSINPUTHIGGSCOUPLINGSBOSONS
       0,4,36,21,21,23

BLOCK SPHENOLOWENERGY
   1    0.00033545384
   2    1.5886359e-06
   3    3.5254311e-05
   4    2.4911851e-15
   5    1.0642063e-10
   6    2.2280247e-08
   7    8.3717465e-14
   8    3.5764086e-09
   9    7.586603e-07
   10    9.648277e-05
   11    0.99663007
   12    0.54205948
   13    19.366578
   14    0
   15    0
   16    0.0021576105
   17    2.2816616e-15
   18    2.4802239e-11
   19    8.2906915e-11
   20    1.4742207e-15
   21    6.3027551e-11
   22    5.1347925e-08
   23    0
   24    0
   25    0
   26    0
   27    0
   28    0
   29    0
   30    0
   31    0
   39    2.1644388e-05
   40    0
   41    0
   42    0

BLOCK FWCOEF Q=  160
   305   4422   0   0   -0.18881911
   305   4422   0   2   -0.20449996
   305   4322   0   2   -0.00031068431
   305   6421   0   0   -0.095227835
   305   6421   0   2   -0.11310851
   305   6321   0   2   -0.00035289789
   3051111   4133   0   0    1.6264284
   3051111   4133   0   2    1.6265665
   3051111   4233   0   2    4.1465791e-05
   3051111   4137   0   0   -4.4491205
   3051111   4137   0   2   -4.4475867
   3051111   4237   0   2   -0.00030701738
   3051313   4133   0   0    1.6264284
   3051313   4133   0   2    1.6265664
   3051313   4233   0   2    4.1465762e-05
   3051313   4137   0   0   -4.4491205
   3051313   4137   0   2   -4.4475868
   3051313   4237   0   2   -0.00030701739
   3051212   4137   0   0    1.5053501
   3051212   4137   0   2    1.5050279
   3051212   4237   0   2    6.6392616e-05
   3051414   4137   0   0    1.5053501
   3051414   4137   0   2    1.5050279
   3051414   4237   0   2    6.6392621e-05
   3051616   4137   0   0    1.5053501
   3051616   4137   0   2    1.5050272
   3051616   4237   0   2    6.639392e-05

BLOCK IMFWCOEF Q=  160
   305   4422   0   0    3.8581329e-07
   305   4422   0   2    6.010731e-06
   305   4322   0   2   -1.0029034e-06
   305   6421   0   0    3.304746e-07
   305   6421   0   2   -1.6016333e-06
   305   6321   0   2   -5.8186716e-07
   3051111   4133   0   2   -8.2260715e-07
   3051111   4233   0   2    9.1939665e-07
   3051111   4137   0   2    6.1928634e-06
   3051111   4237   0   2   -6.8078913e-06
   3051313   4133   0   2   -8.2260784e-07
   3051313   4233   0   2    9.193965e-07
   3051313   4137   0   2    6.1928656e-06
   3051313   4237   0   2   -6.8078917e-06
   3051212   4137   0   2   -1.1674712e-06
   3051212   4237   0   2    1.4722088e-06
   3051414   4137   0   2   -1.1674712e-06
   3051414   4237   0   2    1.4722088e-06
   3051616   4137   0   2   -1.1810774e-06
   3051616   4237   0   2    1.4722089e-06

DECAY 23  2.4952


DECAY 24  2.085


DECAY 2000011  0.0032283297
    0.80580812   2    1000022    11
    0.19363753   2    1000023    11
    0.00054722171   2    1000039    11

DECAY 1000011  5.8691494
    0.65785202   2   -1000037    12
    0.3296995   2    1000025    11
    0.0063542512   2   -1000024    12
    0.0054427197   2    1000022    11
    0.00064890152   2    1000023    11

DECAY 2000013  0.0051921408
    0.59655228   2    1000022    13
    0.21382456   2    1000023    13
    0.18928292   2   -1000024    14
    0.00034023324   2    1000039    13

DECAY 1000013  5.8710955
    0.65762813   2   -1000037    14
    0.32958751   2    1000025    13
    0.0063521293   2   -1000024    14
    0.0056077258   2    1000022    13
    0.00081334449   2    1000023    13

DECAY 1000015  6.0644368e-08
    0.27411895   2    1000039    15
    0.26262566   3    1000016    1   -2
    0.22429193   3    1000016    3   -4
    0.087542158   3    1000016    11   -12
    0.087443905   3    1000016    13   -14
    0.063970763   3    1000016    15   -16

DECAY 2000015  0.044984116
    0.35207213   2    1000016   -24
    0.283117   2   -1000024    16
    0.14895704   2    1000022    15
    0.13294308   2    1000023    15
    0.082909524   2    1000015    23

DECAY 1000012  5.934928
    0.6393436   2    1000037    11
    0.3193185   2    1000025    12
    0.029206828   2    1000024    11
    0.010545671   2    1000022    12
    0.0015828248   2    1000023    12

DECAY 1000014  5.9368147
    0.63913455   2    1000037    13
    0.31921387   2    1000025    14
    0.029524404   2    1000024    13
    0.010542291   2    1000022    14
    0.0015823175   2    1000023    14

DECAY 1000016  1.5304014e-08
    1   2    1000039    16

DECAY 2000001  1.5943844
    0.99780217   2    1000035    1
    0.0010136767   2    1000022    1
    0.0008780824   2    1000039    1
    0.00024801252   2    1000023    1

DECAY 1000001  46.906242
    0.65853317   2   -1000037    2
    0.32672106   2    1000025    1
    0.0089117222   2    1000035    1
    0.0031032945   2    1000022    1
    0.0022588317   2   -1000024    2
    0.00044161512   2    1000023    1

DECAY 2000003  1.597439
    0.99589375   2    1000035    3
    0.0014913987   2    1000022    3
    0.00095653261   2   -1000024    4
    0.00087640208   2    1000039    3
    0.00072293303   2    1000023    3

DECAY 1000003  46.909228
    0.65849148   2   -1000037    4
    0.32670022   2    1000025    3
    0.0089111543   2    1000035    3
    0.0031194777   2    1000022    3
    0.0022895385   2   -1000024    4
    0.00045782963   2    1000023    3

DECAY 1000005  135.75627
    0.5880019   2   -1000024    6
    0.22893296   2   -1000037    6
    0.10951116   2    1000025    5
    0.03919657   2    1000006   -24
    0.016329015   2    1000022    5
    0.015065003   2    1000023    5
    0.0029540053   2    1000035    5

DECAY 2000005  9.9718446
    0.41662053   2   -1000024    6
    0.2088362   2    1000023    5
    0.20760803   2    1000022    5
    0.15946273   2    1000035    5
    0.0044378122   2   -1000037    6
    0.0021853217   2    1000025    5
    0.00070944892   2    1000006   -24
    0.00013993308   2    1000039    5

DECAY 2000002  6.3739989
    0.99846505   2    1000035    2
    0.0010129685   2    1000022    2
    0.00024684215   2    1000023    2
    0.00021970828   2    1000039    2

DECAY 1000002  46.949225
    0.65060197   2    1000037    1
    0.32791484   2    1000025    2
    0.010506192   2    1000024    1
    0.0081386006   2    1000035    2
    0.0024804265   2    1000022    2
    0.00032772614   2    1000023    2

DECAY 2000004  6.3769206
    0.99800725   2    1000035    4
    0.0011252049   2    1000022    4
    0.00036186903   2    1000023    4
    0.0002265417   2    1000024    3
    0.0002196073   2    1000039    4

DECAY 1000004  46.95221
    0.65056053   2    1000037    3
    0.3278941   2    1000025    4
    0.010538058   2    1000024    3
    0.0081380875   2    1000035    4
    0.0024955963   2    1000022    4
    0.0003433816   2    1000023    4

DECAY 1000006  148.14969
    0.31989248   2    1000024    5
    0.25823382   2    1000023    6
    0.24317322   2    1000022    6
    0.098047089   2    1000037    5
    0.050280803   2    1000025    6
    0.028763683   2    1000035    6
    0.0015889415   3    1000022    24    5

DECAY 2000006  154.16749
    0.27687167   2    1000022    6
    0.27218988   2    1000023    6
    0.23212918   2    1000024    5
    0.10138132   2    1000037    5
    0.053774987   2    1000025    6
    0.040551765   2    1000006    23
    0.013283654   2    1000035    6
    0.0098085438   2    1000006    25

DECAY 1000024  0.0053339494
    0.94284787   2    1000016   -15
    0.05714984   2   -1000015    16

DECAY 1000037  18.496321
    0.20903112   2    1000016   -15
    0.20781852   2   -1000015    16
    0.14784315   2    1000023    24
    0.14338866   2    1000024    23
    0.14283294   2    1000022    24
    0.14113837   2    1000024    25
    0.0025241922   3    1000022   -5    6
    0.0021491179   3    1000024    6   -6
    0.002073872   3    1000023   -5    6
    0.0011699494   2   -2000015    16

DECAY 1000022  0.0038723109
    0.39971271   2    1000015   -15
    0.39971271   2   -1000015    15
    0.10028592   2    1000016   -16
    0.10028592   2   -1000016    16

DECAY 1000023  0.0035199408
    0.47835729   2    1000015   -15
    0.47835729   2   -1000015    15
    0.021614615   2    1000016   -16
    0.021614615   2   -1000016    16

DECAY 1000025  19.968406
    0.13580859   2    1000024   -24
    0.13580859   2   -1000024    24
    0.11983886   2    1000023    23
    0.11190603   2    1000022    25
    0.09662138   2    1000016   -16
    0.09662138   2   -1000016    16
    0.096404825   2    1000015   -15
    0.096404825   2   -1000015    15
    0.087625967   2    1000023    25
    0.015774261   2    1000022    23
    0.0023564751   3    1000024    5   -6
    0.0023564751   3   -1000024   -5    6
    0.00075149285   3    1000022    6   -6
    0.00059512565   3    1000023    6   -6
    0.00054521282   2    2000015   -15
    0.00054521282   2   -2000015    15

DECAY 1000035  22.103955
    0.15615208   2    2000015   -15
    0.15615208   2   -2000015    15
    0.068410894   2    2000013   -13
    0.068410894   2   -2000013    13
    0.068409345   2    2000011   -11
    0.068409345   2   -2000011    11
    0.052366585   2    1000024   -24
    0.052366585   2   -1000024    24
    0.045172984   2    1000023    23
    0.043465954   2    1000016   -16
    0.043465954   2   -1000016    16
    0.042598841   2    1000015   -15
    0.042598841   2   -1000015    15
    0.040441082   2    1000022    25
    0.031566167   2    1000023    25
    0.010472546   2    1000022    23
    0.0015682662   3    1000024    5   -6
    0.0015682662   3   -1000024   -5    6
    0.001390754   2    1000025    25
    0.0013055514   2    1000037   -24
    0.0013055514   2   -1000037    24
    0.00095587778   3    1000022    6   -6
    0.00081154107   3    1000023    6   -6

DECAY 1000021  8.1445921
    0.25112948   2    1000006   -6
    0.25112948   2   -1000006    6
    0.054816553   2    1000005   -5
    0.054816553   2   -1000005    5
    0.023599832   3    1000022    6   -6
    0.023143416   3    1000023    6   -6
    0.019599862   2    2000005   -5
    0.019599862   2   -2000005    5
    0.018623546   2    2000003   -3
    0.018623546   2   -2000003    3
    0.018623146   2    2000001   -1
    0.018623146   2   -2000001    1
    0.018536818   2    2000002   -2
    0.018536818   2   -2000002    2
    0.018535815   2    2000004   -4
    0.018535815   2   -2000004    4
    0.014723176   2    1000002   -2
    0.014723176   2   -1000002    2
    0.014722133   2    1000004   -4
    0.014722133   2   -1000004    4
    0.014492301   2    1000003   -3
    0.014492301   2   -1000003    3
    0.014492034   2    1000001   -1
    0.014492034   2   -1000001    1
    0.0086217726   3    1000024    5   -6
    0.0086217726   3   -1000024   -5    6
    0.0037220697   3    1000025    6   -6
    0.0032860412   3    1000037    5   -6
    0.0032860412   3   -1000037   -5    6
    0.0030338964   2    1000006   -4
    0.0030338964   2   -1000006    4
    0.0011031268   2    1000023    21
    0.0010237142   2    1000022    21
    0.00071634473   3    1000035    6   -6
    0.00019495423   2    1000039    21

DECAY 25  0.0041977549
    0.53912207   2   -5    5
    0.26399527   2   -24    24
    0.070451609   2    21    21
    0.062249168   2   -15    15
    0.033314915   2    23    23
    0.026449265   2   -4    4
    0.0023272786   2    22    22
    0.0016713996   2    22    23
    0.00021585371   2   -13    13
    0.00020246721   2   -3    3
    5.5980038e-07   2   -1    1
    1.362927e-07   2   -2    2
    4.8526059e-09   2   -11    11

DECAY 35  16.047659
    0.29478907   2   -5    5
    0.1894293   2   -1000024    1000037
    0.1894293   2   -1000037    1000024
    0.14336306   2    1000023    1000025
    0.057400661   2   -15    15
    0.044436686   2    1000022    1000025
    0.021559114   2   -6    6
    0.021393546   2   -2000015    1000015
    0.021393546   2   -1000015    2000015
    0.010107402   2   -1000024    1000024
    0.0033252002   2    1000022    1000022
    0.0012192194   2    1000022    1000023
    0.00063513865   2    1000023    1000023
    0.00055612424   2   -2000015    2000015
    0.00046073008   2   -1000015    1000015
    0.00019044491   2   -13    13
    0.00014769501   2    25    25
    0.00011409755   2   -3    3
    2.0877035e-05   2    23    23
    1.1069025e-05   2   -24    24
    4.2044928e-06   2    21    21
    3.6574026e-07   2    22    23
    3.1545369e-07   2   -1    1
    2.9643136e-07   2   -4    4
    2.5294857e-07   2    22    22
    4.2778261e-09   2   -11    11
    1.5282373e-12   2   -2    2

DECAY 36  15.888731
    0.2907859   2   -5    5
    0.18838927   2   -1000024    1000037
    0.18838927   2   -1000037    1000024
    0.14399775   2    1000022    1000025
    0.056613075   2   -15    15
    0.043988059   2    1000023    1000025
    0.022117433   2   -2000015    1000015
    0.022117433   2   -1000015    2000015
    0.021635124   2   -6    6
    0.014833053   2   -1000024    1000024
    0.0056337388   2    1000022    1000022
    0.00062130852   2    1000023    1000023
    0.00050932731   2    1000022    1000023
    0.00018785164   2   -13    13
    0.00011254611   2   -3    3
    3.8313854e-05   2    21    21
    2.8436302e-05   2    23    25
    9.5566248e-07   2    22    23
    5.5255719e-07   2    22    22
    3.1116458e-07   2   -1    1
    2.8813598e-07   2   -4    4
    4.2195731e-09   2   -11    11
    1.4855697e-12   2   -2    2
    5.9696212e-36   2    25    25

DECAY 37  15.623483
    0.30768155   2   -5    6
    0.19950619   2    1000022    1000037
    0.19766632   2    1000024    1000025
    0.19360723   2    1000023    1000037
    0.05255932   2   -15    16
    0.044890425   2   -2000015    1000016
    0.0029939056   2    1000023    1000024
    0.00041978806   2   -5    4
    0.00018581612   2   -13    14
    0.00016773656   2   -1000015    1000016
    0.00014270346   2    1000022    1000024
    0.00010368815   2   -3    4
    3.6488517e-05   2   -3    6
    2.9036758e-05   2    24    25
    4.8180017e-06   2   -3    2
    2.9977178e-06   2   -5    2
    1.6666051e-06   2   -1    6
    2.8681239e-07   2   -1    2
    2.8691665e-08   2   -1    4
    4.3462585e-09   2   -11    12
    2.0910076e-12   2    24    35
    1.4223973e-12   2    24    36

DECAY 6  2.43
    1   2    5    24

DECAY 15 -1


DECAY 1000039 -1
