BLOCK SPINFO
   1   SPheno
   2   v4.0.5be

BLOCK SPHENOINFO
   1   2
   2   2

BLOCK MODSEL
   1   0

BLOCK MINPAR
   3    42.50866
   4    1

BLOCK EXTPAR
   0    1377.2696
   1   -69.172575
   2   -537.84277
   3    3000
   11   -2024.9129
   12   -63.286864
   13   -450.09535
   23    169.57812
   25    41.737866
   26    283.29795
   31    1867.3552
   32    1867.3552
   33    653.01915
   34    1670.6467
   35    1670.6467
   36    470.82717
   41    5000
   42    5000
   43    1832.3573
   44    5000
   45    5000
   46    1104.2375
   47    5000
   48    5000
   49    1536.9071

BLOCK SMINPUTS
   1    127.90897
   2    1.1663787e-05
   3    0.1184
   4    91.1876
   5    4.18
   6    173.2
   7    1.777
   8    0
   11    0.00051099893
   12    0
   13    0.10565837
   14    0
   21    0.005
   22    0.0025
   23    0.095
   24    1.27

BLOCK GAUGE Q=  1377.2696
   1    0.35536298
   2    0.66519887
   3    1.219778

BLOCK YU Q=  1377.2696
   1   1    8.3867783e-06
   2   2    0.0042604834
   3   3    1.0131902

BLOCK YD Q=  1377.2696
   1   1    0.00070340532
   2   2    0.013364701
   3   3    0.69755766

BLOCK YE Q=  1377.2696
   1   1    0.00012274937
   2   2    0.025380677
   3   3    0.42686124

BLOCK AU Q=  1377.2696
   1   1    0
   2   2    0
   3   3   -2024.9155

BLOCK AD Q=  1377.2696
   1   1    0
   2   2    0
   3   3   -63.286804

BLOCK AE Q=  1377.2696
   1   1    0
   2   2    0
   3   3   -450.09511

BLOCK MSOFT Q=  1377.2696
   1   -69.172575
   2   -537.84277
   3    3000
   21    71559.527
   22   -13761.263
   31    1867.3552
   32    1867.3552
   33    653.01915
   34    1670.6467
   35    1670.6467
   36    470.82717
   41    5000
   42    5000
   43    1832.3573
   44    5000
   45    5000
   46    1104.2375
   47    5000
   48    5000
   49    1536.9071

BLOCK MASS
   6    173.2
   23    91.1876
   24    80.429995
   15    1.777
   25    121.17362
   35    283.3703
   36    283.29795
   37    299.90642
   1000001    5023.5076
   2000001    5013.0634
   1000002    5023.055
   2000002    5014.548
   1000003    5023.5125
   2000003    5013.072
   1000004    5023.0599
   2000004    5014.5489
   1000005    1528.8589
   2000005    1824.2519
   1000006    1031.5716
   2000006    1838.8172
   1000011    1871.6929
   2000011    1672.5594
   1000012    1869.6188
   1000013    1871.6851
   2000013    1672.5431
   1000014    1869.6108
   1000015    465.75784
   2000015    658.61254
   1000016    652.72795
   1000021    3179.996
   1000022   -64.338872
   1000023   -172.62914
   1000025    179.43526
   1000035   -579.1559
   1000024    167.7488
   1000037    579.3757

BLOCK ALPHA
      -0.029953111

BLOCK HMIX Q=  1377.2696
   1    169.57812
   2    41.737866
   3    244.10661
   4    80257.726

BLOCK STOPMIX
   1   1    0.12745237
   1   2    0.99184469
   2   1   -0.99184469
   2   2    0.12745237

BLOCK SBOTMIX
   1   1    0.017490356
   1   2    0.99984703
   2   1   -0.99984703
   2   2    0.017490356

BLOCK STAUMIX
   1   1    0.060938762
   1   2    0.99814151
   2   1   -0.99814151
   2   2    0.060938762

BLOCK NMIX
   1   1   -0.94917587
   1   2    0.01540483
   1   3   -0.29600855
   1   4   -0.10586216
   2   1    0.28551742
   2   2    0.13375552
   2   3   -0.66723622
   2   4   -0.67482226
   3   1   -0.13178103
   3   2    0.078632459
   3   3    0.68229178
   3   4   -0.71479272
   4   1    0.013368877
   4   2   -0.98776975
   4   3   -0.040653411
   4   4   -0.1499316

BLOCK UMIX
   1   1   -0.057742478
   1   2    0.99833151
   2   1   -0.99833151
   2   2   -0.057742478

BLOCK VMIX
   1   1    0.21257639
   1   2    0.97714445
   2   1    0.97714445
   2   2   -0.21257639

BLOCK HIGGSBOUNDSINPUTHIGGSCOUPLINGSFERMIONS
       0, 1742.0495,3,36,15,15

BLOCK HIGGSBOUNDSINPUTHIGGSCOUPLINGSBOSONS
       0,4,36,21,21,23

BLOCK SPHENOLOWENERGY
   1    0.00041541206
   2    1.58569e-06
   3    3.5173807e-05
   4    7.7268501e-15
   5    3.3000781e-10
   6    6.4774739e-08
   7    2.5575453e-13
   8    1.0923489e-08
   9    2.1799563e-06
   10    2.2389639e-05
   11    0.2312764
   12    0.54272391
   13    19.130862
   14    0
   15    0
   16    0.0021621651
   17    2.2818342e-15
   18    2.4753959e-11
   19    8.2789293e-11
   20   -7.7342646e-15
   21   -3.3066205e-10
   22   -3.0783597e-07
   23    0
   24    0
   25    0
   26    0
   27    0
   28    0
   29    0
   30    0
   31    0
   39    8.7734828e-05
   40    0
   41    0
   42    0

BLOCK FWCOEF Q=  160
   305   4422   0   0   -0.18881911
   305   4422   0   2   -0.2760863
   305   4322   0   2   -0.0023588038
   305   6421   0   0   -0.095227835
   305   6421   0   2   -0.21025958
   305   6321   0   2   -0.0024773534
   3051111   4133   0   0    1.5893071
   3051111   4133   0   2    1.5905251
   3051111   4233   0   2   -0.00067006841
   3051111   4137   0   0   -4.4119993
   3051111   4137   0   2   -4.4023693
   3051111   4237   0   2    0.0052510801
   3051313   4133   0   0    1.5893071
   3051313   4133   0   2    1.5905225
   3051313   4233   0   2   -0.00067084143
   3051313   4137   0   0   -4.4119993
   3051313   4137   0   2   -4.402372
   3051313   4237   0   2    0.0052518512
   3051212   4137   0   0    1.5053501
   3051212   4137   0   2    1.5032596
   3051212   4237   0   2   -0.0011451098
   3051414   4137   0   0    1.5053501
   3051414   4137   0   2    1.5032596
   3051414   4237   0   2   -0.001144941
   3051616   4137   0   0    1.5053501
   3051616   4137   0   2    1.503261
   3051616   4237   0   2   -0.0010973978

BLOCK IMFWCOEF Q=  160
   305   4422   0   0    3.8583924e-07
   305   4422   0   2   -1.7762711e-05
   305   4322   0   2    5.8960408e-06
   305   6421   0   0    3.3049683e-07
   305   6421   0   2   -9.7037869e-06
   305   6321   0   2    2.1064781e-06
   3051111   4133   0   2   -1.4317725e-06
   3051111   4233   0   2    4.2601216e-06
   3051111   4137   0   2    1.3641654e-05
   3051111   4237   0   2   -3.3268076e-05
   3051313   4133   0   2   -1.4317615e-06
   3051313   4233   0   2    4.2601055e-06
   3051313   4137   0   2    1.3641684e-05
   3051313   4237   0   2   -3.3268123e-05
   3051212   4137   0   2   -2.7968722e-06
   3051212   4237   0   2    7.2546213e-06
   3051414   4137   0   2   -2.7968719e-06
   3051414   4237   0   2    7.2546213e-06
   3051616   4137   0   2   -2.7803955e-06
   3051616   4237   0   2    7.2545877e-06

DECAY 23  2.4952


DECAY 24  2.085


DECAY 2000011  8.3634128
    0.9026298   2    1000022    11
    0.080179866   2    1000023    11
    0.017051167   2    1000025    11
    0.0001391087   2    1000035    11

DECAY 1000011  22.608362
    0.59382576   2   -1000037    12
    0.28652184   2    1000035    11
    0.087877859   2    1000022    11
    0.029359259   2    1000023    11
    0.0023910266   2   -1000024    12

DECAY 2000013  8.4053122
    0.89834409   2    1000022    13
    0.080890849   2    1000023    13
    0.018126055   2    1000025    13
    0.0024907377   2   -1000024    14
    0.00014167968   2    1000035    13

DECAY 1000013  22.631836
    0.5932063   2   -1000037    14
    0.28622443   2    1000035    13
    0.087879008   2    1000022    13
    0.029792453   2    1000023    13
    0.0023885363   2   -1000024    14
    0.00050858231   2    1000025    13

DECAY 1000015  4.7656742
    0.46118984   2    1000022    15
    0.26937688   2   -1000024    16
    0.14704232   2    1000023    15
    0.12239096   2    1000025    15

DECAY 2000015  3.4706013
    0.32568291   2    1000023    15
    0.28265806   2    1000025    15
    0.24569966   2    1000022    15
    0.08521686   2   -1000037    16
    0.041442662   2    1000035    15
    0.010026937   2    1000015    25
    0.0087677519   2    1000015    23
    0.00050515699   2   -1000024    16

DECAY 1000012  22.653849
    0.56685008   2    1000037    11
    0.29387303   2    1000035    12
    0.09892696   2    1000022    12
    0.03230382   2    1000024    11
    0.0079202543   2    1000025    12
    0.00012585801   2    1000023    12

DECAY 1000014  22.677278
    0.56626374   2    1000037    13
    0.29356762   2    1000035    14
    0.098824327   2    1000022    14
    0.033306553   2    1000024    13
    0.0079120362   2    1000025    14
    0.00012572742   2    1000023    14

DECAY 1000016  3.5460767
    0.64451477   2    1000024    15
    0.21688851   2    1000022    16
    0.069575811   2    1000037    15
    0.036290484   2    1000035    16
    0.017105499   2    1000015    24
    0.015377921   2    1000025    16
    0.00024700572   2    1000023    16

DECAY 2000001  144.11614
    0.98058964   2    1000021    1
    0.017490555   2    1000022    1
    0.0015795341   2    1000023    1
    0.00033655037   2    1000025    1

DECAY 1000001  207.70226
    0.68562795   2    1000021    1
    0.20659382   2   -1000037    2
    0.10161294   2    1000035    1
    0.0036197825   2    1000022    1
    0.0011070008   2    1000025    1
    0.00073020489   2    1000023    1
    0.00070830576   2   -1000024    2

DECAY 2000003  144.15248
    0.9803486   2    1000021    3
    0.017496969   2    1000022    3
    0.0016338741   2    1000023    3
    0.00039368762   2    1000025    3
    0.00012288725   2   -1000024    4

DECAY 1000003  207.72241
    0.68556391   2    1000021    3
    0.20657438   2   -1000037    4
    0.10160332   2    1000035    3
    0.003626941   2    1000022    3
    0.0011466882   2    1000025    3
    0.00076819656   2    1000023    3
    0.00071655467   2   -1000024    4

DECAY 1000005  29.418388
    0.47706027   2   -1000024    6
    0.22711065   2    1000025    5
    0.22048026   2    1000023    5
    0.071777114   2    1000022    5
    0.0026005214   2    1000006   -37
    0.00059531421   2   -1000037    6
    0.0003121556   2    1000035    5

DECAY 2000005  93.897161
    0.36545574   2   -1000024    6
    0.22113274   2    1000006   -24
    0.15508372   2   -1000037    6
    0.08719042   2    1000025    5
    0.082863453   2    1000023    5
    0.068177537   2    1000035    5
    0.018654875   2    1000022    5
    0.0010500745   2    1000006   -37
    0.00022265306   2    1000005    25
    0.00015244648   2    1000005    23

DECAY 2000002  152.66568
    0.92668746   2    1000021    2
    0.066063676   2    1000022    2
    0.0059655103   2    1000023    2
    0.0012705896   2    1000025    2

DECAY 1000002  207.69828
    0.68541411   2    1000021    2
    0.19790301   2    1000037    1
    0.10063042   2    1000035    2
    0.0095993028   2    1000024    1
    0.0036188335   2    1000023    2
    0.0025112012   2    1000022    2
    0.00032312313   2    1000025    2

DECAY 2000004  152.66932
    0.92666556   2    1000021    4
    0.066062235   2    1000022    4
    0.0059707497   2    1000023    4
    0.0012766075   2    1000025    4

DECAY 1000004  207.71835
    0.68535002   2    1000021    4
    0.19788436   2    1000037    3
    0.10062095   2    1000035    4
    0.0096836052   2    1000024    3
    0.0036224586   2    1000023    4
    0.0025110582   2    1000022    4
    0.00032754401   2    1000025    4

DECAY 1000006  39.163209
    0.46527532   2    1000024    5
    0.23611237   2    1000025    6
    0.21602225   2    1000023    6
    0.051985463   2    1000022    6
    0.021583282   2    1000037    5
    0.0090200646   2    1000035    6

DECAY 2000006  99.232374
    0.19875437   2    1000024    5
    0.19221242   2    1000025    6
    0.16988908   2    1000023    6
    0.14636239   2    1000006    25
    0.11440104   2    1000037    5
    0.10736598   2    1000006    23
    0.060758361   2    1000035    6
    0.0089707465   2    1000022    6
    0.00052344087   2    1000006    36
    0.00039537985   2    1000006    35
    0.00033970472   2    1000005    24

DECAY 1000024  0.098731326
    0.99998966   2    1000022    24

DECAY 1000037  7.1023486
    0.17459727   2    1000023    24
    0.16454019   2    1000025    24
    0.16176223   2    1000024    23
    0.14650936   2    1000024    25
    0.093326373   2    1000024    36
    0.09071473   2    1000024    35
    0.078498177   2    37    1000025
    0.073683674   2    37    1000023
    0.014376403   2    37    1000022
    0.00084547296   3    1000023   -5    6
    0.00070273748   3    1000025   -5    6
    0.00020638158   2    1000022    24

DECAY 1000022 -1


DECAY 1000023  0.018219185
    0.99976036   2    1000022    23
    0.00012430418   3    1000022    5   -5

DECAY 1000025  0.11006265
    0.99986544   2    1000022    23

DECAY 1000035  7.8319996
    0.16006133   2    1000024   -24
    0.16006133   2   -1000024    24
    0.11933242   2    1000025    23
    0.11631415   2    1000025    25
    0.098058165   2    1000023    25
    0.071018274   2    37   -1000024
    0.071018274   2   -37    1000024
    0.066701083   2    1000023    35
    0.062635267   2    1000025    35
    0.03671745   2    1000023    23
    0.011222015   2    1000025    36
    0.010491369   2    1000023    36
    0.0089976894   2    1000022    35
    0.0049306616   2    1000022    36
    0.0010308765   3    1000024    5   -6
    0.0010308765   3   -1000024   -5    6
    0.00012152039   2    1000022    23

DECAY 1000021  214.28226
    0.17031216   2    1000006   -6
    0.17031216   2   -1000006    6
    0.12981956   2    1000005   -5
    0.12981956   2   -1000005    5
    0.10086077   2    2000006   -6
    0.10086077   2   -2000006    6
    0.098875171   2    2000005   -5
    0.098875171   2   -2000005    5

DECAY 25  0.0050604697
    0.71776907   2   -5    5
    0.11522965   2   -24    24
    0.080355537   2   -15    15
    0.04965964   2    21    21
    0.021148196   2   -4    4
    0.012913419   2    23    23
    0.0015745768   2    22    22
    0.0007985136   2    22    23
    0.00028282173   2   -13    13
    0.00026772982   2   -3    3
    7.4023105e-07   2   -1    1
    1.0899004e-07   2   -2    2
    6.3582079e-09   2   -11    11

DECAY 35  8.8079659
    0.87595462   2   -5    5
    0.11085945   2   -15    15
    0.0047821403   2    1000022    1000025
    0.0043815495   2    1000022    1000022
    0.0028042993   2    1000022    1000023
    0.00040605401   2   -13    13
    0.00034902255   2    21    21
    0.00033345635   2   -3    3
    9.667399e-05   2    25    25
    2.1949037e-05   2   -24    24
    9.6792252e-06   2    23    23
    9.2190719e-07   2   -1    1
    1.396233e-07   2    22    22
    2.3361201e-08   2   -4    4
    1.5153735e-08   2    22    23
    9.1262992e-09   2   -11    11
    1.2053103e-13   2   -2    2

DECAY 36  8.8024926
    0.87431653   2   -5    5
    0.11063436   2   -15    15
    0.0069186903   2    1000022    1000023
    0.0053317074   2    1000022    1000022
    0.0017147145   2    1000022    1000025
    0.00040514315   2   -13    13
    0.00033468877   2    21    21
    0.0003327186   2   -3    3
    1.0000442e-05   2    23    25
    9.1986745e-07   2   -1    1
    3.4886853e-07   2    22    22
    1.5613371e-07   2    22    23
    1.3472489e-08   2   -4    4
    9.1058219e-09   2   -11    11
    6.9935102e-14   2   -2    2
    4.8965513e-38   2    25    25

DECAY 37  4.6933364
    0.73843083   2   -5    6
    0.2309   2   -15    16
    0.026813556   2    1000022    1000024
    0.0023726435   2   -5    4
    0.00081637047   2   -13    14
    0.00058816343   2   -3    4
    3.0813896e-05   2    24    25
    2.6660447e-05   2   -3    2
    1.6943726e-05   2   -5    2
    1.6318768e-06   2   -1    2
    1.5549446e-06   2   -3    6
    3.4544263e-07   2    24    36
    3.3802242e-07   2    24    35
    7.4856169e-08   2   -1    4
    5.4065312e-08   2   -1    6
    1.9094995e-08   2   -11    12

DECAY 6  2.43
    1   2    5    24

DECAY 15 -1
