#
#                              ======================
#                              | THE SUSYHIT OUTPUT |
#                              ======================
#
#
#              ------------------------------------------------------
#              |     This is the output of the SUSY-HIT package     |
#              |  created by A.Djouadi, M.Muehlleitner and M.Spira. |
#              |  In case of problems with SUSY-HIT email to        |
#              |           margarete.muehlleitner@cern.ch           |
#              |           michael.spira@psi.ch                     |
#              |           abdelhak.djouadi@cern.ch                 |
#              ------------------------------------------------------
#
#              ------------------------------------------------------
#              |  SUSY Les Houches Accord - MSSM Spectrum + Decays  |
#              |              based on the decay programs           |
#              |                                                    |
#              |                     SDECAY 1.3b                    |
#              |                                                    |
#              |  Authors: M.Muhlleitner, A.Djouadi and Y.Mambrini  |
#              |  Ref.:    Comput.Phys.Commun.168(2005)46           |
#              |           [hep-ph/0311167]                         |
#              |                                                    |
#              |                     HDECAY 3.4                     |
#              |                                                    |
#              |  By: A.Djouadi,J.Kalinowski,M.Muhlleitner,M.Spira  |
#              |  Ref.:    Comput.Phys.Commun.108(1998)56           |
#              |           [hep-ph/9704448]                         |
#              |                                                    |
#              |                                                    |
#              |  If not stated otherwise all DRbar couplings and   |
#              |  soft SUSY breaking masses are given at the scale  |
#              |  Q=  0.31902940E+04
#              |                                                    |
#              ------------------------------------------------------
#
#
BLOCK DCINFO  # Decay Program information
     1   SDECAY/HDECAY # decay calculator
     2   1.3b  /3.4    # version number
#
BLOCK SPINFO  # Spectrum calculator information
     1     SOFTSUSY    # spectrum calculator               
     2     3.4.0       # version number                    
#
BLOCK MODSEL  # Model selection
     1     0   #  nonUniversal                                     
#
BLOCK SMINPUTS  # Standard Model inputs
         1     1.27908970E+02   # alpha_em^-1(M_Z)^MSbar
         2     1.16637870E-05   # G_F [GeV^-2]
         3     1.18400000E-01   # alpha_S(M_Z)^MSbar
         4     9.11876000E+01   # M_Z pole mass
         5     4.18000000E+00   # mb(mb)^MSbar
         6     1.73200000E+02   # mt pole mass
         7     1.77700000E+00   # mtau pole mass
#
BLOCK MINPAR  # Input parameters - minimal models
         3     5.71400000E+01   # tanb                
#
BLOCK EXTPAR  # Input parameters - non-minimal models
         0    -1.00000000E+00   # Set                 
         1     1.15060000E+02   # M_1(MX)             
         2    -1.34832000E+03   # M_2(MX)             
         3     2.88103000E+03   # M_3(MX)             
        11     3.17820000E+03   # At(MX)              
        12    -1.22398000E+03   # Ab(MX)              
        13    -2.96110000E+02   # Atau(MX)            
        23    -1.11130000E+02   # mu(MX)              
        26     2.52933000E+03   # mA(pole)            
        31     6.95410000E+02   # meL(MX)             
        32     6.95410000E+02   # mmuL(MX)            
        33     1.67124000E+03   # mtauL(MX)           
        34     4.92340000E+02   # meR(MX)             
        35     4.92340000E+02   # mmuR(MX)            
        36     4.63780000E+02   # mtauR(MX)           
        41     2.33409000E+03   # mqL1(MX)            
        42     2.33409000E+03   # mqL2(MX)            
        43     2.97203000E+03   # mqL3(MX)            
        44     3.51920000E+03   # muR(MX)             
        45     3.51920000E+03   # mcR(MX)             
        46     3.42182000E+03   # mtR(MX)             
        47     6.07250000E+02   # mdR(MX)             
        48     6.07250000E+02   # msR(MX)             
        49     3.54217000E+03   # mbR(MX)             
#
BLOCK MASS  # Mass Spectrum
# PDG code           mass       particle
        24     8.03823337E+01   # W+
        25     1.25709962E+02   # h
        35     2.52933229E+03   # H
        36     2.52933000E+03   # A
        37     2.53083124E+03   # H+
         5     4.81876030E+00   # b-quark pole mass calculated from mb(mb)_Msbar
   1000001     2.46897054E+03   # ~d_L
   2000001     8.71519825E+02   # ~d_R
   1000002     2.46780862E+03   # ~u_L
   2000002     3.60158247E+03   # ~u_R
   1000003     2.46897054E+03   # ~s_L
   2000003     8.71519825E+02   # ~s_R
   1000004     2.46780862E+03   # ~c_L
   2000004     3.60158247E+03   # ~c_R
   1000005     3.02981512E+03   # ~b_1
   2000005     3.58038056E+03   # ~b_2
   1000006     3.02279482E+03   # ~t_1
   2000006     3.44822882E+03   # ~t_2
   1000011     7.17929329E+02   # ~e_L
   2000011     5.24377090E+02   # ~e_R
   1000012     7.13242737E+02   # ~nu_eL
   1000013     7.17929329E+02   # ~mu_L
   2000013     5.24377090E+02   # ~mu_R
   1000014     7.13242737E+02   # ~nu_muL
   1000015     4.13363376E+02   # ~tau_1
   2000015     1.66900230E+03   # ~tau_2
   1000016     1.66679151E+03   # ~nu_tauL
   1000021     3.02981685E+03   # ~g
   1000022     8.84325919E+01   # ~chi_10
   1000023    -1.20400629E+02   # ~chi_20
   1000025     1.49124041E+02   # ~chi_30
   1000035    -1.37788625E+03   # ~chi_40
   1000024     1.18465444E+02   # ~chi_1+
   1000037     1.37805758E+03   # ~chi_2+
#
BLOCK NMIX  # Neutralino Mixing Matrix
  1  1    -7.22482760E-01   # N_11
  1  2    -2.17470124E-02   # N_12
  1  3     5.56248131E-01   # N_13
  1  4     4.10041151E-01   # N_14
  2  1    -1.34120511E-01   # N_21
  2  2    -4.51547589E-02   # N_22
  2  3    -6.95359972E-01   # N_23
  2  4     7.04590126E-01   # N_24
  3  1     6.78253125E-01   # N_31
  3  2    -2.95247956E-02   # N_32
  3  3     4.55003268E-01   # N_33
  3  4     5.76257764E-01   # N_34
  4  1    -1.74569185E-03   # N_41
  4  2     9.98306767E-01   # N_42
  4  3    -5.87815146E-03   # N_43
  4  4     5.78446043E-02   # N_44
#
BLOCK UMIX  # Chargino Mixing Matrix U
  1  1     8.31571969E-03   # U_11
  1  2     9.99965424E-01   # U_12
  2  1    -9.99965424E-01   # U_21
  2  2     8.31571969E-03   # U_22
#
BLOCK VMIX  # Chargino Mixing Matrix V
  1  1    -8.18554345E-02   # V_11
  1  2    -9.96644213E-01   # V_12
  2  1     9.96644213E-01   # V_21
  2  2    -8.18554345E-02   # V_22
#
BLOCK STOPMIX  # Stop Mixing Matrix
  1  1     9.89100210E-01   # cos(theta_t)
  1  2    -1.47243929E-01   # sin(theta_t)
  2  1     1.47243929E-01   # -sin(theta_t)
  2  2     9.89100210E-01   # cos(theta_t)
#
BLOCK SBOTMIX  # Sbottom Mixing Matrix
  1  1     9.99994823E-01   # cos(theta_b)
  1  2    -3.21775903E-03   # sin(theta_b)
  2  1     3.21775903E-03   # -sin(theta_b)
  2  2     9.99994823E-01   # cos(theta_b)
#
BLOCK STAUMIX  # Stau Mixing Matrix
  1  1    -4.36648450E-03   # cos(theta_tau)
  1  2     9.99990467E-01   # sin(theta_tau)
  2  1    -9.99990467E-01   # -sin(theta_tau)
  2  2    -4.36648450E-03   # cos(theta_tau)
#
BLOCK ALPHA  # Higgs mixing
          -1.75178846E-02   # Mixing angle in the neutral Higgs boson sector
#
BLOCK HMIX Q=  3.19029400E+03  # DRbar Higgs Parameters
         1    -1.15205742E+02   # mu(Q)MSSM           
         2     5.72982428E+01   # tan                 
         3     2.41915652E+02   # higgs               
         4     6.78610115E+06   # mA^2(Q)MSSM         
#
BLOCK GAUGE Q=  3.19029400E+03  # The gauge couplings
     1     3.66072989E-01   # gprime(Q) DRbar
     2     6.41085519E-01   # g(Q) DRbar
     3     1.01017564E+00   # g3(Q) DRbar
#
BLOCK AU Q=  3.19029400E+03  # The trilinear couplings
  1  1     0.00000000E+00   # A_u(Q) DRbar
  2  2     0.00000000E+00   # A_c(Q) DRbar
  3  3     3.17820002E+03   # A_t(Q) DRbar
#
BLOCK AD Q=  3.19029400E+03  # The trilinear couplings
  1  1     0.00000000E+00   # A_d(Q) DRbar
  2  2     0.00000000E+00   # A_s(Q) DRbar
  3  3    -1.22397998E+03   # A_b(Q) DRbar
#
BLOCK AE Q=  3.19029400E+03  # The trilinear couplings
  1  1     0.00000000E+00   # A_e(Q) DRbar
  2  2     0.00000000E+00   # A_mu(Q) DRbar
  3  3    -2.96109989E+02   # A_tau(Q) DRbar
#
BLOCK Yu Q=  3.19029400E+03  # The Yukawa couplings
  1  1     0.00000000E+00   # y_u(Q) DRbar
  2  2     0.00000000E+00   # y_c(Q) DRbar
  3  3     8.29592641E-01   # y_t(Q) DRbar
#
BLOCK Yd Q=  3.19029400E+03  # The Yukawa couplings
  1  1     0.00000000E+00   # y_d(Q) DRbar
  2  2     0.00000000E+00   # y_s(Q) DRbar
  3  3     7.88732832E-01   # y_b(Q) DRbar
#
BLOCK Ye Q=  3.19029400E+03  # The Yukawa couplings
  1  1     0.00000000E+00   # y_e(Q) DRbar
  2  2     0.00000000E+00   # y_mu(Q) DRbar
  3  3     5.93878243E-01   # y_tau(Q) DRbar
#
BLOCK MSOFT Q=  3.19029400E+03  # The soft SUSY breaking masses at the scale Q
         1     1.15060000E+02   # M_1(Q)              
         2    -1.34832000E+03   # M_2(Q)              
         3     2.88103000E+03   # M_3(Q)              
        21     6.85593664E+06   # mH1^2(Q)            
        22     1.91644652E+05   # mH2^2(Q)            
        31     6.95410000E+02   # meL(Q)              
        32     6.95410000E+02   # mmuL(Q)             
        33     1.67124000E+03   # mtauL(Q)            
        34     4.92340000E+02   # meR(Q)              
        35     4.92340000E+02   # mmuR(Q)             
        36     4.63779998E+02   # mtauR(Q)            
        41     2.33408999E+03   # mqL1(Q)             
        42     2.33408999E+03   # mqL2(Q)             
        43     2.97202998E+03   # mqL3(Q)             
        44     3.51919999E+03   # muR(Q)              
        45     3.51919999E+03   # mcR(Q)              
        46     3.42181999E+03   # mtR(Q)              
        47     6.07249953E+02   # mdR(Q)              
        48     6.07249953E+02   # msR(Q)              
        49     3.54216998E+03   # mbR(Q)              
#
Block HiggsBoundsInputHiggsCouplingsFermions
# ScalarNormEffCoupSq PseudoSNormEffCoupSq NP   IP1 IP2 IP2
    1.00770582E+00    0.00000000E+00        3  25   5   5  # h0-b-b eff. coupling^2, normalised to SM
    3.28308092E+03    0.00000000E+00        3  35   5   5  # H0-b-b eff. coupling^2, normalised to SM
    0.00000000E+00    3.28308863E+03        3  36   5   5  # A0-b-b eff. coupling^2, normalised to SM
#
    9.99997653E-01    0.00000000E+00        3  25   6   6  # h0-t-t eff. coupling^2, normalised to SM
    3.06938353E-04    0.00000000E+00        3  35   6   6  # H0-t-t eff. coupling^2, normalised to SM
    0.00000000E+00    3.04591229E-04        3  36   6   6  # A0-t-t eff. coupling^2, normalised to SM
#
    1.00770582E+00    0.00000000E+00        3  25  15  15  # h0-tau-tau eff. coupling^2, normalised to SM
    3.28308092E+03    0.00000000E+00        3  35  15  15  # H0-tau-tau eff. coupling^2, normalised to SM
    0.00000000E+00    3.28308863E+03        3  36  15  15  # A0-tau-tau eff. coupling^2, normalised to SM
#
Block HiggsBoundsInputHiggsCouplingsBosons
    9.99999995E-01        3  25  24  24  # h0-W-W eff. coupling^2, normalised to SM
    4.50429542E-09        3  35  24  24  # H0-W-W eff. coupling^2, normalised to SM
    0.00000000E+00        3  36  24  24  # A0-W-W eff. coupling^2, normalised to SM
#
    9.99999995E-01        3  25  23  23  # h0-Z-Z eff. coupling^2, normalised to SM
    4.50429542E-09        3  35  23  23  # H0-Z-Z eff. coupling^2, normalised to SM
    0.00000000E+00        3  36  23  23  # A0-Z-Z eff. coupling^2, normalised to SM
#
    8.91115427E-01        3  25  21  21  # h0-g-g eff. coupling^2, normalised to SM
    3.91518297E-11        3  35  21  21  # H0-g-g eff. coupling^2, normalised to SM
    7.77610197E-11        3  36  21  21  # A0-g-g eff. coupling^2, normalised to SM
#
    0.00000000E+00        3  25  25  23  # h0-h0-Z eff. coupling^2, normalised to SM
    0.00000000E+00        3  35  25  23  # H0-h0-Z eff. coupling^2, normalised to SM
    4.50429542E-09        3  36  25  23  # A0-h0-Z eff. coupling^2, normalised to SM
    0.00000000E+00        3  35  35  23  # H0-H0-Z eff. coupling^2, normalised to SM
    9.99999995E-01        3  36  35  23  # A0-H0-Z eff. coupling^2, normalised to SM
    0.00000000E+00        3  36  36  23  # A0-A0-Z eff. coupling^2, normalised to SM
#
    0.00000000E+00        4  25  21  21  23  # h0-g-g-Z eff. coupling^2, normalised to SM
    0.00000000E+00        4  35  21  21  23  # H0-g-g-Z eff. coupling^2, normalised to SM
    0.00000000E+00        4  36  21  21  23  # A0-g-g-Z eff. coupling^2, normalised to SM
#
#
#
#                             =================
#                             |The decay table|
#                             =================
#
# - The QCD corrections to the decays gluino -> squark  + quark
#                                     squark -> gaugino + quark_prime
#                                     squark -> squark_prime + Higgs
#                                     squark -> gluino  + quark
#   are included.
#
# - The multi-body decays for the inos, stops and sbottoms are included.
#
# - The loop induced decays for the gluino, neutralinos and stops
#   are included.
#
# - The SUSY decays of the top quark are included.
#
#
#         PDG            Width
DECAY         6     1.44778839E+00   # top decays
#          BR         NDA      ID1       ID2
     1.00000000E+00    2           5        24   # BR(t ->  b    W+)
#
#         PDG            Width
DECAY   1000021     1.25252887E+02   # gluino decays
#          BR         NDA      ID1       ID2
     2.64315898E-02    2     1000001        -1   # BR(~g -> ~d_L  db)
     2.64315898E-02    2    -1000001         1   # BR(~g -> ~d_L* d )
     1.97038450E-01    2     2000001        -1   # BR(~g -> ~d_R  db)
     1.97038450E-01    2    -2000001         1   # BR(~g -> ~d_R* d )
     2.65300059E-02    2     1000002        -2   # BR(~g -> ~u_L  ub)
     2.65300059E-02    2    -1000002         2   # BR(~g -> ~u_L* u )
     2.64315898E-02    2     1000003        -3   # BR(~g -> ~s_L  sb)
     2.64315898E-02    2    -1000003         3   # BR(~g -> ~s_L* s )
     1.97038450E-01    2     2000003        -3   # BR(~g -> ~s_R  sb)
     1.97038450E-01    2    -2000003         3   # BR(~g -> ~s_R* s )
     2.65299151E-02    2     1000004        -4   # BR(~g -> ~c_L  cb)
     2.65299151E-02    2    -1000004         4   # BR(~g -> ~c_L* c )
#
#         PDG            Width
DECAY   1000006     1.02152368E+02   # stop1 decays
#          BR         NDA      ID1       ID2
     6.12161558E-02    2     1000022         6   # BR(~t_1 -> ~chi_10 t )
     1.98019988E-01    2     1000023         6   # BR(~t_1 -> ~chi_20 t )
     1.50255005E-01    2     1000025         6   # BR(~t_1 -> ~chi_30 t )
     7.27418331E-02    2     1000035         6   # BR(~t_1 -> ~chi_40 t )
     3.74837119E-01    2     1000024         5   # BR(~t_1 -> ~chi_1+ b )
     1.42929899E-01    2     1000037         5   # BR(~t_1 -> ~chi_2+ b )
#
#         PDG            Width
DECAY   2000006     1.25339098E+02   # stop2 decays
#          BR         NDA      ID1       ID2
     1.05347477E-01    2     1000022         6   # BR(~t_2 -> ~chi_10 t )
     1.88360191E-01    2     1000023         6   # BR(~t_2 -> ~chi_20 t )
     1.39186455E-01    2     1000025         6   # BR(~t_2 -> ~chi_30 t )
     5.04836313E-03    2     1000035         6   # BR(~t_2 -> ~chi_40 t )
     3.65682406E-01    2     1000024         5   # BR(~t_2 -> ~chi_1+ b )
     1.00482472E-02    2     1000037         5   # BR(~t_2 -> ~chi_2+ b )
     7.75915673E-02    2     1000021         6   # BR(~t_2 -> ~g      t )
     3.23527603E-02    2     1000006        25   # BR(~t_2 -> ~t_1    h )
     2.61531656E-02    2     1000006        23   # BR(~t_2 -> ~t_1    Z )
     5.02293674E-02    2     1000005        24   # BR(~t_2 -> ~b_1    W+)
#
#         PDG            Width
DECAY   1000005     1.02253344E+02   # sbottom1 decays
#          BR         NDA      ID1       ID2
     1.15189975E-01    2     1000022         5   # BR(~b_1 -> ~chi_10 b )
     1.76771636E-01    2     1000023         5   # BR(~b_1 -> ~chi_20 b )
     7.83250358E-02    2     1000025         5   # BR(~b_1 -> ~chi_30 b )
     7.60073182E-02    2     1000035         5   # BR(~b_1 -> ~chi_40 b )
     3.99112940E-01    2    -1000024         6   # BR(~b_1 -> ~chi_1- t )
     1.54593095E-01    2    -1000037         6   # BR(~b_1 -> ~chi_2- t )
#
#         PDG            Width
DECAY   2000005     1.05974830E+02   # sbottom2 decays
#          BR         NDA      ID1       ID2
     1.39321884E-01    2     1000022         5   # BR(~b_2 -> ~chi_10 b )
     2.02115783E-01    2     1000023         5   # BR(~b_2 -> ~chi_20 b )
     9.57270853E-02    2     1000025         5   # BR(~b_2 -> ~chi_30 b )
     1.81594970E-05    2     1000035         5   # BR(~b_2 -> ~chi_40 b )
     4.15227867E-01    2    -1000024         6   # BR(~b_2 -> ~chi_1- t )
     3.61248473E-05    2    -1000037         6   # BR(~b_2 -> ~chi_2- t )
     1.47417583E-01    2     1000021         5   # BR(~b_2 -> ~g      b )
     3.97167017E-05    2     1000005        25   # BR(~b_2 -> ~b_1    h )
     3.20725370E-05    2     1000005        23   # BR(~b_2 -> ~b_1    Z )
     6.37123848E-05    2     1000006       -24   # BR(~b_2 -> ~t_1    W-)
     1.16997891E-08    2     2000006       -24   # BR(~b_2 -> ~t_2    W-)
#
#         PDG            Width
DECAY   1000002     1.46732280E+01   # sup_L decays
#          BR         NDA      ID1       ID2
     1.71178385E-02    2     1000022         2   # BR(~u_L -> ~chi_10 u)
     3.36505067E-03    2     1000023         2   # BR(~u_L -> ~chi_20 u)
     6.66240100E-03    2     1000025         2   # BR(~u_L -> ~chi_30 u)
     3.21895395E-01    2     1000035         2   # BR(~u_L -> ~chi_40 u)
     9.02699713E-03    2     1000024         1   # BR(~u_L -> ~chi_1+ d)
     6.41932318E-01    2     1000037         1   # BR(~u_L -> ~chi_2+ d)
#
#         PDG            Width
DECAY   2000002     3.10730505E+01   # sup_R decays
#          BR         NDA      ID1       ID2
     1.36189847E-01    2     1000022         2   # BR(~u_R -> ~chi_10 u)
     4.68953024E-03    2     1000023         2   # BR(~u_R -> ~chi_20 u)
     1.19808799E-01    2     1000025         2   # BR(~u_R -> ~chi_30 u)
     5.84376373E-07    2     1000035         2   # BR(~u_R -> ~chi_40 u)
     7.39311239E-01    2     1000021         2   # BR(~u_R -> ~g      u)
#
#         PDG            Width
DECAY   1000001     1.46160277E+01   # sdown_L decays
#          BR         NDA      ID1       ID2
     9.08433251E-03    2     1000022         1   # BR(~d_L -> ~chi_10 d)
     2.60567118E-04    2     1000023         1   # BR(~d_L -> ~chi_20 d)
     1.69809770E-02    2     1000025         1   # BR(~d_L -> ~chi_30 d)
     3.24000960E-01    2     1000035         1   # BR(~d_L -> ~chi_40 d)
     9.35696894E-05    2    -1000024         2   # BR(~d_L -> ~chi_1- u)
     6.49579594E-01    2    -1000037         2   # BR(~d_L -> ~chi_2- u)
#
#         PDG            Width
DECAY   2000001     5.17058271E-01   # sdown_R decays
#          BR         NDA      ID1       ID2
     5.31312741E-01    2     1000022         1   # BR(~d_R -> ~chi_10 d)
     1.79913778E-02    2     1000023         1   # BR(~d_R -> ~chi_20 d)
     4.50695882E-01    2     1000025         1   # BR(~d_R -> ~chi_30 d)
#
#         PDG            Width
DECAY   1000004     1.47908081E+01   # scharm_L decays
#          BR         NDA      ID1       ID2
     1.72573146E-02    2     1000022         4   # BR(~c_L -> ~chi_10 c)
     3.39167869E-03    2     1000023         4   # BR(~c_L -> ~chi_20 c)
     6.71376180E-03    2     1000025         4   # BR(~c_L -> ~chi_30 c)
     3.21798962E-01    2     1000035         4   # BR(~c_L -> ~chi_40 c)
     9.09856218E-03    2     1000024         3   # BR(~c_L -> ~chi_1+ s)
     6.41739721E-01    2     1000037         3   # BR(~c_L -> ~chi_2+ s)
#
#         PDG            Width
DECAY   2000004     2.51752034E+01   # scharm_R decays
#          BR         NDA      ID1       ID2
     1.76752041E-01    2     1000022         4   # BR(~c_R -> ~chi_10 c)
     6.08488589E-03    2     1000023         4   # BR(~c_R -> ~chi_20 c)
     1.55427018E-01    2     1000025         4   # BR(~c_R -> ~chi_30 c)
     7.52855938E-07    2     1000035         4   # BR(~c_R -> ~chi_40 c)
     6.61735302E-01    2     1000021         4   # BR(~c_R -> ~g      c)
#
#         PDG            Width
DECAY   1000003     1.47325006E+01   # sstrange_L decays
#          BR         NDA      ID1       ID2
     9.15908689E-03    2     1000022         3   # BR(~s_L -> ~chi_10 s)
     2.62650110E-04    2     1000023         3   # BR(~s_L -> ~chi_20 s)
     1.71132594E-02    2     1000025         3   # BR(~s_L -> ~chi_30 s)
     3.23931823E-01    2     1000035         3   # BR(~s_L -> ~chi_40 s)
     9.43189608E-05    2    -1000024         4   # BR(~s_L -> ~chi_1- c)
     6.49438862E-01    2    -1000037         4   # BR(~s_L -> ~chi_2- c)
#
#         PDG            Width
DECAY   2000003     4.96754378E-01   # sstrange_R decays
#          BR         NDA      ID1       ID2
     5.31439906E-01    2     1000022         3   # BR(~s_R -> ~chi_10 s)
     1.79904198E-02    2     1000023         3   # BR(~s_R -> ~chi_20 s)
     4.50569674E-01    2     1000025         3   # BR(~s_R -> ~chi_30 s)
#
#         PDG            Width
DECAY   1000011     9.22362590E-01   # selectron_L decays
#          BR         NDA      ID1       ID2
     5.82117903E-01    2     1000022        11   # BR(~e_L -> ~chi_10 e-)
     4.45452838E-02    2     1000023        11   # BR(~e_L -> ~chi_20 e-)
     3.72920363E-01    2     1000025        11   # BR(~e_L -> ~chi_30 e-)
     4.16450763E-04    2    -1000024        12   # BR(~e_L -> ~chi_1- nu_e)
#
#         PDG            Width
DECAY   2000011     2.50937206E+00   # selectron_R decays
#          BR         NDA      ID1       ID2
     5.48994432E-01    2     1000022        11   # BR(~e_R -> ~chi_10 e-)
     1.79854740E-02    2     1000023        11   # BR(~e_R -> ~chi_20 e-)
     4.33020094E-01    2     1000025        11   # BR(~e_R -> ~chi_30 e-)
#
#         PDG            Width
DECAY   1000013     9.22362548E-01   # smuon_L decays
#          BR         NDA      ID1       ID2
     5.82117904E-01    2     1000022        13   # BR(~mu_L -> ~chi_10 mu-)
     4.45452837E-02    2     1000023        13   # BR(~mu_L -> ~chi_20 mu-)
     3.72920362E-01    2     1000025        13   # BR(~mu_L -> ~chi_30 mu-)
     4.16450783E-04    2    -1000024        14   # BR(~mu_L -> ~chi_1- nu_mu)
#
#         PDG            Width
DECAY   2000013     2.50937184E+00   # smuon_R decays
#          BR         NDA      ID1       ID2
     5.48994435E-01    2     1000022        13   # BR(~mu_R -> ~chi_10 mu-)
     1.79854740E-02    2     1000023        13   # BR(~mu_R -> ~chi_20 mu-)
     4.33020091E-01    2     1000025        13   # BR(~mu_R -> ~chi_30 mu-)
#
#         PDG            Width
DECAY   1000015     6.73842277E+00   # stau_1 decays
#          BR         NDA      ID1       ID2
     2.77816744E-01    2     1000022        15   # BR(~tau_1 -> ~chi_10  tau-)
     1.79330133E-01    2     1000023        15   # BR(~tau_1 -> ~chi_20  tau-)
     1.80231534E-01    2     1000025        15   # BR(~tau_1 -> ~chi_30  tau-)
     3.62621589E-01    2    -1000024        16   # BR(~tau_1 -> ~chi_1-  nu_tau)
#
#         PDG            Width
DECAY   2000015     1.59492611E+01   # stau_2 decays
#          BR         NDA      ID1       ID2
     3.05064242E-01    2     1000022        15   # BR(~tau_2 -> ~chi_10  tau-)
     3.57706565E-01    2     1000023        15   # BR(~tau_2 -> ~chi_20  tau-)
     2.04431963E-01    2     1000025        15   # BR(~tau_2 -> ~chi_30  tau-)
     4.31519823E-02    2     1000035        15   # BR(~tau_2 -> ~chi_40  tau-)
     1.54495396E-05    2    -1000024        16   # BR(~tau_2 -> ~chi_1-  nu_tau)
     8.66611698E-02    2    -1000037        16   # BR(~tau_2 -> ~chi_2-  nu_tau)
     1.48642015E-03    2     1000015        25   # BR(~tau_2 -> ~tau_1   h)
     1.48220892E-03    2     1000015        23   # BR(~tau_2 -> ~tau_1   Z)
#
#         PDG            Width
DECAY   1000012     9.34700529E-01   # snu_eL decays
#          BR         NDA      ID1       ID2
     4.61914904E-01    2     1000022        12   # BR(~nu_eL -> ~chi_10 nu_e)
     2.90868859E-03    2     1000023        12   # BR(~nu_eL -> ~chi_20 nu_e)
     4.95646731E-01    2     1000025        12   # BR(~nu_eL -> ~chi_30 nu_e)
     3.95296764E-02    2     1000024        11   # BR(~nu_eL -> ~chi_1+ e-)
#
#         PDG            Width
DECAY   1000014     9.34700527E-01   # snu_muL decays
#          BR         NDA      ID1       ID2
     4.61914905E-01    2     1000022        14   # BR(~nu_muL -> ~chi_10 nu_mu)
     2.90868860E-03    2     1000023        14   # BR(~nu_muL -> ~chi_20 nu_mu)
     4.95646732E-01    2     1000025        14   # BR(~nu_muL -> ~chi_30 nu_mu)
     3.95296747E-02    2     1000024        13   # BR(~nu_muL -> ~chi_1+ mu-)
#
#         PDG            Width
DECAY   1000016     1.59567921E+01   # snu_tauL decays
#          BR         NDA      ID1       ID2
     6.48545746E-02    2     1000022        16   # BR(~nu_tauL -> ~chi_10 nu_tau)
     4.17479096E-04    2     1000023        16   # BR(~nu_tauL -> ~chi_20 nu_tau)
     7.30107667E-02    2     1000025        16   # BR(~nu_tauL -> ~chi_30 nu_tau)
     4.27495083E-02    2     1000035        16   # BR(~nu_tauL -> ~chi_40 nu_tau)
     7.31134389E-01    2     1000024        15   # BR(~nu_tauL -> ~chi_1+ tau-)
     8.49637409E-02    2     1000037        15   # BR(~nu_tauL -> ~chi_2+ tau-)
     2.86954112E-03    2    -1000015       -24   # BR(~nu_tauL -> ~tau_1+ W-)
#
#         PDG            Width
DECAY   1000024     1.09853372E-05   # chargino1+ decays
#           BR         NDA      ID1       ID2       ID3
     3.31771192E-01    3     1000022         2        -1   # BR(~chi_1+ -> ~chi_10 u    db)
     3.31771192E-01    3     1000022         4        -3   # BR(~chi_1+ -> ~chi_10 c    sb)
     1.10546359E-01    3     1000022       -11        12   # BR(~chi_1+ -> ~chi_10 e+   nu_e)
     1.10546359E-01    3     1000022       -13        14   # BR(~chi_1+ -> ~chi_10 mu+  nu_mu)
     1.15364900E-01    3     1000022       -15        16   # BR(~chi_1+ -> ~chi_10 tau+ nu_tau)
#
#         PDG            Width
DECAY   1000037     2.30178758E+01   # chargino2+ decays
#          BR         NDA      ID1       ID2
     1.30310457E-01    2     1000012       -11   # BR(~chi_2+ -> ~nu_eL   e+  )
     1.30310457E-01    2     1000014       -13   # BR(~chi_2+ -> ~nu_muL mu+ )
     1.29917748E-01    2    -1000011        12   # BR(~chi_2+ -> ~e_L+    nu_e)
     1.29917748E-01    2    -1000013        14   # BR(~chi_2+ -> ~mu_L+   nu_mu)
     2.25706795E-06    2    -1000015        16   # BR(~chi_2+ -> ~tau_1+  nu_tau)
     1.21808145E-01    2     1000024        23   # BR(~chi_2+ -> ~chi_1+  Z )
     4.47577163E-02    2     1000022        24   # BR(~chi_2+ -> ~chi_10  W+)
     1.19752649E-01    2     1000023        24   # BR(~chi_2+ -> ~chi_20  W+)
     7.30226389E-02    2     1000025        24   # BR(~chi_2+ -> ~chi_30  W+)
     1.20200183E-01    2     1000024        25   # BR(~chi_2+ -> ~chi_1+  h )
#
#         PDG            Width
DECAY   1000022     0.00000000E+00   # neutralino1 decays
#
#         PDG            Width
DECAY   1000023     1.09760467E-05   # neutralino2 decays
#          BR         NDA      ID1       ID2
     3.25472447E-03    2     1000022        22   # BR(~chi_20 -> ~chi_10 gam)
#           BR         NDA      ID1       ID2       ID3
     1.19307239E-01    3     1000022        -2         2   # BR(~chi_20 -> ~chi_10 ub      u)
     1.54828350E-01    3     1000022        -1         1   # BR(~chi_20 -> ~chi_10 db      d)
     1.19307239E-01    3     1000022        -4         4   # BR(~chi_20 -> ~chi_10 cb      c)
     1.54828350E-01    3     1000022        -3         3   # BR(~chi_20 -> ~chi_10 sb      s)
     1.26546358E-01    3     1000022        -5         5   # BR(~chi_20 -> ~chi_10 bb      b)
     3.51952000E-02    3     1000022       -11        11   # BR(~chi_20 -> ~chi_10 e+      e-)
     3.51952000E-02    3     1000022       -13        13   # BR(~chi_20 -> ~chi_10 mu+     mu-)
     3.81552126E-02    3     1000022       -15        15   # BR(~chi_20 -> ~chi_10 tau+    tau-)
     7.11342322E-02    3     1000022       -12        12   # BR(~chi_20 -> ~chi_10 nu_eb   nu_e)
     7.11342322E-02    3     1000022       -14        14   # BR(~chi_20 -> ~chi_10 nu_mub  nu_mu)
     7.11084907E-02    3     1000022       -16        16   # BR(~chi_20 -> ~chi_10 nu_taub nu_tau)
     9.69631059E-07    3     1000024        -2         1   # BR(~chi_20 -> ~chi_1+ ub      d)
     9.69631059E-07    3    -1000024        -1         2   # BR(~chi_20 -> ~chi_1- db      u)
     9.69631059E-07    3     1000024        -4         3   # BR(~chi_20 -> ~chi_1+ cb      s)
     9.69631059E-07    3    -1000024        -3         4   # BR(~chi_20 -> ~chi_1- sb      c)
     3.23201172E-07    3     1000024       -12        11   # BR(~chi_20 -> ~chi_1+ nu_eb   e-)
     3.23201172E-07    3    -1000024        12       -11   # BR(~chi_20 -> ~chi_1- nu_e    e+)
     3.23201172E-07    3     1000024       -14        13   # BR(~chi_20 -> ~chi_1+ nu_mub  mu-)
     3.23201172E-07    3    -1000024        14       -13   # BR(~chi_20 -> ~chi_1- nu_mu   mu+)
     3.06500930E-10    3     1000024       -16        15   # BR(~chi_20 -> ~chi_1+ nu_taub tau-)
     3.06500930E-10    3    -1000024        16       -15   # BR(~chi_20 -> ~chi_1- nu_tau  tau+)
#
#         PDG            Width
DECAY   1000025     3.98976233E-05   # neutralino3 decays
#          BR         NDA      ID1       ID2
     1.46439409E-02    2     1000022        22   # BR(~chi_30 -> ~chi_10 gam)
     2.91629675E-02    2     1000023        22   # BR(~chi_30 -> ~chi_20 gam)
#           BR         NDA      ID1       ID2       ID3
     1.75731940E-03    3     1000022        -2         2   # BR(~chi_30 -> ~chi_10 ub      u)
     2.23071377E-03    3     1000022        -1         1   # BR(~chi_30 -> ~chi_10 db      d)
     1.75731940E-03    3     1000022        -4         4   # BR(~chi_30 -> ~chi_10 cb      c)
     2.23071377E-03    3     1000022        -3         3   # BR(~chi_30 -> ~chi_10 sb      s)
     2.22427770E-03    3     1000022        -5         5   # BR(~chi_30 -> ~chi_10 bb      b)
     2.37612664E-04    3     1000022       -11        11   # BR(~chi_30 -> ~chi_10 e+      e-)
     2.37612664E-04    3     1000022       -13        13   # BR(~chi_30 -> ~chi_10 mu+     mu-)
     4.76818858E-03    3     1000022       -15        15   # BR(~chi_30 -> ~chi_10 tau+    tau-)
     1.24022457E-03    3     1000022       -12        12   # BR(~chi_30 -> ~chi_10 nu_eb   nu_e)
     1.24022457E-03    3     1000022       -14        14   # BR(~chi_30 -> ~chi_10 nu_mub  nu_mu)
     1.07277984E-03    3     1000022       -16        16   # BR(~chi_30 -> ~chi_10 nu_taub nu_tau)
     2.43593048E-02    3     1000023        -2         2   # BR(~chi_30 -> ~chi_20 ub      u)
     3.16204377E-02    3     1000023        -1         1   # BR(~chi_30 -> ~chi_20 db      d)
     2.43593048E-02    3     1000023        -4         4   # BR(~chi_30 -> ~chi_20 cb      c)
     3.16204377E-02    3     1000023        -3         3   # BR(~chi_30 -> ~chi_20 sb      s)
     2.46731288E-02    3     1000023        -5         5   # BR(~chi_30 -> ~chi_20 bb      b)
     7.32843651E-03    3     1000023       -11        11   # BR(~chi_30 -> ~chi_20 e+      e-)
     7.32843651E-03    3     1000023       -13        13   # BR(~chi_30 -> ~chi_20 mu+     mu-)
     7.87379768E-03    3     1000023       -15        15   # BR(~chi_30 -> ~chi_20 tau+    tau-)
     1.45129003E-02    3     1000023       -12        12   # BR(~chi_30 -> ~chi_20 nu_eb   nu_e)
     1.45129003E-02    3     1000023       -14        14   # BR(~chi_30 -> ~chi_20 nu_mub  nu_mu)
     1.45182749E-02    3     1000023       -16        16   # BR(~chi_30 -> ~chi_20 nu_taub nu_tau)
     1.22275105E-01    3     1000024        -2         1   # BR(~chi_30 -> ~chi_1+ ub      d)
     1.22275105E-01    3    -1000024        -1         2   # BR(~chi_30 -> ~chi_1- db      u)
     1.22275105E-01    3     1000024        -4         3   # BR(~chi_30 -> ~chi_1+ cb      s)
     1.22275105E-01    3    -1000024        -3         4   # BR(~chi_30 -> ~chi_1- sb      c)
     4.07915908E-02    3     1000024       -12        11   # BR(~chi_30 -> ~chi_1+ nu_eb   e-)
     4.07915908E-02    3    -1000024        12       -11   # BR(~chi_30 -> ~chi_1- nu_e    e+)
     4.07915908E-02    3     1000024       -14        13   # BR(~chi_30 -> ~chi_1+ nu_mub  mu-)
     4.07915908E-02    3    -1000024        14       -13   # BR(~chi_30 -> ~chi_1- nu_mu   mu+)
     4.11109805E-02    3     1000024       -16        15   # BR(~chi_30 -> ~chi_1+ nu_taub tau-)
     4.11109805E-02    3    -1000024        16       -15   # BR(~chi_30 -> ~chi_1- nu_tau  tau+)
#
#         PDG            Width
DECAY   1000035     2.30091792E+01   # neutralino4 decays
#          BR         NDA      ID1       ID2
     2.66163641E-02    2     1000022        23   # BR(~chi_40 -> ~chi_10   Z )
     4.88128988E-02    2     1000023        23   # BR(~chi_40 -> ~chi_20   Z )
     4.62481110E-02    2     1000025        23   # BR(~chi_40 -> ~chi_30   Z )
     1.19147808E-01    2     1000024       -24   # BR(~chi_40 -> ~chi_1+   W-)
     1.19147808E-01    2    -1000024        24   # BR(~chi_40 -> ~chi_1-   W+)
     1.87257500E-02    2     1000022        25   # BR(~chi_40 -> ~chi_10   h )
     7.28946912E-02    2     1000023        25   # BR(~chi_40 -> ~chi_20   h )
     2.78945546E-02    2     1000025        25   # BR(~chi_40 -> ~chi_30   h )
     5.98743851E-08    2     2000001        -1   # BR(~chi_40 -> ~d_R      db)
     5.98743851E-08    2    -2000001         1   # BR(~chi_40 -> ~d_R*     d )
     5.98743851E-08    2     2000003        -3   # BR(~chi_40 -> ~s _R      sb)
     5.98743851E-08    2    -2000003         3   # BR(~chi_40 -> ~s _R*     s )
     6.46187365E-02    2     1000011       -11   # BR(~chi_40 -> ~e_L-     e+)
     6.46187365E-02    2    -1000011        11   # BR(~chi_40 -> ~e_L+     e-)
     3.55809147E-07    2     2000011       -11   # BR(~chi_40 -> ~e_R-     e+)
     3.55809147E-07    2    -2000011        11   # BR(~chi_40 -> ~e_R+     e-)
     6.46187365E-02    2     1000013       -13   # BR(~chi_40 -> ~mu_L-    mu+)
     6.46187365E-02    2    -1000013        13   # BR(~chi_40 -> ~mu_L+    mu-)
     3.55809147E-07    2     2000013       -13   # BR(~chi_40 -> ~mu_R-    mu+)
     3.55809147E-07    2    -2000013        13   # BR(~chi_40 -> ~mu_R+    mu-)
     1.52053535E-06    2     1000015       -15   # BR(~chi_40 -> ~tau_1-   tau+)
     1.52053535E-06    2    -1000015        15   # BR(~chi_40 -> ~tau_1+   tau-)
     6.55080912E-02    2     1000012       -12   # BR(~chi_40 -> ~nu_eL    nu_eb)
     6.55080912E-02    2    -1000012        12   # BR(~chi_40 -> ~nu_eL*   nu_e )
     6.55080912E-02    2     1000014       -14   # BR(~chi_40 -> ~nu_muL   nu_mub)
     6.55080912E-02    2    -1000014        14   # BR(~chi_40 -> ~nu_muL*  nu_mu )
#
#         PDG            Width
DECAY        25     4.10735655E-03   # h decays
#          BR         NDA      ID1       ID2
     5.82293126E-01    2           5        -5   # BR(h -> b       bb     )
     6.38364745E-02    2         -15        15   # BR(h -> tau+    tau-   )
     2.25931147E-04    2         -13        13   # BR(h -> mu+     mu-    )
     2.46457274E-04    2           3        -3   # BR(h -> s       sb     )
     2.12118814E-02    2           4        -4   # BR(h -> c       cb     )
     7.91021132E-02    2          21        21   # BR(h -> g       g      )
     2.34356124E-03    2          22        22   # BR(h -> gam     gam    )
     1.61919037E-03    2          22        23   # BR(h -> Z       gam    )
     2.21227036E-01    2          24       -24   # BR(h -> W+      W-     )
     2.78942281E-02    2          23        23   # BR(h -> Z       Z      )
#
#         PDG            Width
DECAY        35     1.35018469E+02   # H decays
#          BR         NDA      ID1       ID2
     7.33515845E-01    2           5        -5   # BR(H -> b       bb     )
     1.24352312E-01    2         -15        15   # BR(H -> tau+    tau-   )
     4.27688514E-04    2         -13        13   # BR(H -> mu+     mu-    )
     3.11757720E-04    2           3        -3   # BR(H -> s       sb     )
     2.41440123E-09    2           4        -4   # BR(H -> c       cb     )
     2.36176812E-04    2           6        -6   # BR(H -> t       tb     )
     1.81771469E-05    2          21        21   # BR(H -> g       g      )
     2.16469208E-09    2          22        22   # BR(H -> gam     gam    )
     1.01213492E-08    2          23        22   # BR(H -> Z       gam    )
     1.73137825E-07    2          24       -24   # BR(H -> W+      W-     )
     8.63315696E-08    2          23        23   # BR(H -> Z       Z      )
     5.55358258E-07    2          25        25   # BR(H -> h       h      )
     1.04646997E-03    2     1000024  -1000024   # BR(H -> ~chi_1+ ~chi_1-)
     3.87711627E-02    2     1000024  -1000037   # BR(H -> ~chi_1+ ~chi_2-)
     3.87711627E-02    2     1000037  -1000024   # BR(H -> ~chi_2+ ~chi_1-)
     6.67744794E-03    2     1000022   1000022   # BR(H -> ~chi_10 ~chi_10)
     5.20538925E-05    2     1000023   1000023   # BR(H -> ~chi_20 ~chi_20)
     5.19183075E-03    2     1000025   1000025   # BR(H -> ~chi_30 ~chi_30)
     4.34878154E-03    2     1000022   1000023   # BR(H -> ~chi_10 ~chi_20)
     2.07435111E-04    2     1000022   1000025   # BR(H -> ~chi_10 ~chi_30)
     1.29774762E-02    2     1000022   1000035   # BR(H -> ~chi_10 ~chi_40)
     6.22153103E-03    2     1000023   1000025   # BR(H -> ~chi_20 ~chi_30)
     1.67920452E-02    2     1000023   1000035   # BR(H -> ~chi_20 ~chi_40)
     9.20685806E-03    2     1000025   1000035   # BR(H -> ~chi_30 ~chi_40)
     3.90013183E-09    2     2000001  -2000001   # BR(H -> ~d_R    ~d_R*  )
     3.90013183E-09    2     2000003  -2000003   # BR(H -> ~s_R    ~s_R*  )
     2.05267456E-08    2     1000011  -1000011   # BR(H -> ~e_L-   ~e_L+  )
     1.46931526E-08    2     2000011  -2000011   # BR(H -> ~e_R-   ~e_R+  )
     2.05267456E-08    2     1000013  -1000013   # BR(H -> ~mu_L-  ~mu_L+ )
     1.46931526E-08    2     2000013  -2000013   # BR(H -> ~mu_R-  ~mu_R+ )
     2.24614372E-07    2     1000015  -1000015   # BR(H -> ~tau_1- ~tau_1+)
     4.36260607E-04    2     1000015  -2000015   # BR(H -> ~tau_1- ~tau_2+)
     4.36260607E-04    2     2000015  -1000015   # BR(H -> ~tau_2- ~tau_1+)
     6.70624598E-08    2     1000012  -1000012   # BR(H -> ~nu_eL  ~nu_eL*   )
     6.70624598E-08    2     1000014  -1000014   # BR(H -> ~nu_muL ~nu_muL*  )
#
#         PDG            Width
DECAY        36     1.35019665E+02   # A decays
#          BR         NDA      ID1       ID2
     7.33518999E-01    2           5        -5   # BR(A -> b       bb     )
     1.24351639E-01    2         -15        15   # BR(A -> tau+    tau-   )
     4.27685371E-04    2         -13        13   # BR(A -> mu+     mu-    )
     3.11762106E-04    2           3        -3   # BR(A -> s       sb     )
     2.41804541E-09    2           4        -4   # BR(A -> c       cb     )
     2.37327061E-04    2           6        -6   # BR(A -> t       tb     )
     2.56168012E-05    2          21        21   # BR(A -> g       g      )
     2.58664747E-08    2          22        22   # BR(A -> gam     gam    )
     1.60197946E-08    2          23        22   # BR(A -> Z       gam    )
     1.75146538E-07    2          23        25   # BR(A -> Z       h      )
     1.06322917E-03    2     1000024  -1000024   # BR(A -> ~chi_1+ ~chi_1-)
     3.87589619E-02    2     1000024  -1000037   # BR(A -> ~chi_1+ ~chi_2-)
     3.87589619E-02    2     1000037  -1000024   # BR(A -> ~chi_2+ ~chi_1-)
     6.37298879E-03    2     1000022   1000022   # BR(A -> ~chi_10 ~chi_10)
     5.63881981E-05    2     1000023   1000023   # BR(A -> ~chi_20 ~chi_20)
     4.81861184E-03    2     1000025   1000025   # BR(A -> ~chi_30 ~chi_30)
     4.67249719E-03    2     1000022   1000023   # BR(A -> ~chi_10 ~chi_20)
     2.23440384E-04    2     1000022   1000025   # BR(A -> ~chi_10 ~chi_30)
     1.10247599E-02    2     1000022   1000035   # BR(A -> ~chi_10 ~chi_40)
     6.55882495E-03    2     1000023   1000025   # BR(A -> ~chi_20 ~chi_30)
     2.09087117E-02    2     1000023   1000035   # BR(A -> ~chi_20 ~chi_40)
     7.03683226E-03    2     1000025   1000035   # BR(A -> ~chi_30 ~chi_40)
     4.36271730E-04    2     1000015  -2000015   # BR(A -> ~tau_1- ~tau_2+)
     4.36271730E-04    2    -1000015   2000015   # BR(A -> ~tau_1+ ~tau_2-)
#
#         PDG            Width
DECAY        37     1.34727035E+02   # H+ decays
#          BR         NDA      ID1       ID2
     1.23278119E-03    2           4        -5   # BR(H+ -> c       bb     )
     1.24695700E-01    2         -15        16   # BR(H+ -> tau+    nu_tau )
     4.28868708E-04    2         -13        14   # BR(H+ -> mu+     nu_mu  )
     1.23277919E-05    2           2        -5   # BR(H+ -> u       bb     )
     1.56250022E-05    2           2        -3   # BR(H+ -> u       sb     )
     3.07549769E-04    2           4        -3   # BR(H+ -> c       sb     )
     7.32027440E-01    2           6        -5   # BR(H+ -> t       bb     )
     1.75996131E-07    2          24        25   # BR(H+ -> W+      h      )
     7.44470572E-14    2          24        36   # BR(H+ -> W+      A      )
     1.36413397E-02    2     1000024   1000022   # BR(H+ -> ~chi_1+ ~chi_10)
     9.34624343E-04    2     1000024   1000023   # BR(H+ -> ~chi_1+ ~chi_20)
     8.49405508E-03    2     1000024   1000025   # BR(H+ -> ~chi_1+ ~chi_30)
     3.89822698E-02    2     1000024   1000035   # BR(H+ -> ~chi_1+ ~chi_40)
     2.40992700E-02    2     1000037   1000022   # BR(H+ -> ~chi_2+ ~chi_10)
     3.79508288E-02    2     1000037   1000023   # BR(H+ -> ~chi_2+ ~chi_20)
     1.62993829E-02    2     1000037   1000025   # BR(H+ -> ~chi_2+ ~chi_30)
     8.07002013E-08    2    -1000011   1000012   # BR(H+ -> ~e_L+   ~nu_eL )
     8.07002013E-08    2    -1000013   1000014   # BR(H+ -> ~mu_L+  ~nu_muL)
     8.77599130E-04    2    -1000015   1000016   # BR(H+ -> ~tau_1+ ~nu_tauL)

DECAY         5   0.000000e+00 # b decays
DECAY        15   0.000000e+00 # tau decays
DECAY        23     2.49520000E+00   # Z
DECAY        24     2.08500000E+00   # W
