# SUSY Les Houches Accord 2 - MSSM spectrum + Decays
# SPheno v4.0.5be
# W. Porod, Comput. Phys. Commun. 153 (2003) 275-315, hep-ph/0301101;
# W. Porod, F.~Staub, Comput. Phys. Commun. 183 (2012) 2458
#                     arXiv:1104.1573 [hep-ph] 
# in case of problems send email to porod@physik.uni-wuerzburg.de
# Created: 15.05.2022,  04:33
Block SPINFO         # Program information
     1   SPheno      # spectrum calculator
     2   v4.0.5be    # version number
#
Block SPhenoINFO     # SPheno specific information
    1      2         # using 2-loop RGEs
    2      2         # using pole masses for boundary conditions at mZ
Block MODSEL  # Model selection
    1    0    # general MSSM
Block MINPAR  # Input parameters
    3    4.76842032E+01  # tanb at m_Z    
    4    1.00000000E+00  # Sign(mu)
Block EXTPAR  # non-universal input parameters
    0    2.86779770E+03  # scale for input parameters
    1   -3.51168792E+02  # M_1
    2   -9.60247840E+02  # M_2
    3    4.63127048E+03  # M_3
   11    2.42746985E+03  # A_t
   12    1.75693781E+03  # A_b
   13    9.32341409E+02  # A_tau
   23    3.78851518E+02  # mu
   25    4.67224908E+01  # tan(beta)
   26    3.87058418E+03  # m_A, pole mass
   31    1.06022803E+03  # M_L11
   32    1.06022803E+03  # M_L22
   33    1.58432587E+03  # M_L33
   34    1.14167693E+03  # M_E11
   35    1.14167693E+03  # M_E22
   36    7.12504636E+02  # M_E33
   41    1.00000000E+04  # M_Q11
   42    1.00000000E+04  # M_Q22
   43    2.31065882E+03  # M_Q33
   44    1.00000000E+04  # M_U11
   45    1.00000000E+04  # M_U22
   46    3.42735054E+03  # M_U33
   47    1.00000000E+04  # M_D11
   48    1.00000000E+04  # M_D22
   49    4.49253140E+03  # M_D33
Block SMINPUTS  # SM parameters
         1     1.27908970E+02  # alpha_em^-1(MZ)^MSbar
         2     1.16637870E-05  # G_mu [GeV^-2]
         3     1.18400000E-01  # alpha_s(MZ)^MSbar
         4     9.11876000E+01  # m_Z(pole)
         5     4.18000000E+00  # m_b(m_b), MSbar
         6     1.73200000E+02  # m_t(pole)
         7     1.77700000E+00  # m_tau(pole)
         8     0.00000000E+00  # m_nu_3
        11     5.10998930E-04  # m_e(pole)
        12     0.00000000E+00  # m_nu_1
        13     1.05658372E-01  # m_muon(pole)
        14     0.00000000E+00  # m_nu_2
        21     5.00000000E-03  # m_d(2 GeV), MSbar
        22     2.50000000E-03  # m_u(2 GeV), MSbar
        23     9.50000000E-02  # m_s(2 GeV), MSbar
        24     1.27000000E+00  # m_c(m_c), MSbar
Block gauge Q=  2.86779770E+03  # (SUSY scale)
   1    3.55362975E-01  # g'(Q)^DRbar
   2    6.65198874E-01  # g(Q)^DRbar
   3    1.21977796E+00  # g3(Q)^DRbar
Block Yu Q=  2.86779770E+03  # (SUSY scale)
  1  1     8.38629230E-06   # Y_u(Q)^DRbar
  2  2     4.26023649E-03   # Y_c(Q)^DRbar
  3  3     1.01313147E+00   # Y_t(Q)^DRbar
Block Yd Q=  2.86779770E+03  # (SUSY scale)
  1  1     7.87365226E-04   # Y_d(Q)^DRbar
  2  2     1.49599393E-02   # Y_s(Q)^DRbar
  3  3     7.80819579E-01   # Y_b(Q)^DRbar
Block Ye Q=  2.86779770E+03  # (SUSY scale)
  1  1     1.37400990E-04   # Y_e(Q)^DRbar
  2  2     2.84101669E-02   # Y_mu(Q)^DRbar
  3  3     4.77812269E-01   # Y_tau(Q)^DRbar
Block Au Q=  2.86779770E+03  # (SUSY scale)
  1  1     0.00000000E+00   # A_u(Q)^DRbar
  2  2     0.00000000E+00   # A_c(Q)^DRbar
  3  3     2.42746945E+03   # A_t(Q)^DRbar
Block Ad Q=  2.86779770E+03  # (SUSY scale)
  1  1     0.00000000E+00   # A_d(Q)^DRbar
  2  2     0.00000000E+00   # A_s(Q)^DRbar
  3  3     1.75693846E+03   # A_b(Q)^DRbar
Block Ae Q=  2.86779770E+03  # (SUSY scale)
  1  1     0.00000000E+00   # A_e(Q)^DRbar
  2  2     0.00000000E+00   # A_mu(Q)^DRbar
  3  3     9.32341422E+02   # A_tau(Q)^DRbar
Block MSOFT Q=  2.86779770E+03  # soft SUSY breaking masses at Q
   1   -3.51168792E+02  # M_1
   2   -9.60247840E+02  # M_2
   3    4.63127048E+03  # M_3
  21    1.50019333E+07  # M^2_(H,d)
  22    1.57985840E+04  # M^2_(H,u)
  31    1.06022803E+03  # M_(L,11)
  32    1.06022803E+03  # M_(L,22)
  33    1.58432587E+03  # M_(L,33)
  34    1.14167693E+03  # M_(E,11)
  35    1.14167693E+03  # M_(E,22)
  36    7.12504636E+02  # M_(E,33)
  41    1.00000000E+04  # M_(Q,11)
  42    1.00000000E+04  # M_(Q,22)
  43    2.31065882E+03  # M_(Q,33)
  44    1.00000000E+04  # M_(U,11)
  45    1.00000000E+04  # M_(U,22)
  46    3.42735054E+03  # M_(U,33)
  47    1.00000000E+04  # M_(D,11)
  48    1.00000000E+04  # M_(D,22)
  49    4.49253140E+03  # M_(D,33)
Block MASS  # Mass spectrum
#   PDG code      mass          particle
         6     1.73200000E+02  # m_t(pole)
        23     9.11876000E+01  # m_Z(pole)
        24     8.04299946E+01  # W+
        15     1.77700000E+00  # m_tau(pole)
        25     1.22320228E+02  # h0
        35     3.86852489E+03  # H0
        36     3.87058418E+03  # A0
        37     3.86975341E+03  # H+
   1000001     1.00715173E+04  # ~d_L
   2000001     1.00486895E+04  # ~d_R
   1000002     1.00712818E+04  # ~u_L
   2000002     1.00514129E+04  # ~u_R
   1000003     1.00715291E+04  # ~s_L
   2000003     1.00487095E+04  # ~s_R
   1000004     1.00712934E+04  # ~c_L
   2000004     1.00514146E+04  # ~c_R
   1000005     2.36976478E+03  # ~b_1
   2000005     4.56505551E+03  # ~b_2
   1000006     2.36899505E+03  # ~t_1
   2000006     3.47162552E+03  # ~t_2
   1000011     1.07213352E+03  # ~e_L-
   2000011     1.14904238E+03  # ~e_R-
   1000012     1.06874348E+03  # ~nu_eL
   1000013     1.07209261E+03  # ~mu_L-
   2000013     1.14899167E+03  # ~mu_R-
   1000014     1.06871086E+03  # ~nu_muL
   1000015     6.97477387E+02  # ~tau_1-
   2000015     1.58507111E+03  # ~tau_2-
   1000016     1.58083133E+03  # ~nu_tauL
   1000021     5.03153879E+03  # ~g
   1000022     3.28901698E+02  # ~chi_10
   1000023     3.79416754E+02  # ~chi_20
   1000025     3.92352125E+02  # ~chi_30
   1000035     1.02181486E+03  # ~chi_40
   1000024     3.73245901E+02  # ~chi_1+
   1000037     1.02181623E+03  # ~chi_2+
# Higgs mixing
Block alpha # Effective Higgs mixing angle
          -2.09966369E-02   # alpha
Block Hmix Q=  2.86779770E+03  # Higgs mixing parameters
   1    3.78851518E+02  # mu
   2    4.67224908E+01  # tan[beta](Q)
   3    2.43299748E+02  # v(Q)
   4    1.49814219E+07  # m^2_A(Q)
Block stopmix # stop mixing matrix
   1  1    -9.98559685E-01   # Re[R_st(1,1)]
   1  2     5.36521777E-02   # Re[R_st(1,2)]
   2  1    -5.36521777E-02   # Re[R_st(2,1)]
   2  2    -9.98559685E-01   # Re[R_st(2,2)]
Block sbotmix # sbottom mixing matrix
   1  1     9.99997481E-01   # Re[R_sb(1,1)]
   1  2     2.24450995E-03   # Re[R_sb(1,2)]
   2  1    -2.24450995E-03   # Re[R_sb(2,1)]
   2  2     9.99997481E-01   # Re[R_sb(2,2)]
Block staumix # stau mixing matrix
   1  1     1.43153912E-02   # Re[R_sta(1,1)]
   1  2     9.99897530E-01   # Re[R_sta(1,2)]
   2  1    -9.99897530E-01   # Re[R_sta(2,1)]
   2  2     1.43153912E-02   # Re[R_sta(2,2)]
Block Nmix # neutralino mixing matrix
   1  1    -8.12492757E-01   # Re[N(1,1)]
   1  2     4.41143680E-02   # Re[N(1,2)]
   1  3    -4.38380104E-01   # Re[N(1,3)]
   1  4    -3.81749037E-01   # Re[N(1,4)]
   2  1     4.35056075E-02   # Re[N(2,1)]
   2  2    -4.18874163E-02   # Re[N(2,2)]
   2  3    -7.02424574E-01   # Re[N(2,3)]
   2  4     7.09191388E-01   # Re[N(2,4)]
   3  1     5.81314627E-01   # Re[N(3,1)]
   3  2     7.50781930E-02   # Re[N(3,2)]
   3  3    -5.59814646E-01   # Re[N(3,3)]
   3  4    -5.85699694E-01   # Re[N(3,4)]
   4  1     6.00722143E-03   # Re[N(4,1)]
   4  2    -9.95320366E-01   # Re[N(4,2)]
   4  3    -3.20961812E-02   # Re[N(4,3)]
   4  4    -9.09456795E-02   # Re[N(4,4)]
Block Umix # chargino mixing matrix
   1  1    -4.53845173E-02   # Re[U(1,1)]
   1  2     9.98969592E-01   # Re[U(1,2)]
   2  1    -9.98969592E-01   # Re[U(2,1)]
   2  2    -4.53845173E-02   # Re[U(2,2)]
Block Vmix # chargino mixing matrix
   1  1     1.28603588E-01   # Re[V(1,1)]
   1  2     9.91696081E-01   # Re[V(1,2)]
   2  1     9.91696081E-01   # Re[V(2,1)]
   2  2    -1.28603588E-01   # Re[V(2,2)]
DECAY        23     2.49520000E+00   # Z
DECAY        24     2.08500000E+00   # W
DECAY   1000011     1.24964455E+00   # ~e^-_L
#    BR                NDA      ID1      ID2
     4.71198108E-01    2     1000022        11   # BR(~e^-_L -> chi^0_1 e^-)
     1.00475755E-03    2     1000023        11   # BR(~e^-_L -> chi^0_2 e^-)
     4.21227856E-01    2     1000025        11   # BR(~e^-_L -> chi^0_3 e^-)
     3.12306344E-02    2     1000035        11   # BR(~e^-_L -> chi^0_4 e^-)
     1.20141736E-02    2    -1000024        12   # BR(~e^-_L -> chi^-_1 nu_e)
     6.33244705E-02    2    -1000037        12   # BR(~e^-_L -> chi^-_2 nu_e)
#    BR                NDA      ID1      ID2       ID3
DECAY   2000011     4.74366221E+00   # ~e^-_R
#    BR                NDA      ID1      ID2
     6.77195895E-01    2     1000022        11   # BR(~e^-_R -> chi^0_1 e^-)
     1.82872431E-03    2     1000023        11   # BR(~e^-_R -> chi^0_2 e^-)
     3.20973386E-01    2     1000025        11   # BR(~e^-_R -> chi^0_3 e^-)
#    BR                NDA      ID1      ID2       ID3
DECAY   1000013     1.26265537E+00   # ~mu^-_L
#    BR                NDA      ID1      ID2
     4.68471866E-01    2     1000022        13   # BR(~mu^-_L -> chi^0_1 mu^-)
     6.14207054E-03    2     1000023        13   # BR(~mu^-_L -> chi^0_2 mu^-)
     4.20060381E-01    2     1000025        13   # BR(~mu^-_L -> chi^0_3 mu^-)
     3.08612058E-02    2     1000035        13   # BR(~mu^-_L -> chi^0_4 mu^-)
     1.18896716E-02    2    -1000024        14   # BR(~mu^-_L -> chi^-_1 nu_mu)
     6.25748041E-02    2    -1000037        14   # BR(~mu^-_L -> chi^-_2 nu_mu)
#    BR                NDA      ID1      ID2       ID3
DECAY   2000013     4.77282782E+00   # ~mu^-_R
#    BR                NDA      ID1      ID2
     6.73641149E-01    2     1000022        13   # BR(~mu^-_R -> chi^0_1 mu^-)
     3.33163968E-03    2     1000023        13   # BR(~mu^-_R -> chi^0_2 mu^-)
     3.19938326E-01    2     1000025        13   # BR(~mu^-_R -> chi^0_3 mu^-)
     3.08645214E-03    2    -1000024        14   # BR(~mu^-_R -> chi^-_1 nu_mu)
#    BR                NDA      ID1      ID2       ID3
DECAY   1000015     5.17867867E+00   # ~tau^-_1
#    BR                NDA      ID1      ID2
     3.42520402E-01    2     1000022        15   # BR(~tau^-_1 -> chi^0_1 tau^-)
     1.49923594E-01    2     1000023        15   # BR(~tau^-_1 -> chi^0_2 tau^-)
     1.96167950E-01    2     1000025        15   # BR(~tau^-_1 -> chi^0_3 tau^-)
     3.11388054E-01    2    -1000024        16   # BR(~tau^-_1 -> chi^-_1 nu_tau)
DECAY   2000015     1.57084278E+01   # ~tau^-_2
#    BR                NDA      ID1      ID2
     1.40135385E-01    2     1000022        15   # BR(~tau^-_2 -> chi^0_1 tau^-)
     2.01631120E-01    2     1000023        15   # BR(~tau^-_2 -> chi^0_2 tau^-)
     1.86189671E-01    2     1000025        15   # BR(~tau^-_2 -> chi^0_3 tau^-)
     1.49609452E-01    2     1000035        15   # BR(~tau^-_2 -> chi^0_4 tau^-)
     9.76799337E-04    2    -1000024        16   # BR(~tau^-_2 -> chi^-_1 nu_tau)
     3.02991107E-01    2    -1000037        16   # BR(~tau^-_2 -> chi^-_2 nu_tau)
     9.09757104E-03    2     1000015        23   # BR(~tau^-_2 -> ~tau^-_1 Z)
     9.36889571E-03    2     1000015        25   # BR(~tau^-_2 -> ~tau^-_1 h^0)
#    BR                NDA      ID1      ID2       ID3
DECAY   1000012     1.31479439E+00   # ~nu_e
#    BR                NDA      ID1      ID2
     6.70427185E-01    2     1000022        12   # BR(~nu_e -> chi^0_1 nu_e)
     1.15919716E-02    2     1000023        12   # BR(~nu_e -> chi^0_2 nu_e)
     1.48510482E-01    2     1000025        12   # BR(~nu_e -> chi^0_3 nu_e)
     2.63176359E-02    2     1000035        12   # BR(~nu_e -> chi^0_4 nu_e)
     9.12383742E-02    2     1000024        11   # BR(~nu_e -> chi^+_1 e^-)
     5.19143517E-02    2     1000037        11   # BR(~nu_e -> chi^+_2 e^-)
DECAY   1000014     1.32781133E+00   # ~nu_mu
#    BR                NDA      ID1      ID2
     6.63826041E-01    2     1000022        14   # BR(~nu_mu -> chi^0_1 nu_mu)
     1.14777795E-02    2     1000023        14   # BR(~nu_mu -> chi^0_2 nu_mu)
     1.47047303E-01    2     1000025        14   # BR(~nu_mu -> chi^0_3 nu_mu)
     2.60249915E-02    2     1000035        14   # BR(~nu_mu -> chi^0_4 nu_mu)
     1.00287189E-01    2     1000024        13   # BR(~nu_mu -> chi^+_1 mu^-)
     5.13366950E-02    2     1000037        13   # BR(~nu_mu -> chi^+_2 mu^-)
DECAY   1000016     1.56954798E+01   # ~nu_tau
#    BR                NDA      ID1      ID2
     9.27752810E-02    2     1000022        16   # BR(~nu_tau -> chi^0_1 nu_tau)
     1.67004735E-03    2     1000023        16   # BR(~nu_tau -> chi^0_2 nu_tau)
     2.16455649E-02    2     1000025        16   # BR(~nu_tau -> chi^0_3 nu_tau)
     1.49821201E-01    2     1000035        16   # BR(~nu_tau -> chi^0_4 nu_tau)
     4.20195548E-01    2     1000024        15   # BR(~nu_tau -> chi^+_1 tau^-)
     2.95822747E-01    2     1000037        15   # BR(~nu_tau -> chi^+_2 tau^-)
     1.80696110E-02    2     1000015        24   # BR(~nu_tau -> ~tau^-_1 W^+)
DECAY   2000001     4.50906453E+02   # ~d_R
#    BR                NDA      ID1      ID2
     8.19588255E-03    2     1000022         1   # BR(~d_R -> chi^0_1 d)
     4.19170947E-03    2     1000025         1   # BR(~d_R -> chi^0_3 d)
     9.87588077E-01    2     1000021         1   # BR(~d_R -> ~g d)
DECAY   1000001     5.79353135E+02   # ~d_L
#    BR                NDA      ID1      ID2
     2.72162626E-03    2     1000022         1   # BR(~d_L -> chi^0_1 d)
     1.88076313E-04    2     1000023         1   # BR(~d_L -> chi^0_2 d)
     7.44091811E-02    2     1000035         1   # BR(~d_L -> chi^0_4 d)
     3.14344903E-04    2    -1000024         2   # BR(~d_L -> chi^-_1 u)
     1.49589886E-01    2    -1000037         2   # BR(~d_L -> chi^-_2 u)
     7.72715123E-01    2     1000021         1   # BR(~d_L -> ~g d)
DECAY   2000003     4.50997520E+02   # ~s_R
#    BR                NDA      ID1      ID2
     8.21321388E-03    2     1000022         3   # BR(~s_R -> chi^0_1 s)
     4.22178170E-03    2     1000025         3   # BR(~s_R -> chi^0_3 s)
     9.87393254E-01    2     1000021         3   # BR(~s_R -> ~g s)
DECAY   1000003     5.79402737E+02   # ~s_L
#    BR                NDA      ID1      ID2
     2.73619632E-03    2     1000022         3   # BR(~s_L -> chi^0_1 s)
     2.26032925E-04    2     1000023         3   # BR(~s_L -> chi^0_2 s)
     7.44029804E-02    2     1000035         3   # BR(~s_L -> chi^0_4 s)
     3.20473090E-04    2    -1000024         4   # BR(~s_L -> chi^-_1 c)
     1.49577365E-01    2    -1000037         4   # BR(~s_L -> chi^-_2 c)
     7.72651081E-01    2     1000021         3   # BR(~s_L -> ~g s)
DECAY   1000005     9.38086124E+01   # ~b_1
#    BR                NDA      ID1      ID2
     6.06005530E-02    2     1000022         5   # BR(~b_1 -> chi^0_1 b)
     1.43758248E-01    2     1000023         5   # BR(~b_1 -> chi^0_2 b)
     9.08166324E-02    2     1000025         5   # BR(~b_1 -> chi^0_3 b)
     7.33624526E-02    2     1000035         5   # BR(~b_1 -> chi^0_4 b)
     4.76806037E-01    2    -1000024         6   # BR(~b_1 -> chi^-_1 t)
     1.54656077E-01    2    -1000037         6   # BR(~b_1 -> chi^-_2 t)
DECAY   2000005     1.11909538E+02   # ~b_2
#    BR                NDA      ID1      ID2
     1.08690967E-01    2     1000022         5   # BR(~b_2 -> chi^0_1 b)
     2.40866223E-01    2     1000023         5   # BR(~b_2 -> chi^0_2 b)
     1.60544785E-01    2     1000025         5   # BR(~b_2 -> chi^0_3 b)
     5.00168964E-04    2     1000035         5   # BR(~b_2 -> chi^0_4 b)
     4.85691592E-01    2    -1000024         6   # BR(~b_2 -> chi^-_1 t)
     9.95746472E-04    2    -1000037         6   # BR(~b_2 -> chi^-_2 t)
     1.13105766E-03    2     1000006       -24   # BR(~b_2 -> ~t_1 W^-)
     5.66391639E-04    2     1000005        23   # BR(~b_2 -> ~b_1 Z)
     1.01244502E-03    2     1000005        25   # BR(~b_2 -> ~b_1 h^0)
DECAY   2000002     4.67983624E+02   # ~u_R
#    BR                NDA      ID1      ID2
     3.15956222E-02    2     1000022         2   # BR(~u_R -> chi^0_1 u)
     1.61590738E-02    2     1000025         2   # BR(~u_R -> chi^0_3 u)
     9.52153083E-01    2     1000021         2   # BR(~u_R -> ~g u)
DECAY   1000002     5.79350567E+02   # ~u_L
#    BR                NDA      ID1      ID2
     7.72233730E-04    2     1000022         2   # BR(~u_L -> chi^0_1 u)
     2.43313152E-03    2     1000025         2   # BR(~u_L -> chi^0_3 u)
     7.40885043E-02    2     1000035         2   # BR(~u_L -> chi^0_4 u)
     2.52421041E-03    2     1000024         1   # BR(~u_L -> chi^+_1 d)
     1.47416548E-01    2     1000037         1   # BR(~u_L -> chi^+_2 d)
     7.72676443E-01    2     1000021         2   # BR(~u_L -> ~g u)
DECAY   2000004     4.67991008E+02   # ~c_R
#    BR                NDA      ID1      ID2
     3.15962590E-02    2     1000022         4   # BR(~c_R -> chi^0_1 c)
     1.61614686E-02    2     1000025         4   # BR(~c_R -> chi^0_3 c)
     9.52138369E-01    2     1000021         4   # BR(~c_R -> ~g c)
DECAY   1000004     5.79400111E+02   # ~c_L
#    BR                NDA      ID1      ID2
     7.73080782E-04    2     1000022         4   # BR(~c_L -> chi^0_1 c)
     2.43507428E-03    2     1000025         4   # BR(~c_L -> chi^0_3 c)
     7.40823023E-02    2     1000035         4   # BR(~c_L -> chi^0_4 c)
     2.60080627E-03    2     1000024         3   # BR(~c_L -> chi^+_1 s)
     1.47404273E-01    2     1000037         3   # BR(~c_L -> chi^+_2 s)
     7.72612393E-01    2     1000021         4   # BR(~c_L -> ~g c)
DECAY   1000006     9.49338602E+01   # ~t_1
#    BR                NDA      ID1      ID2
     4.63846872E-04    2     1000022         4   # BR(~t_1 -> chi^0_1 c)
     7.59793413E-02    2     1000022         6   # BR(~t_1 -> chi^0_1 t)
     2.42676461E-01    2     1000023         6   # BR(~t_1 -> chi^0_2 t)
     1.65095762E-01    2     1000025         6   # BR(~t_1 -> chi^0_3 t)
     6.96728441E-02    2     1000035         6   # BR(~t_1 -> chi^0_4 t)
     2.95636731E-01    2     1000024         5   # BR(~t_1 -> chi^+_1 b)
     1.40087333E-01    2     1000037         5   # BR(~t_1 -> chi^+_2 b)
#    BR                NDA      ID1      ID2       ID3
     1.03349199E-02    3     1000022        24         5   # BR(~t_1 -> chi^0_1 W^+ b)
DECAY   2000006     1.72773140E+02   # ~t_2
#    BR                NDA      ID1      ID2
     8.43834041E-02    2     1000022         6   # BR(~t_2 -> chi^0_1 t)
     1.99460168E-01    2     1000023         6   # BR(~t_2 -> chi^0_2 t)
     1.52698713E-01    2     1000025         6   # BR(~t_2 -> chi^0_3 t)
     4.54408397E-03    2     1000035         6   # BR(~t_2 -> chi^0_4 t)
     3.90205199E-01    2     1000024         5   # BR(~t_2 -> chi^+_1 b)
     9.13502296E-03    2     1000037         5   # BR(~t_2 -> chi^+_2 b)
     7.16456351E-02    2     1000005        24   # BR(~t_2 -> ~b_1 W^+)
     3.56962369E-02    2     1000006        23   # BR(~t_2 -> ~t_1 Z)
     5.22315372E-02    2     1000006        25   # BR(~t_2 -> ~t_1 h^0)
DECAY   1000024     2.90271487E-04   # chi^+_1
#    BR                NDA      ID1      ID2       ID3
     3.33621513E-01    3     1000022        -1         2   # BR(chi^+_1 -> chi^0_1 d_bar u)
     3.32477911E-01    3     1000022        -3         4   # BR(chi^+_1 -> chi^0_1 s_bar c)
     1.11250064E-01    3     1000022       -11        12   # BR(chi^+_1 -> chi^0_1 e^+ nu_e)
     1.11249072E-01    3     1000022       -13        14   # BR(chi^+_1 -> chi^0_1 mu^+ nu_mu)
     1.11401440E-01    3     1000022       -15        16   # BR(chi^+_1 -> chi^0_1 tau^+ nu_tau)
DECAY   1000037     8.59083805E+00   # chi^+_2
#    BR                NDA      ID1      ID2
     6.02202940E-02    2     1000022        24   # BR(chi^+_2 -> chi^0_1 W^+)
     2.49989171E-01    2     1000023        24   # BR(chi^+_2 -> chi^0_2 W^+)
     1.96278785E-01    2     1000025        24   # BR(chi^+_2 -> chi^0_3 W^+)
     2.48118541E-01    2     1000024        23   # BR(chi^+_2 -> chi^+_1 Z)
     2.35302030E-01    2     1000024        25   # BR(chi^+_2 -> chi^+_1 h^0)
#    BR                NDA      ID1      ID2       ID3
     2.56404321E-03    3     1000024         6        -6   # BR(chi^+_2 -> chi^+_1 t t_bar)
     1.00721073E-03    3     1000022        -5         6   # BR(chi^+_2 -> chi^0_1 b_bar t)
     3.47332372E-03    3     1000023        -5         6   # BR(chi^+_2 -> chi^0_2 b_bar t)
     2.86413843E-03    3     1000025        -5         6   # BR(chi^+_2 -> chi^0_3 b_bar t)
DECAY   1000022     0.00000000E+00   # chi^0_1
DECAY   1000023     4.37506364E-04   # chi^0_2
#    BR                NDA      ID1      ID2
     1.07712870E-02    2     1000022        22   # BR(chi^0_2 -> chi^0_1 photon)
#    BR                NDA      ID1      ID2       ID3
     1.18594100E-01    3     1000022         2        -2   # BR(chi^0_2 -> chi^0_1 u u_bar)
     1.17721906E-01    3     1000022         4        -4   # BR(chi^0_2 -> chi^0_1 c c_bar)
     1.52060942E-01    3     1000022         1        -1   # BR(chi^0_2 -> chi^0_1 d d_bar)
     1.52055627E-01    3     1000022         3        -3   # BR(chi^0_2 -> chi^0_1 s s_bar)
     1.42294349E-01    3     1000022         5        -5   # BR(chi^0_2 -> chi^0_1 b b_bar)
     3.43018736E-02    3     1000022        11       -11   # BR(chi^0_2 -> chi^0_1 e^- e^+)
     3.43011887E-02    3     1000022        13       -13   # BR(chi^0_2 -> chi^0_1 mu^- mu^+)
     3.44037925E-02    3     1000022        15       -15   # BR(chi^0_2 -> chi^0_1 tau^- tau^+)
     2.03444104E-01    3     1000022        12       -12   # BR(chi^0_2 -> chi^0_1 nu_e nu_bar_e)
DECAY   1000025     1.75828562E-05   # chi^0_3
#    BR                NDA      ID1      ID2
     4.12890400E-03    2     1000022        22   # BR(chi^0_3 -> chi^0_1 photon)
     1.84342135E-02    2     1000023        22   # BR(chi^0_3 -> chi^0_2 photon)
#    BR                NDA      ID1      ID2       ID3
     1.63467317E-02    3     1000022         2        -2   # BR(chi^0_3 -> chi^0_1 u u_bar)
     1.63040600E-02    3     1000022         4        -4   # BR(chi^0_3 -> chi^0_1 c c_bar)
     2.09453720E-02    3     1000022         1        -1   # BR(chi^0_3 -> chi^0_1 d d_bar)
     2.09451284E-02    3     1000022         3        -3   # BR(chi^0_3 -> chi^0_1 s s_bar)
     2.09995707E-02    3     1000022         5        -5   # BR(chi^0_3 -> chi^0_1 b b_bar)
     3.68992148E-03    3     1000022        11       -11   # BR(chi^0_3 -> chi^0_1 e^- e^+)
     3.69325920E-03    3     1000022        13       -13   # BR(chi^0_3 -> chi^0_1 mu^- mu^+)
     5.55672571E-03    3     1000022        15       -15   # BR(chi^0_3 -> chi^0_1 tau^- tau^+)
     2.91097571E-02    3     1000022        12       -12   # BR(chi^0_3 -> chi^0_1 nu_e nu_bar_e)
     5.38734758E-03    3     1000023         2        -2   # BR(chi^0_3 -> chi^0_2 u u_bar)
     4.73891988E-03    3     1000023         4        -4   # BR(chi^0_3 -> chi^0_2 c c_bar)
     6.90766104E-03    3     1000023         1        -1   # BR(chi^0_3 -> chi^0_2 d d_bar)
     6.90335338E-03    3     1000023         3        -3   # BR(chi^0_3 -> chi^0_2 s s_bar)
     1.74083172E-03    3     1000023         5        -5   # BR(chi^0_3 -> chi^0_2 b b_bar)
     1.55920155E-03    3     1000023        11       -11   # BR(chi^0_3 -> chi^0_2 e^- e^+)
     1.55772887E-03    3     1000023        13       -13   # BR(chi^0_3 -> chi^0_2 mu^- mu^+)
     1.21042666E-03    3     1000023        15       -15   # BR(chi^0_3 -> chi^0_2 tau^- tau^+)
     9.23569712E-03    3     1000023        12       -12   # BR(chi^0_3 -> chi^0_2 nu_e nu_bar_e)
     1.34892903E-01    3     1000024         1        -2   # BR(chi^0_3 -> chi^+_1 d u_bar)
     1.34892903E-01    3    -1000024        -1         2   # BR(chi^0_3 -> chi^-_1 d_bar u)
     1.32047236E-01    3     1000024         3        -4   # BR(chi^0_3 -> chi^+_1 s c_bar)
     1.32047236E-01    3    -1000024        -3         4   # BR(chi^0_3 -> chi^-_1 s_bar c)
     4.49596074E-02    3     1000024        11       -12   # BR(chi^0_3 -> chi^+_1 e^- nu_bar_e)
     4.49596074E-02    3    -1000024       -11        12   # BR(chi^0_3 -> chi^-_1 e^+ nu_e)
     4.49552933E-02    3     1000024        13       -14   # BR(chi^0_3 -> chi^+_1 mu^- nu_bar_mu)
     4.49552933E-02    3    -1000024       -13        14   # BR(chi^0_3 -> chi^-_1 mu^+ nu_mu)
     4.34475544E-02    3     1000024        15       -16   # BR(chi^0_3 -> chi^+_1 tau^- nu_bar_tau)
     4.34475544E-02    3    -1000024       -15        16   # BR(chi^0_3 -> chi^-_1 tau^+ nu_tau)
DECAY   1000035     1.01698813E+01   # chi^0_4
#    BR                NDA      ID1      ID2
     2.17488192E-01    2     1000024       -24   # BR(chi^0_4 -> chi^+_1 W^-)
     2.17488192E-01    2    -1000024        24   # BR(chi^0_4 -> chi^-_1 W^+)
     1.11638096E-02    2     1000022        23   # BR(chi^0_4 -> chi^0_1 Z)
     1.77291755E-01    2     1000023        23   # BR(chi^0_4 -> chi^0_2 Z)
     2.82342627E-02    2     1000025        23   # BR(chi^0_4 -> chi^0_3 Z)
     3.63936854E-02    2     1000022        25   # BR(chi^0_4 -> chi^0_1 h^0)
     1.78779150E-01    2     1000023        25   # BR(chi^0_4 -> chi^0_2 h^0)
     1.23669894E-01    2     1000025        25   # BR(chi^0_4 -> chi^0_3 h^0)
#    BR                NDA      ID1      ID2       ID3
     2.32142851E-04    3     1000022         6        -6   # BR(chi^0_4 -> chi^0_1 t t_bar)
     8.64026049E-04    3     1000023         6        -6   # BR(chi^0_4 -> chi^0_2 t t_bar)
     5.57882462E-04    3     1000025         6        -6   # BR(chi^0_4 -> chi^0_3 t t_bar)
     3.78997533E-03    3     1000024         5        -6   # BR(chi^0_4 -> chi^+_1 b t_bar)
     3.78997533E-03    3    -1000024        -5         6   # BR(chi^0_4 -> chi^-_1 b_bar t)
DECAY   1000021     2.65176037E+02   # ~g
#    BR                NDA      ID1      ID2
     7.38499258E-02    2     1000006        -4   # BR(~g -> ~t_1 c_bar)
     7.38499258E-02    2    -1000006         4   # BR(~g -> ~t^*_1 c)
     1.71575805E-01    2     1000006        -6   # BR(~g -> ~t_1 t_bar)
     1.71575805E-01    2    -1000006         6   # BR(~g -> ~t^*_1 t)
     7.56902974E-02    2     2000006        -6   # BR(~g -> ~t_2 t_bar)
     7.56902974E-02    2    -2000006         6   # BR(~g -> ~t^*_2 t)
     1.70051073E-01    2     1000005        -5   # BR(~g -> ~b_1 b_bar)
     1.70051073E-01    2    -1000005         5   # BR(~g -> ~b^*_1 b)
     8.78079694E-03    2     2000005        -5   # BR(~g -> ~b_2 b_bar)
     8.78079694E-03    2    -2000005         5   # BR(~g -> ~b^*_2 b)
#    BR                NDA      ID1      ID2       ID3
DECAY        25     3.07961742E-03   # Gamma(h0)
     2.69331947E-03   2        22        22   # BR(h0 -> photon photon)
     1.47028095E-03   2        22        23   # BR(h0 -> photon Z)
     2.47119800E-02   2        23        23   # BR(h0 -> Z Z)
     2.15461880E-01   2       -24        24   # BR(h0 -> W W)
     8.59652807E-02   2        21        21   # BR(h0 -> gluon gluon)
     5.15119293E-09   2       -11        11   # BR(h0 -> Electron electron)
     2.29132841E-04   2       -13        13   # BR(h0 -> Muon muon)
     6.60645236E-02   2       -15        15   # BR(h0 -> Tau tau)
     1.47276217E-07   2        -2         2   # BR(h0 -> Up up)
     2.85831376E-02   2        -4         4   # BR(h0 -> Charm charm)
     5.99128804E-07   2        -1         1   # BR(h0 -> Down down)
     2.16689775E-04   2        -3         3   # BR(h0 -> Strange strange)
     5.74603024E-01   2        -5         5   # BR(h0 -> Bottom bottom)
DECAY        35     1.17742424E+02   # Gamma(HH)
     2.91335690E-08   2        22        22   # BR(HH -> photon photon)
     5.92269228E-08   2        22        23   # BR(HH -> photon Z)
     6.36860303E-08   2        23        23   # BR(HH -> Z Z)
     1.39890060E-08   2       -24        24   # BR(HH -> W W)
     4.81074308E-06   2        21        21   # BR(HH -> gluon gluon)
     8.17119636E-09   2       -11        11   # BR(HH -> Electron electron)
     3.63851518E-04   2       -13        13   # BR(HH -> Muon muon)
     1.08486750E-01   2       -15        15   # BR(HH -> Tau tau)
     2.76141401E-14   2        -2         2   # BR(HH -> Up up)
     5.35695122E-09   2        -4         4   # BR(HH -> Charm charm)
     3.31040169E-04   2        -6         6   # BR(HH -> Top top)
     6.49627580E-07   2        -1         1   # BR(HH -> Down down)
     2.34945292E-04   2        -3         3   # BR(HH -> Strange strange)
     4.99919356E-01   2        -5         5   # BR(HH -> Bottom bottom)
     4.84697271E-03   2  -1000024   1000024   # BR(HH -> Chargino1 chargino1)
     1.12910273E-01   2  -1000024   1000037   # BR(HH -> Chargino1 chargino2)
     1.12910273E-01   2  -1000037   1000024   # BR(HH -> Chargino2 chargino1)
     5.03044134E-04   2  -1000037   1000037   # BR(HH -> Chargino2 chargino2)
     1.17503546E-02   2   1000022   1000022   # BR(HH -> neutralino1 neutralino1)
     1.22141171E-02   2   1000022   1000023   # BR(HH -> neutralino1 neutralino2)
     4.10482546E-03   2   1000022   1000025   # BR(HH -> neutralino1 neutralino3)
     1.96992135E-02   2   1000022   1000035   # BR(HH -> neutralino1 neutralino4)
     5.22239787E-04   2   1000023   1000023   # BR(HH -> neutralino2 neutralino2)
     4.92607779E-03   2   1000023   1000025   # BR(HH -> neutralino2 neutralino3)
     5.77075279E-02   2   1000023   1000035   # BR(HH -> neutralino2 neutralino4)
     4.27444210E-03   2   1000025   1000025   # BR(HH -> neutralino3 neutralino3)
     3.71166294E-02   2   1000025   1000035   # BR(HH -> neutralino3 neutralino4)
     2.54740356E-04   2   1000035   1000035   # BR(HH -> neutralino4 neutralino4)
     6.87245893E-07   2        25        25   # BR(HH -> h0 h0)
     2.17236626E-08   2  -1000011   1000011   # BR(HH -> Selectron1 selectron1)
     2.19015071E-14   2  -2000011   1000011   # BR(HH -> Selectron2 selectron1)
     2.19015071E-14   2  -1000011   2000011   # BR(HH -> Selectron1 selectron2)
     1.35666643E-08   2  -2000011   2000011   # BR(HH -> Selectron2 selectron2)
     2.12934969E-08   2  -1000013   1000013   # BR(HH -> Smuon1 smuon1)
     9.35931686E-10   2  -2000013   1000013   # BR(HH -> Smuon2 smuon1)
     9.35931686E-10   2  -1000013   2000013   # BR(HH -> Smuon1 smuon2)
     1.35308297E-08   2  -2000013   2000013   # BR(HH -> Smuon2 smuon2)
     4.25723105E-06   2  -1000015   1000015   # BR(HH -> Stau1 stau1)
     3.45517420E-03   2  -2000015   1000015   # BR(HH -> Stau2 stau1)
     3.45517420E-03   2  -1000015   2000015   # BR(HH -> Stau1 stau2)
     2.13185307E-06   2  -2000015   2000015   # BR(HH -> Stau2 stau2)
DECAY        36     1.12365447E+02   # Gamma(A0)
     8.02520758E-10   2        22        22   # BR(A0 -> photon photon)
     1.55601715E-08   2        22        23   # BR(A0 -> photon Z)
     8.92693194E-06   2        21        21   # BR(A0 -> gluon gluon)
     7.91732202E-09   2       -11        11   # BR(A0 -> Electron electron)
     3.52544018E-04   2       -13        13   # BR(A0 -> Muon muon)
     1.05117031E-01   2       -15        15   # BR(A0 -> Tau tau)
     2.56728061E-14   2        -2         2   # BR(A0 -> Up up)
     4.98015515E-09   2        -4         4   # BR(A0 -> Charm charm)
     3.08997067E-04   2        -6         6   # BR(A0 -> Top top)
     6.29431360E-07   2        -1         1   # BR(A0 -> Down down)
     2.27640635E-04   2        -3         3   # BR(A0 -> Strange strange)
     4.84355331E-01   2        -5         5   # BR(A0 -> Bottom bottom)
     5.11963685E-03   2  -1000024   1000024   # BR(A0 -> Chargino1 chargino1)
     1.18361566E-01   2  -1000024   1000037   # BR(A0 -> Chargino1 chargino2)
     1.18361566E-01   2  -1000037   1000024   # BR(A0 -> Chargino2 chargino1)
     5.60971145E-04   2  -1000037   1000037   # BR(A0 -> Chargino2 chargino2)
     1.17980863E-02   2   1000022   1000022   # BR(A0 -> neutralino1 neutralino1)
     1.36625239E-02   2   1000022   1000023   # BR(A0 -> neutralino1 neutralino2)
     4.05309126E-03   2   1000022   1000025   # BR(A0 -> neutralino1 neutralino3)
     2.11927673E-02   2   1000022   1000035   # BR(A0 -> neutralino1 neutralino4)
     6.20252971E-04   2   1000023   1000023   # BR(A0 -> neutralino2 neutralino2)
     5.22130496E-03   2   1000023   1000025   # BR(A0 -> neutralino2 neutralino3)
     5.91318190E-02   2   1000023   1000035   # BR(A0 -> neutralino2 neutralino4)
     4.28392058E-03   2   1000025   1000025   # BR(A0 -> neutralino3 neutralino3)
     3.97305297E-02   2   1000025   1000035   # BR(A0 -> neutralino3 neutralino4)
     2.84576419E-04   2   1000035   1000035   # BR(A0 -> neutralino4 neutralino4)
     1.35999460E-07   2        23        25   # BR(A0 -> Z h0)
     3.62069062E-13   2        23        35   # BR(A0 -> Z HH)
     6.88775966E-40   2        25        25   # BR(A0 -> h0 h0)
     2.24273585E-14   2  -2000011   1000011   # BR(A0 -> Selectron2 selectron1)
     2.24273585E-14   2  -1000011   2000011   # BR(A0 -> Selectron1 selectron2)
     9.58839667E-10   2  -2000013   1000013   # BR(A0 -> Smuon2 smuon1)
     9.58839667E-10   2  -1000013   2000013   # BR(A0 -> Smuon1 smuon2)
     3.62305945E-03   2  -2000015   1000015   # BR(A0 -> Stau2 stau1)
     3.62305945E-03   2  -1000015   2000015   # BR(A0 -> Stau1 stau2)
DECAY        37     1.39469156E+02   # Gamma(Hp)
     1.04331354E-08   2       -11        12   # BR(Hp -> Electron nu_e)
     4.46049125E-04   2       -13        14   # BR(Hp -> Muon nu_mu)
     1.26168092E-01   2       -15        16   # BR(Hp -> Tau nu_tau)
     6.29587815E-07   2        -1         2   # BR(Hp -> Down up)
     1.06563412E-05   2        -3         2   # BR(Hp -> Strange up)
     5.74396540E-06   2        -5         2   # BR(Hp -> Bottom up)
     2.97652475E-08   2        -1         4   # BR(Hp -> Down charm)
     2.26876412E-04   2        -3         4   # BR(Hp -> Strange charm)
     8.04360788E-04   2        -5         4   # BR(Hp -> Bottom charm)
     3.06681899E-08   2        -1         6   # BR(Hp -> Down top)
     1.00643643E-06   2        -3         6   # BR(Hp -> Strange top)
     5.42670764E-01   2        -5         6   # BR(Hp -> Bottom top)
     1.94879838E-02   2   1000022   1000024   # BR(Hp -> neutralino1 chargino1)
     3.42959805E-02   2   1000022   1000037   # BR(Hp -> neutralino1 chargino2)
     5.58284704E-04   2   1000023   1000024   # BR(Hp -> neutralino2 chargino1)
     9.55987904E-02   2   1000023   1000037   # BR(Hp -> neutralino2 chargino2)
     1.32077286E-02   2   1000024   1000025   # BR(Hp -> chargino1 neutralino3)
     6.47347443E-02   2   1000025   1000037   # BR(Hp -> neutralino3 chargino2)
     9.59401421E-02   2   1000024   1000035   # BR(Hp -> chargino1 neutralino4)
     1.03263154E-08   2   1000035   1000037   # BR(Hp -> neutralino4 chargino2)
     1.09540083E-07   2        24        25   # BR(Hp -> W h0)
     2.73190332E-14   2        24        35   # BR(Hp -> W HH)
     7.20500937E-08   2  -1000011   1000012   # BR(Hp -> Selectron1 snu_e1)
     4.15768209E-14   2  -2000011   1000012   # BR(Hp -> Selectron2 snu_e1)
     7.15326876E-08   2  -1000013   1000014   # BR(Hp -> Smuon1 snu_mu1)
     1.77683557E-09   2  -2000013   1000014   # BR(Hp -> Smuon2 snu_mu1)
     5.84063698E-03   2  -1000015   1000016   # BR(Hp -> Stau1 snu_tau1)
     1.19368717E-06   2  -2000015   1000016   # BR(Hp -> Stau2 snu_tau1)
DECAY         6     2.43000000E+00   # top
#    BR                NDA      ID1      ID2
     1.00000000E+00    2           5        24   # BR(t -> b W)
Block HiggsBoundsInputHiggsCouplingsFermions
# ScalarNormEffCoupSq PseudoSNormEffCoupSq NP IP1 IP2 IP2
    9.62690149E-01    0.00000000E+00        3  25   5   5  # h0-b-b eff. coupling^2, normalised to SM
    2.18302846E+03    0.00000000E+00        3  35   5   5  # H0-b-b eff. coupling^2, normalised to SM
    0.00000000E+00    2.18299115E+03        3  36   5   5  # A0-b-b eff. coupling^2, normalised to SM
#
    1.00001709E+00    0.00000000E+00        3  25   6   6  # h0-t-t eff. coupling^2, normalised to SM
    4.40995901E-04    0.00000000E+00        3  35   6   6  # H0-t-t eff. coupling^2, normalised to SM
    0.00000000E+00    4.58087062E-04        3  36   6   6  # A0-t-t eff. coupling^2, normalised to SM
#
    9.62690149E-01    0.00000000E+00        3  25  15  15  # h0-tau-tau eff. coupling^2, normalised to SM
    2.18302846E+03    0.00000000E+00        3  35  15  15  # H0-tau-tau eff. coupling^2, normalised to SM
    0.00000000E+00    2.18299115E+03        3  36  15  15  # A0-tau-tau eff. coupling^2, normalised to SM
#
Block HiggsBoundsInputHiggsCouplingsBosons
    9.99999838E-01        3  25  24  24  # h0-W-W eff. coupling^2, normalised to SM
    1.62460887E-07        3  35  24  24  # H0-W-W eff. coupling^2, normalised to SM
    0.00000000E+00        3  36  24  24  # A0-W-W eff. coupling^2, normalised to SM
#
    9.99999838E-01        3  25  23  23  # h0-Z-Z eff. coupling^2, normalised to SM
    1.62460887E-07        3  35  23  23  # H0-Z-Z eff. coupling^2, normalised to SM
    0.00000000E+00        3  36  23  23  # A0-Z-Z eff. coupling^2, normalised to SM
#
    1.26500460E+00        3  25  21  21  # h0-g-g eff. coupling^2, normalised to SM
    9.20126441E-03        3  35  21  21  # H0-g-g eff. coupling^2, normalised to SM
    1.29584410E-01        3  36  21  21  # A0-g-g eff. coupling^2, normalised to SM
#
    0.00000000E+00        3  25  25  23  # h0-h0-Z eff. coupling^2, normalised to SM
    0.00000000E+00        3  35  25  23  # H0-h0-Z eff. coupling^2, normalised to SM
    1.62460887E-07        3  36  25  23  # A0-h0-Z eff. coupling^2, normalised to SM
    0.00000000E+00        3  35  35  23  # H0-H0-Z eff. coupling^2, normalised to SM
    9.99999838E-01        3  36  35  23  # A0-H0-Z eff. coupling^2, normalised to SM
    0.00000000E+00        3  36  36  23  # A0-A0-Z eff. coupling^2, normalised to SM
#
    0.00000000E+00        4  25  21  21  23  # h0-g-g-Z eff. coupling^2, normalised to SM
    0.00000000E+00        4  35  21  21  23  # H0-g-g-Z eff. coupling^2, normalised to SM
    0.00000000E+00        4  36  21  21  23  # A0-g-g-Z eff. coupling^2, normalised to SM
Block SPhenoLowEnergy  # low energy observables
    1    3.26769695E-04   # BR(b -> s gamma)
    2    1.58904302E-06   # BR(b -> s mu+ mu-)
    3    3.52418312E-05   # BR(b -> s nu nu)
    4    2.60501713E-15   # BR(Bd -> e+ e-)
    5    1.11283630E-10   # BR(Bd -> mu+ mu-)
    6    2.33096290E-08   # BR(Bd -> tau+ tau-)
    7    8.71412019E-14   # BR(Bs -> e+ e-)
    8    3.72267889E-09   # BR(Bs -> mu+ mu-)
    9    7.90127505E-07   # BR(Bs -> tau+ tau-)
   10    9.59370600E-05   # BR(B_u -> tau nu)
   11    9.90993101E-01   # BR(B_u -> tau nu)/BR(B_u -> tau nu)_SM
   12    5.42022790E-01   # |Delta(M_Bd)| [ps^-1] 
   13    1.93625471E+01   # |Delta(M_Bs)| [ps^-1] 
   14    0.00000000E+00   # neutron EDM according to the chiral quark model
   15    0.00000000E+00   # neutron EDM according to the relativistic quark-parton model
   16    2.15763969E-03   # epsilon_K
   17    2.28166230E-15   # Delta(M_K)
   18    2.47917921E-11   # BR(K^0 -> pi^0 nu nu)
   19    8.28857408E-11   # BR(K^+ -> pi^+ nu nu)
   20   -1.02017310E-14   # Delta(g-2)_electron/2
   21   -4.36264882E-10   # Delta(g-2)_muon/2
   22   -9.78946964E-08   # Delta(g-2)_tau/2
   23    0.00000000E+00   # electric dipole moment of the electron
   24    0.00000000E+00   # electric dipole moment of the muon
   25    0.00000000E+00   # electric dipole moment of the tau
   26    0.00000000E+00   # Br(mu -> e gamma)
   27    0.00000000E+00   # Br(tau -> e gamma)
   28    0.00000000E+00   # Br(tau -> mu gamma)
   29    0.00000000E+00   # Br(mu -> 3 e)
   30    0.00000000E+00   # Br(tau -> 3 e)
   31    0.00000000E+00   # Br(tau -> 3 mu)
   39    7.78977133E-05   # Delta(rho_parameter)
   40    0.00000000E+00   # BR(Z -> e mu)
   41    0.00000000E+00   # BR(Z -> e tau)
   42    0.00000000E+00   # BR(Z -> mu tau)
Block FWCOEF Q=  1.60000000E+02  # Wilson coefficients at scale Q
#    id        order  M        value         comment
     0305 4422   00   0    -1.88819110E-01   # C7
     0305 4422   00   2    -1.96067730E-01   # C7
     0305 4322   00   2    -1.11696365E-04   # C7'
     0305 6421   00   0    -9.52278348E-02   # C8
     0305 6421   00   2    -1.02064292E-01   # C8
     0305 6321   00   2    -1.23724466E-04   # C8'
 03051111 4133   00   0     1.61562996E+00   # C9 e+e-
 03051111 4133   00   2     1.61597507E+00   # C9 e+e-
 03051111 4233   00   2     4.83059508E-04   # C9' e+e-
 03051111 4137   00   0    -4.43832206E+00   # C10 e+e-
 03051111 4137   00   2    -4.43569237E+00   # C10 e+e-
 03051111 4237   00   2    -3.63192614E-03   # C10' e+e-
 03051313 4133   00   0     1.61562996E+00   # C9 mu+mu-
 03051313 4133   00   2     1.61597312E+00   # C9 mu+mu-
 03051313 4233   00   2     4.83057933E-04   # C9' mu+mu-
 03051313 4137   00   0    -4.43832206E+00   # C10 mu+mu-
 03051313 4137   00   2    -4.43569432E+00   # C10 mu+mu-
 03051313 4237   00   2    -3.63192998E-03   # C10' mu+mu-
 03051212 4137   00   0     1.50535012E+00   # C11 nu_1 nu_1
 03051212 4137   00   2     1.50478984E+00   # C11 nu_1 nu_1
 03051212 4237   00   2     7.87312706E-04   # C11' nu_1 nu_1
 03051414 4137   00   0     1.50535012E+00   # C11 nu_2 nu_2
 03051414 4137   00   2     1.50478984E+00   # C11 nu_2 nu_2
 03051414 4237   00   2     7.87312755E-04   # C11' nu_2 nu_2
 03051616 4137   00   0     1.50535012E+00   # C11 nu_3 nu_3
 03051616 4137   00   2     1.50479002E+00   # C11 nu_3 nu_3
 03051616 4237   00   2     7.87326832E-04   # C11' nu_3 nu_3
Block IMFWCOEF Q=  1.60000000E+02  # Im(Wilson coefficients) at scale Q
#    id        order  M        value         comment
     0305 4422   00   0     3.85802036E-07   # C7
     0305 4422   00   2    -1.20222767E-05   # C7
     0305 4322   00   2    -4.62835081E-07   # C7'
     0305 6421   00   0     3.30464958E-07   # C8
     0305 6421   00   2    -6.11790866E-06   # C8
     0305 6321   00   2    -2.02006876E-07   # C8'
 03051111 4133   00   2    -1.62939347E-07   # C9 e+e-
 03051111 4233   00   2     9.28337961E-06   # C9' e+e-
 03051111 4137   00   2     4.82747404E-07   # C10 e+e-
 03051111 4237   00   2    -6.98016754E-05   # C10' e+e-
 03051313 4133   00   2    -1.62984636E-07   # C9 mu+mu-
 03051313 4233   00   2     9.28335577E-06   # C9' mu+mu-
 03051313 4137   00   2     4.82791473E-07   # C10 mu+mu-
 03051313 4237   00   2    -6.98017482E-05   # C10' mu+mu-
 03051212 4137   00   2     6.92321698E-08   # C11 nu_1 nu_1
 03051212 4237   00   2     1.51312996E-05   # C11' nu_1 nu_1
 03051414 4137   00   2     6.92318024E-08   # C11 nu_2 nu_2
 03051414 4237   00   2     1.51312996E-05   # C11' nu_2 nu_2
 03051616 4137   00   2     6.88091049E-08   # C11 nu_3 nu_3
 03051616 4237   00   2     1.51313014E-05   # C11' nu_3 nu_3
