BLOCK SPINFO
   1   SPheno
   2   v4.0.5be

BLOCK SPHENOINFO
   1   2
   2   2

BLOCK MODSEL
   1   0

BLOCK MINPAR
   3    50.107104
   4   -1

BLOCK EXTPAR
   0    1366.1351
   1    943.14879
   2   -373.8716
   3    3000
   11   -3903.67
   12    383.60145
   13    1312.7659
   23   -540.28539
   25    49.689486
   26    2794.053
   31    1988.8084
   32    1988.8084
   33    939.51149
   34    1152.5383
   35    1152.5383
   36    1094.0197
   41    5000
   42    5000
   43    1905.0062
   44    5000
   45    5000
   46    1104.5721
   47    5000
   48    5000
   49    1859.402

BLOCK SMINPUTS
   1    127.90897
   2    1.1663787e-05
   3    0.1184
   4    91.1876
   5    4.18
   6    173.2
   7    1.777
   8    0
   11    0.00051099893
   12    0
   13    0.10565837
   14    0
   21    0.005
   22    0.0025
   23    0.095
   24    1.27

BLOCK GAUGE Q=  1366.1351
   1    0.35536298
   2    0.66519887
   3    1.219778

BLOCK YU Q=  1366.1351
   1   1    8.3860699e-06
   2   2    0.0042601235
   3   3    1.0131046

BLOCK YD Q=  1366.1351
   1   1    0.00083734268
   2   2    0.015909511
   3   3    0.83038155

BLOCK YE Q=  1366.1351
   1   1    0.00014612242
   2   2    0.030213482
   3   3    0.50814107

BLOCK AU Q=  1366.1351
   1   1    0
   2   2    0
   3   3   -3903.6699

BLOCK AD Q=  1366.1351
   1   1    0
   2   2    0
   3   3    383.6014

BLOCK AE Q=  1366.1351
   1   1    0
   2   2    0
   3   3    1312.7659

BLOCK MSOFT Q=  1366.1351
   1    943.14879
   2   -373.8716
   3    3000
   21    7589102.3
   22   -280567.41
   31    1988.8084
   32    1988.8084
   33    939.51149
   34    1152.5383
   35    1152.5383
   36    1094.0197
   41    5000
   42    5000
   43    1905.0062
   44    5000
   45    5000
   46    1104.5721
   47    5000
   48    5000
   49    1859.402

BLOCK MASS
   6    173.2
   23    91.1876
   24    80.429995
   15    1.777
   25    124.08147
   35    2791.4928
   36    2794.053
   37    2793.3362
   1000001    5025.0285
   2000001    5014.3168
   1000002    5024.5898
   2000002    5015.971
   1000003    5025.0374
   2000003    5014.3293
   1000004    5024.5974
   2000004    5015.9719
   1000005    1856.4726
   2000005    1889.8739
   1000006    976.79837
   2000006    1910.6554
   1000011    1993.5916
   2000011    1155.6609
   1000012    1991.6532
   1000013    1993.5843
   2000013    1155.6513
   1000014    1991.6452
   1000015    939.86954
   2000015    1099.0775
   1000016    941.09554
   1000021    3184.187
   1000022   -384.51691
   1000023    546.84194
   1000025   -567.55194
   1000035    945.70205
   1000024    384.93625
   1000037    569.86098

BLOCK ALPHA
      -0.020009973

BLOCK HMIX Q=  1366.1351
   1   -540.28539
   2    49.689486
   3    244.07329
   4    7806732

BLOCK STOPMIX
   1   1    0.2128375
   1   2    0.97708761
   2   1   -0.97708761
   2   2    0.2128375

BLOCK SBOTMIX
   1   1   -0.6764091
   1   2    0.73652612
   2   1   -0.73652612
   2   2   -0.6764091

BLOCK STAUMIX
   1   1   -0.98655496
   1   2    0.16342984
   2   1   -0.16342984
   2   2   -0.98655496

BLOCK NMIX
   1   1    0.0065764526
   1   2    0.94366114
   1   3    0.27004635
   1   4   -0.19114227
   2   1    0.078233501
   2   2    0.058208655
   2   3   -0.70355481
   2   4   -0.70391896
   3   1    0.020629782
   3   2   -0.32572837
   3   3    0.65612244
   3   4   -0.68042545
   4   1   -0.9966999
   4   2    0.0040534814
   4   3   -0.039861493
   4   4   -0.070597089

BLOCK UMIX
   1   1   -0.92609712
   1   2   -0.3772852
   2   1   -0.3772852
   2   2    0.92609712

BLOCK VMIX
   1   1    0.96366083
   1   2    0.2671288
   2   1    0.2671288
   2   2   -0.96366083

BLOCK HIGGSBOUNDSINPUTHIGGSCOUPLINGSFERMIONS
       0, 2469.045,3,36,15,15

BLOCK HIGGSBOUNDSINPUTHIGGSCOUPLINGSBOSONS
       0,4,36,21,21,23

BLOCK SPHENOLOWENERGY
   1    0.00041195703
   2    1.5883143e-06
   3    3.5217516e-05
   4    1.1359226e-15
   5    4.8494264e-11
   6    8.3674014e-09
   7    3.8351328e-14
   8    1.6373505e-09
   9    2.8809885e-07
   10    9.3857994e-05
   11    0.96951715
   12    0.54419097
   13    19.412187
   14    0
   15    0
   16    0.0021740533
   17    2.2818307e-15
   18    2.4794114e-11
   19    8.2880994e-11
   20    6.5243294e-15
   21    2.7894003e-10
   22    1.6240613e-07
   23    0
   24    0
   25    0
   26    0
   27    0
   28    0
   29    0
   30    0
   31    0
   39    8.5850787e-05
   40    0
   41    0
   42    0

BLOCK FWCOEF Q=  160
   305   4422   0   0   -0.18881911
   305   4422   0   2   -0.28942169
   305   4322   0   2   -0.0007565393
   305   6421   0   0   -0.095227835
   305   6421   0   2   -0.15432514
   305   6321   0   2   -0.00045583508
   3051111   4133   0   0    1.58927
   3051111   4133   0   2    1.5901341
   3051111   4233   0   2    0.00033150234
   3051111   4137   0   0   -4.4119621
   3051111   4137   0   2   -4.406906
   3051111   4237   0   2   -0.0025909098
   3051313   4133   0   0    1.58927
   3051313   4133   0   2    1.5901298
   3051313   4233   0   2    0.0003314995
   3051313   4137   0   0   -4.4119621
   3051313   4137   0   2   -4.4069103
   3051313   4237   0   2   -0.0025909138
   3051212   4137   0   0    1.5053501
   3051212   4137   0   2    1.5042613
   3051212   4237   0   2    0.00056500238
   3051414   4137   0   0    1.5053501
   3051414   4137   0   2    1.5042613
   3051414   4237   0   2    0.00056500258
   3051616   4137   0   0    1.5053501
   3051616   4137   0   2    1.5042631
   3051616   4237   0   2    0.00056505834

BLOCK IMFWCOEF Q=  160
   305   4422   0   0    3.8563596e-07
   305   4422   0   2    2.2181787e-05
   305   4322   0   2   -1.1092585e-05
   305   6421   0   0    3.303227e-07
   305   6421   0   2    1.8795849e-05
   305   6321   0   2   -5.0003976e-06
   3051111   4133   0   2   -3.1681633e-06
   3051111   4233   0   2    7.0954571e-06
   3051111   4137   0   2    3.0869568e-05
   3051111   4237   0   2   -5.5470887e-05
   3051313   4133   0   2   -3.1681694e-06
   3051313   4233   0   2    7.0954235e-06
   3051313   4137   0   2    3.0869642e-05
   3051313   4237   0   2   -5.5470976e-05
   3051212   4137   0   2   -6.4730035e-06
   3051212   4237   0   2    1.2096599e-05
   3051414   4137   0   2   -6.4730019e-06
   3051414   4237   0   2    1.2096599e-05
   3051616   4137   0   2   -6.4408222e-06
   3051616   4237   0   2    1.2096597e-05

DECAY 23  2.4952


DECAY 24  2.085


DECAY 2000011  0.65255315
    0.9647095   2    1000035    11
    0.032804834   2    1000023    11
    0.0021808066   2    1000025    11
    0.00030440746   2    1000022    11

DECAY 1000011  25.634564
    0.54419457   2   -1000024    12
    0.28467171   2    1000022    11
    0.082175886   2   -1000037    12
    0.057400823   2    1000035    11
    0.028629522   2    1000025    11
    0.0029274927   2    1000023    11

DECAY 2000013  0.67785038
    0.9286397   2    1000035    13
    0.040814547   2    1000023    13
    0.015210761   2   -1000037    14
    0.0097729534   2    1000025    13
    0.0034835126   2   -1000024    14
    0.0020785286   2    1000022    13

DECAY 1000013  25.666286
    0.54351966   2   -1000024    14
    0.28441423   2    1000022    13
    0.08207391   2   -1000037    14
    0.057330803   2    1000035    13
    0.029106544   2    1000025    13
    0.0035208758   2    1000023    13

DECAY 1000015  10.438877
    0.5067349   2   -1000024    16
    0.28785778   2    1000022    15
    0.10121336   2    1000023    15
    0.083325119   2    1000025    15
    0.02086884   2   -1000037    16

DECAY 2000015  7.2154745
    0.41360568   2   -1000037    16
    0.22344177   2    1000023    15
    0.20985792   2    1000025    15
    0.050678996   2    1000035    15
    0.040406256   2    1000016   -24
    0.018251246   2   -1000024    16
    0.017342194   2    1000015    23
    0.015749663   2    1000015    25
    0.010666275   2    1000022    15

DECAY 1000012  25.678954
    0.58755723   2    1000024    11
    0.27966459   2    1000022    12
    0.058949203   2    1000035    12
    0.041069759   2    1000037    11
    0.032680585   2    1000025    12

DECAY 1000014  25.709746
    0.58703591   2    1000024    13
    0.27932834   2    1000022    14
    0.058878085   2    1000035    14
    0.042037862   2    1000037    13
    0.032641266   2    1000025    14

DECAY 1000016  10.441802
    0.55599332   2    1000024    15
    0.24333529   2    1000022    16
    0.18241081   2    1000037    15
    0.018213689   2    1000025    16

DECAY 2000001  143.55258
    0.9818545   2    1000021    1
    0.018019093   2    1000035    1
    0.00011677045   2    1000023    1

DECAY 1000001  208.17093
    0.68243437   2    1000021    1
    0.18011615   2   -1000024    2
    0.093276967   2    1000022    1
    0.029474613   2   -1000037    2
    0.01123642   2    1000025    1
    0.0032579249   2    1000035    1
    0.00020355608   2    1000023    1

DECAY 2000003  143.60305
    0.98151844   2    1000021    3
    0.018013068   2    1000035    3
    0.00020147238   2    1000023    3
    0.0001469314   2   -1000037    4

DECAY 1000003  208.19838
    0.68234882   2    1000021    3
    0.18009328   2   -1000024    4
    0.093273585   2    1000022    3
    0.029478725   2   -1000037    4
    0.011285797   2    1000025    3
    0.0032576803   2    1000035    3
    0.00026210742   2    1000023    3

DECAY 1000005  90.425901
    0.37218575   2    1000006   -24
    0.18366196   2   -1000037    6
    0.16257691   2   -1000024    6
    0.11500228   2    1000023    5
    0.089475286   2    1000022    5
    0.074577522   2    1000025    5
    0.0025202858   2    1000035    5

DECAY 2000005  105.59248
    0.41531251   2    1000006   -24
    0.31030909   2   -1000037    6
    0.1164988   2    1000025    5
    0.10331783   2    1000023    5
    0.030322998   2   -1000024    6
    0.019025544   2    1000022    5
    0.0052132263   2    1000035    5

DECAY 2000002  151.54266
    0.93122248   2    1000021    2
    0.068301991   2    1000035    2
    0.00044171512   2    1000023    2

DECAY 1000002  208.1671
    0.68222747   2    1000021    2
    0.19501018   2    1000024    1
    0.093734473   2    1000022    2
    0.014774964   2    1000037    1
    0.010739836   2    1000025    2
    0.0029732017   2    1000035    2
    0.00053987609   2    1000023    2

DECAY 2000004  151.54623
    0.93120077   2    1000021    4
    0.068300454   2    1000035    4
    0.00044748   2    1000023    4

DECAY 1000004  208.19432
    0.68214172   2    1000021    4
    0.19500201   2    1000024    3
    0.093722675   2    1000022    4
    0.014874364   2    1000037    3
    0.010742352   2    1000025    4
    0.0029728555   2    1000035    4
    0.00054402816   2    1000023    4

DECAY 1000006  15.762099
    0.54333005   2    1000037    5
    0.21819923   2    1000023    6
    0.20911477   2    1000025    6
    0.018383707   2    1000024    5
    0.007576182   2    1000022    6
    0.0033799784   2    1000022    4

DECAY 2000006  167.47979
    0.2930196   2    1000006    25
    0.24304461   2    1000006    23
    0.11721377   2    1000024    5
    0.10656096   2    1000037    5
    0.098777048   2    1000023    6
    0.083522522   2    1000025    6
    0.055117092   2    1000022    6
    0.0027443929   2    1000035    6

DECAY 1000024  2.2000721e-13
    0.82720501   2    1000022    211
    0.099434102   3    1000022   -11    12
    0.073360888   3    1000022   -13    14

DECAY 1000037  2.2697379
    0.50934237   2    1000022    24
    0.28593926   2    1000024    23
    0.20471128   2    1000024    25

DECAY 1000022 -1


DECAY 1000023  2.5178798
    0.39998643   2    1000022    23
    0.20654413   2    1000024   -24
    0.20654413   2   -1000024    24
    0.18682372   2    1000022    25
    0.00010048799   2    1000022    22

DECAY 1000025  2.8950248
    0.41443015   2    1000024   -24
    0.41443015   2   -1000024    24
    0.16146081   2    1000022    25
    0.0096667717   2    1000022    23

DECAY 1000035  2.5899693
    0.17264773   2    1000023    25
    0.1725841   2    1000025    23
    0.16119429   2    1000037   -24
    0.16119429   2   -1000037    24
    0.14953889   2    1000025    25
    0.043685564   2    1000024   -24
    0.043685564   2   -1000024    24
    0.039216274   2    1000022    23
    0.03736747   2    1000022    25
    0.01642177   2    1000023    23
    0.0006217384   3    1000037    5   -6
    0.0006217384   3   -1000037   -5    6
    0.00044033527   3    1000024    5   -6
    0.00044033527   3   -1000024   -5    6

DECAY 1000021  196.77989
    0.18661897   2    1000006   -6
    0.18661897   2   -1000006    6
    0.10475771   2    1000005   -5
    0.10475771   2   -1000005    5
    0.10442443   2    2000006   -6
    0.10442443   2   -2000006    6
    0.10007292   2    2000005   -5
    0.10007292   2   -2000005    5
    0.0038202718   2    1000006   -4
    0.0038202718   2   -1000006    4
    0.00033482036   3    1000035    6   -6

DECAY 25  0.0037519803
    0.5876631   2   -5    5
    0.21429447   2   -24    24
    0.071648843   2    21    21
    0.067640076   2   -15    15
    0.029032604   2   -4    4
    0.025469732   2    23    23
    0.0023682244   2    22    22
    0.0014269168   2    22    23
    0.0002343897   2   -13    13
    0.00022088343   2   -3    3
    6.107212e-07   2   -1    1
    1.4961447e-07   2   -2    2
    5.2693526e-09   2   -11    11

DECAY 35  134.28071
    0.61645954   2   -5    5
    0.11913236   2   -15    15
    0.063893478   2   -1000024    1000037
    0.063893478   2   -1000037    1000024
    0.036398802   2    1000022    1000023
    0.020529146   2    1000022    1000025
    0.017927141   2   -1000024    1000024
    0.0090756175   2    1000025    1000035
    0.0087778745   2    1000022    1000022
    0.0076225915   2    1000023    1000035
    0.0070304674   2   -2000015    1000015
    0.0070304674   2   -1000015    2000015
    0.0062222783   2   -1000037    1000037
    0.0054025864   2    1000025    1000025
    0.0044367197   2    1000023    1000025
    0.0029078818   2   -1000006    1000006
    0.00078280939   2   -1000015    1000015
    0.00068834868   2    1000022    1000035
    0.00066245517   2   -2000015    2000015
    0.00042755852   2   -6    6
    0.00038256864   2   -13    13
    0.00024265857   2   -3    3
    3.0219647e-05   2    1000023    1000023
    2.9352906e-05   2    1000035    1000035
    1.0276881e-05   2    21    21
    2.3391334e-06   2    25    25
    6.7099457e-07   2   -1    1
    1.0426324e-07   2    23    23
    7.871593e-08   2    22    23
    3.465198e-08   2   -24    24
    1.0435867e-08   2   -1000011    1000011
    1.0261411e-08   2   -1000013    1000013
    8.5924559e-09   2   -11    11
    3.2601786e-09   2   -4    4
    1.8981526e-09   2    22    22
    1.6803647e-14   2   -2    2

DECAY 36  125.8556
    0.60399914   2   -5    5
    0.11674195   2   -15    15
    0.06586078   2   -1000024    1000037
    0.06586078   2   -1000037    1000024
    0.032259342   2    1000022    1000023
    0.026678939   2    1000022    1000025
    0.021597667   2   -1000024    1000024
    0.010595018   2    1000022    1000022
    0.010275449   2    1000023    1000035
    0.0089685468   2   -1000037    1000037
    0.0082788478   2   -2000015    1000015
    0.0082788478   2   -1000015    2000015
    0.0075660125   2    1000025    1000035
    0.0074670244   2    1000025    1000025
    0.0037311207   2    1000023    1000025
    0.00067996896   2    1000022    1000035
    0.00044995293   2   -6    6
    0.00037488318   2   -13    13
    0.00023776273   2   -3    3
    5.0274574e-05   2    1000035    1000035
    3.5069868e-05   2    1000023    1000023
    1.1609084e-05   2    21    21
    6.5745654e-07   2   -1    1
    1.7278965e-07   2    23    25
    1.1474409e-07   2    22    23
    6.3071732e-08   2    22    22
    8.4198872e-09   2   -11    11
    3.3487519e-09   2   -4    4
    9.5969025e-13   2    23    35
    1.7260978e-14   2   -2    2
    1.0910107e-36   2    25    25

DECAY 37  119.35759
    0.58811752   2   -5    6
    0.11750786   2   -15    16
    0.088761165   2    1000022    1000037
    0.081820539   2    1000024    1000025
    0.079786249   2    1000023    1000024
    0.017708518   2    1000035    1000037
    0.01702787   2   -2000015    1000016
    0.0055557034   2    1000023    1000037
    0.0013956096   2    1000024    1000035
    0.00087196058   2   -5    4
    0.00045938169   2   -1000015    1000016
    0.00041543228   2   -13    14
    0.00030607886   2    1000025    1000037
    0.0002458971   2   -3    4
    1.1507647e-05   2   -3    2
    6.2266988e-06   2   -5    2
    8.9077247e-07   2   -3    6
    6.8271554e-07   2   -1    2
    6.6024107e-07   2    1000022    1000024
    1.8218623e-07   2    24    25
    3.2078368e-08   2   -1    4
    2.4187495e-08   2   -1    6
    9.7170044e-09   2   -11    12
    2.4274182e-13   2    24    35

DECAY 6  2.43
    1   2    5    24

DECAY 15 -1
