BLOCK SPINFO
   1   SPheno
   2   v4.0.5be

BLOCK SPHENOINFO
   1   2
   2   2

BLOCK MODSEL
   1   0

BLOCK MINPAR
   3    40.732774
   4    1

BLOCK EXTPAR
   0    1410.554
   1   -172.59351
   2    345.71581
   3    3000
   11   -3514.5128
   12    280.51857
   13   -1175.1275
   23    673.1636
   25    39.96703
   26    4986.4057
   31    1024.1012
   32    1024.1012
   33    860.41431
   34    1075.3451
   35    1075.3451
   36    684.83535
   41    5000
   42    5000
   43    1876.8082
   44    5000
   45    5000
   46    1141.7369
   47    5000
   48    5000
   49    1765.4228

BLOCK SMINPUTS
   1    127.90897
   2    1.1663787e-05
   3    0.1184
   4    91.1876
   5    4.18
   6    173.2
   7    1.777
   8    0
   11    0.00051099893
   12    0
   13    0.10565837
   14    0
   21    0.005
   22    0.0025
   23    0.095
   24    1.27

BLOCK GAUGE Q=  1410.554
   1    0.35536298
   2    0.66519887
   3    1.219778

BLOCK YU Q=  1410.554
   1   1    8.3869962e-06
   2   2    0.0042605941
   3   3    1.0132165

BLOCK YD Q=  1410.554
   1   1    0.00067357905
   2   2    0.012798002
   3   3    0.66797935

BLOCK YE Q=  1410.554
   1   1    0.00011754447
   2   2    0.024304468
   3   3    0.40876117

BLOCK AU Q=  1410.554
   1   1    0
   2   2    0
   3   3   -3514.5127

BLOCK AD Q=  1410.554
   1   1    0
   2   2    0
   3   3    280.51858

BLOCK AE Q=  1410.554
   1   1    0
   2   2    0
   3   3   -1175.1275

BLOCK MSOFT Q=  1410.554
   1   -172.59351
   2    345.71581
   3    3000
   21    24246249
   22   -411064.65
   31    1024.1012
   32    1024.1012
   33    860.41431
   34    1075.3451
   35    1075.3451
   36    684.83535
   41    5000
   42    5000
   43    1876.8082
   44    5000
   45    5000
   46    1141.7369
   47    5000
   48    5000
   49    1765.4228

BLOCK MASS
   6    173.2
   23    91.1876
   24    80.429995
   15    1.777
   25    124.36217
   35    4982.9465
   36    4986.4057
   37    4984.0085
   1000001    5025.2065
   2000001    5013.979
   1000002    5024.7647
   2000002    5018.8768
   1000003    5025.2145
   2000003    5013.9905
   1000004    5024.7716
   2000004    5018.8777
   1000005    1809.7441
   2000005    1877.2676
   1000006    1044.4384
   2000006    1905.0071
   1000011    1034.8203
   2000011    1063.3046
   1000012    1031.3897
   1000013    1034.8105
   2000013    1063.4874
   1000014    1031.4499
   1000015    715.9641
   2000015    899.873
   1000016    890.65017
   1000021    3184.4348
   1000022   -171.85198
   1000023    363.32067
   1000025   -685.62136
   1000035    691.86444
   1000024    363.55883
   1000037    694.25654

BLOCK ALPHA
      -0.024571329

BLOCK HMIX Q=  1410.554
   1    673.1636
   2    39.96703
   3    244.05648
   4    24864242

BLOCK STOPMIX
   1   1    0.20641782
   1   2    0.97846394
   2   1   -0.97846394
   2   2    0.20641782

BLOCK SBOTMIX
   1   1    0.2613469
   1   2    0.96524494
   2   1   -0.96524494
   2   2    0.2613469

BLOCK STAUMIX
   1   1    0.17839437
   1   2    0.98395907
   2   1   -0.98395907
   2   2    0.17839437

BLOCK NMIX
   1   1    0.99745153
   1   2    0.0020021198
   1   3    0.069558562
   1   4    0.015749049
   2   1    0.0078679237
   2   2    0.9829729
   2   3   -0.16106336
   2   4    0.088096354
   3   1   -0.060239848
   3   2    0.052109473
   3   3    0.70211399
   3   4    0.70759572
   4   1   -0.037412446
   4   2    0.17619555
   4   3    0.69011314
   4   4   -0.70092745

BLOCK UMIX
   1   1   -0.97385387
   1   2    0.22717536
   2   1    0.22717536
   2   2    0.97385387

BLOCK VMIX
   1   1   -0.992179
   1   2    0.12482318
   2   1    0.12482318
   2   2    0.992179

BLOCK HIGGSBOUNDSINPUTHIGGSCOUPLINGSFERMIONS
       0, 1597.3635,3,36,15,15

BLOCK HIGGSBOUNDSINPUTHIGGSCOUPLINGSBOSONS
       0,4,36,21,21,23

BLOCK SPHENOLOWENERGY
   1    0.00026337154
   2    1.6031734e-06
   3    3.5243829e-05
   4    2.4028788e-15
   5    1.0264753e-10
   6    2.1448571e-08
   7    8.0824001e-14
   8    3.452775e-09
   9    7.3103976e-07
   10    9.6556711e-05
   11    0.99739385
   12    0.54245318
   13    19.380289
   14    0
   15    0
   16    0.0021586002
   17    2.2816715e-15
   18    2.4792478e-11
   19    8.2885311e-11
   20    1.1143282e-14
   21    4.7646656e-10
   22    9.1053145e-08
   23    0
   24    0
   25    0
   26    0
   27    0
   28    0
   29    0
   30    0
   31    0
   39    8.5242688e-05
   40    0
   41    0
   42    0

BLOCK FWCOEF Q=  160
   305   4422   0   0   -0.18881911
   305   4422   0   2   -0.11642786
   305   4322   0   2    0.00045388429
   305   6421   0   0   -0.095227835
   305   6421   0   2   -0.060040408
   305   6321   0   2    0.00013880521
   3051111   4133   0   0    1.5901104
   3051111   4133   0   2    1.5913137
   3051111   4233   0   2    0.0002428777
   3051111   4137   0   0   -4.4128025
   3051111   4137   0   2   -4.4102337
   3051111   4237   0   2   -0.0018958868
   3051313   4133   0   0    1.5901104
   3051313   4133   0   2    1.5913084
   3051313   4233   0   2    0.00024287677
   3051313   4137   0   0   -4.4128025
   3051313   4137   0   2   -4.4102389
   3051313   4237   0   2   -0.0018958896
   3051212   4137   0   0    1.5053501
   3051212   4137   0   2    1.5048175
   3051212   4237   0   2    0.00041334993
   3051414   4137   0   0    1.5053501
   3051414   4137   0   2    1.5048175
   3051414   4237   0   2    0.00041334994
   3051616   4137   0   0    1.5053501
   3051616   4137   0   2    1.5048183
   3051616   4237   0   2    0.00041335251

BLOCK IMFWCOEF Q=  160
   305   4422   0   0    3.8589616e-07
   305   4422   0   2    2.6637314e-05
   305   4322   0   2    9.0360106e-06
   305   6421   0   0    3.3054559e-07
   305   6421   0   2   -6.2717485e-06
   305   6321   0   2    3.7353122e-06
   3051111   4133   0   2   -1.7967983e-06
   3051111   4233   0   2    4.6461031e-06
   3051111   4137   0   2    1.6121544e-05
   3051111   4237   0   2   -3.6270154e-05
   3051313   4133   0   2   -1.7970931e-06
   3051313   4233   0   2    4.646088e-06
   3051313   4137   0   2    1.6121752e-05
   3051313   4237   0   2   -3.6270204e-05
   3051212   4137   0   2   -3.0410488e-06
   3051212   4237   0   2    7.9077985e-06
   3051414   4137   0   2   -3.0410394e-06
   3051414   4237   0   2    7.9077985e-06
   3051616   4137   0   2   -3.0291551e-06
   3051616   4237   0   2    7.9077906e-06

DECAY 23  2.4952


DECAY 24  2.085


DECAY 1000011  11.459052
    0.57930932   2   -1000024    12
    0.29774356   2    1000023    11
    0.10752524   2    1000022    11
    0.012406163   2   -1000037    12
    0.0029660267   2    1000035    11

DECAY 2000011  5.0508134
    0.99814639   2    1000022    11
    0.001310205   2    1000025    11
    0.00049229555   2    1000035    11

DECAY 1000013  11.46284
    0.57910936   2   -1000024    14
    0.29766152   2    1000023    13
    0.10749348   2    1000022    13
    0.012401565   2   -1000037    14
    0.0031197634   2    1000035    13
    0.00021431296   2    1000025    13

DECAY 2000013  5.0605809
    0.99642061   2    1000022    13
    0.001724602   2    1000025    13
    0.00088313754   2    1000035    13
    0.0007712581   2   -1000037    14
    0.0001009909   2    1000023    13

DECAY 1000015  3.6711731
    0.85665043   2    1000022    15
    0.0915107   2   -1000024    16
    0.046721662   2    1000023    15
    0.002094595   2    1000025    15
    0.0018407302   2   -1000037    16
    0.0011818852   2    1000035    15

DECAY 2000015  9.6492063
    0.50073671   2   -1000024    16
    0.26297269   2    1000023    15
    0.116381   2    1000022    15
    0.029298496   2    1000035    15
    0.028313975   2    1000025    15
    0.025499391   2    1000015    23
    0.022123841   2    1000015    25
    0.014673882   2   -1000037    16

DECAY 1000012  11.505901
    0.59576308   2    1000024    11
    0.28999195   2    1000023    12
    0.10510056   2    1000022    12
    0.0045938373   2    1000035    12
    0.0036774097   2    1000037    11
    0.00087315564   2    1000025    12

DECAY 1000014  11.510853
    0.59560209   2    1000024    13
    0.2898937   2    1000023    14
    0.10506217   2    1000022    14
    0.0045930061   2    1000035    14
    0.0039760397   2    1000037    13
    0.00087299229   2    1000025    14

DECAY 1000016  10.050281
    0.54362474   2    1000024    15
    0.25965909   2    1000023    16
    0.10189018   2    1000022    16
    0.046978669   2    1000015    24
    0.045026369   2    1000037    15
    0.0023609562   2    1000035    16
    0.00045999824   2    1000025    16

DECAY 2000001  143.67522
    0.98056526   2    1000021    1
    0.019338611   2    1000022    1

DECAY 1000001  208.32985
    0.68186033   2    1000021    1
    0.19928056   2   -1000024    2
    0.10122727   2    1000023    1
    0.010544336   2   -1000037    2
    0.003416822   2    1000035    1
    0.0032668219   2    1000022    1
    0.00040385093   2    1000025    1

DECAY 2000003  143.70782
    0.98035116   2    1000021    3
    0.019334816   2    1000022    3
    0.000122037   2    1000025    3
    0.00010372671   2   -1000037    4

DECAY 1000003  208.34828
    0.68180403   2    1000021    3
    0.19926335   2   -1000024    4
    0.10122049   2    1000023    3
    0.010551717   2   -1000037    4
    0.0034524593   2    1000035    3
    0.0032669163   2    1000022    3
    0.00044102977   2    1000025    3

DECAY 1000005  30.079371
    0.32957463   2   -1000037    6
    0.18483825   2    1000025    5
    0.16700224   2    1000035    5
    0.11370334   2    1000006   -24
    0.10800263   2   -1000024    6
    0.056348234   2    1000023    5
    0.040530669   2    1000022    5

DECAY 2000005  119.32313
    0.48552606   2    1000006   -24
    0.24850643   2   -1000037    6
    0.10033756   2   -1000024    6
    0.056381214   2    1000035    5
    0.054163966   2    1000025    5
    0.053678343   2    1000023    5
    0.0014064223   2    1000022    5

DECAY 2000002  152.57255
    0.92672486   2    1000021    2
    0.072914974   2    1000022    2
    0.00025671852   2    1000025    2

DECAY 1000002  208.32587
    0.68165247   2    1000021    2
    0.20683629   2    1000024    1
    0.10179885   2    1000023    2
    0.0034172554   2    1000022    2
    0.0031833292   2    1000037    1
    0.0029367072   2    1000035    2
    0.00017509834   2    1000025    2

DECAY 2000004  152.57607
    0.92670367   2    1000021    4
    0.072913297   2    1000022    4
    0.00026243452   2    1000025    4
    0.00010456884   2    1000035    4

DECAY 1000004  208.3441
    0.68159598   2    1000021    4
    0.20682247   2    1000024    3
    0.10179013   2    1000023    4
    0.0034169627   2    1000022    4
    0.0032545815   2    1000037    3
    0.0029405899   2    1000035    4
    0.00017927903   2    1000025    4

DECAY 1000006  14.370077
    0.42771067   2    1000037    5
    0.16718075   2    1000025    6
    0.15128664   2    1000035    6
    0.13818492   2    1000022    6
    0.076517754   2    1000024    5
    0.034192308   2    1000023    6
    0.0047332726   2    1000023    4
    0.00019308583   2    1000022    4

DECAY 2000006  136.61101
    0.28361628   2    1000006    25
    0.23590907   2    1000006    23
    0.114723   2    1000035    6
    0.10622364   2    1000025    6
    0.10454617   2    1000024    5
    0.10206131   2    1000037    5
    0.049048513   2    1000023    6
    0.0035509677   2    1000022    6
    0.00032105074   2    1000005    24

DECAY 1000024  0.0016461783
    0.99860418   2    1000022    24
    0.0007576991   3    1000022   -15    16
    0.00031413017   3    1000022   -13    14
    0.00031409517   3    1000022   -11    12

DECAY 1000037  4.2516324
    0.31263762   2    1000023    24
    0.30023361   2    1000024    23
    0.2755207   2    1000024    25
    0.10969596   2    1000022    24
    0.00090870365   3    1000023   -5    6
    0.00087689759   3    1000022   -5    6
    0.00010249135   3    1000022   -15    16

DECAY 1000022 -1


DECAY 1000023  0.0026438025
    0.55965543   2    1000022    23
    0.4394477   2    1000022    25
    0.00037535631   3    1000022    12   -12
    0.00029097374   3    1000022    15   -15

DECAY 1000025  5.8026044
    0.25266573   2    1000024   -24
    0.25266573   2   -1000024    24
    0.23795736   2    1000023    23
    0.18455592   2    1000023    25
    0.04777243   2    1000022    25
    0.022727351   2    1000022    23
    0.00069854953   3    1000024    5   -6
    0.00069854953   3   -1000024   -5    6

DECAY 1000035  4.4746182
    0.29286963   2    1000024   -24
    0.29286963   2   -1000024    24
    0.24335243   2    1000023    25
    0.074513357   2    1000022    23
    0.068945584   2    1000022    25
    0.025593392   2    1000023    23
    0.00081579344   3    1000024    5   -6
    0.00081579344   3   -1000024   -5    6

DECAY 1000021  197.49997
    0.18057807   2    1000006   -6
    0.18057807   2   -1000006    6
    0.10916521   2    1000005   -5
    0.10916521   2   -1000005    5
    0.1045481   2    2000006   -6
    0.1045481   2   -2000006    6
    0.10179645   2    2000005   -5
    0.10179645   2   -2000005    5
    0.0037559491   2    1000006   -4
    0.0037559491   2   -1000006    4

DECAY 25  0.0037845757
    0.58262432   2   -5    5
    0.21891205   2   -24    24
    0.072174121   2    21    21
    0.067011447   2   -15    15
    0.028845598   2   -4    4
    0.026165542   2    23    23
    0.0023634248   2    22    22
    0.0014516415   2    22    23
    0.00023239522   2   -13    13
    0.00021870956   2   -3    3
    6.0470865e-07   2   -1    1
    1.4864991e-07   2   -2    2
    5.2245121e-09   2   -11    11

DECAY 35  165.67273
    0.47948349   2   -5    5
    0.11056151   2   -1000024    1000037
    0.11056151   2   -1000037    1000024
    0.10899987   2   -15    15
    0.057230089   2    1000023    1000025
    0.045704039   2    1000023    1000035
    0.016647284   2    1000022    1000025
    0.014235691   2    1000022    1000035
    0.011454438   2   -1000024    1000024
    0.0076105861   2   -2000006    1000006
    0.0076105861   2   -1000006    2000006
    0.0056288044   2    1000023    1000023
    0.0044683622   2    1000025    1000035
    0.0035765863   2    1000035    1000035
    0.0027427753   2    1000022    1000023
    0.0025489207   2   -1000037    1000037
    0.0022485897   2   -2000015    1000015
    0.0022485897   2   -1000015    2000015
    0.0014053054   2   -1000006    1000006
    0.0011223892   2   -2000006    2000006
    0.00083309529   2    1000025    1000025
    0.00057937058   2   -6    6
    0.0003776302   2   -2000005    1000005
    0.0003776302   2   -1000005    2000005
    0.00037202302   2   -13    13
    0.00031899844   2    1000022    1000022
    0.00031680302   2   -1000015    1000015
    0.00031094344   2   -2000015    2000015
    0.00018155821   2   -3    3
    0.00012921838   2   -1000005    1000005
    0.00010998977   2   -2000005    2000005
    2.2331145e-06   2    21    21
    5.0192002e-07   2   -1    1
    2.3301416e-07   2    25    25
    5.9904557e-08   2    23    23
    2.7452597e-08   2    22    23
    1.789622e-08   2   -1000011    1000011
    1.7147099e-08   2   -1000013    1000013
    1.1835261e-08   2   -2000013    2000013
    1.145857e-08   2   -2000011    2000011
    9.9437227e-09   2   -24    24
    9.5746213e-09   2   -4    4
    8.3541949e-09   2   -11    11
    6.4350398e-09   2    22    22
    1.8175453e-09   2   -2000013    1000013
    1.8175453e-09   2   -1000013    2000013
    4.9358395e-14   2   -2    2
    4.2636924e-14   2   -2000011    1000011
    4.2636924e-14   2   -1000011    2000011

DECAY 36  156.79307
    0.4602846   2   -5    5
    0.11606017   2   -1000024    1000037
    0.11606017   2   -1000037    1000024
    0.10464994   2   -15    15
    0.055609137   2    1000023    1000035
    0.052618243   2    1000023    1000025
    0.016387603   2    1000022    1000035
    0.016232781   2    1000022    1000025
    0.012976274   2   -1000024    1000024
    0.0094198953   2   -2000006    1000006
    0.0094198953   2   -1000006    2000006
    0.0063824468   2    1000023    1000023
    0.0045201139   2    1000035    1000035
    0.0042097978   2    1000025    1000035
    0.003534217   2   -1000037    1000037
    0.0029270603   2    1000022    1000023
    0.0027060595   2   -2000015    1000015
    0.0027060595   2   -1000015    2000015
    0.00086169868   2    1000025    1000025
    0.00052536165   2   -2000005    1000005
    0.00052536165   2   -1000005    2000005
    0.00051400328   2   -6    6
    0.00035717448   2   -13    13
    0.00033126367   2    1000022    1000022
    0.00017428665   2   -3    3
    5.6103076e-06   2    21    21
    4.8181684e-07   2   -1    1
    1.7496644e-07   2    23    25
    6.2024582e-08   2    22    23
    3.3175118e-08   2    22    22
    8.2119317e-09   2   -4    4
    8.0207092e-09   2   -11    11
    1.8579879e-09   2   -2000013    1000013
    1.8579879e-09   2   -1000013    2000013
    3.4716382e-12   2    23    35
    4.3458529e-14   2   -2000011    1000011
    4.3458529e-14   2   -1000011    2000011
    4.233362e-14   2   -2    2
    4.0482312e-38   2    25    25

DECAY 37  176.75189
    0.52630263   2   -5    6
    0.11295393   2    1000023    1000037
    0.10706976   2    1000024    1000035
    0.10436479   2    1000024    1000025
    0.093561693   2   -15    16
    0.027864926   2    1000022    1000037
    0.0086953785   2   -2000005    1000006
    0.0051610894   2    1000022    1000024
    0.0046579025   2   -1000015    1000016
    0.0042540414   2    1000025    1000037
    0.0021686209   2   -1000005    1000006
    0.00078069704   2   -5    4
    0.00055175576   2   -1000005    2000006
    0.00053094271   2    1000035    1000037
    0.00043177381   2   -2000005    2000006
    0.00033077384   2   -13    14
    0.00015746883   2   -3    4
    0.00014653596   2   -2000015    1000016
    7.4161255e-06   2   -3    2
    5.5749813e-06   2   -5    2
    1.1431501e-06   2   -3    6
    4.3668865e-07   2   -1    2
    3.6887451e-07   2    1000023    1000024
    1.5501983e-07   2    24    25
    6.5901637e-08   2   -1000011    1000012
    6.4870306e-08   2   -1000013    1000014
    4.1631728e-08   2   -1    6
    2.0885872e-08   2   -1    4
    7.7368345e-09   2   -11    12
    4.1369866e-09   2   -2000013    1000014
    9.6880663e-14   2   -2000011    1000012
    1.0407669e-14   2    24    35

DECAY 6  2.43
    1   2    5    24

DECAY 15 -1
