BLOCK SPINFO
   1   SPheno
   2   v4.0.5be

BLOCK SPHENOINFO
   1   2
   2   2

BLOCK MODSEL
   1   0

BLOCK MINPAR
   3    11.916007
   4   -1

BLOCK EXTPAR
   0    2297.2284
   1    540.39148
   2    3033.7816
   3    3892.3448
   11    3578.6413
   12   -4416.64
   13    3558.1366
   23   -2057.2526
   25    11.394176
   26    2341.8676
   31    4681.3295
   32    4681.3295
   33    3463.1519
   34    4964.3116
   35    4964.3116
   36    2809.9055
   41    2434.2654
   42    2434.2654
   43    1449.1332
   44    2095.9575
   45    2095.9575
   46    3451.3141
   47    3262.3893
   48    3262.3893
   49    1568.3512

BLOCK SMINPUTS
   1    127.90897
   2    1.1663787e-05
   3    0.1184
   4    91.1876
   5    4.18
   6    173.2
   7    1.777
   8    0
   11    0.00051099893
   12    0
   13    0.10565837
   14    0
   21    0.005
   22    0.0025
   23    0.095
   24    1.27

BLOCK GAUGE Q=  2297.2284
   1    0.35536298
   2    0.66519887
   3    1.219778

BLOCK YU Q=  2297.2284
   1   1    8.4166007e-06
   2   2    0.0042756332
   3   3    1.016793

BLOCK YD Q=  2297.2284
   1   1    0.00019270806
   2   2    0.0036614532
   3   3    0.19110601

BLOCK YE Q=  2297.2284
   1   1    3.3628966e-05
   2   2    0.0069534036
   3   3    0.11694481

BLOCK AU Q=  2297.2284
   1   1    0
   2   2    0
   3   3    3578.6413

BLOCK AD Q=  2297.2284
   1   1    0
   2   2    0
   3   3   -4416.6398

BLOCK AE Q=  2297.2284
   1   1    0
   2   2    0
   3   3    3558.1366

BLOCK MSOFT Q=  2297.2284
   1    540.39148
   2    3033.7816
   3    3892.3448
   21    1146238.4
   22   -4183155.2
   31    4681.3295
   32    4681.3295
   33    3463.1519
   34    4964.3116
   35    4964.3116
   36    2809.9055
   41    2434.2654
   42    2434.2654
   43    1449.1332
   44    2095.9575
   45    2095.9575
   46    3451.3141
   47    3262.3893
   48    3262.3893
   49    1568.3512

BLOCK MASS
   6    173.2
   23    91.1876
   24    80.429995
   15    1.777
   25    121.94807
   35    2341.9109
   36    2341.8676
   37    2343.5165
   1000001    2524.0471
   2000001    3335.7536
   1000002    2522.7609
   2000002    2156.2898
   1000003    2524.0468
   2000003    3335.7531
   1000004    2522.7608
   2000004    2156.2899
   1000005    1520.8682
   2000005    1617.5209
   1000006    1518.507
   2000006    3475.2942
   1000011    4690.5132
   2000011    4969.457
   1000012    4689.4525
   1000013    4690.5129
   2000013    4969.4566
   1000014    4689.4524
   1000015    2813.8322
   2000015    3476.4373
   1000016    3475.0966
   1000021    3825.3058
   1000022    540.85109
   1000023    2060.6639
   1000025   -2063.4136
   1000035    3028.1867
   1000024    2061.0293
   1000037    3028.312

BLOCK ALPHA
      -0.084034344

BLOCK HMIX Q=  2297.2284
   1   -2057.2526
   2    11.394176
   3    243.55499
   4    5484343.7

BLOCK STOPMIX
   1   1   -0.99842998
   1   2    0.056014115
   2   1   -0.056014115
   2   2   -0.99842998

BLOCK SBOTMIX
   1   1   -0.98371883
   1   2    0.17971439
   2   1   -0.17971439
   2   2   -0.98371883

BLOCK STAUMIX
   1   1   -0.011330412
   1   2    0.99993581
   2   1   -0.99993581
   2   2   -0.011330412

BLOCK NMIX
   1   1   -0.99974763
   1   2    4.2149011e-05
   1   3    0.022131152
   1   4    0.0038589667
   2   1    0.018364638
   2   2    0.051062649
   2   3    0.70645571
   2   4    0.70567391
   3   1   -0.012917741
   3   2    0.011826811
   3   3   -0.70686656
   3   4    0.70713006
   4   1    0.00074385548
   4   2   -0.99862542
   4   3    0.027752604
   4   4    0.044457947

BLOCK UMIX
   1   1   -0.039567265
   1   2   -0.99921691
   2   1    0.99921691
   2   2   -0.039567265

BLOCK VMIX
   1   1   -0.063409274
   1   2    0.99798761
   2   1    0.99798761
   2   2    0.063409274

BLOCK HIGGSBOUNDSINPUTHIGGSCOUPLINGSFERMIONS
       0, 129.82724,3,36,15,15

BLOCK HIGGSBOUNDSINPUTHIGGSCOUPLINGSBOSONS
       0,4,36,21,21,23

BLOCK SPHENOLOWENERGY
   1    0.00032798499
   2    1.5895017e-06
   3    3.5256295e-05
   4    2.3831435e-15
   5    1.0180517e-10
   6    2.1311394e-08
   7    8.0526949e-14
   8    3.4401084e-09
   9    7.2965845e-07
   10    9.6670359e-05
   11    0.9985678
   12    0.54197416
   13    19.364501
   14    0
   15    0
   16    0.0021573351
   17    2.2816586e-15
   18    2.4803355e-11
   19    8.2910582e-11
   20   -2.9989862e-16
   21   -1.2821606e-11
   22   -4.788101e-09
   23    0
   24    0
   25    0
   26    0
   27    0
   28    0
   29    0
   30    0
   31    0
   39    7.261888e-06
   40    0
   41    0
   42    0

BLOCK FWCOEF Q=  160
   305   4422   0   0   -0.18881911
   305   4422   0   2   -0.19640329
   305   4322   0   2   -0.00015845154
   305   6421   0   0   -0.095227835
   305   6421   0   2   -0.10636693
   305   6321   0   2   -0.00022442574
   3051111   4133   0   0    1.6068172
   3051111   4133   0   2    1.6070866
   3051111   4233   0   2    1.7204811e-05
   3051111   4137   0   0   -4.4295093
   3051111   4137   0   2   -4.4282101
   3051111   4237   0   2   -0.00013066677
   3051313   4133   0   0    1.6068172
   3051313   4133   0   2    1.6070866
   3051313   4233   0   2    1.7204804e-05
   3051313   4137   0   0   -4.4295093
   3051313   4137   0   2   -4.4282101
   3051313   4237   0   2   -0.00013066677
   3051212   4137   0   0    1.5053501
   3051212   4137   0   2    1.5050686
   3051212   4237   0   2    2.8381047e-05
   3051414   4137   0   0    1.5053501
   3051414   4137   0   2    1.5050686
   3051414   4237   0   2    2.8381048e-05
   3051616   4137   0   0    1.5053501
   3051616   4137   0   2    1.5050684
   3051616   4237   0   2    2.8381334e-05

BLOCK IMFWCOEF Q=  160
   305   4422   0   0    3.8584674e-07
   305   4422   0   2   -3.372963e-06
   305   4322   0   2    5.4033941e-07
   305   6421   0   0    3.3050325e-07
   305   6421   0   2    6.4250055e-07
   305   6321   0   2    3.0837596e-07
   3051111   4133   0   2   -3.1450064e-07
   3051111   4233   0   2    4.0034066e-07
   3051111   4137   0   2    3.8963676e-06
   3051111   4237   0   2   -3.0431584e-06
   3051313   4133   0   2   -3.1450058e-07
   3051313   4233   0   2    4.0034064e-07
   3051313   4137   0   2    3.8963678e-06
   3051313   4237   0   2   -3.0431585e-06
   3051212   4137   0   2   -8.3474164e-07
   3051212   4237   0   2    6.609835e-07
   3051414   4137   0   2   -8.3474165e-07
   3051414   4237   0   2    6.609835e-07
   3051616   4137   0   2   -8.365743e-07
   3051616   4237   0   2    6.609824e-07

DECAY 23  2.4952


DECAY 24  2.085


DECAY 1000011  26.84243
    0.52232331   2   -1000037    12
    0.26067582   2    1000035    11
    0.21356457   2    1000022    11
    0.0018560798   2    1000023    11
    0.0015680841   2   -1000024    12

DECAY 2000011  24.378002
    0.99964584   2    1000022    11
    0.00023686365   2    1000023    11
    0.00011706525   2    1000025    11

DECAY 1000013  26.845359
    0.52226616   2   -1000037    14
    0.26064733   2    1000035    13
    0.21354133   2    1000022    13
    0.0019105155   2    1000023    13
    0.0015679127   2   -1000024    14

DECAY 2000013  24.38459
    0.99937579   2    1000022    13
    0.00030387435   2    1000023    13
    0.0001841135   2    1000025    13
    0.00013418053   2   -1000024    14

DECAY 1000015  13.436929
    0.97539364   2    1000022    15
    0.01228181   2   -1000024    16
    0.0062202329   2    1000023    15
    0.0061043176   2    1000025    15

DECAY 2000015  7.4062613
    0.56120776   2    1000022    15
    0.24000667   2   -1000037    16
    0.11982669   2    1000035    15
    0.029911943   2    1000023    15
    0.026854381   2    1000025    15
    0.0098707373   2    1000015    23
    0.0098682419   2    1000015    25
    0.0024535753   2   -1000024    16

DECAY 1000012  26.844613
    0.52054188   2    1000037    11
    0.26084204   2    1000035    12
    0.21356371   2    1000022    12
    0.0040250896   2    1000024    11
    0.00085192415   2    1000023    12
    0.00017535926   2    1000025    12

DECAY 1000014  26.847545
    0.52048504   2    1000037    13
    0.26081352   2    1000035    14
    0.21354038   2    1000022    14
    0.0041338826   2    1000024    13
    0.00085183107   2    1000023    14
    0.0001753401   2    1000025    14

DECAY 1000016  7.4111573
    0.56062972   2    1000022    16
    0.23799618   2    1000037    15
    0.11930881   2    1000035    16
    0.060537941   2    1000024    15
    0.019747462   2    1000015    24
    0.0014764649   2    1000023    16
    0.00030342214   2    1000025    16

DECAY 1000001  0.32759957
    0.97884984   2    1000022    1
    0.011791201   2   -1000024    2
    0.0086140397   2    1000023    1
    0.00074491686   2    1000025    1

DECAY 2000001  1.7651678
    0.99979564   2    1000022    1
    0.00013633197   2    1000023    1

DECAY 1000003  0.32777227
    0.97833492   2    1000022    3
    0.012084193   2   -1000024    4
    0.0087240334   2    1000023    3
    0.00085685552   2    1000025    3

DECAY 2000003  1.7659155
    0.99937236   2    1000022    3
    0.00023212628   2    1000023    3
    0.00019226785   2   -1000024    4
    0.00016299407   2    1000025    3

DECAY 1000005  0.18704328
    1   2    1000022    5

DECAY 2000005  0.71879137
    0.9537215   2    1000022    5
    0.042729267   2    1000006   -24
    0.0035492298   2    1000005    23

DECAY 2000002  4.2264082
    0.99999576   2    1000022    2

DECAY 1000002  0.3337886
    0.95920762   2    1000022    2
    0.029585427   2    1000024    1
    0.010876164   2    1000023    2
    0.00033079149   2    1000025    2

DECAY 2000004  4.2264157
    0.99999301   2    1000022    4

DECAY 1000004  0.33396187
    0.95870936   2    1000022    4
    0.029794175   2    1000024    3
    0.011014927   2    1000023    4
    0.00047990199   2    1000025    4

DECAY 1000006  0.16287795
    0.95738333   2    1000022    6
    0.042615948   3    1000022    24    5

DECAY 2000006  170.27143
    0.26833776   2    1000005    24
    0.19353909   2    1000006    25
    0.17601823   2    1000024    5
    0.13840183   2    1000006    23
    0.08636846   2    1000023    6
    0.086090552   2    1000025    6
    0.043074872   2    1000022    6
    0.0081447626   2    2000005    24

DECAY 1000024  14.84445
    0.86197018   2   -1000005    6
    0.081559555   2    1000022    24
    0.031707534   2    1000006   -5
    0.021800502   2   -2000005    6
    0.0029599925   3    1000022   -5    6

DECAY 1000037  75.962869
    0.29612483   2    1000006   -5
    0.27667773   2   -1000005    6
    0.057048753   2    1000024    25
    0.053809954   2    1000025    24
    0.052940347   2    1000024    23
    0.051538428   2    1000023    24
    0.049097083   2    1000004   -3
    0.049097045   2    1000002   -1
    0.048990657   2   -1000001    2
    0.048990482   2   -1000003    4
    0.0095456011   2   -2000005    6
    0.0024455019   3    1000025   -5    6
    0.0019321148   3    1000024    6   -6
    0.0016533138   3    1000023   -5    6

DECAY 1000022 -1


DECAY 1000023  14.531227
    0.43004152   2    1000006   -6
    0.43004152   2   -1000006    6
    0.054450261   2    1000022    25
    0.02766611   2    1000022    23
    0.017134153   2    1000005   -5
    0.017134153   2   -1000005    5
    0.010849341   2    2000005   -5
    0.010849341   2   -2000005    5
    0.0018277486   3    1000022    6   -6

DECAY 1000025  15.154316
    0.40869544   2    1000006   -6
    0.40869544   2   -1000006    6
    0.073552738   2    1000022    25
    0.053961885   2    1000022    23
    0.015111761   2    1000005   -5
    0.015111761   2   -1000005    5
    0.011320809   2    2000005   -5
    0.011320809   2   -2000005    5
    0.0022241641   3    1000022    6   -6

DECAY 1000035  81.754919
    0.13450451   2    1000006   -6
    0.13450451   2   -1000006    6
    0.13147542   2    1000005   -5
    0.13147542   2   -1000005    5
    0.071126586   2    1000025    25
    0.050420729   2    1000023    25
    0.050185655   2    1000024   -24
    0.050185655   2   -1000024    24
    0.046894579   2    1000025    23
    0.022822941   2    1000002   -2
    0.022822941   2   -1000002    2
    0.022822849   2    1000004   -4
    0.022822849   2   -1000004    4
    0.022729542   2    1000003   -3
    0.022729542   2   -1000003    3
    0.022729513   2    1000001   -1
    0.022729513   2   -1000001    1
    0.0045379096   2    2000005   -5
    0.0045379096   2   -2000005    5
    0.0025080594   2    1000023    23
    0.0016522732   3    1000024    5   -6
    0.0016522732   3   -1000024   -5    6
    0.0011803657   3    1000025    6   -6
    0.00085343925   3    1000023    6   -6

DECAY 1000021  503.744
    0.080640469   2    1000006   -6
    0.080640469   2   -1000006    6
    0.079738415   2    1000005   -5
    0.079738415   2   -1000005    5
    0.075719329   2    2000005   -5
    0.075719329   2   -2000005    5
    0.052312855   2    2000002   -2
    0.052312855   2   -2000002    2
    0.052312846   2    2000004   -4
    0.052312846   2   -2000004    4
    0.035885721   2    1000002   -2
    0.035885721   2   -1000002    2
    0.035885718   2    1000004   -4
    0.035885718   2   -1000004    4
    0.035829415   2    1000003   -3
    0.035829415   2   -1000003    3
    0.035829402   2    1000001   -1
    0.035829402   2   -1000001    1
    0.0064506968   2    2000003   -3
    0.0064506968   2   -2000003    3
    0.0064506848   2    2000001   -1
    0.0064506848   2   -2000001    1
    0.0028395739   2    2000006   -6
    0.0028395739   2   -2000006    6

DECAY 25  0.0035317488
    0.61972918   2   -5    5
    0.18023386   2   -24    24
    0.074147191   2    21    21
    0.070854174   2   -15    15
    0.030478574   2   -4    4
    0.020516312   2    23    23
    0.0023242181   2    22    22
    0.0012374512   2    22    23
    0.00024575993   2   -13    13
    0.00023248072   2   -3    3
    6.427853e-07   2   -1    1
    1.5707335e-07   2   -2    2
    5.5249973e-09   2   -11    11

DECAY 35  6.7952217
    0.78416913   2   -5    5
    0.11949396   2   -6    6
    0.095311969   2   -15    15
    0.00033296956   2   -13    13
    0.00027739509   2    1000022    1000022
    0.0002376535   2   -3    3
    0.00010257091   2    25    25
    4.1505564e-05   2    23    23
    1.7576818e-05   2   -24    24
    1.2752261e-05   2    21    21
    1.7012373e-06   2   -4    4
    6.5698349e-07   2   -1    1
    1.1708246e-07   2    22    22
    2.9740865e-08   2    22    23
    7.478876e-09   2   -11    11
    8.7695142e-12   2   -2    2

DECAY 36  6.6035733
    0.78690426   2   -5    5
    0.11635438   2   -6    6
    0.095654699   2   -15    15
    0.00034104962   2    1000022    1000022
    0.00033416449   2   -13    13
    0.00023849961   2   -3    3
    0.00010965453   2    21    21
    6.0479784e-05   2    23    25
    1.6216578e-06   2   -4    4
    6.5932374e-07   2   -1    1
    3.6083195e-07   2    22    22
    1.6873278e-07   2    22    23
    7.5057506e-09   2   -11    11
    8.3597924e-12   2   -2    2
    3.3710888e-39   2    25    25

DECAY 37  6.522435
    0.89597475   2   -5    6
    0.10202692   2   -15    16
    0.001178578   2   -5    4
    0.00036070174   2   -13    14
    0.00022579396   2   -3    4
    0.00014554788   2   -3    6
    6.1425436e-05   2    24    25
    1.0484118e-05   2   -3    2
    8.4162508e-06   2   -5    2
    6.6603612e-06   2   -1    6
    6.228169e-07   2   -1    2
    9.0141782e-08   2   -1    4
    8.4368512e-09   2   -11    12
    2.5438512e-12   2    24    36
    2.2264976e-12   2    24    35

DECAY 6  2.43
    1   2    5    24

DECAY 15 -1
