BLOCK SPINFO
   1   SPheno
   2   v4.0.5be

BLOCK SPHENOINFO
   1   2
   2   2

BLOCK MODSEL
   1   0

BLOCK MINPAR
   3    50.237149
   4    1

BLOCK EXTPAR
   0    1272.7265
   1    1802.8409
   2   -103.92244
   3    3000
   11    3542.4311
   12   -1961.7851
   13   -1502.9781
   23    208.37421
   25    49.26982
   26    2472.9152
   31    1235.1696
   32    1235.1696
   33    1851.9453
   34    403.84742
   35    403.84742
   36    509.25629
   41    5000
   42    5000
   43    1211.43
   44    5000
   45    5000
   46    1596.4789
   47    5000
   48    5000
   49    1639.821

BLOCK SMINPUTS
   1    127.90897
   2    1.1663787e-05
   3    0.1184
   4    91.1876
   5    4.18
   6    173.2
   7    1.777
   8    0
   11    0.00051099893
   12    0
   13    0.10565837
   14    0
   21    0.005
   22    0.0025
   23    0.095
   24    1.27

BLOCK GAUGE Q=  1272.7265
   1    0.35536298
   2    0.66519887
   3    1.219778

BLOCK YU Q=  1272.7265
   1   1    8.3860989e-06
   2   2    0.0042601382
   3   3    1.0131081

BLOCK YD Q=  1272.7265
   1   1    0.00083027355
   2   2    0.015775198
   3   3    0.82337119

BLOCK YE Q=  1272.7265
   1   1    0.00014488881
   2   2    0.02995841
   3   3    0.50385117

BLOCK AU Q=  1272.7265
   1   1    0
   2   2    0
   3   3    3542.4312

BLOCK AD Q=  1272.7265
   1   1    0
   2   2    0
   3   3   -1961.785

BLOCK AE Q=  1272.7265
   1   1    0
   2   2    0
   3   3   -1502.9781

BLOCK MSOFT Q=  1272.7265
   1    1802.8409
   2   -103.92244
   3    3000
   21    6141832
   22    26197.034
   31    1235.1696
   32    1235.1696
   33    1851.9453
   34    403.84742
   35    403.84742
   36    509.25629
   41    5000
   42    5000
   43    1211.43
   44    5000
   45    5000
   46    1596.4789
   47    5000
   48    5000
   49    1639.821

BLOCK MASS
   6    173.2
   23    91.1876
   24    80.429995
   15    1.777
   25    126.60122
   35    2470.853
   36    2472.9152
   37    2472.572
   1000001    5022.2681
   2000001    5011.2565
   1000002    5021.8288
   2000002    5011.9488
   1000003    5022.2753
   2000003    5011.2692
   1000004    5021.8358
   2000004    5011.9498
   1000005    1142.6155
   2000005    1636.9573
   1000006    1035.8361
   2000006    1563.7926
   1000011    1238.7547
   2000011    417.0253
   1000012    1235.8505
   1000013    1238.7481
   2000013    417.00375
   1000014    1235.8405
   1000015    521.73622
   2000015    1854.3206
   1000016    1851.9176
   1000021    3176.0356
   1000022   -96.827986
   1000023    221.37574
   1000025   -238.28298
   1000035    1800.1503
   1000024    98.191773
   1000037    247.93404

BLOCK ALPHA
      -0.019964541

BLOCK HMIX Q=  1272.7265
   1    208.37421
   2    49.26982
   3    244.11433
   4    6115309.6

BLOCK STOPMIX
   1   1   -0.90957082
   1   2    0.41554894
   2   1   -0.41554894
   2   2   -0.90957082

BLOCK SBOTMIX
   1   1    0.99984282
   1   2    0.017729493
   2   1   -0.017729493
   2   2    0.99984282

BLOCK STAUMIX
   1   1    0.0065554716
   1   2    0.99997851
   2   1   -0.99997851
   2   2    0.0065554716

BLOCK NMIX
   1   1   -0.0041501782
   1   2   -0.88347529
   1   3    0.4287212
   1   4    0.18881822
   2   1    0.019875552
   2   2    0.17751628
   2   3    0.6794351
   2   4   -0.71166065
   3   1    0.014106593
   3   2   -0.43354149
   3   3   -0.59544523
   3   4   -0.67623056
   4   1    0.99969432
   4   2   -0.0010793505
   4   3   -0.0033261915
   4   4    0.024475069

BLOCK UMIX
   1   1   -0.82344523
   1   2    0.56739576
   2   1   -0.56739576
   2   2   -0.82344523

BLOCK VMIX
   1   1    0.96805151
   1   2    0.25075142
   2   1    0.25075142
   2   2   -0.96805151

BLOCK HIGGSBOUNDSINPUTHIGGSCOUPLINGSFERMIONS
       0, 2427.5152,3,36,15,15

BLOCK HIGGSBOUNDSINPUTHIGGSCOUPLINGSBOSONS
       0,4,36,21,21,23

BLOCK SPHENOLOWENERGY
   1    0.00039600427
   2    1.586087e-06
   3    3.5195459e-05
   4    2.5148339e-15
   5    1.0743092e-10
   6    2.2488903e-08
   7    8.3887397e-14
   8    3.5836676e-09
   9    7.6001144e-07
   10    9.4104645e-05
   11    0.97206495
   12    0.54342115
   13    19.405492
   14    0
   15    0
   16    0.0021650637
   17    2.2817396e-15
   18    2.4758101e-11
   19    8.2804697e-11
   20   -1.3463726e-14
   21   -5.7567952e-10
   22   -1.0288736e-07
   23    0
   24    0
   25    0
   26    0
   27    0
   28    0
   29    0
   30    0
   31    0
   39    9.6285819e-05
   40    0
   41    0
   42    0

BLOCK FWCOEF Q=  160
   305   4422   0   0   -0.18881911
   305   4422   0   2   -0.27419879
   305   4322   0   2   -0.00055499459
   305   6421   0   0   -0.095227835
   305   6421   0   2   -0.14060273
   305   6321   0   2   -0.00035766556
   3051111   4133   0   0    1.5867064
   3051111   4133   0   2    1.5880837
   3051111   4233   0   2    0.0003423807
   3051111   4137   0   0   -4.4093985
   3051111   4137   0   2   -4.402104
   3051111   4237   0   2   -0.0026827114
   3051313   4133   0   0    1.5867064
   3051313   4133   0   2    1.5880789
   3051313   4233   0   2    0.0003423751
   3051313   4137   0   0   -4.4093985
   3051313   4137   0   2   -4.4021087
   3051313   4237   0   2   -0.0026827202
   3051212   4137   0   0    1.5053501
   3051212   4137   0   2    1.5037921
   3051212   4237   0   2    0.00058536533
   3051414   4137   0   0    1.5053501
   3051414   4137   0   2    1.5037921
   3051414   4237   0   2    0.00058536562
   3051616   4137   0   0    1.5053501
   3051616   4137   0   2    1.5037907
   3051616   4237   0   2    0.00058544944

BLOCK IMFWCOEF Q=  160
   305   4422   0   0    3.8575251e-07
   305   4422   0   2   -2.4846616e-05
   305   4322   0   2   -6.9944277e-06
   305   6421   0   0    3.3042254e-07
   305   6421   0   2   -1.3876746e-05
   305   6321   0   2   -2.6025225e-06
   3051111   4133   0   2    1.1165e-06
   3051111   4233   0   2    7.5192759e-06
   3051111   4137   0   2    8.1492478e-06
   3051111   4237   0   2   -5.8949036e-05
   3051313   4133   0   2    1.1163378e-06
   3051313   4233   0   2    7.519202e-06
   3051313   4137   0   2    8.1493783e-06
   3051313   4237   0   2   -5.8949219e-05
   3051212   4137   0   2   -1.1723448e-06
   3051212   4237   0   2    1.2862621e-05
   3051414   4137   0   2   -1.1723397e-06
   3051414   4237   0   2    1.2862621e-05
   3051616   4137   0   2   -1.2064592e-06
   3051616   4237   0   2    1.2862624e-05

DECAY 23  2.4952


DECAY 24  2.085


DECAY 2000011  0.00064862589
    0.65833734   2    1000023    11
    0.29166057   2    1000025    11
    0.049848857   2    1000022    11

DECAY 1000011  15.860092
    0.4603705   2   -1000024    12
    0.26639458   2    1000022    11
    0.20397356   2   -1000037    12
    0.057858169   2    1000025    11
    0.011403191   2    1000023    11

DECAY 2000013  0.0090920776
    0.24186772   2    1000023    13
    0.23521782   2   -1000024    14
    0.23208535   2   -1000037    14
    0.15254427   2    1000025    13
    0.13828484   2    1000022    13

DECAY 1000013  15.881137
    0.45975794   2   -1000024    14
    0.26629275   2    1000022    13
    0.203702   2   -1000037    14
    0.058239418   2    1000025    13
    0.011990683   2    1000023    13

DECAY 1000015  3.7263947
    0.28394314   2   -1000037    16
    0.21893879   2    1000023    15
    0.21715455   2   -1000024    16
    0.15571432   2    1000025    15
    0.1242492   2    1000022    15

DECAY 2000015  33.428463
    0.32699147   2   -1000024    16
    0.24038351   2    1000022    15
    0.15382376   2   -1000037    16
    0.13983825   2    1000025    15
    0.13445961   2    1000023    15
    0.0021572093   2    1000015    23
    0.002116652   2    1000015    25
    0.00022952986   2    1000035    15

DECAY 1000012  15.99279
    0.6294645   2    1000024    11
    0.26091727   2    1000022    12
    0.061343589   2    1000025    12
    0.039398553   2    1000037    11
    0.008876089   2    1000023    12

DECAY 1000014  16.013453
    0.62908556   2    1000024    13
    0.26057845   2    1000022    14
    0.061263865   2    1000025    14
    0.04020757   2    1000037    13
    0.0088645549   2    1000023    14

DECAY 1000016  33.49243
    0.54302604   2    1000024    15
    0.21210799   2    1000037    15
    0.18797787   2    1000022    16
    0.045793907   2    1000025    16
    0.006586899   2    1000023    16
    0.0042954987   2    1000015    24
    0.00021179248   2    1000035    16

DECAY 2000001  143.72757
    0.98523015   2    1000021    1
    0.014757046   2    1000035    1

DECAY 1000001  209.47274
    0.68148143   2    1000021    1
    0.14300226   2   -1000024    2
    0.082170297   2    1000022    1
    0.067617371   2   -1000037    2
    0.019975615   2    1000025    1
    0.0031819287   2    1000023    1
    0.0025711016   2    1000035    1

DECAY 2000003  143.77821
    0.98489236   2    1000021    3
    0.01475191   2    1000035    3
    0.00011643272   2   -1000037    4

DECAY 1000003  209.5001
    0.681396   2    1000021    3
    0.1429843   2   -1000024    4
    0.082181417   2    1000022    3
    0.06761674   2   -1000037    4
    0.020014818   2    1000025    3
    0.003235946   2    1000023    3
    0.0025707728   2    1000035    3

DECAY 1000005  50.903199
    0.44132853   2   -1000037    6
    0.15360246   2   -1000024    6
    0.13290566   2    1000022    5
    0.13163329   2    1000023    5
    0.11404135   2    1000025    5
    0.026488705   2    1000006   -24

DECAY 2000005  42.574008
    0.33501765   2   -1000037    6
    0.23187417   2    1000023    5
    0.17881552   2    1000025    5
    0.15536608   2   -1000024    6
    0.090750762   2    1000022    5
    0.0038194442   2    1000006   -24
    0.0029487081   2    1000005    25
    0.0014076641   2    1000005    23

DECAY 2000002  150.1695
    0.94344618   2    1000021    2
    0.056508441   2    1000035    2

DECAY 1000002  209.47235
    0.68126418   2    1000021    2
    0.19762113   2    1000024    1
    0.082438575   2    1000022    2
    0.019516166   2    1000025    2
    0.013205129   2    1000037    1
    0.003445662   2    1000023    2
    0.0025091511   2    1000035    2

DECAY 2000004  150.17314
    0.94342355   2    1000021    4
    0.056507089   2    1000035    4

DECAY 1000004  209.49962
    0.6811787   2    1000021    4
    0.19763376   2    1000024    3
    0.082428259   2    1000022    4
    0.019517575   2    1000025    4
    0.013283275   2    1000037    3
    0.0034495902   2    1000023    4
    0.0025088321   2    1000035    4

DECAY 1000006  45.463655
    0.29330738   2    1000024    5
    0.23524343   2    1000023    6
    0.17982163   2    1000037    5
    0.15503816   2    1000025    6
    0.10290173   2    1000022    6
    0.030908835   2    1000022    4
    0.0015776588   3    1000022    24    5
    0.0012011774   2    1000023    4

DECAY 2000006  154.34454
    0.27838396   2    1000005    24
    0.20305928   2    1000006    23
    0.19215433   2    1000037    5
    0.12267351   2    1000006    25
    0.10673811   2    1000025    6
    0.087914085   2    1000023    6
    0.0078045954   2    1000024    5
    0.0012721237   2    1000022    6

DECAY 1000024  3.469469e-11
    0.60266622   3    1000022   -1    2
    0.20161113   3    1000022   -11    12
    0.19572265   3    1000022   -13    14

DECAY 1000037  0.86136529
    0.58941155   2    1000022    24
    0.30563616   2    1000024    23
    0.10493193   2    1000024    25

DECAY 1000022 -1


DECAY 1000023  0.90888684
    0.4829652   2    1000022    23
    0.25849909   2    1000024   -24
    0.25849909   2   -1000024    24

DECAY 1000025  1.3801589
    0.45186869   2    1000024   -24
    0.45186869   2   -1000024    24
    0.056843698   2    1000022    25
    0.039408619   2    1000022    23

DECAY 1000035  33.683039
    0.12017095   2    2000013   -13
    0.12017095   2   -2000013    13
    0.12016955   2    2000011   -11
    0.12016955   2   -2000011    11
    0.11258105   2    1000015   -15
    0.11258105   2   -1000015    15
    0.030933786   2    1000037   -24
    0.030933786   2   -1000037    24
    0.025627099   2    1000006   -6
    0.025627099   2   -1000006    6
    0.022256466   2    1000023    25
    0.019228262   2    1000025    23
    0.017438174   2    1000025    25
    0.012957401   2    1000023    23
    0.0094145826   2    1000014   -14
    0.0094145826   2   -1000014    14
    0.0094143123   2    1000012   -12
    0.0094143123   2   -1000012    12
    0.0092605088   2    1000013   -13
    0.0092605088   2   -1000013    13
    0.0092603288   2    1000011   -11
    0.0092603288   2   -1000011    11
    0.0043658665   2    2000006   -6
    0.0043658665   2   -2000006    6
    0.0040296615   2    1000005   -5
    0.0040296615   2   -1000005    5
    0.0034088121   2    1000024   -24
    0.0034088121   2   -1000024    24
    0.0021377601   2    1000022    23
    0.0017982976   2    1000022    25
    0.0013391024   2    2000005   -5
    0.0013391024   2   -2000005    5
    0.001101239   3    1000037    5   -6
    0.001101239   3   -1000037   -5    6
    0.00080127168   3    1000023    6   -6
    0.0006470614   3    1000025    6   -6
    0.00012540461   3    1000024    5   -6
    0.00012540461   3   -1000024   -5    6

DECAY 1000021  282.01392
    0.14522706   2    1000006   -6
    0.14522706   2   -1000006    6
    0.12631029   2    1000005   -5
    0.12631029   2   -1000005    5
    0.089896219   2    2000005   -5
    0.089896219   2   -2000005    5
    0.085070444   2    2000006   -6
    0.085070444   2   -2000006    6
    0.053401863   2    1000006   -4
    0.053401863   2   -1000006    4

DECAY 25  0.0041010196
    0.54899255   2   -5    5
    0.2552145   2   -24    24
    0.068962733   2    21    21
    0.063395797   2   -15    15
    0.031870504   2    23    23
    0.02711437   2   -4    4
    0.002359907   2    22    22
    0.0016627491   2    22    23
    0.00021976146   2   -13    13
    0.00020641758   2   -3    3
    5.7072316e-07   2   -1    1
    1.3972224e-07   2   -2    2
    4.9404612e-09   2   -11    11

DECAY 35  97.520664
    0.54332264   2   -5    5
    0.13068038   2   -15    15
    0.067590659   2   -1000024    1000037
    0.067590659   2   -1000037    1000024
    0.060529238   2   -1000024    1000024
    0.028829999   2    1000022    1000022
    0.027795414   2    1000022    1000023
    0.015096289   2    1000023    1000025
    0.014014301   2    1000022    1000025
    0.01323915   2    1000025    1000025
    0.0079332636   2   -1000037    1000037
    0.0057581305   2   -2000015    1000015
    0.0057581305   2   -1000015    2000015
    0.0029804501   2    1000025    1000035
    0.0025304493   2    1000023    1000023
    0.0021840355   2   -1000006    1000006
    0.0019254376   2    1000023    1000035
    0.0012367139   2    1000022    1000035
    0.00044524027   2   -13    13
    0.00027613009   2   -6    6
    0.0002682903   2   -3    3
    1.0247846e-05   2    21    21
    3.1619859e-06   2   -1000015    1000015
    7.4176791e-07   2   -1    1
    2.6390347e-07   2    25    25
    2.4075411e-07   2    22    23
    1.3129407e-07   2    23    23
    8.3791898e-08   2    22    22
    5.1580982e-08   2   -24    24
    2.709148e-08   2   -1000011    1000011
    2.6668672e-08   2   -1000013    1000013
    1.000043e-08   2   -11    11
    4.521562e-09   2   -4    4
    4.4987798e-10   2   -2000013    1000013
    4.4987798e-10   2   -1000013    2000013
    2.3307659e-14   2   -2    2
    1.0522719e-14   2   -2000011    1000011
    1.0522719e-14   2   -1000011    2000011

DECAY 36  92.380231
    0.5302692   2   -5    5
    0.12755097   2   -15    15
    0.072850058   2   -1000024    1000037
    0.072850058   2   -1000037    1000024
    0.062503938   2   -1000024    1000024
    0.03200548   2    1000022    1000023
    0.02963046   2    1000022    1000022
    0.016007166   2    1000023    1000025
    0.013344865   2    1000022    1000025
    0.013259713   2    1000025    1000025
    0.0069591905   2   -1000037    1000037
    0.0061310769   2   -2000015    1000015
    0.0061310769   2   -1000015    2000015
    0.003956976   2    1000023    1000035
    0.0029999845   2    1000023    1000023
    0.0015559344   2    1000025    1000035
    0.0010033159   2    1000022    1000035
    0.0004345783   2   -13    13
    0.0002789586   2   -6    6
    0.00026183973   2   -3    3
    1.4113184e-05   2    21    21
    7.2393301e-07   2   -1    1
    2.0129007e-07   2    23    25
    9.5153724e-08   2    22    23
    9.7609865e-09   2   -11    11
    6.2156903e-09   2    22    22
    4.4536915e-09   2   -4    4
    4.7320353e-10   2   -2000013    1000013
    4.7320353e-10   2   -1000013    2000013
    4.4328199e-13   2    23    35
    2.2958969e-14   2   -2    2
    1.1068278e-14   2   -2000011    1000011
    1.1068278e-14   2   -1000011    2000011
    4.6524808e-37   2    25    25

DECAY 37  95.503408
    0.53783491   2   -5    6
    0.13066976   2   -15    16
    0.11892899   2    1000022    1000037
    0.090813567   2    1000024    1000025
    0.085386964   2    1000023    1000024
    0.01418789   2    1000023    1000037
    0.01194515   2   -1000015    1000016
    0.004292316   2    1000035    1000037
    0.0019549993   2    1000024    1000035
    0.0018521685   2    1000025    1000037
    0.00079787   2   -5    4
    0.00060546631   2   -1000005    1000006
    0.00046196442   2   -13    14
    0.0002471508   2   -3    4
    1.1549851e-05   2   -3    2
    5.6976162e-06   2   -5    2
    1.6586866e-06   2    1000022    1000024
    9.5083587e-07   2   -3    6
    6.8596528e-07   2   -1    2
    1.9480443e-07   2    24    25
    3.2209998e-08   2   -1    4
    2.6916849e-08   2   -1    6
    1.0805396e-08   2   -11    12
    8.7103029e-09   2   -2000011    1000012
    8.6730195e-09   2   -2000013    1000014
    8.9972028e-10   2   -1000013    1000014
    2.1387197e-13   2    24    35
    2.1043679e-14   2   -1000011    1000012

DECAY 6  2.43
    1   2    5    24

DECAY 15 -1
