BLOCK SPINFO
   1   SPheno
   2   v4.0.5be

BLOCK SPHENOINFO
   1   2
   2   2

BLOCK MODSEL
   1   0

BLOCK MINPAR
   3    45.954269
   4    1

BLOCK EXTPAR
   0    1846.5961
   1    468.1943
   2   -446.16021
   3    2529.7712
   11   -2314.828
   12   -2305.6475
   13    5811.6126
   23    2399.0707
   25    45.106615
   26    3457.3102
   31    3042.8915
   32    3042.8915
   33    4504.8777
   34    2344.8298
   35    2344.8298
   36    1039.2436
   41    2871.6861
   42    2871.6861
   43    4760.5103
   44    2446.4682
   45    2446.4682
   46    213.04395
   47    3091.582
   48    3091.582
   49    2669.6312

BLOCK SMINPUTS
   1    127.90897
   2    1.1663787e-05
   3    0.1184
   4    91.1876
   5    4.18
   6    173.2
   7    1.777
   8    0
   11    0.00051099893
   12    0
   13    0.10565837
   14    0
   21    0.005
   22    0.0025
   23    0.095
   24    1.27

BLOCK GAUGE Q=  1846.5961
   1    0.35536298
   2    0.66519887
   3    1.219778

BLOCK YU Q=  1846.5961
   1   1    8.3864323e-06
   2   2    0.0042603076
   3   3    1.0131484

BLOCK YD Q=  1846.5961
   1   1    0.00076014725
   2   2    0.014442798
   3   3    0.75382788

BLOCK YE Q=  1846.5961
   1   1    0.00013265125
   2   2    0.027428072
   3   3    0.46129505

BLOCK AU Q=  1846.5961
   1   1    0
   2   2    0
   3   3   -2314.828

BLOCK AD Q=  1846.5961
   1   1    0
   2   2    0
   3   3   -2305.6475

BLOCK AE Q=  1846.5961
   1   1    0
   2   2    0
   3   3    5811.6126

BLOCK MSOFT Q=  1846.5961
   1    468.1943
   2   -446.16021
   3    2529.7712
   21    5611518.9
   22   -6490235.3
   31    3042.8915
   32    3042.8915
   33    4504.8777
   34    2344.8298
   35    2344.8298
   36    1039.2436
   41    2871.6861
   42    2871.6861
   43    4760.5103
   44    2446.4682
   45    2446.4682
   46    213.04395
   47    3091.582
   48    3091.582
   49    2669.6312

BLOCK MASS
   6    173.2
   23    91.1876
   24    80.429995
   15    1.777
   25    120.36658
   35    3456.1312
   36    3457.3102
   37    3457.0292
   1000001    2894.0872
   2000001    3105.1599
   1000002    2893.186
   2000002    2468.6291
   1000003    2894.0877
   2000003    3105.1641
   1000004    2893.1884
   2000004    2468.6297
   1000005    2743.1669
   2000005    4789.8065
   1000006    711.61312
   2000006    4791.8132
   1000011    3048.668
   2000011    2347.6593
   1000012    3047.2554
   1000013    3048.6786
   2000013    2347.6977
   1000014    3047.261
   1000015    1200.5633
   2000015    4515.0828
   1000016    4513.8596
   1000021    2668.5693
   1000022    469.24446
   1000023   -482.20507
   1000025    2425.1783
   1000035   -2425.4449
   1000024    482.35855
   1000037    2426.3407

BLOCK ALPHA
      -0.021788022

BLOCK HMIX Q=  1846.5961
   1    2399.0707
   2    45.106615
   3    244.39875
   4    11952994

BLOCK STOPMIX
   1   1    0.015116531
   1   2    0.99988574
   2   1   -0.99988574
   2   2    0.015116531

BLOCK SBOTMIX
   1   1    0.013922989
   1   2    0.99990307
   2   1   -0.99990307
   2   2    0.013922989

BLOCK STAUMIX
   1   1    0.0094035143
   1   2    0.99995579
   2   1   -0.99995579
   2   2    0.0094035143

BLOCK NMIX
   1   1   -0.99976587
   1   2   -0.00045651371
   1   3   -0.021119188
   1   4    0.004688524
   2   1    0.00020743727
   2   2    0.99945165
   2   3   -0.032648712
   2   4   -0.005516067
   3   1    0.018252007
   3   2   -0.019185282
   3   3   -0.70664987
   3   4    0.70706771
   4   1    0.011620326
   4   2   -0.026983791
   4   3   -0.70649416
   4   4   -0.70710879

BLOCK UMIX
   1   1   -0.99893428
   1   2    0.046155129
   2   1   -0.046155129
   2   2   -0.99893428

BLOCK VMIX
   1   1    0.99996955
   1   2    0.007804421
   2   1    0.007804421
   2   2   -0.99996955

BLOCK HIGGSBOUNDSINPUTHIGGSCOUPLINGSFERMIONS
       0, 2034.6067,3,36,15,15

BLOCK HIGGSBOUNDSINPUTHIGGSCOUPLINGSBOSONS
       0,4,36,21,21,23

BLOCK SPHENOLOWENERGY
   1    0.00031301839
   2    1.589649e-06
   3    3.5222252e-05
   4    2.4203488e-15
   5    1.0339366e-10
   6    2.1589941e-08
   7    8.1514625e-14
   8    3.482273e-09
   9    7.3680835e-07
   10    9.6067248e-05
   11    0.99233789
   12    0.54218303
   13    19.368345
   14    0
   15    0
   16    0.0021580166
   17    2.2816664e-15
   18    2.4784316e-11
   19    8.2845268e-11
   20   -2.0472001e-15
   21   -8.7523956e-11
   22   -3.251681e-08
   23    0
   24    0
   25    0
   26    0
   27    0
   28    0
   29    0
   30    0
   31    0
   39    6.9897118e-05
   40    0
   41    0
   42    0

BLOCK FWCOEF Q=  160
   305   4422   0   0   -0.18881911
   305   4422   0   2   -0.17994867
   305   4322   0   2    0.00039006895
   305   6421   0   0   -0.095227835
   305   6421   0   2   -0.092291159
   305   6321   0   2    0.00023557692
   3051111   4133   0   0    1.5999068
   3051111   4133   0   2    1.5994309
   3051111   4233   0   2    5.3690313e-06
   3051111   4137   0   0   -4.4225989
   3051111   4137   0   2   -4.4179545
   3051111   4237   0   2   -4.1071412e-05
   3051313   4133   0   0    1.5999068
   3051313   4133   0   2    1.599428
   3051313   4233   0   2    5.3686701e-06
   3051313   4137   0   0   -4.4225989
   3051313   4137   0   2   -4.4179573
   3051313   4237   0   2   -4.1071272e-05
   3051212   4137   0   0    1.5053501
   3051212   4137   0   2    1.5043409
   3051212   4237   0   2    8.9343106e-06
   3051414   4137   0   0    1.5053501
   3051414   4137   0   2    1.5043409
   3051414   4237   0   2    8.9343752e-06
   3051616   4137   0   0    1.5053501
   3051616   4137   0   2    1.504341
   3051616   4237   0   2    8.9526294e-06

BLOCK IMFWCOEF Q=  160
   305   4422   0   0    3.8587333e-07
   305   4422   0   2   -9.2105208e-07
   305   4322   0   2    8.5556986e-06
   305   6421   0   0    3.3052603e-07
   305   6421   0   2   -4.0504234e-06
   305   6321   0   2    6.3819219e-06
   3051111   4133   0   2   -2.7350219e-06
   3051111   4233   0   2    8.1846298e-07
   3051111   4137   0   2    2.2064212e-05
   3051111   4237   0   2   -6.2995748e-06
   3051313   4133   0   2   -2.7350019e-06
   3051313   4233   0   2    8.1846198e-07
   3051313   4137   0   2    2.2064237e-05
   3051313   4237   0   2   -6.2995777e-06
   3051212   4137   0   2   -4.7768384e-06
   3051212   4237   0   2    1.3704427e-06
   3051414   4137   0   2   -4.7768383e-06
   3051414   4237   0   2    1.3704427e-06
   3051616   4137   0   2   -4.7782669e-06
   3051616   4237   0   2    1.3704434e-06

DECAY 23  2.4952


DECAY 24  2.085


DECAY 2000011  10.867332
    0.99999996   2    1000022    11

DECAY 1000011  41.86446
    0.60806655   2   -1000024    12
    0.30442572   2    1000023    11
    0.0873017   2    1000022    11
    0.00018352896   2   -1000037    12

DECAY 2000013  10.867657
    0.99999048   2    1000022    13

DECAY 1000013  41.876488
    0.60789424   2   -1000024    14
    0.30434055   2    1000023    13
    0.087277426   2    1000022    13
    0.0001834813   2   -1000037    14
    0.00013516584   2    2000013    25

DECAY 1000015  4.3490935
    0.99560521   2    1000022    15
    0.0029287922   2   -1000024    16
    0.0014660016   2    1000023    15

DECAY 2000015  77.90349
    0.49721615   2   -1000024    16
    0.24917872   2    1000023    15
    0.071402165   2    1000022    15
    0.062098187   2    1000035    15
    0.062083995   2    1000025    15
    0.028826004   2    1000015    25
    0.028478927   2    1000015    23
    0.00071585667   2   -1000037    16

DECAY 1000012  41.872821
    0.60889464   2    1000024    11
    0.30407455   2    1000023    12
    0.08694214   2    1000022    12

DECAY 1000014  41.879094
    0.60880688   2    1000024    13
    0.30402961   2    1000023    14
    0.086929289   2    1000022    14
    0.000150793   2    1000037    13

DECAY 1000016  77.895092
    0.49901747   2    1000024    15
    0.24894242   2    1000023    16
    0.12378306   2    1000037    15
    0.071071988   2    1000022    16
    0.056934842   2    1000015    24
    0.00014215787   2    1000035    16
    0.00010806006   2    1000025    16

DECAY 1000001  41.568224
    0.5780789   2   -1000024    2
    0.28932805   2    1000023    1
    0.12327936   2    1000021    1
    0.0091617563   2    1000022    1
    0.00011526331   2   -1000037    2

DECAY 2000001  18.406806
    0.91010529   2    1000021    1
    0.089887348   2    1000022    1

DECAY 1000003  41.569415
    0.57806217   2   -1000024    4
    0.2893201   2    1000023    3
    0.12327636   2    1000021    3
    0.0091616158   2    1000022    3
    0.00011756672   2   -1000037    4

DECAY 2000003  18.411437
    0.90989129   2    1000021    3
    0.089865158   2    1000022    3
    0.00010591667   2   -1000037    4

DECAY 1000005  4.8862355
    0.29897737   2    1000022    5
    0.24132576   2   -1000037    6
    0.15102458   2    1000025    5
    0.15069372   2    1000035    5
    0.12752433   2    1000021    5
    0.020169715   2   -1000024    6
    0.010181542   2    1000023    5
    0.00010298557   2    1000006   -24

DECAY 2000005  358.53798
    0.50144031   2    1000021    5
    0.15086176   2   -1000037    6
    0.11448322   2   -1000024    6
    0.057609376   2    1000023    5
    0.044517748   2    1000006   -24
    0.041754602   2    1000025    5
    0.041745927   2    1000035    5
    0.026395781   2    1000006   -37
    0.013221395   2    1000005    25
    0.0061131097   2    1000005    23
    0.001856782   2    1000022    5

DECAY 2000002  5.119296
    0.99999934   2    1000022    2

DECAY 1000002  41.568136
    0.57907794   2    1000024    1
    0.28927104   2    1000023    2
    0.12237095   2    1000021    2
    0.0092530369   2    1000022    2

DECAY 2000004  5.119296
    0.99999892   2    1000022    4

DECAY 1000004  41.569327
    0.5790625   2    1000024    3
    0.28926288   2    1000023    4
    0.1223673   2    1000021    4
    0.009252777   2    1000022    4

DECAY 1000006  0.31091487
    0.99676257   2    1000022    6
    0.0030453466   2    1000023    4
    0.00010606112   2    1000022    4

DECAY 2000006  358.78083
    0.49807033   2    1000021    6
    0.11552649   2    1000024    5
    0.083310533   2    1000037    5
    0.075331502   2    1000025    6
    0.075049467   2    1000035    6
    0.057414577   2    1000023    6
    0.032484803   2    1000006    25
    0.022266543   2    1000006    23
    0.013233273   2    1000006    35
    0.013221018   2    1000006    36
    0.012256658   2    1000005    24
    0.0018348088   2    1000022    6

DECAY 1000024  3.8862363e-13
    0.42260541   3    1000022   -1    2
    0.40507818   3    1000022   -3    4
    0.079530657   3    1000022   -15    16
    0.046172674   3    1000022   -11    12
    0.046169351   3    1000022   -13    14
    0.00041295378   3    1000023   -11    12

DECAY 1000037  82.316475
    0.75429579   2    1000006   -5
    0.063204532   2    1000024    25
    0.057293046   2    1000023    24
    0.057155278   2    1000024    23
    0.035456998   2   -1000015    16
    0.024641953   2    1000022    24
    0.0041543911   3    1000024    6   -6
    0.0028467115   3    1000023   -5    6
    0.00088656373   3    1000022   -5    6

DECAY 1000022 -1


DECAY 1000023  1.4221007e-12
    0.56909407   2    1000022    22
    0.10188913   3    1000022    1   -1
    0.10182543   3    1000022    3   -3
    0.0818274   3    1000022    2   -2
    0.072416898   3    1000022    4   -4
    0.031265654   3    1000022    12   -12
    0.019686345   3    1000022    5   -5
    0.0099887261   3    1000022    15   -15
    0.0060032151   3    1000022    11   -11
    0.0060031389   3    1000022    13   -13

DECAY 1000025  83.713724
    0.37070501   2    1000006   -6
    0.37070501   2   -1000006    6
    0.056277899   2    1000024   -24
    0.056277899   2   -1000024    24
    0.045665756   2    1000023    25
    0.037429504   2    1000023    23
    0.017450285   2    1000015   -15
    0.017450285   2   -1000015    15
    0.012918825   2    1000022    25
    0.0069790199   2    1000022    23
    0.0027700944   3    1000024    5   -6
    0.0027700944   3   -1000024   -5    6
    0.0019516362   3    1000023    6   -6
    0.00059022038   3    1000022    6   -6

DECAY 1000035  83.047987
    0.37584168   2    1000006   -6
    0.37584168   2   -1000006    6
    0.056773547   2    1000024   -24
    0.056773547   2   -1000024    24
    0.042164155   2    1000023    25
    0.019057936   2    1000023    23
    0.017577249   2    1000015   -15
    0.017577249   2   -1000015    15
    0.0173659   2    1000022    23
    0.011958626   2    1000022    25
    0.0032223855   3    1000024    5   -6
    0.0032223855   3   -1000024   -5    6
    0.0019614018   3    1000023    6   -6
    0.00060105082   3    1000022    6   -6

DECAY 1000021  71.386273
    0.47501834   2    1000006   -6
    0.47501834   2   -1000006    6
    0.011509716   2    2000002   -2
    0.011509716   2   -2000002    2
    0.011509429   2    2000004   -4
    0.011509429   2   -2000004    4
    0.00049388203   2    1000006   -4
    0.00049388203   2   -1000006    4
    0.00039565295   3    1000024    1   -2
    0.00039565295   3   -1000024   -1    2
    0.0003956516   3    1000024    3   -4
    0.0003956516   3   -1000024   -3    4
    0.00028253354   3    1000023    2   -2
    0.00028253157   3    1000023    4   -4
    0.0002817611   3    1000023    3   -3
    0.00028176102   3    1000023    1   -1

DECAY 25  0.0033651718
    0.64011095   2   -5    5
    0.1578821   2   -24    24
    0.075942042   2    21    21
    0.073091279   2   -15    15
    0.031653768   2   -4    4
    0.017410388   2    23    23
    0.0023037596   2    22    22
    0.0011113434   2    22    23
    0.00025349613   2   -13    13
    0.00024003587   2   -3    3
    6.6367187e-07   2   -1    1
    1.631349e-07   2   -2    2
    5.6989392e-09   2   -11    11

DECAY 35  77.597976
    0.6799612   2   -5    5
    0.17916072   2   -15    15
    0.041855433   2   -1000024    1000037
    0.041855433   2   -1000037    1000024
    0.027562785   2    1000022    1000025
    0.014208129   2    1000022    1000035
    0.0086062982   2    1000023    1000035
    0.0035730883   2    1000023    1000025
    0.00078850334   2   -1000024    1000024
    0.00060116518   2   -13    13
    0.00051999772   2   -6    6
    0.00039406226   2    1000022    1000022
    0.0003375523   2   -1000006    1000006
    0.00024252117   2    1000022    1000023
    0.00020863087   2   -3    3
    8.2947373e-05   2   -1000015    1000015
    3.2278714e-05   2    1000023    1000023
    6.4303512e-06   2    21    21
    2.0534494e-06   2    25    25
    5.7669484e-07   2   -1    1
    8.9674738e-08   2    23    23
    5.0636988e-08   2    22    23
    2.2585539e-08   2   -24    24
    1.4150729e-08   2    22    22
    1.3501226e-08   2   -11    11
    5.4470698e-09   2   -4    4
    2.8049619e-14   2   -2    2

DECAY 36  73.598881
    0.67415734   2   -5    5
    0.17764518   2   -15    15
    0.044193493   2   -1000024    1000037
    0.044193493   2   -1000037    1000024
    0.029072915   2    1000022    1000035
    0.01504004   2    1000022    1000025
    0.0090979858   2    1000023    1000025
    0.0037723889   2    1000023    1000035
    0.0008782617   2   -1000024    1000024
    0.00059607659   2   -13    13
    0.0004389116   2    1000022    1000022
    0.00041675679   2   -6    6
    0.00023848949   2    1000022    1000023
    0.00020684243   2   -3    3
    3.7437461e-05   2    1000023    1000023
    1.3606775e-05   2    21    21
    5.7174968e-07   2   -1    1
    1.7258239e-07   2    23    25
    1.4621827e-08   2    22    23
    1.3386907e-08   2   -11    11
    7.73348e-09   2    22    22
    4.1755377e-09   2   -4    4
    3.4008095e-14   2    23    35
    2.1498225e-14   2   -2    2
    1.3864866e-38   2    25    25

DECAY 37  88.244707
    0.71075052   2   -5    6
    0.16544795   2   -15    16
    0.036994206   2    1000022    1000037
    0.036929457   2    1000024    1000035
    0.036917471   2    1000024    1000025
    0.01071276   2    1000023    1000037
    0.0010530966   2   -5    4
    0.00058491746   2   -13    14
    0.00041243051   2    1000023    1000024
    0.00017924632   2   -3    4
    8.4084987e-06   2   -3    2
    7.5201959e-06   2   -5    2
    1.293334e-06   2   -3    6
    4.9720786e-07   2   -1    2
    1.439712e-07   2    24    25
    4.7106874e-08   2   -1    6
    2.3686826e-08   2   -1    4
    1.368128e-08   2   -11    12
    2.1316151e-11   2    1000022    1000024

DECAY 6  2.43
    1   2    5    24

DECAY 15 -1
