BLOCK DCINFO
   1   SDECAY/HDECAY
   2   1.3b /3.4

BLOCK SPINFO
   1   SOFTSUSY
   2   3.4.0

BLOCK MODSEL
   1   0

BLOCK SMINPUTS
   1    127.90897
   2    1.1663787e-05
   3    0.1184
   4    91.1876
   5    4.18
   6    173.2
   7    1.777

BLOCK MINPAR
   3    47.62

BLOCK EXTPAR
   0   -1
   1   -1255.89
   2   -1221.91
   3    1843.68
   11    3036.71
   12    528.29
   13   -1023.62
   23   -1293.93
   26    3446.8
   31    2066.63
   32    2066.63
   33    3485.84
   34    3421.1
   35    3421.1
   36    3535.76
   41    2846.62
   42    2846.62
   43    3424.17
   44    3929.57
   45    3929.57
   46    1726.64
   47    3481.1
   48    3481.1
   49    2005.39

BLOCK MASS
   24    80.390333
   25    125.08883
   35    3446.7754
   36    3446.8
   37    3447.7476
   5    4.8187603
   1000001    2902.2605
   2000001    3522.8864
   1000002    2901.3162
   2000002    3971.3888
   1000003    2902.2605
   2000003    3522.8864
   1000004    2901.3162
   2000004    3971.3888
   1000005    2054.4178
   2000005    3431.4669
   1000006    1800.1534
   2000006    3435.9943
   1000011    2077.095
   2000011    3423.5187
   1000012    2075.2652
   1000013    2077.095
   2000013    3423.5187
   1000014    2075.2652
   1000015    3483.0471
   2000015    3534.8977
   1000016    3488.2951
   1000021    2066.6858
   1000022   -1232.7775
   1000023   -1258.8253
   1000025    1371.0115
   1000035   -1400.6592
   1000024    1244.074
   1000037    1395.5813

BLOCK NMIX
   1   1   -0.64702639
   1   2    0.63956338
   1   3    0.30802464
   1   4   -0.27827389
   2   1    0.73432621
   2   2    0.66924441
   2   3    0.083721318
   2   4   -0.076600745
   3   1    0.01189224
   3   2   -0.020470117
   3   3    0.70649141
   3   4    0.70732555
   4   1    0.2048913
   4   2   -0.37769243
   4   3    0.63164978
   4   4   -0.6452802

BLOCK UMIX
   1   1    0.90864641
   1   2    0.41756641
   2   1   -0.41756641
   2   2    0.90864641

BLOCK VMIX
   1   1   -0.92497176
   1   2   -0.38003584
   2   1    0.38003584
   2   2   -0.92497176

BLOCK STOPMIX
   1   1   -0.048405163
   1   2    0.99882778
   2   1   -0.99882778
   2   2   -0.048405163

BLOCK SBOTMIX
   1   1   -0.027868611
   1   2    0.99961159
   2   1   -0.99961159
   2   2   -0.027868611

BLOCK STAUMIX
   1   1    0.93655696
   1   2   -0.35051543
   2   1    0.35051543
   2   2    0.93655696

BLOCK ALPHA
      -0.020757244

BLOCK HMIX Q=  2433.048
   1   -1363.2261
   2    48.241922
   3    242.70668
   4    13898010

BLOCK GAUGE Q=  2433.048
   1    0.3640002
   2    0.63677123
   3    1.0207571

BLOCK AU Q=  2433.048
   1   1    0
   2   2    0
   3   3    3036.71

BLOCK AD Q=  2433.048
   1   1    0
   2   2    0
   3   3    528.29001

BLOCK AE Q=  2433.048
   1   1    0
   2   2    0
   3   3   -1023.62

BLOCK YU Q=  2433.048
   1   1    0
   2   2    0
   3   3    0.8406778

BLOCK YD Q=  2433.048
   1   1    0
   2   2    0
   3   3    0.9175341

BLOCK YE Q=  2433.048
   1   1    0
   2   2    0
   3   3    0.51135035

BLOCK MSOFT Q=  2433.048
   1   -1255.89
   2   -1221.91
   3    1843.68
   21    10537376
   22   -1821554.6
   31    2066.63
   32    2066.63
   33    3485.84
   34    3421.1
   35    3421.1
   36    3535.76
   41    2846.62
   42    2846.62
   43    3424.17
   44    3929.57
   45    3929.57
   46    1726.64
   47    3481.1
   48    3481.1
   49    2005.39

BLOCK HIGGSBOUNDSINPUTHIGGSCOUPLINGSFERMIONS
       0, 2327.2831,3,36,15,15

BLOCK HIGGSBOUNDSINPUTHIGGSCOUPLINGSBOSONS
       0,4,36,21,21,23

DECAY 6  1.428013
    1   2    5    24

DECAY 1000021  2.1607682
    0.49846793   2    1000006   -6
    0.49846793   2   -1000006    6
    0.0015320737   2    1000005   -5
    0.0015320737   2   -1000005    5

DECAY 1000006  9.5978062
    0.34813924   2    1000037    5
    0.21650754   2    1000025    6
    0.15613748   2    1000035    6
    0.12329914   2    1000024    5
    0.084024377   2    1000022    6
    0.07189223   2    1000023    6

DECAY 2000006  213.44087
    0.36124145   2    1000021    6
    0.17242213   2    1000037    5
    0.11462985   2    1000024    5
    0.079070353   2    1000025    6
    0.074888635   2    1000035    6
    0.064526224   2    1000006    25
    0.054315432   2    1000006    23
    0.031870397   2    1000023    6
    0.024245267   2    1000005    24
    0.022790259   2    1000022    6

DECAY 1000005  21.269074
    0.35771883   2   -1000037    6
    0.24820638   2    1000025    5
    0.18166837   2    1000035    5
    0.11761313   2   -1000024    6
    0.07800965   2    1000022    5
    0.0167787   2    1000023    5
    4.9471027e-06   2    1000006   -24

DECAY 2000005  210.70473
    0.3656365   2    1000021    5
    0.15903806   2   -1000037    6
    0.10626121   2    1000006   -24
    0.099280547   2   -1000024    6
    0.096259829   2    1000025    5
    0.085192171   2    1000035    5
    0.046792411   2    1000022    5
    0.015080307   2    1000023    5
    0.013902005   2    1000005    25
    0.012556962   2    1000005    23

DECAY 1000002  71.380439
    0.68634729   2    1000021    2
    0.17974654   2    1000024    1
    0.068048769   2    1000023    2
    0.028224658   2    1000022    2
    0.026948232   2    1000037    1
    0.010652949   2    1000035    2
    3.156226e-05   2    1000025    2

DECAY 2000002  154.24123
    0.95275276   2    1000021    2
    0.025436244   2    1000023    2
    0.019927494   2    1000022    2
    0.0018771013   2    1000035    2
    6.3985875e-06   2    1000025    2

DECAY 1000001  71.423703
    0.68707489   2    1000021    1
    0.17346068   2   -1000024    2
    0.061623887   2    1000022    1
    0.032537341   2   -1000037    2
    0.029120343   2    1000023    1
    0.016133622   2    1000035    1
    4.9238409e-05   2    1000025    1

DECAY 2000001  106.97156
    0.98580653   2    1000021    1
    0.0076373407   2    1000023    1
    0.0060000199   2    1000022    1
    0.00055421414   2    1000035    1
    1.8962838e-06   2    1000025    1

DECAY 1000004  62.183577
    0.62579717   2    1000021    4
    0.21448446   2    1000024    3
    0.081190187   2    1000023    4
    0.033682371   2    1000022    4
    0.032113839   2    1000037    3
    0.012694346   2    1000035    4
    3.7620943e-05   2    1000025    4

DECAY 2000004  124.26758
    0.93931211   2    1000021    4
    0.032671759   2    1000023    4
    0.02559781   2    1000022    4
    0.0024101013   2    1000035    4
    8.2161545e-06   2    1000025    4

DECAY 1000003  62.207973
    0.62659601   2    1000021    3
    0.20702691   2   -1000024    4
    0.073555318   2    1000022    3
    0.038782436   2   -1000037    4
    0.034751286   2    1000023    3
    0.01922933   2    1000035    3
    5.8702585e-05   2    1000025    3

DECAY 2000003  85.335674
    0.98155956   2    1000021    3
    0.0099223704   2    1000023    3
    0.0077960189   2    1000022    3
    0.00071958325   2    1000035    3
    2.462439e-06   2    1000025    3

DECAY 1000011  10.970399
    0.51854827   2   -1000024    12
    0.36254657   2    1000023    11
    0.080137255   2   -1000037    12
    0.023306372   2    1000022    11
    0.015416075   2    1000035    11
    4.5458994e-05   2    1000025    11

DECAY 2000011  13.528949
    0.53799554   2    1000023    11
    0.42304692   2    1000022    11
    0.038824539   2    1000035    11
    0.00013300563   2    1000025    11

DECAY 1000013  10.970399
    0.51854827   2   -1000024    14
    0.36254657   2    1000023    13
    0.080137256   2   -1000037    14
    0.023306372   2    1000022    13
    0.015416075   2    1000035    13
    4.5458994e-05   2    1000025    13

DECAY 2000013  13.528949
    0.53799554   2    1000023    13
    0.42304692   2    1000022    13
    0.038824539   2    1000035    13
    0.00013300563   2    1000025    13

DECAY 1000015  47.616611
    0.42129052   2   -1000024    16
    0.25680208   2    1000023    15
    0.13268336   2    1000025    15
    0.1094976   2    1000022    15
    0.072113235   2    1000035    15
    0.0076132067   2   -1000037    16

DECAY 2000015  41.316044
    0.33858438   2   -1000037    16
    0.19922488   2    1000023    15
    0.19727293   2    1000035    15
    0.16391206   2    1000025    15
    0.10099526   2    1000022    15
    1.0478947e-05   2   -1000024    16

DECAY 1000012  10.99282
    0.53472337   2    1000024    11
    0.32490412   2    1000022    12
    0.065993474   2    1000037    11
    0.055266806   2    1000035    12
    0.018932429   2    1000023    12
    0.00017980686   2    1000025    12

DECAY 1000014  10.99282
    0.53472337   2    1000024    13
    0.32490412   2    1000022    14
    0.065993473   2    1000037    13
    0.055266806   2    1000035    14
    0.018932429   2    1000023    14
    0.00017980686   2    1000025    14

DECAY 1000016  48.25936
    0.4298622   2    1000024    15
    0.27854302   2    1000037    15
    0.22749317   2    1000022    16
    0.050219629   2    1000035    16
    0.013726997   2    1000023    16
    0.00015497552   2    1000025    16

DECAY 1000024  3.8686009e-07
    0.33750192   3    1000022    2   -1
    0.33750192   3    1000022    4   -3
    0.11263644   3    1000022   -11    12
    0.11263644   3    1000022   -13    14
    0.099723282   3    1000022   -15    16

DECAY 1000037  1.4427777
    0.37533188   2    1000023    24
    0.35908689   2    1000024    23
    0.19545584   2    1000024    25
    0.070125394   2    1000022    24

DECAY 1000022 -1


DECAY 1000023  3.5802022e-06
    0.25122673   2    1000022    22
    0.12568696   3    1000024   -2    1
    0.12568696   3   -1000024   -1    2
    0.12568696   3    1000024   -4    3
    0.12568696   3   -1000024   -3    4
    0.04195045   3    1000024   -12    11
    0.04195045   3   -1000024    12   -11
    0.04195045   3    1000024   -14    13
    0.04195045   3   -1000024    14   -13
    0.039005592   3    1000024   -16    15
    0.039005592   3   -1000024    16   -15
    3.8360795e-05   3    1000022   -1    1
    3.8360795e-05   3    1000022   -3    3
    3.147797e-05   3    1000022   -5    5
    2.108901e-05   3    1000022   -2    2
    2.108901e-05   3    1000022   -4    4
    1.3914444e-05   3    1000022   -16    16
    1.1419114e-05   3    1000022   -12    12
    1.1419114e-05   3    1000022   -14    14
    8.7833884e-06   3    1000022   -11    11
    8.7833884e-06   3    1000022   -13    13
    7.7392222e-06   3    1000022   -15    15

DECAY 1000025  1.0928025
    0.38921428   2    1000022    23
    0.30156691   2    1000024   -24
    0.30156691   2   -1000024    24
    0.0074624332   2    1000023    23
    0.00018947371   2    1000022    25

DECAY 1000035  1.5650621
    0.36335703   2    1000024   -24
    0.36335703   2   -1000024    24
    0.26202858   2    1000022    25
    0.0092520163   2    1000023    25
    0.0019384508   2    1000022    23
    6.6895787e-05   2    1000023    23

DECAY 25  0.0037590463
    0.56401036   2    5   -5
    0.22572083   2    24   -24
    0.085181804   2    21    21
    0.069084376   2   -15    15
    0.028218632   2    23    23
    0.023085382   2    4   -4
    0.0025121031   2    22    22
    0.0016749425   2    22    23
    0.00026705072   2    3   -3
    0.00024451947   2   -13    13

DECAY 35  193.58518
    0.80314509   2    5   -5
    0.081062658   2   -15    15
    0.02964246   2    1000024   -1000037
    0.02964246   2    1000037   -1000024
    0.024382636   2    1000022    1000025
    0.0071895122   2    1000024   -1000024
    0.0060791746   2    1000025    1000035
    0.0045753255   2    1000022    1000022
    0.0043272227   2    1000022    1000035
    0.0034692227   2    1000037   -1000037
    0.0027113193   2    1000035    1000035
    0.001888794   2    1000023    1000025
    0.00067326296   2    1000022    1000023
    0.00033144224   2    1000023    1000035
    0.00030466735   2    6   -6
    0.00027601731   2   -13    13
    0.0002531926   2    3   -3
    2.4729759e-05   2    1000023    1000023
    1.2580309e-05   2    1000025    1000025
    7.9214961e-06   2    21    21
    1.9094035e-07   2    25    25
    6.6888055e-08   2    24   -24
    3.3380443e-08   2    23    23
    1.5447674e-08   2    22    22
    4.1344395e-09   2    23    22
    3.0919503e-09   2    4   -4

DECAY 36  193.56679
    0.80323592   2    5   -5
    0.08107113   2   -15    15
    0.021321624   2    1000024   -1000037
    0.021321624   2    1000037   -1000024
    0.016170818   2    1000024   -1000024
    0.011324961   2    1000022    1000035
    0.011059502   2    1000037   -1000037
    0.010100234   2    1000022    1000022
    0.0096320498   2    1000022    1000025
    0.0086948765   2    1000035    1000035
    0.0019929802   2    1000025    1000035
    0.0015207223   2    1000022    1000023
    0.00089254864   2    1000023    1000035
    0.00072583609   2    1000023    1000025
    0.00030574942   2    6   -6
    0.00027604586   2   -13    13
    0.00025322612   2    3   -3
    5.7204217e-05   2    1000023    1000023
    3.1538461e-05   2    1000025    1000025
    1.1299147e-05   2    21    21
    6.7833499e-08   2    23    25
    3.0832285e-08   2    22    22
    8.2657696e-09   2    23    22
    3.1115399e-09   2    4   -4

DECAY 37  205.80161
    0.81384255   2    6   -5
    0.076272448   2   -15    16
    0.033372583   2    1000037    1000023
    0.027959285   2    1000024    1000025
    0.027860453   2    1000024    1000035
    0.0066412569   2    1000037    1000022
    0.004791213   2    1000037    1000025
    0.0041184098   2    1000024    1000023
    0.002777878   2    1000024    1000022
    0.0013689656   2    4   -5
    0.00047499034   2    1000037    1000035
    0.00025970643   2   -13    14
    0.00023458979   2    4   -3
    1.3689644e-05   2    2   -5
    1.1918231e-05   2    2   -3
    6.3883672e-08   2    24    25
    4.8849561e-15   2    24    36

DECAY 5 -1


DECAY 15 -1


DECAY 23  2.4952


DECAY 24  2.085
