BLOCK SPINFO
   1   SPheno
   2   v4.0.5be

BLOCK SPHENOINFO
   1   2
   2   2

BLOCK MODSEL
   1   0

BLOCK MINPAR
   3    47.777182
   4   -1

BLOCK EXTPAR
   0    1221.5108
   1   -1585.2376
   2    1011.135
   3    3000
   11    1949.3846
   12    951.14071
   13    533.97127
   23   -566.22571
   25    48.236986
   26    4366.6818
   31    1721.0268
   32    1721.0268
   33    1363.4667
   34    1036.9306
   35    1036.9306
   36    825.95967
   41    5000
   42    5000
   43    792.28444
   44    5000
   45    5000
   46    1955.8593
   47    5000
   48    5000
   49    1461.6809

BLOCK SMINPUTS
   1    127.90897
   2    1.1663787e-05
   3    0.1184
   4    91.1876
   5    4.18
   6    173.2
   7    1.777
   8    0
   11    0.00051099893
   12    0
   13    0.10565837
   14    0
   21    0.005
   22    0.0025
   23    0.095
   24    1.27

BLOCK GAUGE Q=  1221.5108
   1    0.35536298
   2    0.66519887
   3    1.219778

BLOCK YU Q=  1221.5108
   1   1    8.3861736e-06
   2   2    0.0042601762
   3   3    1.0131171

BLOCK YD Q=  1221.5108
   1   1    0.00081287592
   2   2    0.015444642
   3   3    0.80611819

BLOCK YE Q=  1221.5108
   1   1    0.00014185279
   2   2    0.029330658
   3   3    0.49329342

BLOCK AU Q=  1221.5108
   1   1    0
   2   2    0
   3   3    1949.3846

BLOCK AD Q=  1221.5108
   1   1    0
   2   2    0
   3   3    951.14063

BLOCK AE Q=  1221.5108
   1   1    0
   2   2    0
   3   3    533.97126

BLOCK MSOFT Q=  1221.5108
   1   -1585.2376
   2    1011.135
   3    3000
   21    18574457
   22   -299409.7
   31    1721.0268
   32    1721.0268
   33    1363.4667
   34    1036.9306
   35    1036.9306
   36    825.95967
   41    5000
   42    5000
   43    792.28444
   44    5000
   45    5000
   46    1955.8593
   47    5000
   48    5000
   49    1461.6809

BLOCK MASS
   6    173.2
   23    91.1876
   24    80.429995
   15    1.777
   25    120.19361
   35    4359.5757
   36    4366.6818
   37    4360.9243
   1000001    5011.9268
   2000001    5002.0404
   1000002    5011.4635
   2000002    5006.1466
   1000003    5011.941
   2000003    5002.0639
   1000004    5011.4761
   2000004    5006.1479
   1000005    776.20367
   2000005    1528.3386
   1000006    769.69006
   2000006    1938.5577
   1000011    1730.8344
   2000011    1030.4542
   1000012    1728.588
   1000013    1730.8676
   2000013    1030.5741
   1000014    1728.6205
   1000015    857.89018
   2000015    1388.3373
   1000016    1384.7844
   1000021    3167.427
   1000022    564.58222
   1000023   -570.88428
   1000025    1057.8238
   1000035   -1588.0714
   1000024    566.68322
   1000037    1058.0012

BLOCK ALPHA
      -0.020945984

BLOCK HMIX Q=  1221.5108
   1   -566.22571
   2    48.236986
   3    244.27065
   4    19067910

BLOCK STOPMIX
   1   1   -0.99517388
   1   2    0.098127176
   2   1   -0.098127176
   2   2   -0.99517388

BLOCK SBOTMIX
   1   1   -0.9984735
   1   2    0.055232859
   2   1   -0.055232859
   2   2   -0.9984735

BLOCK STAUMIX
   1   1   -0.039044513
   1   2    0.99923747
   2   1   -0.99923747
   2   2   -0.039044513

BLOCK NMIX
   1   1   -0.013802257
   1   2   -0.11324262
   1   3   -0.70609396
   1   4   -0.69886832
   2   1    0.031083436
   2   2    0.036085984
   2   3   -0.70588568
   2   4    0.70672274
   3   1   -0.0017440898
   3   2    0.99291138
   3   3   -0.054864719
   3   4   -0.10542209
   4   1   -0.99941997
   4   2    0.00095350651
   4   3   -0.012106996
   4   4    0.031815651

BLOCK UMIX
   1   1   -0.07776834
   1   2   -0.99697146
   2   1    0.99697146
   2   2   -0.07776834

BLOCK VMIX
   1   1   -0.14941529
   1   2    0.98877453
   2   1    0.98877453
   2   2    0.14941529

BLOCK HIGGSBOUNDSINPUTHIGGSCOUPLINGSFERMIONS
       0, 2326.8068,3,36,15,15

BLOCK HIGGSBOUNDSINPUTHIGGSCOUPLINGSBOSONS
       0,4,36,21,21,23

BLOCK SPHENOLOWENERGY
   1    0.00029857652
   2    1.5915109e-06
   3    3.5195302e-05
   4    2.3439897e-15
   5    1.0013184e-10
   6    2.092045e-08
   7    7.95732e-14
   8    3.3993385e-09
   9    7.1956266e-07
   10    9.630247e-05
   11    0.99476765
   12    0.54236352
   13    19.377216
   14    0
   15    0
   16    0.0021585629
   17    2.2816715e-15
   18    2.4765677e-11
   19    8.2821044e-11
   20   -9.2344358e-15
   21   -3.9484648e-10
   22   -1.4285296e-07
   23    0
   24    0
   25    0
   26    0
   27    0
   28    0
   29    0
   30    0
   31    0
   39    0.00010189472
   40    0
   41    0
   42    0

BLOCK FWCOEF Q=  160
   305   4422   0   0   -0.18881911
   305   4422   0   2   -0.16134527
   305   4322   0   2    2.1278394e-05
   305   6421   0   0   -0.095227835
   305   6421   0   2   -0.085709068
   305   6321   0   2   -4.7049505e-05
   3051111   4133   0   0    1.5851934
   3051111   4133   0   2    1.5864523
   3051111   4233   0   2    0.00035201602
   3051111   4137   0   0   -4.4078855
   3051111   4137   0   2   -4.400696
   3051111   4237   0   2   -0.0027647323
   3051313   4133   0   0    1.5851934
   3051313   4133   0   2    1.5864499
   3051313   4233   0   2    0.00035201262
   3051313   4137   0   0   -4.4078855
   3051313   4137   0   2   -4.4006984
   3051313   4237   0   2   -0.0027647398
   3051212   4137   0   0    1.5053501
   3051212   4137   0   2    1.5037889
   3051212   4237   0   2    0.0006034691
   3051414   4137   0   0    1.5053501
   3051414   4137   0   2    1.5037889
   3051414   4237   0   2    0.00060346914
   3051616   4137   0   0    1.5053501
   3051616   4137   0   2    1.503789
   3051616   4237   0   2    0.00060347919

BLOCK IMFWCOEF Q=  160
   305   4422   0   0    3.8587737e-07
   305   4422   0   2   -4.0777429e-05
   305   4322   0   2    1.5183055e-06
   305   6421   0   0    3.3052949e-07
   305   6421   0   2   -2.6281146e-06
   305   6321   0   2    7.0841681e-07
   3051111   4133   0   2   -1.8611405e-07
   3051111   4233   0   2    6.829603e-06
   3051111   4137   0   2    3.3606929e-06
   3051111   4237   0   2   -5.3648528e-05
   3051313   4133   0   2   -1.86142e-07
   3051313   4233   0   2    6.8295468e-06
   3051313   4137   0   2    3.360734e-06
   3051313   4237   0   2   -5.3648665e-05
   3051212   4137   0   2   -5.8593977e-07
   3051212   4237   0   2    1.1710075e-05
   3051414   4137   0   2   -5.8593946e-07
   3051414   4237   0   2    1.1710075e-05
   3051616   4137   0   2   -5.8571392e-07
   3051616   4237   0   2    1.1710076e-05

DECAY 23  2.4952


DECAY 24  2.085


DECAY 2000011  0.0028864072
    0.83254211   2    1000023    11
    0.16738865   2    1000022    11

DECAY 1000011  9.1166015
    0.65171807   2   -1000037    12
    0.32273309   2    1000025    11
    0.009707855   2    1000022    11
    0.0080606292   2   -1000024    12
    0.0059375795   2    1000035    11
    0.001842779   2    1000023    11

DECAY 2000013  0.01996381
    0.42809165   2   -1000024    14
    0.33196264   2    1000023    13
    0.23994571   2    1000022    13

DECAY 1000013  9.1417651
    0.64996639   2   -1000037    14
    0.3218692   2    1000025    13
    0.01097179   2    1000022    13
    0.0080386699   2   -1000024    14
    0.0059237913   2    1000035    13
    0.0031200433   2    1000023    13
    0.00011010884   2    2000013    25

DECAY 1000015  2.6402977
    0.50150634   2   -1000024    16
    0.254992   2    1000022    15
    0.24350166   2    1000023    15

DECAY 2000015  8.5836226
    0.27619413   2    1000022    15
    0.27120862   2    1000023    15
    0.2495093   2   -1000037    16
    0.12397089   2    1000025    15
    0.040388946   2    1000015    25
    0.036367237   2    1000015    23
    0.0023608778   2   -1000024    16

DECAY 1000012  9.1528317
    0.63570217   2    1000037    11
    0.32124708   2    1000025    12
    0.029579921   2    1000024    11
    0.0074352408   2    1000022    12
    0.0057851873   2    1000035    12
    0.00025039622   2    1000023    12

DECAY 1000014  9.1769307
    0.63408039   2    1000037    13
    0.32042393   2    1000025    14
    0.032057556   2    1000024    13
    0.0074159217   2    1000022    14
    0.0057724536   2    1000035    14
    0.00024974567   2    1000023    14

DECAY 1000016  8.5982841
    0.55976267   2    1000024    15
    0.24087321   2    1000037    15
    0.12144482   2    1000025    16
    0.072210468   2    1000015    24
    0.0055234797   2    1000022    16
    0.00018534507   2    1000023    16

DECAY 2000001  143.9344
    0.98430764   2    1000021    1
    0.015669551   2    1000035    1

DECAY 1000001  203.71993
    0.70049976   2    1000021    1
    0.19650563   2   -1000037    2
    0.097518218   2    1000025    1
    0.0028054984   2    1000035    1
    0.0012956716   2    1000022    1
    0.0012766008   2   -1000024    2

DECAY 2000003  143.98298
    0.98399251   2    1000021    3
    0.015664389   2    1000035    3
    0.00015969455   2   -1000024    4

DECAY 1000003  203.74648
    0.70041572   2    1000021    3
    0.19648088   2   -1000037    4
    0.097506152   2    1000025    3
    0.0028051578   2    1000035    3
    0.0013520879   2    1000022    3
    0.001284888   2   -1000024    4
    0.00015511652   2    1000023    3

DECAY 1000005  3.6433926
    0.39941526   2   -1000024    6
    0.31147891   2    1000022    5
    0.28910583   2    1000023    5

DECAY 2000005  34.449007
    0.4131167   2   -1000024    6
    0.21194069   2    1000023    5
    0.21112045   2    1000022    5
    0.08692622   2    1000006   -24
    0.042750758   2    1000005    23
    0.030713491   2    1000005    25
    0.0022581937   2   -1000037    6
    0.0011734888   2    1000025    5

DECAY 2000002  151.14839
    0.94015878   2    1000021    2
    0.059757668   2    1000035    2

DECAY 1000002  203.71347
    0.70028495   2    1000021    2
    0.19327258   2    1000037    1
    0.097388688   2    1000025    2
    0.0047123766   2    1000024    1
    0.0027457336   2    1000035    2
    0.0014129389   2    1000022    2
    0.00018273862   2    1000023    2

DECAY 2000004  151.15197
    0.94013691   2    1000021    4
    0.05975626   2    1000035    4

DECAY 1000004  203.73977
    0.7002007   2    1000021    4
    0.19324883   2    1000037    3
    0.097376502   2    1000025    4
    0.0048245621   2    1000024    3
    0.0027453977   2    1000035    4
    0.0014169785   2    1000022    4
    0.00018703325   2    1000023    4

DECAY 1000006  3.6260502
    0.56881575   2    1000024    5
    0.21886682   2    1000022    6
    0.21075566   2    1000023    6
    0.0012844114   2    1000022    4
    0.00015763308   2    1000023    4
    0.00011973204   3    1000022    24    5

DECAY 2000006  123.67468
    0.26607718   2    1000024    5
    0.22584649   2    1000005    24
    0.13156487   2    1000006    25
    0.12987542   2    1000023    6
    0.12886573   2    1000022    6
    0.11299052   2    1000006    23
    0.0030397983   2    1000035    6
    0.0011461168   2    1000037    5
    0.00053375572   2    1000025    6

DECAY 1000024  7.8187565e-12
    0.59787811   3    1000022   -1    2
    0.19931591   3    1000022   -11    12
    0.19493325   3    1000022   -13    14
    0.0078727301   3    1000022   -3    4

DECAY 1000037  12.958158
    0.24479516   2    1000006   -5
    0.16223207   2    1000023    24
    0.15327445   2    1000022    24
    0.1512359   2    1000024    23
    0.14518406   2    1000024    25
    0.13954986   2   -1000005    6
    0.0016764658   3    1000023   -5    6
    0.0014488617   3    1000022   -5    6
    0.00057777282   3    1000024    6   -6

DECAY 1000022 -1


DECAY 1000023  9.982659e-08
    0.57330743   2    1000022    22
    0.0685281   3    1000022    12   -12
    0.051243388   3    1000022    1   -1
    0.051107961   3    1000022    3   -3
    0.039965397   3    1000022    2   -2
    0.032740753   3    1000024    1   -2
    0.032740753   3   -1000024   -1    2
    0.02313117   3    1000024    3   -4
    0.02313117   3   -1000024   -3    4
    0.02293031   3    1000022    4   -4
    0.01156372   3    1000022    11   -11
    0.011516164   3    1000022    13   -13
    0.010913583   3    1000024    11   -12
    0.010913583   3   -1000024   -11    12
    0.010886624   3    1000024    13   -14
    0.010886624   3   -1000024   -13    14
    0.0055938774   3    1000024    15   -16
    0.0055938774   3   -1000024   -15    16
    0.0033055085   3    1000022    15   -15

DECAY 1000025  14.702696
    0.13628432   2    1000024   -24
    0.13628432   2   -1000024    24
    0.13080945   2    1000023    23
    0.13067707   2    1000023    25
    0.1145595   2    1000022    25
    0.099696518   2    1000005   -5
    0.099696518   2   -1000005    5
    0.06816909   2    1000006   -6
    0.06816909   2   -1000006    6
    0.012776758   2    1000022    23
    0.0012804812   3    1000024    5   -6
    0.0012804812   3   -1000024   -5    6
    0.00013980033   3    1000023    6   -6
    0.00013783332   3    1000022    6   -6

DECAY 1000035  15.174089
    0.13154243   2    1000015   -15
    0.13154243   2   -1000015    15
    0.088032654   2    2000011   -11
    0.088032654   2   -2000011    11
    0.088002937   2    2000013   -13
    0.088002937   2   -2000013    13
    0.068736687   2    1000024   -24
    0.068736687   2   -1000024    24
    0.057250097   2    1000022    23
    0.054714673   2    1000023    25
    0.049813263   2    1000022    25
    0.013460866   2    1000006   -6
    0.013460866   2   -1000006    6
    0.012612939   2    1000005   -5
    0.012612939   2   -1000005    5
    0.011625499   2    1000023    23
    0.0037836807   2    1000016   -16
    0.0037836807   2   -1000016    16
    0.0036536489   2    2000015   -15
    0.0036536489   2   -2000015    15
    0.001715496   3    1000024    5   -6
    0.001715496   3   -1000024   -5    6
    0.00075868977   3    1000023    6   -6
    0.00072712488   3    1000022    6   -6
    0.00048679798   2    2000005   -5
    0.00048679798   2   -2000005    5
    0.00026927312   2    1000037   -24
    0.00026927312   2   -1000037    24
    0.00025997473   2    1000025    23
    0.00019717862   2    1000025    25

DECAY 1000021  298.49642
    0.1421351   2    1000006   -6
    0.1421351   2   -1000006    6
    0.13879374   2    1000005   -5
    0.13879374   2   -1000005    5
    0.092396369   2    2000005   -5
    0.092396369   2   -2000005    5
    0.066916794   2    1000006   -4
    0.066916794   2   -1000006    4
    0.058995559   2    2000006   -6
    0.058995559   2   -2000006    6
    0.00046116704   3    1000037    5   -6
    0.00046116704   3   -1000037   -5    6
    0.00023854993   3    1000025    6   -6
    0.00022236197   3    1000025    5   -5

DECAY 25  0.003352742
    0.64406554   2   -5    5
    0.15529803   2   -24    24
    0.074598951   2    21    21
    0.073285985   2   -15    15
    0.031788733   2   -4    4
    0.01706687   2    23    23
    0.0023057858   2    22    22
    0.0010940436   2    22    23
    0.00025419608   2   -13    13
    0.00024103257   2   -3    3
    6.6643103e-07   2   -1    1
    1.6383101e-07   2   -2    2
    5.7146771e-09   2   -11    11

DECAY 35  261.38096
    0.71205137   2   -5    5
    0.067009667   2   -15    15
    0.056734612   2   -1000024    1000037
    0.056734612   2   -1000037    1000024
    0.029518056   2    1000023    1000025
    0.027553593   2    1000022    1000025
    0.0096857374   2   -2000005    1000005
    0.0096857374   2   -1000005    2000005
    0.0080853122   2    1000022    1000035
    0.0059890459   2    1000023    1000035
    0.0045905272   2   -2000006    1000006
    0.0045905272   2   -1000006    2000006
    0.0031424676   2   -1000024    1000024
    0.00083491543   2    1000022    1000022
    0.00072843105   2   -1000037    1000037
    0.00046524499   2   -2000015    1000015
    0.00046524499   2   -1000015    2000015
    0.00044523438   2   -6    6
    0.00036534339   2    1000025    1000025
    0.00027187352   2    1000022    1000023
    0.00023964174   2   -13    13
    0.00022944156   2   -1000006    1000006
    0.00016123484   2   -3    3
    0.00010633648   2    1000025    1000035
    9.7833013e-05   2   -1000005    1000005
    9.3698221e-05   2   -2000005    2000005
    8.7371362e-05   2   -2000006    2000006
    2.4391e-05   2    1000023    1000023
    3.9133192e-06   2    21    21
    3.2087641e-06   2   -1000015    1000015
    3.1081964e-06   2   -2000015    2000015
    1.5596951e-06   2    1000035    1000035
    4.4573567e-07   2   -1    1
    8.8958472e-08   2    25    25
    3.8797153e-08   2    22    23
    1.5325589e-08   2    23    23
    1.4107157e-08   2    22    22
    6.342457e-09   2   -2000011    2000011
    6.2843618e-09   2   -2000013    2000013
    5.8841902e-09   2   -1000011    1000011
    5.7899248e-09   2   -1000013    1000013
    5.3815576e-09   2   -11    11
    4.4807494e-09   2   -4    4
    2.9352423e-09   2   -24    24
    7.6036308e-10   2   -2000013    1000013
    7.6036308e-10   2   -1000013    2000013
    2.3090948e-14   2   -2    2
    1.7785133e-14   2   -2000011    1000011
    1.7785133e-14   2   -1000011    2000011

DECAY 36  235.0517
    0.68917673   2   -5    5
    0.064820936   2   -15    15
    0.063145534   2   -1000024    1000037
    0.063145534   2   -1000037    1000024
    0.032193331   2    1000022    1000025
    0.031364487   2    1000023    1000025
    0.010869664   2   -2000005    1000005
    0.010869664   2   -1000005    2000005
    0.0090815207   2    1000023    1000035
    0.0066531965   2    1000022    1000035
    0.0052859485   2   -2000006    1000006
    0.0052859485   2   -1000006    2000006
    0.003584853   2   -1000024    1000024
    0.00091662633   2    1000022    1000022
    0.000888834   2   -1000037    1000037
    0.0005203829   2   -2000015    1000015
    0.0005203829   2   -1000015    2000015
    0.00044639973   2    1000025    1000025
    0.00040525702   2   -6    6
    0.00031878494   2    1000022    1000023
    0.00023182323   2   -13    13
    0.00015597291   2   -3    3
    7.3482779e-05   2    1000025    1000035
    3.1697551e-05   2    1000023    1000023
    7.8923634e-06   2    21    21
    4.6287787e-06   2    1000035    1000035
    4.3118906e-07   2   -1    1
    3.9841073e-08   2    23    25
    5.9448627e-09   2    22    23
    5.205993e-09   2   -11    11
    4.0918894e-09   2   -4    4
    8.4523563e-10   2   -2000013    1000013
    8.4523563e-10   2   -1000013    2000013
    6.823629e-10   2    22    22
    8.4819307e-11   2    23    35
    2.1086342e-14   2   -2    2
    1.9770148e-14   2   -2000011    1000011
    1.9770148e-14   2   -1000011    2000011
    9.2024815e-39   2    25    25

DECAY 37  257.81041
    0.70098824   2   -5    6
    0.077217286   2   -15    16
    0.060114772   2    1000022    1000037
    0.058775152   2    1000024    1000025
    0.05814162   2    1000023    1000037
    0.019908866   2   -2000005    1000006
    0.014110631   2    1000024    1000035
    0.006206787   2   -1000005    2000006
    0.0012368762   2    1000023    1000024
    0.0010399579   2   -5    4
    0.0009488153   2   -1000015    1000016
    0.00057846954   2   -2000005    2000006
    0.00027299057   2   -13    14
    0.00017496175   2    1000035    1000037
    0.00014866242   2   -3    4
    0.00011901628   2    1000022    1000024
    7.4263717e-06   2   -5    2
    6.9916834e-06   2   -3    2
    1.3028922e-06   2   -2000015    1000016
    6.2316745e-07   2   -3    6
    4.1241929e-07   2   -1    2
    3.6190799e-08   2    24    25
    2.5291305e-08   2   -2000011    1000012
    2.520847e-08   2   -2000013    1000014
    1.9507585e-08   2   -1    4
    1.8408494e-08   2   -1    6
    6.3852779e-09   2   -11    12
    5.2330451e-09   2   -1000005    1000006
    1.5216664e-09   2   -1000013    1000014
    1.2263556e-09   2    1000025    1000037
    3.5591032e-14   2   -1000011    1000012
    2.3554321e-14   2    24    35

DECAY 6  2.43
    1   2    5    24

DECAY 15 -1
