BLOCK SPINFO
   1   SPheno
   2   v4.0.5be

BLOCK SPHENOINFO
   1   2
   2   2

BLOCK MODSEL
   1   0

BLOCK MINPAR
   3    16.095615
   4   -1

BLOCK EXTPAR
   0    3122.6765
   1    665.41554
   2    2313.4218
   3    2090.1489
   11    4545.4113
   12    3442.7278
   13    7256.0423
   23   -4459.6295
   25    15.3805
   26    3806.6015
   31    1895.2699
   32    1895.2699
   33    1062.7107
   34    3690.7421
   35    3690.7421
   36    3898.4
   41    3200.9384
   42    3200.9384
   43    2636.4529
   44    4133.3832
   45    4133.3832
   46    3593.3413
   47    376.13326
   48    376.13326
   49    4914.0871

BLOCK SMINPUTS
   1    127.90897
   2    1.1663787e-05
   3    0.1184
   4    91.1876
   5    4.18
   6    173.2
   7    1.777
   8    0
   11    0.00051099893
   12    0
   13    0.10565837
   14    0
   21    0.005
   22    0.0025
   23    0.095
   24    1.27

BLOCK GAUGE Q=  3122.6765
   1    0.35536298
   2    0.66519887
   3    1.219778

BLOCK YU Q=  3122.6765
   1   1    8.4020749e-06
   2   2    0.004268254
   3   3    1.0150381

BLOCK YD Q=  3122.6765
   1   1    0.00025967925
   2   2    0.0049339057
   3   3    0.25752044

BLOCK YE Q=  3122.6765
   1   1    4.5315928e-05
   2   2    0.0093698966
   3   3    0.15758625

BLOCK AU Q=  3122.6765
   1   1    0
   2   2    0
   3   3    4545.4113

BLOCK AD Q=  3122.6765
   1   1    0
   2   2    0
   3   3    3442.7277

BLOCK AE Q=  3122.6765
   1   1    0
   2   2    0
   3   3    7256.0423

BLOCK MSOFT Q=  3122.6765
   1    665.41554
   2    2313.4218
   3    2090.1489
   21   -5572279.4
   22   -19672605
   31    1895.2699
   32    1895.2699
   33    1062.7107
   34    3690.7421
   35    3690.7421
   36    3898.4
   41    3200.9384
   42    3200.9384
   43    2636.4529
   44    4133.3832
   45    4133.3832
   46    3593.3413
   47    376.13326
   48    376.13326
   49    4914.0871

BLOCK MASS
   6    173.2
   23    91.1876
   24    80.429995
   15    1.777
   25    123.91277
   35    3806.5626
   36    3806.6015
   37    3807.7747
   1000001    3287.2126
   2000001    671.76653
   1000002    3286.323
   2000002    4190.9709
   1000003    3287.2117
   2000003    671.75668
   1000004    3286.3219
   2000004    4190.9708
   1000005    2726.4136
   2000005    4966.0946
   1000006    2716.1554
   2000006    3590.0407
   1000011    1920.9707
   2000011    3696.0019
   1000012    1918.9635
   1000013    1920.9664
   2000013    3695.9952
   1000014    1918.9605
   1000015    1098.9851
   2000015    3900.1593
   1000016    1096.379
   1000021    2351.9326
   1000022    661.72927
   1000023    2347.0758
   1000025   -4433.1612
   1000035    4433.8558
   1000024    2347.252
   1000037    4434.4158

BLOCK ALPHA
      -0.062130296

BLOCK HMIX Q=  3122.6765
   1   -4459.6295
   2    15.3805
   3    243.19904
   4    14490215

BLOCK STOPMIX
   1   1   -0.99338596
   1   2    0.11482309
   2   1   -0.11482309
   2   2   -0.99338596

BLOCK SBOTMIX
   1   1   -0.99994268
   1   2    0.01070672
   2   1   -0.01070672
   2   2   -0.99994268

BLOCK STAUMIX
   1   1   -0.99995616
   1   2    0.0093631651
   2   1   -0.0093631651
   2   2   -0.99995616

BLOCK NMIX
   1   1   -0.99994914
   1   2   -9.0851545e-06
   1   3    0.010054336
   1   4    0.0007929632
   2   1   -0.00022917019
   2   2   -0.99968207
   2   3   -0.022855809
   2   4   -0.010644661
   3   1    0.006548374
   3   2   -0.0086369901
   3   3    0.7070254
   3   4   -0.70710509
   4   1   -0.007667126
   4   2    0.02368864
   4   3   -0.7067472
   4   4   -0.7070279

BLOCK UMIX
   1   1   -0.99947482
   1   2   -0.032404881
   2   1    0.032404881
   2   2   -0.99947482

BLOCK VMIX
   1   1   -0.99988602
   1   2    0.015097841
   2   1    0.015097841
   2   2    0.99988602

BLOCK HIGGSBOUNDSINPUTHIGGSCOUPLINGSFERMIONS
       0, 236.55977,3,36,15,15

BLOCK HIGGSBOUNDSINPUTHIGGSCOUPLINGSBOSONS
       0,4,36,21,21,23

BLOCK SPHENOLOWENERGY
   1    0.00032226181
   2    1.5901803e-06
   3    3.5258074e-05
   4    2.4484313e-15
   5    1.0459415e-10
   6    2.1892395e-08
   7    8.2813392e-14
   8    3.5377834e-09
   9    7.5027742e-07
   10    9.671714e-05
   11    0.99905102
   12    0.54175427
   13    19.356881
   14    0
   15    0
   16    0.0021565005
   17    2.2816499e-15
   18    2.4805363e-11
   19    8.2914236e-11
   20   -6.7675735e-16
   21   -2.8933537e-11
   22   -1.1326103e-08
   23    0
   24    0
   25    0
   26    0
   27    0
   28    0
   29    0
   30    0
   31    0
   39    3.2879863e-05
   40    0
   41    0
   42    0

BLOCK FWCOEF Q=  160
   305   4422   0   0   -0.18881911
   305   4422   0   2   -0.19083317
   305   4322   0   2   -4.6167471e-05
   305   6421   0   0   -0.095227835
   305   6421   0   2   -0.098866202
   305   6321   0   2   -8.3803033e-05
   3051111   4133   0   0    1.6176477
   3051111   4133   0   2    1.6176679
   3051111   4233   0   2    1.6642093e-05
   3051111   4137   0   0   -4.4403398
   3051111   4137   0   2   -4.4392097
   3051111   4237   0   2   -0.00012895964
   3051313   4133   0   0    1.6176477
   3051313   4133   0   2    1.6176677
   3051313   4233   0   2    1.6642088e-05
   3051313   4137   0   0   -4.4403398
   3051313   4137   0   2   -4.4392099
   3051313   4237   0   2   -0.00012895964
   3051212   4137   0   0    1.5053501
   3051212   4137   0   2    1.5051066
   3051212   4237   0   2    2.7947301e-05
   3051414   4137   0   0    1.5053501
   3051414   4137   0   2    1.5051066
   3051414   4237   0   2    2.7947301e-05
   3051616   4137   0   0    1.5053501
   3051616   4137   0   2    1.5051062
   3051616   4237   0   2    2.7947743e-05

BLOCK IMFWCOEF Q=  160
   305   4422   0   0    3.8585894e-07
   305   4422   0   2   -3.5406214e-06
   305   4322   0   2    7.0900021e-07
   305   6421   0   0    3.305137e-07
   305   6421   0   2    7.0106949e-06
   305   6321   0   2    5.4581025e-07
   3051111   4133   0   2   -6.5086475e-07
   3051111   4233   0   2    3.7752014e-07
   3051111   4137   0   2    6.1085293e-06
   3051111   4237   0   2   -2.9055895e-06
   3051313   4133   0   2   -6.5086409e-07
   3051313   4233   0   2    3.7752011e-07
   3051313   4137   0   2    6.1085305e-06
   3051313   4237   0   2   -2.9055897e-06
   3051212   4137   0   2   -1.2977242e-06
   3051212   4237   0   2    6.2965912e-07
   3051414   4137   0   2   -1.2977243e-06
   3051414   4237   0   2    6.2965912e-07
   3051616   4137   0   2   -1.3039539e-06
   3051616   4237   0   2    6.2966335e-07

DECAY 23  2.4952


DECAY 24  2.085


DECAY 1000011  1.8742124
    1   2    1000022    11

DECAY 2000011  17.39778
    0.99999998   2    1000022    11

DECAY 1000013  1.874206
    1   2    1000022    13

DECAY 2000013  17.401156
    0.99980395   2    1000022    13
    0.00019582035   2    1000013    25

DECAY 1000015  0.56104722
    1   2    1000022    15

DECAY 2000015  24.017693
    0.76949217   2    1000022    15
    0.11491285   2    1000016   -24
    0.058238171   2    1000015    25
    0.057354295   2    1000015    23

DECAY 1000012  1.8713218
    0.99986632   2    1000022    12
    0.00013368371   3    1000016    11   -15

DECAY 1000014  1.8713172
    0.99986632   2    1000022    14
    0.00013368135   3    1000016    13   -15

DECAY 1000016  0.55651066
    1   2    1000022    16

DECAY 2000001  0.00032986036
    1   2    1000022    1

DECAY 1000001  72.654737
    0.85079109   2    1000021    1
    0.095577156   2   -1000024    2
    0.047819429   2    1000023    1
    0.0058122755   2    1000022    1

DECAY 2000003  0.00032917051
    1   2    1000022    3

DECAY 1000003  72.656018
    0.85077491   2    1000021    3
    0.095575175   2   -1000024    4
    0.047818528   2    1000023    3
    0.0058121734   2    1000022    3

DECAY 1000005  16.602281
    0.8481818   2    1000021    5
    0.083011346   2   -1000024    6
    0.048442981   2    1000023    5
    0.020363876   2    1000022    5

DECAY 2000005  245.96866
    0.95895343   2    1000021    5
    0.013166322   2    1000006   -24
    0.010870374   2    1000022    5
    0.0081970554   2    1000005    25
    0.0066018479   2    1000005    23
    0.0010571907   2   -1000037    6
    0.00054955594   2    1000025    5
    0.00054824691   2    1000035    5

DECAY 1000002  72.559522
    0.85071003   2    1000021    2
    0.095647585   2    1000024    1
    0.047823139   2    1000023    2
    0.0058192491   2    1000022    2

DECAY 2000002  164.15008
    0.94579711   2    1000021    2
    0.054202894   2    1000022    2

DECAY 1000004  72.559297
    0.85070989   2    1000021    4
    0.095647729   2    1000024    3
    0.047823121   2    1000023    4
    0.0058192627   2    1000022    4

DECAY 2000004  164.15
    0.94579708   2    1000021    4
    0.054202906   2    1000022    4

DECAY 1000006  13.011684
    0.80057322   2    1000021    6
    0.11564333   2    1000024    5
    0.049210818   2    1000023    6
    0.029669432   2    1000022    6
    0.0049029181   3    1000022    24    5

DECAY 2000006  174.27982
    0.53545244   2    1000021    6
    0.17817592   2    1000005    24
    0.15210931   2    1000006    25
    0.090340783   2    1000006    23
    0.042241576   2    1000022    6
    0.0011271163   2    1000024    5
    0.00055285877   2    1000023    6

DECAY 1000024  17.129884
    0.36858933   2    1000016   -15
    0.36731862   2   -1000015    16
    0.066318481   2    1000014   -13
    0.066317627   2    1000012   -11
    0.065706455   2   -1000013    14
    0.065705237   2   -1000011    12

DECAY 1000037  99.901621
    0.52393888   2   -1000005    6
    0.15958041   2    2000006   -5
    0.080416459   2    1000024    25
    0.071013249   2    1000023    24
    0.070564606   2    1000024    23
    0.042184481   2    1000006   -5
    0.028202944   2    1000022    24
    0.0096953908   2    1000016   -15
    0.0067557032   3    1000024    6   -6
    0.0043349703   3    1000023   -5    6
    0.0018515361   3    1000022   -5    6
    0.0005630404   2   -2000015    16
    0.00015683194   2   -1000015    16
    0.00013538354   2   -1000013    14
    0.00013538326   2   -1000011    12
    0.00012973307   2   -1000003    4
    0.00012489989   2   -1000001    2

DECAY 1000022 -1


DECAY 1000023  17.124852
    0.18419391   2    1000016   -16
    0.18419391   2   -1000016    16
    0.18381036   2    1000015   -15
    0.18381036   2   -1000015    15
    0.033124791   2    1000014   -14
    0.033124791   2   -1000014    14
    0.033124362   2    1000012   -12
    0.033124362   2   -1000012    12
    0.032862069   2    1000013   -13
    0.032862069   2   -1000013    13
    0.032861462   2    1000011   -11
    0.032861462   2   -1000011    11

DECAY 1000025  107.61702
    0.23917528   2    1000006   -6
    0.23917528   2   -1000006    6
    0.085523569   2    1000023    25
    0.077772414   2    2000006   -6
    0.077772414   2   -2000006    6
    0.065640527   2    1000024   -24
    0.065640527   2   -1000024    24
    0.057752749   2    1000023    23
    0.018747138   2    1000022    25
    0.015755459   2    1000005   -5
    0.015755459   2   -1000005    5
    0.015147156   2    1000022    23
    0.0054828476   3    1000024    5   -6
    0.0054828476   3   -1000024   -5    6
    0.0044786435   2    1000015   -15
    0.0044786435   2   -1000015    15
    0.0038448777   3    1000023    6   -6
    0.0015756348   3    1000022    6   -6
    0.00026037019   2    2000015   -15
    0.00026037019   2   -2000015    15

DECAY 1000035  98.761219
    0.26106312   2    1000006   -6
    0.26106312   2   -1000006    6
    0.084114944   2    2000006   -6
    0.084114944   2   -2000006    6
    0.072562636   2    1000023    25
    0.070735909   2    1000024   -24
    0.070735909   2   -1000024    24
    0.01721413   2    1000005   -5
    0.01721413   2   -1000005    5
    0.015921755   2    1000022    25
    0.012027295   2    1000022    23
    0.0083553953   2    1000023    23
    0.0049029422   2    1000015   -15
    0.0049029422   2   -1000015    15
    0.0043906328   3    1000024    5   -6
    0.0043906328   3   -1000024   -5    6
    0.003291331   3    1000023    6   -6
    0.0015123735   3    1000022    6   -6
    0.0002846006   2    2000015   -15
    0.0002846006   2   -2000015    15

DECAY 1000021  117.44654
    0.24999465   2    2000003   -3
    0.24999465   2   -2000003    3
    0.24999335   2    2000001   -1
    0.24999335   2   -2000001    1

DECAY 25  0.0037375101
    0.58901736   2   -5    5
    0.21126732   2   -24    24
    0.073709102   2    21    21
    0.067625347   2   -15    15
    0.029146175   2   -4    4
    0.025024832   2    23    23
    0.0023447655   2    22    22
    0.0014083295   2    22    23
    0.00023453902   2   -13    13
    0.00022145728   2   -3    3
    6.1230652e-07   2   -1    1
    1.5020053e-07   2   -2    2
    5.2727115e-09   2   -11    11

DECAY 35  16.603811
    0.83465328   2   -5    5
    0.10748312   2   -15    15
    0.056716231   2   -6    6
    0.00050740017   2   -3    3
    0.00037801575   2   -13    13
    0.00010707225   2    1000022    1000023
    8.2434641e-05   2   -1000015    1000015
    4.2482731e-05   2    1000022    1000022
    1.2593652e-05   2    25    25
    3.898703e-06   2    21    21
    3.5860794e-06   2    23    23
    1.4024278e-06   2   -1    1
    8.0293941e-07   2   -24    24
    7.054715e-07   2   -4    4
    3.4507311e-07   2   -1000001    1000001
    3.4345959e-07   2   -1000003    1000003
    2.5697106e-07   2   -2000003    1000003
    2.5697106e-07   2   -1000003    2000003
    1.4387973e-07   2   -1000011    1000011
    1.4335387e-07   2   -1000013    1000013
    1.9337508e-08   2    22    22
    8.4893652e-09   2   -11    11
    6.452751e-09   2    22    23
    7.1158903e-10   2   -2000001    1000001
    7.1158903e-10   2   -1000001    2000001
    3.6362579e-12   2   -2    2

DECAY 36  15.979918
    0.83980114   2   -5    5
    0.10816026   2   -15    15
    0.050837468   2   -6    6
    0.00051031949   2   -3    3
    0.00038039446   2   -13    13
    0.00021604726   2    1000022    1000023
    4.9201721e-05   2    1000022    1000022
    3.4901783e-05   2    21    21
    7.4553938e-06   2    23    25
    1.4104953e-06   2   -1    1
    6.2486362e-07   2   -4    4
    2.6694157e-07   2   -2000003    1000003
    2.6694157e-07   2   -1000003    2000003
    1.2116363e-07   2    22    22
    1.0843184e-07   2    22    23
    8.5427849e-09   2   -11    11
    7.3919821e-10   2   -2000001    1000001
    7.3919821e-10   2   -1000001    2000001
    3.2208814e-12   2   -2    2
    8.3625395e-38   2    25    25

DECAY 37  17.279408
    0.88327122   2   -5    6
    0.11417023   2   -15    16
    0.001261713   2   -5    4
    0.00044114129   2   -3    4
    0.0004036324   2   -13    14
    0.00030300635   2    1000022    1000024
    6.0045636e-05   2   -1000015    1000016
    4.7276407e-05   2   -3    6
    2.069769e-05   2   -3    2
    9.0099276e-06   2   -5    2
    6.9037688e-06   2    24    25
    2.1382286e-06   2   -1    6
    1.2225252e-06   2   -1    2
    5.9337704e-07   2   -1000011    1000012
    5.9260686e-07   2   -1000013    1000014
    4.6898181e-07   2   -1000003    1000004
    7.6739629e-08   2   -1    4
    2.5121109e-08   2   -1000003    1000002
    9.4410039e-09   2   -11    12
    2.0886669e-09   2   -1000003    1000006
    1.300875e-09   2   -1000001    1000002
    6.9478204e-11   2   -1000001    1000004
    2.6527548e-13   2   -1000001    1000006
    2.0613208e-13   2    24    35
    1.7512704e-13   2    24    36

DECAY 6  2.43
    1   2    5    24

DECAY 15 -1
