BLOCK SPINFO
   1   SPheno
   2   v4.0.5be

BLOCK SPHENOINFO
   1   2
   2   2

BLOCK MODSEL
   1   0

BLOCK MINPAR
   3    40.043485
   4   -1

BLOCK EXTPAR
   0    3345.8742
   1   -401.96363
   2    655.20137
   3    2464.944
   11    5205.9188
   12    4368.6421
   13   -4301.5226
   23   -2176.4629
   25    39.635355
   26    2319.7502
   31    1257.1708
   32    1257.1708
   33    2732.3781
   34    3383.9473
   35    3383.9473
   36    3390.4941
   41    3695.8359
   42    3695.8359
   43    2409.6192
   44    1964.4928
   45    1964.4928
   46    4493.3792
   47    2293.9881
   48    2293.9881
   49    4737.9775

BLOCK SMINPUTS
   1    127.90897
   2    1.1663787e-05
   3    0.1184
   4    91.1876
   5    4.18
   6    173.2
   7    1.777
   8    0
   11    0.00051099893
   12    0
   13    0.10565837
   14    0
   21    0.005
   22    0.0025
   23    0.095
   24    1.27

BLOCK GAUGE Q=  3345.8742
   1    0.35536298
   2    0.66519887
   3    1.219778

BLOCK YU Q=  3345.8742
   1   1    8.3870403e-06
   2   2    0.0042606164
   3   3    1.0132218

BLOCK YD Q=  3345.8742
   1   1    0.00066799272
   2   2    0.012691862
   3   3    0.66243946

BLOCK YE Q=  3345.8742
   1   1    0.00011656961
   2   2    0.024102899
   3   3    0.40537111

BLOCK AU Q=  3345.8742
   1   1    0
   2   2    0
   3   3    5205.9188

BLOCK AD Q=  3345.8742
   1   1    0
   2   2    0
   3   3    4368.642

BLOCK AE Q=  3345.8742
   1   1    0
   2   2    0
   3   3   -4301.5227

BLOCK MSOFT Q=  3345.8742
   1   -401.96363
   2    655.20137
   3    2464.944
   21    808513.92
   22   -4667994.1
   31    1257.1708
   32    1257.1708
   33    2732.3781
   34    3383.9473
   35    3383.9473
   36    3390.4941
   41    3695.8359
   42    3695.8359
   43    2409.6192
   44    1964.4928
   45    1964.4928
   46    4493.3792
   47    2293.9881
   48    2293.9881
   49    4737.9775

BLOCK MASS
   6    173.2
   23    91.1876
   24    80.429995
   15    1.777
   25    125.66566
   35    2319.2616
   36    2319.7502
   37    2321.8628
   1000001    3780.5659
   2000001    2416.3242
   1000002    3779.7838
   2000002    2103.2103
   1000003    3780.5594
   2000003    2416.3149
   1000004    3779.777
   2000004    2103.2103
   1000005    2510.1749
   2000005    4729.5502
   1000006    2507.6843
   2000006    4464.2278
   1000011    1266.6397
   2000011    3385.5957
   1000012    1263.7843
   1000013    1266.6232
   2000013    3385.5627
   1000014    1263.7709
   1000015    2732.7123
   2000015    3376.2416
   1000016    2732.1538
   1000021    2703.2211
   1000022   -397.99653
   1000023    691.44452
   1000025   -2184.1581
   1000035    2185.0407
   1000024    691.60161
   1000037    2186.1194

BLOCK ALPHA
      -0.025061748

BLOCK HMIX Q=  3345.8742
   1   -2176.4629
   2    39.635355
   3    243.12196
   4    5381240.8

BLOCK STOPMIX
   1   1   -0.9987339
   1   2    0.050304989
   2   1   -0.050304989
   2   2   -0.9987339

BLOCK SBOTMIX
   1   1   -0.99987037
   1   2    0.016101015
   2   1   -0.016101015
   2   2   -0.99987037

BLOCK STAUMIX
   1   1   -0.99934939
   1   2    0.036066707
   2   1   -0.036066707
   2   2   -0.99934939

BLOCK NMIX
   1   1   -0.9997716
   1   2   -0.00038637294
   1   3    0.020910822
   1   4   -0.0043970809
   2   1   -0.0003899584
   2   2   -0.99915845
   2   3   -0.039459065
   2   4   -0.011190235
   3   1    0.017896741
   3   2   -0.019993369
   3   3    0.70660892
   3   4   -0.70709533
   4   1   -0.011674788
   4   2    0.035812109
   4   3   -0.70619371
   4   4   -0.70701601

BLOCK UMIX
   1   1   -0.99844307
   1   2   -0.055780291
   2   1    0.055780291
   2   2   -0.99844307

BLOCK VMIX
   1   1   -0.99987356
   1   2    0.015901483
   2   1    0.015901483
   2   2    0.99987356

BLOCK HIGGSBOUNDSINPUTHIGGSCOUPLINGSFERMIONS
       0, 1570.9614,3,36,15,15

BLOCK HIGGSBOUNDSINPUTHIGGSCOUPLINGSBOSONS
       0,4,36,21,21,23

BLOCK SPHENOLOWENERGY
   1    0.00032221741
   2    1.5899052e-06
   3    3.5251803e-05
   4    3.3738041e-15
   5    1.4411949e-10
   6    2.9845095e-08
   7    1.1656238e-13
   8    4.9793412e-09
   9    1.0444034e-06
   10    9.5532323e-05
   11    0.98681233
   12    0.54165606
   13    19.359131
   14    0
   15    0
   16    0.0021563605
   17    2.2816505e-15
   18    2.4801488e-11
   19    8.2905389e-11
   20   -4.2125337e-15
   21   -1.8010237e-10
   22   -2.5921718e-08
   23    0
   24    0
   25    0
   26    0
   27    0
   28    0
   29    0
   30    0
   31    0
   39    7.7624463e-05
   40    0
   41    0
   42    0

BLOCK FWCOEF Q=  160
   305   4422   0   0   -0.18881911
   305   4422   0   2   -0.19023295
   305   4322   0   2   -9.3477605e-05
   305   6421   0   0   -0.095227835
   305   6421   0   2   -0.10059094
   305   6321   0   2   -0.00014136849
   3051111   4133   0   0    1.6207782
   3051111   4133   0   2    1.6208803
   3051111   4233   0   2    0.00039015255
   3051111   4137   0   0   -4.4434703
   3051111   4137   0   2   -4.4416987
   3051111   4237   0   2   -0.0029136586
   3051313   4133   0   0    1.6207782
   3051313   4133   0   2    1.6208791
   3051313   4233   0   2    0.00039015139
   3051313   4137   0   0   -4.4434703
   3051313   4137   0   2   -4.4416999
   3051313   4237   0   2   -0.0029136594
   3051212   4137   0   0    1.5053501
   3051212   4137   0   2    1.5049973
   3051212   4237   0   2    0.00063088481
   3051414   4137   0   0    1.5053501
   3051414   4137   0   2    1.5049973
   3051414   4237   0   2    0.00063088498
   3051616   4137   0   0    1.5053501
   3051616   4137   0   2    1.5049951
   3051616   4237   0   2    0.00063093256

BLOCK IMFWCOEF Q=  160
   305   4422   0   0    3.8588323e-07
   305   4422   0   2   -3.5166665e-05
   305   4322   0   2    1.8375985e-06
   305   6421   0   0    3.305345e-07
   305   6421   0   2    2.0938823e-05
   305   6321   0   2    1.9565483e-06
   3051111   4133   0   2   -5.6542647e-07
   3051111   4233   0   2    8.0865324e-06
   3051111   4137   0   2    7.1158266e-06
   3051111   4237   0   2   -6.0390372e-05
   3051313   4133   0   2   -5.6553174e-07
   3051313   4233   0   2    8.0865259e-06
   3051313   4137   0   2    7.1159477e-06
   3051313   4237   0   2   -6.0390401e-05
   3051212   4137   0   2   -9.8156654e-07
   3051212   4237   0   2    1.3076115e-05
   3051414   4137   0   2   -9.8156283e-07
   3051414   4237   0   2    1.3076115e-05
   3051616   4137   0   2   -1.0207618e-06
   3051616   4237   0   2    1.3076108e-05

DECAY 23  2.4952


DECAY 24  2.085


DECAY 1000011  9.513507
    0.57557966   2   -1000024    12
    0.28843385   2    1000023    11
    0.13598649   2    1000022    11

DECAY 2000011  16.53955
    0.99983981   2    1000022    11
    0.00011228825   2    1000025    11

DECAY 1000013  9.5132124
    0.57557732   2   -1000024    14
    0.288434   2    1000023    13
    0.13598868   2    1000022    13

DECAY 2000013  16.57306
    0.99780896   2    1000022    13
    0.00080011459   2   -1000037    14
    0.00051378798   2    1000025    13
    0.00044844298   2    1000035    13
    0.0004184323   2    1000013    25

DECAY 1000015  36.058342
    0.5832756   2   -1000024    16
    0.29253937   2    1000023    15
    0.091970681   2    1000022    15
    0.016086958   2    1000025    15
    0.016028599   2    1000035    15

DECAY 2000015  26.679675
    0.61722556   2    1000022    15
    0.13983199   2   -1000037    16
    0.070147484   2    1000025    15
    0.0700494   2    1000035    15
    0.051258331   2    1000016   -24
    0.026119327   2    1000015    25
    0.025360103   2    1000015    23

DECAY 1000012  9.4689072
    0.57641995   2    1000024    11
    0.28778961   2    1000023    12
    0.13579044   2    1000022    12

DECAY 1000014  9.4686773
    0.57642002   2    1000024    13
    0.28778833   2    1000023    14
    0.13579166   2    1000022    14

DECAY 1000016  36.03857
    0.58513064   2    1000024    15
    0.2916995   2    1000023    16
    0.091059479   2    1000022    16
    0.031995784   2    1000037    15

DECAY 2000001  1.2762509
    0.99998257   2    1000022    1

DECAY 1000001  118.36312
    0.60219969   2    1000021    1
    0.26185137   2   -1000024    2
    0.13109927   2    1000023    1
    0.0043388726   2    1000022    1
    0.00038760922   2   -1000037    2

DECAY 2000003  1.2767894
    0.99955912   2    1000022    3
    0.00019907083   2   -1000037    4
    0.00011258621   2    1000025    3
    0.00010522063   2    1000035    3

DECAY 1000003  118.36953
    0.60216162   2    1000021    3
    0.26183657   2   -1000024    4
    0.13109206   2    1000023    3
    0.0043386736   2    1000022    3
    0.00039275262   2   -1000037    4
    0.00011213995   2    1000035    3

DECAY 1000005  32.240095
    0.57702888   2   -1000024    6
    0.29351466   2    1000023    5
    0.07882663   2   -1000037    6
    0.020007825   2    1000025    5
    0.019886449   2    1000035    5
    0.010735558   2    1000022    5

DECAY 2000005  236.73872
    0.71494596   2    1000021    5
    0.10750198   2   -1000037    6
    0.05395035   2    1000025    5
    0.053884148   2    1000035    5
    0.029146149   2    1000006   -24
    0.014594463   2    1000005    25
    0.014563195   2    1000005    23
    0.011020516   2    1000022    5
    0.00026167798   2   -1000024    6
    0.00013134083   2    1000023    5

DECAY 2000002  4.3644788
    0.99999987   2    1000022    2

DECAY 1000002  118.32701
    0.60173742   2    1000021    2
    0.26262049   2    1000024    1
    0.13114484   2    1000023    2
    0.0043770912   2    1000022    2

DECAY 2000004  4.364475
    0.99999982   2    1000022    4

DECAY 1000004  118.33213
    0.60170503   2    1000021    4
    0.26260889   2    1000024    3
    0.13113885   2    1000023    4
    0.0043768923   2    1000022    4

DECAY 1000006  37.064242
    0.50740444   2    1000024    5
    0.24941212   2    1000023    6
    0.12347799   2    1000023    4
    0.035631337   2    1000035    6
    0.034562727   2    1000025    6
    0.034047421   2    1000037    5
    0.0093203709   2    1000022    6
    0.0043819386   2    1000022    4
    0.001761659   3    1000022    24    5

DECAY 2000006  372.10868
    0.37980638   2    1000021    6
    0.14122275   2    1000037    5
    0.13125217   2    1000005    24
    0.11488955   2    1000006    25
    0.070238052   2    1000025    6
    0.06994845   2    1000035    6
    0.065606388   2    1000006    23
    0.02620017   2    1000022    6
    0.00055899996   2    1000024    5
    0.00027707617   2    1000023    6

DECAY 1000024  3.5185709e-05
    0.8033748   2    1000022    24
    0.096374849   3    1000022   -13    14
    0.096368649   3    1000022   -11    12
    0.0031751784   3    1000022   -15    16
    0.00027536441   3    1000022   -3    4
    0.00027534548   3    1000022   -1    2
    0.00015581525   3    1000022   -5    6

DECAY 1000037  15.240511
    0.29991232   2    1000024    25
    0.28532472   2    1000023    24
    0.28446577   2    1000024    23
    0.096269748   2    1000022    24
    0.016834964   3    1000024    6   -6
    0.0096866502   3    1000023   -5    6
    0.0041422669   3    1000022   -5    6
    0.00097508947   3    1000024    5   -5
    0.0008669056   2   -1000013    14
    0.00086688285   2   -1000011    12
    0.0004371417   2    1000014   -13

DECAY 1000022 -1


DECAY 1000023  3.6396478e-05
    0.79252332   2    1000022    23
    0.094792273   3    1000022    12   -12
    0.046293468   3    1000022    13   -13
    0.046290007   3    1000022    11   -11
    0.017150502   2    1000022    25
    0.0015418907   3    1000022    15   -15
    0.00086770646   3    1000022    5   -5
    0.00013342674   3    1000022    2   -2
    0.00013340568   3    1000022    4   -4
    0.00013217199   3    1000022    3   -3
    0.00013212328   3    1000022    1   -1

DECAY 1000025  17.933113
    0.24321613   2    1000024   -24
    0.24321613   2   -1000024    24
    0.21780149   2    1000023    25
    0.18524418   2    1000023    23
    0.053798631   2    1000022    25
    0.024361635   2    1000022    23
    0.011161462   3    1000024    5   -6
    0.011161462   3   -1000024   -5    6
    0.006214374   3    1000023    6   -6
    0.0023848482   3    1000022    6   -6
    0.00039543122   3    1000023    5   -5
    0.00016766305   2    1000013   -13
    0.00016766305   2   -1000013    13
    0.00010614771   3    1000022    5   -5
    0.00010360024   2    1000014   -14
    0.00010360024   2   -1000014    14
    0.00010359803   2    1000012   -12
    0.00010359803   2   -1000012    12

DECAY 1000035  15.638475
    0.27681682   2    1000024   -24
    0.27681682   2   -1000024    24
    0.22549673   2    1000023    25
    0.066110842   2    1000023    23
    0.065671193   2    1000022    23
    0.055920536   2    1000022    25
    0.010813856   3    1000024    5   -6
    0.010813856   3   -1000024   -5    6
    0.0064510938   3    1000023    6   -6
    0.0025265619   3    1000022    6   -6
    0.00047060617   3    1000023    5   -5
    0.00029613856   2    1000013   -13
    0.00029613856   2   -1000013    13
    0.00024078232   2    1000014   -14
    0.00024078232   2   -1000014    14
    0.00024077718   2    1000012   -12
    0.00024077718   2   -1000012    12
    0.00012787125   3    1000022    5   -5
    0.00011857593   2    1000011   -11
    0.00011857593   2   -1000011    11

DECAY 1000021  34.521175
    0.18050745   2    2000002   -2
    0.18050745   2   -2000002    2
    0.18050715   2    2000004   -4
    0.18050715   2   -2000004    4
    0.046824431   2    2000003   -3
    0.046824431   2   -2000003    3
    0.046821574   2    2000001   -1
    0.046821574   2   -2000001    1
    0.021994545   2    1000005   -5
    0.021994545   2   -1000005    5
    0.011725322   2    1000006   -6
    0.011725322   2   -1000006    6
    0.010960437   2    1000006   -4
    0.010960437   2   -1000006    4
    0.00020332323   3    1000024    3   -4
    0.00020332323   3   -1000024   -3    4
    0.0002033212   3    1000024    1   -2
    0.0002033212   3   -1000024   -1    2
    0.0001017476   3    1000023    4   -4
    0.0001017466   3    1000023    2   -2
    0.00010160581   3    1000023    3   -3
    0.00010160477   3    1000023    1   -1

DECAY 25  0.0039844499
    0.5639296   2   -5    5
    0.23849534   2   -24    24
    0.07166626   2    21    21
    0.064681786   2   -15    15
    0.029251294   2    23    23
    0.027659768   2   -4    4
    0.002333025   2    22    22
    0.0015464647   2    22    23
    0.00022425239   2   -13    13
    0.00021147396   2   -3    3
    5.8470136e-07   2   -1    1
    1.4253539e-07   2   -2    2
    5.0414335e-09   2   -11    11

DECAY 35  82.230705
    0.91305872   2   -5    5
    0.084078123   2   -15    15
    0.0014201779   2   -6    6
    0.00042574659   2   -1000024    1000024
    0.00031284239   2   -3    3
    0.0002702277   2   -13    13
    0.00021269352   2    1000023    1000023
    0.00017879696   2    1000022    1000023
    2.2780393e-05   2    1000022    1000022
    1.8016872e-05   2    21    21
    8.6460279e-07   2   -1    1
    4.9699604e-07   2    25    25
    3.0836734e-07   2    23    23
    1.3238787e-07   2   -24    24
    3.5788608e-08   2    22    23
    2.0971931e-08   2   -4    4
    1.0301005e-08   2    22    22
    6.0696368e-09   2   -11    11
    1.0808258e-13   2   -2    2

DECAY 36  76.482246
    0.91285932   2   -5    5
    0.084061019   2   -15    15
    0.0013048921   2   -6    6
    0.00065343425   2   -1000024    1000024
    0.00032642627   2    1000023    1000023
    0.00031277102   2   -3    3
    0.00027017149   2   -13    13
    0.00015363777   2    1000022    1000023
    2.8455466e-05   2    21    21
    2.8427542e-05   2    1000022    1000022
    8.6440588e-07   2   -1    1
    4.6776917e-07   2    23    25
    6.1042828e-08   2    22    23
    2.3720195e-08   2    22    22
    1.8912157e-08   2   -4    4
    6.0683907e-09   2   -11    11
    9.7468882e-14   2   -2    2
    3.9177523e-37   2    25    25

DECAY 37  85.991051
    0.91115387   2   -5    6
    0.086584874   2   -15    16
    0.0013524909   2   -5    4
    0.00030820172   2    1000022    1000024
    0.00030610859   2   -13    14
    0.00026959429   2   -3    4
    1.2589155e-05   2   -3    2
    9.658183e-06   2   -5    2
    1.3644493e-06   2   -3    6
    7.4767143e-07   2   -1    2
    4.1762666e-07   2    24    25
    4.4409068e-08   2   -1    6
    3.5220222e-08   2   -1    4
    7.1599117e-09   2   -11    12
    4.685564e-11   2    1000023    1000024
    1.8843403e-12   2    24    35
    6.6596172e-13   2    24    36

DECAY 6  2.43
    1   2    5    24

DECAY 15 -1
