BLOCK SPINFO
   1   SPheno
   2   v4.0.5be

BLOCK SPHENOINFO
   1   2
   2   2

BLOCK MODSEL
   1   0

BLOCK MINPAR
   3    47.474374
   4    1

BLOCK EXTPAR
   0    1540.2816
   1    365.32676
   2    342.02812
   3    3000
   11    4190.8765
   12    1093.625
   13   -401.23031
   23    1246.2086
   25    45.999006
   26    2612.6698
   31    619.34982
   32    619.34982
   33    831.59302
   34    1930.4154
   35    1930.4154
   36    541.63962
   41    5000
   42    5000
   43    1803.9823
   44    5000
   45    5000
   46    1420.3369
   47    5000
   48    5000
   49    976.34017

BLOCK SMINPUTS
   1    127.90897
   2    1.1663787e-05
   3    0.1184
   4    91.1876
   5    4.18
   6    173.2
   7    1.777
   8    0
   11    0.00051099893
   12    0
   13    0.10565837
   14    0
   21    0.005
   22    0.0025
   23    0.095
   24    1.27

BLOCK GAUGE Q=  1540.2816
   1    0.35536298
   2    0.66519887
   3    1.219778

BLOCK YU Q=  1540.2816
   1   1    8.3863532e-06
   2   2    0.0042602674
   3   3    1.0131388

BLOCK YD Q=  1540.2816
   1   1    0.00077517872
   2   2    0.014728396
   3   3    0.76873439

BLOCK YE Q=  1540.2816
   1   1    0.00013527436
   2   2    0.027970446
   3   3    0.4704169

BLOCK AU Q=  1540.2816
   1   1    0
   2   2    0
   3   3    4190.8766

BLOCK AD Q=  1540.2816
   1   1    0
   2   2    0
   3   3    1093.6249

BLOCK AE Q=  1540.2816
   1   1    0
   2   2    0
   3   3   -401.23031

BLOCK MSOFT Q=  1540.2816
   1    365.32676
   2    342.02812
   3    3000
   21    5309329.3
   22   -1480667.8
   31    619.34982
   32    619.34982
   33    831.59302
   34    1930.4154
   35    1930.4154
   36    541.63962
   41    5000
   42    5000
   43    1803.9823
   44    5000
   45    5000
   46    1420.3369
   47    5000
   48    5000
   49    976.34017

BLOCK MASS
   6    173.2
   23    91.1876
   24    80.429995
   15    1.777
   25    125.23412
   35    2611.3835
   36    2612.6698
   37    2613.488
   1000001    5032.2183
   2000001    5021.4141
   1000002    5031.7826
   2000002    5022.9995
   1000003    5032.227
   2000003    5021.4156
   1000004    5031.7863
   2000004    5023.0002
   1000005    976.2578
   2000005    1775.1061
   1000006    1284.376
   2000006    1847.1751
   1000011    624.70056
   2000011    1932.2912
   1000012    619.42495
   1000013    624.69392
   2000013    1932.2754
   1000014    619.43201
   1000015    520.26692
   2000015    846.59347
   1000016    828.84668
   1000021    3194.9928
   1000022    363.05826
   1000023    364.90813
   1000025   -1249.7777
   1000035    1253.4792
   1000024    364.32315
   1000037    1253.8444

BLOCK ALPHA
      -0.021090582

BLOCK HMIX Q=  1540.2816
   1    1246.2086
   2    45.999006
   3    243.94641
   4    6826043.6

BLOCK STOPMIX
   1   1   -0.37725852
   1   2    0.92610799
   2   1   -0.92610799
   2   2   -0.37725852

BLOCK SBOTMIX
   1   1    0.035270295
   1   2    0.99937781
   2   1   -0.99937781
   2   2    0.035270295

BLOCK STAUMIX
   1   1    0.2245812
   1   2    0.97445538
   2   1   -0.97445538
   2   2    0.2245812

BLOCK NMIX
   1   1    0.75154451
   1   2   -0.65503197
   1   3    0.07484742
   1   4   -0.0226235
   2   1    0.65840219
   2   2    0.75217905
   2   3   -0.025984093
   2   4    0.0076198976
   3   1    0.019291973
   3   2   -0.034111259
   3   3   -0.70598097
   3   4   -0.70714575
   4   1   -0.036265922
   4   2    0.06321566
   4   3    0.70378517
   4   4   -0.7066647

BLOCK UMIX
   1   1   -0.99526376
   1   2    0.097211397
   2   1    0.097211397
   2   2    0.99526376

BLOCK VMIX
   1   1   -0.99957463
   1   2    0.029164458
   2   1    0.029164458
   2   2    0.99957463

BLOCK HIGGSBOUNDSINPUTHIGGSCOUPLINGSFERMIONS
       0, 2115.9086,3,36,15,15

BLOCK HIGGSBOUNDSINPUTHIGGSCOUPLINGSBOSONS
       0,4,36,21,21,23

BLOCK SPHENOLOWENERGY
   1    0.0003671012
   2    1.5857179e-06
   3    3.5217649e-05
   4    5.574865e-15
   5    2.3815304e-10
   6    4.9915015e-08
   7    1.8739612e-13
   8    8.005595e-09
   9    1.7001378e-06
   10    9.2820937e-05
   11    0.95880474
   12    0.54450074
   13    19.436335
   14    0
   15    0
   16    0.0021797708
   17    2.2818893e-15
   18    2.478224e-11
   19    8.285876e-11
   20    2.2501043e-14
   21    9.6221371e-10
   22    3.3451869e-07
   23    0
   24    0
   25    0
   26    0
   27    0
   28    0
   29    0
   30    0
   31    0
   39    9.6718268e-05
   40    0
   41    0
   42    0

BLOCK FWCOEF Q=  160
   305   4422   0   0   -0.18881911
   305   4422   0   2   -0.24067261
   305   4322   0   2   -0.00045291486
   305   6421   0   0   -0.095227835
   305   6421   0   2   -0.13125476
   305   6321   0   2   -0.00036552031
   3051111   4133   0   0    1.5934537
   3051111   4133   0   2    1.593858
   3051111   4233   0   2    0.00026835277
   3051111   4137   0   0   -4.4161458
   3051111   4137   0   2   -4.4109977
   3051111   4237   0   2   -0.0020838458
   3051313   4133   0   0    1.5934537
   3051313   4133   0   2    1.5938507
   3051313   4233   0   2    0.00026835095
   3051313   4137   0   0   -4.4161458
   3051313   4137   0   2   -4.4110051
   3051313   4237   0   2   -0.0020838487
   3051212   4137   0   0    1.5053501
   3051212   4137   0   2    1.5042603
   3051212   4237   0   2    0.00045398833
   3051414   4137   0   0    1.5053501
   3051414   4137   0   2    1.5042603
   3051414   4237   0   2    0.00045398851
   3051616   4137   0   0    1.5053501
   3051616   4137   0   2    1.5042604
   3051616   4237   0   2    0.00045404208

BLOCK IMFWCOEF Q=  160
   305   4422   0   0    3.8548516e-07
   305   4422   0   2    2.8636977e-05
   305   4322   0   2   -5.3478584e-06
   305   6421   0   0    3.3019353e-07
   305   6421   0   2   -1.2901104e-05
   305   6321   0   2   -2.9980107e-06
   3051111   4133   0   2   -2.000111e-06
   3051111   4233   0   2    5.9262821e-06
   3051111   4137   0   2    1.3296485e-05
   3051111   4237   0   2   -4.6034824e-05
   3051313   4133   0   2   -2.0003336e-06
   3051313   4233   0   2    5.926266e-06
   3051313   4137   0   2    1.3296811e-05
   3051313   4237   0   2   -4.6034893e-05
   3051212   4137   0   2   -2.306181e-06
   3051212   4237   0   2    1.0029222e-05
   3051414   4137   0   2   -2.3061754e-06
   3051414   4237   0   2    1.0029222e-05
   3051616   4137   0   2   -2.3135984e-06
   3051616   4237   0   2    1.0029226e-05

DECAY 23  2.4952


DECAY 24  2.085


DECAY 1000011  3.9037521
    0.60761938   2   -1000024    12
    0.37252329   2    1000023    11
    0.019857322   2    1000022    11

DECAY 2000011  9.0229784
    0.56561215   2    1000022    11
    0.43377753   2    1000023    11
    0.00047476   2    1000035    11
    0.0001355108   2    1000025    11

DECAY 1000013  3.9036494
    0.60761559   2   -1000024    14
    0.37252129   2    1000023    13
    0.019863112   2    1000022    13

DECAY 2000013  9.0489531
    0.56400049   2    1000022    13
    0.43253046   2    1000023    13
    0.0011034064   2   -1000037    14
    0.0010257082   2    1000035    13
    0.00069560828   2    1000025    13
    0.00061511103   2    1000013    25

DECAY 1000015  0.8136285
    0.48427511   2    1000022    15
    0.39233956   2    1000023    15
    0.12338533   2   -1000024    16

DECAY 2000015  11.5554
    0.39002708   2   -1000024    16
    0.25169435   2    1000023    15
    0.18132529   2    1000015    23
    0.16306655   2    1000015    25
    0.013886462   2    1000022    15

DECAY 1000012  3.8286309
    0.60876387   2    1000024    11
    0.3425505   2    1000022    12
    0.048685632   2    1000023    12

DECAY 1000014  3.8287993
    0.60876728   2    1000024    13
    0.3425475   2    1000022    14
    0.048685224   2    1000023    14

DECAY 1000016  11.697962
    0.40743197   2    1000024    15
    0.33271928   2    1000015    24
    0.22734664   2    1000022    16
    0.032502116   2    1000023    16

DECAY 2000001  143.1675
    0.9806266   2    1000021    1
    0.010944617   2    1000022    1
    0.008398988   2    1000023    1

DECAY 1000001  207.9063
    0.6806825   2    1000021    1
    0.20885106   2   -1000024    2
    0.065609134   2    1000022    1
    0.042498556   2    1000023    1
    0.0017712862   2   -1000037    2
    0.00045510927   2    1000035    1
    0.00013235984   2    1000025    1

DECAY 2000003  143.2057
    0.98036609   2    1000021    3
    0.010942536   2    1000022    3
    0.0083968513   2    1000023    3
    0.00013178467   2   -1000037    4

DECAY 1000003  207.928
    0.68061582   2    1000021    3
    0.20882961   2   -1000024    4
    0.065602978   2    1000022    3
    0.042494265   2    1000023    3
    0.0017788205   2   -1000037    4
    0.0005004562   2    1000035    3
    0.00017805585   2    1000025    3

DECAY 1000005  0.6189977
    0.49527396   2    1000022    5
    0.30072237   2    1000023    5
    0.20400367   2   -1000024    6

DECAY 2000005  95.598029
    0.58703682   2    1000006   -24
    0.14389447   2   -1000024    6
    0.092923221   2   -1000037    6
    0.047067716   2    1000022    5
    0.035380792   2    1000005    25
    0.030230141   2    1000023    5
    0.027799623   2    1000025    5
    0.027451039   2    1000035    5
    0.0082161776   2    1000005    23

DECAY 2000002  151.65652
    0.92682333   2    1000021    2
    0.041341267   2    1000022    2
    0.031725633   2    1000023    2

DECAY 1000002  207.9012
    0.68048104   2    1000021    2
    0.21065075   2    1000024    1
    0.079680154   2    1000023    2
    0.028638223   2    1000022    2
    0.00030190473   2    1000035    2
    0.00015966587   2    1000037    1

DECAY 2000004  151.65972
    0.92680384   2    1000021    4
    0.041340399   2    1000022    4
    0.031724964   2    1000023    4

DECAY 1000004  207.92225
    0.68041374   2    1000021    4
    0.21063056   2    1000024    3
    0.079672138   2    1000023    4
    0.028635345   2    1000022    4
    0.0003057234   2    1000035    4
    0.00025040708   2    1000037    3

DECAY 1000006  3.9515836
    0.31067503   2    1000023    6
    0.30503834   2    1000022    6
    0.27726375   2    1000024    5
    0.064202334   2    1000023    4
    0.023113795   2    1000022    4
    0.014872076   2    1000037    5
    0.004365754   2    1000005    24
    0.00046892242   3    1000022    24    5

DECAY 2000006  97.278531
    0.3558386   2    1000006    23
    0.25480995   2    1000006    25
    0.1387911   2    1000024    5
    0.069374745   2    1000037    5
    0.052600274   2    1000023    6
    0.045308336   2    1000025    6
    0.042991941   2    1000035    6
    0.022926163   2    1000022    6
    0.017358884   2    1000005    24

DECAY 1000024  4.3754598e-12
    0.59801115   3    1000022   -1    2
    0.2044501   3    1000022   -11    12
    0.19753875   3    1000022   -13    14

DECAY 1000037  14.601915
    0.22996339   2    1000023    24
    0.20085287   2   -1000005    6
    0.18515077   2    1000024    25
    0.17884438   2    1000024    23
    0.11420392   2   -1000015    16
    0.059427334   2    1000016   -15
    0.0091926187   2    1000022    24
    0.0071506587   2   -2000015    16
    0.0052952317   3    1000023   -5    6
    0.0043396498   3    1000024    6   -6
    0.0020185801   2   -1000013    14
    0.0020185517   2   -1000011    12
    0.00056183826   2    1000014   -13
    0.00054509198   3    1000022   -5    6
    0.00024905965   3    1000024    5   -5
    0.00018371499   2    1000012   -11

DECAY 1000022 -1


DECAY 1000023  7.7066146e-13
    0.41630198   2    1000024   -211
    0.41630198   2   -1000024    211
    0.045728711   2    1000022    22
    0.032263223   3    1000024    11   -12
    0.032263223   3   -1000024   -11    12
    0.027555796   3    1000024    13   -14
    0.027555796   3   -1000024   -13    14
    0.0011604147   3    1000022    12   -12
    0.00042229475   3    1000022    11   -11
    0.00040748138   3    1000022    13   -13

DECAY 1000025  16.704651
    0.15802988   2    1000024   -24
    0.15802988   2   -1000024    24
    0.14618233   2    1000022    23
    0.1320841   2    1000022    25
    0.099747105   2    1000005   -5
    0.099747105   2   -1000005    5
    0.054675201   2    1000015   -15
    0.054675201   2   -1000015    15
    0.024660705   2    2000015   -15
    0.024660705   2   -2000015    15
    0.018994175   2    1000023    25
    0.017327029   2    1000023    23
    0.0038878337   3    1000024    5   -6
    0.0038878337   3   -1000024   -5    6
    0.0014735592   3    1000022    6   -6
    0.00037096867   3    1000023    6   -6
    0.0002157635   2    1000013   -13
    0.0002157635   2   -1000013    13
    0.0001848521   2    1000012   -12
    0.0001848521   2   -1000012    12
    0.00018484935   2    1000014   -14
    0.00018484935   2   -1000014    14
    0.0001019338   2    1000016   -16
    0.0001019338   2   -1000016    16

DECAY 1000035  15.014489
    0.17550975   2    1000024   -24
    0.17550975   2   -1000024    24
    0.15869839   2    1000022    25
    0.11238879   2    1000005   -5
    0.11238879   2   -1000005    5
    0.059421887   2    1000015   -15
    0.059421887   2   -1000015    15
    0.046681684   2    1000022    23
    0.028328126   2    2000015   -15
    0.028328126   2   -2000015    15
    0.022841934   2    1000023    25
    0.0057574383   2    1000023    23
    0.003903038   3    1000024    5   -6
    0.003903038   3   -1000024   -5    6
    0.0016045574   3    1000022    6   -6
    0.00071589045   2    1000012   -12
    0.00071589045   2   -1000012    12
    0.0007158799   2    1000014   -14
    0.0007158799   2   -1000014    14
    0.00042063744   3    1000023    6   -6
    0.00039690496   2    1000016   -16
    0.00039690496   2   -1000016    16
    0.00038122263   2    1000013   -13
    0.00038122263   2   -1000013    13
    0.0001995098   2    1000011   -11
    0.0001995098   2   -1000011    11

DECAY 1000021  237.65687
    0.16351462   2    1000005   -5
    0.16351462   2   -1000005    5
    0.15224063   2    1000006   -6
    0.15224063   2   -1000006    6
    0.095116102   2    2000005   -5
    0.095116102   2   -2000005    5
    0.07784266   2    2000006   -6
    0.07784266   2   -2000006    6
    0.009825456   2    1000006   -4
    0.009825456   2   -1000006    4
    0.0010274357   3    1000035    6   -6
    0.0009836296   3    1000025    6   -6
    0.00019754282   3    1000025    5   -5
    0.00019309432   3    1000035    5   -5
    0.00016198566   3    1000037    5   -6
    0.00016198566   3   -1000037   -5    6

DECAY 25  0.0039016362
    0.56982206   2   -5    5
    0.23282824   2   -24    24
    0.070888762   2    21    21
    0.065590105   2   -15    15
    0.028315558   2    23    23
    0.028218563   2   -4    4
    0.0023730662   2    22    22
    0.0015215241   2    22    23
    0.00022749051   2   -13    13
    0.00021389116   2   -3    3
    5.9138759e-07   2   -1    1
    1.4541635e-07   2   -2    2
    5.1142406e-09   2   -11    11

DECAY 35  61.891975
    0.44381236   2   -5    5
    0.21204975   2   -15    15
    0.096364574   2   -1000024    1000037
    0.096364574   2   -1000037    1000024
    0.060117751   2    1000022    1000025
    0.038937139   2    1000022    1000035
    0.018799903   2   -1000006    1000006
    0.014185792   2    1000023    1000025
    0.0089519166   2    1000023    1000035
    0.0029824525   2   -1000024    1000024
    0.0016122079   2    1000022    1000022
    0.0012930985   2   -2000015    1000015
    0.0012930985   2   -1000015    2000015
    0.00076271184   2    1000022    1000023
    0.00076014814   2   -13    13
    0.00040818631   2    1000025    1000035
    0.00038824557   2   -1000015    1000015
    0.00034959258   2   -3    3
    0.00033248984   2   -2000015    2000015
    9.0185094e-05   2   -1000005    1000005
    9.0178328e-05   2    1000023    1000023
    2.6225792e-05   2    1000035    1000035
    9.0072939e-06   2    1000025    1000025
    5.6176766e-06   2   -1000037    1000037
    4.4141491e-06   2   -6    6
    3.7430631e-06   2    25    25
    2.6985366e-06   2    21    21
    9.6663859e-07   2   -1    1
    8.2078985e-08   2    22    23
    6.4984451e-08   2   -1000011    1000011
    6.3949305e-08   2   -1000013    1000013
    5.5317098e-08   2    23    23
    4.7186403e-08   2    22    22
    2.0131509e-08   2   -24    24
    1.7073221e-08   2   -11    11
    6.2507793e-09   2   -2000013    1000013
    6.2507793e-09   2   -1000013    2000013
    2.4660492e-09   2   -4    4
    1.4620112e-13   2   -2000011    1000011
    1.4620112e-13   2   -1000011    2000011
    1.2725203e-14   2   -2    2

DECAY 36  59.012515
    0.44575775   2   -5    5
    0.21288814   2   -15    15
    0.10094469   2   -1000024    1000037
    0.10094469   2   -1000037    1000024
    0.062185357   2    1000022    1000035
    0.041553803   2    1000022    1000025
    0.014672242   2    1000023    1000035
    0.0095554318   2    1000023    1000025
    0.0034411285   2   -1000024    1000024
    0.0018603066   2    1000022    1000022
    0.0017373853   2   -2000015    1000015
    0.0017373853   2   -1000015    2000015
    0.00088548402   2    1000022    1000023
    0.00076315852   2   -13    13
    0.00036723421   2    1000035    1000035
    0.00035094438   2   -3    3
    0.00010537751   2    1000023    1000023
    0.00010226114   2    1000025    1000025
    9.8106721e-05   2   -1000037    1000037
    3.5527354e-05   2    1000025    1000035
    1.073189e-05   2    21    21
    1.5147489e-06   2   -6    6
    9.7037215e-07   2   -1    1
    1.7061922e-07   2    22    23
    9.5796949e-08   2    22    22
    8.6564167e-08   2    23    25
    1.7140863e-08   2   -11    11
    6.5962611e-09   2   -2000013    1000013
    6.5962611e-09   2   -1000013    2000013
    2.8348983e-09   2   -4    4
    1.5427971e-13   2   -2000011    1000011
    1.5427971e-13   2   -1000011    2000011
    6.5564339e-14   2    23    35
    1.4626883e-14   2   -2    2
    2.8826302e-36   2    25    25

DECAY 37  56.083255
    0.43036867   2   -5    6
    0.21003946   2   -15    16
    0.10698918   2    1000024    1000025
    0.10659725   2    1000024    1000035
    0.10354004   2    1000022    1000037
    0.034433803   2    1000023    1000037
    0.0034703228   2   -1000015    1000016
    0.0019920366   2    1000023    1000024
    0.00074256463   2   -13    14
    0.00063746432   2   -5    4
    0.00037068862   2   -1000005    1000006
    0.00035301893   2   -3    4
    0.00018767142   2   -2000015    1000016
    0.00016656989   2    1000025    1000037
    8.3825617e-05   2    1000035    1000037
    1.6507869e-05   2   -3    2
    4.5521536e-06   2   -5    2
    2.9081165e-06   2    1000022    1000024
    1.6970093e-06   2   -3    6
    9.8030988e-07   2   -1    2
    2.8179049e-07   2   -1000011    1000012
    2.8018468e-07   2   -1000013    1000014
    9.1246506e-08   2    24    25
    5.3949387e-08   2   -1    6
    4.620233e-08   2   -1    4
    1.7368664e-08   2   -11    12
    1.4634762e-08   2   -2000013    1000014
    1.0016874e-12   2    24    35
    3.4232289e-13   2   -2000011    1000012

DECAY 6  2.43
    1   2    5    24

DECAY 15 -1
