BLOCK SPINFO
   1   SPheno
   2   v4.0.5be

BLOCK SPHENOINFO
   1   2
   2   2

BLOCK MODSEL
   1   0

BLOCK MINPAR
   3    52.928246
   4   -1

BLOCK EXTPAR
   0    1609.333
   1    1434.1808
   2   -1628.8674
   3    3000
   11    2179.3756
   12    79.793242
   13   -1272.9167
   23   -502.6824
   25    54.76204
   26    3322.3683
   31    1618.2077
   32    1618.2077
   33    781.66567
   34    1832.0123
   35    1832.0123
   36    785.41479
   41    5000
   42    5000
   43    1387.2338
   44    5000
   45    5000
   46    1861.0169
   47    5000
   48    5000
   49    865.39615

BLOCK SMINPUTS
   1    127.90897
   2    1.1663787e-05
   3    0.1184
   4    91.1876
   5    4.18
   6    173.2
   7    1.777
   8    0
   11    0.00051099893
   12    0
   13    0.10565837
   14    0
   21    0.005
   22    0.0025
   23    0.095
   24    1.27

BLOCK GAUGE Q=  1609.333
   1    0.35536298
   2    0.66519887
   3    1.219778

BLOCK YU Q=  1609.333
   1   1    8.3857699e-06
   2   2    0.0042599711
   3   3    1.0130684

BLOCK YD Q=  1609.333
   1   1    0.00092278984
   2   2    0.017533007
   3   3    0.91511836

BLOCK YE Q=  1609.333
   1   1    0.00016103357
   2   2    0.033296636
   3   3    0.55999464

BLOCK AU Q=  1609.333
   1   1    0
   2   2    0
   3   3    2179.3756

BLOCK AD Q=  1609.333
   1   1    0
   2   2    0
   3   3    79.793235

BLOCK AE Q=  1609.333
   1   1    0
   2   2    0
   3   3   -1272.9167

BLOCK MSOFT Q=  1609.333
   1    1434.1808
   2   -1628.8674
   3    3000
   21    11033235
   22   -201328.99
   31    1618.2077
   32    1618.2077
   33    781.66567
   34    1832.0123
   35    1832.0123
   36    785.41479
   41    5000
   42    5000
   43    1387.2338
   44    5000
   45    5000
   46    1861.0169
   47    5000
   48    5000
   49    865.39615

BLOCK MASS
   6    173.2
   23    91.1876
   24    80.429995
   15    1.777
   25    120.53842
   35    3313.0377
   36    3322.3683
   37    3315.0602
   1000001    5029.9134
   2000001    5021.5085
   1000002    5029.4552
   2000002    5023.1273
   1000003    5029.9229
   2000003    5021.5208
   1000004    5029.4629
   2000004    5023.128
   1000005    866.02669
   2000005    1407.2552
   1000006    1384.2675
   2000006    1870.9915
   1000011    1632.5969
   2000011    1835.4382
   1000012    1630.245
   1000013    1632.5873
   2000013    1835.4273
   1000014    1630.2389
   1000015    773.22074
   2000015    835.34862
   1000016    804.25008
   1000021    3195.6956
   1000022   -499.83649
   1000023    503.25709
   1000025    1433.1962
   1000035   -1673.2726
   1000024    501.15609
   1000037    1673.4238

BLOCK ALPHA
      -0.018933602

BLOCK HMIX Q=  1609.333
   1   -502.6824
   2    54.76204
   3    243.95406
   4    11038131

BLOCK STOPMIX
   1   1   -0.9778105
   1   2    0.20949133
   2   1   -0.20949133
   2   2   -0.9778105

BLOCK SBOTMIX
   1   1   -0.080135645
   1   2    0.99678397
   2   1   -0.99678397
   2   2   -0.080135645

BLOCK STAUMIX
   1   1   -0.66636029
   1   2    0.74562991
   2   1   -0.74562991
   2   2   -0.66636029

BLOCK NMIX
   1   1    0.016262003
   1   2    0.049273604
   1   3    0.70784986
   1   4   -0.70445457
   2   1    0.032754603
   2   2    0.025574528
   2   3   -0.70606678
   2   4   -0.70692488
   3   1   -0.99933084
   3   2    0.00088948948
   3   3   -0.011611001
   3   4   -0.034673831
   4   1    0.00075123555
   4   2   -0.99845744
   4   3    0.016836633
   4   4   -0.052902733

BLOCK UMIX
   1   1   -0.023833615
   1   2   -0.99971594
   2   1   -0.99971594
   2   2    0.023833615

BLOCK VMIX
   1   1    0.074900277
   1   2    0.99719103
   2   1    0.99719103
   2   2   -0.074900277

BLOCK HIGGSBOUNDSINPUTHIGGSCOUPLINGSFERMIONS
       0, 2998.881,3,36,15,15

BLOCK HIGGSBOUNDSINPUTHIGGSCOUPLINGSBOSONS
       0,4,36,21,21,23

BLOCK SPHENOLOWENERGY
   1    0.00029968849
   2    1.5930854e-06
   3    3.5231554e-05
   4    2.9093007e-15
   5    1.2427847e-10
   6    2.5821099e-08
   7    1.0013839e-13
   8    4.2777798e-09
   9    9.0013745e-07
   10    9.5675171e-05
   11    0.98828788
   12    0.5424093
   13    19.37988
   14    0
   15    0
   16    0.0021587922
   17    2.2816749e-15
   18    2.4780144e-11
   19    8.2859116e-11
   20    7.2141252e-15
   21    3.0843413e-10
   22    1.1514915e-07
   23    0
   24    0
   25    0
   26    0
   27    0
   28    0
   29    0
   30    0
   31    0
   39    8.9816975e-05
   40    0
   41    0
   42    0

BLOCK FWCOEF Q=  160
   305   4422   0   0   -0.18881911
   305   4422   0   2   -0.1621274
   305   4322   0   2    8.0706059e-05
   305   6421   0   0   -0.095227835
   305   6421   0   2   -0.088384832
   305   6321   0   2   -6.0982323e-05
   3051111   4133   0   0    1.5953442
   3051111   4133   0   2    1.5969546
   3051111   4233   0   2    0.00041723534
   3051111   4137   0   0   -4.4180363
   3051111   4137   0   2   -4.4144216
   3051111   4237   0   2   -0.0032266633
   3051313   4133   0   0    1.5953442
   3051313   4133   0   2    1.5969512
   3051313   4233   0   2    0.00041723151
   3051313   4137   0   0   -4.4180363
   3051313   4137   0   2   -4.414425
   3051313   4237   0   2   -0.0032266721
   3051212   4137   0   0    1.5053501
   3051212   4137   0   2    1.5045672
   3051212   4237   0   2    0.00070267711
   3051414   4137   0   0    1.5053501
   3051414   4137   0   2    1.5045672
   3051414   4237   0   2    0.00070267727
   3051616   4137   0   0    1.5053501
   3051616   4137   0   2    1.504567
   3051616   4237   0   2    0.00070272108

BLOCK IMFWCOEF Q=  160
   305   4422   0   0    3.8586925e-07
   305   4422   0   2    1.855283e-05
   305   4322   0   2    3.3322183e-06
   305   6421   0   0    3.3052253e-07
   305   6421   0   2    2.0178513e-05
   305   6321   0   2    1.3653267e-06
   3051111   4133   0   2    4.751963e-07
   3051111   4233   0   2    8.5472481e-06
   3051111   4137   0   2   -2.4908348e-06
   3051111   4237   0   2   -6.6120911e-05
   3051313   4133   0   2    4.7517048e-07
   3051313   4233   0   2    8.5471943e-06
   3051313   4137   0   2   -2.4908344e-06
   3051313   4237   0   2   -6.6121083e-05
   3051212   4137   0   2    6.1200442e-07
   3051212   4237   0   2    1.4399285e-05
   3051414   4137   0   2    6.1200392e-07
   3051414   4237   0   2    1.4399285e-05
   3051616   4137   0   2    6.0483525e-07
   3051616   4237   0   2    1.4399294e-05

DECAY 23  2.4952


DECAY 24  2.085


DECAY 1000011  0.14482472
    0.74143648   2    1000025    11
    0.13690884   2    1000022    11
    0.075407498   2    1000023    11
    0.04624719   2   -1000024    12

DECAY 2000011  1.4134059
    0.99253141   2    1000025    11
    0.0059885239   2    1000023    11
    0.0014793833   2    1000022    11

DECAY 1000013  0.17433834
    0.61586897   2    1000025    13
    0.19873492   2    1000022    13
    0.14697839   2    1000023    13
    0.038417715   2   -1000024    14

DECAY 2000013  1.4829025
    0.94597569   2    1000025    13
    0.023367419   2   -1000024    14
    0.017349992   2    1000023    13
    0.013134353   2    1000022    13
    0.0001717855   2    1000013    25

DECAY 1000015  2.6102082
    0.36304563   2   -1000024    16
    0.33117932   2    1000022    15
    0.30577505   2    1000023    15

DECAY 2000015  2.9759634
    0.35738976   2    1000023    15
    0.34398295   2    1000022    15
    0.29854069   2   -1000024    16

DECAY 1000012  0.18195504
    0.58177218   2    1000025    12
    0.362801   2    1000024    11
    0.053321026   2    1000022    12
    0.0021057911   2    1000023    12

DECAY 1000014  0.21140953
    0.50068988   2    1000025    14
    0.45160585   2    1000024    13
    0.045891869   2    1000022    14
    0.0018123936   2    1000023    14

DECAY 1000016  1.8920086
    0.99878075   2    1000024    15
    0.0011609203   2    1000022    16

DECAY 2000001  142.68567
    0.98341801   2    1000021    1
    0.016555062   2    1000025    1

DECAY 1000001  194.33205
    0.72656151   2    1000021    1
    0.18009977   2   -1000037    2
    0.089851424   2    1000035    1
    0.0030762455   2    1000025    1
    0.00024044095   2    1000022    1
    0.00012687133   2   -1000024    2

DECAY 2000003  142.74698
    0.98300455   2    1000021    3
    0.016548029   2    1000025    3
    0.00021075098   2   -1000024    4
    0.00012576021   2    1000023    3
    0.00011075917   2    1000022    3

DECAY 1000003  194.36504
    0.72644331   2    1000021    3
    0.18006976   2   -1000037    4
    0.089836461   2    1000035    3
    0.0030757488   2    1000025    3
    0.00031792847   2    1000022    3
    0.0001359532   2   -1000024    4
    0.00012083861   2    1000023    3

DECAY 1000005  11.306129
    0.43446008   2   -1000024    6
    0.28605883   2    1000022    5
    0.27948108   2    1000023    5

DECAY 2000005  41.195436
    0.51218569   2   -1000024    6
    0.21691425   2    1000022    5
    0.21599137   2    1000023    5
    0.033644669   2    1000005    23
    0.021264029   2    1000005    25

DECAY 2000002  149.95557
    0.93686454   2    1000021    2
    0.063037382   2    1000025    2

DECAY 1000002  194.32355
    0.7263479   2    1000021    2
    0.17917458   2    1000037    1
    0.089794957   2    1000035    2
    0.0030151104   2    1000025    2
    0.0012533633   2    1000024    1
    0.00030395514   2    1000022    2
    0.00011013516   2    1000023    2

DECAY 2000004  149.95914
    0.93684235   2    1000021    4
    0.063035906   2    1000025    4

DECAY 1000004  194.35625
    0.72622951   2    1000021    4
    0.17914493   2    1000037    3
    0.089780042   2    1000035    4
    0.0030146165   2    1000025    4
    0.0014077599   2    1000024    3
    0.00030845379   2    1000022    4
    0.00011469525   2    1000023    4

DECAY 1000006  42.197664
    0.42711127   2    1000024    5
    0.2560471   2    1000022    6
    0.25391939   2    1000023    6
    0.056960858   2    1000005    24
    0.0057610747   3    1000022    24    5
    0.00013804582   2    1000022    4

DECAY 2000006  97.24808
    0.32731842   2    1000024    5
    0.1613578   2    1000023    6
    0.15925467   2    1000022    6
    0.15619016   2    2000005    24
    0.097602615   2    1000006    25
    0.084391564   2    1000006    23
    0.0068508001   2    1000025    6
    0.0061971344   2    1000005    24
    0.00069666343   2    1000037    5
    0.00014017655   2    1000035    6

DECAY 1000024  9.3777302e-12
    0.60373491   3    1000022   -1    2
    0.20126515   3    1000022   -11    12
    0.19499994   3    1000022   -13    14

DECAY 1000037  27.126617
    0.15972579   2    1000016   -15
    0.13655912   2    1000022    24
    0.13639634   2    1000023    24
    0.13573156   2    1000024    23
    0.13477986   2    1000024    25
    0.088129078   2   -2000015    16
    0.073463268   2    1000006   -5
    0.071228737   2   -1000015    16
    0.046995069   2   -2000005    6
    0.0050651414   3    1000024    6   -6
    0.0041946661   3    1000023   -5    6
    0.0040930726   3    1000022   -5    6
    0.00090303215   2   -1000005    6
    0.00070080605   2    1000014   -13
    0.0007006165   2    1000012   -11
    0.00063073921   2   -1000013    14
    0.00063044483   2   -1000011    12

DECAY 1000022 -1


DECAY 1000023  7.7233065e-09
    0.89089841   2    1000022    22
    0.030270138   3    1000022    12   -12
    0.022634717   3    1000022    1   -1
    0.022403996   3    1000022    3   -3
    0.017653558   3    1000022    2   -2
    0.0051080748   3    1000022    11   -11
    0.0050263474   3    1000022    13   -13
    0.0014191077   3    1000024    1   -2
    0.0014191077   3   -1000024   -1    2
    0.0010642917   3    1000022    4   -4
    0.00047305607   3    1000024    11   -12
    0.00047305607   3   -1000024   -11    12
    0.00046569605   3    1000024    13   -14
    0.00046569605   3   -1000024   -13    14
    0.00011226377   3    1000024    3   -4
    0.00011226377   3   -1000024   -3    4

DECAY 1000025  10.232341
    0.1169364   2    1000015   -15
    0.1169364   2   -1000015    15
    0.089982355   2    2000015   -15
    0.089982355   2   -2000015    15
    0.087970726   2    1000024   -24
    0.087970726   2   -1000024    24
    0.072051598   2    1000022    25
    0.071453162   2    1000022    23
    0.066967984   2    1000023    25
    0.046477011   2    1000005   -5
    0.046477011   2   -1000005    5
    0.041373215   2    1000016   -16
    0.041373215   2   -1000016    16
    0.017750837   2    1000023    23
    0.0018968763   3    1000024    5   -6
    0.0018968763   3   -1000024   -5    6
    0.001226182   3    1000022    6   -6
    0.00118004   3    1000023    6   -6

DECAY 1000035  29.660583
    0.12571635   2    1000024   -24
    0.12571635   2   -1000024    24
    0.09886969   2    1000023    23
    0.096470809   2    1000022    25
    0.090632854   2    1000023    25
    0.073248522   2    1000016   -16
    0.073248522   2   -1000016    16
    0.040180213   2    2000015   -15
    0.040180213   2   -2000015    15
    0.032472448   2    1000015   -15
    0.032472448   2   -1000015    15
    0.032306069   2    1000006   -6
    0.032306069   2   -1000006    6
    0.031846005   2    2000005   -5
    0.031846005   2   -2000005    5
    0.026252974   2    1000022    23
    0.0044325437   3    1000024    5   -6
    0.0044325437   3   -1000024   -5    6
    0.0020285718   3    1000022    6   -6
    0.001977631   3    1000023    6   -6
    0.00044942653   2    1000005   -5
    0.00044942653   2   -1000005    5
    0.00031935152   2    1000014   -14
    0.00031935152   2   -1000014    14
    0.00031926246   2    1000012   -12
    0.00031926246   2   -1000012    12
    0.00028539698   2    1000013   -13
    0.00028539698   2   -1000013    13
    0.00028526202   2    1000011   -11
    0.00028526202   2   -1000011    11

DECAY 1000021  275.40803
    0.1475005   2    1000005   -5
    0.1475005   2   -1000005    5
    0.11930289   2    1000006   -6
    0.11930289   2   -1000006    6
    0.11152824   2    2000005   -5
    0.11152824   2   -2000005    5
    0.068860476   2    2000006   -6
    0.068860476   2   -2000006    6
    0.052644721   2    1000006   -4
    0.052644721   2   -1000006    4

DECAY 25  0.0033688267
    0.63846883   2   -5    5
    0.16089401   2   -24    24
    0.074852508   2    21    21
    0.072649225   2   -15    15
    0.031388346   2   -4    4
    0.01780321   2    23    23
    0.0023241729   2    22    22
    0.0011282235   2    22    23
    0.00025197426   2   -13    13
    0.00023866869   2   -3    3
    6.5989471e-07   2   -1    1
    1.6176516e-07   2   -2    2
    5.6647237e-09   2   -11    11

DECAY 35  297.76646
    0.83104816   2   -5    5
    0.076891061   2   -15    15
    0.024071777   2   -1000024    1000037
    0.024071777   2   -1000037    1000024
    0.014929166   2    1000023    1000035
    0.0091940269   2    1000022    1000035
    0.0045072822   2    1000022    1000025
    0.0041528927   2   -1000015    1000015
    0.0040419505   2   -2000015    2000015
    0.0034669898   2    1000023    1000025
    0.00086958191   2   -2000006    1000006
    0.00086958191   2   -1000006    2000006
    0.00051192063   2   -1000006    1000006
    0.00046486325   2   -1000024    1000024
    0.00035073406   2   -6    6
    0.00024405461   2   -13    13
    0.00014291883   2   -3    3
    6.8888423e-05   2    1000022    1000022
    2.5810364e-05   2    1000022    1000023
    1.494613e-05   2   -2000015    1000015
    1.494613e-05   2   -1000015    2000015
    1.1652088e-05   2   -2000005    1000005
    1.1652088e-05   2   -1000005    2000005
    8.4904534e-06   2    21    21
    7.4596528e-06   2    1000025    1000035
    3.280022e-06   2    1000023    1000023
    2.6962013e-06   2   -1000005    1000005
    4.6586444e-07   2    1000025    1000025
    3.9508773e-07   2   -1    1
    2.3479221e-07   2   -1000037    1000037
    1.1770166e-07   2    1000035    1000035
    6.1382412e-08   2    25    25
    4.0637708e-08   2    23    23
    3.622946e-08   2   -2000005    2000005
    1.0962796e-08   2    22    23
    1.0793343e-08   2   -24    24
    8.2134438e-09   2    22    22
    5.4811436e-09   2   -11    11
    2.8966193e-09   2   -4    4
    2.0651523e-09   2   -1000011    1000011
    2.0277711e-09   2   -1000013    1000013
    1.492867e-14   2   -2    2

DECAY 36  256.24236
    0.81699892   2   -5    5
    0.075563397   2   -15    15
    0.028120351   2   -1000024    1000037
    0.028120351   2   -1000037    1000024
    0.017479557   2    1000022    1000035
    0.010730416   2    1000023    1000035
    0.0052562605   2    1000023    1000025
    0.0047693855   2   -2000015    1000015
    0.0047693855   2   -1000015    2000015
    0.0040730558   2    1000022    1000025
    0.0012837688   2   -2000006    1000006
    0.0012837688   2   -1000006    2000006
    0.0006112621   2   -1000024    1000024
    0.00037085926   2   -6    6
    0.00023982344   2   -13    13
    0.00014039581   2   -3    3
    9.5267963e-05   2    1000022    1000022
    2.4341772e-05   2    1000022    1000023
    1.3970589e-05   2   -2000005    1000005
    1.3970589e-05   2   -1000005    2000005
    1.3606422e-05   2    21    21
    1.3577504e-05   2   -1000037    1000037
    6.8006602e-06   2    1000035    1000035
    3.9047681e-06   2    1000023    1000023
    1.752597e-06   2    1000025    1000025
    1.2798931e-06   2    1000025    1000035
    3.881126e-07   2   -1    1
    8.3693407e-08   2    23    25
    5.1603238e-08   2    22    23
    3.2701098e-08   2    22    22
    5.3861415e-09   2   -11    11
    3.0273604e-09   2   -4    4
    3.0389487e-10   2    23    35
    1.5603672e-14   2   -2    2
    3.2703946e-40   2    25    25

DECAY 37  281.72113
    0.83736331   2   -5    6
    0.065923803   2   -15    16
    0.025742557   2    1000022    1000037
    0.025538389   2    1000024    1000035
    0.025469199   2    1000023    1000037
    0.0083822793   2    1000024    1000025
    0.0045920983   2   -2000015    1000016
    0.0041037325   2   -1000015    1000016
    0.0012416735   2   -5    4
    0.00075607819   2   -1000005    2000006
    0.00023306415   2   -13    14
    0.00020479001   2    1000023    1000024
    0.00013803215   2   -3    4
    0.00012081665   2   -1000005    1000006
    0.00011270301   2   -2000005    1000006
    5.2162553e-05   2    1000022    1000024
    9.0235837e-06   2    1000025    1000037
    8.8668295e-06   2   -5    2
    6.4723321e-06   2   -3    2
    4.3876381e-07   2   -3    6
    3.8285631e-07   2   -1    2
    7.5659333e-08   2    24    25
    1.799771e-08   2   -1    4
    1.0728284e-08   2   -1    6
    8.7792028e-09   2   -1000011    1000012
    8.7222758e-09   2   -1000013    1000014
    5.4513947e-09   2   -11    12
    2.0869413e-12   2    1000035    1000037
    1.6352159e-13   2    24    35

DECAY 6  2.43
    1   2    5    24

DECAY 15 -1
