BLOCK SPINFO
   1   SPheno
   2   v4.0.5be

BLOCK SPHENOINFO
   1   2
   2   2

BLOCK MODSEL
   1   0

BLOCK MINPAR
   3    24.982238
   4    1

BLOCK EXTPAR
   0    1425.9827
   1   -509.20455
   2   -1030.5056
   3    3000
   11    3416.5548
   12    749.90272
   13   -1085.2053
   23    158.70995
   25    24.097853
   26    1749.331
   31    1536.6073
   32    1536.6073
   33    280.10042
   34    567.49334
   35    567.49334
   36    871.38121
   41    5000
   42    5000
   43    1662.7359
   44    5000
   45    5000
   46    1349.4393
   47    5000
   48    5000
   49    1294.4645

BLOCK SMINPUTS
   1    127.90897
   2    1.1663787e-05
   3    0.1184
   4    91.1876
   5    4.18
   6    173.2
   7    1.777
   8    0
   11    0.00051099893
   12    0
   13    0.10565837
   14    0
   21    0.005
   22    0.0025
   23    0.095
   24    1.27

BLOCK GAUGE Q=  1425.9827
   1    0.35536298
   2    0.66519887
   3    1.219778

BLOCK YU Q=  1425.9827
   1   1    8.3915881e-06
   2   2    0.0042629268
   3   3    1.0137713

BLOCK YD Q=  1425.9827
   1   1    0.00040635234
   2   2    0.0077206945
   3   3    0.40297419

BLOCK YE Q=  1425.9827
   1   1    7.0911455e-05
   2   2    0.01466224
   3   3    0.24659475

BLOCK AU Q=  1425.9827
   1   1    0
   2   2    0
   3   3    3416.5551

BLOCK AD Q=  1425.9827
   1   1    0
   2   2    0
   3   3    749.90265

BLOCK AE Q=  1425.9827
   1   1    0
   2   2    0
   3   3   -1085.2053

BLOCK MSOFT Q=  1425.9827
   1   -509.20455
   2   -1030.5056
   3    3000
   21    3038657
   22    36654.843
   31    1536.6073
   32    1536.6073
   33    280.10042
   34    567.49334
   35    567.49334
   36    871.38121
   41    5000
   42    5000
   43    1662.7359
   44    5000
   45    5000
   46    1349.4393
   47    5000
   48    5000
   49    1294.4645

BLOCK MASS
   6    173.2
   23    91.1876
   24    80.429995
   15    1.777
   25    124.7424
   35    1749.1003
   36    1749.331
   37    1751.4439
   1000001    5026.345
   2000001    5016.8337
   1000002    5025.9088
   2000002    5017.9512
   1000003    5026.3467
   2000003    5016.8361
   1000004    5025.9105
   2000004    5017.952
   1000005    1291.6513
   2000005    1629.8203
   1000006    1197.379
   2000006    1698.2315
   1000011    1543.4583
   2000011    574.78817
   1000012    1541.0699
   1000013    1543.455
   2000013    574.77536
   1000014    1541.0665
   1000015    306.63633
   2000015    873.66494
   1000016    296.88628
   1000021    3184.8355
   1000022   -158.0936
   1000023    169.02556
   1000025   -510.48737
   1000035   -1078.4265
   1000024    164.02025
   1000037    1078.5591

BLOCK ALPHA
      -0.040293819

BLOCK HMIX Q=  1425.9827
   1    158.70995
   2    24.097853
   3    244.0277
   4    3060159

BLOCK STOPMIX
   1   1   -0.38348339
   1   2    0.92354777
   2   1   -0.92354777
   2   2   -0.38348339

BLOCK SBOTMIX
   1   1    0.0063147882
   1   2    0.99998006
   2   1   -0.99998006
   2   2    0.0063147882

BLOCK STAUMIX
   1   1    0.99991835
   1   2    0.012778602
   2   1   -0.012778602
   2   2    0.99991835

BLOCK NMIX
   1   1    0.08470216
   1   2   -0.058033605
   1   3    0.7175061
   1   4    0.68894314
   2   1   -0.049066324
   2   2    0.048362383
   2   3    0.69598997
   2   4   -0.71473879
   3   1   -0.99517912
   3   2   -0.013381317
   3   3    0.026702822
   3   4    0.093415282
   4   1   -0.0060460905
   4   2    0.99705272
   4   3    0.0083616953
   4   4    0.076022404

BLOCK UMIX
   1   1   -0.011871041
   1   2    0.99992954
   2   1   -0.99992954
   2   2   -0.011871041

BLOCK VMIX
   1   1    0.10754311
   1   2    0.99420042
   2   1    0.99420042
   2   2   -0.10754311

BLOCK HIGGSBOUNDSINPUTHIGGSCOUPLINGSFERMIONS
       0, 580.70654,3,36,15,15

BLOCK HIGGSBOUNDSINPUTHIGGSCOUPLINGSBOSONS
       0,4,36,21,21,23

BLOCK SPHENOLOWENERGY
   1    0.00036136803
   2    1.586726e-06
   3    3.5229803e-05
   4    2.3832814e-15
   5    1.0181113e-10
   6    2.1322733e-08
   7    7.9882711e-14
   8    3.4125886e-09
   9    7.2414919e-07
   10    9.5578771e-05
   11    0.98729211
   12    0.54338996
   13    19.410634
   14    0
   15    0
   16    0.0021636811
   17    2.2817243e-15
   18    2.4774222e-11
   19    8.2846687e-11
   20   -4.2502328e-15
   21   -1.8170733e-10
   22   -1.8258078e-07
   23    0
   24    0
   25    0
   26    0
   27    0
   28    0
   29    0
   30    0
   31    0
   39    7.8488182e-05
   40    0
   41    0
   42    0

BLOCK FWCOEF Q=  160
   305   4422   0   0   -0.18881911
   305   4422   0   2   -0.23447834
   305   4322   0   2   -0.00048505152
   305   6421   0   0   -0.095227835
   305   6421   0   2   -0.12730309
   305   6321   0   2   -0.00043843203
   3051111   4133   0   0    1.5901227
   3051111   4133   0   2    1.5919172
   3051111   4233   0   2    6.4165234e-05
   3051111   4137   0   0   -4.4128148
   3051111   4137   0   2   -4.4089052
   3051111   4237   0   2   -0.00049947314
   3051313   4133   0   0    1.5901227
   3051313   4133   0   2    1.5919162
   3051313   4233   0   2    6.4164724e-05
   3051313   4137   0   0   -4.4128148
   3051313   4137   0   2   -4.4089063
   3051313   4237   0   2   -0.00049947333
   3051212   4137   0   0    1.5053501
   3051212   4137   0   2    1.5045066
   3051212   4237   0   2    0.00010889349
   3051414   4137   0   0    1.5053501
   3051414   4137   0   2    1.5045066
   3051414   4237   0   2    0.00010889355
   3051616   4137   0   0    1.5053501
   3051616   4137   0   2    1.5045053
   3051616   4237   0   2    0.00010891176

BLOCK IMFWCOEF Q=  160
   305   4422   0   0    3.8580331e-07
   305   4422   0   2   -1.0560825e-05
   305   4322   0   2   -3.52072e-06
   305   6421   0   0    3.3046605e-07
   305   6421   0   2   -8.8344777e-06
   305   6321   0   2   -1.4019838e-06
   3051111   4133   0   2    3.3526317e-07
   3051111   4233   0   2    1.7556187e-06
   3051111   4137   0   2   -1.6663206e-06
   3051111   4237   0   2   -1.3686868e-05
   3051313   4133   0   2    3.3525126e-07
   3051313   4233   0   2    1.7556149e-06
   3051313   4137   0   2   -1.6663283e-06
   3051313   4237   0   2   -1.3686877e-05
   3051212   4137   0   2    5.0999451e-07
   3051212   4237   0   2    2.9840269e-06
   3051414   4137   0   2    5.0999449e-07
   3051414   4237   0   2    2.9840269e-06
   3051616   4137   0   2    4.8553295e-07
   3051616   4237   0   2    2.9840289e-06

DECAY 23  2.4952


DECAY 24  2.085


DECAY 2000011  0.1511202
    0.84444995   2    1000025    11
    0.11715252   2    1000022    11
    0.038397216   2    1000023    11

DECAY 1000011  6.9214765
    0.51389836   2   -1000037    12
    0.25393946   2    1000035    11
    0.23126459   2    1000025    11
    0.00047009144   2    1000023    11
    0.00027042215   2   -1000024    12
    0.00015707259   2    1000022    11

DECAY 2000013  0.15522283
    0.82183986   2    1000025    13
    0.12101256   2    1000022    13
    0.04378673   2    1000023    13
    0.013360851   2   -1000024    14

DECAY 1000013  6.9278975
    0.51341666   2   -1000037    14
    0.25370146   2    1000035    13
    0.23105   2    1000025    13
    0.00092021489   2    1000023    13
    0.00063720861   2    1000022    13
    0.00027017089   2   -1000024    14

DECAY 1000015  0.19108367
    0.54264286   2    1000022    15
    0.45537089   2    1000023    15
    0.0019854534   2   -1000024    16

DECAY 2000015  3.9877174
    0.47299917   2    1000025    15
    0.24641332   2   -1000024    16
    0.13410597   2    1000022    15
    0.12206276   2    1000023    15
    0.012396475   2    1000016   -24
    0.0060561111   2    1000015    25
    0.0059662033   2    1000015    23

DECAY 1000012  6.9624353
    0.5012751   2    1000037    11
    0.25383344   2    1000035    12
    0.20740048   2    1000025    12
    0.022027461   2    1000024    11
    0.010175003   2    1000022    12
    0.0052885199   2    1000023    12

DECAY 1000014  6.9688165
    0.50081076   2    1000037    13
    0.25359832   2    1000035    14
    0.20720989   2    1000025    14
    0.022931702   2    1000024    13
    0.010165663   2    1000022    14
    0.0052836651   2    1000023    14

DECAY 1000016  0.19934345
    0.94745405   2    1000024    15
    0.035892863   2    1000022    16
    0.016653087   2    1000023    16

DECAY 2000001  143.87582
    0.98093019   2    1000021    1
    0.018882787   2    1000025    1
    0.00013944828   2    1000022    1

DECAY 1000001  203.21926
    0.69935522   2    1000021    1
    0.19811396   2   -1000037    2
    0.098702981   2    1000035    1
    0.0028621439   2    1000025    1
    0.0005808937   2    1000022    1
    0.00035418088   2    1000023    1

DECAY 2000003  143.88791
    0.98084949   2    1000021    3
    0.018881239   2    1000025    3
    0.00016062149   2    1000022    3

DECAY 1000003  203.2272
    0.69932875   2    1000021    3
    0.19810639   2   -1000037    4
    0.098699165   2    1000035    3
    0.0028620536   2    1000025    3
    0.00059589862   2    1000022    3
    0.00036830376   2    1000023    3

DECAY 1000005  8.4423258
    0.46045079   2   -1000024    6
    0.24798286   2    1000022    5
    0.23113498   2    1000023    5
    0.060430605   2    1000025    5

DECAY 2000005  83.854826
    0.47718309   2    1000006   -24
    0.37595451   2   -1000024    6
    0.055722178   2   -1000037    6
    0.032097506   2    1000022    5
    0.030088163   2    1000023    5
    0.026939778   2    1000035    5
    0.0019159488   2    1000025    5

DECAY 2000002  152.22561
    0.92788891   2    1000021    2
    0.071404722   2    1000025    2
    0.00052709278   2    1000022    2
    0.0001768242   2    1000023    2

DECAY 1000002  203.2164
    0.69914151   2    1000021    2
    0.19583275   2    1000037    1
    0.098268778   2    1000035    2
    0.0038732976   2    1000025    2
    0.0025127115   2    1000024    1
    0.00020041648   2    1000022    2
    0.00017053517   2    1000023    2

DECAY 2000004  152.22925
    0.92786688   2    1000021    4
    0.071403107   2    1000025    4
    0.00053272727   2    1000022    4
    0.0001828953   2    1000023    4

DECAY 1000004  203.22427
    0.69911499   2    1000021    4
    0.19582524   2    1000037    3
    0.098265021   2    1000035    4
    0.0038732266   2    1000025    4
    0.0025417969   2    1000024    3
    0.00020464514   2    1000022    4
    0.00017508681   2    1000023    4

DECAY 1000006  46.69143
    0.46293591   2    1000024    5
    0.26267052   2    1000023    6
    0.24882144   2    1000022    6
    0.0251099   2    1000025    6
    0.00042387266   2    1000037    5

DECAY 2000006  90.170368
    0.27979405   2    1000006    23
    0.18900074   2    1000006    25
    0.17983086   2    1000023    6
    0.16512749   2    1000022    6
    0.088639725   2    1000024    5
    0.056798637   2    1000037    5
    0.025639843   2    1000035    6
    0.015080089   2    1000025    6

DECAY 1000024  2.6348534e-08
    0.37251919   3    1000022   -1    2
    0.29841313   3    1000022   -3    4
    0.12417671   3    1000022   -11    12
    0.12398164   3    1000022   -13    14
    0.08090933   3    1000022   -15    16

DECAY 1000037  17.310419
    0.23160748   2   -1000015    16
    0.23156364   2    1000016   -15
    0.13608122   2    1000023    24
    0.13278846   2    1000024    23
    0.12848691   2    1000024    25
    0.12638979   2    1000022    24
    0.0049704542   2    1000025    24
    0.0027169281   3    1000023   -5    6
    0.0026960197   3    1000022   -5    6
    0.0025579106   3    1000024    6   -6

DECAY 1000022 -1


DECAY 1000023  5.3889686e-07
    0.22666831   2    1000022    22
    0.18514262   3    1000022    12   -12
    0.13836715   3    1000022    1   -1
    0.13824598   3    1000022    3   -3
    0.10791426   3    1000022    2   -2
    0.090128997   3    1000022    4   -4
    0.031220016   3    1000022    11   -11
    0.031177702   3    1000022    13   -13
    0.021689657   3    1000022    15   -15
    0.01584829   3    1000022    5   -5
    0.0026326681   3    1000024    1   -2
    0.0026326681   3   -1000024   -1    2
    0.0019304851   3    1000024    3   -4
    0.0019304851   3   -1000024   -3    4
    0.00087757489   3    1000024    11   -12
    0.00087757489   3   -1000024   -11    12
    0.00087563287   3    1000024    13   -14
    0.00087563287   3   -1000024   -13    14
    0.00048214575   3    1000024    15   -16
    0.00048214575   3   -1000024   -15    16

DECAY 1000025  1.9083956
    0.17100169   2    1000024   -24
    0.17100169   2   -1000024    24
    0.13066732   2    1000023    23
    0.11719478   2    1000023    25
    0.089378166   2    1000022    25
    0.071482341   2    1000015   -15
    0.071482341   2   -1000015    15
    0.069248084   2    1000016   -16
    0.069248084   2   -1000016    16
    0.038124685   2    1000022    23
    0.00057317531   3    1000024    5   -6
    0.00057317531   3   -1000024   -5    6

DECAY 1000035  18.116568
    0.12868743   2    1000024   -24
    0.12868743   2   -1000024    24
    0.11196355   2    1000016   -16
    0.11196355   2   -1000016    16
    0.10928371   2    1000015   -15
    0.10928371   2   -1000015    15
    0.090560606   2    1000023    25
    0.079642418   2    1000023    23
    0.069869528   2    1000022    25
    0.047759035   2    1000022    23
    0.0036872558   2    1000025    25
    0.0028800816   3    1000024    5   -6
    0.0028800816   3   -1000024   -5    6
    0.0011457111   3    1000023    6   -6
    0.0010321327   3    1000022    6   -6
    0.00053762605   2    1000025    23

DECAY 1000021  236.31965
    0.1600205   2    1000006   -6
    0.1600205   2   -1000006    6
    0.13923347   2    1000005   -5
    0.13923347   2   -1000005    5
    0.10867244   2    2000005   -5
    0.10867244   2   -2000005    5
    0.090902882   2    2000006   -6
    0.090902882   2   -2000006    6
    0.0010870713   2    1000006   -4
    0.0010870713   2   -1000006    4

DECAY 25  0.0038691016
    0.57978451   2   -5    5
    0.22294436   2   -24    24
    0.071111517   2    21    21
    0.066693615   2   -15    15
    0.028375608   2   -4    4
    0.02685064   2    23    23
    0.0023254833   2    22    22
    0.001464547   2    22    23
    0.00023119332   2   -13    13
    0.00021776862   2   -3    3
    6.0210751e-07   2   -1    1
    1.4622715e-07   2   -2    2
    5.1974856e-09   2   -11    11

DECAY 35  24.705623
    0.46778071   2   -5    5
    0.11414755   2   -1000024    1000037
    0.11414755   2   -1000037    1000024
    0.084734306   2   -15    15
    0.061169562   2    1000023    1000035
    0.05440289   2    1000022    1000035
    0.033042471   2    1000022    1000025
    0.030553831   2    1000023    1000025
    0.011865168   2   -2000015    1000015
    0.011865168   2   -1000015    2000015
    0.0069025067   2   -1000024    1000024
    0.0040258387   2   -6    6
    0.0032670664   2    1000022    1000022
    0.0013889559   2    1000023    1000023
    0.00030558702   2   -13    13
    0.00019654019   2   -3    3
    6.4186297e-05   2    1000025    1000025
    4.6308622e-05   2    1000022    1000023
    3.2026447e-05   2    1000025    1000035
    2.7237592e-05   2    25    25
    1.5073863e-05   2   -1000015    1000015
    6.9437795e-06   2    21    21
    4.3094579e-06   2    23    23
    2.7694849e-06   2   -24    24
    6.311586e-07   2   -2000015    2000015
    5.4338322e-07   2   -1    1
    4.919326e-07   2   -1000011    1000011
    4.900659e-07   2   -1000013    1000013
    8.045216e-08   2    22    23
    6.0577689e-08   2   -4    4
    2.9677445e-08   2    22    22
    6.8644514e-09   2   -11    11
    3.1233142e-13   2   -2    2

DECAY 36  24.310136
    0.46149809   2   -5    5
    0.11600899   2   -1000024    1000037
    0.11600899   2   -1000037    1000024
    0.083593823   2   -15    15
    0.065799791   2    1000022    1000035
    0.051655465   2    1000023    1000035
    0.032329818   2    1000023    1000025
    0.032327229   2    1000022    1000025
    0.012068211   2   -2000015    1000015
    0.012068211   2   -1000015    2000015
    0.0071225459   2   -1000024    1000024
    0.004059189   2   -6    6
    0.0029351217   2    1000022    1000022
    0.0017250476   2    1000023    1000023
    0.00030148075   2   -13    13
    0.00019389655   2   -3    3
    0.00014618483   2    1000022    1000023
    6.6525019e-05   2    1000025    1000035
    5.4964113e-05   2    1000025    1000025
    2.9957671e-05   2    21    21
    5.8028446e-06   2    23    25
    5.3607427e-07   2   -1    1
    6.378912e-08   2    22    23
    5.8360865e-08   2   -4    4
    6.7722214e-09   2   -11    11
    4.5620965e-09   2    22    22
    3.0093353e-13   2   -2    2
    4.0793967e-37   2    25    25

DECAY 37  24.284227
    0.45944092   2   -5    6
    0.12199111   2    1000022    1000037
    0.11657923   2    1000024    1000035
    0.1140941   2    1000023    1000037
    0.090017974   2   -15    16
    0.071880339   2    1000024    1000025
    0.02427072   2   -2000015    1000016
    0.00067880836   2   -5    4
    0.00039270475   2    1000023    1000024
    0.00031824611   2   -13    14
    0.00018037508   2   -3    4
    0.00010167137   2    1000025    1000037
    1.6136116e-05   2   -1000015    1000016
    1.0679237e-05   2    1000022    1000024
    8.3913279e-06   2   -3    2
    7.0570295e-06   2   -3    6
    5.8412111e-06   2    24    25
    4.8473951e-06   2   -5    2
    5.0037975e-07   2   -1    2
    3.116595e-07   2   -1    6
    2.6104039e-08   2   -1    4
    7.4438095e-09   2   -11    12
    3.9590357e-12   2    24    35
    2.3582817e-12   2    24    36

DECAY 6  2.43
    1   2    5    24

DECAY 15 -1
