BLOCK SPINFO
   1   SPheno
   2   v4.0.5be

BLOCK SPHENOINFO
   1   2
   2   2

BLOCK MODSEL
   1   0

BLOCK MINPAR
   3    43.630362
   4    1

BLOCK EXTPAR
   0    1396.2024
   1    84.460554
   2   -1331.0783
   3    3000
   11   -2943.9205
   12   -1748.0653
   13   -905.98703
   23    193.56029
   25    42.875214
   26    1446.6776
   31    443.04557
   32    443.04557
   33    748.79206
   34    1034.2854
   35    1034.2854
   36    315.47348
   41    5000
   42    5000
   43    1419.6706
   44    5000
   45    5000
   46    1495.4984
   47    5000
   48    5000
   49    1611.9279

BLOCK SMINPUTS
   1    127.90897
   2    1.1663787e-05
   3    0.1184
   4    91.1876
   5    4.18
   6    173.2
   7    1.777
   8    0
   11    0.00051099893
   12    0
   13    0.10565837
   14    0
   21    0.005
   22    0.0025
   23    0.095
   24    1.27

BLOCK GAUGE Q=  1396.2024
   1    0.35536298
   2    0.66519887
   3    1.219778

BLOCK YU Q=  1396.2024
   1   1    8.3866523e-06
   2   2    0.0042604194
   3   3    1.013175

BLOCK YD Q=  1396.2024
   1   1    0.00072256212
   2   2    0.01372868
   3   3    0.71655521

BLOCK YE Q=  1396.2024
   1   1    0.00012609237
   2   2    0.026071904
   3   3    0.43848653

BLOCK AU Q=  1396.2024
   1   1    0
   2   2    0
   3   3   -2943.9206

BLOCK AD Q=  1396.2024
   1   1    0
   2   2    0
   3   3   -1748.065

BLOCK AE Q=  1396.2024
   1   1    0
   2   2    0
   3   3   -905.98704

BLOCK MSOFT Q=  1396.2024
   1    84.460554
   2   -1331.0783
   3    3000
   21    2087994.2
   22   -14147.179
   31    443.04557
   32    443.04557
   33    748.79206
   34    1034.2854
   35    1034.2854
   36    315.47348
   41    5000
   42    5000
   43    1419.6706
   44    5000
   45    5000
   46    1495.4984
   47    5000
   48    5000
   49    1611.9279

BLOCK MASS
   6    173.2
   23    91.1876
   24    80.429995
   15    1.777
   25    123.06687
   35    1446.4155
   36    1446.6776
   37    1450.0028
   1000001    5023.4044
   2000001    5014.7604
   1000002    5022.9641
   2000002    5016.1848
   1000003    5023.4092
   2000003    5014.7684
   1000004    5022.9688
   2000004    5016.1857
   1000005    1388.3151
   2000005    1608.9623
   1000006    1258.7323
   2000006    1548.6861
   1000011    466.71948
   2000011    1036.306
   1000012    459.56267
   1000013    466.69738
   2000013    1036.2841
   1000014    459.54107
   1000015    302.93488
   2000015    761.89683
   1000016    756.26746
   1000021    3181.0185
   1000022    78.662071
   1000023   -196.52411
   1000025    205.81807
   1000035   -1369.2667
   1000024    194.91556
   1000037    1369.3679

BLOCK ALPHA
      -0.023141484

BLOCK HMIX Q=  1396.2024
   1    193.56029
   2    42.875214
   3    244.06921
   4    2092876.2

BLOCK STOPMIX
   1   1    0.7574187
   1   2    0.65292949
   2   1   -0.65292949
   2   2    0.7574187

BLOCK SBOTMIX
   1   1    0.99938343
   1   2    0.035110784
   2   1   -0.035110784
   2   2    0.99938343

BLOCK STAUMIX
   1   1    0.032648274
   1   2    0.9994669
   2   1   -0.9994669
   2   2    0.032648274

BLOCK NMIX
   1   1   -0.95929086
   1   2   -0.0064961341
   1   3   -0.26000277
   1   4    0.11007904
   2   1   -0.10860158
   2   2   -0.046672481
   2   3    0.70002586
   2   4    0.70426641
   3   1    0.26069752
   3   2   -0.036147602
   3   3   -0.6650669
   3   4    0.69886777
   4   1   -0.0018801157
   4   2    0.99823486
   4   3    0.0069546328
   4   4    0.0589514

BLOCK UMIX
   1   1   -0.0098675625
   1   2    0.99995131
   2   1   -0.99995131
   2   2   -0.0098675625

BLOCK VMIX
   1   1    0.083410104
   1   2    0.99651531
   2   1    0.99651531
   2   2   -0.083410104

BLOCK HIGGSBOUNDSINPUTHIGGSCOUPLINGSFERMIONS
       0, 1838.284,3,36,15,15

BLOCK HIGGSBOUNDSINPUTHIGGSCOUPLINGSBOSONS
       0,4,36,21,21,23

BLOCK SPHENOLOWENERGY
   1    0.00027968938
   2    1.5971717e-06
   3    3.5219616e-05
   4    4.105156e-15
   5    1.7535561e-10
   6    3.6006489e-08
   7    1.3707547e-13
   8    5.85548e-09
   9    1.2194544e-06
   10    9.2579556e-05
   11    0.95631137
   12    0.54267237
   13    19.364022
   14    0
   15    0
   16    0.0021601242
   17    2.2816924e-15
   18    2.479442e-11
   19    8.2883533e-11
   20   -6.9452608e-15
   21   -2.9686397e-10
   22    4.1009904e-08
   23    0
   24    0
   25    0
   26    0
   27    0
   28    0
   29    0
   30    0
   31    0
   39    9.2324011e-05
   40    0
   41    0
   42    0

BLOCK FWCOEF Q=  160
   305   4422   0   0   -0.18881911
   305   4422   0   2   -0.13372469
   305   4322   0   2    1.0762574e-05
   305   6421   0   0   -0.095227835
   305   6421   0   2   -0.084799712
   305   6321   0   2   -0.00032981724
   3051111   4133   0   0    1.5898306
   3051111   4133   0   2    1.5911433
   3051111   4233   0   2    0.00017811021
   3051111   4137   0   0   -4.4125227
   3051111   4137   0   2   -4.4076535
   3051111   4237   0   2   -0.0013881516
   3051313   4133   0   0    1.5898306
   3051313   4133   0   2    1.591136
   3051313   4233   0   2    0.00017810332
   3051313   4137   0   0   -4.4125227
   3051313   4137   0   2   -4.4076609
   3051313   4237   0   2   -0.001388152
   3051212   4137   0   0    1.5053501
   3051212   4137   0   2    1.5042952
   3051212   4237   0   2    0.00030266418
   3051414   4137   0   0    1.5053501
   3051414   4137   0   2    1.5042952
   3051414   4237   0   2    0.00030266533
   3051616   4137   0   0    1.5053501
   3051616   4137   0   2    1.5042987
   3051616   4237   0   2    0.00030299115

BLOCK IMFWCOEF Q=  160
   305   4422   0   0    3.8585101e-07
   305   4422   0   2   -1.8454311e-05
   305   4322   0   2    7.0299343e-06
   305   6421   0   0    3.3050691e-07
   305   6421   0   2   -1.7847218e-05
   305   6321   0   2    2.4794532e-06
   3051111   4133   0   2   -2.2723512e-06
   3051111   4233   0   2    5.6432873e-06
   3051111   4137   0   2    1.7862007e-05
   3051111   4237   0   2   -4.4052706e-05
   3051313   4133   0   2   -2.2722493e-06
   3051313   4233   0   2    5.6432599e-06
   3051313   4137   0   2    1.7862101e-05
   3051313   4237   0   2   -4.4052809e-05
   3051212   4137   0   2   -3.7638989e-06
   3051212   4237   0   2    9.6051782e-06
   3051414   4137   0   2   -3.7639004e-06
   3051414   4237   0   2    9.6051782e-06
   3051616   4137   0   2   -3.7581218e-06
   3051616   4237   0   2    9.6051952e-06

DECAY 23  2.4952


DECAY 24  2.085


DECAY 1000011  0.551976
    0.94621771   2    1000022    11
    0.027607451   2    1000023    11
    0.025680792   2    1000025    11
    0.00049398457   2   -1000024    12

DECAY 2000011  5.1202773
    0.92508272   2    1000022    11
    0.063770168   2    1000025    11
    0.011147048   2    1000023    11

DECAY 1000013  0.55624984
    0.93962598   2    1000022    13
    0.031151081   2    1000023    13
    0.028732732   2    1000025    13
    0.0004901463   2   -1000024    14

DECAY 2000013  5.1464336
    0.92054271   2    1000022    13
    0.064556458   2    1000025    13
    0.012330509   2    1000023    13
    0.0025334946   2   -1000024    14

DECAY 1000015  2.0651604
    0.62599595   2    1000022    15
    0.19264639   2   -1000024    16
    0.095367403   2    1000023    15
    0.085990256   2    1000025    15

DECAY 2000015  3.6718615
    0.34789745   2    1000023    15
    0.31555163   2    1000025    15
    0.28696099   2    1000022    15
    0.025131547   2    1000015    25
    0.024241579   2    1000015    23
    0.00021681073   2   -1000024    16

DECAY 1000012  0.54683919
    0.89232124   2    1000022    12
    0.072742749   2    1000025    12
    0.03461813   2    1000024    11
    0.00031787675   2    1000023    12

DECAY 1000014  0.55099131
    0.8855503   2    1000022    14
    0.072187781   2    1000025    14
    0.041946461   2    1000024    13
    0.00031545321   2    1000023    14

DECAY 1000016  3.6596176
    0.70011768   2    1000024    15
    0.22785358   2    1000022    16
    0.047930345   2    1000015    24
    0.0239966   2    1000025    16
    0.00010178949   2    1000023    16

DECAY 2000001  144.17089
    0.98059388   2    1000021    1
    0.01786167   2    1000022    1
    0.0013155175   2    1000025    1
    0.00022851121   2    1000023    1

DECAY 1000001  199.82372
    0.71199389   2    1000021    1
    0.18961541   2   -1000037    2
    0.094548135   2    1000035    1
    0.0029865376   2    1000022    1
    0.00075199657   2    1000025    1

DECAY 2000003  144.20913
    0.98033972   2    1000021    3
    0.017865747   2    1000022    3
    0.0013724931   2    1000025    3
    0.00029197535   2    1000023    3
    0.00012998412   2   -1000024    4

DECAY 1000003  199.84483
    0.7119212   2    1000021    3
    0.18959568   2   -1000037    4
    0.094538274   2    1000035    3
    0.0029925755   2    1000022    3
    0.00079335349   2    1000025    3
    0.00012845284   2    1000023    3

DECAY 1000005  42.795093
    0.61032196   2   -1000024    6
    0.15591053   2    1000023    5
    0.13943845   2    1000025    5
    0.066133389   2    1000006   -24
    0.028092409   2    1000022    5
    0.00010325585   2    1000035    5

DECAY 2000005  32.634708
    0.47880687   2   -1000024    6
    0.23999188   2    1000023    5
    0.21998716   2    1000025    5
    0.056014273   2    1000022    5
    0.0033025829   2    1000006   -24
    0.001138578   2    1000005    25
    0.0006720951   2    1000005    23

DECAY 2000002  152.71537
    0.92670052   2    1000021    2
    0.067468299   2    1000022    2
    0.0049684744   2    1000025    2
    0.00086248359   2    1000023    2

DECAY 1000002  199.81815
    0.71178422   2    1000021    2
    0.18829799   2    1000037    1
    0.094413076   2    1000035    2
    0.0034772264   2    1000022    2
    0.0015351837   2    1000024    1
    0.00048065951   2    1000023    2

DECAY 2000004  152.71901
    0.92667863   2    1000021    4
    0.067466834   2    1000022    4
    0.0049741374   2    1000025    4
    0.00086832471   2    1000023    4

DECAY 1000004  199.83918
    0.71171148   2    1000021    4
    0.18827842   2    1000037    3
    0.094403254   2    1000035    4
    0.0034769736   2    1000022    4
    0.0016287203   2    1000024    3
    0.0004850994   2    1000023    4

DECAY 1000006  39.188614
    0.41072075   2    1000024    5
    0.2872   2    1000023    6
    0.24749458   2    1000025    6
    0.052840159   2    1000022    6
    0.0010588856   2    1000022    4
    0.00037361816   3    1000022    24    5
    0.00014077799   2    1000023    4

DECAY 2000006  75.255109
    0.34138843   2    1000024    5
    0.22355042   2    1000025    6
    0.20114861   2    1000023    6
    0.13711732   2    1000006    23
    0.070049121   2    1000005    24
    0.019007058   2    1000022    6
    0.004851837   2    1000006    25
    0.0026485895   2    1000037    5
    0.00023862025   2    1000035    6

DECAY 1000024  0.063143742
    0.99992614   2    1000022    24

DECAY 1000037  36.795022
    0.12809241   2    1000014   -13
    0.12808932   2    1000012   -11
    0.12795172   2   -1000013    14
    0.12794854   2   -1000011    12
    0.079047046   2    1000023    24
    0.078885141   2    1000024    25
    0.078578035   2    1000016   -15
    0.078138593   2    1000024    23
    0.078029489   2   -2000015    16
    0.074889661   2    1000025    24
    0.0082935526   2    1000006   -5
    0.0032464957   2    1000022    24
    0.0029632815   3    1000024    6   -6
    0.0027075092   3    1000023   -5    6
    0.0024292465   3    1000025   -5    6
    0.00040493172   3    1000024    5   -5
    0.00014456   3    1000022   -5    6
    0.00010128597   2   -1000015    16

DECAY 1000022 -1


DECAY 1000023  0.12044943
    0.99991524   2    1000022    23

DECAY 1000025  0.036292639
    0.56341297   2    1000022    23
    0.4363365   2    1000022    25
    0.0002221424   3    1000022    15   -15

DECAY 1000035  37.41609
    0.077549086   2    1000024   -24
    0.077549086   2   -1000024    24
    0.063320823   2    1000014   -14
    0.063320823   2   -1000014    14
    0.063319312   2    1000012   -12
    0.063319312   2   -1000012    12
    0.062564961   2    1000013   -13
    0.062564961   2   -1000013    13
    0.062563402   2    1000011   -11
    0.062563402   2   -1000011    11
    0.050752255   2    1000025    25
    0.048108219   2    1000023    25
    0.045955979   2    1000025    23
    0.038836994   2    1000016   -16
    0.038836994   2   -1000016    16
    0.038150417   2    2000015   -15
    0.038150417   2   -2000015    15
    0.029569203   2    1000023    23
    0.0032886967   3    1000024    5   -6
    0.0032886967   3   -1000024   -5    6
    0.0018766984   2    1000022    25
    0.0015935773   2    1000022    23
    0.00084426904   3    1000023    6   -6
    0.00079269691   3    1000025    6   -6
    0.0005142475   3    1000023    5   -5
    0.00045056202   3    1000025    5   -5

DECAY 1000021  250.84754
    0.12431228   2    2000006   -6
    0.12431228   2   -2000006    6
    0.12296358   2    1000005   -5
    0.12296358   2   -1000005    5
    0.11636353   2    1000006   -6
    0.11636353   2   -1000006    6
    0.10395943   2    2000005   -5
    0.10395943   2   -2000005    5
    0.032052444   2    1000006   -4
    0.032052444   2   -1000006    4
    0.00023667861   3    1000037    5   -6
    0.00023667861   3   -1000037   -5    6

DECAY 25  0.0036774947
    0.60586024   2   -5    5
    0.19590977   2   -24    24
    0.072529081   2    21    21
    0.069341677   2   -15    15
    0.029445717   2   -4    4
    0.022812257   2    23    23
    0.0023105918   2    22    22
    0.0013219886   2    22    23
    0.00024055981   2   -13    13
    0.00022732713   2   -3    3
    6.2853531e-07   2   -1    1
    1.5174659e-07   2   -2    2
    5.4080766e-09   2   -11    11

DECAY 35  39.181025
    0.78725776   2   -5    5
    0.13214716   2   -15    15
    0.019283915   2    1000022    1000023
    0.017469702   2   -2000015    1000015
    0.017469702   2   -1000015    2000015
    0.011542929   2    1000022    1000025
    0.0049030242   2    1000022    1000022
    0.0034483128   2    1000025    1000025
    0.0024959438   2    1000023    1000025
    0.0020382703   2   -1000024    1000024
    0.00079018349   2   -6    6
    0.00043838185   2   -13    13
    0.00031126592   2   -3    3
    0.00023342077   2    1000022    1000035
    0.00012124068   2   -1000015    1000015
    3.0183269e-05   2    21    21
    9.6023769e-06   2    1000023    1000023
    4.6379856e-06   2    25    25
    9.3628176e-07   2    23    23
    8.6053975e-07   2   -1    1
    7.8702721e-07   2   -24    24
    1.9810675e-07   2   -1000011    1000011
    1.9621355e-07   2   -1000013    1000013
    3.6564047e-08   2    22    22
    1.9769988e-08   2    22    23
    1.28995e-08   2   -4    4
    9.8480185e-09   2   -11    11
    6.6514982e-14   2   -2    2

DECAY 36  37.68152
    0.78450828   2   -5    5
    0.13168538   2   -15    15
    0.018261211   2   -2000015    1000015
    0.018261211   2   -1000015    2000015
    0.017730764   2    1000022    1000023
    0.013773019   2    1000022    1000025
    0.0053690137   2    1000022    1000022
    0.0042933723   2    1000025    1000025
    0.0022569774   2   -1000024    1000024
    0.0022055285   2    1000023    1000025
    0.00080463622   2   -6    6
    0.00043684708   2   -13    13
    0.000310172   2   -3    3
    4.6570225e-05   2    21    21
    4.4977043e-05   2    1000022    1000035
    9.8116318e-06   2    1000023    1000023
    1.2980267e-06   2    23    25
    8.5751512e-07   2   -1    1
    2.9700251e-08   2    22    23
    1.8195338e-08   2    22    22
    1.2341583e-08   2   -4    4
    9.813543e-09   2   -11    11
    6.3651853e-14   2   -2    2
    5.167069e-38   2    25    25

DECAY 37  39.641686
    0.7816171   2   -5    6
    0.13924787   2   -15    16
    0.039554573   2    1000022    1000024
    0.034918345   2   -1000015    1000016
    0.0012519979   2    1000023    1000024
    0.0011735896   2   -5    4
    0.0011371535   2    1000024    1000025
    0.00049229207   2   -13    14
    0.00029959207   2    1000022    1000037
    0.00028086246   2   -3    4
    1.3038729e-05   2   -3    2
    8.3806512e-06   2   -5    2
    1.5486085e-06   2   -3    6
    1.2459411e-06   2    24    25
    7.7919502e-07   2   -1    2
    7.6545656e-07   2   -1000011    1000012
    7.6283176e-07   2   -1000013    1000014
    5.2535187e-08   2   -1    6
    3.655936e-08   2   -1    4
    1.1514763e-08   2   -11    12
    2.0357951e-11   2    24    35
    1.3932372e-11   2    24    36

DECAY 6  2.43
    1   2    5    24

DECAY 15 -1
