BLOCK SPINFO
   1   SPheno
   2   v4.0.5be

BLOCK SPHENOINFO
   1   2
   2   2

BLOCK MODSEL
   1   0

BLOCK MINPAR
   3    48.659937
   4    1

BLOCK EXTPAR
   0    4209.5805
   1    22.319015
   2   -4333.5332
   3    2789.5209
   11   -3953.0703
   12    6916.2575
   13    5839.3386
   23    1592.7628
   25    47.697425
   26    4181.8811
   31    1896.1522
   32    1896.1522
   33    3137.8105
   34    803.17219
   35    803.17219
   36    2081.5642
   41    2271.1567
   42    2271.1567
   43    4045.7611
   44    2832.5454
   45    2832.5454
   46    4297.9617
   47    3271.0333
   48    3271.0333
   49    4937.1838

BLOCK SMINPUTS
   1    127.90897
   2    1.1663787e-05
   3    0.1184
   4    91.1876
   5    4.18
   6    173.2
   7    1.777
   8    0
   11    0.00051099893
   12    0
   13    0.10565837
   14    0
   21    0.005
   22    0.0025
   23    0.095
   24    1.27

BLOCK GAUGE Q=  4209.5805
   1    0.35536298
   2    0.66519887
   3    1.219778

BLOCK YU Q=  4209.5805
   1   1    8.3862146e-06
   2   2    0.004260197
   3   3    1.0131221

BLOCK YD Q=  4209.5805
   1   1    0.00080378732
   2   2    0.015271959
   3   3    0.79710515

BLOCK YE Q=  4209.5805
   1   1    0.00014026677
   2   2    0.029002718
   3   3    0.48777801

BLOCK AU Q=  4209.5805
   1   1    0
   2   2    0
   3   3   -3953.0726

BLOCK AD Q=  4209.5805
   1   1    0
   2   2    0
   3   3    6916.2599

BLOCK AE Q=  4209.5805
   1   1    0
   2   2    0
   3   3    5839.3376

BLOCK MSOFT Q=  4209.5805
   1    22.319015
   2   -4333.5332
   3    2789.5209
   21    15224929
   22   -2257921.4
   31    1896.1522
   32    1896.1522
   33    3137.8105
   34    803.17219
   35    803.17219
   36    2081.5642
   41    2271.1567
   42    2271.1567
   43    4045.7611
   44    2832.5454
   45    2832.5454
   46    4297.9617
   47    3271.0333
   48    3271.0333
   49    4937.1838

BLOCK MASS
   6    173.2
   23    91.1876
   24    80.429995
   15    1.777
   25    122.3249
   35    4181.0068
   36    4181.8811
   37    4181.9014
   1000001    2483.9089
   2000001    3389.6707
   1000002    2482.6532
   2000002    2966.3793
   1000003    2483.903
   2000003    3389.6613
   1000004    2482.6476
   2000004    2966.3787
   1000005    4122.4821
   2000005    4978.0227
   1000006    4101.1954
   2000006    4320.8299
   1000011    1942.9168
   2000011    825.42067
   1000012    1940.9149
   1000013    1942.8849
   2000013    825.28828
   1000014    1940.8683
   1000015    2058.4133
   2000015    3158.4997
   1000016    3155.3433
   1000021    3044.5261
   1000022    21.764369
   1000023   -1617.6302
   1000025    1619.1481
   1000035   -4278.2918
   1000024    1617.3834
   1000037    4278.3491

BLOCK ALPHA
      -0.020567255

BLOCK HMIX Q=  4209.5805
   1    1592.7628
   2    47.697425
   3    242.89069
   4    17488130

BLOCK STOPMIX
   1   1    0.94989912
   1   2    0.31255665
   2   1   -0.31255665
   2   2    0.94989912

BLOCK SBOTMIX
   1   1    0.99984532
   1   2    0.017587862
   2   1   -0.017587862
   2   2    0.99984532

BLOCK STAUMIX
   1   1    0.020921154
   1   2    0.99978113
   2   1   -0.99978113
   2   2    0.020921154

BLOCK NMIX
   1   1   -0.99962204
   1   2   -3.4089774e-05
   1   3   -0.027474881
   1   4    0.00095402352
   2   1    0.018755318
   2   2    0.019760636
   2   3   -0.70694227
   2   4   -0.70674633
   3   1    0.020099066
   3   2   -0.0094644041
   3   3   -0.70669989
   3   4    0.70716457
   4   1   -0.0002145197
   4   2    0.99975994
   4   3    0.0072819468
   4   4    0.020663641

BLOCK UMIX
   1   1   -0.01037042
   1   2    0.99994623
   2   1   -0.99994623
   2   2   -0.01037042

BLOCK VMIX
   1   1    0.029335544
   1   2    0.99956962
   2   1    0.99956962
   2   2   -0.029335544

BLOCK HIGGSBOUNDSINPUTHIGGSCOUPLINGSFERMIONS
       0, 2275.0443,3,36,15,15

BLOCK HIGGSBOUNDSINPUTHIGGSCOUPLINGSBOSONS
       0,4,36,21,21,23

BLOCK SPHENOLOWENERGY
   1    0.0003152043
   2    1.5911146e-06
   3    3.5255293e-05
   4    2.5461223e-15
   5    1.0876644e-10
   6    2.270963e-08
   7    8.5022404e-14
   8    3.6321228e-09
   9    7.6852692e-07
   10    9.6190992e-05
   11    0.99361612
   12    0.54176773
   13    19.353157
   14    0
   15    0
   16    0.0021566302
   17    2.2816521e-15
   18    2.480398e-11
   19    8.2909218e-11
   20   -1.3943723e-15
   21   -5.9614131e-11
   22   -1.3948028e-08
   23    0
   24    0
   25    0
   26    0
   27    0
   28    0
   29    0
   30    0
   31    0
   39    6.9028421e-05
   40    0
   41    0
   42    0

BLOCK FWCOEF Q=  160
   305   4422   0   0   -0.18881911
   305   4422   0   2   -0.18185623
   305   4322   0   2    0.00022126332
   305   6421   0   0   -0.095227835
   305   6421   0   2   -0.096062715
   305   6321   0   2    3.1756188e-05
   3051111   4133   0   0    1.6292318
   3051111   4133   0   2    1.6294527
   3051111   4233   0   2    0.00044489271
   3051111   4137   0   0   -4.4519239
   3051111   4137   0   2   -4.4506456
   3051111   4237   0   2   -0.0032811297
   3051313   4133   0   0    1.6292318
   3051313   4133   0   2    1.6294514
   3051313   4233   0   2    0.00044489141
   3051313   4137   0   0   -4.4519239
   3051313   4137   0   2   -4.4506469
   3051313   4237   0   2   -0.0032811322
   3051212   4137   0   0    1.5053501
   3051212   4137   0   2    1.5050741
   3051212   4237   0   2    0.00070910313
   3051414   4137   0   0    1.5053501
   3051414   4137   0   2    1.5050741
   3051414   4237   0   2    0.00070910317
   3051616   4137   0   0    1.5053501
   3051616   4137   0   2    1.5050743
   3051616   4237   0   2    0.00070911449

BLOCK IMFWCOEF Q=  160
   305   4422   0   0    3.8585691e-07
   305   4422   0   2   -2.4606638e-06
   305   4322   0   2    5.27517e-06
   305   6421   0   0    3.3051196e-07
   305   6421   0   2   -2.0455355e-05
   305   6321   0   2    2.3558635e-06
   3051111   4133   0   2   -7.8848502e-07
   3051111   4233   0   2    8.5672029e-06
   3051111   4137   0   2    7.8241678e-06
   3051111   4237   0   2   -6.3185202e-05
   3051313   4133   0   2   -7.8845983e-07
   3051313   4233   0   2    8.5671834e-06
   3051313   4137   0   2    7.82419e-06
   3051313   4237   0   2   -6.318525e-05
   3051212   4137   0   2   -1.6858041e-06
   3051212   4237   0   2    1.3655298e-05
   3051414   4137   0   2   -1.6858046e-06
   3051414   4237   0   2    1.3655298e-05
   3051616   4137   0   2   -1.6825607e-06
   3051616   4237   0   2    1.3655295e-05

DECAY 23  2.4952


DECAY 24  2.085


DECAY 2000011  4.1385422
    1   2    1000022    11

DECAY 1000011  2.4393554
    0.9996356   2    1000022    11
    0.00029268846   2    1000023    11

DECAY 2000013  4.1378867
    1   2    1000022    13

DECAY 1000013  2.4512713
    0.99476994   2    1000022    13
    0.0036257695   2    2000013    25
    0.0009148524   2    1000023    13
    0.00061871138   2    1000025    13

DECAY 1000015  13.188967
    0.784167   2    1000022    15
    0.1081497   2   -1000024    16
    0.054066231   2    1000023    15
    0.05361707   2    1000025    15

DECAY 2000015  13.915727
    0.29250883   2    1000023    15
    0.29195416   2    1000025    15
    0.28545748   2    1000022    15
    0.066577973   2    1000015    25
    0.06347467   2    1000015    23

DECAY 1000012  2.4371021
    0.99927323   2    1000022    12
    0.00056346714   2    1000024    11
    0.00013227738   2    1000025    12

DECAY 1000014  2.4400764
    0.99803118   2    1000022    14
    0.0018057659   2    1000024    13
    0.00013208388   2    1000025    14

DECAY 1000016  13.852722
    0.58694486   2    1000024    15
    0.28584518   2    1000022    16
    0.12693621   2    1000015    24
    0.00022205104   2    1000025    16

DECAY 1000001  0.34862287
    0.99316272   2    1000022    1
    0.0028195137   2    1000023    1
    0.0022380386   2   -1000024    2
    0.0017797308   2    1000025    1

DECAY 2000001  11.886656
    0.84085103   2    1000021    1
    0.1590727   2    1000022    1

DECAY 1000003  0.35272996
    0.98162086   2    1000022    3
    0.0081856088   2    1000023    3
    0.007142203   2    1000025    3
    0.0030513268   2   -1000024    4

DECAY 2000003  11.905664
    0.83946752   2    1000021    3
    0.15881929   2    1000022    3
    0.00078791026   2   -1000024    4
    0.00043131143   2    1000025    3
    0.00042710864   2    1000023    3

DECAY 1000005  164.95859
    0.4076941   2    1000021    5
    0.36264556   2   -1000024    6
    0.11304747   2    1000023    5
    0.11279114   2    1000025    5
    0.00382174   2    1000022    5

DECAY 2000005  259.3158
    0.59366967   2    1000021    5
    0.1937162   2   -1000024    6
    0.096989889   2    1000023    5
    0.09696613   2    1000025    5
    0.010815665   2    1000022    5
    0.0032009317   2    1000005    25
    0.002957199   2    1000006   -24
    0.0015255951   2    1000005    23
    0.00014339624   2    2000006   -24

DECAY 1000002  0.35462685
    0.97660208   2    1000022    2
    0.017600339   2    1000024    1
    0.0054451254   2    1000023    2
    0.00035245258   2    1000025    2

DECAY 2000002  6.6211823
    0.99962704   2    1000022    2
    0.00019921472   2    1000025    2
    0.00017374363   2    1000023    2

DECAY 1000004  0.35873118
    0.96542578   2    1000022    4
    0.02801226   2    1000024    3
    0.0057999148   2    1000023    4
    0.00076204763   2    1000025    4

DECAY 2000004  6.6222347
    0.99946754   2    1000022    4
    0.00023918082   2    1000025    4
    0.00021347552   2    1000023    4

DECAY 1000006  167.34526
    0.41482605   2    1000021    6
    0.23003298   2    1000024    5
    0.17272411   2    1000023    6
    0.17192657   2    1000025    6
    0.0084713833   2    1000022    6
    0.0018798686   3    1000022    24    5

DECAY 2000006  225.26816
    0.35361982   2    1000021    6
    0.28203448   2    1000024    5
    0.1483254   2    1000025    6
    0.14749721   2    1000023    6
    0.038697614   2    1000022    6
    0.013116719   2    1000005    24
    0.0088413134   2    1000006    25
    0.0078627637   2    1000006    23

DECAY 1000024  1.1288793
    0.96296883   2    1000022    24
    0.030041103   3    1000022   -5    6
    0.0065573635   2   -2000013    14
    0.00043162961   3    1000022   -15    16

DECAY 1000037  190.56621
    0.13030639   2    1000004   -3
    0.13030579   2    1000002   -1
    0.13027063   2   -1000003    4
    0.13027006   2   -1000001    2
    0.062276243   2    1000014   -13
    0.062274675   2    1000012   -11
    0.062256026   2   -1000013    14
    0.062254965   2   -1000011    12
    0.046924699   2    1000024    25
    0.042537487   2    1000024    23
    0.042463511   2    1000025    24
    0.041986618   2    1000023    24
    0.020538309   2    1000016   -15
    0.020451591   2   -2000015    16
    0.0057304014   3    1000024    6   -6
    0.0035446996   3    1000023   -5    6
    0.0033617268   3    1000025   -5    6
    0.0018107555   2    1000006   -5
    0.00020991597   3    1000021   -5    6
    0.00010805726   3    1000024    5   -5

DECAY 1000022 -1


DECAY 1000023  1.1084555
    0.52456433   2    1000022    23
    0.44530254   2    1000022    25
    0.020139021   3    1000022    6   -6
    0.0040442676   2    2000013   -13
    0.0040442676   2   -2000013    13
    0.00070560325   2    2000011   -11
    0.00070560325   2   -2000011    11
    0.00043489606   3    1000022    15   -15

DECAY 1000025  1.0765444
    0.4988378   2    1000022    25
    0.4710334   2    1000022    23
    0.019398744   3    1000022    6   -6
    0.0042792428   2    2000013   -13
    0.0042792428   2   -2000013    13
    0.00083622601   2    2000011   -11
    0.00083622601   2   -2000011    11
    0.00044954041   3    1000022    15   -15

DECAY 1000035  196.85254
    0.063089225   2    1000004   -4
    0.063089225   2   -1000004    4
    0.063088926   2    1000002   -2
    0.063088926   2   -1000002    2
    0.06303406   2    1000003   -3
    0.06303406   2   -1000003    3
    0.063033756   2    1000001   -1
    0.063033756   2   -1000001    1
    0.041612468   2    1000024   -24
    0.041612468   2   -1000024    24
    0.040414434   2    1000025    25
    0.037192128   2    1000023    25
    0.033275803   2    1000025    23
    0.030161313   2    1000014   -14
    0.030161313   2   -1000014    14
    0.030160561   2    1000012   -12
    0.030160561   2   -1000012    12
    0.030115013   2    1000013   -13
    0.030115013   2   -1000013    13
    0.030114496   2    1000011   -11
    0.030114496   2   -1000011    11
    0.0099456716   2    1000016   -16
    0.0099456716   2   -1000016    16
    0.0098927806   2    2000015   -15
    0.0098927806   2   -2000015    15
    0.0076284311   2    1000023    23
    0.0031454086   3    1000024    5   -6
    0.0031454086   3   -1000024   -5    6
    0.0023843761   3    1000025    6   -6
    0.0022296104   3    1000023    6   -6
    0.00073230862   2    1000005   -5
    0.00073230862   2   -1000005    5
    0.00020271274   2    1000006   -6
    0.00020271274   2   -1000006    6

DECAY 1000021  40.884296
    0.12371892   2    1000004   -4
    0.12371892   2   -1000004    4
    0.12371699   2    1000002   -2
    0.12371699   2   -1000002    2
    0.12322291   2    1000003   -3
    0.12322291   2   -1000003    3
    0.12322059   2    1000001   -1
    0.12322059   2   -1000001    1
    0.0028304008   2    2000002   -2
    0.0028304008   2   -2000002    2
    0.0028300789   2    2000004   -4
    0.0028300789   2   -2000004    4
    0.00018027172   3    1000024    5   -6
    0.00018027172   3   -1000024   -5    6
    0.00011781284   3    1000023    6   -6
    0.0001177391   3    1000025    6   -6

DECAY 25  0.003553955
    0.61258387   2   -5    5
    0.18680169   2   -24    24
    0.074368659   2    21    21
    0.070224383   2   -15    15
    0.030361992   2   -4    4
    0.021426885   2    23    23
    0.002337772   2    22    22
    0.0012758663   2    22    23
    0.00024352879   2   -13    13
    0.00023002474   2   -3    3
    0.00014452927   2    1000022    1000022
    6.3599495e-07   2   -1    1
    1.564714e-07   2   -2    2
    5.4748315e-09   2   -11    11

DECAY 35  96.199173
    0.78844477   2   -5    5
    0.17291172   2   -15    15
    0.019508023   2    1000022    1000023
    0.017690451   2    1000022    1000025
    0.00056127765   2   -13    13
    0.00041862118   2   -6    6
    0.00022285315   2   -3    3
    8.8783049e-05   2   -1000024    1000024
    7.4309972e-05   2    1000022    1000022
    4.1043558e-05   2   -1000015    1000015
    1.9147016e-05   2    1000025    1000025
    6.4636992e-06   2    1000023    1000025
    6.0251379e-06   2    21    21
    5.4580136e-06   2    1000023    1000023
    6.1607065e-07   2   -1    1
    1.9730501e-07   2    25    25
    4.20173e-08   2    23    23
    1.6870224e-08   2   -1000011    1000011
    1.643868e-08   2   -2000013    1000013
    1.643868e-08   2   -1000013    2000013
    1.6425692e-08   2   -1000013    1000013
    1.2604532e-08   2   -11    11
    1.1876358e-08   2   -2000011    2000011
    1.1857156e-08   2   -2000013    2000013
    8.4346253e-09   2   -24    24
    3.0886141e-09   2   -4    4
    2.1663845e-09   2    22    22
    2.0518846e-09   2    22    23
    3.8451397e-13   2   -2000011    1000011
    3.8451397e-13   2   -1000011    2000011
    1.5907497e-14   2   -2    2

DECAY 36  89.517657
    0.78609385   2   -5    5
    0.17240234   2   -15    15
    0.020848587   2    1000022    1000025
    0.01913507   2    1000022    1000023
    0.00055962023   2   -13    13
    0.00035678567   2   -6    6
    0.00022218207   2   -3    3
    0.0002208882   2   -1000024    1000024
    8.0109282e-05   2    1000022    1000022
    5.3393397e-05   2    1000025    1000025
    1.2871642e-05   2    1000023    1000023
    1.1230862e-05   2    21    21
    2.2608614e-06   2    1000023    1000025
    6.142142e-07   2   -1    1
    1.0008634e-07   2    23    25
    2.0783666e-08   2    22    22
    2.0086526e-08   2    22    23
    1.7653724e-08   2   -2000013    1000013
    1.7653724e-08   2   -1000013    2000013
    1.256729e-08   2   -11    11
    2.4580922e-09   2   -4    4
    4.1292211e-13   2   -2000011    1000011
    4.1292211e-13   2   -1000011    2000011
    1.2659937e-14   2   -2    2
    2.1302578e-36   2    25    25

DECAY 37  109.82119
    0.78493721   2   -5    6
    0.18031261   2   -15    16
    0.032706818   2    1000022    1000024
    0.0011638582   2   -5    4
    0.00063746922   2   -13    14
    0.0001887674   2   -3    4
    2.7719874e-05   2    1000023    1000024
    8.8736978e-06   2   -3    2
    8.3111471e-06   2   -5    2
    6.4132558e-06   2    1000024    1000025
    1.1555342e-06   2   -3    6
    5.2364321e-07   2   -1    2
    8.1609775e-08   2    24    25
    4.0987134e-08   2   -2000011    1000012
    4.0962996e-08   2   -2000013    1000014
    4.0090554e-08   2   -1    6
    2.8544881e-08   2   -1000013    1000014
    2.4909838e-08   2   -1    4
    1.4910471e-08   2   -11    12
    6.6765896e-13   2   -1000011    1000012

DECAY 6  2.43
    1   2    5    24

DECAY 15 -1
