BLOCK SPINFO
   1   SPheno
   2   v4.0.5be

BLOCK SPHENOINFO
   1   2
   2   2

BLOCK MODSEL
   1   0

BLOCK MINPAR
   3    21.238349
   4    1

BLOCK EXTPAR
   0    2254.2892
   1   -4045.6228
   2   -4555.7479
   3    3653.6431
   11    6856.9185
   12   -4009.4417
   13   -64.290327
   23    654.22005
   25    20.327543
   26    2989.355
   31    1957.641
   32    1957.641
   33    4096.3284
   34    3841.4926
   35    3841.4926
   36    4121.7824
   41    2903.5989
   42    2903.5989
   43    2570.8193
   44    970.6313
   45    970.6313
   46    2119.8859
   47    3434.7085
   48    3434.7085
   49    1104.9226

BLOCK SMINPUTS
   1    127.90897
   2    1.1663787e-05
   3    0.1184
   4    91.1876
   5    4.18
   6    173.2
   7    1.777
   8    0
   11    0.00051099893
   12    0
   13    0.10565837
   14    0
   21    0.005
   22    0.0025
   23    0.095
   24    1.27

BLOCK GAUGE Q=  2254.2892
   1    0.35536298
   2    0.66519887
   3    1.219778

BLOCK YU Q=  2254.2892
   1   1    8.3945114e-06
   2   2    0.0042644118
   3   3    1.0141244

BLOCK YD Q=  2254.2892
   1   1    0.00034289453
   2   2    0.0065149962
   3   3    0.34004393

BLOCK YE Q=  2254.2892
   1   1    5.9837604e-05
   2   2    0.012372519
   3   3    0.20808541

BLOCK AU Q=  2254.2892
   1   1    0
   2   2    0
   3   3    6856.9189

BLOCK AD Q=  2254.2892
   1   1    0
   2   2    0
   3   3   -4009.4414

BLOCK AE Q=  2254.2892
   1   1    0
   2   2    0
   3   3   -64.290327

BLOCK MSOFT Q=  2254.2892
   1   -4045.6228
   2   -4555.7479
   3    3653.6431
   21    8475313.7
   22   -205027.37
   31    1957.641
   32    1957.641
   33    4096.3284
   34    3841.4926
   35    3841.4926
   36    4121.7824
   41    2903.5989
   42    2903.5989
   43    2570.8193
   44    970.6313
   45    970.6313
   46    2119.8859
   47    3434.7085
   48    3434.7085
   49    1104.9226

BLOCK MASS
   6    173.2
   23    91.1876
   24    80.429995
   15    1.777
   25    123.2868
   35    2989.3083
   36    2989.355
   37    2990.5499
   1000001    3002.9349
   2000001    3517.681
   1000002    3001.9053
   2000002    1043.7103
   1000003    3002.934
   2000003    3517.6799
   1000004    3001.9046
   2000004    1043.7099
   1000005    1181.1877
   2000005    2535.0247
   1000006    1949.6616
   2000006    2606.5137
   1000011    1959.3125
   2000011    3849.5007
   1000012    1957.4307
   1000013    1959.3092
   2000013    3849.4945
   1000014    1957.4261
   1000015    4108.141
   2000015    4128.572
   1000016    4107.3925
   1000021    3665.4746
   1000022   -664.25779
   1000023    666.76741
   1000025   -4015.5638
   1000035   -4492.5574
   1000024    665.43973
   1000037    4492.6083

BLOCK ALPHA
      -0.047129291

BLOCK HMIX Q=  2254.2892
   1    654.22005
   2    20.327543
   3    243.51232
   4    8936243.3

BLOCK STOPMIX
   1   1   -0.34661463
   1   2    0.93800762
   2   1   -0.93800762
   2   2   -0.34661463

BLOCK SBOTMIX
   1   1    0.0064195527
   1   2    0.99997939
   2   1   -0.99997939
   2   2    0.0064195527

BLOCK STAUMIX
   1   1    0.99015855
   1   2    0.13995018
   2   1   -0.13995018
   2   2    0.99015855

BLOCK NMIX
   1   1   -0.0091841545
   1   2    0.013841232
   1   3   -0.70776149
   1   4   -0.70625614
   2   1    0.0071826408
   2   2   -0.01134073
   2   3   -0.70644777
   2   4    0.70763787
   3   1    0.99993087
   3   2    0.0017277587
   3   3   -0.0014234131
   3   4   -0.011542793
   4   1    0.0015193084
   4   2   -0.9998384
   4   3   -0.0017874061
   4   4   -0.017823409

BLOCK UMIX
   1   1   -0.0025266573
   1   2    0.99999681
   2   1   -0.99999681
   2   2   -0.0025266573

BLOCK VMIX
   1   1    0.025190679
   1   2    0.99968267
   2   1    0.99968267
   2   2   -0.025190679

BLOCK HIGGSBOUNDSINPUTHIGGSCOUPLINGSFERMIONS
       0, 413.20901,3,36,15,15

BLOCK HIGGSBOUNDSINPUTHIGGSCOUPLINGSBOSONS
       0,4,36,21,21,23

BLOCK SPHENOLOWENERGY
   1    0.00034042231
   2    1.5899394e-06
   3    3.5284574e-05
   4    2.7504306e-15
   5    1.1749539e-10
   6    2.4602517e-08
   7    9.2242202e-14
   8    3.9405879e-09
   9    8.3604431e-07
   10    9.6453892e-05
   11    0.99633178
   12    0.54255128
   13    19.384245
   14    0
   15    0
   16    0.0021601725
   17    2.281688e-15
   18    2.4818767e-11
   19    8.2953424e-11
   20   -7.6656345e-16
   21   -3.2773041e-11
   22   -5.6560246e-09
   23    0
   24    0
   25    0
   26    0
   27    0
   28    0
   29    0
   30    0
   31    0
   39    4.7620551e-05
   40    0
   41    0
   42    0

BLOCK FWCOEF Q=  160
   305   4422   0   0   -0.18881911
   305   4422   0   2   -0.21138629
   305   4322   0   2   -0.00042220975
   305   6421   0   0   -0.095227835
   305   6421   0   2   -0.1125296
   305   6321   0   2   -0.00032418938
   3051111   4133   0   0    1.6062842
   3051111   4133   0   2    1.6072593
   3051111   4233   0   2    9.9447679e-05
   3051111   4137   0   0   -4.4289763
   3051111   4137   0   2   -4.4304825
   3051111   4237   0   2   -0.00075740349
   3051313   4133   0   0    1.6062842
   3051313   4133   0   2    1.6072589
   3051313   4233   0   2    9.9447625e-05
   3051313   4137   0   0   -4.4289763
   3051313   4137   0   2   -4.4304829
   3051313   4237   0   2   -0.0007574036
   3051212   4137   0   0    1.5053501
   3051212   4137   0   2    1.5056773
   3051212   4237   0   2    0.00016453432
   3051414   4137   0   0    1.5053501
   3051414   4137   0   2    1.5056773
   3051414   4237   0   2    0.00016453433
   3051616   4137   0   0    1.5053501
   3051616   4137   0   2    1.5056777
   3051616   4237   0   2    0.00016453567

BLOCK IMFWCOEF Q=  160
   305   4422   0   0    3.8577048e-07
   305   4422   0   2    7.1644199e-08
   305   4322   0   2   -5.3156442e-06
   305   6421   0   0    3.3043792e-07
   305   6421   0   2   -1.209458e-05
   305   6321   0   2   -2.8533505e-06
   3051111   4133   0   2    9.4450182e-07
   3051111   4233   0   2    1.9733106e-06
   3051111   4137   0   2   -5.5266674e-06
   3051111   4237   0   2   -1.5031461e-05
   3051313   4133   0   2    9.4449681e-07
   3051313   4233   0   2    1.9733101e-06
   3051313   4137   0   2   -5.5266723e-06
   3051313   4237   0   2   -1.5031463e-05
   3051212   4137   0   2    1.1985254e-06
   3051212   4237   0   2    3.2653536e-06
   3051414   4137   0   2    1.1985252e-06
   3051414   4237   0   2    3.2653536e-06
   3051616   4137   0   2    1.2066722e-06
   3051616   4237   0   2    3.2653519e-06

DECAY 23  2.4952


DECAY 24  2.085


DECAY 1000011  0.0010051947
    0.53656684   2    1000022    11
    0.37770481   2    1000023    11
    0.08572832   2   -1000024    12

DECAY 2000011  0.0024752079
    0.62052071   2    1000022    11
    0.37937385   2    1000023    11
    0.00010425999   2   -1000024    12

DECAY 1000013  0.0056745352
    0.50763151   2    1000022    13
    0.4771825   2    1000023    13
    0.015185988   2   -1000024    14

DECAY 2000013  0.02466555
    0.44730692   2   -1000024    14
    0.28638033   2    1000022    13
    0.26125025   2    1000023    13
    0.0050624955   2    1000013    25

DECAY 1000015  3.4475304
    0.49612328   2    1000022    15
    0.47937701   2    1000023    15
    0.02130448   2   -1000024    16
    0.0031952377   2    1000025    15

DECAY 2000015  6.7312278
    0.49030961   2   -1000024    16
    0.25363418   2    1000023    15
    0.24722365   2    1000022    15
    0.0088325291   2    1000025    15

DECAY 1000012  0.012475047
    0.68562975   2    1000024    11
    0.19005021   2    1000022    12
    0.12432004   2    1000023    12

DECAY 1000014  0.017138312
    0.77116942   2    1000024    13
    0.13833784   2    1000022    14
    0.090492744   2    1000023    14

DECAY 1000016  3.3966846
    0.99411365   2    1000024    15
    0.0029498659   2    1000025    16
    0.0017741315   2    1000022    16
    0.0011623534   2    1000023    16

DECAY 1000001  0.0049252178
    0.58208408   2    1000022    1
    0.38693302   2    1000023    1
    0.030982907   2   -1000024    2

DECAY 2000001  0.00026355419
    0.59904643   2    1000022    1
    0.37178602   2    1000023    1
    0.029025689   2   -1000024    2
    0.00014185366   2    1000001    25

DECAY 1000003  0.0081931328
    0.48974341   2    1000022    3
    0.37183154   2    1000023    3
    0.13842504   2   -1000024    4

DECAY 2000003  0.0057848503
    0.4773833   2   -1000024    4
    0.26582401   2    1000022    3
    0.25445964   2    1000023    3
    0.0023330581   2    1000003    25

DECAY 1000005  2.4049747
    0.47367869   2   -1000024    6
    0.26466884   2    1000022    5
    0.26165246   2    1000023    5

DECAY 2000005  138.04625
    0.63873127   2    1000006   -24
    0.32201944   2   -1000024    6
    0.018361901   2    1000022    5
    0.018285318   2    1000023    5
    0.0018142847   2    1000005    25
    0.00078777786   2    1000005    23

DECAY 2000002  0.00011171388
    0.62291632   2    1000022    2
    0.37707907   2    1000023    2

DECAY 1000002  0.018157287
    0.83536351   2    1000024    1
    0.09805601   2    1000022    2
    0.066580483   2    1000023    2

DECAY 2000004  0.00037823975
    0.36126993   2    1000022    4
    0.35142317   2    1000024    3
    0.2873069   2    1000023    4

DECAY 1000004  0.021425456
    0.81463153   2    1000024    3
    0.10598603   2    1000022    4
    0.079380105   2    1000023    4

DECAY 1000006  60.264051
    0.46706354   2    1000024    5
    0.26645946   2    1000023    6
    0.26633018   2    1000022    6
    0.00010322924   2    1000005    24

DECAY 2000006  153.13365
    0.34503139   2    1000006    23
    0.29818975   2    1000006    25
    0.1462878   2    1000023    6
    0.14567373   2    1000022    6
    0.063393582   2    1000024    5
    0.0014237607   2    1000005    24

DECAY 1000024  5.3836969e-12
    0.60463914   3    1000022   -1    2
    0.20156905   3    1000022   -11    12
    0.19379181   3    1000022   -13    14

DECAY 1000037  231.6958
    0.11784941   2   -2000005    6
    0.10191326   2    2000006   -5
    0.0783979   2    1000004   -3
    0.078397836   2    1000002   -1
    0.078360346   2   -1000003    4
    0.078360318   2   -1000001    2
    0.055982989   2    1000014   -13
    0.055982867   2    1000012   -11
    0.055967656   2   -1000013    14
    0.055967566   2   -1000011    12
    0.041396411   2    1000024    25
    0.039958445   2    1000023    24
    0.039893583   2    1000024    23
    0.039812406   2    1000022    24
    0.016260614   2    1000006   -5
    0.012911224   2    1000024    36
    0.01288468   2    1000024    35
    0.012873401   2    37    1000023
    0.011694298   2    37    1000022
    0.0046945826   3    1000024    6   -6
    0.0030066247   3    1000022   -5    6
    0.0028236023   3    1000023   -5    6
    0.0022978314   2    1000016   -15
    0.002245383   2   -1000015    16

DECAY 1000022 -1


DECAY 1000023  3.9461882e-09
    0.93803875   2    1000022    22
    0.017747518   3    1000022    12   -12
    0.013270655   3    1000022    1   -1
    0.013051788   3    1000022    3   -3
    0.010350396   3    1000022    2   -2
    0.0029949488   3    1000022    11   -11
    0.002917508   3    1000022    13   -13
    0.0004915378   3    1000024    1   -2
    0.0004915378   3   -1000024   -1    2
    0.00016386053   3    1000024    11   -12
    0.00016386053   3   -1000024   -11    12
    0.00015881871   3    1000024    13   -14
    0.00015881871   3   -1000024   -13    14

DECAY 1000025  96.353747
    0.12136022   2    2000004   -4
    0.12136022   2   -2000004    4
    0.12136018   2    2000002   -2
    0.12136018   2   -2000002    2
    0.073007536   2    1000006   -6
    0.073007536   2   -1000006    6
    0.029115909   2    1000005   -5
    0.029115909   2   -1000005    5
    0.028733293   2    1000024   -24
    0.028733293   2   -1000024    24
    0.018784453   2    1000023    25
    0.017701271   2    1000023    23
    0.015472846   2    1000022    25
    0.015291927   2    1000013   -13
    0.015291927   2   -1000013    13
    0.015291895   2    1000011   -11
    0.015291895   2   -1000011    11
    0.01511349   2    1000014   -14
    0.01511349   2   -1000014    14
    0.015113446   2    1000012   -12
    0.015113446   2   -1000012    12
    0.010743981   2    1000022    23
    0.0078653398   2    2000006   -6
    0.0078653398   2   -2000006    6
    0.0039112275   2    37   -1000024
    0.0039112275   2   -37    1000024
    0.0038750021   2    1000022    35
    0.0031945669   2    1000023    35
    0.0030957562   2    2000005   -5
    0.0030957562   2   -2000005    5
    0.0018942558   3    1000024    5   -6
    0.0018942558   3   -1000024   -5    6
    0.0018880141   2    2000003   -3
    0.0018880141   2   -2000003    3
    0.001888006   2    2000001   -1
    0.001888006   2   -2000001    1
    0.0017308395   2    1000002   -2
    0.0017308395   2   -1000002    2
    0.0017308384   2    1000004   -4
    0.0017308384   2   -1000004    4
    0.0016620554   2    1000003   -3
    0.0016620554   2   -1000003    3
    0.0016620531   2    1000001   -1
    0.0016620531   2   -1000001    1
    0.0014180796   3    1000023    6   -6
    0.0013317952   3    1000022    6   -6
    0.00068689247   2    2000013   -13
    0.00068689247   2   -2000013    13
    0.00068684251   2    2000011   -11
    0.00068684251   2   -2000011    11
    0.00067937356   2    1000023    36
    0.00056565393   2    1000022    36

DECAY 1000035  234.95828
    0.058658875   2    2000005   -5
    0.058658875   2   -2000005    5
    0.050640109   2    2000006   -6
    0.050640109   2   -2000006    6
    0.039319542   2    1000024   -24
    0.039319542   2   -1000024    24
    0.038643932   2    1000004   -4
    0.038643932   2   -1000004    4
    0.038643895   2    1000002   -2
    0.038643895   2   -1000002    2
    0.038642974   2    1000003   -3
    0.038642974   2   -1000003    3
    0.03864294   2    1000001   -1
    0.03864294   2   -1000001    1
    0.029708   2    1000023    25
    0.027655662   2    1000014   -14
    0.027655662   2   -1000014    14
    0.027655602   2    1000012   -12
    0.027655602   2   -1000012    12
    0.027541144   2    1000013   -13
    0.027541144   2   -1000013    13
    0.0275411   2    1000011   -11
    0.0275411   2   -1000011    11
    0.024473361   2    1000022    25
    0.02365124   2    1000023    23
    0.015758097   2    1000022    23
    0.011481199   2    37   -1000024
    0.011481199   2   -37    1000024
    0.010056003   2    1000022    35
    0.0083016064   2    1000023    35
    0.0080798866   2    1000006   -6
    0.0080798866   2   -1000006    6
    0.0032449227   2    1000023    36
    0.0032060313   3    1000024    5   -6
    0.0032060313   3   -1000024   -5    6
    0.0026862834   2    1000022    36
    0.0024970894   3    1000023    6   -6
    0.0023614698   3    1000022    6   -6
    0.0011348829   2    1000016   -16
    0.0011348829   2   -1000016    16
    0.0011046705   2    1000015   -15
    0.0011046705   2   -1000015    15

DECAY 1000021  433.80107
    0.10559887   2    2000004   -4
    0.10559887   2   -2000004    4
    0.10559886   2    2000002   -2
    0.10559886   2   -2000002    2
    0.10042807   2    1000005   -5
    0.10042807   2   -1000005    5
    0.069624527   2    1000006   -6
    0.069624527   2   -1000006    6
    0.034037589   2    2000005   -5
    0.034037589   2   -2000005    5
    0.02652661   2    2000006   -6
    0.02652661   2   -2000006    6
    0.013560123   2    1000004   -4
    0.013560123   2   -1000004    4
    0.013560115   2    1000002   -2
    0.013560115   2   -1000002    2
    0.013522275   2    1000003   -3
    0.013522275   2   -1000003    3
    0.013522244   2    1000001   -1
    0.013522244   2   -1000001    1
    0.0024437471   2    1000006   -4
    0.0024437471   2   -1000006    4
    0.00078077969   2    2000003   -3
    0.00078077969   2   -2000003    3
    0.00078076784   2    2000001   -1
    0.00078076784   2   -2000001    1

DECAY 25  0.0036555068
    0.59906659   2   -5    5
    0.20187279   2   -24    24
    0.072945316   2    21    21
    0.068703012   2   -15    15
    0.029620101   2   -4    4
    0.023611565   2    23    23
    0.0023577623   2    22    22
    0.00135901   2    22    23
    0.00023827619   2   -13    13
    0.00022479559   2   -3    3
    6.2153638e-07   2   -1    1
    1.5264484e-07   2   -2    2
    5.3567355e-09   2   -11    11

DECAY 35  14.324613
    0.79927293   2   -5    5
    0.18562224   2   -15    15
    0.012887505   2   -6    6
    0.00079835584   2   -1000024    1000024
    0.00063167454   2   -13    13
    0.0003515296   2   -3    3
    0.0002309558   2    1000022    1000022
    0.00012694247   2    1000023    1000023
    5.2532057e-05   2   -1000005    1000005
    7.19524e-06   2    25    25
    5.0976456e-06   2   -1000002    1000002
    5.0949814e-06   2   -1000004    1000004
    2.5096802e-06   2    21    21
    2.3602659e-06   2    23    23
    1.2049667e-06   2    1000022    1000023
    9.719871e-07   2   -1    1
    7.1601771e-07   2   -24    24
    1.6584431e-07   2   -4    4
    1.418702e-08   2   -11    11
    3.8217303e-09   2    22    22
    2.0783043e-09   2    22    23
    8.5498296e-13   2   -2    2

DECAY 36  13.900265
    0.79861539   2   -5    5
    0.1854651   2   -15    15
    0.013452505   2   -6    6
    0.00099922197   2   -1000024    1000024
    0.00063113896   2   -13    13
    0.00035122989   2   -3    3
    0.00024370823   2    1000022    1000022
    0.0001955944   2    1000023    1000023
    3.3191179e-05   2    21    21
    7.7476361e-06   2    1000022    1000023
    3.9445712e-06   2    23    25
    9.7116115e-07   2   -1    1
    1.6984499e-07   2   -4    4
    4.9379659e-08   2    22    22
    2.615133e-08   2    22    23
    1.417499e-08   2   -11    11
    8.7566121e-13   2   -2    2
    8.9652934e-38   2    25    25

DECAY 37  13.713761
    0.80093014   2   -5    6
    0.19671215   2   -15    16
    0.0011596852   2   -5    4
    0.0006954477   2   -13    14
    0.00033476891   2   -3    4
    7.5072744e-05   2    1000023    1000024
    3.4913534e-05   2    1000022    1000024
    2.7620504e-05   2   -3    6
    1.5667907e-05   2   -3    2
    8.2813467e-06   2   -5    2
    4.0055428e-06   2    24    25
    1.2440886e-06   2   -1    6
    9.2844911e-07   2   -1    2
    5.4729452e-08   2   -1    4
    1.6266594e-08   2   -11    12
    2.4770598e-11   2   -1000005    1000004
    2.9287844e-13   2    24    35
    2.4183144e-13   2    24    36
    9.2779562e-19   2   -1000005    1000002

DECAY 6  2.43
    1   2    5    24

DECAY 15 -1
