BLOCK SPINFO
   1   SPheno
   2   v4.0.5be

BLOCK SPHENOINFO
   1   2
   2   2

BLOCK MODSEL
   1   0

BLOCK MINPAR
   3    37.72777
   4    1

BLOCK EXTPAR
   0    1133.9423
   1    859.33028
   2    1573.7004
   3    3000
   11   -3530.2526
   12   -1934.9485
   13   -1723.5091
   23    522.45582
   25    36.949974
   26    1728.9574
   31    1393.3431
   32    1393.3431
   33    1242.1289
   34    585.7143
   35    585.7143
   36    1436.6964
   41    5000
   42    5000
   43    834.80903
   44    5000
   45    5000
   46    1950.4634
   47    5000
   48    5000
   49    1969.6624

BLOCK SMINPUTS
   1    127.90897
   2    1.1663787e-05
   3    0.1184
   4    91.1876
   5    4.18
   6    173.2
   7    1.777
   8    0
   11    0.00051099893
   12    0
   13    0.10565837
   14    0
   21    0.005
   22    0.0025
   23    0.095
   24    1.27

BLOCK GAUGE Q=  1133.9423
   1    0.35536298
   2    0.66519887
   3    1.219778

BLOCK YU Q=  1133.9423
   1   1    8.3874421e-06
   2   2    0.0042608206
   3   3    1.0132704

BLOCK YD Q=  1133.9423
   1   1    0.0006227646
   2   2    0.011832527
   3   3    0.61758733

BLOCK YE Q=  1133.9423
   1   1    0.00010867698
   2   2    0.022470952
   3   3    0.37792444

BLOCK AU Q=  1133.9423
   1   1    0
   2   2    0
   3   3   -3530.2524

BLOCK AD Q=  1133.9423
   1   1    0
   2   2    0
   3   3   -1934.9488

BLOCK AE Q=  1133.9423
   1   1    0
   2   2    0
   3   3   -1723.5091

BLOCK MSOFT Q=  1133.9423
   1    859.33028
   2    1573.7004
   3    3000
   21    2720472.9
   22   -307262.21
   31    1393.3431
   32    1393.3431
   33    1242.1289
   34    585.7143
   35    585.7143
   36    1436.6964
   41    5000
   42    5000
   43    834.80903
   44    5000
   45    5000
   46    1950.4634
   47    5000
   48    5000
   49    1969.6624

BLOCK MASS
   6    173.2
   23    91.1876
   24    80.429995
   15    1.777
   25    122.93795
   35    1728.7268
   36    1728.9574
   37    1731.7743
   1000001    5012.3541
   2000001    5005.1658
   1000002    5011.925
   2000002    5006.2943
   1000003    5012.3598
   2000003    5005.1733
   1000004    5011.9298
   2000004    5006.2955
   1000005    724.28815
   2000005    1960.9655
   1000006    674.31837
   2000006    1906.8515
   1000011    1404.3674
   2000011    594.07285
   1000012    1401.7839
   1000013    1404.3616
   2000013    594.05692
   1000014    1401.7763
   1000015    1250.9105
   2000015    1437.0072
   1000016    1249.2365
   1000021    3171.835
   1000022    522.90414
   1000023   -532.60514
   1000025    862.1539
   1000035    1610.4279
   1000024    528.15419
   1000037    1610.6175

BLOCK ALPHA
      -0.026747222

BLOCK HMIX Q=  1133.9423
   1    522.45582
   2    36.949974
   3    244.24142
   4    2989293.7

BLOCK STOPMIX
   1   1    0.98642492
   1   2    0.16421291
   2   1   -0.16421291
   2   2    0.98642492

BLOCK SBOTMIX
   1   1    0.99989364
   1   2    0.014584496
   2   1   -0.014584496
   2   2    0.99989364

BLOCK STAUMIX
   1   1    0.99717923
   1   2    0.075057204
   2   1   -0.075057204
   2   2    0.99717923

BLOCK NMIX
   1   1    0.094196187
   1   2   -0.053682883
   1   3    0.7071287
   1   4   -0.69872329
   2   1    0.021662854
   2   2   -0.026164115
   2   3   -0.7049218
   2   4   -0.70847118
   3   1    0.99531214
   3   2    0.0090579227
   3   3   -0.051511656
   3   4    0.081352637
   4   1   -0.0033981529
   4   2    0.9981741
   4   3    0.020020195
   4   4   -0.056886757

BLOCK UMIX
   1   1   -0.02832035
   1   2    0.9995989
   2   1    0.9995989
   2   2    0.02832035

BLOCK VMIX
   1   1   -0.080455864
   1   2    0.99675817
   2   1    0.99675817
   2   2    0.080455864

BLOCK HIGGSBOUNDSINPUTHIGGSCOUPLINGSFERMIONS
       0, 1365.3005,3,36,15,15

BLOCK HIGGSBOUNDSINPUTHIGGSCOUPLINGSBOSONS
       0,4,36,21,21,23

BLOCK SPHENOLOWENERGY
   1    0.00027048299
   2    1.6044218e-06
   3    3.5313386e-05
   4    3.2934529e-15
   5    1.4068621e-10
   6    2.9080386e-08
   7    1.1070983e-13
   8    4.7293141e-09
   9    9.9095874e-07
   10    9.4969356e-05
   11    0.98099709
   12    0.54216128
   13    19.359856
   14    0
   15    0
   16    0.0021579707
   17    2.2816676e-15
   18    2.4827239e-11
   19    8.2972809e-11
   20    5.2410999e-15
   21    2.2406603e-10
   22    7.1600192e-08
   23    0
   24    0
   25    0
   26    0
   27    0
   28    0
   29    0
   30    0
   31    0
   39    8.2757834e-05
   40    0
   41    0
   42    0

BLOCK FWCOEF Q=  160
   305   4422   0   0   -0.18881911
   305   4422   0   2   -0.12346886
   305   4322   0   2    9.9850654e-05
   305   6421   0   0   -0.095227835
   305   6421   0   2   -0.07278773
   305   6321   0   2   -0.0002128666
   3051111   4133   0   0    1.5822046
   3051111   4133   0   2    1.5842378
   3051111   4233   0   2    0.0001882454
   3051111   4137   0   0   -4.4048967
   3051111   4137   0   2   -4.4092089
   3051111   4237   0   2   -0.0014863661
   3051313   4133   0   0    1.5822046
   3051313   4133   0   2    1.5842355
   3051313   4233   0   2    0.00018824263
   3051313   4137   0   0   -4.4048967
   3051313   4137   0   2   -4.4092112
   3051313   4237   0   2   -0.0014863674
   3051212   4137   0   0    1.5053501
   3051212   4137   0   2    1.5062985
   3051212   4237   0   2    0.00032465324
   3051414   4137   0   0    1.5053501
   3051414   4137   0   2    1.5062985
   3051414   4237   0   2    0.00032465359
   3051616   4137   0   0    1.5053501
   3051616   4137   0   2    1.5062983
   3051616   4237   0   2    0.00032475175

BLOCK IMFWCOEF Q=  160
   305   4422   0   0    3.8589123e-07
   305   4422   0   2    2.9396139e-05
   305   4322   0   2    6.9754786e-06
   305   6421   0   0    3.3054136e-07
   305   6421   0   2    1.8258359e-06
   305   6321   0   2    2.6304044e-06
   3051111   4133   0   2   -8.717733e-08
   3051111   4233   0   2    4.760622e-06
   3051111   4137   0   2    2.0541029e-06
   3051111   4237   0   2   -3.7616943e-05
   3051313   4133   0   2   -8.7208167e-08
   3051313   4233   0   2    4.7606015e-06
   3051313   4137   0   2    2.0540746e-06
   3051313   4237   0   2   -3.7616995e-05
   3051212   4137   0   2   -3.466951e-07
   3051212   4237   0   2    8.2163292e-06
   3051414   4137   0   2   -3.466955e-07
   3051414   4237   0   2    8.2163292e-06
   3051616   4137   0   2   -3.5011607e-07
   3051616   4237   0   2    8.2163296e-06

DECAY 23  2.4952


DECAY 24  2.085


DECAY 2000011  0.0013983528
    0.96095503   2    1000022    11
    0.039040586   2    1000023    11

DECAY 1000011  0.71019061
    0.98827605   2    1000025    11
    0.010291568   2   -1000024    12
    0.0013592186   2    1000023    11

DECAY 2000013  0.0019255103
    0.77553497   2    1000022    13
    0.13600364   2   -1000024    14
    0.088461388   2    1000023    13

DECAY 1000013  0.72135943
    0.9729796   2    1000025    13
    0.010132154   2   -1000024    14
    0.0084655447   2    1000023    13
    0.0073272395   2    1000022    13
    0.0010954626   2    2000013    25

DECAY 1000015  2.9032206
    0.4283441   2    1000022    15
    0.40419547   2    1000023    15
    0.1545981   2    1000025    15
    0.01286233   2   -1000024    16

DECAY 2000015  9.2460024
    0.32578013   2   -1000024    16
    0.31697903   2    1000025    15
    0.16681073   2    1000022    15
    0.16531312   2    1000023    15
    0.01321021   2    1000016   -24
    0.006157879   2    1000015    25
    0.0057488995   2    1000015    23

DECAY 1000012  0.7662081
    0.85029607   2    1000025    12
    0.076754162   2    1000024    11
    0.064550039   2    1000022    12
    0.0083997317   2    1000023    12

DECAY 1000014  0.77655056
    0.83895593   2    1000025    14
    0.089066516   2    1000024    13
    0.063689767   2    1000022    14
    0.0082877856   2    1000023    14

DECAY 1000016  2.8968422
    0.8420136   2    1000024    15
    0.14220814   2    1000025    16
    0.013967386   2    1000022    16
    0.0018108751   2    1000023    16

DECAY 2000001  144.10541
    0.98173549   2    1000021    1
    0.018086593   2    1000025    1
    0.00016845052   2    1000022    1

DECAY 1000001  196.12407
    0.72516408   2    1000021    1
    0.18077389   2   -1000037    2
    0.090243665   2    1000035    1
    0.002996272   2    1000025    1
    0.00054642513   2    1000022    1
    0.00017645886   2   -1000024    2

DECAY 2000003  144.13338
    0.98155039   2    1000021    3
    0.018083357   2    1000025    3
    0.0002156009   2    1000022    3

DECAY 1000003  196.14014
    0.72510771   2    1000021    3
    0.18075943   2   -1000037    4
    0.09023645   2    1000035    3
    0.0029962086   2    1000025    3
    0.00058110387   2    1000022    3
    0.00018540735   2   -1000024    4
    0.000133685   2    1000023    3

DECAY 1000005  2.4616656
    0.50784561   2   -1000024    6
    0.2573006   2    1000022    5
    0.23485379   2    1000023    5

DECAY 2000005  27.702839
    0.45417404   2   -1000024    6
    0.23127103   2    1000022    5
    0.22933066   2    1000023    5
    0.026633372   2    1000025    5
    0.026088356   2    1000006   -24
    0.01979218   2    1000005    25
    0.012557851   2    1000005    23

DECAY 2000002  152.12135
    0.93077619   2    1000021    2
    0.068551467   2    1000025    2
    0.00063795017   2    1000022    2

DECAY 1000002  196.12024
    0.72495034   2    1000021    2
    0.17972892   2    1000037    1
    0.090015602   2    1000035    2
    0.0036762511   2    1000025    2
    0.0014242621   2    1000024    1
    0.00014991467   2    1000022    2

DECAY 2000004  152.12495
    0.93075459   2    1000021    4
    0.068549941   2    1000025    4
    0.00064360491   2    1000022    4

DECAY 1000004  196.13613
    0.72489383   2    1000021    4
    0.17971466   2    1000037    3
    0.090008459   2    1000035    4
    0.0036760111   2    1000025    4
    0.0014934973   2    1000024    3
    0.00015430785   2    1000022    4

DECAY 1000006  0.82607526
    0.99842107   2    1000024    5
    0.0011977887   3    1000022    24    5
    0.00028727567   2    1000022    4

DECAY 2000006  239.5707
    0.32989862   2    1000005    24
    0.21800898   2    1000006    25
    0.17129786   2    1000006    23
    0.13304962   2    1000024    5
    0.06865059   2    1000023    6
    0.0660732   2    1000022    6
    0.01235404   2    1000025    6
    0.00046621381   2    1000037    5
    0.00020087222   2    1000035    6

DECAY 1000024  4.8363531e-09
    0.38265231   3    1000022   -1    2
    0.28859892   3    1000022   -3    4
    0.12755469   3    1000022   -11    12
    0.12730972   3    1000022   -13    14
    0.073884355   3    1000022   -15    16

DECAY 1000037  44.978963
    0.29841852   2    1000006   -5
    0.28310539   2   -1000005    6
    0.0818098   2    1000023    24
    0.080830345   2    1000024    23
    0.078868334   2    1000022    24
    0.078499604   2    1000024    25
    0.024856852   2    1000016   -15
    0.024595482   2   -1000015    16
    0.0092098356   2    1000014   -13
    0.0092092187   2    1000012   -11
    0.0090500185   2   -1000013    14
    0.0090495435   2   -1000011    12
    0.0040274434   3    1000022   -5    6
    0.0037011253   3    1000023   -5    6
    0.0026923578   3    1000024    6   -6
    0.0018963271   2    1000025    24

DECAY 1000022 -1


DECAY 1000023  3.69173e-07
    0.46130202   2    1000022    22
    0.13014937   3    1000022    12   -12
    0.097320072   3    1000022    1   -1
    0.097202429   3    1000022    3   -3
    0.075900983   3    1000022    2   -2
    0.059164718   3    1000022    4   -4
    0.021954598   3    1000022    11   -11
    0.021917639   3    1000022    13   -13
    0.012823233   3    1000022    15   -15
    0.0041821522   3    1000024    1   -2
    0.0041821522   3   -1000024   -1    2
    0.0026123563   3    1000024    3   -4
    0.0026123563   3   -1000024   -3    4
    0.0020022969   3    1000022    5   -5
    0.0013940715   3    1000024    11   -12
    0.0013940715   3   -1000024   -11    12
    0.0013895134   3    1000024    13   -14
    0.0013895134   3   -1000024   -13    14
    0.000553227   3    1000024    15   -16
    0.000553227   3   -1000024   -15    16

DECAY 1000025  4.651312
    0.12726147   2    2000013   -13
    0.12726147   2   -2000013    13
    0.12724873   2    2000011   -11
    0.12724873   2   -2000011    11
    0.10797175   2    1000023    23
    0.099881651   2    1000024   -24
    0.099881651   2   -1000024    24
    0.082267177   2    1000022    25
    0.0772765   2    1000023    25
    0.0055491375   2    1000006   -6
    0.0055491375   2   -1000006    6
    0.0054060579   2    1000022    23
    0.0033004081   2    1000005   -5
    0.0033004081   2   -1000005    5
    0.00029339474   3    1000024    5   -6
    0.00029339474   3   -1000024   -5    6

DECAY 1000035  47.004223
    0.14350578   2    1000005   -5
    0.14350578   2   -1000005    5
    0.13511094   2    1000006   -6
    0.13511094   2   -1000006    6
    0.077758817   2    1000024   -24
    0.077758817   2   -1000024    24
    0.063769131   2    1000023    23
    0.059224763   2    1000022    25
    0.055505061   2    1000023    25
    0.014282086   2    1000022    23
    0.011959368   2    1000016   -16
    0.011959368   2   -1000016    16
    0.011682645   2    1000015   -15
    0.011682645   2   -1000015    15
    0.0044280777   2    1000014   -14
    0.0044280777   2   -1000014    14
    0.0044277799   2    1000012   -12
    0.0044277799   2   -1000012    12
    0.004295082   2    1000013   -13
    0.004295082   2   -1000013    13
    0.0042948574   2    1000011   -11
    0.0042948574   2   -1000011    11
    0.0032198744   3    1000022    6   -6
    0.0028532679   3    1000023    6   -6
    0.0021759736   3    1000024    5   -6
    0.0021759736   3   -1000024   -5    6
    0.0015828241   2    1000025    25
    0.00014480173   2    1000025    23

DECAY 1000021  275.93739
    0.152831   2    1000005   -5
    0.152831   2   -1000005    5
    0.14931694   2    1000006   -6
    0.14931694   2   -1000006    6
    0.07280586   2    2000006   -6
    0.07280586   2   -2000006    6
    0.064934481   2    2000005   -5
    0.064934481   2   -2000005    5
    0.057276311   2    1000006   -4
    0.057276311   2   -1000006    4
    0.0027978544   3    1000022    6   -6
    0.0025149797   3    1000023    6   -6

DECAY 25  0.0036365912
    0.60715029   2   -5    5
    0.19533676   2   -24    24
    0.070705033   2    21    21
    0.070194865   2   -15    15
    0.029764524   2   -4    4
    0.022686169   2    23    23
    0.0023592926   2    22    22
    0.0013292463   2    22    23
    0.00024351728   2   -13    13
    0.00022950055   2   -3    3
    6.345445e-07   2   -1    1
    1.533901e-07   2   -2    2
    5.4745678e-09   2   -11    11

DECAY 35  39.367806
    0.83138687   2   -5    5
    0.13968184   2   -15    15
    0.014699814   2    1000023    1000025
    0.0048883344   2    1000022    1000025
    0.0045864692   2   -1000006    1000006
    0.0013624101   2   -6    6
    0.0011902636   2   -1000024    1000024
    0.00092791445   2    1000022    1000022
    0.00048489408   2   -13    13
    0.00033567674   2    1000022    1000023
    0.00027099094   2   -3    3
    0.00013575208   2    1000023    1000023
    2.6994403e-05   2    21    21
    1.7203267e-05   2    25    25
    1.9495259e-06   2    23    23
    1.2740661e-06   2   -24    24
    7.4917878e-07   2   -1    1
    1.6766215e-07   2    22    23
    1.3287442e-07   2   -1000011    1000011
    1.3154811e-07   2   -1000013    1000013
    8.611793e-08   2    22    22
    4.7902761e-08   2    1000025    1000025
    1.9689738e-08   2   -4    4
    1.0892306e-08   2   -11    11
    1.0148545e-13   2   -2    2

DECAY 36  37.621372
    0.83359182   2   -5    5
    0.14004458   2   -15    15
    0.01500108   2    1000022    1000025
    0.0051275016   2    1000023    1000025
    0.002030346   2   -1000024    1000024
    0.0016781958   2    1000022    1000022
    0.0013277834   2   -6    6
    0.00048614522   2   -13    13
    0.00027168847   2   -3    3
    0.00020210114   2    1000023    1000023
    0.00017768625   2    1000022    1000023
    4.0680732e-05   2    21    21
    1.674973e-05   2    1000025    1000025
    2.7024011e-06   2    23    25
    7.5110687e-07   2   -1    1
    1.0244243e-07   2    22    22
    5.5407683e-08   2    22    23
    1.8371243e-08   2   -4    4
    1.0920398e-08   2   -11    11
    9.4688267e-14   2   -2    2
    4.1855377e-39   2    25    25

DECAY 37  39.268357
    0.85102238   2   -5    6
    0.12553518   2   -15    16
    0.021011652   2    1000024    1000025
    0.0012690716   2   -5    4
    0.00044381229   2   -13    14
    0.00024840967   2   -3    4
    0.0002292883   2    1000023    1000024
    0.0001507854   2   -1000005    1000006
    6.3194879e-05   2    1000022    1000024
    1.1557968e-05   2   -3    2
    9.0624874e-06   2   -5    2
    2.6068497e-06   2    24    25
    2.1847102e-06   2   -3    6
    6.8886285e-07   2   -1    2
    8.366746e-08   2   -1    6
    3.2734502e-08   2   -1    4
    1.0380816e-08   2   -11    12
    9.10021e-12   2    24    35
    6.1413467e-12   2    24    36

DECAY 6  2.43
    1   2    5    24

DECAY 15 -1
