BLOCK SPINFO
   1   SPheno
   2   v4.0.5be

BLOCK SPHENOINFO
   1   2
   2   2

BLOCK MODSEL
   1   0

BLOCK MINPAR
   3    8.8596182
   4    1

BLOCK EXTPAR
   0    3004.5437
   1    1726.1851
   2    2310.0682
   3    2743.5336
   11    3041.6008
   12   -6091.0826
   13   -7585.3444
   23    459.60781
   25    8.430507
   26    1810.6286
   31    4512.4895
   32    4512.4895
   33    2920.9234
   34    4080.1093
   35    4080.1093
   36    2995.4124
   41    2511.592
   42    2511.592
   43    2471.986
   44    4009.3925
   45    4009.3925
   46    3475.9161
   47    4323.1641
   48    4323.1641
   49    437.80942

BLOCK SMINPUTS
   1    127.90897
   2    1.1663787e-05
   3    0.1184
   4    91.1876
   5    4.18
   6    173.2
   7    1.777
   8    0
   11    0.00051099893
   12    0
   13    0.10565837
   14    0
   21    0.005
   22    0.0025
   23    0.095
   24    1.27

BLOCK GAUGE Q=  3004.5437
   1    0.35536298
   2    0.66519887
   3    1.219778

BLOCK YU Q=  3004.5437
   1   1    8.44315e-06
   2   2    0.0042891202
   3   3    1.0200003

BLOCK YD Q=  3004.5437
   1   1    0.00014303372
   2   2    0.0027176407
   3   3    0.14184463

BLOCK YE Q=  3004.5437
   1   1    2.496043e-05
   2   2    0.0051610254
   3   3    0.086799957

BLOCK AU Q=  3004.5437
   1   1    0
   2   2    0
   3   3    3041.6008

BLOCK AD Q=  3004.5437
   1   1    0
   2   2    0
   3   3   -6091.0882

BLOCK AE Q=  3004.5437
   1   1    0
   2   2    0
   3   3   -7585.3443

BLOCK MSOFT Q=  3004.5437
   1    1726.1851
   2    2310.0682
   3    2743.5336
   21    2941804.3
   22   -34674.81
   31    4512.4895
   32    4512.4895
   33    2920.9234
   34    4080.1093
   35    4080.1093
   36    2995.4124
   41    2511.592
   42    2511.592
   43    2471.986
   44    4009.3925
   45    4009.3925
   46    3475.9161
   47    4323.1641
   48    4323.1641
   49    437.80942

BLOCK MASS
   6    173.2
   23    91.1876
   24    80.429995
   15    1.777
   25    120.10929
   35    1810.7336
   36    1810.6286
   37    1812.6988
   1000001    2650.9045
   2000001    4388.8521
   1000002    2649.7308
   2000002    4080.6355
   1000003    2650.904
   2000003    4388.8518
   1000004    2649.7305
   2000004    4080.635
   1000005    728.38193
   2000005    2582.6648
   1000006    2580.6784
   2000006    3498.027
   1000011    4524.0696
   2000011    4085.1848
   1000012    4522.9748
   1000013    4524.0689
   2000013    4085.1835
   1000014    4522.9741
   1000015    2937.4105
   2000015    3000.3709
   1000016    2936.132
   1000021    2954.0841
   1000022    461.33311
   1000023   -465.53511
   1000025    1720.7174
   1000035    2340.372
   1000024    463.43411
   1000037    2340.5731

BLOCK ALPHA
      -0.11317159

BLOCK HMIX Q=  3004.5437
   1    459.60781
   2    8.430507
   3    243.26251
   4    3278375.8

BLOCK STOPMIX
   1   1   -0.99768247
   1   2    0.068041884
   2   1   -0.068041884
   2   2   -0.99768247

BLOCK SBOTMIX
   1   1    0.0036050477
   1   2    0.9999935
   2   1   -0.9999935
   2   2    0.0036050477

BLOCK STAUMIX
   1   1    0.99853058
   1   2    0.054191074
   2   1   -0.054191074
   2   2    0.99853058

BLOCK NMIX
   1   1   -0.027469859
   1   2    0.032849502
   1   3   -0.70814773
   1   4    0.70476458
   2   1   -0.012507689
   2   2    0.017522451
   2   3    0.70589995
   2   4    0.70798431
   3   1    0.99954078
   3   2    0.0038016242
   3   3   -0.010599084
   3   4    0.028132297
   4   1    0.0026802194
   4   2   -0.99929946
   4   3   -0.010941161
   4   4    0.035688735

BLOCK UMIX
   1   1   -0.015450781
   1   2    0.99988063
   2   1    0.99988063
   2   2    0.015450781

BLOCK VMIX
   1   1   -0.050419795
   1   2    0.99872811
   2   1    0.99872811
   2   2    0.050419795

BLOCK HIGGSBOUNDSINPUTHIGGSCOUPLINGSFERMIONS
       0, 71.073448,3,36,15,15

BLOCK HIGGSBOUNDSINPUTHIGGSCOUPLINGSBOSONS
       0,4,36,21,21,23

BLOCK SPHENOLOWENERGY
   1    0.00033614963
   2    1.5887111e-06
   3    3.5254262e-05
   4    2.5360505e-15
   5    1.083372e-10
   6    2.2679587e-08
   7    8.532337e-14
   8    3.6450118e-09
   9    7.7314755e-07
   10    9.66615e-05
   11    0.99847629
   12    0.54249268
   13    19.38294
   14    0
   15    0
   16    0.0021594645
   17    2.2816805e-15
   18    2.4801704e-11
   19    8.2906303e-11
   20    2.7375806e-16
   21    1.1703997e-11
   22    5.6947234e-09
   23    0
   24    0
   25    0
   26    0
   27    0
   28    0
   29    0
   30    0
   31    0
   39   -4.1353153e-05
   40    0
   41    0
   42    0

BLOCK FWCOEF Q=  160
   305   4422   0   0   -0.18881911
   305   4422   0   2   -0.2049225
   305   4322   0   2   -0.00031958687
   305   6421   0   0   -0.095227835
   305   6421   0   2   -0.11478384
   305   6321   0   2   -0.00038267326
   3051111   4133   0   0    1.6162188
   3051111   4133   0   2    1.6168159
   3051111   4233   0   2    1.2726959e-05
   3051111   4137   0   0   -4.4389109
   3051111   4137   0   2   -4.437404
   3051111   4237   0   2   -9.3424016e-05
   3051313   4133   0   0    1.6162188
   3051313   4133   0   2    1.6168159
   3051313   4233   0   2    1.2726953e-05
   3051313   4137   0   0   -4.4389109
   3051313   4137   0   2   -4.437404
   3051313   4237   0   2   -9.3424015e-05
   3051212   4137   0   0    1.5053501
   3051212   4137   0   2    1.5050249
   3051212   4237   0   2    2.024927e-05
   3051414   4137   0   0    1.5053501
   3051414   4137   0   2    1.5050249
   3051414   4237   0   2    2.0249271e-05
   3051616   4137   0   0    1.5053501
   3051616   4137   0   2    1.5050247
   3051616   4237   0   2    2.024959e-05

BLOCK IMFWCOEF Q=  160
   305   4422   0   0    3.8581861e-07
   305   4422   0   2    7.6711805e-06
   305   4322   0   2   -5.4627798e-07
   305   6421   0   0    3.3047916e-07
   305   6421   0   2   -5.4462966e-06
   305   6321   0   2   -3.6632224e-07
   3051111   4133   0   2   -2.5907638e-07
   3051111   4233   0   2    3.0529091e-07
   3051111   4137   0   2    4.3497906e-06
   3051111   4237   0   2   -2.2548345e-06
   3051313   4133   0   2   -2.5907642e-07
   3051313   4233   0   2    3.0529089e-07
   3051313   4137   0   2    4.3497908e-06
   3051313   4237   0   2   -2.2548346e-06
   3051212   4137   0   2   -9.1822524e-07
   3051212   4237   0   2    4.8872716e-07
   3051414   4137   0   2   -9.1822524e-07
   3051414   4237   0   2    4.8872716e-07
   3051616   4137   0   2   -9.2191163e-07
   3051616   4237   0   2    4.8872808e-07

DECAY 23  2.4952


DECAY 24  2.085


DECAY 2000011  13.894682
    0.99868354   2    1000025    11
    0.0010865081   2    1000022    11
    0.00022515851   2    1000023    11

DECAY 1000011  36.220853
    0.58955432   2   -1000037    12
    0.29362833   2    1000035    11
    0.11631925   2    1000025    11
    0.00025701677   2   -1000024    12
    0.00017783733   2    1000022    11

DECAY 2000013  13.898892
    0.99838045   2    1000025    13
    0.0011622995   2    1000022    13
    0.00030070069   2    1000023    13
    0.00015174108   2   -1000024    14

DECAY 1000013  36.22319
    0.58951608   2   -1000037    14
    0.29360928   2    1000035    13
    0.11631173   2    1000025    13
    0.00025700015   2   -1000024    14
    0.00021032657   2    1000022    13

DECAY 1000015  7.2139744
    0.47614231   2   -1000037    16
    0.23725697   2    1000035    15
    0.2255259   2    1000025    15
    0.030824252   2    1000022    15
    0.028525201   2    1000023    15
    0.0017253707   2   -1000024    16

DECAY 2000015  7.6471459
    0.88515338   2    1000025    15
    0.055148635   2   -1000024    16
    0.028768699   2    1000023    15
    0.028420525   2    1000022    15
    0.0016714944   2   -1000037    16
    0.00083557516   2    1000035    15

DECAY 1000012  36.230283
    0.58769256   2    1000037    11
    0.2950633   2    1000035    12
    0.11297811   2    1000025    12
    0.0027355232   2    1000024    11
    0.0012153641   2    1000022    12
    0.00031514038   2    1000023    12

DECAY 1000014  36.232617
    0.5876545   2    1000037    13
    0.29504419   2    1000035    14
    0.11297081   2    1000025    14
    0.0028000963   2    1000024    13
    0.0012152856   2    1000022    14
    0.00031512004   2    1000023    14

DECAY 1000016  7.2284041
    0.47395561   2    1000037    15
    0.23806976   2    1000035    16
    0.21662255   2    1000025    16
    0.06651546   2    1000024    15
    0.0038411244   2    1000022    16
    0.00099549694   2    1000023    16

DECAY 1000001  1.8446481
    0.61453024   2   -1000037    2
    0.3075748   2    1000035    1
    0.064265866   2    1000025    1
    0.0084725774   2    1000022    1
    0.0028386541   2   -1000024    2
    0.0023178712   2    1000023    1

DECAY 2000001  105.39142
    0.98334345   2    1000021    1
    0.016635722   2    1000025    1

DECAY 1000003  1.8459074
    0.61410407   2   -1000037    4
    0.30736412   2    1000035    3
    0.064221994   2    1000025    3
    0.0085659659   2    1000022    3
    0.0033290285   2   -1000024    4
    0.0024148135   2    1000023    3

DECAY 2000003  105.39265
    0.98333169   2    1000021    3
    0.016635526   2    1000025    3

DECAY 1000005  0.17173618
    0.39747002   2   -1000024    6
    0.3059953   2    1000022    5
    0.29653468   2    1000023    5

DECAY 2000005  52.535134
    0.94127326   2   -1000024    6
    0.010465819   2   -1000037    6
    0.0095201483   2    1000022    5
    0.009266954   2    1000023    5
    0.0088174383   2    1000005    35
    0.0088113474   2    1000005    36
    0.0069164726   2    1000035    5
    0.0020323489   2    1000025    5
    0.0017709535   2    1000005    25
    0.0011252572   2    1000005    23

DECAY 1000002  1.8816678
    0.59702657   2    1000037    1
    0.29893402   2    1000035    2
    0.068502606   2    1000025    2
    0.02961934   2    1000024    1
    0.004555466   2    1000022    2
    0.0013620007   2    1000023    2

DECAY 2000002  79.120571
    0.92211116   2    1000021    2
    0.077786214   2    1000025    2

DECAY 1000004  1.8829315
    0.59662452   2    1000037    3
    0.29873014   2    1000035    4
    0.068456385   2    1000025    4
    0.02979306   2    1000024    3
    0.0047925432   2    1000022    4
    0.0016033498   2    1000023    4

DECAY 2000004  79.123345
    0.92207718   2    1000021    4
    0.077783469   2    1000025    4

DECAY 1000006  52.668057
    0.47168696   2    1000023    6
    0.46686151   2    1000022    6
    0.019460864   2    1000024    5
    0.016752608   2    1000005    37
    0.01362284   2    1000037    5
    0.0051311475   2    1000035    6
    0.0023932624   2    1000025    6
    0.002230776   2    1000005    24
    0.0018598939   3    1000022    24    5

DECAY 2000006  196.21061
    0.35525938   2    1000024    5
    0.1776027   2    1000023    6
    0.17645581   2    1000022    6
    0.113097   2    1000021    6
    0.063914152   2    2000005    24
    0.058930257   2    1000006    25
    0.031878912   2    1000006    23
    0.022830607   2    1000025    6

DECAY 1000024  8.5326517e-12
    0.59600891   3    1000022   -1    2
    0.19868139   3    1000022   -11    12
    0.19449177   3    1000022   -13    14
    0.010817934   3    1000022   -3    4

DECAY 1000037  24.059751
    0.2299588   2    1000024    25
    0.22402035   2    1000023    24
    0.2228813   2    1000024    23
    0.22179614   2    1000022    24
    0.021361199   2    37    1000023
    0.01596974   3    1000024    6   -6
    0.01455883   2    1000024    35
    0.014455384   2    1000024    36
    0.014417978   2    37    1000022
    0.010848093   3    1000022   -5    6
    0.0089557449   3    1000023   -5    6
    0.00073473126   2    1000025    24

DECAY 1000022 -1


DECAY 1000023  1.4211044e-08
    0.83047123   2    1000022    22
    0.042124128   3    1000022    12   -12
    0.031498992   3    1000022    1   -1
    0.031278142   3    1000022    3   -3
    0.0245669   3    1000022    2   -2
    0.0071085749   3    1000022    11   -11
    0.0070301341   3    1000022    13   -13
    0.0057020011   3    1000024    1   -2
    0.0057020011   3   -1000024   -1    2
    0.0046217309   3    1000022    4   -4
    0.0019007254   3    1000024    11   -12
    0.0019007254   3   -1000024   -11    12
    0.0018800236   3    1000024    13   -14
    0.0018800236   3   -1000024   -13    14
    0.0011154583   3    1000024    3   -4
    0.0011154583   3   -1000024   -3    4

DECAY 1000025  7.410026
    0.17107749   2    1000024   -24
    0.17107749   2   -1000024    24
    0.14057523   2    1000023    23
    0.13088387   2    1000005   -5
    0.13088387   2   -1000005    5
    0.12846403   2    1000022    25
    0.082483374   2    1000023    25
    0.028536108   2    1000022    23
    0.0053338304   3    1000024    5   -6
    0.0053338304   3   -1000024   -5    6
    0.0030451268   3    1000022    6   -6
    0.0022908118   3    1000023    6   -6

DECAY 1000035  25.425196
    0.21085619   2    1000024   -24
    0.21085619   2   -1000024    24
    0.16854076   2    1000022    25
    0.16574086   2    1000023    23
    0.10811169   2    1000023    25
    0.046220966   2    1000022    23
    0.019809872   2    1000023    35
    0.013342487   2    37   -1000024
    0.013342487   2   -37    1000024
    0.012905063   2    1000022    35
    0.0085165652   3    1000024    5   -6
    0.0085165652   3   -1000024   -5    6
    0.0058453616   3    1000022    6   -6
    0.004922778   3    1000023    6   -6
    0.0011312998   2    1000022    36
    0.00064920298   2    1000025    25
    0.00064222237   2    1000023    36

DECAY 1000021  100.09074
    0.385302   2    1000005   -5
    0.385302   2   -1000005    5
    0.024257796   2    2000005   -5
    0.024257796   2   -2000005    5
    0.023467285   2    1000006   -6
    0.023467285   2   -1000006    6
    0.016684862   2    1000002   -2
    0.016684862   2   -1000002    2
    0.016684771   2    1000004   -4
    0.016684771   2   -1000004    4
    0.016563414   2    1000003   -3
    0.016563414   2   -1000003    3
    0.016563367   2    1000001   -1
    0.016563367   2   -1000001    1
    0.00021551878   3    1000024    5   -6
    0.00021551878   3   -1000024   -5    6
    0.00020863656   3    1000023    6   -6
    0.00020739221   3    1000022    6   -6

DECAY 25  0.0033606298
    0.64582975   2   -5    5
    0.15340993   2   -24    24
    0.074622162   2    21    21
    0.07379955   2   -15    15
    0.031625678   2   -4    4
    0.01683132   2    23    23
    0.0022991264   2    22    22
    0.0010830427   2    22    23
    0.00025596554   2   -13    13
    0.0002426382   2   -3    3
    6.7087073e-07   2   -1    1
    1.6299086e-07   2   -2    2
    5.754459e-09   2   -11    11

DECAY 35  2.8672033
    0.57431495   2   -5    5
    0.30535362   2   -6    6
    0.10360364   2   -15    15
    0.0082380843   2   -1000024    1000024
    0.002983951   2    1000022    1000022
    0.00187948   2    25    25
    0.001227407   2    1000023    1000023
    0.0010837983   2    1000022    1000023
    0.0003572174   2   -13    13
    0.00030105135   2    23    23
    0.00022447478   2   -3    3
    0.00018409651   2   -24    24
    0.00012246224   2   -1000005    1000005
    0.00011934798   2    21    21
    4.2347472e-06   2   -4    4
    1.117292e-06   2    22    22
    6.2061333e-07   2   -1    1
    4.3181134e-07   2    22    23
    8.0241497e-09   2   -11    11
    2.1832621e-11   2   -2    2

DECAY 36  2.8322307
    0.56993135   2   -5    5
    0.30546216   2   -6    6
    0.10280844   2   -15    15
    0.012873958   2   -1000024    1000024
    0.0063717881   2    1000022    1000022
    0.0010626637   2    1000023    1000023
    0.00040515792   2    23    25
    0.00035447433   2   -13    13
    0.00031525322   2    21    21
    0.0002227535   2   -3    3
    0.00018457182   2    1000022    1000023
    4.0726998e-06   2   -4    4
    1.9447798e-06   2    22    22
    7.9227519e-07   2    22    23
    6.1585506e-07   2   -1    1
    7.962536e-09   2   -11    11
    2.099839e-11   2   -2    2
    4.9856603e-36   2    25    25

DECAY 37  2.796807
    0.89430442   2   -5    6
    0.10173909   2   -15    16
    0.0015833864   2    1000023    1000024
    0.00082245107   2   -5    4
    0.00048451468   2   -3    6
    0.00041242657   2    24    25
    0.00035968445   2   -13    14
    0.00020917162   2   -3    4
    4.6431083e-05   2    1000022    1000024
    2.2208415e-05   2   -1    6
    9.5328907e-06   2   -3    2
    5.8731047e-06   2   -5    2
    5.6818647e-07   2   -1    2
    2.3175197e-07   2   -1    4
    8.4130567e-09   2   -11    12
    1.8496547e-11   2    24    36
    1.4256641e-11   2    24    35

DECAY 6  2.43
    1   2    5    24

DECAY 15 -1
