BLOCK DCINFO
   1   SDECAY/HDECAY
   2   1.3b /3.4

BLOCK SPINFO
   1   SOFTSUSY
   2   3.4.0

BLOCK MODSEL
   1   0

BLOCK SMINPUTS
   1    127.90897
   2    1.1663787e-05
   3    0.1184
   4    91.1876
   5    4.18
   6    173.2
   7    1.777

BLOCK MINPAR
   3    33.85

BLOCK EXTPAR
   0   -1
   1    1779
   2   -189.91
   3    3393.79
   11    2163.87
   12   -3234.48
   13   -640.92
   23    355.12
   26    2708.74
   31    3675.44
   32    3675.44
   33    3694.63
   34    2939.5
   35    2939.5
   36    2409.85
   41    3587.43
   42    3587.43
   43    1770.61
   44    3500.24
   45    3500.24
   46    3044.62
   47    3270.22
   48    3270.22
   49    910.65

BLOCK MASS
   24    80.384915
   25    124.9424
   35    2708.7531
   36    2708.7407
   37    2710.3426
   5    4.8187603
   1000001    3661.3666
   2000001    3344.9012
   1000002    3660.6332
   2000002    3571.9085
   1000003    3661.3666
   2000003    3344.9012
   1000004    3660.6332
   2000004    3571.9085
   1000005    985.43419
   2000005    1832.1763
   1000006    1832.1869
   2000006    3089.3173
   1000011    3683.4405
   2000011    2943.032
   1000012    3682.2381
   1000013    3683.4405
   2000013    2943.032
   1000014    3682.2381
   1000015    2409.2433
   2000015    3700.215
   1000016    3699.0078
   1000021    3496.4914
   1000022   -195.09697
   1000023    373.35484
   1000025   -385.62459
   1000035    1776.1723
   1000024    195.61703
   1000037    391.31441

BLOCK NMIX
   1   1    0.0029222036
   1   2    0.94888217
   1   3   -0.28185577
   1   4   -0.14202608
   2   1   -0.02237236
   2   2   -0.10146564
   2   3   -0.6985624
   2   4    0.70796524
   3   1   -0.013387323
   3   2    0.29887499
   3   3    0.65767155
   3   4    0.69134843
   4   1    0.9996558
   4   2   -0.0010420753
   4   3   -0.0060024539
   4   4    0.025517971

BLOCK UMIX
   1   1    0.9217993
   1   2   -0.38766746
   2   1    0.38766746
   2   2    0.9217993

BLOCK VMIX
   1   1   -0.98082617
   1   2   -0.19488464
   2   1   -0.19488464
   2   2    0.98082617

BLOCK STOPMIX
   1   1    0.99879818
   1   2   -0.049012097
   2   1    0.049012097
   2   2    0.99879818

BLOCK SBOTMIX
   1   1    0.014288119
   1   2    0.99989792
   2   1   -0.99989792
   2   2    0.014288119

BLOCK STAUMIX
   1   1    0.0027995233
   1   2    0.99999608
   2   1   -0.99999608
   2   2    0.0027995233

BLOCK ALPHA
      -0.030611382

BLOCK HMIX Q=  2324.434
   1    361.16657
   2    32.76394
   3    241.66861
   4    7192661.3

BLOCK GAUGE Q=  2324.434
   1    0.36406528
   2    0.641891
   3    1.0125911

BLOCK AU Q=  2324.434
   1   1    0
   2   2    0
   3   3    2163.87

BLOCK AD Q=  2324.434
   1   1    0
   2   2    0
   3   3   -3234.48

BLOCK AE Q=  2324.434
   1   1    0
   2   2    0
   3   3   -640.92

BLOCK YU Q=  2324.434
   1   1    0
   2   2    0
   3   3    0.83956792

BLOCK YD Q=  2324.434
   1   1    0
   2   2    0
   3   3    0.41100524

BLOCK YE Q=  2324.434
   1   1    0
   2   2    0
   3   3    0.33554467

BLOCK MSOFT Q=  2324.434
   1    1779
   2   -189.91
   3    3393.79
   21    7346540
   22   -20222.684
   31    3675.44
   32    3675.44
   33    3694.63
   34    2939.5
   35    2939.5
   36    2409.85
   41    3587.43
   42    3587.43
   43    1770.61
   44    3500.24
   45    3500.24
   46    3044.62
   47    3270.22
   48    3270.22
   49    910.64997

BLOCK HIGGSBOUNDSINPUTHIGGSCOUPLINGSFERMIONS
       0, 1073.4757,3,36,15,15

BLOCK HIGGSBOUNDSINPUTHIGGSCOUPLINGSBOSONS
       0,4,36,21,21,23

DECAY 6  1.4513124
    1   2    5    24

DECAY 1000021  128.55777
    0.21522429   2    1000005   -5
    0.21522429   2   -1000005    5
    0.13547556   2    1000006   -6
    0.13547556   2   -1000006    6
    0.13421316   2    2000005   -5
    0.13421316   2   -2000005    5
    0.011099557   2    2000006   -6
    0.011099557   2   -2000006    6
    0.001993713   2    2000001   -1
    0.001993713   2   -2000001    1
    0.001993713   2    2000003   -3
    0.001993713   2   -2000003    3

DECAY 1000006  51.075623
    0.30061712   2    1000024    5
    0.23250665   2    1000023    6
    0.22510409   2    1000025    6
    0.13858974   2    1000022    6
    0.097680091   2    1000037    5
    0.0055023179   2    1000005    24

DECAY 2000006  112.07143
    0.36471933   2    1000037    5
    0.18538776   2    1000023    6
    0.18238535   2    1000025    6
    0.10846983   2    2000005    24
    0.059833994   2    1000006    25
    0.055475885   2    1000006    23
    0.02885577   2    1000035    6
    0.0095930884   2    1000024    5
    0.0052198438   2    1000022    6
    5.9144006e-05   2    1000005    24

DECAY 1000005  4.7099715
    0.3764594   2   -1000037    6
    0.25064336   2    1000023    5
    0.21492965   2    1000025    5
    0.10078861   2   -1000024    6
    0.057178978   2    1000022    5

DECAY 2000005  50.93577
    0.48600351   2   -1000037    6
    0.25415385   2   -1000024    6
    0.13799513   2    1000022    5
    0.060630084   2    1000025    5
    0.055709846   2    1000023    5
    0.0028274929   2    1000005    23
    0.0026606126   2    1000005    25
    1.9480332e-05   2    1000035    5

DECAY 1000002  45.128856
    0.60655977   2    1000024    1
    0.28418524   2    1000022    2
    0.04835854   2    1000021    2
    0.027258959   2    1000025    2
    0.02356273   2    1000037    1
    0.0066025196   2    1000035    2
    0.0034722432   2    1000023    2

DECAY 2000002  5.0600355
    0.90334486   2    1000035    2
    0.095588945   2    1000021    2
    0.00077548421   2    1000023    2
    0.00027728333   2    1000025    2
    1.3430263e-05   2    1000022    2

DECAY 1000001  45.099523
    0.5361985   2   -1000024    2
    0.28376146   2    1000022    1
    0.093315866   2   -1000037    2
    0.048804007   2    1000021    1
    0.028221949   2    1000025    1
    0.0067570612   2    1000035    1
    0.0029411576   2    1000023    1

DECAY 2000001  0.98832164
    0.99870869   2    1000035    1
    0.00093924256   2    1000023    1
    0.00033576568   2    1000025    1
    1.6303672e-05   2    1000022    1

DECAY 1000004  46.555722
    0.61650419   2    1000024    3
    0.28884519   2    1000022    4
    0.032871491   2    1000021    4
    0.027676114   2    1000025    4
    0.023922601   2    1000037    3
    0.0066547928   2    1000035    4
    0.0035256128   2    1000023    4

DECAY 2000004  5.0851751
    0.9322042   2    1000035    4
    0.066687451   2    1000021    4
    0.00080614293   2    1000023    4
    0.00028822705   2    1000025    4
    1.3975144e-05   2    1000022    4

DECAY 1000003  46.515564
    0.54511406   2   -1000024    4
    0.28848062   2    1000022    3
    0.094762737   2   -1000037    4
    0.033183005   2    1000021    3
    0.028660411   2    1000025    3
    0.0068121199   2    1000035    3
    0.002987049   2    1000023    3

DECAY 2000003  1.011138
    0.99869913   2    1000035    3
    0.00094620026   2    1000023    3
    0.00033823191   2    1000025    3
    1.644031e-05   2    1000022    3

DECAY 1000011  47.804002
    0.53365631   2   -1000024    12
    0.28373464   2    1000022    11
    0.092790191   2   -1000037    12
    0.059577704   2    1000035    11
    0.026209994   2    1000025    11
    0.0040311579   2    1000023    11

DECAY 2000011  6.2795019
    0.99835357   2    1000035    11
    0.0011976216   2    1000023    11
    0.0004278917   2    1000025    11
    2.0921074e-05   2    1000022    11

DECAY 1000013  47.804002
    0.53365631   2   -1000024    14
    0.28373464   2    1000022    13
    0.092790191   2   -1000037    14
    0.059577704   2    1000035    13
    0.026209994   2    1000025    13
    0.0040311579   2    1000023    13

DECAY 2000013  6.2795018
    0.99835357   2    1000035    13
    0.0011976216   2    1000023    13
    0.0004278917   2    1000025    13
    2.0921074e-05   2    1000022    13

DECAY 1000015  12.950366
    0.33413226   2   -1000037    16
    0.20430816   2    1000035    15
    0.19397492   2    1000023    15
    0.17068255   2    1000025    15
    0.063385597   2   -1000024    16
    0.03351651   2    1000022    15

DECAY 2000015  56.214169
    0.45534178   2   -1000024    16
    0.25375125   2    1000022    15
    0.085001377   2    1000025    15
    0.079835745   2   -1000037    16
    0.074006248   2    1000023    15
    0.051180155   2    1000035    15
    0.00044708611   2    1000015    25
    0.00043635833   2    1000015    23

DECAY 1000012  47.828533
    0.60368002   2    1000024    11
    0.28152169   2    1000022    12
    0.059943224   2    1000035    12
    0.028989375   2    1000025    12
    0.023429743   2    1000037    11
    0.0024359501   2    1000023    12

DECAY 1000014  47.828533
    0.60368002   2    1000024    13
    0.28152169   2    1000022    14
    0.059943224   2    1000035    14
    0.028989375   2    1000025    14
    0.023429743   2    1000037    13
    0.0024359501   2    1000023    14

DECAY 1000016  56.234437
    0.53783662   2    1000024    15
    0.24054264   2    1000022    16
    0.14242047   2    1000037    15
    0.051496488   2    1000035    16
    0.024773312   2    1000025    16
    0.0020816519   2    1000023    16
    0.0008488235   2   -1000015   -24

DECAY 1000024  2.4376765e-13
    0.82929997   2    1000022    211
    0.091086505   3    1000022   -11    12
    0.074663018   3    1000022   -13    14
    0.0049493114   3    1000022    211    111
    5.9859445e-07   4    1000022    211    111    111
    5.9859445e-07   4    1000022    211    211   -211

DECAY 1000037  1.4128846
    0.39044483   2    1000022    24
    0.36380427   2    1000024    23
    0.2457509   2    1000024    25

DECAY 1000022 -1


DECAY 1000023  1.3538318
    0.35172732   2    1000024   -24
    0.35172732   2   -1000024    24
    0.28019155   2    1000022    23
    0.016353819   2    1000022    25

DECAY 1000025  1.5703639
    0.37148795   2    1000024   -24
    0.37148795   2   -1000024    24
    0.21110448   2    1000022    25
    0.045919624   2    1000022    23

DECAY 1000035  5.9097944
    0.16796021   2    1000037   -24
    0.16796021   2   -1000037    24
    0.14812741   2    1000023    25
    0.12639558   2    1000005   -5
    0.12639558   2   -1000005    5
    0.12406716   2    1000025    23
    0.052088491   2    1000023    23
    0.049412783   2    1000025    25
    0.012209285   2    1000024   -24
    0.012209285   2   -1000024    24
    0.0084006772   2    1000022    23
    0.0047733412   2    1000022    25

DECAY 25  0.0042893145
    0.62138012   2    5   -5
    0.19483838   2    24   -24
    0.074518234   2    21    21
    0.060689928   2   -15    15
    0.024281648   2    23    23
    0.02021233   2    4   -4
    0.002181585   2    22    22
    0.0014484948   2    22    23
    0.00023446448   2    3   -3
    0.00021482023   2   -13    13

DECAY 35  70.882745
    0.43710766   2    5   -5
    0.12550625   2    1000024   -1000037
    0.12550625   2    1000037   -1000024
    0.085353922   2   -15    15
    0.059606518   2    1000022    1000023
    0.046683236   2    1000024   -1000024
    0.046441303   2    1000022    1000025
    0.023067492   2    1000022    1000022
    0.012312527   2    1000025    1000025
    0.011155006   2    1000023    1000025
    0.010396899   2    1000037   -1000037
    0.0082484516   2    1000025    1000035
    0.0041251817   2    1000023    1000035
    0.0014612235   2    6   -6
    0.0013124317   2    1000022    1000035
    0.001055227   2    1000023    1000023
    0.00030175658   2   -13    13
    0.00018095586   2    3   -3
    0.00016620363   2    1000005   -1000005
    6.5287693e-06   2    21    21
    3.574561e-06   2    25    25
    8.9094976e-07   2    24   -24
    4.4435733e-07   2    23    23
    4.4278936e-08   2    22    22
    1.4906797e-08   2    4   -4
    4.2779046e-09   2    23    22

DECAY 36  70.873902
    0.4371821   2    5   -5
    0.12718743   2    1000024   -1000037
    0.12718743   2    1000037   -1000024
    0.085364846   2   -15    15
    0.065269713   2    1000022    1000023
    0.045006908   2    1000024   -1000024
    0.042142498   2    1000022    1000025
    0.022151316   2    1000022    1000022
    0.011783527   2    1000025    1000025
    0.011020011   2    1000023    1000025
    0.0092350804   2    1000023    1000035
    0.0087551429   2    1000037   -1000037
    0.0035881496   2    1000025    1000035
    0.0014677259   2    6   -6
    0.0012929058   2    1000023    1000023
    0.00086072778   2    1000022    1000035
    0.00030179468   2   -13    13
    0.00018099071   2    3   -3
    2.0752643e-05   2    21    21
    9.0205407e-07   2    23    25
    1.494882e-08   2    4   -4
    1.4839221e-08   2    23    22
    1.2021857e-08   2    22    22

DECAY 37  66.457367
    0.40118122   2    6   -5
    0.17401322   2    1000037    1000022
    0.15447036   2    1000024    1000025
    0.14987569   2    1000024    1000023
    0.091091748   2   -15    16
    0.012329199   2    1000037    1000035
    0.012317251   2    1000037    1000023
    0.0021796311   2    1000024    1000035
    0.0013390163   2    1000037    1000025
    0.00067302326   2    4   -5
    0.00032204129   2   -13    14
    0.00019004557   2    4   -3
    9.6545214e-06   2    2   -3
    6.7302228e-06   2    2   -5
    9.644557e-07   2    24    25
    2.0072338e-07   2    1000024    1000022
    2.0879097e-13   2    24    36

DECAY 5 -1


DECAY 15 -1


DECAY 23  2.4952


DECAY 24  2.085
