BLOCK SPINFO
   1   SPheno
   2   v4.0.5be

BLOCK SPHENOINFO
   1   2
   2   2

BLOCK MODSEL
   1   0

BLOCK MINPAR
   3    45.923067
   4    1

BLOCK EXTPAR
   0    1462.6066
   1   -390.37193
   2   -1212.5457
   3    3000
   11   -4061.4795
   12   -1213.4921
   13   -956.8687
   23    403.06709
   25    45.183432
   26    3089.3406
   31    1988.6538
   32    1988.6538
   33    1486.881
   34    793.53781
   35    793.53781
   36    1735.8511
   41    5000
   42    5000
   43    1558.6449
   44    5000
   45    5000
   46    1525.7557
   47    5000
   48    5000
   49    848.52866

BLOCK SMINPUTS
   1    127.90897
   2    1.1663787e-05
   3    0.1184
   4    91.1876
   5    4.18
   6    173.2
   7    1.777
   8    0
   11    0.00051099893
   12    0
   13    0.10565837
   14    0
   21    0.005
   22    0.0025
   23    0.095
   24    1.27

BLOCK GAUGE Q=  1462.6066
   1    0.35536298
   2    0.66519887
   3    1.219778

BLOCK YU Q=  1462.6066
   1   1    8.3864253e-06
   2   2    0.0042603041
   3   3    1.0131475

BLOCK YD Q=  1462.6066
   1   1    0.00076144116
   2   2    0.014467382
   3   3    0.75511103

BLOCK YE Q=  1462.6066
   1   1    0.00013287705
   2   2    0.02747476
   3   3    0.46208026

BLOCK AU Q=  1462.6066
   1   1    0
   2   2    0
   3   3   -4061.4793

BLOCK AD Q=  1462.6066
   1   1    0
   2   2    0
   3   3   -1213.4923

BLOCK AE Q=  1462.6066
   1   1    0
   2   2    0
   3   3   -956.8687

BLOCK MSOFT Q=  1462.6066
   1   -390.37193
   2   -1212.5457
   3    3000
   21    9435164.3
   22   -123881.72
   31    1988.6538
   32    1988.6538
   33    1486.881
   34    793.53781
   35    793.53781
   36    1735.8511
   41    5000
   42    5000
   43    1558.6449
   44    5000
   45    5000
   46    1525.7557
   47    5000
   48    5000
   49    848.52866

BLOCK MASS
   6    173.2
   23    91.1876
   24    80.429995
   15    1.777
   25    123.2496
   35    3087.1584
   36    3089.3406
   37    3088.4332
   1000001    5027.9462
   2000001    5018.7513
   1000002    5027.5115
   2000002    5020.401
   1000003    5027.9518
   2000003    5018.7594
   1000004    5027.5164
   2000004    5020.4018
   1000005    823.24941
   2000005    1524.9801
   1000006    1284.1363
   2000006    1665.8808
   1000011    1995.7393
   2000011    795.21434
   1000012    1993.8104
   1000013    1995.735
   2000013    795.21437
   1000014    1993.8058
   1000015    1495.1494
   2000015    1735.1749
   1000016    1493.1406
   1000021    3190.2908
   1000022   -367.31621
   1000023    412.44898
   1000025   -430.65887
   1000035   -1267.4052
   1000024    408.33262
   1000037    1267.4416

BLOCK ALPHA
      -0.021826427

BLOCK HMIX Q=  1462.6066
   1    403.06709
   2    45.183432
   3    244.00295
   4    9544025.5

BLOCK STOPMIX
   1   1    0.6288393
   1   2    0.77753529
   2   1   -0.77753529
   2   2    0.6288393

BLOCK SBOTMIX
   1   1    0.024727206
   1   2    0.99969424
   2   1   -0.99969424
   2   2    0.024727206

BLOCK STAUMIX
   1   1    0.99908827
   1   2    0.042692315
   2   1   -0.042692315
   2   2    0.99908827

BLOCK NMIX
   1   1   -0.78472321
   1   2    0.035457415
   1   3   -0.46141289
   1   4   -0.41237168
   2   1    0.040043532
   2   2   -0.034557217
   2   3   -0.70384703
   2   4    0.70837961
   3   1    0.61854051
   3   2    0.05317575
   3   3   -0.53968996
   3   4   -0.56860771
   4   1    0.0036930666
   4   2   -0.99735696
   4   3   -0.020790884
   4   4   -0.069521151

BLOCK UMIX
   1   1   -0.029434585
   1   2    0.99956671
   2   1   -0.99956671
   2   2   -0.029434585

BLOCK VMIX
   1   1    0.098309595
   1   2    0.99515588
   2   1    0.99515588
   2   2   -0.098309595

BLOCK HIGGSBOUNDSINPUTHIGGSCOUPLINGSFERMIONS
       0, 2041.5425,3,36,15,15

BLOCK HIGGSBOUNDSINPUTHIGGSCOUPLINGSBOSONS
       0,4,36,21,21,23

BLOCK SPHENOLOWENERGY
   1    0.00025684662
   2    1.6052792e-06
   3    3.5238269e-05
   4    2.7125709e-15
   5    1.1587556e-10
   6    2.4121508e-08
   7    9.0803198e-14
   8    3.8790332e-09
   9    8.1836735e-07
   10    9.5949499e-05
   11    0.99112159
   12    0.54233434
   13    19.371249
   14    0
   15    0
   16    0.002158409
   17    2.2816706e-15
   18    2.4812964e-11
   19    8.2924384e-11
   20   -4.9290938e-15
   21   -2.1072623e-10
   22   -8.3861223e-08
   23    0
   24    0
   25    0
   26    0
   27    0
   28    0
   29    0
   30    0
   31    0
   39    8.2267822e-05
   40    0
   41    0
   42    0

BLOCK FWCOEF Q=  160
   305   4422   0   0   -0.18881911
   305   4422   0   2   -0.10687894
   305   4322   0   2    0.00040179314
   305   6421   0   0   -0.095227835
   305   6421   0   2   -0.057762941
   305   6321   0   2    5.4545485e-05
   3051111   4133   0   0    1.5915687
   3051111   4133   0   2    1.5926187
   3051111   4233   0   2    0.00034649782
   3051111   4137   0   0   -4.4142608
   3051111   4137   0   2   -4.4112735
   3051111   4237   0   2   -0.0026983112
   3051313   4133   0   0    1.5915687
   3051313   4133   0   2    1.5926158
   3051313   4233   0   2    0.00034649545
   3051313   4137   0   0   -4.4142608
   3051313   4137   0   2   -4.4112765
   3051313   4237   0   2   -0.0026983152
   3051212   4137   0   0    1.5053501
   3051212   4137   0   2    1.504706
   3051212   4237   0   2    0.00058810897
   3051414   4137   0   0    1.5053501
   3051414   4137   0   2    1.504706
   3051414   4237   0   2    0.00058810907
   3051616   4137   0   0    1.5053501
   3051616   4137   0   2    1.5047059
   3051616   4237   0   2    0.0005881361

BLOCK IMFWCOEF Q=  160
   305   4422   0   0    3.8588696e-07
   305   4422   0   2   -1.7662699e-05
   305   4322   0   2    9.2548597e-06
   305   6421   0   0    3.305377e-07
   305   6421   0   2   -2.8165352e-05
   305   6321   0   2    3.6972199e-06
   3051111   4133   0   2   -3.2511997e-06
   3051111   4233   0   2    7.0412026e-06
   3051111   4137   0   2    2.6955535e-05
   3051111   4237   0   2   -5.4843554e-05
   3051313   4133   0   2   -3.2511768e-06
   3051313   4233   0   2    7.0411688e-06
   3051313   4137   0   2    2.6955586e-05
   3051313   4237   0   2   -5.4843634e-05
   3051212   4137   0   2   -5.7421841e-06
   3051212   4237   0   2    1.1953421e-05
   3051414   4137   0   2   -5.7421841e-06
   3051414   4237   0   2    1.1953421e-05
   3051616   4137   0   2   -5.7439079e-06
   3051616   4237   0   2    1.1953416e-05

DECAY 23  2.4952


DECAY 24  2.085


DECAY 2000011  2.2894794
    0.66502456   2    1000022    11
    0.33348001   2    1000025    11
    0.0014953619   2    1000023    11

DECAY 1000011  11.746375
    0.53203672   2   -1000037    12
    0.26381723   2    1000035    11
    0.10279808   2    1000022    11
    0.10003955   2    1000025    11
    0.0011896112   2   -1000024    12
    0.00011880632   2    1000023    11

DECAY 2000013  2.3024209
    0.66196325   2    1000022    13
    0.33236653   2    1000025    13
    0.002860475   2    1000023    13
    0.0028097438   2   -1000024    14

DECAY 1000013  11.774306
    0.53077036   2   -1000037    14
    0.26318975   2    1000035    13
    0.10306008   2    1000022    13
    0.10047553   2    1000025    13
    0.001274117   2    1000023    13
    0.0011867861   2   -1000024    14

DECAY 1000015  8.7207545
    0.30594348   2    1000023    15
    0.2639551   2    1000025    15
    0.24755969   2    1000022    15
    0.11898329   2   -1000037    16
    0.059051394   2    1000035    15
    0.0045070424   2   -1000024    16

DECAY 2000015  21.137332
    0.30919331   2   -1000024    16
    0.29323377   2    1000022    15
    0.2323469   2    1000025    15
    0.15544477   2    1000023    15
    0.004490673   2    1000016   -24
    0.0022859779   2    1000015    25
    0.0020654496   2    1000015    23
    0.00062608651   2   -1000037    16
    0.00031306843   2    1000035    15

DECAY 1000012  11.771793
    0.52432942   2    1000037    11
    0.26438914   2    1000035    12
    0.14383031   2    1000022    12
    0.052086263   2    1000025    12
    0.013226673   2    1000024    11
    0.0021381857   2    1000023    12

DECAY 1000014  11.799175
    0.52310874   2    1000037    13
    0.26377331   2    1000035    14
    0.14349615   2    1000022    14
    0.051965242   2    1000025    14
    0.015523346   2    1000024    13
    0.0021332178   2    1000023    14

DECAY 1000016  8.7053476
    0.63575501   2    1000024    15
    0.13775054   2    1000022    16
    0.11679556   2    1000037    15
    0.058900917   2    1000035    16
    0.048781616   2    1000025    16
    0.0020163529   2    1000023    16

DECAY 2000001  143.44691
    0.98070493   2    1000021    1
    0.011899737   2    1000022    1
    0.0073636006   2    1000025    1

DECAY 1000001  200.56669
    0.70617977   2    1000021    1
    0.19335851   2   -1000037    2
    0.096379994   2    1000035    1
    0.0033507534   2    1000022    1
    0.00035296615   2    1000025    1
    0.00018932809   2    1000023    1
    0.00018868317   2   -1000024    2

DECAY 2000003  143.48888
    0.98042392   2    1000021    3
    0.011926859   2    1000022    3
    0.0074031499   2    1000025    3
    0.00014359615   2   -1000024    4
    0.00010207088   2    1000023    3

DECAY 1000003  200.58974
    0.70610149   2    1000021    3
    0.19333664   2   -1000037    4
    0.096369097   2    1000035    3
    0.0033722925   2    1000022    3
    0.00038280072   2    1000025    3
    0.00024018012   2    1000023    3
    0.00019750351   2   -1000024    4

DECAY 1000005  9.9993269
    0.44115987   2   -1000024    6
    0.25889202   2    1000023    5
    0.15099451   2    1000025    5
    0.14895361   2    1000022    5

DECAY 2000005  62.973911
    0.40915433   2   -1000024    6
    0.31187337   2    1000006   -24
    0.11737131   2    1000023    5
    0.069144609   2    1000025    5
    0.053192892   2    1000022    5
    0.017497475   2   -1000037    6
    0.010185642   2    1000035    5
    0.0075297269   2    1000005    25
    0.0040506433   2    1000005    23

DECAY 2000002  151.92531
    0.92710535   2    1000021    2
    0.044957395   2    1000022    2
    0.027819632   2    1000025    2
    0.00011673814   2    1000023    2

DECAY 1000002  200.5623
    0.70596957   2    1000021    2
    0.19163891   2    1000037    1
    0.09611766   2    1000035    2
    0.0028999897   2    1000025    2
    0.0021049359   2    1000024    1
    0.0011870491   2    1000022    2

DECAY 2000004  151.9289
    0.92708355   2    1000021    4
    0.044958364   2    1000022    4
    0.027822744   2    1000025    4
    0.0001226447   2    1000023    4

DECAY 1000004  200.58521
    0.70589119   2    1000021    4
    0.19161734   2    1000037    3
    0.096106807   2    1000035    4
    0.0029025532   2    1000025    4
    0.0022073251   2    1000024    3
    0.0011884337   2    1000022    4

DECAY 1000006  35.002667
    0.45725062   2    1000024    5
    0.25170732   2    1000023    6
    0.21397357   2    1000025    6
    0.07441914   2    1000022    6
    0.0019372245   2    1000005    24
    0.00030383476   3    1000022    24    5
    0.0002769649   2    1000022    4
    0.00011305026   2    1000037    5

DECAY 2000006  88.354884
    0.26991973   2    1000024    5
    0.26001021   2    1000006    23
    0.18145349   2    1000023    6
    0.099912374   2    1000022    6
    0.093843632   2    1000025    6
    0.050578913   2    2000005    24
    0.019712735   2    1000006    25
    0.013605851   2    1000037    5
    0.0055951006   2    1000005    24
    0.0053679601   2    1000035    6

DECAY 1000024  0.00021518279
    0.33404556   3    1000022   -1    2
    0.33266994   3    1000022   -3    4
    0.11135734   3    1000022   -13    14
    0.11135723   3    1000022   -11    12
    0.11056993   3    1000022   -15    16

DECAY 1000037  10.610823
    0.24504792   2    1000023    24
    0.2445154   2    1000024    25
    0.24350822   2    1000024    23
    0.17603027   2    1000025    24
    0.071671207   2    1000022    24
    0.0058031479   3    1000023   -5    6
    0.0055918046   3    1000024    6   -6
    0.0045588432   3    1000025   -5    6
    0.0020778245   3    1000022   -5    6
    0.0010220629   3    1000024    5   -5

DECAY 1000022 -1


DECAY 1000023  0.00027348901
    0.20228695   3    1000022    12   -12
    0.15124205   3    1000022    1   -1
    0.15123521   3    1000022    3   -3
    0.14305896   3    1000022    5   -5
    0.11795626   3    1000022    2   -2
    0.11683562   3    1000022    4   -4
    0.034091206   3    1000022    11   -11
    0.034090435   3    1000022    13   -13
    0.033581707   3    1000022    15   -15
    0.015611847   2    1000022    22

DECAY 1000025  3.4973672e-05
    0.13904989   3    1000024    1   -2
    0.13904989   3   -1000024   -1    2
    0.13691692   3    1000024    3   -4
    0.13691692   3   -1000024   -3    4
    0.046348175   3    1000024    11   -12
    0.046348175   3   -1000024   -11    12
    0.046345533   3    1000024    13   -14
    0.046345533   3   -1000024   -13    14
    0.045009493   3    1000024    15   -16
    0.045009493   3   -1000024   -15    16
    0.025560773   2    1000023    22
    0.024173207   3    1000023    12   -12
    0.01807788   3    1000023    1   -1
    0.018072251   3    1000023    3   -3
    0.014099067   3    1000023    2   -2
    0.013221466   3    1000023    4   -4
    0.0099909724   3    1000023    5   -5
    0.0095962507   3    1000022    5   -5
    0.0065155581   3    1000022    12   -12
    0.0047385214   3    1000022    1   -1
    0.0047384999   3    1000022    3   -3
    0.0040831693   3    1000023    11   -11
    0.0040813746   3    1000023    13   -13
    0.0037118255   3    1000022    2   -2
    0.0037028697   3    1000022    4   -4
    0.0035714146   3    1000023    15   -15
    0.0023888804   2    1000022    22
    0.0010488052   3    1000022    15   -15
    0.00064470619   3    1000022    13   -13
    0.0006425077   3    1000022    11   -11

DECAY 1000035  12.326011
    0.21374223   2    1000024   -24
    0.21374223   2   -1000024    24
    0.18047396   2    1000023    25
    0.16592845   2    1000023    23
    0.11676027   2    1000025    25
    0.046501085   2    1000022    25
    0.031579087   2    1000025    23
    0.015880197   2    1000022    23
    0.0059672058   3    1000024    5   -6
    0.0059672058   3   -1000024   -5    6
    0.0015393551   3    1000023    6   -6
    0.00096900489   3    1000025    6   -6
    0.00047304747   3    1000022    6   -6
    0.00013591477   3    1000023    5   -5

DECAY 1000021  265.85686
    0.15471398   2    1000005   -5
    0.15471398   2   -1000005    5
    0.10881621   2    1000006   -6
    0.10881621   2   -1000006    6
    0.10728228   2    2000006   -6
    0.10728228   2   -2000006    6
    0.10573024   2    2000005   -5
    0.10573024   2   -2000005    5
    0.02333245   2    1000006   -4
    0.02333245   2   -1000006    4
    0.00010237324   3    1000035    6   -6

DECAY 25  0.0036468496
    0.5996398   2   -5    5
    0.20153418   2   -24    24
    0.072509345   2    21    21
    0.068911328   2   -15    15
    0.029665145   2   -4    4
    0.02355421   2    23    23
    0.002362523   2    22    22
    0.0013581243   2    22    23
    0.00023895936   2   -13    13
    0.00022560358   2   -3    3
    6.2377069e-07   2   -1    1
    1.5287665e-07   2   -2    2
    5.3720939e-09   2   -11    11

DECAY 35  102.27405
    0.54835702   2   -5    5
    0.11768852   2   -15    15
    0.082502341   2   -1000024    1000037
    0.082502341   2   -1000037    1000024
    0.044705821   2    1000023    1000035
    0.021851617   2   -2000005    1000005
    0.021851617   2   -1000005    2000005
    0.020635821   2    1000025    1000035
    0.01783329   2    1000022    1000035
    0.011060535   2    1000022    1000022
    0.009129273   2    1000022    1000023
    0.0065887632   2    1000023    1000025
    0.0054361258   2    1000025    1000025
    0.0045640946   2   -1000006    1000006
    0.002431776   2   -1000024    1000024
    0.00079811511   2    1000022    1000025
    0.0005892359   2   -6    6
    0.00041141849   2   -13    13
    0.00033966361   2    1000023    1000023
    0.00024624801   2   -3    3
    0.0001324824   2   -2000006    1000006
    0.0001324824   2   -1000006    2000006
    8.3949253e-05   2   -1000005    1000005
    6.7838718e-05   2   -1000037    1000037
    3.4153318e-05   2    1000035    1000035
    1.1565877e-05   2   -1000015    1000015
    1.1032565e-05   2    25    25
    1.8295906e-06   2    21    21
    6.8076903e-07   2   -1    1
    1.6651639e-07   2    23    23
    4.8427639e-08   2   -24    24
    2.2442521e-08   2   -1000011    1000011
    2.2144723e-08   2   -1000013    1000013
    2.1397357e-08   2    22    23
    1.0348279e-08   2   -4    4
    9.240123e-09   2   -11    11
    8.9514173e-09   2    22    22
    7.277542e-10   2   -2000013    1000013
    7.277542e-10   2   -1000013    2000013
    5.3344807e-14   2   -2    2
    1.7022261e-14   2   -2000011    1000011
    1.7022261e-14   2   -1000011    2000011

DECAY 36  97.18005
    0.53335942   2   -5    5
    0.11451993   2   -15    15
    0.086848847   2   -1000024    1000037
    0.086848847   2   -1000037    1000024
    0.039938905   2    1000023    1000035
    0.025779648   2    1000025    1000035
    0.02309081   2   -2000005    1000005
    0.02309081   2   -1000005    2000005
    0.021866772   2    1000022    1000035
    0.011406636   2    1000022    1000022
    0.010007067   2    1000022    1000023
    0.0068749231   2    1000023    1000025
    0.0056497245   2    1000025    1000025
    0.0027409901   2   -2000006    1000006
    0.0027409901   2   -1000006    2000006
    0.0026736677   2   -1000024    1000024
    0.00080068438   2    1000022    1000025
    0.00047288942   2   -6    6
    0.00041970408   2    1000023    1000023
    0.00040034449   2   -13    13
    0.00023960285   2   -3    3
    0.00014315283   2   -1000037    1000037
    7.2163198e-05   2    1000035    1000035
    1.2471208e-05   2    21    21
    6.6239996e-07   2   -1    1
    2.9160602e-07   2    23    25
    1.9648066e-08   2    22    23
    8.9913588e-09   2   -11    11
    8.9779093e-09   2   -4    4
    1.9381466e-09   2    22    22
    7.6481772e-10   2   -2000013    1000013
    7.6481772e-10   2   -1000013    2000013
    5.5925574e-13   2    23    35
    4.6283405e-14   2   -2    2
    1.7889157e-14   2   -2000011    1000011
    1.7889157e-14   2   -1000011    2000011
    4.4335349e-38   2    25    25

DECAY 37  112.62797
    0.57956679   2   -5    6
    0.11565088   2   -15    16
    0.075154119   2    1000024    1000035
    0.074776228   2    1000023    1000037
    0.041413742   2    1000025    1000037
    0.035368568   2    1000022    1000037
    0.029384011   2   -1000005    2000006
    0.015463577   2    1000022    1000024
    0.015329667   2    1000024    1000025
    0.013760533   2   -1000005    1000006
    0.0024038673   2   -2000005    1000006
    0.00085884628   2   -5    4
    0.00040886713   2   -13    14
    0.00023245997   2    1000023    1000024
    0.00020428859   2   -3    4
    9.5712943e-06   2   -3    2
    6.1330487e-06   2   -5    2
    5.9275485e-06   2   -1000015    1000016
    1.030785e-06   2   -3    6
    5.6663067e-07   2   -1    2
    2.5153433e-07   2    24    25
    3.3394171e-08   2   -1    6
    2.6775793e-08   2   -1    4
    9.5634448e-09   2   -11    12
    1.3118852e-09   2   -1000013    1000014
    6.9916005e-10   2    1000035    1000037
    4.0682286e-14   2    24    35
    3.0684674e-14   2   -1000011    1000012

DECAY 6  2.43
    1   2    5    24

DECAY 15 -1
