BLOCK SPINFO
   1   SPheno
   2   v4.0.5be

BLOCK SPHENOINFO
   1   2
   2   2

BLOCK MODSEL
   1   0

BLOCK MINPAR
   3    52.179443
   4   -1

BLOCK EXTPAR
   0    4058.3821
   1   -1865.4753
   2   -920.09212
   3    4000
   11    4860.5718
   12    1648.4254
   13    706.29293
   23   -343.16626
   25    51.884228
   26    2000
   31    237.04021
   32    237.04021
   33    2000
   34    728.41809
   35    728.41809
   36    2000
   41    4000
   42    4000
   43    4000
   44    4000
   45    4000
   46    4000
   47    4000
   48    4000
   49    4000

BLOCK SMINPUTS
   1    127.90897
   2    1.1663787e-05
   3    0.1184
   4    91.1876
   5    4.18
   6    173.2
   7    1.777
   8    0
   11    0.00051099893
   12    0
   13    0.10565837
   14    0
   21    0.005
   22    0.0025
   23    0.095
   24    1.27

BLOCK GAUGE Q=  4058.3821
   1    0.35536298
   2    0.66519887
   3    1.219778

BLOCK YU Q=  4058.3821
   1   1    8.3859293e-06
   2   2    0.0042600521
   3   3    1.0130876

BLOCK YD Q=  4058.3821
   1   1    0.00087431273
   2   2    0.016611942
   3   3    0.86704426

BLOCK YE Q=  4058.3821
   1   1    0.00015257396
   2   2    0.031547457
   3   3    0.53057633

BLOCK AU Q=  4058.3821
   1   1    0
   2   2    0
   3   3    4860.5718

BLOCK AD Q=  4058.3821
   1   1    0
   2   2    0
   3   3    1648.4254

BLOCK AE Q=  4058.3821
   1   1    0
   2   2    0
   3   3    706.29292

BLOCK MSOFT Q=  4058.3821
   1   -1865.4753
   2   -920.09212
   3    4000
   21    4368020
   22    234635.76
   31    237.04021
   32    237.04021
   33    2000
   34    728.41809
   35    728.41809
   36    2000
   41    4000
   42    4000
   43    4000
   44    4000
   45    4000
   46    4000
   47    4000
   48    4000
   49    4000

BLOCK MASS
   6    173.2
   23    91.1876
   24    80.429995
   15    1.777
   25    124.97325
   35    1998.2342
   36    2000
   37    2000.452
   1000001    4155.7875
   2000001    4143.4705
   1000002    4155.0243
   2000002    4144.7852
   1000003    4155.7789
   2000003    4143.4521
   1000004    4155.015
   2000004    4144.7843
   1000005    4074.4112
   2000005    4094.5215
   1000006    3981.8619
   2000006    4136.3728
   1000011    300.83054
   2000011    756.68877
   1000012    289.62521
   1000013    300.68059
   2000013    756.57904
   1000014    289.50324
   1000015    1977.3368
   2000015    1998.5858
   1000016    1992.8379
   1000021    4249.2302
   1000022   -350.64854
   1000023    359.47665
   1000025   -963.65682
   1000035   -1832.9631
   1000024    353.818
   1000037    963.89417
   1000039    1e-09

BLOCK ALPHA
      -0.019290707

BLOCK HMIX Q=  4058.3821
   1   -343.16626
   2    51.884228
   3    242.92109
   4    4000000

BLOCK STOPMIX
   1   1   -0.62784607
   1   2    0.77833753
   2   1   -0.77833753
   2   2   -0.62784607

BLOCK SBOTMIX
   1   1   -0.96598088
   1   2    0.25861351
   2   1   -0.25861351
   2   2   -0.96598088

BLOCK STAUMIX
   1   1   -0.44224356
   1   2    0.896895
   2   1   -0.896895
   2   2   -0.44224356

BLOCK NMIX
   1   1   -0.021363614
   1   2    0.093661791
   1   3    0.70961237
   1   4   -0.69801243
   2   1    0.014059923
   2   2   -0.042222199
   2   3    0.70360222
   2   4    0.70919921
   3   1    0.0047891436
   3   2    0.99470601
   3   3   -0.036939673
   3   4    0.095773057
   4   1   -0.99966143
   4   2    0.0021699294
   4   3   -0.0054460454
   4   4    0.025350608

BLOCK UMIX
   1   1   -0.05260282
   1   2   -0.99861551
   2   1   -0.99861551
   2   2    0.05260282

BLOCK VMIX
   1   1    0.13637592
   1   2    0.99065716
   2   1    0.99065716
   2   2   -0.13637592

BLOCK HIGGSBOUNDSINPUTHIGGSCOUPLINGSFERMIONS
       0, 2691.9731,3,36,15,15

BLOCK HIGGSBOUNDSINPUTHIGGSCOUPLINGSBOSONS
       0,4,36,21,21,23

BLOCK SPHENOLOWENERGY
   1    0.00032629258
   2    1.5894948e-06
   3    3.5252202e-05
   4    4.0432508e-15
   5    1.7271255e-10
   6    3.5548329e-08
   7    1.4020184e-13
   8    5.989035e-09
   9    1.2479528e-06
   10    9.3413726e-05
   11    0.96492803
   12    0.54180778
   13    19.350211
   14    0
   15    0
   16    0.0021568744
   17    2.2816584e-15
   18    2.4798762e-11
   19    8.2902613e-11
   20    1.4858684e-14
   21    6.3527776e-10
   22    5.7015088e-08
   23    0
   24    0
   25    0
   26    0
   27    0
   28    0
   29    0
   30    0
   31    0
   39    9.8279856e-05
   40    0
   41    0
   42    0

BLOCK FWCOEF Q=  160
   305   4422   0   0   -0.18881911
   305   4422   0   2   -0.19382499
   305   4322   0   2   -0.00010592499
   305   6421   0   0   -0.095227835
   305   6421   0   2   -0.1071765
   305   6321   0   2   -0.00024788185
   3051111   4133   0   0    1.6281577
   3051111   4133   0   2    1.6283625
   3051111   4233   0   2    0.00036213484
   3051111   4137   0   0   -4.4508498
   3051111   4137   0   2   -4.4491913
   3051111   4237   0   2   -0.0026740223
   3051313   4133   0   0    1.6281577
   3051313   4133   0   2    1.6283595
   3051313   4233   0   2    0.00036212985
   3051313   4137   0   0   -4.4508498
   3051313   4137   0   2   -4.4491943
   3051313   4237   0   2   -0.002674023
   3051212   4137   0   0    1.5053501
   3051212   4137   0   2    1.5050028
   3051212   4237   0   2    0.00057803412
   3051414   4137   0   0    1.5053501
   3051414   4137   0   2    1.5050028
   3051414   4237   0   2    0.0005780349
   3051616   4137   0   0    1.5053501
   3051616   4137   0   2    1.5050034
   3051616   4237   0   2    0.00057825394

BLOCK IMFWCOEF Q=  160
   305   4422   0   0    3.8583376e-07
   305   4422   0   2    1.0417834e-05
   305   4322   0   2    2.6180262e-06
   305   6421   0   0    3.3049213e-07
   305   6421   0   2    1.0401435e-05
   305   6321   0   2    1.2406929e-06
   3051111   4133   0   2   -2.2202727e-07
   3051111   4233   0   2    8.8055535e-06
   3051111   4137   0   2   -2.152715e-07
   3051111   4237   0   2   -6.5031918e-05
   3051313   4133   0   2   -2.2203084e-07
   3051313   4233   0   2    8.8055291e-06
   3051313   4137   0   2   -2.1531226e-07
   3051313   4237   0   2   -6.5031995e-05
   3051212   4137   0   2    2.4825205e-07
   3051212   4237   0   2    1.405772e-05
   3051414   4137   0   2    2.482489e-07
   3051414   4237   0   2    1.405772e-05
   3051616   4137   0   2    2.585462e-07
   3051616   4237   0   2    1.4057718e-05

DECAY 23  2.4952


DECAY 24  2.085


DECAY 1000011  4.6423384e-07
    0.34295843   3    1000012    1   -2
    0.32207015   3    1000012    3   -4
    0.11426891   3    1000012    13   -14
    0.11331314   3    1000012    11   -12
    0.10118236   3    1000012    15   -16
    0.006081706   2    1000039    11

DECAY 2000011  0.0015214102
    0.70339284   2    1000022    11
    0.29626103   2    1000023    11
    0.00018684985   2    1000039    11
    0.00014023725   2   -1000024    12

DECAY 1000013  4.5843969e-07
    0.34299817   3    1000014    1   -2
    0.32200584   3    1000014    3   -4
    0.11433286   3    1000014    11   -12
    0.11327231   3    1000014    13   -14
    0.10113249   3    1000014    15   -16
    0.0061432351   2    1000039    13

DECAY 2000013  0.020974546
    0.43476191   2   -1000024    14
    0.27276489   2    1000022    13
    0.23340528   2    1000023    13
    0.05905438   2    1000013    25

DECAY 1000015  22.186655
    0.40000235   2   -1000024    16
    0.26104012   2    1000022    15
    0.21976059   2    1000023    15
    0.074425039   2   -1000037    16
    0.03727747   2    1000025    15
    0.007492871   2    1000035    15

DECAY 2000015  24.86308
    0.34828364   2   -1000037    16
    0.21932991   2    1000023    15
    0.19257469   2    1000022    15
    0.17392523   2    1000025    15
    0.061795381   2   -1000024    16
    0.0040896555   2    1000035    15

DECAY 1000012  2.3352556e-09
    1   2    1000039    12

DECAY 1000014  2.3303426e-09
    1   2    1000039    14

DECAY 1000016  26.106327
    0.41155539   2    1000024    15
    0.38774295   2    1000037    15
    0.1941475   2    1000025    16
    0.0034834448   2    1000022    16
    0.0022914783   2    1000035    16
    0.00077784185   2    1000023    16

DECAY 2000001  1.4985197
    0.99795646   2    1000035    1
    0.00093392382   2    1000039    1
    0.00071537037   2    1000022    1
    0.00032108887   2    1000023    1

DECAY 1000001  49.533476
    0.65940711   2   -1000037    2
    0.32658468   2    1000025    1
    0.0077781823   2    1000035    1
    0.0034589038   2    1000022    1
    0.0020141267   2   -1000024    2
    0.00072832198   2    1000023    1

DECAY 2000003  1.5432051
    0.96905109   2    1000035    3
    0.014486029   2   -1000024    4
    0.007991021   2    1000022    3
    0.0074797424   2    1000023    3
    0.00090686075   2    1000039    3

DECAY 1000003  49.557242
    0.65908972   2   -1000037    4
    0.32642776   2    1000025    3
    0.0077744281   2    1000035    3
    0.003685156   2    1000022    3
    0.0020424119   2   -1000024    4
    0.00095185743   2    1000023    3

DECAY 1000005  185.47297
    0.42999435   2   -1000024    6
    0.17040343   2    1000022    5
    0.16220482   2   -1000037    6
    0.15724946   2    1000023    5
    0.076912037   2    1000025    5
    0.0022278578   2    1000035    5
    0.0010011101   2    1000006   -24

DECAY 2000005  126.62184
    0.47675593   2   -1000024    6
    0.24025955   2    1000023    5
    0.23041353   2    1000022    5
    0.027551459   2   -1000037    6
    0.013264937   2    1000025    5
    0.011210523   2    1000035    5
    0.00053366067   2    1000006   -24

DECAY 2000002  5.9931327
    0.99873885   2    1000035    2
    0.00069483373   2    1000022    2
    0.00030073114   2    1000023    2
    0.0002338885   2    1000039    2

DECAY 1000002  49.578467
    0.64820382   2    1000037    1
    0.32733542   2    1000025    2
    0.013524085   2    1000024    1
    0.007398612   2    1000035    2
    0.0029361898   2    1000022    2
    0.0005732492   2    1000023    2

DECAY 2000004  5.9960722
    0.99824833   2    1000035    4
    0.00081438797   2    1000022    4
    0.00042425004   2    1000023    4
    0.00024137324   2    1000024    3
    0.00023377351   2    1000039    4

DECAY 1000004  49.602213
    0.6478929   2    1000037    3
    0.32717789   2    1000025    4
    0.01396826   2    1000024    3
    0.0073950547   2    1000035    4
    0.0029493266   2    1000022    4
    0.0005879687   2    1000023    4

DECAY 1000006  179.72545
    0.43286607   2    1000024    5
    0.23298805   2    1000022    6
    0.23191552   2    1000023    6
    0.03694928   2    1000037    5
    0.02806193   3    1000022    24    5
    0.019834704   2    1000025    6
    0.01719308   2    1000035    6
    0.00015481566   2    1000022    4

DECAY 2000006  184.22798
    0.33776248   2    1000024    5
    0.21763245   2    1000023    6
    0.20346841   2    1000022    6
    0.14416085   2    1000037    5
    0.07369913   2    1000025    6
    0.016176628   2    1000035    6
    0.0064687069   2    1000006    23
    0.00062386061   2    1000006    25

DECAY 1000024  0.007365888
    0.48186677   2    1000014   -13
    0.42806314   2    1000012   -11
    0.045151748   2   -1000013    14
    0.044917849   2   -1000011    12

DECAY 1000037  22.020273
    0.15656146   2   -1000013    14
    0.15652778   2   -1000011    12
    0.15651012   2    1000014   -13
    0.15648316   2    1000012   -11
    0.094415006   2    1000022    24
    0.093550122   2    1000023    24
    0.092469105   2    1000024    23
    0.090221051   2    1000024    25
    0.001220526   3    1000023   -5    6
    0.0012023903   3    1000022   -5    6
    0.00081429067   3    1000024    6   -6

DECAY 1000022  0.0051496687
    0.16767408   2    1000014   -14
    0.16767408   2   -1000014    14
    0.16706946   2    1000012   -12
    0.16706946   2   -1000012    12
    0.094622087   2    1000013   -13
    0.094622087   2   -1000013    13
    0.070634186   2    1000011   -11
    0.070634186   2   -1000011    11

DECAY 1000023  0.0016273907
    0.15079732   2    1000013   -13
    0.15079732   2   -1000013    13
    0.14848835   2    1000014   -14
    0.14848835   2   -1000014    14
    0.14802677   2    1000012   -12
    0.14802677   2   -1000012    12
    0.052601158   2    1000011   -11
    0.052601158   2   -1000011    11

DECAY 1000025  23.423998
    0.091939856   2    1000024   -24
    0.091939856   2   -1000024    24
    0.075043645   2    1000023    23
    0.073761248   2    1000014   -14
    0.073761248   2   -1000014    14
    0.073748914   2    1000012   -12
    0.073748914   2   -1000012    12
    0.073365307   2    1000013   -13
    0.073365307   2   -1000013    13
    0.073348978   2    1000011   -11
    0.073348978   2   -1000011    11
    0.068327008   2    1000022    25
    0.066599294   2    1000023    25
    0.014370254   2    1000022    23
    0.0013684029   3    1000024    5   -6
    0.0013684029   3   -1000024   -5    6
    0.00027889844   3    1000022    6   -6
    0.00026877482   3    1000023    6   -6

DECAY 1000035  26.87059
    0.11787523   2    2000013   -13
    0.11787523   2   -2000013    13
    0.11786117   2    2000011   -11
    0.11786117   2   -2000011    11
    0.044410537   2    1000024   -24
    0.044410537   2   -1000024    24
    0.04103708   2    1000014   -14
    0.04103708   2   -1000014    14
    0.04103531   2    1000012   -12
    0.04103531   2   -1000012    12
    0.040213063   2    1000013   -13
    0.040213063   2   -1000013    13
    0.040210832   2    1000011   -11
    0.040210832   2   -1000011    11
    0.033075269   2    1000023    23
    0.029215352   2    1000022    25
    0.028286588   2    1000023    25
    0.013376223   2    1000022    23
    0.0016537925   3    1000024    5   -6
    0.0016537925   3   -1000024   -5    6
    0.001592645   2    1000037   -24
    0.001592645   2   -1000037    24
    0.0014784434   2    1000025    25
    0.00096787456   3    1000023    6   -6
    0.00095694586   3    1000022    6   -6
    0.0001486315   2    1000025    23

DECAY 1000021  7.1498112
    0.16593713   2    1000006   -6
    0.16593713   2   -1000006    6
    0.057807839   2    1000005   -5
    0.057807839   2   -1000005    5
    0.044322417   2    2000005   -5
    0.044322417   2   -2000005    5
    0.026094884   2    1000006   -4
    0.026094884   2   -1000006    4
    0.025767556   3    1000023    6   -6
    0.024063887   3    1000022    6   -6
    0.021263232   2    2000003   -3
    0.021263232   2   -2000003    3
    0.021255945   2    2000001   -1
    0.021255945   2   -2000001    1
    0.020737267   2    2000002   -2
    0.020737267   2   -2000002    2
    0.020736109   2    2000004   -4
    0.020736109   2   -2000004    4
    0.017328338   3    1000024    5   -6
    0.017328338   3   -1000024   -5    6
    0.016913643   2    1000004   -4
    0.016913643   2   -1000004    4
    0.016911851   2    1000002   -2
    0.016911851   2   -1000002    2
    0.016645006   2    1000003   -3
    0.016645006   2   -1000003    3
    0.016641967   2    1000001   -1
    0.016641967   2   -1000001    1
    0.0077276537   3    1000025    6   -6
    0.0067170111   3    1000037    5   -6
    0.0067170111   3   -1000037   -5    6
    0.0013479469   2    1000023    21
    0.0011690439   3    1000035    6   -6
    0.0010610685   2    1000022    21
    0.00022202883   2    1000039    21

DECAY 25  0.0038994362
    0.57528532   2   -5    5
    0.22666347   2   -24    24
    0.072121032   2    21    21
    0.066131865   2   -15    15
    0.028135824   2   -4    4
    0.027424038   2    23    23
    0.0023105563   2    22    22
    0.0014819322   2    22    23
    0.00022930811   2   -13    13
    0.00021590753   2   -3    3
    5.9696117e-07   2   -1    1
    1.4499048e-07   2   -2    2
    5.1551245e-09   2   -11    11

DECAY 35  98.472048
    0.7387892   2   -5    5
    0.1188023   2   -15    15
    0.04578676   2   -1000024    1000037
    0.04578676   2   -1000037    1000024
    0.028450928   2    1000023    1000025
    0.017338649   2    1000022    1000025
    0.0027576801   2   -1000024    1000024
    0.00079341177   2    1000022    1000022
    0.00049787738   2   -13    13
    0.00034683561   2   -6    6
    0.0002708757   2   -3    3
    0.00018636494   2    1000023    1000023
    0.00013827017   2    1000022    1000023
    2.2459621e-05   2   -1000037    1000037
    1.7272786e-05   2    21    21
    1.115779e-05   2    1000025    1000025
    1.39413e-06   2    25    25
    7.4884292e-07   2   -1    1
    3.1930714e-07   2    23    23
    1.694946e-07   2   -24    24
    6.3278174e-08   2    22    23
    4.9006178e-08   2   -1000011    1000011
    4.8203639e-08   2   -1000013    1000013
    2.2323826e-08   2   -2000011    2000011
    2.2050952e-08   2   -2000013    2000013
    1.8785826e-08   2    22    22
    1.11834e-08   2   -11    11
    4.7209105e-09   2   -4    4
    1.8306254e-09   2   -2000013    1000013
    1.8306254e-09   2   -1000013    2000013
    4.2821222e-14   2   -2000011    1000011
    4.2821222e-14   2   -1000011    2000011
    2.4338064e-14   2   -2    2

DECAY 36  92.234722
    0.73038264   2   -5    5
    0.11745749   2   -15    15
    0.04860353   2   -1000024    1000037
    0.04860353   2   -1000037    1000024
    0.03043061   2    1000022    1000025
    0.018289209   2    1000023    1000025
    0.0034322985   2   -1000024    1000024
    0.0010317387   2    1000022    1000022
    0.00049223481   2   -13    13
    0.00034452344   2   -6    6
    0.00026778147   2   -3    3
    0.00021585136   2   -1000037    1000037
    0.00020942012   2    1000023    1000023
    0.00010695557   2    1000025    1000025
    0.00010499591   2    1000022    1000023
    2.5698157e-05   2    21    21
    7.4029008e-07   2   -1    1
    4.6098654e-07   2    23    25
    1.6981526e-07   2    22    23
    1.0519921e-07   2    22    22
    1.1056686e-08   2   -11    11
    4.54047e-09   2   -4    4
    1.9130158e-09   2   -2000013    1000013
    1.9130158e-09   2   -1000013    2000013
    2.0435921e-13   2    23    35
    4.474561e-14   2   -2000011    1000011
    4.474561e-14   2   -1000011    2000011
    2.3410296e-14   2   -2    2
    3.9670561e-37   2    25    25

DECAY 37  96.937181
    0.74290439   2   -5    6
    0.1123651   2   -15    16
    0.048312944   2    1000022    1000037
    0.047391659   2    1000024    1000025
    0.046547993   2    1000023    1000037
    0.0011054175   2   -5    4
    0.00062840197   2    1000023    1000024
    0.0003972511   2   -13    14
    0.00024918224   2   -3    4
    7.575846e-05   2    1000022    1000024
    1.1615252e-05   2   -3    2
    7.8938257e-06   2   -5    2
    8.0609295e-07   2   -3    6
    6.9135308e-07   2   -1    2
    4.3954361e-07   2    24    25
    1.9458364e-07   2   -1000011    1000012
    1.9343951e-07   2   -1000013    1000014
    3.2319195e-08   2   -1    4
    2.0271063e-08   2   -1    6
    9.2917446e-09   2   -11    12
    3.850129e-09   2   -2000013    1000014
    1.3176375e-09   2    1000025    1000037
    7.5294201e-13   2    24    35
    9.0067881e-14   2   -2000011    1000012

DECAY 6  2.43
    1   2    5    24

DECAY 15 -1


DECAY 1000039 -1
