BLOCK SPINFO
   1   SPheno
   2   v4.0.5be

BLOCK SPHENOINFO
   1   2
   2   2

BLOCK MODSEL
   1   0

BLOCK MINPAR
   3    40.648015
   4    1

BLOCK EXTPAR
   0    1193.1476
   1   -24.625926
   2   -144.05614
   3    3000
   11    2057.7311
   12    8.2488333
   13   -922.23616
   23    182.22633
   25    39.70011
   26    1770.2073
   31    369.25577
   32    369.25577
   33    1606.6835
   34    1838.7372
   35    1838.7372
   36    1549.5558
   41    5000
   42    5000
   43    1847.9987
   44    5000
   45    5000
   46    907.1532
   47    5000
   48    5000
   49    1736.7505

BLOCK SMINPUTS
   1    127.90897
   2    1.1663787e-05
   3    0.1184
   4    91.1876
   5    4.18
   6    173.2
   7    1.777
   8    0
   11    0.00051099893
   12    0
   13    0.10565837
   14    0
   21    0.005
   22    0.0025
   23    0.095
   24    1.27

BLOCK GAUGE Q=  1193.1476
   1    0.35536298
   2    0.66519887
   3    1.219778

BLOCK YU Q=  1193.1476
   1   1    8.3870316e-06
   2   2    0.004260612
   3   3    1.0132208

BLOCK YD Q=  1193.1476
   1   1    0.00066908337
   2   2    0.012712584
   3   3    0.66352104

BLOCK YE Q=  1193.1476
   1   1    0.00011675994
   2   2    0.024142252
   3   3    0.40603297

BLOCK AU Q=  1193.1476
   1   1    0
   2   2    0
   3   3    2057.7311

BLOCK AD Q=  1193.1476
   1   1    0
   2   2    0
   3   3    8.2488335

BLOCK AE Q=  1193.1476
   1   1    0
   2   2    0
   3   3   -922.23616

BLOCK MSOFT Q=  1193.1476
   1   -24.625926
   2   -144.05614
   3    3000
   21    3129742.6
   22   -8597.9675
   31    369.25577
   32    369.25577
   33    1606.6835
   34    1838.7372
   35    1838.7372
   36    1549.5558
   41    5000
   42    5000
   43    1847.9987
   44    5000
   45    5000
   46    907.1532
   47    5000
   48    5000
   49    1736.7505

BLOCK MASS
   6    173.2
   23    91.1876
   24    80.429995
   15    1.777
   25    121.86232
   35    1769.2864
   36    1770.2073
   37    1771.8153
   1000001    5017.1101
   2000001    5006.2169
   1000002    5016.6561
   2000002    5007.674
   1000003    5017.1155
   2000003    5006.2264
   1000004    5016.6614
   2000004    5007.6752
   1000005    1720.8847
   2000005    1824.1168
   1000006    774.1682
   2000006    1838.8785
   1000011    373.00493
   2000011    1840.8123
   1000012    363.93283
   1000013    372.99085
   2000013    1840.8004
   1000014    363.92176
   1000015    1546.8563
   2000015    1608.3103
   1000016    1605.6192
   1000021    3169.6298
   1000022   -23.747912
   1000023   -121.11774
   1000025    197.67413
   1000035   -233.05228
   1000024    121.86431
   1000037    236.53423

BLOCK ALPHA
      -0.024763362

BLOCK HMIX Q=  1193.1476
   1    182.22633
   2    39.70011
   3    244.18535
   4    3133634

BLOCK STOPMIX
   1   1   -0.11832895
   1   2    0.99297445
   2   1   -0.99297445
   2   2   -0.11832895

BLOCK SBOTMIX
   1   1    0.046272842
   1   2    0.99892884
   2   1   -0.99892884
   2   2    0.046272842

BLOCK STAUMIX
   1   1    0.074947542
   1   2    0.99718748
   2   1   -0.99718748
   2   2    0.074947542

BLOCK NMIX
   1   1   -0.96848227
   1   2    0.012072625
   1   3   -0.24736051
   1   4   -0.026629325
   2   1   -0.15295482
   2   2   -0.7655824
   2   3    0.52501018
   2   4    0.3388993
   3   1    0.14751058
   3   2   -0.16745455
   3   3   -0.66267609
   3   4    0.71488461
   4   1   -0.12995207
   4   2    0.62104494
   4   3    0.47332599
   4   4    0.61104676

BLOCK UMIX
   1   1   -0.67421172
   1   2    0.73853812
   2   1   -0.73853812
   2   2   -0.67421172

BLOCK VMIX
   1   1    0.87917077
   1   2    0.47650683
   2   1    0.47650683
   2   2   -0.87917077

BLOCK HIGGSBOUNDSINPUTHIGGSCOUPLINGSFERMIONS
       0, 1576.0987,3,36,15,15

BLOCK HIGGSBOUNDSINPUTHIGGSCOUPLINGSBOSONS
       0,4,36,21,21,23

BLOCK SPHENOLOWENERGY
   1    0.00036021597
   2    1.5815801e-06
   3    3.5121127e-05
   4    2.3069642e-15
   5    9.8551119e-11
   6    2.0625018e-08
   7    7.6992476e-14
   8    3.289122e-09
   9    6.9736716e-07
   10    9.3693999e-05
   11    0.96782314
   12    0.54405235
   13    19.426335
   14    0
   15    0
   16    0.0021669331
   17    2.2817593e-15
   18    2.4704598e-11
   19    8.2678155e-11
   20   -5.5788651e-14
   21   -2.3859593e-09
   22   -1.098755e-07
   23    0
   24    0
   25    0
   26    0
   27    0
   28    0
   29    0
   30    0
   31    0
   39    0.00011935498
   40    0
   41    0
   42    0

BLOCK FWCOEF Q=  160
   305   4422   0   0   -0.18881911
   305   4422   0   2   -0.23367786
   305   4322   0   2   -0.00047421508
   305   6421   0   0   -0.095227835
   305   6421   0   2   -0.12505187
   305   6321   0   2   -0.00041755496
   3051111   4133   0   0    1.5841022
   3051111   4133   0   2    1.5855645
   3051111   4233   0   2    0.00010155329
   3051111   4137   0   0   -4.4067943
   3051111   4137   0   2   -4.3921371
   3051111   4237   0   2   -0.00079684891
   3051313   4133   0   0    1.5841022
   3051313   4133   0   2    1.5855547
   3051313   4233   0   2    0.00010155058
   3051313   4137   0   0   -4.4067943
   3051313   4137   0   2   -4.3921469
   3051313   4237   0   2   -0.00079685047
   3051212   4137   0   0    1.5053501
   3051212   4137   0   2    1.5021878
   3051212   4237   0   2    0.00017396168
   3051414   4137   0   0    1.5053501
   3051414   4137   0   2    1.5021878
   3051414   4237   0   2    0.0001739621
   3051616   4137   0   0    1.5053501
   3051616   4137   0   2    1.5021838
   3051616   4237   0   2    0.0001740852

BLOCK IMFWCOEF Q=  160
   305   4422   0   0    3.8579392e-07
   305   4422   0   2   -1.3203221e-05
   305   4322   0   2   -3.5049325e-06
   305   6421   0   0    3.30458e-07
   305   6421   0   2   -5.6819203e-06
   305   6321   0   2   -1.2377638e-06
   3051111   4133   0   2   -7.6617118e-07
   3051111   4233   0   2    3.3698404e-06
   3051111   4137   0   2    3.1148215e-06
   3051111   4237   0   2   -2.6511404e-05
   3051313   4133   0   2   -7.6654734e-07
   3051313   4233   0   2    3.369828e-06
   3051313   4137   0   2    3.1151068e-06
   3051313   4237   0   2   -2.6511467e-05
   3051212   4137   0   2   -1.3160939e-08
   3051212   4237   0   2    5.787947e-06
   3051414   4137   0   2   -1.3148377e-08
   3051414   4237   0   2    5.787947e-06
   3051616   4137   0   2   -8.4323902e-08
   3051616   4237   0   2    5.7880078e-06

DECAY 23  2.4952


DECAY 24  2.085


DECAY 1000011  3.3825342
    0.35209081   2   -1000024    12
    0.27884782   2    1000023    11
    0.1892671   2   -1000037    12
    0.12293186   2    1000022    11
    0.054889551   2    1000035    11
    0.0019728304   2    1000025    11

DECAY 2000011  9.2350717
    0.93910148   2    1000022    11
    0.023229079   2    1000023    11
    0.021293466   2    1000025    11
    0.016375919   2    1000035    11

DECAY 1000013  3.3848431
    0.35183101   2   -1000024    14
    0.27892027   2    1000023    13
    0.18911165   2   -1000037    14
    0.12292104   2    1000022    13
    0.054953896   2    1000035    13
    0.0022620961   2    1000025    13

DECAY 2000013  9.2769641
    0.93499536   2    1000022    13
    0.023752788   2    1000023    13
    0.022184479   2    1000025    13
    0.016801012   2    1000035    13
    0.0012439911   2   -1000024    14
    0.0010116217   2   -1000037    14

DECAY 1000015  17.707163
    0.43376469   2    1000022    15
    0.18992102   2   -1000024    16
    0.12313218   2    1000025    15
    0.10723174   2    1000023    15
    0.092448928   2   -1000037    16
    0.053501445   2    1000035    15

DECAY 2000015  27.75747
    0.2874519   2   -1000037    16
    0.22011455   2    1000023    15
    0.20558123   2   -1000024    16
    0.12513919   2    1000035    15
    0.08813831   2    1000025    15
    0.073574639   2    1000022    15

DECAY 1000012  3.5464386
    0.55044006   2    1000024    11
    0.16704   2    1000023    12
    0.12554086   2    1000022    12
    0.074939596   2    1000035    12
    0.068426286   2    1000037    11
    0.01361321   2    1000025    12

DECAY 1000014  3.5487084
    0.5505813   2    1000024    13
    0.16692555   2    1000023    14
    0.12545668   2    1000022    14
    0.074883051   2    1000035    14
    0.068550029   2    1000037    13
    0.013603396   2    1000025    14

DECAY 1000016  27.893868
    0.4890224   2    1000024    15
    0.19218504   2    1000037    15
    0.11714627   2    1000023    16
    0.11575219   2    1000035    16
    0.070991515   2    1000022    16
    0.014902212   2    1000025    16

DECAY 2000001  144.64139
    0.98068025   2    1000021    1
    0.018123552   2    1000022    1
    0.00045162552   2    1000023    1
    0.0004192856   2    1000025    1
    0.00032497729   2    1000035    1

DECAY 1000001  209.74425
    0.68169656   2    1000021    1
    0.11434306   2   -1000037    2
    0.095604143   2   -1000024    2
    0.057329707   2    1000023    1
    0.04350243   2    1000035    1
    0.0039390071   2    1000025    1
    0.0035850914   2    1000022    1

DECAY 2000003  144.6744
    0.98046332   2    1000021    3
    0.018126239   2    1000022    3
    0.00048206877   2    1000023    3
    0.00046776078   2    1000025    3
    0.00034965299   2    1000035    3

DECAY 1000003  209.76273
    0.68163918   2    1000021    3
    0.11433978   2   -1000037    4
    0.095597754   2   -1000024    4
    0.057345825   2    1000023    3
    0.043515757   2    1000035    3
    0.0039722385   2    1000025    3
    0.0035894713   2    1000022    3

DECAY 1000005  30.249988
    0.28596451   2   -1000024    6
    0.20857638   2    1000025    5
    0.19261833   2   -1000037    6
    0.14861679   2    1000023    5
    0.098022465   2    1000035    5
    0.064479172   2    1000022    5
    0.0017223596   2    1000006   -24

DECAY 2000005  106.71415
    0.34726481   2   -1000037    6
    0.29494718   2    1000006   -24
    0.13509128   2   -1000024    6
    0.077955446   2    1000023    5
    0.068543455   2    1000025    5
    0.065744894   2    1000035    5
    0.010447286   2    1000022    5

DECAY 2000002  153.17938
    0.9270095   2    1000021    2
    0.068473344   2    1000022    2
    0.0017059873   2    1000023    2
    0.0015836149   2    1000025    2
    0.0012275547   2    1000035    2

DECAY 1000002  209.74126
    0.68148071   2    1000021    2
    0.16255402   2    1000024    1
    0.066096116   2    1000023    2
    0.047595911   2    1000037    1
    0.037473121   2    1000035    2
    0.0027080729   2    1000022    2
    0.002092051   2    1000025    2

DECAY 2000004  153.18304
    0.92698771   2    1000021    4
    0.06847172   2    1000022    4
    0.0017072997   2    1000023    4
    0.0015895962   2    1000025    4
    0.0012319105   2    1000035    4

DECAY 1000004  209.75966
    0.68142326   2    1000021    4
    0.16258171   2    1000024    3
    0.066091374   2    1000023    4
    0.047626476   2    1000037    3
    0.03747306   2    1000035    4
    0.0027078438   2    1000022    4
    0.0020962739   2    1000025    4

DECAY 1000006  27.717876
    0.32911215   2    1000037    5
    0.24674246   2    1000025    6
    0.16088246   2    1000024    5
    0.13958571   2    1000035    6
    0.070128669   2    1000023    6
    0.053215119   2    1000022    6
    0.00031965072   2    1000023    4

DECAY 2000006  109.55919
    0.16915673   2    1000024    5
    0.16511081   2    1000006    25
    0.16296819   2    1000025    6
    0.15800654   2    1000035    6
    0.14656607   2    1000006    23
    0.1206617   2    1000037    5
    0.07542296   2    1000023    6
    0.0020458451   2    1000022    6

DECAY 1000024  0.012411307
    0.99997431   2    1000022    24

DECAY 1000037  0.73620275
    0.73250778   2    1000023    24
    0.13862952   2    1000022    24
    0.12872169   2    1000024    23

DECAY 1000022 -1


DECAY 1000023  0.0035564656
    0.99968661   2    1000022    23
    0.0001748566   2    1000022    22

DECAY 1000025  0.12865991
    0.65357885   2    1000022    23
    0.26698145   2    1000022    25
    0.0075658187   3    1000023    12   -12
    0.0070672723   3    1000024    1   -2
    0.0070672723   3   -1000024   -1    2
    0.0070624374   3    1000024    3   -4
    0.0070624374   3   -1000024   -3    4
    0.0055838968   3    1000023    1   -1
    0.0055838383   3    1000023    3   -3
    0.005479543   3    1000023    5   -5
    0.0043555468   3    1000023    2   -2
    0.0043446086   3    1000023    4   -4
    0.0023967993   3    1000024    11   -12
    0.0023967993   3   -1000024   -11    12
    0.0023967979   3    1000024    13   -14
    0.0023967979   3   -1000024   -13    14
    0.0023527793   3    1000024    15   -16
    0.0023527793   3   -1000024   -15    16
    0.0012561461   3    1000023    15   -15
    0.0012493367   3    1000023    13   -13
    0.0012492376   3    1000023    11   -11
    0.00019501206   2    1000023    22

DECAY 1000035  1.2403233
    0.46852939   2    1000024   -24
    0.46852939   2   -1000024    24
    0.03469173   2    1000022    23
    0.025305503   2    1000022    25
    0.0028203634   2    1000023    23

DECAY 1000021  213.7383
    0.19927208   2    1000006   -6
    0.19927208   2   -1000006    6
    0.10911783   2    1000005   -5
    0.10911783   2   -1000005    5
    0.098206383   2    2000005   -5
    0.098206383   2   -2000005    5
    0.092443625   2    2000006   -6
    0.092443625   2   -2000006    6
    0.00084360122   2    1000006   -4
    0.00084360122   2   -1000006    4

DECAY 25  0.0035848785
    0.60472905   2   -5    5
    0.17586237   2   -24    24
    0.07293685   2    21    21
    0.069584444   2   -15    15
    0.029766794   2   -4    4
    0.023186477   2    1000022    1000022
    0.019983996   2    23    23
    0.0022675617   2    22    22
    0.0012134027   2    22    23
    0.000239917   2   -13    13
    0.00022834806   2   -3    3
    6.3136008e-07   2   -1    1
    1.5340409e-07   2   -2    2
    5.3936419e-09   2   -11    11

DECAY 35  58.494904
    0.50603939   2   -5    5
    0.10139705   2   -1000024    1000024
    0.10024002   2   -15    15
    0.057312262   2   -1000024    1000037
    0.057312262   2   -1000037    1000024
    0.036415484   2    1000025    1000035
    0.032731642   2    1000023    1000023
    0.025112316   2    1000035    1000035
    0.024299377   2    1000022    1000023
    0.022851484   2   -1000037    1000037
    0.013435   2    1000023    1000025
    0.009804344   2    1000022    1000025
    0.0058804331   2    1000025    1000025
    0.0040065359   2    1000022    1000022
    0.0015775918   2    1000022    1000035
    0.00060680373   2   -6    6
    0.00034217283   2   -1000006    1000006
    0.00032030078   2   -13    13
    0.00021902318   2   -3    3
    7.5009641e-05   2    1000023    1000035
    1.2011548e-05   2    21    21
    6.0905771e-06   2    25    25
    6.3790276e-07   2    23    23
    6.0554907e-07   2   -1    1
    4.0326284e-07   2   -24    24
    3.7686584e-07   2    22    23
    1.4348601e-07   2   -1000011    1000011
    1.4233114e-07   2   -1000013    1000013
    1.395758e-07   2    22    22
    9.659056e-09   2   -4    4
    7.1949461e-09   2   -11    11
    4.9800447e-14   2   -2    2

DECAY 36  56.376621
    0.49384195   2   -5    5
    0.10214982   2   -1000024    1000024
    0.097827591   2   -15    15
    0.062575586   2   -1000024    1000037
    0.062575586   2   -1000037    1000024
    0.037668302   2    1000025    1000035
    0.032533881   2    1000023    1000023
    0.024644727   2    1000035    1000035
    0.024296554   2    1000022    1000023
    0.020693327   2   -1000037    1000037
    0.016009389   2    1000023    1000025
    0.011520473   2    1000022    1000025
    0.0071447177   2    1000025    1000025
    0.0041188822   2    1000022    1000022
    0.0012306828   2    1000022    1000035
    0.00059562061   2   -6    6
    0.00031258494   2   -13    13
    0.00021373754   2   -3    3
    2.2644682e-05   2    21    21
    2.2229737e-05   2    1000023    1000035
    8.793178e-07   2    23    25
    5.9093511e-07   2   -1    1
    2.0601732e-07   2    22    23
    2.0542192e-08   2    22    22
    9.0581086e-09   2   -4    4
    7.0216313e-09   2   -11    11
    4.670765e-14   2   -2    2
    3.5818236e-39   2    25    25

DECAY 37  57.546866
    0.49911502   2   -5    6
    0.15154187   2    1000023    1000037
    0.10173493   2   -15    16
    0.089374598   2    1000024    1000035
    0.064510942   2    1000024    1000025
    0.044554886   2    1000022    1000024
    0.04253519   2    1000025    1000037
    0.0021011766   2    1000035    1000037
    0.0016726676   2    1000022    1000037
    0.0015343811   2    1000023    1000024
    0.00074381011   2   -5    4
    0.00035966976   2   -13    14
    0.0002021014   2   -3    4
    9.4062034e-06   2   -3    2
    5.3115754e-06   2   -5    2
    1.3891284e-06   2   -3    6
    8.6537823e-07   2    24    25
    5.7043722e-07   2   -1000011    1000012
    5.6879245e-07   2   -1000013    1000014
    5.6082461e-07   2   -1    2
    5.0244226e-08   2   -1    6
    2.6491643e-08   2   -1    4
    8.4127131e-09   2   -11    12
    2.4442567e-12   2    24    35
    2.5409397e-13   2    24    36

DECAY 6  2.43
    1   2    5    24

DECAY 15 -1
