BLOCK DCINFO
   1   SDECAY/HDECAY
   2   1.3b /3.4

BLOCK SPINFO
   1   SOFTSUSY
   2   3.4.0

BLOCK MODSEL
   1   0

BLOCK SMINPUTS
   1    127.90897
   2    1.1663787e-05
   3    0.1184
   4    91.1876
   5    4.18
   6    173.2
   7    1.777

BLOCK MINPAR
   3    12.39

BLOCK EXTPAR
   0   -1
   1    758.22
   2   -3239.21
   3    3376.76
   11    3957.73
   12    2545.95
   13    1886.11
   23    313.81
   26    1178.74
   31    273.73
   32    273.73
   33    679.52
   34    2090.57
   35    2090.57
   36    1430.97
   41    2758.05
   42    2758.05
   43    3584.66
   44    3617.17
   45    3617.17
   46    1698.7
   47    1431.52
   48    1431.52
   49    919.8

BLOCK MASS
   24    80.40593
   25    126.21448
   35    1178.8684
   36    1178.7401
   37    1181.7606
   5    4.8187603
   1000001    2864.8799
   2000001    1530.1361
   1000002    2863.9325
   2000002    3692.2901
   1000003    2864.8799
   2000003    1530.1361
   1000004    2863.9325
   2000004    3692.2901
   1000005    1030.5868
   2000005    3642.0652
   1000006    1753.0831
   2000006    3648.4446
   1000011    350.71782
   2000011    2090.5681
   1000012    341.80313
   1000013    350.71782
   2000013    2090.5681
   1000014    341.80313
   1000015    718.45573
   2000015    1428.9857
   1000016    713.96877
   1000021    3442.152
   1000022    326.16222
   1000023   -327.59726
   1000025    750.84713
   1000035   -3230.9362
   1000024    328.25114
   1000037    3231.1025

BLOCK NMIX
   1   1    0.080620156
   1   2    0.016785195
   1   3    0.70618779
   1   4   -0.70321934
   2   1   -0.026922842
   2   2   -0.017408343
   2   3    0.70700205
   2   4    0.7064844
   3   1    0.9963812
   3   2   -0.0015793362
   3   3   -0.038036012
   3   4    0.075995251
   4   1   -0.00024835912
   4   2    0.99970631
   4   3    0.00039427858
   4   4    0.024229534

BLOCK UMIX
   1   1   -0.00056137149
   1   2    0.99999984
   2   1   -0.99999984
   2   2   -0.00056137149

BLOCK VMIX
   1   1    0.034276925
   1   2    0.99941237
   2   1    0.99941237
   2   2   -0.034276925

BLOCK STOPMIX
   1   1   -0.055653554
   1   2    0.99845014
   2   1   -0.99845014
   2   2   -0.055653554

BLOCK SBOTMIX
   1   1    0.00021823818
   1   2    0.99999998
   2   1   -0.99999998
   2   2    0.00021823818

BLOCK STAUMIX
   1   1    0.99999772
   1   2    0.0021330717
   2   1   -0.0021330717
   2   2    0.99999772

BLOCK ALPHA
      -0.085809457

BLOCK HMIX Q=  2467.345
   1    318.58913
   2    11.830697
   3    243.09099
   4    1284854.5

BLOCK GAUGE Q=  2467.345
   1    0.36477825
   2    0.6375186
   3    1.0126185

BLOCK AU Q=  2467.345
   1   1    0
   2   2    0
   3   3    3957.73

BLOCK AD Q=  2467.345
   1   1    0
   2   2    0
   3   3    2545.95

BLOCK AE Q=  2467.345
   1   1    0
   2   2    0
   3   3    1886.11

BLOCK YU Q=  2467.345
   1   1    0
   2   2    0
   3   3    0.84354336

BLOCK YD Q=  2467.345
   1   1    0
   2   2    0
   3   3    0.15964175

BLOCK YE Q=  2467.345
   1   1    0
   2   2    0
   3   3    0.11979932

BLOCK MSOFT Q=  2467.345
   1    758.22
   2   -3239.21
   3    3376.76
   21    1220969.2
   22   -54584.586
   31    273.73
   32    273.73
   33    679.52
   34    2090.57
   35    2090.57
   36    1430.97
   41    2758.05
   42    2758.05
   43    3584.66
   44    3617.17
   45    3617.17
   46    1698.7
   47    1431.52
   48    1431.52
   49    919.79998

BLOCK HIGGSBOUNDSINPUTHIGGSCOUPLINGSFERMIONS
       0, 139.9654,3,36,15,15

BLOCK HIGGSBOUNDSINPUTHIGGSCOUPLINGSBOSONS
       0,4,36,21,21,23

DECAY 6  1.430674
    1   2    5    24

DECAY 1000021  198.05464
    0.13478611   2    1000005   -5
    0.13478611   2   -1000005    5
    0.10615798   2    2000001   -1
    0.10615798   2   -2000001    1
    0.10615798   2    2000003   -3
    0.10615798   2   -2000003    3
    0.090527993   2    1000006   -6
    0.090527993   2   -1000006    6
    0.015615723   2    1000002   -2
    0.015615723   2   -1000002    2
    0.01561567   2    1000004   -4
    0.01561567   2   -1000004    4
    0.015569272   2    1000001   -1
    0.015569272   2   -1000001    1
    0.015569272   2    1000003   -3
    0.015569272   2   -1000003    3

DECAY 1000006  48.421552
    0.47660315   2    1000024    5
    0.2326568   2    1000023    6
    0.23137349   2    1000022    6
    0.059366563   2    1000025    6
    2.819736e-09   2    1000005    24

DECAY 2000006  102.43979
    0.24666521   2    1000023    6
    0.24485449   2    1000022    6
    0.22015866   2    1000006    25
    0.21407295   2    1000006    23
    0.018149302   2    1000024    5
    0.01359573   2    1000021    6
    0.013406967   2    1000037    5
    0.0071069906   2    1000005    37
    0.0062694762   2    1000035    6
    0.0062526135   2    1000025    6
    0.0047421007   2    1000006    35
    0.0047145708   2    1000006    36
    1.0947898e-05   2    1000005    24

DECAY 1000005  0.95081139
    0.41297717   2   -1000024    6
    0.22508843   2    1000022    5
    0.22229127   2    1000023    5
    0.13964312   2    1000025    5

DECAY 2000005  100.90941
    0.49976322   2   -1000024    6
    0.4192647   2    1000006   -24
    0.022374047   2    1000021    5
    0.012324799   2   -1000037    6
    0.0095021496   2    1000006   -37
    0.0090213993   2    1000023    5
    0.0089800068   2    1000022    5
    0.0066177653   2    1000035    5
    0.0049369735   2    1000025    5
    0.0036016322   2    1000005    35
    0.0036013584   2    1000005    36
    6.2318735e-06   2    1000005    25
    5.7144953e-06   2    1000005    23

DECAY 1000002  0.39467548
    0.89059801   2    1000025    2
    0.066038753   2    1000024    1
    0.029079425   2    1000022    2
    0.014283813   2    1000023    2

DECAY 2000002  12.301634
    0.61544473   2    1000025    2
    0.37976825   2    1000021    2
    0.0043067883   2    1000022    2
    0.0004802323   2    1000023    2
    2.3857859e-09   2    1000035    2

DECAY 1000001  0.36522524
    0.99534378   2    1000025    1
    0.0045767647   2    1000023    1
    6.0303003e-05   2    1000022    1
    1.9147634e-05   2   -1000024    2

DECAY 2000001  0.53309017
    0.98865886   2    1000025    1
    0.010204117   2    1000022    1
    0.0011370214   2    1000023    1

DECAY 1000004  0.40053339
    0.89040637   2    1000025    4
    0.066154227   2    1000024    3
    0.029130577   2    1000022    4
    0.01430883   2    1000023    4

DECAY 2000004  11.430324
    0.69349094   2    1000025    4
    0.30110317   2    1000021    4
    0.0048635744   2    1000022    4
    0.00054231282   2    1000023    4
    2.5735497e-09   2    1000035    4

DECAY 1000003  0.37057966
    0.99533467   2    1000025    3
    0.004585725   2    1000023    3
    6.0421523e-05   2    1000022    3
    1.9185048e-05   2   -1000024    4

DECAY 2000003  0.52100842
    0.98862796   2    1000025    3
    0.010231929   2    1000022    3
    0.0011401117   2    1000023    3

DECAY 1000011  0.00012731269
    0.80495385   2    1000022    11
    0.19493819   2    1000023    11
    0.00010795655   2   -1000024    12

DECAY 2000011  8.4124313
    0.99095221   2    1000025    11
    0.0081403707   2    1000022    11
    0.00090741846   2    1000023    11

DECAY 1000013  0.00012731139
    0.80495404   2    1000022    13
    0.194938   2    1000023    13
    0.00010795765   2   -1000024    14

DECAY 2000013  8.4124312
    0.99095221   2    1000025    13
    0.0081403707   2    1000022    13
    0.00090741847   2    1000023    13

DECAY 1000015  0.13825232
    0.51998054   2    1000022    15
    0.4799951   2    1000023    15
    2.435649e-05   2   -1000024    16

DECAY 2000015  4.7243363
    0.83325603   2    1000025    15
    0.077487657   2   -1000024    16
    0.048002145   2    1000022    15
    0.039782535   2    1000023    15
    0.00072690185   2    1000016   -24
    0.00037669656   2    1000015    25
    0.00036803203   2    1000015    23

DECAY 1000012  2.9168746e-05
    0.67251108   2    1000024    11
    0.32622904   2    1000022    12
    0.0012598837   2    1000023    12

DECAY 1000014  2.9168125e-05
    0.67250411   2    1000024    13
    0.32623598   2    1000022    14
    0.0012599105   2    1000023    14

DECAY 1000016  0.13269583
    0.98821693   2    1000024    15
    0.01172865   2    1000022    16
    5.4419907e-05   2    1000023    16

DECAY 1000024  4.1709754e-11
    0.37402481   3    1000022    2   -1
    0.1245902   3    1000022   -11    12
    0.1245902   3    1000022   -13    14
    0.00087378831   3    1000022   -15    16
    0.00037925242   3    1000023   -11    12
    0.00037925242   3    1000023   -13    14

DECAY 1000037  126.70324
    0.10068472   2    1000012   -11
    0.10068472   2    1000014   -13
    0.10068259   2   -1000011    12
    0.10068259   2   -1000013    14
    0.093166069   2    1000016   -15
    0.093154439   2   -1000015    16
    0.049558681   2    1000024    25
    0.048876969   2    1000024    23
    0.047360407   2    1000023    24
    0.047029541   2    1000022    24
    0.040066179   2    1000024    35
    0.040043925   2    1000024    36
    0.040014369   2    1000023    37
    0.039908189   2    1000022    37
    0.014419628   2    1000002   -1
    0.01441962   2    1000004   -3
    0.014367959   2   -1000001    2
    0.01436784   2   -1000003    4
    0.00036798353   2    1000025    24
    0.00012679214   2    1000025    37
    1.6455522e-05   2    1000006   -5
    3.3430128e-07   2   -2000015    16
    1.48301e-09   2   -1000005    6

DECAY 1000022 -1


DECAY 1000023  8.3414356e-12
    0.49012164   2    1000022    22
    0.11065009   3    1000022   -1    1
    0.11065009   3    1000022   -3    3
    0.085225604   3    1000022   -2    2
    0.050858475   3    1000022   -16    16
    0.050854799   3    1000022   -12    12
    0.050854799   3    1000022   -14    14
    0.025392257   3    1000022   -11    11
    0.025392257   3    1000022   -13    13

DECAY 1000025  4.4245884
    0.11017804   2    1000024   -24
    0.11017804   2   -1000024    24
    0.10032273   2    1000022    25
    0.10012712   2    1000023    23
    0.070462311   2    1000012   -12
    0.070462311   2   -1000012    12
    0.070462311   2    1000014   -14
    0.070462311   2   -1000014    14
    0.067773992   2    1000011   -11
    0.067773992   2   -1000011    11
    0.067773992   2    1000013   -13
    0.067773992   2   -1000013    13
    0.012291926   2    1000022    23
    0.010317366   2    1000023    25
    0.0010293514   2    1000016   -16
    0.0010293514   2   -1000016    16
    0.00079043296   2    1000015   -15
    0.00079043296   2   -1000015    15

DECAY 1000035  126.69416
    0.050387196   2    1000012   -12
    0.050387196   2   -1000012    12
    0.050387196   2    1000014   -14
    0.050387196   2   -1000014    14
    0.050298334   2    1000011   -11
    0.050298334   2   -1000011    11
    0.050298334   2    1000013   -13
    0.050298334   2   -1000013    13
    0.047441597   2    1000024   -24
    0.047441597   2   -1000024    24
    0.046624128   2    1000016   -16
    0.046624128   2   -1000016    16
    0.046537096   2    1000015   -15
    0.046537096   2   -1000015    15
    0.039993376   2    1000024   -37
    0.039993376   2   -1000024    37
    0.027790845   2    1000023    35
    0.027627033   2    1000022    36
    0.02552781   2    1000023    25
    0.02496915   2    1000022    23
    0.023848669   2    1000022    25
    0.023626378   2    1000023    23
    0.01233887   2    1000023    36
    0.012287624   2    1000022    35
    0.0072082116   2    1000002   -2
    0.0072082116   2   -1000002    2
    0.0072081521   2    1000004   -4
    0.0072081521   2   -1000004    4
    0.0071752902   2    1000001   -1
    0.0071752902   2   -1000001    1
    0.0071752902   2    1000003   -3
    0.0071752902   2   -1000003    3
    0.00025029157   2    1000025    23
    0.00012154593   2    1000025    25
    0.00010673378   2    1000025    36
    2.0096245e-05   2    1000025    35
    8.1002465e-06   2    1000006   -6
    8.1002465e-06   2   -1000006    6
    1.6965752e-07   2    2000015   -15
    1.6965752e-07   2   -2000015    15
    1.8831036e-09   2    1000005   -5
    1.8831036e-09   2   -1000005    5
    1.4072311e-09   2    2000011   -11
    1.4072311e-09   2   -2000011    11
    1.4072311e-09   2    2000013   -13
    1.4072311e-09   2   -2000013    13
    8.1702482e-10   2    2000001   -1
    8.1702482e-10   2   -2000001    1
    8.1702482e-10   2    2000003   -3
    8.1702482e-10   2   -2000003    3

DECAY 25  0.0042928408
    0.58476239   2    5   -5
    0.22272523   2    24   -24
    0.076364217   2    21    21
    0.063039239   2   -15    15
    0.028393459   2    23    23
    0.020355649   2    4   -4
    0.0022734471   2    22    22
    0.0016204407   2    22    23
    0.00024277475   2    3   -3
    0.0002231497   2   -13    13

DECAY 35  3.077611
    0.65767749   2    5   -5
    0.12120635   2    6   -6
    0.11342398   2   -15    15
    0.089204802   2    1000023    1000025
    0.011998591   2    1000022    1000025
    0.0021784549   2    1000024   -1000024
    0.001372115   2    25    25
    0.00065962539   2    1000022    1000023
    0.00053947932   2    1000022    1000022
    0.0004029796   2   -13    13
    0.00036759266   2    24   -24
    0.00027199236   2    3   -3
    0.00018210534   2    23    23
    0.00014606245   2    1000012   -1000012
    0.00014606245   2    1000014   -1000014
    0.00012190089   2    21    21
    4.4386965e-05   2    1000011   -1000011
    4.4386965e-05   2    1000013   -1000013
    9.87639e-06   2    1000023    1000023
    1.3265366e-06   2    4   -4
    2.8918846e-07   2    22    22
    1.4353326e-07   2    23    22

DECAY 36  3.0869851
    0.65592894   2    5   -5
    0.12471554   2    6   -6
    0.1130966   2   -15    15
    0.0883971   2    1000022    1000025
    0.011814551   2    1000023    1000025
    0.0031309521   2    1000024   -1000024
    0.0010900256   2    1000022    1000022
    0.00043018721   2    21    21
    0.00040181259   2   -13    13
    0.00036355304   2    23    25
    0.000347116   2    1000022    1000023
    0.00027134958   2    3   -3
    1.0127436e-05   2    1000023    1000023
    1.2888382e-06   2    4   -4
    5.2349685e-07   2    22    22
    3.3481076e-07   2    23    22

DECAY 37  3.0157235
    0.77246408   2    6   -5
    0.11606574   2   -15    16
    0.10347099   2    1000024    1000025
    0.004317552   2    1000024    1000022
    0.0011373812   2    1000024    1000023
    0.0011044996   2    4   -5
    0.00041236141   2   -13    14
    0.00037667056   2    24    25
    0.00027435035   2    4   -3
    0.00017572681   2   -1000011    1000012
    0.00017572681   2   -1000013    1000014
    1.387419e-05   2    2   -3
    1.1044899e-05   2    2   -5
    1.0940869e-10   2    24    36

DECAY 5 -1


DECAY 15 -1


DECAY 23  2.4952


DECAY 24  2.085
