BLOCK SPINFO
   1   SPheno
   2   v4.0.5be

BLOCK SPHENOINFO
   1   2
   2   2

BLOCK MODSEL
   1   0

BLOCK MINPAR
   3    39.717278
   4    1

BLOCK EXTPAR
   0    1712.0241
   1    341.04852
   2    342.62408
   3    3000
   11    3993.1519
   12    1582.7422
   13    1635.7483
   23    1684.9952
   25    38.324984
   26    1546.5499
   31    476.89529
   32    476.89529
   33    357.991
   34    455.03411
   35    455.03411
   36    1617.0727
   41    5000
   42    5000
   43    1809.0176
   44    5000
   45    5000
   46    1669.625
   47    5000
   48    5000
   49    1031.4192

BLOCK SMINPUTS
   1    127.90897
   2    1.1663787e-05
   3    0.1184
   4    91.1876
   5    4.18
   6    173.2
   7    1.777
   8    0
   11    0.00051099893
   12    0
   13    0.10565837
   14    0
   21    0.005
   22    0.0025
   23    0.095
   24    1.27

BLOCK GAUGE Q=  1712.0241
   1    0.35536298
   2    0.66519887
   3    1.219778

BLOCK YU Q=  1712.0241
   1   1    8.3872258e-06
   2   2    0.0042607107
   3   3    1.0132442

BLOCK YD Q=  1712.0241
   1   1    0.00064592272
   2   2    0.012272532
   3   3    0.64055294

BLOCK YE Q=  1712.0241
   1   1    0.00011271824
   2   2    0.023306557
   3   3    0.39197794

BLOCK AU Q=  1712.0241
   1   1    0
   2   2    0
   3   3    3993.1522

BLOCK AD Q=  1712.0241
   1   1    0
   2   2    0
   3   3    1582.7413

BLOCK AE Q=  1712.0241
   1   1    0
   2   2    0
   3   3    1635.7484

BLOCK MSOFT Q=  1712.0241
   1    341.04852
   2    342.62408
   3    3000
   21   -448881.62
   22   -2766616
   31    476.89529
   32    476.89529
   33    357.991
   34    455.03411
   35    455.03411
   36    1617.0727
   41    5000
   42    5000
   43    1809.0176
   44    5000
   45    5000
   46    1669.625
   47    5000
   48    5000
   49    1031.4192

BLOCK MASS
   6    173.2
   23    91.1876
   24    80.429995
   15    1.777
   25    125.20391
   35    1546.2715
   36    1546.5499
   37    1549.1354
   1000001    5038.1343
   2000001    5027.2153
   1000002    5037.689
   2000002    5028.5912
   1000003    5038.1422
   2000003    5027.2119
   1000004    5037.6907
   2000004    5028.5917
   1000005    1060.796
   2000005    1810.3786
   1000006    1538.7404
   2000006    1904.8219
   1000011    483.00479
   2000011    460.42718
   1000012    476.30111
   1000013    484.62252
   2000013    458.64565
   1000014    476.27458
   1000015    355.13318
   2000015    1614.2297
   1000016    356.18683
   1000021    3204.7822
   1000022    337.98777
   1000023    363.90942
   1000025   -1681.9165
   1000035    1685.0778
   1000024    364.10367
   1000037    1685.2818

BLOCK ALPHA
      -0.025380651

BLOCK HMIX Q=  1712.0241
   1    1684.9952
   2    38.324984
   3    243.83337
   4    2391816.5

BLOCK STOPMIX
   1   1   -0.52926996
   1   2    0.84845348
   2   1   -0.84845348
   2   2   -0.52926996

BLOCK SBOTMIX
   1   1    0.041619321
   1   2    0.99913354
   2   1   -0.99913354
   2   2    0.041619321

BLOCK STAUMIX
   1   1    0.9990351
   1   2    0.043918962
   2   1   -0.043918962
   2   2    0.9990351

BLOCK NMIX
   1   1    0.99940742
   1   2   -0.018079099
   1   3    0.028605601
   1   4   -0.0062987298
   2   1    0.019518186
   2   2    0.99857765
   2   3   -0.048365143
   2   4    0.011069125
   3   1    0.015280794
   3   2   -0.026675784
   3   3   -0.70643243
   3   4   -0.70711253
   4   1    0.023881917
   4   2   -0.042476122
   4   3   -0.70554642
   4   4    0.70698633

BLOCK UMIX
   1   1   -0.99761021
   1   2    0.0690932
   2   1    0.0690932
   2   2    0.99761021

BLOCK VMIX
   1   1   -0.99987477
   1   2    0.015825279
   2   1    0.015825279
   2   2    0.99987477

BLOCK HIGGSBOUNDSINPUTHIGGSCOUPLINGSFERMIONS
       0, 1468.8044,3,36,15,15

BLOCK HIGGSBOUNDSINPUTHIGGSCOUPLINGSBOSONS
       0,4,36,21,21,23

BLOCK SPHENOLOWENERGY
   1    0.00036041714
   2    1.5861998e-06
   3    3.5229619e-05
   4    4.3292972e-15
   5    1.8494314e-10
   6    3.8746007e-08
   7    1.4496586e-13
   8    6.1929518e-09
   9    1.3145361e-06
   10    9.012417e-05
   11    0.93094817
   12    0.54341926
   13    19.385993
   14    0
   15    0
   16    0.0021681542
   17    2.2817729e-15
   18    2.4787544e-11
   19    8.2872678e-11
   20    4.6415807e-14
   21    1.9851092e-09
   22    3.4000816e-07
   23    0
   24    0
   25    0
   26    0
   27    0
   28    0
   29    0
   30    0
   31    0
   39    9.2282729e-05
   40    0
   41    0
   42    0

BLOCK FWCOEF Q=  160
   305   4422   0   0   -0.18881911
   305   4422   0   2   -0.23147293
   305   4322   0   2   -0.00053413069
   305   6421   0   0   -0.095227835
   305   6421   0   2   -0.13300594
   305   6321   0   2   -0.00054841207
   3051111   4133   0   0    1.5969847
   3051111   4133   0   2    1.5972201
   3051111   4233   0   2    0.00012451884
   3051111   4137   0   0   -4.4196768
   3051111   4137   0   2   -4.4156446
   3051111   4237   0   2   -0.00096157552
   3051313   4133   0   0    1.5969847
   3051313   4133   0   2    1.5972155
   3051313   4233   0   2    0.00012451546
   3051313   4137   0   0   -4.4196768
   3051313   4137   0   2   -4.4156493
   3051313   4237   0   2   -0.0009615745
   3051212   4137   0   0    1.5053501
   3051212   4137   0   2    1.5045062
   3051212   4237   0   2    0.00020931173
   3051414   4137   0   0    1.5053501
   3051414   4137   0   2    1.5045062
   3051414   4237   0   2    0.00020931233
   3051616   4137   0   0    1.5053501
   3051616   4137   0   2    1.5045063
   3051616   4237   0   2    0.00020948245

BLOCK IMFWCOEF Q=  160
   305   4422   0   0    3.8559326e-07
   305   4422   0   2    2.194925e-05
   305   4322   0   2   -3.2555356e-06
   305   6421   0   0    3.3028613e-07
   305   6421   0   2   -1.285683e-05
   305   6321   0   2   -2.0567932e-06
   3051111   4133   0   2   -1.7378412e-06
   3051111   4233   0   2    4.0502173e-06
   3051111   4137   0   2    9.6934526e-06
   3051111   4237   0   2   -3.1304833e-05
   3051313   4133   0   2   -1.737799e-06
   3051313   4233   0   2    4.0502066e-06
   3051313   4137   0   2    9.6934623e-06
   3051313   4237   0   2   -3.1304865e-05
   3051212   4137   0   2   -1.4848098e-06
   3051212   4237   0   2    6.81452e-06
   3051414   4137   0   2   -1.4848097e-06
   3051414   4237   0   2    6.81452e-06
   3051616   4137   0   2   -1.4842642e-06
   3051616   4237   0   2    6.8145204e-06

DECAY 23  2.4952


DECAY 24  2.085


DECAY 2000011  0.49149175
    0.99974741   2    1000022    11
    0.00025258529   2    1000023    11

DECAY 1000011  1.3406726
    0.58833925   2   -1000024    12
    0.30177349   2    1000023    11
    0.10988724   2    1000022    11

DECAY 2000013  0.48072767
    0.99973928   2    1000022    13
    0.00025398564   2    1000023    13

DECAY 1000013  1.3681441
    0.58865045   2   -1000024    14
    0.30192063   2    1000023    13
    0.10942887   2    1000022    13

DECAY 1000015  0.0038203819
    1   2    1000022    15

DECAY 2000015  16.852562
    0.43859562   2    1000022    15
    0.2795859   2    1000016   -24
    0.14230433   2    1000015    25
    0.1393064   2    1000015    23
    0.000200264   2    1000023    15

DECAY 1000012  1.2362631
    0.58574908   2    1000024    11
    0.28690521   2    1000023    12
    0.12734571   2    1000022    12

DECAY 1000014  1.235822
    0.58574276   2    1000024    13
    0.28690196   2    1000023    14
    0.12735528   2    1000022    14

DECAY 1000016  0.004736491
    1   2    1000022    16

DECAY 2000001  142.60814
    0.98049937   2    1000021    1
    0.019480285   2    1000022    1

DECAY 1000001  207.43749
    0.67954395   2    1000021    1
    0.21056636   2   -1000024    2
    0.10475561   2    1000023    1
    0.0040718214   2    1000022    1
    0.00080503768   2   -1000037    2
    0.00018420418   2    1000035    1

DECAY 2000003  142.63148
    0.9803364   2    1000021    3
    0.019477168   2    1000022    3

DECAY 1000003  207.45174
    0.67950122   2    1000021    3
    0.2105522   2   -1000024    4
    0.10474874   2    1000023    3
    0.0040716068   2    1000022    3
    0.00081193176   2   -1000037    4
    0.000212691   2    1000035    3
    0.00010160865   2    1000025    3

DECAY 1000005  0.60972174
    0.80204787   2    1000022    5
    0.12929571   2   -1000024    6
    0.068656413   2    1000023    5

DECAY 2000005  47.883201
    0.43902899   2    1000006   -24
    0.29635615   2   -1000024    6
    0.15129033   2    1000023    5
    0.081546112   2    1000005    25
    0.020153475   2    1000005    23
    0.0059382432   2    1000022    5
    0.0029088622   2    1000025    5
    0.0027778346   2    1000035    5

DECAY 2000002  151.09689
    0.92636094   2    1000021    2
    0.073563955   2    1000022    2

DECAY 1000002  207.42954
    0.67934661   2    1000021    2
    0.21151243   2    1000024    1
    0.10621875   2    1000023    2
    0.0027082084   2    1000022    2
    0.00012318541   2    1000035    2

DECAY 2000004  151.09975
    0.92634338   2    1000021    4
    0.073562561   2    1000022    4

DECAY 1000004  207.443
    0.6793031   2    1000021    4
    0.21149911   2    1000024    3
    0.10621188   2    1000023    4
    0.0027080335   2    1000022    4
    0.00012664384   2    1000035    4

DECAY 1000006  7.5061913
    0.41814416   2    1000024    5
    0.2855507   2    1000022    6
    0.202702   2    1000023    6
    0.068982605   2    1000023    4
    0.022145081   2    1000005    24
    0.0017849911   2    1000022    4
    0.00051142023   3    1000016   -15    5
    0.00016298669   3    1000022    24    5

DECAY 2000006  45.659024
    0.3952121   2    1000006    23
    0.2538339   2    1000024    5
    0.12454061   2    1000023    6
    0.11670974   2    1000006    25
    0.041544577   2    1000005    24
    0.028872683   2    1000022    6
    0.021982491   2    1000037    5
    0.0096320334   2    2000005    24
    0.0039992372   2    1000025    6
    0.0036726216   2    1000035    6

DECAY 1000024  0.0067325139
    0.56204041   2   -1000015    16
    0.43795461   2    1000016   -15

DECAY 1000037  23.538109
    0.32293609   2   -1000005    6
    0.15772081   2    1000024    25
    0.15325339   2    1000023    24
    0.14961218   2    1000024    23
    0.099452669   2    1000016   -15
    0.04996499   2    1000006   -5
    0.045900608   2    1000022    24
    0.0073383375   3    1000024    6   -6
    0.0055538151   3    1000023   -5    6
    0.0017534414   3    1000022   -5    6
    0.0012674389   2   -1000011    12
    0.0012659173   2   -1000013    14
    0.0011734499   3    1000024    5   -5
    0.00074824976   2   -2000015    16
    0.00053726651   2   -1000015    16
    0.00045735344   3    1000024    15   -15
    0.00039275166   2    1000014   -13
    0.00033009631   2   -2000013    14
    0.00025922584   3    1000023   -15    16

DECAY 1000022 -1


DECAY 1000023  0.0064551104
    0.28637896   2    1000015   -15
    0.28637896   2   -1000015    15
    0.21362024   2    1000016   -16
    0.21362024   2   -1000016    16

DECAY 1000025  23.78988
    0.15629183   2    1000005   -5
    0.15629183   2   -1000005    5
    0.1485031   2    1000024   -24
    0.1485031   2   -1000024    24
    0.10434271   2    1000023    23
    0.10079877   2    1000023    25
    0.049018097   2    1000015   -15
    0.049018097   2   -1000015    15
    0.036707341   2    1000022    23
    0.030869537   2    1000022    25
    0.0059176861   3    1000024    5   -6
    0.0059176861   3   -1000024   -5    6
    0.0026910311   3    1000023    6   -6
    0.0010375498   3    1000022    6   -6
    0.00071975764   3    1000023    5   -5
    0.00033601456   2    2000015   -15
    0.00033601456   2   -2000015    15
    0.00020511068   2    1000013   -13
    0.00020511068   2   -1000013    13
    0.00019885495   2    2000013   -13
    0.00019885495   2   -2000013    13
    0.00019247695   3    1000023    15   -15
    0.00018833953   3    1000024    15   -16
    0.00018833953   3   -1000024   -15    16
    0.00017229149   2    1000016   -16
    0.00017229149   2   -1000016    16
    0.00015977836   2    1000014   -14
    0.00015977836   2   -1000014    14
    0.00015977525   2    1000012   -12
    0.00015977525   2   -1000012    12
    0.00014668549   3    1000022    5   -5

DECAY 1000035  22.155527
    0.16824662   2    1000005   -5
    0.16824662   2   -1000005    5
    0.15977458   2    1000024   -24
    0.15977458   2   -1000024    24
    0.11953823   2    1000023    25
    0.052536231   2    1000015   -15
    0.052536231   2   -1000015    15
    0.044210664   2    1000023    23
    0.036606322   2    1000022    25
    0.016131788   2    1000022    23
    0.0059050932   3    1000024    5   -6
    0.0059050932   3   -1000024   -5    6
    0.0029134011   3    1000023    6   -6
    0.0011155964   3    1000022    6   -6
    0.00075451238   3    1000023    5   -5
    0.00046604386   2    1000016   -16
    0.00046604386   2   -1000016    16
    0.00043232649   2    1000014   -14
    0.00043232649   2   -1000014    14
    0.00043231813   2    1000012   -12
    0.00043231813   2   -1000012    12
    0.00039423152   2    2000015   -15
    0.00039423152   2   -2000015    15
    0.00029647267   2    1000013   -13
    0.00029647267   2   -1000013    13
    0.00026878139   2    2000013   -13
    0.00026878139   2   -2000013    13
    0.00020744967   3    1000023    15   -15
    0.00020378622   3    1000024    15   -16
    0.00020378622   3   -1000024   -15    16
    0.00015088488   3    1000022    5   -5
    0.00012453605   2    1000011   -11
    0.00012453605   2   -1000011    11

DECAY 1000021  221.26398
    0.16992184   2    1000005   -5
    0.16992184   2   -1000005    5
    0.14254163   2    1000006   -6
    0.14254163   2   -1000006    6
    0.099412155   2    2000005   -5
    0.099412155   2   -2000005    5
    0.075878416   2    2000006   -6
    0.075878416   2   -2000006    6
    0.010842561   2    1000006   -4
    0.010842561   2   -1000006    4
    0.00095947761   3    1000037    5   -6
    0.00095947761   3   -1000037   -5    6
    0.00031700915   3    1000035    6   -6
    0.00030521196   3    1000025    6   -6

DECAY 25  0.0039134858
    0.57058794   2   -5    5
    0.23138932   2   -24    24
    0.071355481   2    21    21
    0.066128731   2   -15    15
    0.028123801   2    23    23
    0.028110807   2   -4    4
    0.0023441224   2    22    22
    0.0015142409   2    22    23
    0.0002293384   2   -13    13
    0.0002154783   2   -3    3
    5.9577637e-07   2   -1    1
    1.4486104e-07   2   -2    2
    5.1556421e-09   2   -11    11

DECAY 35  18.096521
    0.68047014   2   -5    5
    0.31208858   2   -15    15
    0.0024798843   2   -1000024    1000024
    0.0012233873   2   -1000015    1000015
    0.0010120202   2   -13    13
    0.00092713186   2    1000022    1000023
    0.00088121766   2    1000022    1000022
    0.00052563043   2   -3    3
    0.00024385869   2    1000023    1000023
    8.3580952e-05   2   -6    6
    4.1561416e-05   2    25    25
    1.0435829e-05   2    21    21
    2.1255227e-06   2    23    23
    1.6276703e-06   2   -24    24
    1.4533742e-06   2   -1    1
    9.5766385e-07   2   -2000013    2000013
    4.815117e-07   2   -2000011    2000011
    3.2023113e-07   2   -1000011    1000011
    1.8884694e-07   2    22    23
    1.6582028e-07   2   -2000013    1000013
    1.6582028e-07   2   -1000013    2000013
    7.3333197e-08   2   -1000013    1000013
    4.2797188e-08   2    22    22
    2.2734376e-08   2   -11    11
    9.6094904e-09   2   -4    4
    5.6672829e-12   2   -2000011    1000011
    5.6672829e-12   2   -1000011    2000011
    4.9576371e-14   2   -2    2

DECAY 36  17.625558
    0.68037845   2   -5    5
    0.31201601   2   -15    15
    0.0032378336   2   -1000024    1000024
    0.0012097935   2    1000022    1000023
    0.0011487146   2    1000022    1000022
    0.0010117827   2   -13    13
    0.00052549949   2   -3    3
    0.00031853031   2    1000023    1000023
    0.00011079758   2   -6    6
    3.7070096e-05   2    21    21
    2.8907347e-06   2    23    25
    1.4530124e-06   2   -1    1
    3.9319882e-07   2    22    23
    2.9302432e-07   2   -2000013    1000013
    2.9302432e-07   2   -1000013    2000013
    1.6455029e-07   2    22    22
    2.2729053e-08   2   -11    11
    1.0289432e-08   2   -4    4
    6.8536803e-12   2   -2000011    1000011
    6.8536803e-12   2   -1000011    2000011
    5.3084968e-14   2   -2    2
    1.1071256e-35   2    25    25

DECAY 37  15.567085
    0.68080084   2   -5    6
    0.31393187   2   -15    16
    0.0015234793   2    1000022    1000024
    0.0011098634   2   -13    14
    0.0010165377   2   -5    4
    0.00065896599   2   -1000015    1000016
    0.00055185166   2   -3    4
    0.00035902451   2    1000023    1000024
    2.5640319e-05   2   -3    2
    7.2591354e-06   2   -5    2
    4.5393014e-06   2   -3    6
    3.2975708e-06   2    24    25
    2.7220452e-06   2   -2000013    1000014
    2.1909751e-06   2   -2000011    1000012
    1.5321612e-06   2   -1    2
    1.7170071e-07   2   -1    6
    1.1749387e-07   2   -1000013    1000014
    7.2581996e-08   2   -1    4
    2.595982e-08   2   -11    12
    1.6822978e-11   2    24    35
    1.0091157e-11   2    24    36
    2.2461247e-12   2   -1000011    1000012

DECAY 6  2.43
    1   2    5    24

DECAY 15 -1
