BLOCK SPINFO
   1   SPheno
   2   v4.0.5be

BLOCK SPHENOINFO
   1   2
   2   2

BLOCK MODSEL
   1   0

BLOCK MINPAR
   3    26.573646
   4    1

BLOCK EXTPAR
   0    1930.5307
   1    946.06882
   2    2223.3412
   3    2153.1464
   11    5587.6003
   12   -2002.1406
   13   -5114.902
   23    3039.1404
   25    25.49719
   26    3228.6639
   31    3140.468
   32    3140.468
   33    3462.5964
   34    4076.0949
   35    4076.0949
   36    2711.6858
   41    3739.3128
   42    3739.3128
   43    2294.6891
   44    864.85147
   45    864.85147
   46    1634.0876
   47    4366.1756
   48    4366.1756
   49    3897.7051

BLOCK SMINPUTS
   1    127.90897
   2    1.1663787e-05
   3    0.1184
   4    91.1876
   5    4.18
   6    173.2
   7    1.777
   8    0
   11    0.00051099893
   12    0
   13    0.10565837
   14    0
   21    0.005
   22    0.0025
   23    0.095
   24    1.27

BLOCK GAUGE Q=  1930.5307
   1    0.35536298
   2    0.66519887
   3    1.219778

BLOCK YU Q=  1930.5307
   1   1    8.3908181e-06
   2   2    0.0042625356
   3   3    1.0136782

BLOCK YD Q=  1930.5307
   1   1    0.00042990934
   2   2    0.0081682774
   3   3    0.42633535

BLOCK YE Q=  1930.5307
   1   1    7.5022323e-05
   2   2    0.015512237
   3   3    0.26089031

BLOCK AU Q=  1930.5307
   1   1    0
   2   2    0
   3   3    5587.6004

BLOCK AD Q=  1930.5307
   1   1    0
   2   2    0
   3   3   -2002.1405

BLOCK AE Q=  1930.5307
   1   1    0
   2   2    0
   3   3   -5114.902

BLOCK MSOFT Q=  1930.5307
   1    946.06882
   2    2223.3412
   3    2153.1464
   21    1202647.9
   22   -9179108.1
   31    3140.468
   32    3140.468
   33    3462.5964
   34    4076.0949
   35    4076.0949
   36    2711.6858
   41    3739.3128
   42    3739.3128
   43    2294.6891
   44    864.85147
   45    864.85147
   46    1634.0876
   47    4366.1756
   48    4366.1756
   49    3897.7051

BLOCK MASS
   6    173.2
   23    91.1876
   24    80.429995
   15    1.777
   25    123.83657
   35    3222.8512
   36    3228.6639
   37    3229.6216
   1000001    3790.5673
   2000001    4407.8066
   1000002    3789.909
   2000002    959.62487
   1000003    3790.5671
   2000003    4407.8059
   1000004    3789.9091
   2000004    959.62653
   1000005    2310.3526
   2000005    3938.1831
   1000006    1581.2268
   2000006    2356.9983
   1000011    3146
   2000011    4085.9918
   1000012    3144.6628
   1000013    3146.0007
   2000013    4085.9856
   1000014    3144.6652
   1000015    2727.4751
   2000015    3467.8097
   1000016    3466.1468
   1000021    2357.9615
   1000022    941.84948
   1000023    2276.2274
   1000025   -3017.6449
   1000035    3021.4855
   1000024    2276.2207
   1000037    3021.7106

BLOCK ALPHA
      -0.037565896

BLOCK HMIX Q=  1930.5307
   1    3039.1404
   2    25.49719
   3    243.71787
   4    10424271

BLOCK STOPMIX
   1   1   -0.26685629
   1   2    0.96373633
   2   1   -0.96373633
   2   2   -0.26685629

BLOCK SBOTMIX
   1   1    0.99992016
   1   2    0.012636168
   2   1   -0.012636168
   2   2    0.99992016

BLOCK STAUMIX
   1   1    0.032106989
   1   2    0.99948444
   2   1   -0.99948444
   2   2    0.032106989

BLOCK NMIX
   1   1    0.99984822
   1   2   -0.00027459537
   1   3    0.016529597
   1   4   -0.0054991234
   2   1   -0.0014597255
   2   2   -0.99741781
   2   3    0.057356819
   2   4   -0.043194616
   3   1    0.0077966118
   3   2   -0.010046571
   3   3   -0.70700851
   3   4   -0.70709069
   4   1   -0.015512105
   4   2    0.071110487
   4   3    0.70468144
   4   4   -0.70578094

BLOCK UMIX
   1   1   -0.99660289
   1   2    0.082357031
   2   1    0.082357031
   2   2    0.99660289

BLOCK VMIX
   1   1   -0.99806409
   1   2    0.062193763
   2   1    0.062193763
   2   2    0.99806409

BLOCK HIGGSBOUNDSINPUTHIGGSCOUPLINGSFERMIONS
       0, 650.10671,3,36,15,15

BLOCK HIGGSBOUNDSINPUTHIGGSCOUPLINGSBOSONS
       0,4,36,21,21,23

BLOCK SPHENOLOWENERGY
   1    0.00034048357
   2    1.5882738e-06
   3    3.5254569e-05
   4    3.8462851e-15
   5    1.6430922e-10
   6    3.441336e-08
   7    1.2914299e-13
   8    5.5169944e-09
   9    1.1707819e-06
   10    9.6118815e-05
   11    0.99287056
   12    0.54286751
   13    19.394263
   14    0
   15    0
   16    0.0021631702
   17    2.2817187e-15
   18    2.48117e-11
   19    8.2921809e-11
   20    9.4869343e-16
   21    4.0559405e-11
   22    1.0516924e-08
   23    0
   24    0
   25    0
   26    0
   27    0
   28    0
   29    0
   30    0
   31    0
   39    6.1190735e-05
   40    0
   41    0
   42    0

BLOCK FWCOEF Q=  160
   305   4422   0   0   -0.18881911
   305   4422   0   2   -0.21046928
   305   4322   0   2   -0.00031448559
   305   6421   0   0   -0.095227835
   305   6421   0   2   -0.11575338
   305   6321   0   2   -0.00030715448
   3051111   4133   0   0    1.6009124
   3051111   4133   0   2    1.6010113
   3051111   4233   0   2    7.7722701e-05
   3051111   4137   0   0   -4.4236045
   3051111   4137   0   2   -4.4221509
   3051111   4237   0   2   -0.00059756207
   3051313   4133   0   0    1.6009124
   3051313   4133   0   2    1.6010107
   3051313   4233   0   2    7.7722634e-05
   3051313   4137   0   0   -4.4236045
   3051313   4137   0   2   -4.4221515
   3051313   4237   0   2   -0.00059756211
   3051212   4137   0   0    1.5053501
   3051212   4137   0   2    1.5050357
   3051212   4237   0   2    0.00012996819
   3051414   4137   0   0    1.5053501
   3051414   4137   0   2    1.5050357
   3051414   4237   0   2    0.0001299682
   3051616   4137   0   0    1.5053501
   3051616   4137   0   2    1.5050357
   3051616   4237   0   2    0.00012997082

BLOCK IMFWCOEF Q=  160
   305   4422   0   0    3.8562583e-07
   305   4422   0   2    1.1548785e-05
   305   4322   0   2   -3.6971585e-06
   305   6421   0   0    3.3031402e-07
   305   6421   0   2   -1.3891786e-05
   305   6321   0   2   -2.9435282e-06
   3051111   4133   0   2   -2.6378871e-06
   3051111   4233   0   2    1.6550683e-06
   3051111   4137   0   2    2.2391577e-05
   3051111   4237   0   2   -1.2725683e-05
   3051313   4133   0   2   -2.6378831e-06
   3051313   4233   0   2    1.6550678e-06
   3051313   4137   0   2    2.2391584e-05
   3051313   4237   0   2   -1.2725685e-05
   3051212   4137   0   2   -4.837104e-06
   3051212   4237   0   2    2.7678035e-06
   3051414   4137   0   2   -4.8371041e-06
   3051414   4237   0   2    2.7678035e-06
   3051616   4137   0   2   -4.8364868e-06
   3051616   4237   0   2    2.7678036e-06

DECAY 23  2.4952


DECAY 24  2.085


DECAY 1000011  12.650674
    0.49369663   2   -1000024    12
    0.25855235   2    1000022    11
    0.2476357   2    1000023    11

DECAY 2000011  18.402559
    0.99992971   2    1000022    11

DECAY 1000013  12.650793
    0.49369257   2   -1000024    14
    0.25855027   2    1000022    13
    0.24763446   2    1000023    13

DECAY 2000013  18.412807
    0.99937156   2    1000022    13
    0.00021660987   2   -1000037    14
    0.00016345049   2    1000035    13
    0.00012373478   2    1000025    13
    0.00011842404   2    1000013    25

DECAY 1000015  10.637009
    0.99871686   2    1000022    15
    0.00085926959   2   -1000024    16
    0.00042386981   2    1000023    15

DECAY 2000015  20.297356
    0.48239853   2   -1000024    16
    0.24220641   2    1000023    15
    0.18429096   2    1000022    15
    0.039016764   2    1000015    23
    0.037535371   2    1000015    25
    0.0069321573   2    1000035    15
    0.0068354422   2    1000025    15
    0.00078436807   2   -1000037    16

DECAY 1000012  12.642196
    0.49434165   2    1000024    11
    0.25910472   2    1000022    12
    0.24646175   2    1000023    12

DECAY 1000014  12.642346
    0.4943394   2    1000024    13
    0.25910191   2    1000022    14
    0.24645981   2    1000023    14

DECAY 1000016  20.345865
    0.4836995   2    1000024    15
    0.24092344   2    1000023    16
    0.18369846   2    1000022    16
    0.077849936   2    1000015    24
    0.013547254   2    1000037    15
    0.00027253957   2    1000035    16

DECAY 1000001  133.28763
    0.84363343   2    1000021    1
    0.10165838   2   -1000024    2
    0.050885475   2    1000023    1
    0.0035040563   2    1000022    1
    0.00022563558   2   -1000037    2

DECAY 2000001  179.52463
    0.98751813   2    1000021    1
    0.012480632   2    1000022    1

DECAY 1000003  133.28845
    0.84362804   2    1000021    3
    0.10165763   2   -1000024    4
    0.05088519   2    1000023    3
    0.003504043   2    1000022    3
    0.00022705129   2   -1000037    4

DECAY 2000003  179.52822
    0.98749804   2    1000021    3
    0.012480388   2    1000022    3

DECAY 1000005  88.290387
    0.9973226   2    1000006   -24
    0.0025806326   2    1000022    5

DECAY 2000005  140.43302
    0.91088555   2    1000021    5
    0.020702605   2    1000005    25
    0.016876631   2   -1000037    6
    0.013912474   2    1000022    5
    0.011554094   2    2000006   -24
    0.0086459306   2    1000025    5
    0.0085497927   2    1000035    5
    0.0066300626   2    1000005    23
    0.0019816682   2    1000006   -24
    0.00017620877   2   -1000024    6

DECAY 2000002  0.0028859606
    1   2    1000022    2

DECAY 1000002  133.23631
    0.84344177   2    1000021    2
    0.1019383   2    1000024    1
    0.050929356   2    1000023    2
    0.0034830831   2    1000022    2
    0.00012856228   2    1000037    1

DECAY 2000004  0.0028772901
    1   2    1000022    4

DECAY 1000004  133.23709
    0.84343629   2    1000021    4
    0.10193779   2    1000024    3
    0.050929007   2    1000023    4
    0.0034830623   2    1000022    4
    0.00013353809   2    1000037    3

DECAY 1000006  1.2393972
    0.99936041   2    1000022    6
    0.00063682797   2    1000022    4

DECAY 2000006  100.45718
    0.51644908   2    1000006    25
    0.47735322   2    1000006    23
    0.0052881004   2    1000022    6
    0.00090960891   2    1000024    5

DECAY 1000024  0.25803874
    0.96234892   2    1000006   -5
    0.031666861   2    1000022    24
    0.0043359838   3    1000022   -5    6
    0.00057424269   3    1000022   -13    14
    0.00057423889   3    1000022   -11    12
    0.00034519834   3    1000022   -15    16

DECAY 1000037  80.190095
    0.58367376   2    1000006   -5
    0.18930769   2   -1000005    6
    0.058155231   2    1000024    25
    0.050990893   2    1000023    24
    0.049101806   2    1000024    23
    0.038267141   2    2000006   -5
    0.025833084   2    1000022    24
    0.0012439625   3    1000022   -5    6
    0.001220277   3    1000023   -5    6
    0.0012175759   3    1000024    6   -6
    0.00085711054   2   -1000015    16
    0.00011227459   3    1000021   -5    6

DECAY 1000022 -1


DECAY 1000023  0.35050962
    0.38724792   2    1000006   -6
    0.38724792   2   -1000006    6
    0.09849443   2    1000006   -4
    0.09849443   2   -1000006    4
    0.021614418   2    1000022    25
    0.003309072   2    1000022    23
    0.0014222647   3    1000022    6   -6
    0.00083039792   3    1000022    5   -5
    0.00054713577   3    1000022    12   -12
    0.00021127187   3    1000022    13   -13
    0.00021126886   3    1000022    11   -11
    0.00012997491   3    1000022    15   -15

DECAY 1000025  82.45021
    0.26935412   2    1000006   -6
    0.26935412   2   -1000006    6
    0.096110188   2    2000006   -6
    0.096110188   2   -2000006    6
    0.049138454   2    1000024   -24
    0.049138454   2   -1000024    24
    0.048442513   2    1000023    25
    0.046898606   2    1000023    23
    0.020266311   2    1000022    23
    0.016988771   2    1000005   -5
    0.016988771   2   -1000005    5
    0.016485413   2    1000022    25
    0.0011844862   3    1000024    5   -6
    0.0011844862   3   -1000024   -5    6
    0.00081587635   3    1000022    6   -6
    0.00051759138   3    1000023    6   -6
    0.00041439104   2    1000015   -15
    0.00041439104   2   -1000015    15
    0.00011395901   3    1000021    6   -6

DECAY 1000035  78.194159
    0.29245339   2    1000006   -6
    0.29245339   2   -1000006    6
    0.096806468   2    2000006   -6
    0.096806468   2   -2000006    6
    0.058664586   2    1000023    25
    0.047448517   2    1000024   -24
    0.047448517   2   -1000024    24
    0.020086302   2    1000022    25
    0.018111526   2    1000005   -5
    0.018111526   2   -1000005    5
    0.0053388485   2    1000022    23
    0.001316136   3    1000024    5   -6
    0.001316136   3   -1000024   -5    6
    0.00097844139   2    1000023    23
    0.00091833384   3    1000022    6   -6
    0.00060243979   3    1000023    6   -6
    0.00044025846   2    1000015   -15
    0.00044025846   2   -1000015    15
    0.00011466027   3    1000021    6   -6

DECAY 1000021  121.08919
    0.20063846   2    2000002   -2
    0.20063846   2   -2000002    2
    0.20063815   2    2000004   -4
    0.20063815   2   -2000004    4
    0.097502732   2    1000006   -6
    0.097502732   2   -1000006    6
    0.00075234472   2    1000006   -4
    0.00075234472   2   -1000006    4
    0.00045774311   2    1000005   -5
    0.00045774311   2   -1000005    5

DECAY 25  0.0037008418
    0.58927433   2   -5    5
    0.21161989   2   -24    24
    0.072887982   2    21    21
    0.067623407   2   -15    15
    0.029323294   2   -4    4
    0.025028128   2    23    23
    0.0023736966   2    22    22
    0.0014127927   2    22    23
    0.00023453316   2   -13    13
    0.00022118008   2   -3    3
    6.1154042e-07   2   -1    1
    1.511137e-07   2   -2    2
    5.2725807e-09   2   -11    11

DECAY 35  25.178936
    0.64835617   2   -5    5
    0.19608302   2   -15    15
    0.15284227   2   -1000006    1000006
    0.0013131201   2    25    25
    0.00068234039   2   -13    13
    0.00031402173   2   -3    3
    0.00029214722   2   -6    6
    6.5110541e-05   2    21    21
    3.910176e-05   2    1000022    1000022
    6.6852495e-06   2    1000022    1000023
    1.9036871e-06   2   -1000002    1000002
    1.9033696e-06   2   -1000004    1000004
    8.6836363e-07   2   -1    1
    5.7230677e-07   2    23    23
    4.5354166e-07   2    22    22
    1.5744512e-07   2   -24    24
    1.408682e-07   2    22    23
    1.5324638e-08   2   -11    11
    6.0494782e-10   2   -4    4
    3.1004333e-15   2   -2    2

DECAY 36  20.644079
    0.76637068   2   -5    5
    0.23176603   2   -15    15
    0.00080651294   2   -13    13
    0.0003709696   2   -3    3
    0.0003620194   2   -6    6
    0.00022467106   2    1000022    1000023
    7.6839021e-05   2    1000022    1000022
    1.9989337e-05   2    21    21
    1.2052004e-06   2    23    25
    1.0258495e-06   2   -1    1
    2.5866793e-08   2    22    22
    1.8113314e-08   2   -11    11
    1.2435409e-08   2   -4    4
    6.2996818e-09   2    22    23
    3.5318929e-10   2    23    35
    6.4539639e-14   2   -2    2
    1.1373022e-35   2    25    25

DECAY 37  18.143997
    0.74593138   2   -5    6
    0.2513716   2   -15    16
    0.0010916813   2   -5    4
    0.00088868825   2   -13    14
    0.00040394031   2   -3    4
    0.00026811499   2    1000022    1000024
    1.892962e-05   2   -3    2
    1.4638778e-05   2   -3    6
    7.7957298e-06   2   -5    2
    1.3732281e-06   2    24    25
    1.1212031e-06   2   -1    2
    6.4393147e-07   2   -1    6
    5.8284907e-08   2   -1    4
    2.0786511e-08   2   -11    12
    1.6651179e-08   2   -1000005    1000004
    1.0688993e-09   2    24    35
    6.2368576e-16   2   -1000005    1000002

DECAY 6  2.43
    1   2    5    24

DECAY 15 -1
