# SUSY Les Houches Accord 2 - MSSM spectrum + Decays
# SPheno v4.0.5be
# W. Porod, Comput. Phys. Commun. 153 (2003) 275-315, hep-ph/0301101;
# W. Porod, F.~Staub, Comput. Phys. Commun. 183 (2012) 2458
#                     arXiv:1104.1573 [hep-ph] 
# in case of problems send email to porod@physik.uni-wuerzburg.de
# Created: 07.09.2021,  21:43
Block SPINFO         # Program information
     1   SPheno      # spectrum calculator
     2   v4.0.5be    # version number
#
Block SPhenoINFO     # SPheno specific information
    1      2         # using 2-loop RGEs
    2      2         # using pole masses for boundary conditions at mZ
Block MODSEL  # Model selection
    1    0    # general MSSM
Block MINPAR  # Input parameters
    3    5.05704234E+01  # tanb at m_Z    
    4    1.00000000E+00  # Sign(mu)
Block EXTPAR  # non-universal input parameters
    0    3.98589060E+03  # scale for input parameters
    1   -2.33026503E+02  # M_1
    2    3.31677508E+02  # M_2
    3    1.82974731E+03  # M_3
   11   -6.77420371E+03  # A_t
   12    1.23922314E+03  # A_b
   13    1.95387597E+02  # A_tau
   23    2.50853102E+02  # mu
   25    5.00105223E+01  # tan(beta)
   26    3.26017733E+03  # m_A, pole mass
   31    1.00000000E+04  # M_L11
   32    1.00000000E+04  # M_L22
   33    1.00000000E+04  # M_L33
   34    1.00000000E+04  # M_E11
   35    1.00000000E+04  # M_E22
   36    1.00000000E+04  # M_E33
   41    1.00000000E+04  # M_Q11
   42    1.00000000E+04  # M_Q22
   43    4.44072734E+03  # M_Q33
   44    1.00000000E+04  # M_U11
   45    1.00000000E+04  # M_U22
   46    3.68008335E+03  # M_U33
   47    1.00000000E+04  # M_D11
   48    1.00000000E+04  # M_D22
   49    4.70641718E+03  # M_D33
Block SMINPUTS  # SM parameters
         1     1.27908970E+02  # alpha_em^-1(MZ)^MSbar
         2     1.16637870E-05  # G_mu [GeV^-2]
         3     1.18400000E-01  # alpha_s(MZ)^MSbar
         4     9.11876000E+01  # m_Z(pole)
         5     4.18000000E+00  # m_b(m_b), MSbar
         6     1.73200000E+02  # m_t(pole)
         7     1.77700000E+00  # m_tau(pole)
         8     0.00000000E+00  # m_nu_3
        11     5.10998930E-04  # m_e(pole)
        12     0.00000000E+00  # m_nu_1
        13     1.05658372E-01  # m_muon(pole)
        14     0.00000000E+00  # m_nu_2
        21     5.00000000E-03  # m_d(2 GeV), MSbar
        22     2.50000000E-03  # m_u(2 GeV), MSbar
        23     9.50000000E-02  # m_s(2 GeV), MSbar
        24     1.27000000E+00  # m_c(m_c), MSbar
Block gauge Q=  3.98589060E+03  # (SUSY scale)
   1    3.55362975E-01  # g'(Q)^DRbar
   2    6.65198874E-01  # g(Q)^DRbar
   3    1.21977796E+00  # g3(Q)^DRbar
Block Yu Q=  3.98589060E+03  # (SUSY scale)
  1  1     8.38604814E-06   # Y_u(Q)^DRbar
  2  2     4.26011245E-03   # Y_c(Q)^DRbar
  3  3     1.01310197E+00   # Y_t(Q)^DRbar
Block Yd Q=  3.98589060E+03  # (SUSY scale)
  1  1     8.42750441E-04   # Y_d(Q)^DRbar
  2  2     1.60122584E-02   # Y_s(Q)^DRbar
  3  3     8.35744358E-01   # Y_b(Q)^DRbar
Block Ye Q=  3.98589060E+03  # (SUSY scale)
  1  1     1.47066115E-04   # Y_e(Q)^DRbar
  2  2     3.04086082E-02   # Y_mu(Q)^DRbar
  3  3     5.11422765E-01   # Y_tau(Q)^DRbar
Block Au Q=  3.98589060E+03  # (SUSY scale)
  1  1     0.00000000E+00   # A_u(Q)^DRbar
  2  2     0.00000000E+00   # A_c(Q)^DRbar
  3  3    -6.77420981E+03   # A_t(Q)^DRbar
Block Ad Q=  3.98589060E+03  # (SUSY scale)
  1  1     0.00000000E+00   # A_d(Q)^DRbar
  2  2     0.00000000E+00   # A_s(Q)^DRbar
  3  3     1.23922219E+03   # A_b(Q)^DRbar
Block Ae Q=  3.98589060E+03  # (SUSY scale)
  1  1     0.00000000E+00   # A_e(Q)^DRbar
  2  2     0.00000000E+00   # A_mu(Q)^DRbar
  3  3     1.95387536E+02   # A_tau(Q)^DRbar
Block MSOFT Q=  3.98589060E+03  # soft SUSY breaking masses at Q
   1   -2.33026503E+02  # M_1
   2    3.31677508E+02  # M_2
   3    1.82974731E+03  # M_3
  21    1.07837480E+07  # M^2_(H,d)
  22    2.89931912E+05  # M^2_(H,u)
  31    1.00000000E+04  # M_(L,11)
  32    1.00000000E+04  # M_(L,22)
  33    1.00000000E+04  # M_(L,33)
  34    1.00000000E+04  # M_(E,11)
  35    1.00000000E+04  # M_(E,22)
  36    1.00000000E+04  # M_(E,33)
  41    1.00000000E+04  # M_(Q,11)
  42    1.00000000E+04  # M_(Q,22)
  43    4.44072734E+03  # M_(Q,33)
  44    1.00000000E+04  # M_(U,11)
  45    1.00000000E+04  # M_(U,22)
  46    3.68008335E+03  # M_(U,33)
  47    1.00000000E+04  # M_(D,11)
  48    1.00000000E+04  # M_(D,22)
  49    4.70641718E+03  # M_(D,33)
Block MASS  # Mass spectrum
#   PDG code      mass          particle
         6     1.73200000E+02  # m_t(pole)
        23     9.11876000E+01  # m_Z(pole)
        24     8.04299946E+01  # W+
        15     1.77700000E+00  # m_tau(pole)
        25     1.29100457E+02  # h0
        35     3.25814616E+03  # H0
        36     3.26017733E+03  # A0
        37     3.26374304E+03  # H+
   1000001     1.01193887E+04  # ~d_L
   2000001     1.00941351E+04  # ~d_R
   1000002     1.01190274E+04  # ~u_L
   2000002     1.00969677E+04  # ~u_R
   1000003     1.01193917E+04  # ~s_L
   2000003     1.00941403E+04  # ~s_R
   1000004     1.01190303E+04  # ~c_L
   2000004     1.00969683E+04  # ~c_R
   1000005     4.39894341E+03  # ~b_1
   2000005     4.72202114E+03  # ~b_2
   1000006     3.59770046E+03  # ~t_1
   2000006     4.41596627E+03  # ~t_2
   1000011     1.00213245E+04  # ~e_L-
   2000011     1.00092864E+04  # ~e_R-
   1000012     1.00205555E+04  # ~nu_eL
   1000013     1.00213389E+04  # ~mu_L-
   2000013     1.00093133E+04  # ~mu_R-
   1000014     1.00205695E+04  # ~nu_muL
   1000015     1.00168968E+04  # ~tau_1-
   2000015     1.00254475E+04  # ~tau_2-
   1000016     1.00245455E+04  # ~nu_tauL
   1000021     2.24295752E+03  # ~g
   1000022     2.18872829E+02  # ~chi_10
   1000023     2.44510295E+02  # ~chi_20
   1000025     2.91022420E+02  # ~chi_30
   1000035     3.98350706E+02  # ~chi_40
   1000024     2.46911446E+02  # ~chi_1+
   1000037     3.98591540E+02  # ~chi_2+
# Higgs mixing
Block alpha # Effective Higgs mixing angle
          -1.98233025E-02   # alpha
Block Hmix Q=  3.98589060E+03  # Higgs mixing parameters
   1    2.50853102E+02  # mu
   2    5.00105223E+01  # tan[beta](Q)
   3    2.42903795E+02  # v(Q)
   4    1.06287562E+07  # m^2_A(Q)
Block stopmix # stop mixing matrix
   1  1     1.44574143E-01   # Re[R_st(1,1)]
   1  2     9.89493970E-01   # Re[R_st(1,2)]
   2  1    -9.89493970E-01   # Re[R_st(2,1)]
   2  2     1.44574143E-01   # Re[R_st(2,2)]
Block sbotmix # sbottom mixing matrix
   1  1     9.99971864E-01   # Re[R_sb(1,1)]
   1  2     7.50143510E-03   # Re[R_sb(1,2)]
   2  1    -7.50143510E-03   # Re[R_sb(2,1)]
   2  2     9.99971864E-01   # Re[R_sb(2,2)]
Block staumix # stau mixing matrix
   1  1     1.29615602E-01   # Re[R_sta(1,1)]
   1  2     9.91564317E-01   # Re[R_sta(1,2)]
   2  1    -9.91564317E-01   # Re[R_sta(2,1)]
   2  2     1.29615602E-01   # Re[R_sta(2,2)]
Block Nmix # neutralino mixing matrix
   1  1     8.68346166E-01   # Re[N(1,1)]
   1  2     4.18183125E-02   # Re[N(1,2)]
   1  3     3.84383943E-01   # Re[N(1,3)]
   1  4     3.10604491E-01   # Re[N(1,4)]
   2  1    -5.80628000E-02   # Re[N(2,1)]
   2  2    -4.14628914E-01   # Re[N(2,2)]
   2  3     6.70872231E-01   # Re[N(2,3)]
   2  4    -6.12080080E-01   # Re[N(2,4)]
   3  1    -4.91914649E-01   # Re[N(3,1)]
   3  2     7.67768562E-02   # Re[N(3,2)]
   3  3     5.87180508E-01   # Re[N(3,3)]
   3  4     6.38235335E-01   # Re[N(3,4)]
   4  1     2.49725090E-02   # Re[N(4,1)]
   4  2    -9.05781103E-01   # Re[N(4,2)]
   4  3    -2.39579809E-01   # Re[N(4,3)]
   4  4     3.48623697E-01   # Re[N(4,4)]
Block Umix # chargino mixing matrix
   1  1    -3.43200195E-01   # Re[U(1,1)]
   1  2     9.39262278E-01   # Re[U(1,2)]
   2  1     9.39262278E-01   # Re[U(2,1)]
   2  2     3.43200195E-01   # Re[U(2,2)]
Block Vmix # chargino mixing matrix
   1  1    -5.00723683E-01   # Re[V(1,1)]
   1  2     8.65607182E-01   # Re[V(1,2)]
   2  1     8.65607182E-01   # Re[V(2,1)]
   2  2     5.00723683E-01   # Re[V(2,2)]
DECAY        23     2.49520000E+00   # Z
DECAY        24     2.08500000E+00   # W
DECAY   2000011     5.02358902E+01   # ~e^-_R
#    BR                NDA      ID1      ID2
     7.54160653E-01    2     1000022        11   # BR(~e^-_R -> chi^0_1 e^-)
     3.37113345E-03    2     1000023        11   # BR(~e^-_R -> chi^0_2 e^-)
     2.41845764E-01    2     1000025        11   # BR(~e^-_R -> chi^0_3 e^-)
     6.22363979E-04    2     1000035        11   # BR(~e^-_R -> chi^0_4 e^-)
DECAY   1000011     1.44522352E+02   # ~e^-_L
#    BR                NDA      ID1      ID2
     7.79787713E-02    2     1000022        11   # BR(~e^-_L -> chi^0_1 e^-)
     6.05422573E-02    2     1000023        11   # BR(~e^-_L -> chi^0_2 e^-)
     1.05427189E-02    2     1000025        11   # BR(~e^-_L -> chi^0_3 e^-)
     2.42313749E-01    2     1000035        11   # BR(~e^-_L -> chi^0_4 e^-)
     7.18109820E-02    2    -1000024        12   # BR(~e^-_L -> chi^-_1 nu_e)
     5.36811521E-01    2    -1000037        12   # BR(~e^-_L -> chi^-_2 nu_e)
#    BR                NDA      ID1      ID2       ID3
DECAY   2000013     5.06037477E+01   # ~mu^-_R
#    BR                NDA      ID1      ID2
     7.49217469E-01    2     1000022        13   # BR(~mu^-_R -> chi^0_1 mu^-)
     4.98230938E-03    2     1000023        13   # BR(~mu^-_R -> chi^0_2 mu^-)
     2.41340766E-01    2     1000025        13   # BR(~mu^-_R -> chi^0_3 mu^-)
     8.26031293E-04    2     1000035        13   # BR(~mu^-_R -> chi^0_4 mu^-)
     3.20619462E-03    2    -1000024        14   # BR(~mu^-_R -> chi^-_1 nu_mu)
     4.27229650E-04    2    -1000037        14   # BR(~mu^-_R -> chi^-_2 nu_mu)
DECAY   1000013     1.44706644E+02   # ~mu^-_L
#    BR                NDA      ID1      ID2
     7.80676237E-02    2     1000022        13   # BR(~mu^-_L -> chi^0_1 mu^-)
     6.10379153E-02    2     1000023        13   # BR(~mu^-_L -> chi^0_2 mu^-)
     1.09677959E-02    2     1000025        13   # BR(~mu^-_L -> chi^0_3 mu^-)
     2.42078398E-01    2     1000035        13   # BR(~mu^-_L -> chi^0_4 mu^-)
     7.17196301E-02    2    -1000024        14   # BR(~mu^-_L -> chi^-_1 nu_mu)
     5.36128637E-01    2    -1000037        14   # BR(~mu^-_L -> chi^-_2 nu_mu)
#    BR                NDA      ID1      ID2       ID3
DECAY   1000015     1.55094268E+02   # ~tau^-_1
#    BR                NDA      ID1      ID2
     3.04058986E-01    2     1000022        15   # BR(~tau^-_1 -> chi^0_1 tau^-)
     1.73517912E-01    2     1000023        15   # BR(~tau^-_1 -> chi^0_2 tau^-)
     1.77104438E-01    2     1000025        15   # BR(~tau^-_1 -> chi^0_3 tau^-)
     5.77916014E-03    2     1000035        15   # BR(~tau^-_1 -> chi^0_4 tau^-)
     3.28448168E-01    2    -1000024        16   # BR(~tau^-_1 -> chi^-_1 nu_tau)
     1.10913365E-02    2    -1000037        16   # BR(~tau^-_1 -> chi^-_2 nu_tau)
DECAY   2000015     1.95947547E+02   # ~tau^-_2
#    BR                NDA      ID1      ID2
     8.89216257E-02    2     1000022        15   # BR(~tau^-_2 -> chi^0_1 tau^-)
     1.47435241E-01    2     1000023        15   # BR(~tau^-_2 -> chi^0_2 tau^-)
     1.12855273E-01    2     1000025        15   # BR(~tau^-_2 -> chi^0_3 tau^-)
     2.04842937E-01    2     1000035        15   # BR(~tau^-_2 -> chi^0_4 tau^-)
     2.73796945E-02    2    -1000024        16   # BR(~tau^-_2 -> chi^-_1 nu_tau)
     4.18565228E-01    2    -1000037        16   # BR(~tau^-_2 -> chi^-_2 nu_tau)
#    BR                NDA      ID1      ID2       ID3
DECAY   1000012     1.44527276E+02   # ~nu_e
#    BR                NDA      ID1      ID2
     5.43125139E-02    2     1000022        12   # BR(~nu_e -> chi^0_1 nu_e)
     4.48548026E-02    2     1000023        12   # BR(~nu_e -> chi^0_2 nu_e)
     3.51289570E-02    2     1000025        12   # BR(~nu_e -> chi^0_3 nu_e)
     2.56990848E-01    2     1000035        12   # BR(~nu_e -> chi^0_4 nu_e)
     1.52842435E-01    2     1000024        11   # BR(~nu_e -> chi^+_1 e^-)
     4.55870444E-01    2     1000037        11   # BR(~nu_e -> chi^+_2 e^-)
#    BR                NDA      ID1      ID2       ID3
DECAY   1000014     1.44711547E+02   # ~nu_mu
#    BR                NDA      ID1      ID2
     5.42434301E-02    2     1000022        14   # BR(~nu_mu -> chi^0_1 nu_mu)
     4.47977487E-02    2     1000023        14   # BR(~nu_mu -> chi^0_2 nu_mu)
     3.50842741E-02    2     1000025        14   # BR(~nu_mu -> chi^0_3 nu_mu)
     2.56663965E-01    2     1000035        14   # BR(~nu_mu -> chi^0_4 nu_mu)
     1.53770413E-01    2     1000024        13   # BR(~nu_mu -> chi^+_1 mu^-)
     4.55440169E-01    2     1000037        13   # BR(~nu_mu -> chi^+_2 mu^-)
#    BR                NDA      ID1      ID2       ID3
DECAY   1000016     1.96671977E+02   # ~nu_tau
#    BR                NDA      ID1      ID2
     3.99282672E-02    2     1000022        16   # BR(~nu_tau -> chi^0_1 nu_tau)
     3.29753633E-02    2     1000023        16   # BR(~nu_tau -> chi^0_2 nu_tau)
     2.58253411E-02    2     1000025        16   # BR(~nu_tau -> chi^0_3 nu_tau)
     1.88929154E-01    2     1000035        16   # BR(~nu_tau -> chi^0_4 nu_tau)
     3.46060674E-01    2     1000024        15   # BR(~nu_tau -> chi^+_1 tau^-)
     3.66281200E-01    2     1000037        15   # BR(~nu_tau -> chi^+_2 tau^-)
#    BR                NDA      ID1      ID2       ID3
DECAY   2000001     7.25655765E+02   # ~d_R
#    BR                NDA      ID1      ID2
     5.85032390E-03    2     1000022         1   # BR(~d_R -> chi^0_1 d)
     1.87617497E-03    2     1000025         1   # BR(~d_R -> chi^0_3 d)
     9.92242226E-01    2     1000021         1   # BR(~d_R -> ~g d)
DECAY   1000001     8.56854790E+02   # ~d_L
#    BR                NDA      ID1      ID2
     6.60943261E-04    2     1000022         1   # BR(~d_L -> chi^0_1 d)
     8.48655910E-03    2     1000023         1   # BR(~d_L -> chi^0_2 d)
     1.40221543E-03    2     1000025         1   # BR(~d_L -> chi^0_3 d)
     4.29342334E-02    2     1000035         1   # BR(~d_L -> chi^0_4 d)
     1.22308879E-02    2    -1000024         2   # BR(~d_L -> chi^-_1 u)
     9.14334942E-02    2    -1000037         2   # BR(~d_L -> chi^-_2 u)
     8.42851667E-01    2     1000021         1   # BR(~d_L -> ~g d)
DECAY   2000003     7.25758761E+02   # ~s_R
#    BR                NDA      ID1      ID2
     5.85993930E-03    2     1000022         3   # BR(~s_R -> chi^0_1 s)
     1.90026191E-03    2     1000025         3   # BR(~s_R -> chi^0_3 s)
     9.92102030E-01    2     1000021         3   # BR(~s_R -> ~g s)
DECAY   1000003     8.56910137E+02   # ~s_L
#    BR                NDA      ID1      ID2
     6.69767559E-04    2     1000022         3   # BR(~s_L -> chi^0_1 s)
     8.51301606E-03    2     1000023         3   # BR(~s_L -> chi^0_2 s)
     1.42280209E-03    2     1000025         3   # BR(~s_L -> chi^0_3 s)
     4.29349117E-02    2     1000035         3   # BR(~s_L -> chi^0_4 s)
     1.22332893E-02    2    -1000024         4   # BR(~s_L -> chi^-_1 c)
     9.14286849E-02    2    -1000037         4   # BR(~s_L -> chi^-_2 c)
     8.42797528E-01    2     1000021         3   # BR(~s_L -> ~g s)
DECAY   1000005     4.40785895E+02   # ~b_1
#    BR                NDA      ID1      ID2
     2.11327813E-02    2     1000022         5   # BR(~b_1 -> chi^0_1 b)
     6.94579455E-02    2     1000023         5   # BR(~b_1 -> chi^0_2 b)
     4.83416445E-02    2     1000025         5   # BR(~b_1 -> chi^0_3 b)
     4.33790759E-02    2     1000035         5   # BR(~b_1 -> chi^0_4 b)
     1.61669610E-01    2    -1000024         6   # BR(~b_1 -> chi^-_1 t)
     1.26451888E-01    2    -1000037         6   # BR(~b_1 -> chi^-_2 t)
     4.31391449E-01    2     1000021         5   # BR(~b_1 -> ~g b)
     9.81756056E-02    2     1000006       -24   # BR(~b_1 -> ~t_1 W^-)
DECAY   2000005     3.56362002E+02   # ~b_2
#    BR                NDA      ID1      ID2
     3.23885524E-02    2     1000022         5   # BR(~b_2 -> chi^0_1 b)
     8.20530532E-02    2     1000023         5   # BR(~b_2 -> chi^0_2 b)
     6.50881114E-02    2     1000025         5   # BR(~b_2 -> chi^0_3 b)
     1.07634184E-02    2     1000035         5   # BR(~b_2 -> chi^0_4 b)
     1.60423791E-01    2    -1000024         6   # BR(~b_2 -> chi^-_1 t)
     2.20297001E-02    2    -1000037         6   # BR(~b_2 -> chi^-_2 t)
     6.27179236E-01    2     1000021         5   # BR(~b_2 -> ~g b)
DECAY   2000002     7.42793404E+02   # ~u_R
#    BR                NDA      ID1      ID2
     2.28676978E-02    2     1000022         2   # BR(~u_R -> chi^0_1 u)
     1.02218940E-04    2     1000023         2   # BR(~u_R -> chi^0_2 u)
     7.33335208E-03    2     1000025         2   # BR(~u_R -> chi^0_3 u)
     9.69677859E-01    2     1000021         2   # BR(~u_R -> ~g u)
DECAY   1000002     8.56843698E+02   # ~u_L
#    BR                NDA      ID1      ID2
     2.00414061E-03    2     1000022         2   # BR(~u_L -> chi^0_1 u)
     9.37661822E-03    2     1000023         2   # BR(~u_L -> chi^0_2 u)
     4.20983303E-02    2     1000035         2   # BR(~u_L -> chi^0_4 u)
     2.60346492E-02    2     1000024         1   # BR(~u_L -> chi^+_1 d)
     7.76539206E-02    2     1000037         1   # BR(~u_L -> chi^+_2 d)
     8.42826265E-01    2     1000021         2   # BR(~u_L -> ~g u)
DECAY   2000004     7.42800704E+02   # ~c_R
#    BR                NDA      ID1      ID2
     2.28679479E-02    2     1000022         4   # BR(~c_R -> chi^0_1 c)
     1.04054646E-04    2     1000023         4   # BR(~c_R -> chi^0_2 c)
     7.33527407E-03    2     1000025         4   # BR(~c_R -> chi^0_3 c)
     9.69668357E-01    2     1000021         4   # BR(~c_R -> ~g c)
DECAY   1000004     8.56899001E+02   # ~c_L
#    BR                NDA      ID1      ID2
     2.00442236E-03    2     1000022         4   # BR(~c_L -> chi^0_1 c)
     9.37760921E-03    2     1000023         4   # BR(~c_L -> chi^0_2 c)
     4.20961437E-02    2     1000035         4   # BR(~c_L -> chi^0_4 c)
     2.60859032E-02    2     1000024         3   # BR(~c_L -> chi^+_1 s)
     7.76559870E-02    2     1000037         3   # BR(~c_L -> chi^+_2 s)
     8.42772125E-01    2     1000021         4   # BR(~c_L -> ~g c)
DECAY   1000006     2.61447195E+02   # ~t_1
#    BR                NDA      ID1      ID2
     4.46608723E-02    2     1000022         6   # BR(~t_1 -> chi^0_1 t)
     1.12615887E-01    2     1000023         6   # BR(~t_1 -> chi^0_2 t)
     1.26837041E-01    2     1000025         6   # BR(~t_1 -> chi^0_3 t)
     2.24924604E-02    2     1000035         6   # BR(~t_1 -> chi^0_4 t)
     2.30969968E-01    2     1000024         5   # BR(~t_1 -> chi^+_1 b)
     4.72805291E-02    2     1000037         5   # BR(~t_1 -> chi^+_2 b)
     2.79576242E-03    2     1000021         4   # BR(~t_1 -> ~g c)
     4.12190938E-01    2     1000021         6   # BR(~t_1 -> ~g t)
#    BR                NDA      ID1      ID2       ID3
DECAY   2000006     4.50461068E+02   # ~t_2
#    BR                NDA      ID1      ID2
     2.45506260E-02    2     1000022         6   # BR(~t_2 -> chi^0_1 t)
     7.55657244E-02    2     1000023         6   # BR(~t_2 -> chi^0_2 t)
     7.51224312E-02    2     1000025         6   # BR(~t_2 -> chi^0_3 t)
     6.63268416E-02    2     1000035         6   # BR(~t_2 -> chi^0_4 t)
     1.24893873E-01    2     1000024         5   # BR(~t_2 -> chi^+_1 b)
     9.48155595E-02    2     1000037         5   # BR(~t_2 -> chi^+_2 b)
     4.17135902E-01    2     1000021         6   # BR(~t_2 -> ~g t)
     4.96548864E-02    2     1000006        23   # BR(~t_2 -> ~t_1 Z)
     7.19341553E-02    2     1000006        25   # BR(~t_2 -> ~t_1 h^0)
DECAY   1000024     1.41615234E-05   # chi^+_1
#    BR                NDA      ID1      ID2       ID3
     3.35095614E-01    3     1000022        -1         2   # BR(chi^+_1 -> chi^0_1 d_bar u)
     3.31892132E-01    3     1000022        -3         4   # BR(chi^+_1 -> chi^0_1 s_bar c)
     1.11690804E-01    3     1000022       -11        12   # BR(chi^+_1 -> chi^0_1 e^+ nu_e)
     1.11685688E-01    3     1000022       -13        14   # BR(chi^+_1 -> chi^0_1 mu^+ nu_mu)
     1.09628864E-01    3     1000022       -15        16   # BR(chi^+_1 -> chi^0_1 tau^+ nu_tau)
DECAY   1000037     1.87833404E+00   # chi^+_2
#    BR                NDA      ID1      ID2
     2.13030286E-01    2     1000022        24   # BR(chi^+_2 -> chi^0_1 W^+)
     2.65886738E-01    2     1000023        24   # BR(chi^+_2 -> chi^0_2 W^+)
     2.26233472E-01    2     1000025        24   # BR(chi^+_2 -> chi^0_3 W^+)
     2.12449862E-01    2     1000024        23   # BR(chi^+_2 -> chi^+_1 Z)
     8.23996003E-02    2     1000024        25   # BR(chi^+_2 -> chi^+_1 h^0)
#    BR                NDA      ID1      ID2       ID3
DECAY   1000022     0.00000000E+00   # chi^0_1
DECAY   1000023     7.14613994E-06   # chi^0_2
#    BR                NDA      ID1      ID2
     5.22602550E-02    2     1000022        22   # BR(chi^0_2 -> chi^0_1 photon)
#    BR                NDA      ID1      ID2       ID3
     1.17787137E-01    3     1000022         2        -2   # BR(chi^0_2 -> chi^0_1 u u_bar)
     1.14081097E-01    3     1000022         4        -4   # BR(chi^0_2 -> chi^0_1 c c_bar)
     1.51024134E-01    3     1000022         1        -1   # BR(chi^0_2 -> chi^0_1 d d_bar)
     1.51000841E-01    3     1000022         3        -3   # BR(chi^0_2 -> chi^0_1 s s_bar)
     1.11921275E-01    3     1000022         5        -5   # BR(chi^0_2 -> chi^0_1 b b_bar)
     3.40785775E-02    3     1000022        11       -11   # BR(chi^0_2 -> chi^0_1 e^- e^+)
     3.40702663E-02    3     1000022        13       -13   # BR(chi^0_2 -> chi^0_1 mu^- mu^+)
     3.18256260E-02    3     1000022        15       -15   # BR(chi^0_2 -> chi^0_1 tau^- tau^+)
     2.01950791E-01    3     1000022        12       -12   # BR(chi^0_2 -> chi^0_1 nu_e nu_bar_e)
DECAY   1000025     1.47417183E-03   # chi^0_3
#    BR                NDA      ID1      ID2
     1.22479801E-04    2     1000022        22   # BR(chi^0_3 -> chi^0_1 photon)
     1.01249714E-02    2     1000023        22   # BR(chi^0_3 -> chi^0_2 photon)
#    BR                NDA      ID1      ID2       ID3
     6.66292839E-04    3     1000022         2        -2   # BR(chi^0_3 -> chi^0_1 u u_bar)
     6.64774959E-04    3     1000022         4        -4   # BR(chi^0_3 -> chi^0_1 c c_bar)
     8.53967264E-04    3     1000022         1        -1   # BR(chi^0_3 -> chi^0_1 d d_bar)
     8.53959871E-04    3     1000022         3        -3   # BR(chi^0_3 -> chi^0_1 s s_bar)
     8.46981699E-04    3     1000022         5        -5   # BR(chi^0_3 -> chi^0_1 b b_bar)
     1.92435326E-04    3     1000022        11       -11   # BR(chi^0_3 -> chi^0_1 e^- e^+)
     1.92434140E-04    3     1000022        13       -13   # BR(chi^0_3 -> chi^0_1 mu^- mu^+)
     1.92005485E-04    3     1000022        15       -15   # BR(chi^0_3 -> chi^0_1 tau^- tau^+)
     1.14258004E-03    3     1000022        12       -12   # BR(chi^0_3 -> chi^0_1 nu_e nu_bar_e)
     3.85404652E-02    3     1000023         2        -2   # BR(chi^0_3 -> chi^0_2 u u_bar)
     3.81998164E-02    3     1000023         4        -4   # BR(chi^0_3 -> chi^0_2 c c_bar)
     4.94161742E-02    3     1000023         1        -1   # BR(chi^0_3 -> chi^0_2 d d_bar)
     4.94140886E-02    3     1000023         3        -3   # BR(chi^0_3 -> chi^0_2 s s_bar)
     4.55841077E-02    3     1000023         5        -5   # BR(chi^0_3 -> chi^0_2 b b_bar)
     1.11521334E-02    3     1000023        11       -11   # BR(chi^0_3 -> chi^0_2 e^- e^+)
     1.11513832E-02    3     1000023        13       -13   # BR(chi^0_3 -> chi^0_2 mu^- mu^+)
     1.09425892E-02    3     1000023        15       -15   # BR(chi^0_3 -> chi^0_2 tau^- tau^+)
     6.60855235E-02    3     1000023        12       -12   # BR(chi^0_3 -> chi^0_2 nu_e nu_bar_e)
     1.10816697E-01    3     1000024         1        -2   # BR(chi^0_3 -> chi^+_1 d u_bar)
     1.10816697E-01    3    -1000024        -1         2   # BR(chi^0_3 -> chi^-_1 d_bar u)
     1.10437329E-01    3     1000024         3        -4   # BR(chi^0_3 -> chi^+_1 s c_bar)
     1.10437329E-01    3    -1000024        -3         4   # BR(chi^0_3 -> chi^-_1 s_bar c)
     3.69396461E-02    3     1000024        11       -12   # BR(chi^0_3 -> chi^+_1 e^- nu_bar_e)
     3.69396461E-02    3    -1000024       -11        12   # BR(chi^0_3 -> chi^-_1 e^+ nu_e)
     3.69390390E-02    3     1000024        13       -14   # BR(chi^0_3 -> chi^+_1 mu^- nu_bar_mu)
     3.69390390E-02    3    -1000024       -13        14   # BR(chi^0_3 -> chi^-_1 mu^+ nu_mu)
     3.66977071E-02    3     1000024        15       -16   # BR(chi^0_3 -> chi^+_1 tau^- nu_bar_tau)
     3.66977071E-02    3    -1000024       -15        16   # BR(chi^0_3 -> chi^-_1 tau^+ nu_tau)
DECAY   1000035     2.12775985E+00   # chi^0_4
#    BR                NDA      ID1      ID2
     2.49474297E-01    2     1000024       -24   # BR(chi^0_4 -> chi^+_1 W^-)
     2.49474297E-01    2    -1000024        24   # BR(chi^0_4 -> chi^-_1 W^+)
     1.74432322E-01    2     1000022        23   # BR(chi^0_4 -> chi^0_1 Z)
     9.02428913E-03    2     1000023        23   # BR(chi^0_4 -> chi^0_2 Z)
     1.69613122E-01    2     1000025        23   # BR(chi^0_4 -> chi^0_3 Z)
     8.19973875E-02    2     1000022        25   # BR(chi^0_4 -> chi^0_1 h^0)
     6.59439921E-02    2     1000023        25   # BR(chi^0_4 -> chi^0_2 h^0)
#    BR                NDA      ID1      ID2       ID3
DECAY   1000021     3.95953985E-02   # ~g
#    BR                NDA      ID1      ID2
     1.09857221E-03    2     1000022        21   # BR(~g -> chi^0_1 g)
     2.96435950E-03    2     1000023        21   # BR(~g -> chi^0_2 g)
     3.39737125E-03    2     1000025        21   # BR(~g -> chi^0_3 g)
     8.50790309E-04    2     1000035        21   # BR(~g -> chi^0_4 g)
#    BR                NDA      ID1      ID2       ID3
     2.27073392E-04    3     1000022         2        -2   # BR(~g -> chi^0_1 u u_bar)
     2.27084225E-04    3     1000022         4        -4   # BR(~g -> chi^0_1 c c_bar)
     5.29449287E-02    3     1000022         6        -6   # BR(~g -> chi^0_1 t t_bar)
     2.01097612E-02    3     1000022         5        -5   # BR(~g -> chi^0_1 b b_bar)
     1.15224885E-01    3     1000023         6        -6   # BR(~g -> chi^0_2 t t_bar)
     5.88342103E-02    3     1000023         5        -5   # BR(~g -> chi^0_2 b b_bar)
     1.19663868E-01    3     1000025         6        -6   # BR(~g -> chi^0_3 t t_bar)
     4.24462599E-02    3     1000025         5        -5   # BR(~g -> chi^0_3 b b_bar)
     4.01060464E-04    3     1000035         2        -2   # BR(~g -> chi^0_4 u u_bar)
     4.01071693E-04    3     1000035         4        -4   # BR(~g -> chi^0_4 c c_bar)
     5.39279344E-02    3     1000035         6        -6   # BR(~g -> chi^0_4 t t_bar)
     4.08833800E-04    3     1000035         1        -1   # BR(~g -> chi^0_4 d d_bar)
     4.08911176E-04    3     1000035         3        -3   # BR(~g -> chi^0_4 s s_bar)
     2.02491946E-02    3     1000035         5        -5   # BR(~g -> chi^0_4 b b_bar)
     1.94124687E-04    3     1000024         1        -2   # BR(~g -> chi^+_1 d u_bar)
     1.94124687E-04    3    -1000024        -1         2   # BR(~g -> chi^-_1 d_bar u)
     1.94855456E-04    3     1000024         3        -4   # BR(~g -> chi^+_1 s c_bar)
     1.94855456E-04    3    -1000024        -3         4   # BR(~g -> chi^-_1 s_bar c)
     1.73943634E-01    3     1000024         5        -6   # BR(~g -> chi^+_1 b t_bar)
     1.73943634E-01    3    -1000024        -5         6   # BR(~g -> chi^-_1 b_bar t)
     8.04326323E-04    3     1000037         1        -2   # BR(~g -> chi^+_2 d u_bar)
     8.04326323E-04    3    -1000037        -1         2   # BR(~g -> chi^-_2 d_bar u)
     8.04417309E-04    3     1000037         3        -4   # BR(~g -> chi^+_2 s c_bar)
     8.04417309E-04    3    -1000037        -3         4   # BR(~g -> chi^-_2 s_bar c)
     7.68262622E-02    3     1000037         5        -6   # BR(~g -> chi^+_2 b t_bar)
     7.68262622E-02    3    -1000037        -5         6   # BR(~g -> chi^-_2 b_bar t)
DECAY        25     4.23233519E-03   # Gamma(h0)
     2.47542798E-03   2        22        22   # BR(h0 -> photon photon)
     1.95183131E-03   2        22        23   # BR(h0 -> photon Z)
     4.15579912E-02   2        23        23   # BR(h0 -> Z Z)
     3.18202185E-01   2       -24        24   # BR(h0 -> W W)
     7.30724518E-02   2        21        21   # BR(h0 -> gluon gluon)
     4.35758973E-09   2       -11        11   # BR(h0 -> Electron electron)
     1.93835281E-04   2       -13        13   # BR(h0 -> Muon muon)
     5.58940738E-02   2       -15        15   # BR(h0 -> Tau tau)
     1.22966330E-07   2        -2         2   # BR(h0 -> Up up)
     2.38667793E-02   2        -4         4   # BR(h0 -> Charm charm)
     5.01484377E-07   2        -1         1   # BR(h0 -> Down down)
     1.81375576E-04   2        -3         3   # BR(h0 -> Strange strange)
     4.82603420E-01   2        -5         5   # BR(h0 -> Bottom bottom)
DECAY        35     1.39815505E+02   # Gamma(HH)
     7.06077378E-09   2        22        22   # BR(HH -> photon photon)
     4.03083423E-08   2        22        23   # BR(HH -> photon Z)
     1.23317829E-07   2        23        23   # BR(HH -> Z Z)
     3.34563298E-08   2       -24        24   # BR(HH -> W W)
     7.07770426E-06   2        21        21   # BR(HH -> gluon gluon)
     8.39344737E-09   2       -11        11   # BR(HH -> Electron electron)
     3.73724663E-04   2       -13        13   # BR(HH -> Muon muon)
     1.07937612E-01   2       -15        15   # BR(HH -> Tau tau)
     2.32710264E-14   2        -2         2   # BR(HH -> Up up)
     4.51437928E-09   2        -4         4   # BR(HH -> Charm charm)
     3.22121357E-04   2        -6         6   # BR(HH -> Top top)
     6.06490595E-07   2        -1         1   # BR(HH -> Down down)
     2.19383837E-04   2        -3         3   # BR(HH -> Strange strange)
     5.87598607E-01   2        -5         5   # BR(HH -> Bottom bottom)
     4.58865389E-02   2  -1000024   1000024   # BR(HH -> Chargino1 chargino1)
     6.11211647E-02   2  -1000024   1000037   # BR(HH -> Chargino1 chargino2)
     6.11211647E-02   2  -1000037   1000024   # BR(HH -> Chargino2 chargino1)
     1.65319707E-02   2  -1000037   1000037   # BR(HH -> Chargino2 chargino2)
     5.45817223E-03   2   1000022   1000022   # BR(HH -> neutralino1 neutralino1)
     1.81027928E-02   2   1000022   1000023   # BR(HH -> neutralino1 neutralino2)
     1.45035949E-04   2   1000022   1000025   # BR(HH -> neutralino1 neutralino3)
     8.78121891E-03   2   1000022   1000035   # BR(HH -> neutralino1 neutralino4)
     1.39116978E-02   2   1000023   1000023   # BR(HH -> neutralino2 neutralino2)
     3.19515285E-05   2   1000023   1000025   # BR(HH -> neutralino2 neutralino3)
     2.09655243E-02   2   1000023   1000035   # BR(HH -> neutralino2 neutralino4)
     8.45679992E-03   2   1000025   1000025   # BR(HH -> neutralino3 neutralino3)
     3.36867340E-02   2   1000025   1000035   # BR(HH -> neutralino3 neutralino4)
     9.33937944E-03   2   1000035   1000035   # BR(HH -> neutralino4 neutralino4)
     5.04279368E-07   2        25        25   # BR(HH -> h0 h0)
DECAY        36     1.31367392E+02   # Gamma(A0)
     6.34349167E-08   2        22        22   # BR(A0 -> photon photon)
     1.12333080E-07   2        22        23   # BR(A0 -> photon Z)
     1.14765830E-05   2        21        21   # BR(A0 -> gluon gluon)
     8.15600334E-09   2       -11        11   # BR(A0 -> Electron electron)
     3.63154118E-04   2       -13        13   # BR(A0 -> Muon muon)
     1.04884819E-01   2       -15        15   # BR(A0 -> Tau tau)
     2.13851973E-14   2        -2         2   # BR(A0 -> Up up)
     4.14832453E-09   2        -4         4   # BR(A0 -> Charm charm)
     2.99247091E-04   2        -6         6   # BR(A0 -> Top top)
     5.89288166E-07   2        -1         1   # BR(A0 -> Down down)
     2.13161617E-04   2        -3         3   # BR(A0 -> Strange strange)
     5.70952423E-01   2        -5         5   # BR(A0 -> Bottom bottom)
     5.23649519E-02   2  -1000024   1000024   # BR(A0 -> Chargino1 chargino1)
     6.16277691E-02   2  -1000024   1000037   # BR(A0 -> Chargino1 chargino2)
     6.16277691E-02   2  -1000037   1000024   # BR(A0 -> Chargino2 chargino1)
     2.10462331E-02   2  -1000037   1000037   # BR(A0 -> Chargino2 chargino2)
     5.53107053E-03   2   1000022   1000022   # BR(A0 -> neutralino1 neutralino1)
     1.91752062E-02   2   1000022   1000023   # BR(A0 -> neutralino1 neutralino2)
     1.31736367E-04   2   1000022   1000025   # BR(A0 -> neutralino1 neutralino3)
     7.98250884E-03   2   1000022   1000035   # BR(A0 -> neutralino1 neutralino4)
     1.62090661E-02   2   1000023   1000023   # BR(A0 -> neutralino2 neutralino2)
     1.38329797E-04   2   1000023   1000025   # BR(A0 -> neutralino2 neutralino3)
     2.44933666E-02   2   1000023   1000035   # BR(A0 -> neutralino2 neutralino4)
     8.49447682E-03   2   1000025   1000025   # BR(A0 -> neutralino3 neutralino3)
     3.27111149E-02   2   1000025   1000035   # BR(A0 -> neutralino3 neutralino4)
     1.17411141E-02   2   1000035   1000035   # BR(A0 -> neutralino4 neutralino4)
     2.27742328E-07   2        23        25   # BR(A0 -> Z h0)
     2.89083432E-13   2        23        35   # BR(A0 -> Z HH)
     9.31565438E-41   2        25        25   # BR(A0 -> h0 h0)
DECAY        37     1.51877088E+02   # Gamma(Hp)
     9.08819300E-09   2       -11        12   # BR(Hp -> Electron nu_e)
     3.88548636E-04   2       -13        14   # BR(Hp -> Muon nu_mu)
     1.09903661E-01   2       -15        16   # BR(Hp -> Tau nu_tau)
     5.71760912E-07   2        -1         2   # BR(Hp -> Down up)
     9.66121481E-06   2        -3         2   # BR(Hp -> Strange up)
     6.44581966E-06   2        -5         2   # BR(Hp -> Bottom up)
     2.69231287E-08   2        -1         4   # BR(Hp -> Down charm)
     2.06076980E-04   2        -3         4   # BR(Hp -> Strange charm)
     9.02645428E-04   2        -5         4   # BR(Hp -> Bottom charm)
     2.14807668E-08   2        -1         6   # BR(Hp -> Down top)
     7.74079181E-07   2        -3         6   # BR(Hp -> Strange top)
     6.08937711E-01   2        -5         6   # BR(Hp -> Bottom top)
     4.09400166E-02   2   1000022   1000024   # BR(Hp -> neutralino1 chargino1)
     1.31019929E-02   2   1000022   1000037   # BR(Hp -> neutralino1 chargino2)
     7.33838875E-04   2   1000023   1000024   # BR(Hp -> neutralino2 chargino1)
     9.38350885E-02   2   1000023   1000037   # BR(Hp -> neutralino2 chargino2)
     5.24871123E-04   2   1000024   1000025   # BR(Hp -> chargino1 neutralino3)
     5.40773934E-02   2   1000025   1000037   # BR(Hp -> neutralino3 chargino2)
     7.64117954E-02   2   1000024   1000035   # BR(Hp -> chargino1 neutralino4)
     1.86528827E-05   2   1000035   1000037   # BR(Hp -> neutralino4 chargino2)
     1.97741545E-07   2        24        25   # BR(Hp -> W h0)
     4.92618591E-11   2        24        35   # BR(Hp -> W HH)
     5.16653254E-12   2        24        36   # BR(Hp -> W A0)
DECAY         6     2.43000000E+00   # top
#    BR                NDA      ID1      ID2
     1.00000000E+00    2           5        24   # BR(t -> b W)
Block HiggsBoundsInputHiggsCouplingsFermions
# ScalarNormEffCoupSq PseudoSNormEffCoupSq NP IP1 IP2 IP2
    9.83086017E-01    0.00000000E+00        3  25   5   5  # h0-b-b eff. coupling^2, normalised to SM
    2.50106925E+03    0.00000000E+00        3  35   5   5  # H0-b-b eff. coupling^2, normalised to SM
    0.00000000E+00    2.50105234E+03        3  36   5   5  # A0-b-b eff. coupling^2, normalised to SM
#
    1.00000676E+00    0.00000000E+00        3  25   6   6  # h0-t-t eff. coupling^2, normalised to SM
    3.93068950E-04    0.00000000E+00        3  35   6   6  # H0-t-t eff. coupling^2, normalised to SM
    0.00000000E+00    3.99831696E-04        3  36   6   6  # A0-t-t eff. coupling^2, normalised to SM
#
    9.83086017E-01    0.00000000E+00        3  25  15  15  # h0-tau-tau eff. coupling^2, normalised to SM
    2.50106925E+03    0.00000000E+00        3  35  15  15  # H0-tau-tau eff. coupling^2, normalised to SM
    0.00000000E+00    2.50105234E+03        3  36  15  15  # A0-tau-tau eff. coupling^2, normalised to SM
#
Block HiggsBoundsInputHiggsCouplingsBosons
    9.99999971E-01        3  25  24  24  # h0-W-W eff. coupling^2, normalised to SM
    2.88405714E-08        3  35  24  24  # H0-W-W eff. coupling^2, normalised to SM
    0.00000000E+00        3  36  24  24  # A0-W-W eff. coupling^2, normalised to SM
#
    9.99999971E-01        3  25  23  23  # h0-Z-Z eff. coupling^2, normalised to SM
    2.88405714E-08        3  35  23  23  # H0-Z-Z eff. coupling^2, normalised to SM
    0.00000000E+00        3  36  23  23  # A0-Z-Z eff. coupling^2, normalised to SM
#
    1.26333181E+00        3  25  21  21  # h0-g-g eff. coupling^2, normalised to SM
    1.26588193E-02        3  35  21  21  # H0-g-g eff. coupling^2, normalised to SM
    1.40745359E-01        3  36  21  21  # A0-g-g eff. coupling^2, normalised to SM
#
    0.00000000E+00        3  25  25  23  # h0-h0-Z eff. coupling^2, normalised to SM
    0.00000000E+00        3  35  25  23  # H0-h0-Z eff. coupling^2, normalised to SM
    2.88405714E-08        3  36  25  23  # A0-h0-Z eff. coupling^2, normalised to SM
    0.00000000E+00        3  35  35  23  # H0-H0-Z eff. coupling^2, normalised to SM
    9.99999971E-01        3  36  35  23  # A0-H0-Z eff. coupling^2, normalised to SM
    0.00000000E+00        3  36  36  23  # A0-A0-Z eff. coupling^2, normalised to SM
#
    0.00000000E+00        4  25  21  21  23  # h0-g-g-Z eff. coupling^2, normalised to SM
    0.00000000E+00        4  35  21  21  23  # H0-g-g-Z eff. coupling^2, normalised to SM
    0.00000000E+00        4  36  21  21  23  # A0-g-g-Z eff. coupling^2, normalised to SM
Block SPhenoLowEnergy  # low energy observables
    1    3.05208627E-04   # BR(b -> s gamma)
    2    1.59285695E-06   # BR(b -> s mu+ mu-)
    3    3.52567678E-05   # BR(b -> s nu nu)
    4    4.34762471E-15   # BR(Bd -> e+ e-)
    5    1.85716327E-10   # BR(Bd -> mu+ mu-)
    6    3.83466371E-08   # BR(Bd -> tau+ tau-)
    7    1.45590534E-13   # BR(Bs -> e+ e-)
    8    6.21932119E-09   # BR(Bs -> mu+ mu-)
    9    1.30163882E-06   # BR(Bs -> tau+ tau-)
   10    9.55964687E-05   # BR(B_u -> tau nu)
   11    9.87474923E-01   # BR(B_u -> tau nu)/BR(B_u -> tau nu)_SM
   12    5.41922583E-01   # |Delta(M_Bd)| [ps^-1] 
   13    1.93500684E+01   # |Delta(M_Bs)| [ps^-1] 
   14    0.00000000E+00   # neutron EDM according to the chiral quark model
   15    0.00000000E+00   # neutron EDM according to the relativistic quark-parton model
   16    2.15731537E-03   # epsilon_K
   17    2.28165968E-15   # Delta(M_K)
   18    2.48036237E-11   # BR(K^0 -> pi^0 nu nu)
   19    8.29131318E-11   # BR(K^+ -> pi^+ nu nu)
   20    2.66658560E-16   # Delta(g-2)_electron/2
   21    1.14006594E-11   # Delta(g-2)_muon/2
   22    3.23735898E-09   # Delta(g-2)_tau/2
   23    0.00000000E+00   # electric dipole moment of the electron
   24    0.00000000E+00   # electric dipole moment of the muon
   25    0.00000000E+00   # electric dipole moment of the tau
   26    0.00000000E+00   # Br(mu -> e gamma)
   27    0.00000000E+00   # Br(tau -> e gamma)
   28    0.00000000E+00   # Br(tau -> mu gamma)
   29    0.00000000E+00   # Br(mu -> 3 e)
   30    0.00000000E+00   # Br(tau -> 3 e)
   31    0.00000000E+00   # Br(tau -> 3 mu)
   39    6.97972497E-05   # Delta(rho_parameter)
   40    0.00000000E+00   # BR(Z -> e mu)
   41    0.00000000E+00   # BR(Z -> e tau)
   42    0.00000000E+00   # BR(Z -> mu tau)
Block FWCOEF Q=  1.60000000E+02  # Wilson coefficients at scale Q
#    id        order  M        value         comment
     0305 4422   00   0    -1.88819110E-01   # C7
     0305 4422   00   2    -1.69394001E-01   # C7
     0305 4322   00   2     5.94634522E-05   # C7'
     0305 6421   00   0    -9.52278348E-02   # C8
     0305 6421   00   2    -9.05673527E-02   # C8
     0305 6321   00   2    -9.86656170E-05   # C8'
 03051111 4133   00   0     1.62742495E+00   # C9 e+e-
 03051111 4133   00   2     1.62774481E+00   # C9 e+e-
 03051111 4233   00   2     6.39310046E-04   # C9' e+e-
 03051111 4137   00   0    -4.45011705E+00   # C10 e+e-
 03051111 4137   00   2    -4.44903420E+00   # C10 e+e-
 03051111 4237   00   2    -4.72668511E-03   # C10' e+e-
 03051313 4133   00   0     1.62742495E+00   # C9 mu+mu-
 03051313 4133   00   2     1.62774450E+00   # C9 mu+mu-
 03051313 4233   00   2     6.39309250E-04   # C9' mu+mu-
 03051313 4137   00   0    -4.45011705E+00   # C10 mu+mu-
 03051313 4137   00   2    -4.44903451E+00   # C10 mu+mu-
 03051313 4237   00   2    -4.72668530E-03   # C10' mu+mu-
 03051212 4137   00   0     1.50535012E+00   # C11 nu_1 nu_1
 03051212 4137   00   2     1.50511799E+00   # C11 nu_1 nu_1
 03051212 4237   00   2     1.02191760E-03   # C11' nu_1 nu_1
 03051414 4137   00   0     1.50535012E+00   # C11 nu_2 nu_2
 03051414 4137   00   2     1.50511799E+00   # C11 nu_2 nu_2
 03051414 4237   00   2     1.02191772E-03   # C11' nu_2 nu_2
 03051616 4137   00   0     1.50535012E+00   # C11 nu_3 nu_3
 03051616 4137   00   2     1.50511800E+00   # C11 nu_3 nu_3
 03051616 4237   00   2     1.02195115E-03   # C11' nu_3 nu_3
Block IMFWCOEF Q=  1.60000000E+02  # Im(Wilson coefficients) at scale Q
#    id        order  M        value         comment
     0305 4422   00   0     3.85833532E-07   # C7
     0305 4422   00   2     1.42488691E-05   # C7
     0305 4322   00   2     3.12889660E-06   # C7'
     0305 6421   00   0     3.30491937E-07   # C8
     0305 6421   00   2    -2.68537488E-05   # C8
     0305 6321   00   2     9.23163590E-07   # C8'
 03051111 4133   00   2     5.13232170E-07   # C9 e+e-
 03051111 4233   00   2     1.24250486E-05   # C9' e+e-
 03051111 4137   00   2     3.99021552E-06   # C10 e+e-
 03051111 4237   00   2    -9.18669005E-05   # C10' e+e-
 03051313 4133   00   2     5.13224560E-07   # C9 mu+mu-
 03051313 4233   00   2     1.24250442E-05   # C9' mu+mu-
 03051313 4137   00   2     3.99022313E-06   # C10 mu+mu-
 03051313 4237   00   2    -9.18669137E-05   # C10' mu+mu-
 03051212 4137   00   2    -8.27207029E-07   # C11 nu_1 nu_1
 03051212 4237   00   2     1.98617858E-05   # C11' nu_1 nu_1
 03051414 4137   00   2    -8.27206638E-07   # C11 nu_2 nu_2
 03051414 4237   00   2     1.98617858E-05   # C11' nu_2 nu_2
 03051616 4137   00   2    -8.27098703E-07   # C11 nu_3 nu_3
 03051616 4237   00   2     1.98617858E-05   # C11' nu_3 nu_3
