BLOCK SPINFO
   1   SPheno
   2   v4.0.5be

BLOCK SPHENOINFO
   1   2
   2   2

BLOCK MODSEL
   1   0

BLOCK MINPAR
   3    21.993481
   4    1

BLOCK EXTPAR
   0    1328.3656
   1    233.79409
   2    946.67238
   3    3000
   11   -4037.3115
   12   -1576.5935
   13   -911.14396
   23    453.32398
   25    21.276588
   26    1240.0237
   31    285.99413
   32    285.99413
   33    1182.7265
   34    747.05124
   35    747.05124
   36    1177.7131
   41    5000
   42    5000
   43    1522.2498
   44    5000
   45    5000
   46    1361.127
   47    5000
   48    5000
   49    1540.8522

BLOCK SMINPUTS
   1    127.90897
   2    1.1663787e-05
   3    0.1184
   4    91.1876
   5    4.18
   6    173.2
   7    1.777
   8    0
   11    0.00051099893
   12    0
   13    0.10565837
   14    0
   21    0.005
   22    0.0025
   23    0.095
   24    1.27

BLOCK GAUGE Q=  1328.3656
   1    0.35536298
   2    0.66519887
   3    1.219778

BLOCK YU Q=  1328.3656
   1   1    8.3936276e-06
   2   2    0.0042639628
   3   3    1.0140176

BLOCK YD Q=  1328.3656
   1   1    0.00035886569
   2   2    0.0068184481
   3   3    0.35588231

BLOCK YE Q=  1328.3656
   1   1    6.2624687e-05
   2   2    0.012948799
   3   3    0.2177775

BLOCK AU Q=  1328.3656
   1   1    0
   2   2    0
   3   3   -4037.311

BLOCK AD Q=  1328.3656
   1   1    0
   2   2    0
   3   3   -1576.5938

BLOCK AE Q=  1328.3656
   1   1    0
   2   2    0
   3   3   -911.14398

BLOCK MSOFT Q=  1328.3656
   1    233.79409
   2    946.67238
   3    3000
   21    1323652.3
   22   -171452.79
   31    285.99413
   32    285.99413
   33    1182.7265
   34    747.05124
   35    747.05124
   36    1177.7131
   41    5000
   42    5000
   43    1522.2498
   44    5000
   45    5000
   46    1361.127
   47    5000
   48    5000
   49    1540.8522

BLOCK MASS
   6    173.2
   23    91.1876
   24    80.429995
   15    1.777
   25    121.37071
   35    1240.0111
   36    1240.0237
   37    1243.0511
   1000001    5023.4815
   2000001    5013.8547
   1000002    5023.0613
   2000002    5015.3427
   1000003    5023.4832
   2000003    5013.8566
   1000004    5023.0629
   2000004    5015.3436
   1000005    1460.135
   2000005    1542.7704
   1000006    1116.4909
   2000006    1580.4474
   1000011    313.43461
   2000011    749.15669
   1000012    303.16337
   1000013    313.42604
   2000013    749.15257
   1000014    303.15844
   1000015    1173.6366
   2000015    1194.1342
   1000016    1187.337
   1000021    3179.7462
   1000022    229.23804
   1000023    457.67628
   1000025   -463.72351
   1000035    989.13218
   1000024    455.61521
   1000037    989.32177

BLOCK ALPHA
      -0.046246398

BLOCK HMIX Q=  1328.3656
   1    453.32398
   2    21.276588
   3    244.09655
   4    1537658.7

BLOCK STOPMIX
   1   1    0.52858659
   1   2    0.84887939
   2   1   -0.84887939
   2   2    0.52858659

BLOCK SBOTMIX
   1   1    0.99443993
   1   2    0.10530539
   2   1   -0.10530539
   2   2    0.99443993

BLOCK STAUMIX
   1   1    0.43668546
   1   2    0.89961426
   2   1   -0.89961426
   2   2    0.43668546

BLOCK NMIX
   1   1   -0.98845619
   1   2    0.0083852488
   1   3   -0.13328477
   1   4    0.071548754
   2   1    0.14509755
   2   2    0.11189125
   2   3   -0.69671512
   2   4    0.69355252
   3   1    0.043133385
   3   2   -0.037586944
   3   3   -0.70285932
   3   4   -0.70902434
   4   1   -0.0063702003
   4   2    0.99297395
   4   3    0.053028196
   4   4   -0.10559438

BLOCK UMIX
   1   1   -0.075275074
   1   2    0.99716281
   2   1    0.99716281
   2   2    0.075275074

BLOCK VMIX
   1   1   -0.14980467
   1   2    0.98871561
   2   1    0.98871561
   2   2    0.14980467

BLOCK HIGGSBOUNDSINPUTHIGGSCOUPLINGSFERMIONS
       0, 452.69321,3,36,15,15

BLOCK HIGGSBOUNDSINPUTHIGGSCOUPLINGSBOSONS
       0,4,36,21,21,23

BLOCK SPHENOLOWENERGY
   1    0.00030289463
   2    1.5958116e-06
   3    3.5303923e-05
   4    2.8243689e-15
   5    1.2065317e-10
   6    2.5215243e-08
   7    9.5060077e-14
   8    4.0609423e-09
   9    8.5999186e-07
   10    9.5346664e-05
   11    0.98489454
   12    0.54267582
   13    19.382744
   14    0
   15    0
   16    0.0021598465
   17    2.2816859e-15
   18    2.4826446e-11
   19    8.2969082e-11
   20    1.6415242e-14
   21    7.018901e-10
   22    5.5255474e-08
   23    0
   24    0
   25    0
   26    0
   27    0
   28    0
   29    0
   30    0
   31    0
   39    0.00010626446
   40    0
   41    0
   42    0

BLOCK FWCOEF Q=  160
   305   4422   0   0   -0.18881911
   305   4422   0   2   -0.16353511
   305   4322   0   2   -0.00017979582
   305   6421   0   0   -0.095227835
   305   6421   0   2   -0.098721327
   305   6321   0   2   -0.00045516
   3051111   4133   0   0    1.5875484
   3051111   4133   0   2    1.5894145
   3051111   4233   0   2    4.4643155e-05
   3051111   4137   0   0   -4.4102405
   3051111   4137   0   2   -4.413521
   3051111   4237   0   2   -0.00034900925
   3051313   4133   0   0    1.5875484
   3051313   4133   0   2    1.589412
   3051313   4233   0   2    4.4642466e-05
   3051313   4137   0   0   -4.4102405
   3051313   4137   0   2   -4.4135235
   3051313   4237   0   2   -0.00034900901
   3051212   4137   0   0    1.5053501
   3051212   4137   0   2    1.5060862
   3051212   4237   0   2    7.6125683e-05
   3051414   4137   0   0    1.5053501
   3051414   4137   0   2    1.5060862
   3051414   4237   0   2    7.6125812e-05
   3051616   4137   0   0    1.5053501
   3051616   4137   0   2    1.5060876
   3051616   4237   0   2    7.6163065e-05

BLOCK IMFWCOEF Q=  160
   305   4422   0   0    3.8586496e-07
   305   4422   0   2    1.8036571e-05
   305   4322   0   2    5.3987722e-06
   305   6421   0   0    3.3051885e-07
   305   6421   0   2   -1.6965704e-06
   305   6321   0   2    2.2410491e-06
   3051111   4133   0   2   -1.9046229e-06
   3051111   4233   0   2    1.5820043e-06
   3051111   4137   0   2    1.2689426e-05
   3051111   4237   0   2   -1.2393373e-05
   3051313   4133   0   2   -1.9046692e-06
   3051313   4233   0   2    1.5820025e-06
   3051313   4137   0   2    1.2689373e-05
   3051313   4237   0   2   -1.2393379e-05
   3051212   4137   0   2   -2.4549675e-06
   3051212   4237   0   2    2.7034654e-06
   3051414   4137   0   2   -2.4549684e-06
   3051414   4237   0   2    2.7034654e-06
   3051616   4137   0   2   -2.4307411e-06
   3051616   4237   0   2    2.703484e-06

DECAY 23  2.4952


DECAY 24  2.085


DECAY 1000011  0.080589926
    0.99999752   2    1000022    11

DECAY 2000011  3.055143
    0.98893743   2    1000022    11
    0.010190333   2    1000023    11
    0.00087222509   2    1000025    11

DECAY 1000013  0.080582726
    0.99999753   2    1000022    13

DECAY 2000013  3.0574481
    0.98819538   2    1000022    13
    0.010339006   2    1000023    13
    0.0010253875   2    1000025    13
    0.00032268947   2   -1000024    14
    0.00011753387   2    1000013    25

DECAY 1000015  6.574198
    0.71545968   2    1000022    15
    0.12088188   2   -1000024    16
    0.078560729   2    1000023    15
    0.051521993   2    1000025    15
    0.022484713   2   -1000037    16
    0.011091004   2    1000035    15

DECAY 2000015  4.2651366
    0.46733646   2    1000022    15
    0.19977691   2   -1000037    16
    0.11563259   2    1000023    15
    0.10851351   2    1000025    15
    0.098662297   2    1000035    15
    0.010078118   2   -1000024    16

DECAY 1000012  0.070417157
    1   2    1000022    12

DECAY 1000014  0.070409902
    1   2    1000022    14

DECAY 1000016  3.8335526
    0.36359697   2    1000022    16
    0.25553481   2    1000024    15
    0.24937669   2    1000037    15
    0.12672453   2    1000035    16
    0.0035990652   2    1000025    16
    0.0011678848   2    1000023    16

DECAY 2000001  144.2178
    0.98067696   2    1000021    1
    0.018884789   2    1000022    1
    0.00040189556   2    1000023    1

DECAY 1000001  204.45081
    0.69666472   2    1000021    1
    0.19871113   2   -1000037    2
    0.098750863   2    1000035    1
    0.0036622273   2    1000022    1
    0.0012055271   2   -1000024    2
    0.00078764402   2    1000023    1
    0.00021788471   2    1000025    1

DECAY 2000003  144.2271
    0.98061515   2    1000021    3
    0.018884145   2    1000022    3
    0.00041717721   2    1000023    3

DECAY 1000003  204.45736
    0.6966433   2    1000021    3
    0.19870504   2   -1000037    4
    0.098747802   2    1000035    3
    0.0036625119   2    1000022    3
    0.0012140236   2   -1000024    4
    0.0007984361   2    1000023    3
    0.00022888395   2    1000025    3

DECAY 1000005  70.10763
    0.5487284   2    1000006   -24
    0.32178449   2   -1000024    6
    0.056373837   2   -1000037    6
    0.026062719   2    1000035    5
    0.02152161   2    1000023    5
    0.02060613   2    1000025    5
    0.0049228096   2    1000022    5

DECAY 2000005  8.3342625
    0.40889714   2   -1000024    6
    0.19547896   2    1000025    5
    0.18771468   2    1000023    5
    0.094904225   2    1000006   -24
    0.094845613   2    1000022    5
    0.01223691   2   -1000037    6
    0.0059224814   2    1000035    5

DECAY 2000002  152.73616
    0.92699737   2    1000021    2
    0.071347547   2    1000022    2
    0.0015182295   2    1000023    2
    0.00013410667   2    1000025    2

DECAY 1000002  204.44964
    0.69645466   2    1000021    2
    0.19534088   2    1000037    1
    0.098291659   2    1000035    2
    0.0047741473   2    1000024    1
    0.0030261579   2    1000022    2
    0.0020174222   2    1000023    2

DECAY 2000004  152.73976
    0.92697575   2    1000021    4
    0.071345925   2    1000022    4
    0.0015238215   2    1000023    4
    0.00013996963   2    1000025    4

DECAY 1000004  204.45611
    0.69643314   2    1000021    4
    0.1953349   2    1000037    3
    0.098288684   2    1000035    4
    0.0047961552   2    1000024    3
    0.0030261086   2    1000022    4
    0.002021553   2    1000023    4

DECAY 1000006  27.941944
    0.46972249   2    1000024    5
    0.23179247   2    1000025    6
    0.22641429   2    1000023    6
    0.07024655   2    1000022    6
    0.0017681645   2    1000037    5

DECAY 2000006  86.921025
    0.36798693   2    1000006    23
    0.15565182   2    1000025    6
    0.15213407   2    1000023    6
    0.11616845   2    1000006    25
    0.088052521   2    1000024    5
    0.054647775   2    1000037    5
    0.029100802   2    1000035    6
    0.028424783   2    1000005    24
    0.0078328438   2    1000022    6

DECAY 1000024  0.30118255
    0.88529472   2    1000022    24
    0.047192222   2    1000014   -13
    0.046400758   2    1000012   -11
    0.010469198   2   -1000013    14
    0.01046817   2   -1000011    12
    0.00017395998   3    1000022   -5    6

DECAY 1000037  22.67031
    0.15457714   2   -1000013    14
    0.15457525   2   -1000011    12
    0.15416268   2    1000014   -13
    0.15416141   2    1000012   -11
    0.099644523   2    1000025    24
    0.095462066   2    1000023    24
    0.094989488   2    1000024    23
    0.089836201   2    1000024    25
    0.0010415611   3    1000023   -5    6
    0.00091415679   3    1000025   -5    6
    0.00054219252   3    1000024    6   -6

DECAY 1000022 -1


DECAY 1000023  0.28320311
    0.74348262   2    1000022    25
    0.10655941   2    1000022    23
    0.036353644   2    1000013   -13
    0.036353644   2   -1000013    13
    0.035974911   2    1000011   -11
    0.035974911   2   -1000011    11
    0.0013239676   2    1000014   -14
    0.0013239676   2   -1000014    14
    0.0013239003   2    1000012   -12
    0.0013239003   2   -1000012    12

DECAY 1000025  0.55181806
    0.64656984   2    1000022    23
    0.34361728   2    1000022    25
    0.0022291011   2    1000014   -14
    0.0022291011   2   -1000014    14
    0.002228993   2    1000012   -12
    0.002228993   2   -1000012    12
    0.00031944962   2    1000013   -13
    0.00031944962   2   -1000013    13
    0.00011541707   2    1000011   -11
    0.00011541707   2   -1000011    11

DECAY 1000035  24.105454
    0.091422527   2    1000024   -24
    0.091422527   2   -1000024    24
    0.08467096   2    1000025    23
    0.075550615   2    1000023    25
    0.073599972   2    1000014   -14
    0.073599972   2   -1000014    14
    0.073599476   2    1000012   -12
    0.073599476   2   -1000012    12
    0.071564775   2    1000013   -13
    0.071564775   2   -1000013    13
    0.071563796   2    1000011   -11
    0.071563796   2   -1000011    11
    0.065066212   2    1000025    25
    0.0090536855   2    1000023    23
    0.00091126205   3    1000024    5   -6
    0.00091126205   3   -1000024   -5    6
    0.00013361034   3    1000023    6   -6
    0.00010627501   3    1000025    6   -6

DECAY 1000021  238.53304
    0.13465798   2    1000006   -6
    0.13465798   2   -1000006    6
    0.12598641   2    2000006   -6
    0.12598641   2   -2000006    6
    0.12277401   2    1000005   -5
    0.12277401   2   -1000005    5
    0.11541955   2    2000005   -5
    0.11541955   2   -2000005    5
    0.0010016529   2    1000006   -4
    0.0010016529   2   -1000006    4

DECAY 25  0.0035150783
    0.63319192   2   -5    5
    0.16966381   2   -24    24
    0.072659127   2   -15    15
    0.071066754   2    21    21
    0.030363044   2   -4    4
    0.019089227   2    23    23
    0.0023000022   2    22    22
    0.0011750552   2    22    23
    0.00025216015   2   -13    13
    0.00023807662   2   -3    3
    6.5825667e-07   2   -1    1
    1.5647908e-07   2   -2    2
    5.6688925e-09   2   -11    11

DECAY 35  10.407362
    0.75781314   2   -5    5
    0.12515369   2   -15    15
    0.058012809   2    1000022    1000025
    0.036759172   2    1000022    1000023
    0.0090896073   2   -6    6
    0.0074029145   2   -1000024    1000024
    0.003707756   2    1000022    1000022
    0.00061297483   2    1000025    1000025
    0.00046131907   2   -13    13
    0.00026903766   2   -3    3
    0.00023321685   2    25    25
    0.0002277989   2    1000023    1000023
    9.801207e-05   2    1000022    1000035
    3.9676854e-05   2    1000023    1000025
    2.841703e-05   2   -24    24
    2.8328264e-05   2    21    21
    2.7481793e-05   2    23    23
    3.8607093e-06   2   -1000011    1000011
    3.8477913e-06   2   -1000013    1000013
    7.4378102e-07   2   -1    1
    3.1378474e-07   2    22    23
    2.658562e-07   2    22    22
    1.4357154e-07   2   -4    4
    2.984761e-08   2   -2000013    1000013
    2.984761e-08   2   -1000013    2000013
    1.0363777e-08   2   -11    11
    7.4023665e-13   2   -2    2
    6.9814989e-13   2   -2000011    1000011
    6.9814989e-13   2   -1000011    2000011

DECAY 36  10.375125
    0.74650469   2   -5    5
    0.12327805   2   -15    15
    0.06134191   2    1000022    1000023
    0.034457364   2    1000022    1000025
    0.017077774   2   -1000024    1000024
    0.0092061463   2   -6    6
    0.0047666381   2    1000022    1000022
    0.0011170206   2    1000025    1000025
    0.00077861752   2    1000022    1000035
    0.00058231803   2    1000023    1000023
    0.0004543962   2   -13    13
    0.00026500573   2   -3    3
    8.3159511e-05   2    21    21
    4.7146018e-05   2    1000023    1000025
    3.7773522e-05   2    23    25
    7.3263464e-07   2   -1    1
    5.9499461e-07   2    22    22
    4.6457664e-07   2    22    23
    1.3355044e-07   2   -4    4
    2.8687431e-08   2   -2000013    1000013
    2.8687431e-08   2   -1000013    2000013
    1.0208249e-08   2   -11    11
    6.88574e-13   2   -2    2
    6.7099959e-13   2   -2000011    1000011
    6.7099959e-13   2   -1000011    2000011
    4.1405753e-37   2    25    25

DECAY 37  10.083194
    0.77142656   2   -5    6
    0.11925389   2   -15    16
    0.10055777   2    1000022    1000024
    0.0034617626   2    1000023    1000024
    0.0024110918   2    1000024    1000025
    0.0011530191   2   -5    4
    0.00095782973   2    1000022    1000037
    0.00042160652   2   -13    14
    0.00024934486   2   -3    4
    3.9307375e-05   2    24    25
    1.5649474e-05   2   -3    6
    1.544932e-05   2   -1000011    1000012
    1.5430755e-05   2   -1000013    1000014
    1.1545936e-05   2   -3    2
    8.2337594e-06   2   -5    2
    7.0155686e-07   2   -1    6
    6.9128475e-07   2   -1    2
    6.3795013e-08   2   -2000013    1000014
    3.8558914e-08   2   -1    4
    9.8614204e-09   2   -11    12
    3.4972803e-11   2    24    35
    3.4256038e-11   2    24    36
    1.4922184e-12   2   -2000011    1000012

DECAY 6  2.43
    1   2    5    24

DECAY 15 -1
