BLOCK SPINFO
   1   SPheno
   2   v4.0.5be

BLOCK SPHENOINFO
   1   2
   2   2

BLOCK MODSEL
   1   0

BLOCK MINPAR
   3    32.098095
   4   -1

BLOCK EXTPAR
   0    1187.5552
   1    58.56763
   2    1052.8461
   3    3000
   11   -3408.4121
   12    589.40442
   13   -771.16282
   23   -108.1878
   25    31.27638
   26    3909.1867
   31    230.40296
   32    230.40296
   33    1747.8274
   34    267.09942
   35    267.09942
   36    1548.2025
   41    5000
   42    5000
   43    1317.5763
   44    5000
   45    5000
   46    1302.8574
   47    5000
   48    5000
   49    1901.2113

BLOCK SMINPUTS
   1    127.90897
   2    1.1663787e-05
   3    0.1184
   4    91.1876
   5    4.18
   6    173.2
   7    1.777
   8    0
   11    0.00051099893
   12    0
   13    0.10565837
   14    0
   21    0.005
   22    0.0025
   23    0.095
   24    1.27

BLOCK GAUGE Q=  1187.5552
   1    0.35536298
   2    0.66519887
   3    1.219778

BLOCK YU Q=  1187.5552
   1   1    8.3886566e-06
   2   2    0.0042614376
   3   3    1.0134171

BLOCK YD Q=  1187.5552
   1   1    0.00052721669
   2   2    0.010017117
   3   3    0.52283375

BLOCK YE Q=  1187.5552
   1   1    9.2003168e-05
   2   2    0.019023337
   3   3    0.31994124

BLOCK AU Q=  1187.5552
   1   1    0
   2   2    0
   3   3   -3408.4119

BLOCK AD Q=  1187.5552
   1   1    0
   2   2    0
   3   3    589.40441

BLOCK AE Q=  1187.5552
   1   1    0
   2   2    0
   3   3   -771.16283

BLOCK MSOFT Q=  1187.5552
   1    58.56763
   2    1052.8461
   3    3000
   21    15204744
   22    33166.094
   31    230.40296
   32    230.40296
   33    1747.8274
   34    267.09942
   35    267.09942
   36    1548.2025
   41    5000
   42    5000
   43    1317.5763
   44    5000
   45    5000
   46    1302.8574
   47    5000
   48    5000
   49    1901.2113

BLOCK MASS
   6    173.2
   23    91.1876
   24    80.429995
   15    1.777
   25    122.71511
   35    3907.7882
   36    3909.1867
   37    3908.994
   1000001    5015.7967
   2000001    5006.3283
   1000002    5015.3665
   2000002    5009.6085
   1000003    5015.8012
   2000003    5006.3363
   1000004    5015.371
   2000004    5009.6096
   1000005    1244.7516
   2000005    1910.1815
   1000006    1007.8484
   2000006    1399.3051
   1000011    276.07278
   2000011    242.0521
   1000012    264.20009
   1000013    276.1566
   2000013    242.19652
   1000014    264.27422
   1000015    1550.7134
   2000015    1758.1927
   1000016    1756.0884
   1000021    3169.3239
   1000022    49.924995
   1000023   -122.55513
   1000025    124.29051
   1000035    1099.0495
   1000024    113.20382
   1000037    1099.1861

BLOCK ALPHA
      -0.031187186

BLOCK HMIX Q=  1187.5552
   1   -108.1878
   2    31.27638
   3    244.20859
   4    15281741

BLOCK STOPMIX
   1   1    0.65255297
   1   2    0.75774311
   2   1   -0.75774311
   2   2    0.65255297

BLOCK SBOTMIX
   1   1   -0.99999171
   1   2    0.00407284
   2   1   -0.00407284
   2   2   -0.99999171

BLOCK STAUMIX
   1   1   -0.0067488207
   1   2    0.99997723
   2   1   -0.99997723
   2   2   -0.0067488207

BLOCK NMIX
   1   1    0.88126556
   1   2   -0.013005223
   1   3   -0.43606307
   1   4   -0.18179899
   2   1   -0.18142526
   2   2    0.04950244
   2   3   -0.6682217
   2   4    0.71980146
   3   1   -0.43640115
   3   2   -0.054040301
   3   3   -0.60274533
   3   4   -0.66583162
   4   1    0.0031499388
   4   2   -0.99722616
   4   3    0.0051793988
   4   4    0.074183781

BLOCK UMIX
   1   1   -0.0073771154
   1   2   -0.99997279
   2   1    0.99997279
   2   2   -0.0073771154

BLOCK VMIX
   1   1   -0.10511965
   1   2    0.99445958
   2   1    0.99445958
   2   2    0.10511965

BLOCK HIGGSBOUNDSINPUTHIGGSCOUPLINGSFERMIONS
       0, 978.21197,3,36,15,15

BLOCK HIGGSBOUNDSINPUTHIGGSCOUPLINGSBOSONS
       0,4,36,21,21,23

BLOCK SPHENOLOWENERGY
   1    0.00039385525
   2    1.5909437e-06
   3    3.5297377e-05
   4    1.8377184e-15
   5    7.8505705e-11
   6    1.6450476e-08
   7    6.1809778e-14
   8    2.6405272e-09
   9    5.6063176e-07
   10    9.6401653e-05
   11    0.99579217
   12    0.54335775
   13    19.412553
   14    0
   15    0
   16    0.0021636694
   17    2.2817232e-15
   18    2.4815255e-11
   19    8.2945002e-11
   20   -5.3413256e-14
   21   -2.2972137e-09
   22   -5.9646443e-08
   23    0
   24    0
   25    0
   26    0
   27    0
   28    0
   29    0
   30    0
   31    0
   39    0.0001248888
   40    0
   41    0
   42    0

BLOCK FWCOEF Q=  160
   305   4422   0   0   -0.18881911
   305   4422   0   2   -0.27203456
   305   4322   0   2   -0.00049769683
   305   6421   0   0   -0.095227835
   305   6421   0   2   -0.13901087
   305   6321   0   2   -0.0002633442
   3051111   4133   0   0    1.5837325
   3051111   4133   0   2    1.5861031
   3051111   4233   0   2    0.00015864713
   3051111   4137   0   0   -4.4064246
   3051111   4137   0   2   -4.4091142
   3051111   4237   0   2   -0.0012502078
   3051313   4133   0   0    1.5837325
   3051313   4133   0   2    1.5860969
   3051313   4233   0   2    0.00015864638
   3051313   4137   0   0   -4.4064246
   3051313   4137   0   2   -4.4091203
   3051313   4237   0   2   -0.0012502099
   3051212   4137   0   0    1.5053501
   3051212   4137   0   2    1.5059544
   3051212   4237   0   2    0.00027295712
   3051414   4137   0   0    1.5053501
   3051414   4137   0   2    1.5059544
   3051414   4237   0   2    0.00027295713
   3051616   4137   0   0    1.5053501
   3051616   4137   0   2    1.5059559
   3051616   4237   0   2    0.00027296276

BLOCK IMFWCOEF Q=  160
   305   4422   0   0    3.857991e-07
   305   4422   0   2   -2.4804578e-05
   305   4322   0   2   -7.5551375e-06
   305   6421   0   0    3.3046244e-07
   305   6421   0   2    8.4835067e-08
   305   6321   0   2   -2.8783285e-06
   3051111   4133   0   2   -8.3790687e-07
   3051111   4233   0   2    3.1134127e-06
   3051111   4137   0   2    5.5642673e-06
   3051111   4237   0   2   -2.4538547e-05
   3051313   4133   0   2   -8.379824e-07
   3051313   4233   0   2    3.1134005e-06
   3051313   4137   0   2    5.5641489e-06
   3051313   4237   0   2   -2.4538585e-05
   3051212   4137   0   2   -9.7199732e-07
   3051212   4237   0   2    5.3575231e-06
   3051414   4137   0   2   -9.7201232e-07
   3051414   4237   0   2    5.3575231e-06
   3051616   4137   0   2   -9.4561574e-07
   3051616   4237   0   2    5.3575734e-06

DECAY 23  2.4952


DECAY 24  2.085


DECAY 2000011  1.0136186
    0.85426341   2    1000022    11
    0.12389602   2    1000025    11
    0.021840542   2    1000023    11

DECAY 1000011  0.30382888
    0.78422468   2    1000022    11
    0.20967502   2    1000025    11
    0.005797725   2    1000023    11
    0.00030123106   2   -1000024    12

DECAY 2000013  1.0165783
    0.85267949   2    1000022    13
    0.12404477   2    1000025    13
    0.022228124   2    1000023    13
    0.0010476142   2   -1000024    14

DECAY 1000013  0.30533947
    0.78176355   2    1000022    13
    0.21028493   2    1000025    13
    0.0076502611   2    1000023    13
    0.00029990538   2   -1000024    14

DECAY 1000015  14.005823
    0.47489231   2    1000022    15
    0.22309957   2   -1000024    16
    0.18494397   2    1000025    15
    0.11705908   2    1000023    15

DECAY 2000015  14.41043
    0.39851927   2   -1000037    16
    0.19755979   2    1000035    15
    0.15849961   2    1000022    15
    0.13376105   2    1000025    15
    0.11154506   2    1000023    15

DECAY 1000012  0.30819373
    0.82120717   2    1000022    12
    0.073383679   2    1000025    12
    0.055580734   2    1000024    11
    0.049828412   2    1000023    12

DECAY 1000014  0.30957926
    0.8177952   2    1000022    14
    0.073099049   2    1000025    14
    0.059471169   2    1000024    13
    0.049634585   2    1000023    14

DECAY 1000016  14.44245
    0.39158076   2    1000037    15
    0.25729077   2    1000024    15
    0.19761108   2    1000035    16
    0.12506333   2    1000022    16
    0.016994552   2    1000025    16
    0.011362917   2    1000023    16

DECAY 2000001  144.68904
    0.98069065   2    1000021    1
    0.014999402   2    1000022    1
    0.0036744312   2    1000025    1
    0.00063515371   2    1000023    1

DECAY 1000001  203.61412
    0.70172793   2    1000021    1
    0.19651383   2   -1000037    2
    0.097830306   2    1000035    1
    0.0031305453   2    1000022    1
    0.00072487002   2    1000023    1

DECAY 2000003  144.70979
    0.98055579   2    1000021    3
    0.01501037   2    1000022    3
    0.0036988989   2    1000025    3
    0.00066577825   2    1000023    3

DECAY 1000003  203.62644
    0.70168779   2    1000021    3
    0.19650224   2   -1000037    4
    0.097824493   2    1000035    3
    0.0031396814   2    1000022    3
    0.00074669579   2    1000023    3

DECAY 1000005  49.845024
    0.47674217   2   -1000024    6
    0.3804308   2    1000006   -24
    0.06008583   2    1000023    5
    0.04831137   2    1000025    5
    0.029118369   2    1000022    5
    0.0053114621   2    1000035    5

DECAY 2000005  21.560907
    0.4705574   2   -1000024    6
    0.21530882   2    1000023    5
    0.18325099   2    1000025    5
    0.12911852   2    1000022    5
    0.00059959901   2    1000005    25
    0.0005762098   2    1000006   -24
    0.00033730053   2    1000005    23
    0.00020054383   2    2000006   -24

DECAY 2000002  153.41942
    0.92711149   2    1000021    2
    0.056620377   2    1000022    2
    0.013870189   2    1000025    2
    0.002397292   2    1000023    2

DECAY 1000002  203.61244
    0.70151352   2    1000021    2
    0.19433447   2    1000037    1
    0.097601187   2    1000035    2
    0.0023937643   2    1000024    1
    0.0022453659   2    1000022    2
    0.0018796677   2    1000025    2

DECAY 2000004  153.42309
    0.92708967   2    1000021    4
    0.056619415   2    1000022    4
    0.013875089   2    1000025    4
    0.0024033361   2    1000023    4

DECAY 1000004  203.6247
    0.70147331   2    1000021    4
    0.19432298   2    1000037    3
    0.09759546   2    1000035    4
    0.0024426036   2    1000024    3
    0.0022455267   2    1000022    4
    0.0018834936   2    1000025    4

DECAY 1000006  34.950717
    0.43169067   2    1000024    5
    0.29228879   2    1000023    6
    0.20752591   2    1000025    6
    0.067853984   2    1000022    6
    0.00044982343   2    1000022    4
    0.00010444579   3    1000022    24    5

DECAY 2000006  74.709457
    0.31201989   2    1000006    23
    0.19208298   2    1000024    5
    0.18964407   2    1000025    6
    0.17592094   2    1000023    6
    0.080982363   2    1000005    24
    0.017798621   2    1000037    5
    0.011808011   2    1000006    25
    0.011556472   2    1000022    6
    0.0081866533   2    1000035    6

DECAY 1000024  0.00028830961
    0.3337334   3    1000022   -1    2
    0.33322335   3    1000022   -3    4
    0.11105558   3    1000022   -13    14
    0.11103629   3    1000022   -11    12
    0.11095137   3    1000022   -15    16

DECAY 1000037  26.784729
    0.15858887   2    1000012   -11
    0.15857797   2    1000014   -13
    0.1585502   2   -1000011    12
    0.15853723   2   -1000013    14
    0.091867982   2    1000023    24
    0.08964221   2    1000024    23
    0.085925495   2    1000024    25
    0.084602356   2    1000025    24
    0.0038718246   2    1000022    24
    0.0038261129   2    1000006   -5
    0.0020227966   3    1000023   -5    6
    0.0020182943   3    1000024    6   -6
    0.0017787348   3    1000025   -5    6
    0.00010283257   3    1000022   -5    6

DECAY 1000022 -1


DECAY 1000023  0.00091558227
    0.20684463   3    1000022    12   -12
    0.1524192   3    1000022    1   -1
    0.15241739   3    1000022    3   -3
    0.14895754   3    1000022    5   -5
    0.1188784   3    1000022    2   -2
    0.11854081   3    1000022    4   -4
    0.034211781   3    1000022    15   -15
    0.032198381   3    1000022    13   -13
    0.032183303   3    1000022    11   -11
    0.0027973872   2    1000022    22

DECAY 1000025  0.00012087804
    0.21776992   3    1000022    12   -12
    0.1547076   3    1000022    1   -1
    0.15470571   3    1000022    3   -3
    0.15169885   3    1000022    5   -5
    0.12069371   3    1000022    2   -2
    0.12033575   3    1000022    4   -4
    0.034468107   3    1000022    15   -15
    0.020872549   3    1000022    13   -13
    0.020816396   3    1000022    11   -11
    0.001196636   2    1000022    22
    0.00047147179   3    1000024    1   -2
    0.00047147179   3   -1000024   -1    2
    0.00044210346   3    1000024    3   -4
    0.00044210346   3   -1000024   -3    4
    0.00015675358   3    1000024    11   -12
    0.00015675358   3   -1000024   -11    12
    0.00015670357   3    1000024    13   -14
    0.00015670357   3   -1000024   -13    14
    0.00013878739   3    1000024    15   -16
    0.00013878739   3   -1000024   -15    16

DECAY 1000035  27.22481
    0.089506616   2    1000024   -24
    0.089506616   2   -1000024    24
    0.078700117   2    1000012   -12
    0.078700117   2   -1000012    12
    0.078694699   2    1000014   -14
    0.078694699   2   -1000014    14
    0.077292025   2    1000011   -11
    0.077292025   2   -1000011    11
    0.077285712   2    1000013   -13
    0.077285712   2   -1000013    13
    0.056232686   2    1000023    25
    0.051889675   2    1000023    23
    0.04614754   2    1000025    25
    0.034331161   2    1000025    23
    0.0020820295   2    1000022    23
    0.0016749662   3    1000024    5   -6
    0.0016749662   3   -1000024   -5    6
    0.0016515404   2    1000022    25
    0.00061694643   3    1000023    6   -6
    0.00056291011   3    1000025    6   -6

DECAY 1000021  254.17642
    0.13535787   2    2000006   -6
    0.13535787   2   -2000006    6
    0.13200345   2    1000005   -5
    0.13200345   2   -1000005    5
    0.13113441   2    1000006   -6
    0.13113441   2   -1000006    6
    0.07481749   2    2000005   -5
    0.07481749   2   -2000005    5
    0.025636327   2    1000006   -4
    0.025636327   2   -1000006    4
    0.0009203029   3    1000037    5   -6
    0.0009203029   3   -1000037   -5    6

DECAY 25  0.0051170117
    0.4265541   2   -5    5
    0.299018   2    1000022    1000022
    0.13546487   2   -24    24
    0.050494955   2    21    21
    0.048837551   2   -15    15
    0.021086988   2   -4    4
    0.015661791   2    23    23
    0.0016338579   2    22    22
    0.00091799281   2    22    23
    0.00016934326   2   -13    13
    0.00015998362   2   -3    3
    4.4233883e-07   2   -1    1
    1.0867119e-07   2   -2    2
    3.8070424e-09   2   -11    11

DECAY 35  95.198441
    0.42577624   2   -5    5
    0.14211759   2   -1000024    1000037
    0.14211759   2   -1000037    1000024
    0.082866983   2   -15    15
    0.061115671   2    1000023    1000035
    0.053536404   2    1000025    1000035
    0.028804435   2    1000022    1000035
    0.0159993   2    1000022    1000022
    0.0099991293   2    1000022    1000023
    0.0075165456   2    1000023    1000025
    0.0074995811   2    1000022    1000025
    0.0044148681   2    1000025    1000025
    0.0039200595   2   -1000024    1000024
    0.0030518515   2    1000023    1000023
    0.0023221708   2   -1000006    1000006
    0.0017138219   2   -2000005    1000005
    0.0017138219   2   -1000005    2000005
    0.0015669268   2   -2000006    2000006
    0.0015470033   2   -6    6
    0.00089024837   2   -2000015    1000015
    0.00089024837   2   -1000015    2000015
    0.00026578797   2   -13    13
    0.00017062148   2   -3    3
    6.8719137e-05   2   -2000006    1000006
    6.8719137e-05   2   -1000006    2000006
    2.4302947e-05   2   -1000037    1000037
    1.215126e-05   2    1000035    1000035
    4.0039749e-06   2    25    25
    2.901305e-06   2    21    21
    4.7172048e-07   2   -1    1
    3.5451887e-07   2   -1000005    1000005
    2.0160286e-07   2   -2000015    2000015
    1.9687417e-07   2   -1000015    1000015
    1.8209171e-07   2    23    23
    6.9629846e-08   2   -1000011    1000011
    6.9043293e-08   2   -1000013    1000013
    4.494619e-08   2   -2000011    2000011
    4.4859944e-08   2   -2000013    2000013
    3.9524147e-08   2   -24    24
    2.5191423e-08   2    22    23
    2.0323359e-08   2   -4    4
    1.3569471e-08   2    22    22
    5.9689702e-09   2   -11    11
    1.3384439e-10   2   -2000013    1000013
    1.3384439e-10   2   -1000013    2000013
    1.0475559e-13   2   -2    2
    3.1359508e-15   2   -2000011    1000011
    3.1359508e-15   2   -1000011    2000011

DECAY 36  92.209287
    0.41236586   2   -5    5
    0.14681707   2   -1000024    1000037
    0.14681707   2   -1000037    1000024
    0.080259277   2   -15    15
    0.069555117   2    1000023    1000035
    0.049741987   2    1000025    1000035
    0.028893978   2    1000022    1000035
    0.015662903   2    1000022    1000022
    0.01238313   2    1000022    1000023
    0.0079016772   2    1000023    1000025
    0.0065185766   2    1000022    1000025
    0.0040251972   2   -1000024    1000024
    0.0039828294   2    1000025    1000025
    0.0036179557   2    1000023    1000023
    0.002069945   2   -2000006    1000006
    0.002069945   2   -1000006    2000006
    0.0017709744   2   -2000005    1000005
    0.0017709744   2   -1000005    2000005
    0.001497094   2   -6    6
    0.00091979559   2   -2000015    1000015
    0.00091979559   2   -1000015    2000015
    0.00025741746   2   -13    13
    0.00016524635   2   -3    3
    7.188954e-06   2    21    21
    5.4029663e-06   2   -1000037    1000037
    2.7209437e-06   2    1000035    1000035
    4.5685828e-07   2   -1    1
    3.8700275e-07   2    23    25
    1.9533345e-08   2   -4    4
    5.7809715e-09   2   -11    11
    4.4146931e-09   2    22    23
    6.7490453e-10   2    22    22
    1.1381752e-10   2   -2000013    1000013
    1.1381752e-10   2   -1000013    2000013
    1.0068744e-13   2   -2    2
    6.3738386e-14   2    23    35
    2.6622036e-15   2   -2000011    1000011
    2.6622036e-15   2   -1000011    2000011
    3.8030201e-37   2    25    25

DECAY 37  95.174165
    0.42562078   2   -5    6
    0.14257473   2    1000024    1000035
    0.12862996   2    1000023    1000037
    0.10220109   2    1000025    1000037
    0.084625214   2   -15    16
    0.05698484   2    1000022    1000037
    0.035192077   2    1000022    1000024
    0.014213045   2    1000024    1000025
    0.0029221179   2   -2000005    1000006
    0.001784398   2   -1000015    1000016
    0.0015982371   2   -1000005    1000006
    0.0013696169   2   -2000005    2000006
    0.00092350672   2   -1000005    2000006
    0.0006291628   2   -5    4
    0.00029918026   2   -13    14
    0.00025895109   2    1000023    1000024
    0.00015702924   2   -3    4
    7.3757259e-06   2   -3    2
    4.4928709e-06   2   -5    2
    2.4136755e-06   2   -3    6
    4.3572073e-07   2   -1    2
    3.7502808e-07   2    24    25
    2.9582254e-07   2   -2000015    1000016
    2.7353319e-07   2   -1000011    1000012
    2.7261073e-07   2   -1000013    1000014
    9.9979019e-08   2   -1    6
    2.1319829e-08   2   -1    4
    6.9978574e-09   2   -11    12
    6.556121e-10   2   -2000013    1000014
    1.6684503e-11   2    1000035    1000037
    3.6461328e-14   2    24    35
    1.5358316e-14   2   -2000011    1000012

DECAY 6  2.43
    1   2    5    24

DECAY 15 -1
