BLOCK SPINFO
   1   SPheno
   2   v4.0.5be

BLOCK SPHENOINFO
   1   2
   2   2

BLOCK MODSEL
   1   0

BLOCK MINPAR
   3    23.91891
   4    1

BLOCK EXTPAR
   0    1614.0529
   1   -756.69871
   2    1977.7794
   3    3000
   11   -4471.5669
   12    805.80141
   13    1970.3269
   23    99.4903
   25    23.128635
   26    3168.9951
   31    739.05507
   32    739.05507
   33    1134.9891
   34    1398.8646
   35    1398.8646
   36    1457.8472
   41    5000
   42    5000
   43    1683.1708
   44    5000
   45    5000
   46    1671.2212
   47    5000
   48    5000
   49    1187.6053

BLOCK SMINPUTS
   1    127.90897
   2    1.1663787e-05
   3    0.1184
   4    91.1876
   5    4.18
   6    173.2
   7    1.777
   8    0
   11    0.00051099893
   12    0
   13    0.10565837
   14    0
   21    0.005
   22    0.0025
   23    0.095
   24    1.27

BLOCK GAUGE Q=  1614.0529
   1    0.35536298
   2    0.66519887
   3    1.219778

BLOCK YU Q=  1614.0529
   1   1    8.3922053e-06
   2   2    0.0042632403
   3   3    1.0138458

BLOCK YD Q=  1614.0529
   1   1    0.00039003749
   2   2    0.0074107124
   3   3    0.38679497

BLOCK YE Q=  1614.0529
   1   1    6.8064395e-05
   2   2    0.014073558
   3   3    0.2366941

BLOCK AU Q=  1614.0529
   1   1    0
   2   2    0
   3   3   -4471.5667

BLOCK AD Q=  1614.0529
   1   1    0
   2   2    0
   3   3    805.80142

BLOCK AE Q=  1614.0529
   1   1    0
   2   2    0
   3   3    1970.3269

BLOCK MSOFT Q=  1614.0529
   1   -756.69871
   2    1977.7794
   3    3000
   21    10008588
   22    51478.176
   31    739.05507
   32    739.05507
   33    1134.9891
   34    1398.8646
   35    1398.8646
   36    1457.8472
   41    5000
   42    5000
   43    1683.1708
   44    5000
   45    5000
   46    1671.2212
   47    5000
   48    5000
   49    1187.6053

BLOCK MASS
   6    173.2
   23    91.1876
   24    80.429995
   15    1.777
   25    122.62287
   35    3168.5447
   36    3168.9951
   37    3169.9479
   1000001    5032.2582
   2000001    5024.5073
   1000002    5031.8263
   2000002    5026.4493
   1000003    5032.2595
   2000003    5024.5092
   1000004    5031.8277
   2000004    5026.45
   1000005    1214.1184
   2000005    1671.8836
   1000006    1433.7478
   2000006    1817.0328
   1000011    762.76807
   2000011    1400.2352
   1000012    758.33985
   1000013    762.76646
   2000013    1400.2322
   1000014    758.33936
   1000015    1153.7135
   2000015    1458.5941
   1000016    1150.715
   1000021    3199.4648
   1000022    104.85526
   1000023   -106.27949
   1000025   -757.36474
   1000035    2017.4979
   1000024    105.51849
   1000037    2017.6617

BLOCK ALPHA
      -0.041879541

BLOCK HMIX Q=  1614.0529
   1    99.4903
   2    23.128635
   3    243.8984
   4    10042530

BLOCK STOPMIX
   1   1    0.640604
   1   2    0.76787142
   2   1   -0.76787142
   2   2    0.640604

BLOCK SBOTMIX
   1   1    0.0021716132
   1   2    0.99999764
   2   1   -0.99999764
   2   2    0.0021716132

BLOCK STAUMIX
   1   1    0.99999967
   1   2    0.0008190675
   2   1   -0.0008190675
   2   2    0.99999967

BLOCK NMIX
   1   1   -0.037689477
   1   2   -0.030708389
   1   3    0.70911697
   1   4   -0.70341284
   2   1    0.04600538
   2   2    0.025645004
   2   3    0.70505803
   2   4    0.70719093
   3   1    0.99822974
   3   2   -0.0017057171
   3   3   -0.0057179955
   3   4   -0.059175924
   4   1    0.00063500314
   4   2   -0.99919789
   4   3   -0.0036878287
   4   4    0.039869507

BLOCK UMIX
   1   1   -0.0052170431
   1   2    0.99998639
   2   1    0.99998639
   2   2    0.0052170431

BLOCK VMIX
   1   1   -0.056421088
   1   2    0.99840706
   2   1    0.99840706
   2   2    0.056421088

BLOCK HIGGSBOUNDSINPUTHIGGSCOUPLINGSFERMIONS
       0, 534.93377,3,36,15,15

BLOCK HIGGSBOUNDSINPUTHIGGSCOUPLINGSBOSONS
       0,4,36,21,21,23

BLOCK SPHENOLOWENERGY
   1    0.00028806868
   2    1.5995976e-06
   3    3.5316256e-05
   4    3.0723264e-15
   5    1.3124605e-10
   6    2.7459542e-08
   7    1.0338495e-13
   8    4.4165938e-09
   9    9.3628654e-07
   10    9.6497421e-05
   11    0.99678141
   12    0.54267104
   13    19.388077
   14    0
   15    0
   16    0.0021601392
   17    2.2816872e-15
   18    2.4834858e-11
   19    8.2990624e-11
   20    1.4917035e-15
   21    6.3766177e-11
   22    2.2981499e-08
   23    0
   24    0
   25    0
   26    0
   27    0
   28    0
   29    0
   30    0
   31    0
   39    7.7964055e-05
   40    0
   41    0
   42    0

BLOCK FWCOEF Q=  160
   305   4422   0   0   -0.18881911
   305   4422   0   2   -0.14811073
   305   4322   0   2    0.0002021107
   305   6421   0   0   -0.095227835
   305   6421   0   2   -0.078792963
   305   6321   0   2   -1.7697214e-05
   3051111   4133   0   0    1.5945107
   3051111   4133   0   2    1.596385
   3051111   4233   0   2    0.00010854548
   3051111   4137   0   0   -4.4172028
   3051111   4137   0   2   -4.4217881
   3051111   4237   0   2   -0.00084087969
   3051313   4133   0   0    1.5945107
   3051313   4133   0   2    1.5963833
   3051313   4233   0   2    0.00010854533
   3051313   4137   0   0   -4.4172028
   3051313   4137   0   2   -4.4217898
   3051313   4237   0   2   -0.00084088008
   3051212   4137   0   0    1.5053501
   3051212   4137   0   2    1.5063539
   3051212   4237   0   2    0.00018315115
   3051414   4137   0   0    1.5053501
   3051414   4137   0   2    1.5063539
   3051414   4237   0   2    0.00018315115
   3051616   4137   0   0    1.5053501
   3051616   4137   0   2    1.5063541
   3051616   4237   0   2    0.00018315299

BLOCK IMFWCOEF Q=  160
   305   4422   0   0    3.8583292e-07
   305   4422   0   2    1.6028555e-05
   305   4322   0   2    5.6248303e-06
   305   6421   0   0    3.3049142e-07
   305   6421   0   2   -3.9342327e-06
   305   6321   0   2    2.3239722e-06
   3051111   4133   0   2   -3.6246959e-07
   3051111   4233   0   2    2.1634804e-06
   3051111   4137   0   2    4.0992999e-06
   3051111   4237   0   2   -1.6764233e-05
   3051313   4133   0   2   -3.6249243e-07
   3051313   4233   0   2    2.1634784e-06
   3051313   4137   0   2    4.0992757e-06
   3051313   4237   0   2   -1.6764241e-05
   3051212   4137   0   2   -8.1925824e-07
   3051212   4237   0   2    3.6514075e-06
   3051414   4137   0   2   -8.192589e-07
   3051414   4237   0   2    3.6514075e-06
   3051616   4137   0   2   -8.1501145e-07
   3051616   4237   0   2    3.6514067e-06

DECAY 23  2.4952


DECAY 24  2.085


DECAY 1000011  0.016862487
    0.49541061   2    1000022    11
    0.48294929   2    1000023    11
    0.011212695   2    1000025    11
    0.010427246   2   -1000024    12

DECAY 2000011  3.5333441
    0.99303686   2    1000025    11
    0.0041661944   2    1000023    11
    0.002796908   2    1000022    11

DECAY 1000013  0.019753865
    0.49652567   2    1000022    13
    0.48500934   2    1000023    13
    0.0095638589   2    1000025    13
    0.0089009878   2   -1000024    14

DECAY 2000013  3.5442429
    0.98997755   2    1000025    13
    0.0049183213   2    1000023    13
    0.0035623607   2    1000022    13
    0.001539062   2   -1000024    14

DECAY 1000015  1.7549126
    0.36973568   2    1000022    15
    0.3653166   2    1000023    15
    0.26477504   2    1000025    15
    0.00017268047   2   -1000024    16

DECAY 2000015  7.138977
    0.54572599   2    1000025    15
    0.2253322   2   -1000024    16
    0.11477036   2    1000022    15
    0.1141521   2    1000023    15

DECAY 1000012  0.020805208
    0.98226252   2    1000024    11
    0.017258295   2    1000022    12
    0.00030328511   2    1000025    12
    0.00017589671   2    1000023    12

DECAY 1000014  0.023677992
    0.98441484   2    1000024    13
    0.015164384   2    1000022    14
    0.00026622097   2    1000025    14
    0.00015455555   2    1000023    14

DECAY 1000016  1.7589051
    0.73489992   2    1000024    15
    0.26478022   2    1000025    16
    0.00031663297   2    1000022    16

DECAY 2000001  142.86061
    0.98124332   2    1000021    1
    0.018687073   2    1000025    1

DECAY 1000001  188.46992
    0.74806301   2    1000021    1
    0.16554546   2   -1000037    2
    0.082666095   2    1000035    1
    0.003615583   2    1000025    1

DECAY 2000003  142.87175
    0.98116821   2    1000021    3
    0.018685625   2    1000025    3

DECAY 1000003  188.47738
    0.74803416   2    1000021    3
    0.16553901   2   -1000037    4
    0.082662865   2    1000035    3
    0.0036154421   2    1000025    3

DECAY 1000005  7.2263367
    0.47225141   2   -1000024    6
    0.24787454   2    1000022    5
    0.24498768   2    1000023    5
    0.034886373   2    1000025    5

DECAY 2000005  58.305768
    0.56731523   2   -1000024    6
    0.34530066   2    1000006   -24
    0.042646429   2    1000022    5
    0.042124294   2    1000023    5
    0.0025708544   2    1000025    5

DECAY 2000002  151.1058
    0.92903801   2    1000021    2
    0.070699459   2    1000025    2
    0.00015708421   2    1000023    2
    0.00010543005   2    1000022    2

DECAY 1000002  188.46318
    0.74785133   2    1000021    2
    0.16500386   2    1000037    1
    0.082619117   2    1000035    2
    0.0034792305   2    1000025    2
    0.00074761852   2    1000024    1
    0.0001644107   2    1000022    2
    0.00013443391   2    1000023    2

DECAY 2000004  151.10943
    0.92901571   2    1000021    4
    0.070697789   2    1000025    4
    0.00016309102   2    1000023    4
    0.00011137404   2    1000022    4

DECAY 1000004  188.47057
    0.74782241   2    1000021    4
    0.16499746   2    1000037    3
    0.082615923   2    1000035    4
    0.0034791285   2    1000025    4
    0.00077665138   2    1000024    3
    0.00016917597   2    1000022    4
    0.00013925172   2    1000023    4

DECAY 1000006  48.72332
    0.40727373   2    1000024    5
    0.28411053   2    1000023    6
    0.28293468   2    1000022    6
    0.025268672   2    1000025    6
    0.00038291278   3    1000022    24    5

DECAY 2000006  84.751635
    0.28662583   2    1000006    23
    0.2161027   2    1000023    6
    0.21248878   2    1000022    6
    0.20006494   2    1000024    5
    0.059064886   2    2000005    24
    0.015609547   2    1000006    25
    0.01002124   2    1000025    6

DECAY 1000024  2.4467994e-13
    0.8461591   2    1000022    211
    0.081656386   3    1000022   -11    12
    0.072184516   3    1000022   -13    14

DECAY 1000037  57.425297
    0.11367978   2    1000014   -13
    0.11367973   2    1000012   -11
    0.11360079   2   -1000013    14
    0.11360063   2   -1000011    12
    0.077666442   2    1000023    24
    0.077220236   2    1000024    23
    0.077167611   2    1000024    25
    0.076825026   2    1000022    24
    0.070181943   2    1000016   -15
    0.070050644   2   -1000015    16
    0.03740118   2    1000006   -5
    0.036904114   2   -2000005    6
    0.01118546   2    2000006   -5
    0.004367273   3    1000024    6   -6
    0.0031370296   3    1000022   -5    6
    0.0031021821   3    1000023   -5    6
    0.00021138109   2    1000025    24

DECAY 1000022 -1


DECAY 1000023  1.3969908e-10
    0.95332549   2    1000022    22
    0.013421452   3    1000022    12   -12
    0.010034622   3    1000022    1   -1
    0.0093555535   3    1000022    3   -3
    0.00782704   3    1000022    2   -2
    0.0022647433   3    1000022    11   -11
    0.0020286235   3    1000022    13   -13
    0.00053984994   3    1000024    1   -2
    0.00053984994   3   -1000024   -1    2
    0.00018002365   3    1000024    11   -12
    0.00018002365   3   -1000024   -11    12
    0.00015136433   3    1000024    13   -14
    0.00015136433   3   -1000024   -13    14

DECAY 1000025  2.0757815
    0.23794318   2    1000024   -24
    0.23794318   2   -1000024    24
    0.14977918   2    1000022    25
    0.14181893   2    1000022    23
    0.12791107   2    1000023    25
    0.097080589   2    1000023    23
    0.0030977188   3    1000024    5   -6
    0.0030977188   3   -1000024   -5    6
    0.0006468856   3    1000022    6   -6
    0.00063330143   3    1000023    6   -6

DECAY 1000035  57.808199
    0.077032021   2    1000024   -24
    0.077032021   2   -1000024    24
    0.056583673   2    1000014   -14
    0.056583673   2   -1000014    14
    0.056583649   2    1000012   -12
    0.056583649   2   -1000012    12
    0.056289354   2    1000013   -13
    0.056289354   2   -1000013    13
    0.056289275   2    1000011   -11
    0.056289275   2   -1000011    11
    0.045480959   2    1000023    23
    0.045066311   2    1000022    25
    0.038585036   2    1000023    25
    0.034929445   2    1000016   -16
    0.034929445   2   -1000016    16
    0.034706341   2    1000015   -15
    0.034706341   2   -1000015    15
    0.03101806   2    1000022    23
    0.02257898   2    2000005   -5
    0.02257898   2   -2000005    5
    0.016995898   2    1000006   -6
    0.016995898   2   -1000006    6
    0.003131208   3    1000024    5   -6
    0.003131208   3   -1000024   -5    6
    0.0025128413   2    2000006   -6
    0.0025128413   2   -2000006    6
    0.0021136796   3    1000023    6   -6
    0.0021036674   3    1000022    6   -6
    0.00017468816   2    1000025    23
    0.00017385048   2    1000025    25

DECAY 1000021  226.02825
    0.15350275   2    1000005   -5
    0.15350275   2   -1000005    5
    0.11582001   2    1000006   -6
    0.11582001   2   -1000006    6
    0.1107386   2    2000006   -6
    0.1107386   2   -2000006    6
    0.11070825   2    2000005   -5
    0.11070825   2   -2000005    5
    0.0090821288   2    1000006   -4
    0.0090821288   2   -1000006    4

DECAY 25  0.003574852
    0.6085695   2   -5    5
    0.191941   2   -24    24
    0.073254059   2    21    21
    0.069845342   2   -15    15
    0.03009799   2   -4    4
    0.022149814   2    23    23
    0.0023635673   2    22    22
    0.0013069067   2    22    23
    0.00024225768   2   -13    13
    0.00022877024   2   -3    3
    6.3252679e-07   2   -1    1
    1.5510909e-07   2   -2    2
    5.4462532e-09   2   -11    11

DECAY 35  42.27356
    0.46038035   2   -5    5
    0.11343369   2   -1000024    1000037
    0.11343369   2   -1000037    1000024
    0.087792016   2   -15    15
    0.064971176   2    1000023    1000035
    0.048709368   2    1000022    1000035
    0.041544444   2    1000023    1000025
    0.036559436   2    1000022    1000025
    0.0095084956   2   -2000015    1000015
    0.0095084956   2   -1000015    2000015
    0.0048836294   2   -6    6
    0.003208489   2   -2000005    1000005
    0.003208489   2   -1000005    2000005
    0.0020042367   2   -1000024    1000024
    0.00030612096   2   -13    13
    0.00028899941   2   -1000006    1000006
    0.00017618322   2   -3    3
    3.7794839e-05   2    1000022    1000022
    1.4446385e-05   2    1000022    1000023
    9.0244318e-06   2    1000025    1000035
    6.8055785e-06   2    1000025    1000025
    3.4245092e-06   2    25    25
    2.6148732e-06   2    21    21
    1.9576747e-06   2    1000023    1000023
    1.3325331e-06   2    23    23
    5.8410984e-07   2   -1000005    1000005
    4.8708568e-07   2   -1    1
    3.7468498e-07   2   -24    24
    3.0992532e-07   2   -1000011    1000011
    3.090603e-07   2   -1000013    1000013
    1.0630984e-07   2   -2000011    2000011
    1.0594617e-07   2   -2000013    2000013
    8.5679439e-08   2   -2000015    2000015
    6.5988378e-08   2   -4    4
    1.2790128e-08   2   -1000015    1000015
    8.5076579e-09   2    22    23
    6.8751678e-09   2   -11    11
    6.1357535e-09   2    22    22
    1.8977818e-10   2   -2000013    1000013
    1.8977818e-10   2   -1000013    2000013
    3.4015874e-13   2   -2    2
    4.4389319e-15   2   -2000011    1000011
    4.4389319e-15   2   -1000011    2000011

DECAY 36  41.381041
    0.45243755   2   -5    5
    0.11591692   2   -1000024    1000037
    0.11591692   2   -1000037    1000024
    0.086277542   2   -15    15
    0.066851808   2    1000022    1000035
    0.049334015   2    1000023    1000035
    0.042756146   2    1000022    1000025
    0.037057609   2    1000023    1000025
    0.0097150178   2   -2000015    1000015
    0.0097150178   2   -1000015    2000015
    0.0048114265   2   -6    6
    0.003285025   2   -2000005    1000005
    0.003285025   2   -1000005    2000005
    0.0020875866   2   -1000024    1000024
    0.00030083967   2   -13    13
    0.00017314111   2   -3    3
    4.5788046e-05   2    1000022    1000022
    1.422507e-05   2    21    21
    1.1366275e-05   2    1000022    1000023
    2.3072699e-06   2    23    25
    1.6980013e-06   2    1000023    1000023
    1.196517e-06   2    1000025    1000025
    1.1754443e-06   2    1000025    1000035
    4.786759e-07   2   -1    1
    6.4226253e-08   2   -4    4
    5.6416809e-08   2    22    22
    4.5852364e-08   2    22    23
    6.7565475e-09   2   -11    11
    1.9249031e-10   2   -2000013    1000013
    1.9249031e-10   2   -1000013    2000013
    3.3108495e-13   2   -2    2
    4.5023683e-15   2   -2000011    1000011
    4.5023683e-15   2   -1000011    2000011
    2.2459495e-37   2    25    25

DECAY 37  42.713351
    0.4692612   2   -5    6
    0.11331663   2    1000022    1000037
    0.11254828   2    1000024    1000035
    0.11228404   2    1000023    1000037
    0.084911499   2   -15    16
    0.076384369   2    1000024    1000025
    0.018870032   2   -2000015    1000016
    0.0075530956   2   -1000005    1000006
    0.0021321579   2   -1000005    2000006
    0.00092010436   2    1000023    1000024
    0.00068843861   2   -5    4
    0.00063397165   2    1000022    1000024
    0.00030019244   2   -13    14
    0.00016008269   2   -3    4
    1.006234e-05   2    1000025    1000037
    7.4995819e-06   2   -3    2
    7.4752584e-06   2   -3    6
    4.9161614e-06   2   -5    2
    2.238573e-06   2    24    25
    1.2040107e-06   2   -1000011    1000012
    1.2028105e-06   2   -1000013    1000014
    4.9897384e-07   2   -1000015    1000016
    4.4398509e-07   2   -1    2
    3.3196892e-07   2   -1    6
    2.3779509e-08   2   -1    4
    7.0215325e-09   2   -11    12
    3.8034388e-10   2   -2000013    1000014
    1.7337427e-13   2    24    35
    8.8963632e-15   2   -2000011    1000012

DECAY 6  2.43
    1   2    5    24

DECAY 15 -1
