BLOCK SPINFO
   1   SPheno
   2   v4.0.5be

BLOCK SPHENOINFO
   1   2
   2   2

BLOCK MODSEL
   1   0

BLOCK MINPAR
   3    29.178131
   4    1

BLOCK EXTPAR
   0    2859.2514
   1   -389.28999
   2   -2065.7266
   3    4642.9193
   11   -6244.2392
   12    7018.8791
   13    6910.2375
   23    392.4477
   25    28.18468
   26    269.9292
   31    754.93737
   32    754.93737
   33    464.64968
   34    4697.586
   35    4697.586
   36    1693.6981
   41    2029.0959
   42    2029.0959
   43    2531.0535
   44    2628.5652
   45    2628.5652
   46    3276.9139
   47    4257.734
   48    4257.734
   49    613.84143

BLOCK SMINPUTS
   1    127.90897
   2    1.1663787e-05
   3    0.1184
   4    91.1876
   5    4.18
   6    173.2
   7    1.777
   8    0
   11    0.00051099893
   12    0
   13    0.10565837
   14    0
   21    0.005
   22    0.0025
   23    0.095
   24    1.27

BLOCK GAUGE Q=  2859.2514
   1    0.35536298
   2    0.66519887
   3    1.219778

BLOCK YU Q=  2859.2514
   1   1    8.3896478e-06
   2   2    0.0042619411
   3   3    1.0135368

BLOCK YD Q=  2859.2514
   1   1    0.00047515695
   2   2    0.009027982
   3   3    0.4712068

BLOCK YE Q=  2859.2514
   1   1    8.2918362e-05
   2   2    0.017144887
   3   3    0.2883488

BLOCK AU Q=  2859.2514
   1   1    0
   2   2    0
   3   3   -6244.2392

BLOCK AD Q=  2859.2514
   1   1    0
   2   2    0
   3   3    7018.879

BLOCK AE Q=  2859.2514
   1   1    0
   2   2    0
   3   3    6910.2375

BLOCK MSOFT Q=  2859.2514
   1   -389.28999
   2   -2065.7266
   3    4642.9193
   21    110142.21
   22   -50924.946
   31    754.93737
   32    754.93737
   33    464.64968
   34    4697.586
   35    4697.586
   36    1693.6981
   41    2029.0959
   42    2029.0959
   43    2531.0535
   44    2628.5652
   45    2628.5652
   46    3276.9139
   47    4257.734
   48    4257.734
   49    613.84143

BLOCK MASS
   6    173.2
   23    91.1876
   24    80.429995
   15    1.777
   25    125.68345
   35    270.05255
   36    269.9292
   37    280.15753
   1000001    2144.7497
   2000001    4356.3907
   1000002    2143.2514
   2000002    2724.1
   1000003    2144.7481
   2000003    4356.3885
   1000004    2143.2499
   2000004    2724.0994
   1000005    578.79864
   2000005    2560.4839
   1000006    2525.0094
   2000006    3237.7378
   1000011    794.70656
   2000011    4703.1829
   1000012    790.45721
   1000013    794.70209
   2000013    4703.1731
   1000014    790.45093
   1000015    469.84194
   2000015    1643.8642
   1000016    465.75927
   1000021    4579.0149
   1000022   -359.38818
   1000023    397.14221
   1000025   -419.32298
   1000035   -2064.7359
   1000024    394.33633
   1000037    2064.8799

BLOCK ALPHA
      -0.047008934

BLOCK HMIX Q=  2859.2514
   1    392.4477
   2    28.18468
   3    243.26423
   4    72861.775

BLOCK STOPMIX
   1   1    0.97758781
   1   2    0.21052807
   2   1   -0.21052807
   2   2    0.97758781

BLOCK SBOTMIX
   1   1    0.0014741482
   1   2    0.99999891
   2   1   -0.99999891
   2   2    0.0014741482

BLOCK STAUMIX
   1   1    0.99999579
   1   2    0.0029012831
   2   1   -0.0029012831
   2   2    0.99999579

BLOCK NMIX
   1   1   -0.75244399
   1   2    0.01952424
   1   3   -0.48845989
   1   4   -0.44142245
   2   1   -0.041087198
   2   2    0.023450794
   2   3    0.70432335
   2   4   -0.70830115
   3   1    0.65737266
   3   2    0.02538253
   3   3   -0.51507122
   3   4   -0.54947115
   4   1    0.0010321704
   4   2   -0.99921198
   4   3   -0.006098483
   4   4   -0.039206525

BLOCK UMIX
   1   1   -0.0086149897
   1   2    0.99996289
   2   1   -0.99996289
   2   2   -0.0086149897

BLOCK VMIX
   1   1    0.055406514
   1   2    0.99846388
   2   1    0.99846388
   2   2   -0.055406514

BLOCK HIGGSBOUNDSINPUTHIGGSCOUPLINGSFERMIONS
       0, 794.37617,3,36,15,15

BLOCK HIGGSBOUNDSINPUTHIGGSCOUPLINGSBOSONS
       0,4,36,21,21,23

BLOCK SPHENOLOWENERGY
   1    0.00047773759
   2    1.5994434e-06
   3    3.5258763e-05
   4    2.8243498e-15
   5    1.2065244e-10
   6    2.5223998e-08
   7    9.4240422e-14
   8    4.0259309e-09
   9    8.5294353e-07
   10    4.7847571e-05
   11    0.49424708
   12    0.54176849
   13    19.211123
   14    0
   15    0
   16    0.0021578518
   17    2.2817378e-15
   18    2.4810571e-11
   19    8.2916314e-11
   20   -2.2913506e-15
   21   -9.7966746e-11
   22   -6.1945652e-08
   23    0
   24    0
   25    0
   26    0
   27    0
   28    0
   29    0
   30    0
   31    0
   39    6.4576397e-05
   40    0
   41    0
   42    0

BLOCK FWCOEF Q=  160
   305   4422   0   0   -0.18881911
   305   4422   0   2   -0.33758324
   305   4322   0   2   -0.0028315156
   305   6421   0   0   -0.095227835
   305   6421   0   2   -0.24429571
   305   6321   0   2   -0.0028342132
   3051111   4133   0   0    1.6148467
   3051111   4133   0   2    1.615052
   3051111   4233   0   2   -0.00024194828
   3051111   4137   0   0   -4.4375388
   3051111   4137   0   2   -4.4363827
   3051111   4237   0   2    0.0018239715
   3051313   4133   0   0    1.6148467
   3051313   4133   0   2    1.6150511
   3051313   4233   0   2   -0.00024216707
   3051313   4137   0   0   -4.4375388
   3051313   4137   0   2   -4.4363836
   3051313   4237   0   2    0.0018241902
   3051212   4137   0   0    1.5053501
   3051212   4137   0   2    1.5051046
   3051212   4237   0   2   -0.00039546695
   3051414   4137   0   0    1.5053501
   3051414   4137   0   2    1.5051046
   3051414   4237   0   2   -0.00039541943
   3051616   4137   0   0    1.5053501
   3051616   4137   0   2    1.505104
   3051616   4237   0   2   -0.00038202655

BLOCK IMFWCOEF Q=  160
   305   4422   0   0    3.8584408e-07
   305   4422   0   2   -7.0059055e-06
   305   4322   0   2    5.0692129e-06
   305   6421   0   0    3.3050097e-07
   305   6421   0   2   -1.3594544e-05
   305   6321   0   2    2.5064141e-06
   3051111   4133   0   2   -2.7788236e-06
   3051111   4233   0   2    4.3550645e-06
   3051111   4137   0   2    2.1277514e-05
   3051111   4237   0   2   -3.2785964e-05
   3051313   4133   0   2   -2.7788131e-06
   3051313   4233   0   2    4.3550632e-06
   3051313   4137   0   2    2.1277542e-05
   3051313   4237   0   2   -3.2785973e-05
   3051212   4137   0   2   -4.5187521e-06
   3051212   4237   0   2    7.1084239e-06
   3051414   4137   0   2   -4.5187557e-06
   3051414   4237   0   2    7.1084239e-06
   3051616   4137   0   2   -4.5298649e-06
   3051616   4237   0   2    7.1084216e-06

DECAY 23  2.4952


DECAY 24  2.085


DECAY 1000011  0.58232666
    0.55597502   2    1000022    11
    0.44351069   2    1000025    11
    0.00050661051   2   -1000024    12

DECAY 2000011  23.3137
    0.56721396   2    1000022    11
    0.43109842   2    1000025    11
    0.0016868878   2    1000023    11

DECAY 1000013  0.58496008
    0.55467301   2    1000022    13
    0.44259659   2    1000025    13
    0.0022260748   2    1000023    13
    0.00050432327   2   -1000024    14

DECAY 2000013  23.367977
    0.56617272   2    1000022    13
    0.43040356   2    1000025    13
    0.0022585298   2    1000023    13
    0.0011604043   2   -1000024    14

DECAY 1000015  0.13676244
    0.62432565   2    1000022    15
    0.22960181   2    1000023    15
    0.14581499   2    1000025    15
    0.00025753399   2   -1000024    16

DECAY 2000015  97.609887
    0.43706544   2    1000016   -37
    0.21883499   2    1000015    35
    0.21877103   2    1000015    36
    0.049400111   2    1000022    15
    0.038479247   2    1000025    15
    0.024738568   2   -1000024    16
    0.012388656   2    1000023    15
    0.00020092385   2    1000016   -24

DECAY 1000012  0.59573597
    0.65293863   2    1000022    12
    0.32010324   2    1000025    12
    0.020230606   2    1000024    11
    0.0067275203   2    1000023    12

DECAY 1000014  0.59833515
    0.65009171   2    1000022    14
    0.31870621   2    1000025    14
    0.024503909   2    1000024    13
    0.0066981707   2    1000023    14

DECAY 1000016  0.13087135
    0.4823252   2    1000024    15
    0.45558555   2    1000022    16
    0.059683887   2    1000025    16
    0.0024053621   2    1000023    16

DECAY 1000001  0.44461342
    0.47267586   2    1000022    1
    0.22685114   2   -1000037    2
    0.16507841   2    1000025    1
    0.11369793   2    1000035    1
    0.018754488   2    1000023    1
    0.0029421664   2   -1000024    2

DECAY 2000001  2.3940465
    0.5673806   2    1000022    1
    0.43092007   2    1000025    1
    0.0016906212   2    1000023    1

DECAY 1000003  0.44855016
    0.47026746   2    1000022    3
    0.22481805   2   -1000037    4
    0.16552834   2    1000025    3
    0.11269537   2    1000035    3
    0.022167475   2    1000023    3
    0.0045233165   2   -1000024    4

DECAY 2000003  2.4079251
    0.56479825   2    1000022    3
    0.4291983   2    1000025    3
    0.0031081091   2    1000023    3
    0.0028854698   2   -1000024    4

DECAY 1000005  1.0433804
    0.34062462   2    1000023    5
    0.28376004   2    1000022    5
    0.19597815   2   -1000024    6
    0.17963719   2    1000025    5

DECAY 2000005  144.28748
    0.34123007   2   -1000024    6
    0.27667025   2    1000005    35
    0.27658332   2    1000005    36
    0.037116327   2    1000023    5
    0.020357848   2    1000025    5
    0.01969082   2    1000022    5
    0.018712771   2   -1000037    6
    0.0095436432   2    1000035    5

DECAY 1000002  0.49581232
    0.35706021   2    1000025    2
    0.23547253   2    1000022    2
    0.19554916   2    1000037    1
    0.10906118   2    1000024    1
    0.098238332   2    1000035    2
    0.0046185877   2    1000023    2

DECAY 2000002  5.8409868
    0.56931941   2    1000022    2
    0.42899612   2    1000025    2
    0.00168427   2    1000023    2

DECAY 1000004  0.49975603
    0.35468131   2    1000025    4
    0.23389547   2    1000022    4
    0.19399795   2    1000037    3
    0.11467516   2    1000024    3
    0.097442046   2    1000035    4
    0.0053080665   2    1000023    4

DECAY 2000004  5.8428777
    0.56916758   2    1000022    4
    0.42890394   2    1000025    4
    0.0017648057   2    1000023    4
    0.00016099456   2    1000024    3

DECAY 1000006  141.83644
    0.54950983   2    1000005    37
    0.16831462   2    1000023    6
    0.11614087   2    1000025    6
    0.082058168   2    1000024    5
    0.056210442   2    1000022    6
    0.01698318   2    1000037    5
    0.0073727706   2    1000035    6
    0.0032721438   3    1000022    24    5
    0.00013592119   2    1000005    24

DECAY 2000006  257.42561
    0.2438287   2    1000024    5
    0.2045361   2    2000005    24
    0.15343364   2    1000006    25
    0.12667904   2    1000023    6
    0.11143918   2    1000006    23
    0.076954535   2    1000025    6
    0.073050849   2    1000022    6
    0.0087279681   2    1000005    37
    0.00063527414   2    1000037    5
    0.00030872293   2    1000035    6
    0.00023251779   2    2000005    37
    0.00012953868   2    1000006    36

DECAY 1000024  0.00010154951
    0.33438618   3    1000022   -1    2
    0.33240559   3    1000022   -3    4
    0.11150352   3    1000022   -11    12
    0.11150017   3    1000022   -13    14
    0.11020453   3    1000022   -15    16

DECAY 1000037  78.04886
    0.10469105   2   -1000015    16
    0.10458075   2    1000016   -15
    0.084559246   2    1000014   -13
    0.084558776   2    1000012   -11
    0.084499495   2   -1000013    14
    0.084499165   2   -1000011    12
    0.057858973   2    1000024    35
    0.057427673   2    1000024    36
    0.05698176   2    37    1000023
    0.055505391   2    1000024    25
    0.054004355   2    1000023    24
    0.05376362   2    1000024    23
    0.034476545   2    1000025    24
    0.029015385   2    37    1000025
    0.025882845   2    37    1000022
    0.019511581   2    1000022    24
    0.0033537487   3    1000024    6   -6
    0.0023131278   3    1000023   -5    6
    0.0015506378   3    1000025   -5    6
    0.00091222731   3    1000022   -5    6

DECAY 1000022 -1


DECAY 1000023  0.00011956233
    0.20199155   3    1000022    12   -12
    0.15073426   3    1000022    1   -1
    0.15072421   3    1000022    3   -3
    0.13692128   3    1000022    5   -5
    0.11756294   3    1000022    2   -2
    0.11591215   3    1000022    4   -4
    0.034017133   3    1000022    11   -11
    0.034014063   3    1000022    13   -13
    0.033903735   3    1000022    15   -15
    0.024215864   2    1000022    22

DECAY 1000025  5.8695238e-05
    0.13406076   3    1000024    1   -2
    0.13406076   3   -1000024   -1    2
    0.13243344   3    1000024    3   -4
    0.13243344   3   -1000024   -3    4
    0.04467433   3    1000024    11   -12
    0.04467433   3   -1000024   -11    12
    0.044671698   3    1000024    13   -14
    0.044671698   3   -1000024   -13    14
    0.043399865   3    1000024    15   -16
    0.043399865   3   -1000024   -15    16
    0.035680975   3    1000023    12   -12
    0.02673556   3    1000023    1   -1
    0.026730011   3    1000023    3   -3
    0.024814114   2    1000023    22
    0.02085093   3    1000023    2   -2
    0.01997332   3    1000023    4   -4
    0.018416812   3    1000023    5   -5
    0.0060333693   3    1000023    11   -11
    0.006031481   3    1000023    13   -13
    0.0057112917   3    1000023    15   -15
    0.0025414537   3    1000022    12   -12
    0.0025132556   3    1000022    5   -5
    0.0013990513   3    1000022    15   -15
    0.001103408   2    1000022    22
    0.00076390339   3    1000022    3   -3
    0.00076388748   3    1000022    1   -1
    0.00061322151   3    1000022    2   -2
    0.0006112329   3    1000022    4   -4
    0.00011636554   3    1000022    13   -13
    0.00011617559   3    1000022    11   -11

DECAY 1000035  79.333377
    0.053423788   2    37   -1000024
    0.053423788   2   -37    1000024
    0.053024125   2    1000024   -24
    0.053024125   2   -1000024    24
    0.051571935   2    1000016   -16
    0.051571935   2   -1000016    16
    0.05135958   2    1000015   -15
    0.05135958   2   -1000015    15
    0.042499536   2    1000023    25
    0.041698493   2    1000014   -14
    0.041698493   2   -1000014    14
    0.041698265   2    1000012   -12
    0.041698265   2   -1000012    12
    0.041452569   2    1000013   -13
    0.041452569   2   -1000013    13
    0.041452407   2    1000011   -11
    0.041452407   2   -1000011    11
    0.034743558   2    1000023    23
    0.034159063   2    1000023    35
    0.022783423   2    1000025    25
    0.022691181   2    1000025    35
    0.018935463   2    1000022    35
    0.018265733   2    1000023    36
    0.012258225   2    1000022    25
    0.011293462   2    1000025    23
    0.0082094085   2    1000025    36
    0.0080209343   2    1000022    36
    0.0070807746   2    1000022    23
    0.0024504951   3    1000024    5   -6
    0.0024504951   3   -1000024   -5    6
    0.0013756317   3    1000023    6   -6
    0.0008640246   3    1000025    6   -6
    0.00049421057   3    1000022    6   -6

DECAY 1000021  739.76543
    0.088704845   2    1000005   -5
    0.088704845   2   -1000005    5
    0.055866761   2    1000004   -4
    0.055866761   2   -1000004    4
    0.055866719   2    1000002   -2
    0.055866719   2   -1000002    2
    0.055822935   2    1000003   -3
    0.055822935   2   -1000003    3
    0.055822887   2    1000001   -1
    0.055822887   2   -1000001    1
    0.043277359   2    2000005   -5
    0.043277359   2   -2000005    5
    0.042309526   2    1000006   -6
    0.042309526   2   -1000006    6
    0.038239827   2    2000004   -4
    0.038239827   2   -2000004    4
    0.038239813   2    2000002   -2
    0.038239813   2   -2000002    2
    0.024187314   2    2000006   -6
    0.024187314   2   -2000006    6
    0.00082458056   2    2000003   -3
    0.00082458056   2   -2000003    3
    0.00082456445   2    2000001   -1
    0.00082456445   2   -2000001    1

DECAY 25  0.0061886813
    0.68434943   2   -5    5
    0.15380957   2   -24    24
    0.077697341   2   -15    15
    0.044482669   2    21    21
    0.01887119   2    23    23
    0.017764311   2   -4    4
    0.0015046423   2    22    22
    0.0009960866   2    22    23
    0.00027091224   2   -13    13
    0.00025304277   2   -3    3
    6.9959995e-07   2   -1    1
    9.1542184e-08   2   -2    2
    6.0903984e-09   2   -11    11

DECAY 35  3.8971163
    0.88437373   2   -5    5
    0.11362606   2   -15    15
    0.00065257654   2    25    25
    0.00040139839   2   -13    13
    0.00038870669   2    21    21
    0.00032463674   2   -3    3
    0.0001613674   2   -24    24
    7.0230428e-05   2    23    23
    8.9743747e-07   2   -1    1
    2.3974727e-07   2    22    22
    1.0211073e-07   2   -4    4
    5.0710854e-08   2    22    23
    9.0217913e-09   2   -11    11
    5.2683247e-13   2   -2    2

DECAY 36  3.8841778
    0.88518308   2   -5    5
    0.11370082   2   -15    15
    0.00040158133   2   -13    13
    0.00033293805   2    21    21
    0.00032480911   2   -3    3
    5.5618155e-05   2    23    25
    8.979139e-07   2   -1    1
    1.6833746e-07   2    22    22
    4.7676436e-08   2   -4    4
    3.2486544e-08   2    22    23
    9.0258986e-09   2   -11    11
    2.4672198e-13   2   -2    2
    3.1529111e-37   2    25    25

DECAY 37  1.7742803
    0.72663135   2   -5    6
    0.26881629   2   -15    16
    0.0027104473   2   -5    4
    0.00095043709   2   -13    14
    0.00063770597   2   -3    4
    0.00019755916   2    24    25
    2.8866421e-05   2   -3    2
    1.935618e-05   2   -5    2
    5.7084408e-06   2   -3    6
    1.7689706e-06   2   -1    2
    2.4581935e-07   2   -1    6
    8.5696622e-08   2   -1    4
    8.2064736e-08   2    24    36
    7.7256865e-08   2    24    35
    2.2230828e-08   2   -11    12

DECAY 6  2.43
    1   2    5    24

DECAY 15 -1
