BLOCK SPINFO
   1   SPheno
   2   v4.0.5be

BLOCK SPHENOINFO
   1   2
   2   2

BLOCK MODSEL
   1   0

BLOCK MINPAR
   3    36.454953
   4   -1

BLOCK EXTPAR
   0    2564.4047
   1   -789.96784
   2    1591.7835
   3    4815.8688
   11   -6349.0674
   12    2008.7989
   13    3260.1478
   23   -2182.7131
   25    35.641798
   26    1107.3527
   31    4048.4993
   32    4048.4993
   33    2986.0172
   34    1545.1643
   35    1545.1643
   36    1151.2081
   41    1907.0736
   42    1907.0736
   43    2107.9812
   44    2370.6141
   45    2370.6141
   46    3228.4922
   47    4078.7139
   48    4078.7139
   49    2810.0029

BLOCK SMINPUTS
   1    127.90897
   2    1.1663787e-05
   3    0.1184
   4    91.1876
   5    4.18
   6    173.2
   7    1.777
   8    0
   11    0.00051099893
   12    0
   13    0.10565837
   14    0
   21    0.005
   22    0.0025
   23    0.095
   24    1.27

BLOCK GAUGE Q=  2564.4047
   1    0.35536298
   2    0.66519887
   3    1.219778

BLOCK YU Q=  2564.4047
   1   1    8.3876715e-06
   2   2    0.0042609371
   3   3    1.0132981

BLOCK YD Q=  2564.4047
   1   1    0.00060073269
   2   2    0.011413921
   3   3    0.59573859

BLOCK YE Q=  2564.4047
   1   1    0.00010483225
   2   2    0.021675984
   3   3    0.36455439

BLOCK AU Q=  2564.4047
   1   1    0
   2   2    0
   3   3   -6349.0689

BLOCK AD Q=  2564.4047
   1   1    0
   2   2    0
   3   3    2008.8012

BLOCK AE Q=  2564.4047
   1   1    0
   2   2    0
   3   3    3260.1477

BLOCK MSOFT Q=  2564.4047
   1   -789.96784
   2    1591.7835
   3    4815.8688
   21   -3503834
   22   -4727677.4
   31    4048.4993
   32    4048.4993
   33    2986.0172
   34    1545.1643
   35    1545.1643
   36    1151.2081
   41    1907.0736
   42    1907.0736
   43    2107.9812
   44    2370.6141
   45    2370.6141
   46    3228.4922
   47    4078.7139
   48    4078.7139
   49    2810.0029

BLOCK MASS
   6    173.2
   23    91.1876
   24    80.429995
   15    1.777
   25    125.51688
   35    1107.2083
   36    1107.3527
   37    1110.8059
   1000001    1953.7714
   2000001    4155.2932
   1000002    1952.2669
   2000002    2417.7236
   1000003    1953.7714
   2000003    4155.2864
   1000004    1952.2675
   2000004    2417.7233
   1000005    2114.6521
   2000005    2851.1425
   1000006    2087.0563
   2000006    3150.9315
   1000011    4057.3017
   2000011    1551.6392
   1000012    4056.1438
   1000013    4057.2919
   2000013    1551.6451
   1000014    4056.1344
   1000015    1153.9479
   2000015    2989.2229
   1000016    2987.0015
   1000021    4691.3062
   1000022   -783.19966
   1000023    1620.6636
   1000025   -2179.4575
   1000035    2182.7639
   1000024    1620.8539
   1000037    2184.0904

BLOCK ALPHA
      -0.02780007

BLOCK HMIX Q=  2564.4047
   1   -2182.7131
   2    35.641798
   3    243.37349
   4    1226230.1

BLOCK STOPMIX
   1   1    0.98792439
   1   2    0.15493676
   2   1   -0.15493676
   2   2    0.98792439

BLOCK SBOTMIX
   1   1   -0.9984267
   1   2    0.056072398
   2   1   -0.056072398
   2   2   -0.9984267

BLOCK STAUMIX
   1   1   -0.017914349
   1   2    0.99983952
   2   1   -0.99983952
   2   2   -0.017914349

BLOCK NMIX
   1   1   -0.99968873
   1   2   -0.00029837206
   1   3    0.023331016
   1   4   -0.0088329956
   2   1    0.0010055328
   2   2    0.99547235
   2   3    0.076941798
   2   4    0.055800925
   3   1   -0.022742545
   3   2    0.01499785
   3   3   -0.70657136
   3   4    0.70711721
   4   1   -0.010208462
   4   2    0.093860375
   4   3   -0.70305941
   4   4   -0.70483579

BLOCK UMIX
   1   1   -0.99390529
   1   2   -0.11023737
   2   1    0.11023737
   2   2   -0.99390529

BLOCK VMIX
   1   1   -0.99676302
   1   2    0.08039576
   2   1    0.08039576
   2   2    0.99676302

BLOCK HIGGSBOUNDSINPUTHIGGSCOUPLINGSFERMIONS
       0, 1270.3378,3,36,15,15

BLOCK HIGGSBOUNDSINPUTHIGGSCOUPLINGSBOSONS
       0,4,36,21,21,23

BLOCK SPHENOLOWENERGY
   1    0.00036449984
   2    1.5881821e-06
   3    3.5272065e-05
   4    1.88525e-15
   5    8.052892e-11
   6    1.6462146e-08
   7    6.4615534e-14
   8    2.7601592e-09
   9    5.7285314e-07
   10    8.6088513e-05
   11    0.88926138
   12    0.54219736
   13    19.306354
   14    0
   15    0
   16    0.0021597549
   17    2.2816905e-15
   18    2.4813894e-11
   19    8.2936457e-11
   20   -1.1144354e-15
   21   -4.764557e-11
   22   -1.4514236e-08
   23    0
   24    0
   25    0
   26    0
   27    0
   28    0
   29    0
   30    0
   31    0
   39    6.5519892e-05
   40    0
   41    0
   42    0

BLOCK FWCOEF Q=  160
   305   4422   0   0   -0.18881911
   305   4422   0   2   -0.23478952
   305   4322   0   2   -0.00092409715
   305   6421   0   0   -0.095227835
   305   6421   0   2   -0.1393572
   305   6321   0   2   -0.00088536011
   3051111   4133   0   0    1.6112441
   3051111   4133   0   2    1.6115823
   3051111   4233   0   2    0.00017766939
   3051111   4137   0   0   -4.4339362
   3051111   4137   0   2   -4.4342156
   3051111   4237   0   2   -0.0013448927
   3051313   4133   0   0    1.6112441
   3051313   4133   0   2    1.6115819
   3051313   4233   0   2    0.00017766233
   3051313   4137   0   0   -4.4339362
   3051313   4137   0   2   -4.4342161
   3051313   4237   0   2   -0.0013448865
   3051212   4137   0   0    1.5053501
   3051212   4137   0   2    1.5054155
   3051212   4237   0   2    0.00029182881
   3051414   4137   0   0    1.5053501
   3051414   4137   0   2    1.5054155
   3051414   4237   0   2    0.00029183028
   3051616   4137   0   0    1.5053501
   3051616   4137   0   2    1.5054157
   3051616   4237   0   2    0.00029224391

BLOCK IMFWCOEF Q=  160
   305   4422   0   0    3.8562623e-07
   305   4422   0   2   -2.0282077e-05
   305   4322   0   2   -5.9370412e-06
   305   6421   0   0    3.3031437e-07
   305   6421   0   2    1.9827706e-06
   305   6321   0   2   -3.2377855e-06
   3051111   4133   0   2    3.2635549e-08
   3051111   4233   0   2    5.8351463e-06
   3051111   4137   0   2    2.7649933e-06
   3051111   4237   0   2   -4.4180581e-05
   3051313   4133   0   2    3.2627748e-08
   3051313   4233   0   2    5.835141e-06
   3051313   4137   0   2    2.7649908e-06
   3051313   4237   0   2   -4.4180593e-05
   3051212   4137   0   2   -5.1386906e-07
   3051212   4237   0   2    9.5867719e-06
   3051414   4137   0   2   -5.13869e-07
   3051414   4237   0   2    9.5867719e-06
   3051616   4137   0   2   -5.115117e-07
   3051616   4237   0   2    9.5867714e-06

DECAY 23  2.4952


DECAY 24  2.085


DECAY 2000011  4.3270819
    1   2    1000022    11

DECAY 1000011  42.448929
    0.58704759   2   -1000024    12
    0.29479426   2    1000023    11
    0.11133859   2    1000022    11
    0.0051576115   2   -1000037    12
    0.0016602136   2    1000035    11

DECAY 2000013  4.3271257
    1   2    1000022    13

DECAY 1000013  42.472662
    0.58671707   2   -1000024    14
    0.29463207   2    1000023    13
    0.11127651   2    1000022    13
    0.0051546969   2   -1000037    14
    0.0018820731   2    1000035    13
    0.00022736333   2    1000025    13
    0.00011006348   2    2000013    25

DECAY 1000015  1.6862829
    1   2    1000022    15

DECAY 2000015  34.16345
    0.37828876   2   -1000024    16
    0.19069297   2    1000023    15
    0.095471213   2    1000022    15
    0.086556387   2    1000015    36
    0.086484108   2    1000015    35
    0.056643366   2    1000015    25
    0.052352718   2    1000015    23
    0.025717753   2    1000035    15
    0.025383537   2    1000025    15
    0.002409179   2   -1000037    16

DECAY 1000012  42.456895
    0.59002104   2    1000024    11
    0.29395577   2    1000023    12
    0.1110326   2    1000022    12
    0.0027406341   2    1000037    11
    0.0020931685   2    1000035    12
    0.00015678735   2    1000025    12

DECAY 1000014  42.475945
    0.58976181   2    1000024    13
    0.29382275   2    1000023    14
    0.11098251   2    1000022    14
    0.0031838507   2    1000037    13
    0.0020922171   2    1000035    14
    0.00015671609   2    1000025    14

DECAY 1000016  34.00765
    0.38385472   2    1000024    15
    0.19054074   2    1000023    16
    0.17346   2    1000015    37
    0.10500506   2    1000015    24
    0.095516823   2    1000022    16
    0.050732318   2    1000037    15
    0.00082803962   2    1000035    16

DECAY 1000001  2.671508
    0.61812995   2   -1000024    2
    0.31025021   2    1000023    1
    0.071619837   2    1000022    1

DECAY 2000001  2.1574186
    0.99963219   2    1000022    1
    0.00029587898   2    1000025    1

DECAY 1000003  2.6714914
    0.61812501   2   -1000024    4
    0.31025393   2    1000023    3
    0.071621056   2    1000022    3

DECAY 2000003  2.169871
    0.9938962   2    1000022    3
    0.0025680627   2   -1000037    4
    0.0015925383   2    1000025    3
    0.0013445488   2    1000035    3
    0.00053197092   2    1000003    25

DECAY 1000005  4.5643547
    0.59711122   2   -1000024    6
    0.35043198   2    1000023    5
    0.052456803   2    1000022    5

DECAY 2000005  17.975209
    0.26465705   2    1000006   -24
    0.19214245   2   -1000037    6
    0.15138356   2    1000005    25
    0.1222703   2    1000005    23
    0.096867217   2    1000025    5
    0.095953456   2    1000035    5
    0.074942269   2    1000022    5
    0.0012226591   2   -1000024    6
    0.00056104087   2    1000023    5

DECAY 1000002  2.6638152
    0.61877101   2    1000024    1
    0.30901749   2    1000023    2
    0.072211497   2    1000022    2

DECAY 2000002  4.3229146
    0.99997248   2    1000022    2

DECAY 1000004  2.6638192
    0.6187753   2    1000024    3
    0.30901342   2    1000023    4
    0.072211285   2    1000022    4

DECAY 2000004  4.3229726
    0.99995816   2    1000022    4

DECAY 1000006  4.4892194
    0.65646434   2    1000024    5
    0.27623864   2    1000023    6
    0.063529857   2    1000022    6
    0.0036924943   3    1000022    24    5

DECAY 2000006  233.20561
    0.35919856   2    1000005    24
    0.2770614   2    1000006    25
    0.18689689   2    1000006    23
    0.074002768   2    1000037    5
    0.038693612   2    1000035    6
    0.038044719   2    1000025    6
    0.025929653   2    1000022    6

DECAY 1000024  0.014783
    0.71788292   2   -1000015    16
    0.26350331   2    1000022    24
    0.0089518125   3    1000022   -5    6
    0.0038785271   3    1000022   -3    4
    0.0038776793   3    1000022   -1    2
    0.0013420068   3    1000022   -15    16
    0.00026064393   3    1000022   -13    14
    0.00025960536   3    1000022   -11    12

DECAY 1000037  12.658843
    0.23491111   2    1000024    25
    0.23481057   2    1000023    24
    0.2253887   2    1000024    23
    0.11619608   2   -1000015    16
    0.11456838   2    1000022    24
    0.047363661   2    37    1000022
    0.013496457   2    1000006   -5
    0.0043435612   3    1000022   -5    6
    0.0029077459   3    1000023   -5    6
    0.0022784662   3    1000024    6   -6
    0.0011080113   2   -1000003    4
    0.0011050648   2   -1000001    2
    0.00062190708   2    1000004   -3
    0.00059510023   2    1000002   -1
    0.00019540702   2   -2000013    14

DECAY 1000022 -1


DECAY 1000023  0.016299095
    0.31920237   2    1000015   -15
    0.31920237   2   -1000015    15
    0.21266298   2    1000022    23
    0.1339549   2    1000022    25
    0.0036941699   3    1000022    5   -5
    0.0025122532   3    1000022    6   -6
    0.0017680676   3    1000022    2   -2
    0.0017680298   3    1000022    4   -4
    0.0017463033   3    1000022    3   -3
    0.0017453572   3    1000022    1   -1
    0.00072263658   3    1000022    15   -15
    0.00071347453   3    1000022    12   -12
    0.00011873731   3    1000022    13   -13
    0.00011782496   3    1000022    11   -11

DECAY 1000025  15.888247
    0.20937882   2    1000023    25
    0.18946109   2    1000024   -24
    0.18946109   2   -1000024    24
    0.18099974   2    1000023    23
    0.072458747   2    1000022    25
    0.04690365   2    1000015   -15
    0.04690365   2   -1000015    15
    0.031616517   2    1000022    35
    0.015424848   2    1000022    23
    0.0033862078   2    1000022    36
    0.0028756012   3    1000024    5   -6
    0.0028756012   3   -1000024   -5    6
    0.0024657366   2    1000005   -5
    0.0024657366   2   -1000005    5
    0.002301923   3    1000022    6   -6
    0.00049212061   3    1000023    6   -6
    0.0001212069   2    2000013   -13
    0.0001212069   2   -2000013    13

DECAY 1000035  12.928957
    0.22526475   2    1000023    25
    0.2084319   2    1000024   -24
    0.2084319   2   -1000024    24
    0.093129667   2    1000022    23
    0.079778296   2    1000022    25
    0.056921406   2    1000015   -15
    0.056921406   2   -1000015    15
    0.042881862   2    1000022    35
    0.0055930665   2    1000023    23
    0.0037047995   2    1000022    36
    0.0033476129   2    1000005   -5
    0.0033476129   2   -1000005    5
    0.0028359429   3    1000024    5   -6
    0.0028359429   3   -1000024   -5    6
    0.0025611048   3    1000022    6   -6
    0.00055021808   3    1000023    6   -6
    0.00041620923   2    1000003   -3
    0.00041620923   2   -1000003    3
    0.00040335857   2    1000001   -1
    0.00040335857   2   -1000001    1
    0.00037940553   2    1000004   -4
    0.00037940553   2   -1000004    4
    0.0003778988   2    1000002   -2
    0.0003778988   2   -1000002    2
    0.00010626744   2    2000013   -13
    0.00010626744   2   -2000013    13

DECAY 1000021  816.43834
    0.05813758   2    1000002   -2
    0.05813758   2   -1000002    2
    0.058137564   2    1000004   -4
    0.058137564   2   -1000004    4
    0.058100036   2    1000001   -1
    0.058100036   2   -1000001    1
    0.058100035   2    1000003   -3
    0.058100035   2   -1000003    3
    0.054007779   2    1000005   -5
    0.054007779   2   -1000005    5
    0.053126493   2    1000006   -6
    0.053126493   2   -1000006    6
    0.045866879   2    2000004   -4
    0.045866879   2   -2000004    4
    0.045866875   2    2000002   -2
    0.045866875   2   -2000002    2
    0.033810889   2    2000005   -5
    0.033810889   2   -2000005    5
    0.026563324   2    2000006   -6
    0.026563324   2   -2000006    6
    0.0039479422   2    2000003   -3
    0.0039479422   2   -2000003    3
    0.0039478486   2    2000001   -1
    0.0039478486   2   -2000001    1
    0.00019384708   3    1000037    5   -6
    0.00019384708   3   -1000037   -5    6
    0.00011928551   3    1000025    6   -6
    0.0001181774   3    1000035    6   -6

DECAY 25  0.0040012298
    0.5697865   2   -5    5
    0.23384352   2   -24    24
    0.070690306   2    21    21
    0.065338532   2   -15    15
    0.028597473   2    23    23
    0.02746464   2   -4    4
    0.0023157892   2    22    22
    0.0015209045   2    22    23
    0.00022671032   2   -13    13
    0.00021488385   2   -3    3
    5.941395e-07   2   -1    1
    1.4153004e-07   2   -2    2
    5.0966933e-09   2   -11    11

DECAY 35  25.574696
    0.8898044   2   -5    5
    0.10759585   2   -15    15
    0.001733045   2   -6    6
    0.0004156003   2   -3    3
    0.00038476611   2   -13    13
    3.7470286e-05   2    21    21
    2.404272e-05   2    25    25
    1.962063e-06   2   -24    24
    1.6455855e-06   2    23    23
    1.1497684e-06   2   -1    1
    2.836654e-08   2   -4    4
    1.8951375e-08   2    22    22
    9.0326428e-09   2    22    23
    8.6442832e-09   2   -11    11
    1.4626037e-13   2   -2    2

DECAY 36  24.750929
    0.8894718   2   -5    5
    0.10755063   2   -15    15
    0.0021097685   2   -6    6
    0.00041542569   2   -3    3
    0.00038460124   2   -13    13
    6.4077131e-05   2    21    21
    2.3948282e-06   2    23    25
    1.1492851e-06   2   -1    1
    7.0192035e-08   2    22    22
    4.1660455e-08   2    22    23
    3.0800128e-08   2   -4    4
    8.6405785e-09   2   -11    11
    1.589153e-13   2   -2    2
    9.1864456e-36   2    25    25

DECAY 37  20.88689
    0.85636303   2   -5    6
    0.14134184   2   -15    16
    0.0013066027   2   -5    4
    0.00049969608   2   -13    14
    0.00045126025   2   -3    4
    2.0874904e-05   2   -3    2
    9.3305126e-06   2   -5    2
    3.0440278e-06   2   -3    6
    2.8791254e-06   2    24    25
    1.2531239e-06   2   -1    2
    1.1061081e-07   2   -1    6
    5.8856044e-08   2   -1    4
    1.1687943e-08   2   -11    12
    3.9149991e-11   2    24    35
    3.190102e-11   2    24    36

DECAY 6  2.43
    1   2    5    24

DECAY 15 -1
