BLOCK SPINFO
   1   SPheno
   2   v4.0.5be

BLOCK SPHENOINFO
   1   2
   2   2

BLOCK MODSEL
   1   0

BLOCK MINPAR
   3    39.220325
   4    1

BLOCK EXTPAR
   0    2511.8742
   1   -2976.9361
   2   -4537.3021
   3    3769.9356
   11   -6421.3415
   12   -525.86464
   13    2005.8754
   23    368.34536
   25    38.285984
   26    4275.2964
   31    630.64246
   32    630.64246
   33    2146.9525
   34    4076.0128
   35    4076.0128
   36    1641.0268
   41    3338.9118
   42    3338.9118
   43    2493.4015
   44    2694.946
   45    2694.946
   46    2602.11
   47    2231.2589
   48    2231.2589
   49    2615.7465

BLOCK SMINPUTS
   1    127.90897
   2    1.1663787e-05
   3    0.1184
   4    91.1876
   5    4.18
   6    173.2
   7    1.777
   8    0
   11    0.00051099893
   12    0
   13    0.10565837
   14    0
   21    0.005
   22    0.0025
   23    0.095
   24    1.27

BLOCK GAUGE Q=  2511.8742
   1    0.35536298
   2    0.66519887
   3    1.219778

BLOCK YU Q=  2511.8742
   1   1    8.3872316e-06
   2   2    0.0042607137
   3   3    1.013245

BLOCK YD Q=  2511.8742
   1   1    0.00064526587
   2   2    0.012260052
   3   3    0.63990154

BLOCK YE Q=  2511.8742
   1   1    0.00011260361
   2   2    0.023282856
   3   3    0.39157933

BLOCK AU Q=  2511.8742
   1   1    0
   2   2    0
   3   3   -6421.3414

BLOCK AD Q=  2511.8742
   1   1    0
   2   2    0
   3   3   -525.86466

BLOCK AE Q=  2511.8742
   1   1    0
   2   2    0
   3   3    2005.8754

BLOCK MSOFT Q=  2511.8742
   1   -2976.9361
   2   -4537.3021
   3    3769.9356
   21    18181870
   22    38344.092
   31    630.64246
   32    630.64246
   33    2146.9525
   34    4076.0128
   35    4076.0128
   36    1641.0268
   41    3338.9118
   42    3338.9118
   43    2493.4015
   44    2694.946
   45    2694.946
   46    2602.11
   47    2231.2589
   48    2231.2589
   49    2615.7465

BLOCK MASS
   6    173.2
   23    91.1876
   24    80.429995
   15    1.777
   25    124.23971
   35    4274.8097
   36    4275.2964
   37    4275.8841
   1000001    3452.7432
   2000001    2331.9585
   1000002    3451.8348
   2000002    2797.1503
   1000003    3452.7411
   2000003    2331.9544
   1000004    3451.8326
   2000004    2797.1498
   1000005    2517.6203
   2000005    2703.9519
   1000006    2349.7539
   2000006    2685.1799
   1000011    623.2829
   2000011    4082.2139
   1000012    618.13302
   1000013    623.27698
   2000013    4082.1987
   1000014    618.12725
   1000015    1647.2732
   2000015    2156.6348
   1000016    2154.4564
   1000021    3788.6253
   1000022   -371.00813
   1000023    372.53013
   1000025   -2947.9581
   1000035   -4486.4405
   1000024    371.76913
   1000037    4486.5002

BLOCK ALPHA
      -0.025524245

BLOCK HMIX Q=  2511.8742
   1    368.34536
   2    38.285984
   3    243.40544
   4    18278159

BLOCK STOPMIX
   1   1    0.73434835
   1   2    0.6787728
   2   1   -0.6787728
   2   2    0.73434835

BLOCK SBOTMIX
   1   1    0.99941136
   1   2    0.03430655
   2   1   -0.03430655
   2   2    0.99941136

BLOCK STAUMIX
   1   1    0.010997025
   1   2    0.99993953
   2   1   -0.99993953
   2   2    0.010997025

BLOCK NMIX
   1   1   -0.011722058
   1   2    0.012848945
   1   3   -0.70780758
   1   4   -0.70619114
   2   1    0.0096159537
   2   2   -0.011534574
   2   3   -0.70640305
   2   4    0.70765049
   3   1    0.99988495
   3   2    0.00071895958
   3   3   -0.0015039617
   3   4   -0.015076592
   4   1    0.00045741317
   4   2   -0.99985066
   4   3   -0.00094774459
   4   4   -0.017249674

BLOCK UMIX
   1   1   -0.0013397404
   1   2    0.9999991
   2   1   -0.9999991
   2   2   -0.0013397404

BLOCK VMIX
   1   1    0.02438745
   1   2    0.99970258
   2   1    0.99970258
   2   2   -0.02438745

BLOCK HIGGSBOUNDSINPUTHIGGSCOUPLINGSFERMIONS
       0, 1465.8165,3,36,15,15

BLOCK HIGGSBOUNDSINPUTHIGGSCOUPLINGSBOSONS
       0,4,36,21,21,23

BLOCK SPHENOLOWENERGY
   1    0.00029882741
   2    1.5943654e-06
   3    3.5262343e-05
   4    2.846152e-15
   5    1.2158342e-10
   6    2.5393934e-08
   7    9.5207396e-14
   8    4.067226e-09
   9    8.6079062e-07
   10    9.6407761e-05
   11    0.99585527
   12    0.54196217
   13    19.361223
   14    0
   15    0
   16    0.0021573282
   17    2.2816589e-15
   18    2.4814817e-11
   19    8.2929475e-11
   20   -1.6875948e-15
   21   -7.2153061e-11
   22   -1.4776015e-08
   23    0
   24    0
   25    0
   26    0
   27    0
   28    0
   29    0
   30    0
   31    0
   39    6.8493257e-05
   40    0
   41    0
   42    0

BLOCK FWCOEF Q=  160
   305   4422   0   0   -0.18881911
   305   4422   0   2   -0.16194884
   305   4322   0   2    0.00041526567
   305   6421   0   0   -0.095227835
   305   6421   0   2   -0.08494977
   305   6321   0   2    0.00013054893
   3051111   4133   0   0    1.6106012
   3051111   4133   0   2    1.6111301
   3051111   4233   0   2    0.0003952065
   3051111   4137   0   0   -4.4332933
   3051111   4137   0   2   -4.432707
   3051111   4237   0   2   -0.0029943184
   3051313   4133   0   0    1.6106012
   3051313   4133   0   2    1.611128
   3051313   4233   0   2    0.0003952061
   3051313   4137   0   0   -4.4332933
   3051313   4137   0   2   -4.4327091
   3051313   4237   0   2   -0.0029943202
   3051212   4137   0   0    1.5053501
   3051212   4137   0   2    1.5052221
   3051212   4237   0   2    0.00064983396
   3051414   4137   0   0    1.5053501
   3051414   4137   0   2    1.5052221
   3051414   4237   0   2    0.00064983398
   3051616   4137   0   0    1.5053501
   3051616   4137   0   2    1.5052227
   3051616   4237   0   2    0.00064983859

BLOCK IMFWCOEF Q=  160
   305   4422   0   0    3.8585692e-07
   305   4422   0   2   -3.1962506e-06
   305   4322   0   2    8.6490885e-06
   305   6421   0   0    3.3051197e-07
   305   6421   0   2   -1.8041659e-05
   305   6321   0   2    4.0018345e-06
   3051111   4133   0   2   -2.115565e-06
   3051111   4233   0   2    7.439822e-06
   3051111   4137   0   2    1.7733964e-05
   3051111   4237   0   2   -5.6369679e-05
   3051313   4133   0   2   -2.1155344e-06
   3051313   4233   0   2    7.4398166e-06
   3051313   4137   0   2    1.7733986e-05
   3051313   4237   0   2   -5.6369713e-05
   3051212   4137   0   2   -3.8618839e-06
   3051212   4237   0   2    1.2233479e-05
   3051414   4137   0   2   -3.8618876e-06
   3051414   4237   0   2    1.2233479e-05
   3051616   4137   0   2   -3.8506982e-06
   3051616   4237   0   2    1.223348e-05

DECAY 23  2.4952


DECAY 24  2.085


DECAY 1000011  0.00010017854
    0.49565675   2    1000022    11
    0.46347487   2    1000023    11
    0.040809432   2   -1000024    12

DECAY 2000011  4.7000249
    0.99901292   2    1000025    11
    0.0005899063   2    1000022    11
    0.00039695374   2    1000023    11

DECAY 1000013  0.0028900151
    0.50289134   2    1000022    13
    0.49569206   2    1000023    13
    0.0014145617   2   -1000024    14

DECAY 2000013  4.7866986
    0.98090396   2    1000025    13
    0.0090453926   2   -1000024    14
    0.0051110687   2    1000022    13
    0.0049030652   2    1000023    13

DECAY 1000015  9.0539193
    0.49988369   2   -1000024    16
    0.25084298   2    1000022    15
    0.24927333   2    1000023    15

DECAY 2000015  6.2516355
    0.496173   2    1000022    15
    0.49462674   2    1000023    15
    0.0045845924   2    1000015    25
    0.0045403096   2    1000015    23

DECAY 1000012  0.0020322168
    0.64895352   2    1000024    11
    0.20012835   2    1000022    12
    0.15091813   2    1000023    12

DECAY 1000014  0.0047496577
    0.84980374   2    1000024    13
    0.085625509   2    1000022    14
    0.064570751   2    1000023    14

DECAY 1000016  6.259893
    0.99001938   2    1000024    15
    0.0090634186   2    1000015    24
    0.00052095296   2    1000022    16
    0.00039624894   2    1000023    16

DECAY 2000001  0.00032096296
    0.55814024   2    1000022    1
    0.38469662   2    1000023    1
    0.057163144   2   -1000024    2

DECAY 1000001  0.041103576
    0.85405044   2    1000025    1
    0.080931873   2    1000022    1
    0.063718754   2    1000023    1
    0.0012967932   2   -1000024    2

DECAY 2000003  0.013530891
    0.48949767   2   -1000024    4
    0.25784093   2    1000022    3
    0.2526614   2    1000023    3

DECAY 1000003  0.052411172
    0.66978608   2    1000025    3
    0.15962847   2    1000022    3
    0.145734   2    1000023    3
    0.024246084   2   -1000024    4
    0.00060536144   2    2000003    25

DECAY 1000005  76.708399
    0.63370709   2   -1000024    6
    0.12839074   2    1000022    5
    0.1275078   2    1000023    5
    0.11039437   2    1000006   -24

DECAY 2000005  42.448936
    0.49701983   2   -1000024    6
    0.24994062   2    1000022    5
    0.24950855   2    1000023    5
    0.0027250681   2    1000006   -24
    0.00051497129   2    1000005    25
    0.00029095989   2    1000005    23

DECAY 2000002  0.0013856743
    0.5978172   2    1000022    2
    0.40218007   2    1000023    2

DECAY 1000002  0.056400405
    0.63059489   2    1000025    2
    0.31353678   2    1000024    1
    0.030480993   2    1000022    2
    0.025387343   2    1000023    2

DECAY 2000004  0.0033345628
    0.39428735   2    1000022    4
    0.31354255   2    1000023    4
    0.29217011   2    1000024    3

DECAY 1000004  0.067674154
    0.52554107   2    1000025    4
    0.40990552   2    1000024    3
    0.034381634   2    1000022    4
    0.03017175   2    1000023    4

DECAY 1000006  73.992701
    0.40652925   2    1000024    5
    0.29458869   2    1000023    6
    0.2930492   2    1000022    6
    0.0058029223   3    1000022    24    5

DECAY 2000006  119.01997
    0.32763259   2    1000024    5
    0.22651156   2    1000023    6
    0.22599689   2    1000022    6
    0.15739493   2    1000006    23
    0.060760139   2    1000005    24
    0.0017038846   2    1000006    25

DECAY 1000024  4.5127926e-13
    0.61204641   3    1000022   -1    2
    0.20407925   3    1000022   -11    12
    0.18387434   3    1000022   -13    14

DECAY 1000037  234.00828
    0.11761136   2   -1000005    6
    0.081166211   2    1000014   -13
    0.081166152   2    1000012   -11
    0.08116179   2   -1000013    14
    0.081161729   2   -1000011    12
    0.076876458   2    1000006   -5
    0.049925924   2    1000016   -15
    0.049889704   2   -2000015    16
    0.044233212   2    2000006   -5
    0.042128117   2    1000004   -3
    0.042127966   2    1000002   -1
    0.042088714   2   -1000003    4
    0.042088602   2   -1000001    2
    0.041747491   2    1000024    25
    0.038418564   2    1000023    24
    0.038335187   2    1000024    23
    0.038265571   2    1000022    24
    0.0047770807   3    1000024    6   -6
    0.0031008902   3    1000022   -5    6
    0.0030618551   3    1000023   -5    6
    0.00038852103   3    1000024    5   -5
    0.00012874918   2   -2000005    6

DECAY 1000022 -1


DECAY 1000023  6.2859005e-10
    0.97147674   2    1000022    22
    0.0082674628   3    1000022    12   -12
    0.0061813811   3    1000022    1   -1
    0.0058979802   3    1000022    3   -3
    0.0048213673   3    1000022    2   -2
    0.001395142   3    1000022    11   -11
    0.0012959385   3    1000022    13   -13
    0.0002027268   3    1000024    1   -2
    0.0002027268   3   -1000024   -1    2

DECAY 1000025  34.012669
    0.10296133   2    1000015   -15
    0.10296133   2   -1000015    15
    0.056221006   2    1000024   -24
    0.056221006   2   -1000024    24
    0.049801441   2    1000013   -13
    0.049801441   2   -1000013    13
    0.049801351   2    1000011   -11
    0.049801351   2   -1000011    11
    0.049610352   2    1000014   -14
    0.049610352   2   -1000014    14
    0.049610267   2    1000012   -12
    0.049610267   2   -1000012    12
    0.03549935   2    1000023    25
    0.033628718   2    1000023    23
    0.031886147   2    1000022    25
    0.022445711   2    1000022    23
    0.017187905   2    1000006   -6
    0.017187905   2   -1000006    6
    0.01179625   2    2000015   -15
    0.01179625   2   -2000015    15
    0.011781138   2    1000016   -16
    0.011781138   2   -1000016    16
    0.010164095   2    2000003   -3
    0.010164095   2   -2000003    3
    0.010163974   2    2000001   -1
    0.010163974   2   -2000001    1
    0.0047163793   2    2000006   -6
    0.0047163793   2   -2000006    6
    0.0032645945   3    1000024    5   -6
    0.0032645945   3   -1000024   -5    6
    0.002885043   2    2000002   -2
    0.002885043   2   -2000002    2
    0.0028849736   2    2000004   -4
    0.0028849736   2   -2000004    4
    0.0022933506   3    1000023    6   -6
    0.0022242964   3    1000022    6   -6
    0.0018252152   2    2000005   -5
    0.0018252152   2   -2000005    5
    0.0013214248   2    1000005   -5
    0.0013214248   2   -1000005    5

DECAY 1000035  236.34075
    0.058742215   2    1000005   -5
    0.058742215   2   -1000005    5
    0.040213564   2    1000014   -14
    0.040213564   2   -1000014    14
    0.040213535   2    1000012   -12
    0.040213535   2   -1000012    12
    0.040148261   2    1000013   -13
    0.040148261   2   -1000013    13
    0.040148232   2    1000011   -11
    0.040148232   2   -1000011    11
    0.038345651   2    1000006   -6
    0.038345651   2   -1000006    6
    0.037956548   2    1000024   -24
    0.037956548   2   -1000024    24
    0.02555873   2    1000023    25
    0.024735232   2    1000016   -16
    0.024735232   2   -1000016    16
    0.024678518   2    2000015   -15
    0.024678518   2   -2000015    15
    0.022964563   2    1000022    25
    0.022075737   2    2000006   -6
    0.022075737   2   -2000006    6
    0.021113453   2    1000023    23
    0.020857063   2    1000004   -4
    0.020857063   2   -1000004    4
    0.020856991   2    1000002   -2
    0.020856991   2   -1000002    2
    0.020832008   2    1000003   -3
    0.020832008   2   -1000003    3
    0.020831932   2    1000001   -1
    0.020831932   2   -1000001    1
    0.016875657   2    1000022    23
    0.0033324994   3    1000024    5   -6
    0.0033324994   3   -1000024   -5    6
    0.0024727977   3    1000023    6   -6
    0.0024147442   3    1000022    6   -6
    0.00019317598   3    1000022    5   -5
    0.00018247765   3    1000023    5   -5

DECAY 1000021  287.59821
    0.07522091   2    2000003   -3
    0.07522091   2   -2000003    3
    0.075220582   2    2000001   -1
    0.075220582   2   -2000001    1
    0.062652951   2    1000006   -6
    0.062652951   2   -1000006    6
    0.060778174   2    1000005   -5
    0.060778174   2   -1000005    5
    0.056605345   2    2000006   -6
    0.056605345   2   -2000006    6
    0.046945552   2    2000005   -5
    0.046945552   2   -2000005    5
    0.040346702   2    2000004   -4
    0.040346702   2   -2000004    4
    0.040346693   2    2000002   -2
    0.040346693   2   -2000002    2
    0.019395831   2    1000006   -4
    0.019395831   2   -1000006    4
    0.0056271062   2    1000004   -4
    0.0056271062   2   -1000004    4
    0.0056270744   2    1000002   -2
    0.0056270744   2   -1000002    2
    0.0055982317   2    1000003   -3
    0.0055982317   2   -1000003    3
    0.0055981629   2    1000001   -1
    0.0055981629   2   -1000001    1

DECAY 25  0.0037607746
    0.58324918   2   -5    5
    0.21744032   2   -24    24
    0.073163845   2    21    21
    0.067071347   2   -15    15
    0.028897613   2   -4    4
    0.025925902   2    23    23
    0.0023573692   2    22    22
    0.0014418561   2    22    23
    0.00023264737   2   -13    13
    0.00021916018   2   -3    3
    6.0595547e-07   2   -1    1
    1.4891805e-07   2   -2    2
    5.2301808e-09   2   -11    11

DECAY 35  77.851091
    0.80444366   2   -5    5
    0.15992357   2   -15    15
    0.0094079479   2    1000023    1000025
    0.0086245733   2   -2000015    1000015
    0.0086245733   2   -1000015    2000015
    0.0064730797   2    1000022    1000025
    0.0012459866   2   -6    6
    0.00053422365   2   -13    13
    0.00029141182   2   -3    3
    0.0002723571   2   -1000024    1000024
    8.4595516e-05   2    1000022    1000022
    5.7954585e-05   2    1000023    1000023
    6.6261552e-06   2   -1000015    1000015
    5.9092682e-06   2    21    21
    1.8242934e-06   2    25    25
    8.0560967e-07   2   -1    1
    2.3809318e-07   2    1000022    1000023
    1.5512407e-07   2    23    23
    5.0191192e-08   2   -1000011    1000011
    4.981471e-08   2   -1000013    1000013
    3.0369097e-08   2   -24    24
    1.7441009e-08   2   -4    4
    1.1996949e-08   2   -11    11
    8.7035289e-09   2    22    22
    6.3664298e-09   2    22    23
    8.9907568e-14   2   -2    2

DECAY 36  73.16663
    0.8026993   2   -5    5
    0.15957794   2   -15    15
    0.01006721   2    1000022    1000025
    0.0091844136   2   -2000015    1000015
    0.0091844136   2   -1000015    2000015
    0.006841143   2    1000023    1000025
    0.001156532   2   -6    6
    0.00053307017   2   -13    13
    0.00029700291   2   -1000024    1000024
    0.00029077674   2   -3    3
    8.3786167e-05   2    1000022    1000022
    7.0420629e-05   2    1000023    1000023
    1.1512623e-05   2    21    21
    1.2550777e-06   2    1000022    1000023
    8.0385278e-07   2   -1    1
    3.7523409e-07   2    23    25
    1.6112516e-08   2   -4    4
    1.1971034e-08   2   -11    11
    8.9222316e-09   2    22    22
    7.3195937e-09   2    22    23
    8.3060448e-14   2   -2    2
    9.79158e-39   2    25    25

DECAY 37  84.233025
    0.81103034   2   -5    6
    0.15615693   2   -15    16
    0.015983517   2   -1000015    1000016
    0.014779938   2    1000024    1000025
    0.0012017346   2   -5    4
    0.00055207029   2   -13    14
    0.00025078133   2   -3    4
    1.3863935e-05   2    1000023    1000024
    1.1791443e-05   2   -3    2
    8.5816236e-06   2   -5    2
    6.7777338e-06   2    1000022    1000024
    2.1631964e-06   2   -3    6
    6.956788e-07   2   -1    2
    3.2617072e-07   2    24    25
    1.8220758e-07   2   -1000011    1000012
    1.8171933e-07   2   -1000013    1000014
    8.205992e-08   2   -1    6
    3.3363672e-08   2   -1    4
    1.2912982e-08   2   -11    12
    2.3139174e-14   2    24    35

DECAY 6  2.43
    1   2    5    24

DECAY 15 -1
