BLOCK DCINFO
   1   SDECAY/HDECAY
   2   1.3b /3.4

BLOCK SPINFO
   1   SOFTSUSY
   2   3.4.0

BLOCK MODSEL
   1   0

BLOCK SMINPUTS
   1    127.90897
   2    1.1663787e-05
   3    0.1184
   4    91.1876
   5    4.18
   6    173.2
   7    1.777

BLOCK MINPAR
   3    10.19

BLOCK EXTPAR
   0   -1
   1   -1034.84
   2   -1336.51
   3    3013.27
   11    3513.32
   12    2801.08
   13   -3896.6
   23    1346.16
   26    3079.72
   31    1465.73
   32    1465.73
   33    2166.87
   34    2915.69
   35    2915.69
   36    2428.83
   41    1632.42
   42    1632.42
   43    3181.65
   44    809.88
   45    809.88
   46    3115.14
   47    2039.04
   48    2039.04
   49    837.71

BLOCK MASS
   24    80.397089
   25    124.19613
   35    3079.7899
   36    3079.7199
   37    3081.0946
   5    4.8187603
   1000001    1795.1898
   2000001    2173.1078
   1000002    1793.5542
   2000002    1032.896
   1000003    1795.1898
   2000003    2173.1078
   1000004    1793.5542
   2000004    1032.896
   1000005    1049.5762
   2000005    3256.4288
   1000006    3126.3807
   2000006    3292.2258
   1000011    1485.6555
   2000011    2917.6698
   1000012    1483.2906
   1000013    1485.6555
   2000013    2917.6698
   1000014    1483.2906
   1000015    2178.9943
   2000015    2429.733
   1000016    2177.4522
   1000021    3076.028
   1000022   -1014.2101
   1000023   -1325.2336
   1000025    1385.977
   1000035   -1424.8024
   1000024    1325.0779
   1000037    1424.7643

BLOCK NMIX
   1   1    0.99689672
   1   2   -0.0083202306
   1   3    0.06457533
   1   4    0.044246174
   2   1    0.053952846
   2   2    0.79009406
   2   3   -0.44363287
   2   4   -0.4195597
   3   1    0.014187774
   3   2   -0.02207962
   3   3   -0.70647277
   3   4    0.70725344
   4   1   -0.055540263
   4   2    0.61253134
   4   3    0.54764598
   4   4    0.56727816

BLOCK UMIX
   1   1    0.76734806
   1   2   -0.64123082
   2   1    0.64123082
   2   2    0.76734806

BLOCK VMIX
   1   1   -0.79486036
   1   2   -0.60679239
   2   1   -0.60679239
   2   2    0.79486036

BLOCK STOPMIX
   1   1   -0.4508636
   1   2    0.89259286
   2   1   -0.89259286
   2   2   -0.4508636

BLOCK SBOTMIX
   1   1    0.0024225624
   1   2    0.99999707
   2   1   -0.99999707
   2   2    0.0024225624

BLOCK STAUMIX
   1   1    0.99966223
   1   2    0.025989034
   2   1   -0.025989034
   2   2    0.99966223

BLOCK ALPHA
      -0.10303339

BLOCK HMIX Q=  3149.285
   1    1367.1135
   2    9.6955727
   3    242.37656
   4    9146642.9

BLOCK GAUGE Q=  3149.285
   1    0.36520198
   2    0.63808081
   3    1.0122285

BLOCK AU Q=  3149.285
   1   1    0
   2   2    0
   3   3    3513.32

BLOCK AD Q=  3149.285
   1   1    0
   2   2    0
   3   3    2801.08

BLOCK AE Q=  3149.285
   1   1    0
   2   2    0
   3   3   -3896.6

BLOCK YU Q=  3149.285
   1   1    0
   2   2    0
   3   3    0.83425784

BLOCK YD Q=  3149.285
   1   1    0
   2   2    0
   3   3    0.12321368

BLOCK YE Q=  3149.285
   1   1    0
   2   2    0
   3   3    0.098316986

BLOCK MSOFT Q=  3149.285
   1   -1034.84
   2   -1336.51
   3    3013.27
   21    7446657.5
   22   -1574557.2
   31    1465.73
   32    1465.73
   33    2166.87
   34    2915.69
   35    2915.69
   36    2428.83
   41    1632.42
   42    1632.42
   43    3181.65
   44    809.87996
   45    809.87996
   46    3115.14
   47    2039.04
   48    2039.04
   49    837.70997

BLOCK HIGGSBOUNDSINPUTHIGGSCOUPLINGSFERMIONS
       0, 94.004131,3,36,15,15

BLOCK HIGGSBOUNDSINPUTHIGGSCOUPLINGSBOSONS
       0,4,36,21,21,23

DECAY 6  1.433592
    1   2    5    24

DECAY 1000021  289.38834
    0.085649884   2    2000002   -2
    0.085649884   2   -2000002    2
    0.085649878   2    2000004   -4
    0.085649878   2   -2000004    4
    0.084688528   2    1000005   -5
    0.084688528   2   -1000005    5
    0.047397792   2    1000002   -2
    0.047397792   2   -1000002    2
    0.047397772   2    1000004   -4
    0.047397772   2   -1000004    4
    0.047308736   2    1000001   -1
    0.047308736   2   -1000001    1
    0.047308736   2    1000003   -3
    0.047308736   2   -1000003    3
    0.027299336   2    2000001   -1
    0.027299336   2   -2000001    1
    0.027299336   2    2000003   -3
    0.027299336   2   -2000003    3

DECAY 1000006  60.849578
    0.31949604   2    1000024    5
    0.24330262   2    1000025    6
    0.16227332   2    1000023    6
    0.11296073   2    1000037    5
    0.084832969   2    1000022    6
    0.076872829   2    1000035    6
    0.00026149559   2    1000005    24

DECAY 2000006  64.322575
    0.28410511   2    1000037    5
    0.2771955   2    1000035    6
    0.22363311   2    1000025    6
    0.088409726   2    1000023    6
    0.043003035   2    1000021    6
    0.039619002   2    1000024    5
    0.018335804   2    1000022    6
    0.016030919   2    1000006    23
    0.0084922761   2    1000006    25
    0.0011755159   2    1000005    24

DECAY 1000005  0.0027146189
    1   2    1000022    5

DECAY 2000005  61.038983
    0.43935644   2   -1000037    6
    0.34451649   2   -1000024    6
    0.093652091   2    1000023    5
    0.058031274   2    1000035    5
    0.033637742   2    1000021    5
    0.01677876   2    1000006   -24
    0.006989974   2    1000022    5
    0.0054876815   2    1000025    5
    0.00077959941   2    1000005    25
    0.00076995179   2    1000005    23

DECAY 1000002  4.1376161
    0.46682278   2    1000024    1
    0.23653661   2    1000023    2
    0.18053731   2    1000037    1
    0.088813307   2    1000035    2
    0.02718058   2    1000022    2
    0.00010942595   2    1000025    2

DECAY 2000002  0.0035609569
    1   2    1000022    2

DECAY 1000001  4.1150288
    0.43972881   2   -1000024    2
    0.22693222   2    1000023    1
    0.20414251   2   -1000037    2
    0.096371914   2    1000035    1
    0.032643314   2    1000022    1
    0.00018122755   2    1000025    1

DECAY 2000001  0.7811935
    0.99634179   2    1000022    1
    0.0018889959   2    1000023    1
    0.0016525578   2    1000035    1
    0.00011665821   2    1000025    1

DECAY 1000004  4.0506349
    0.46741208   2    1000024    3
    0.23683182   2    1000023    4
    0.17976737   2    1000037    3
    0.088433349   2    1000035    4
    0.027446149   2    1000022    4
    0.00010922293   2    1000025    4

DECAY 2000004  0.0031008643
    1   2    1000022    4

DECAY 1000003  4.0284398
    0.44033375   2   -1000024    4
    0.22724417   2    1000023    3
    0.20330088   2   -1000037    4
    0.095975256   2    1000035    3
    0.03296502   2    1000022    3
    0.00018091774   2    1000025    3

DECAY 2000003  0.78192568
    0.996359   2    1000022    3
    0.0018818738   2    1000023    3
    0.0016430426   2    1000035    3
    0.00011608432   2    1000025    3

DECAY 1000011  1.0528557
    0.51508654   2    1000022    11
    0.28141825   2   -1000024    12
    0.16076863   2    1000023    11
    0.030297487   2   -1000037    12
    0.012410355   2    1000035    11
    1.8729123e-05   2    1000025    11

DECAY 2000011  11.951362
    0.99515043   2    1000022    11
    0.0023756346   2    1000023    11
    0.0023175706   2    1000035    11
    0.0001563672   2    1000025    11

DECAY 1000013  1.0528556
    0.51508656   2    1000022    13
    0.28141827   2   -1000024    14
    0.16076861   2    1000023    13
    0.030297489   2   -1000037    14
    0.012410337   2    1000035    13
    1.8729113e-05   2    1000025    13

DECAY 2000013  11.951362
    0.99515043   2    1000022    13
    0.0023756346   2    1000023    13
    0.0023175706   2    1000035    13
    0.0001563672   2    1000025    13

DECAY 1000015  11.709301
    0.35461174   2   -1000024    16
    0.20555733   2    1000023    15
    0.2010309   2   -1000037    16
    0.14677473   2    1000022    15
    0.085704154   2    1000035    15
    0.0063211545   2    1000025    15

DECAY 2000015  9.2768827
    0.94126698   2    1000022    15
    0.016611525   2   -1000037    16
    0.011688231   2    1000025    15
    0.010265471   2    1000035    15
    0.0065069289   2   -1000024    16
    0.0051236995   2    1000023    15
    0.004250797   2    1000016   -24
    0.0022420212   2    1000015    25
    0.0020443521   2    1000015    23

DECAY 1000012  1.0627838
    0.53706104   2    1000022    12
    0.29129344   2    1000024    11
    0.1326297   2    1000023    12
    0.024908394   2    1000037    11
    0.014024398   2    1000035    12
    8.3028753e-05   2    1000025    12

DECAY 1000014  1.0627837
    0.5370611   2    1000022    14
    0.2912934   2    1000024    13
    0.13262972   2    1000023    14
    0.024908355   2    1000037    13
    0.014024399   2    1000035    14
    8.3028763e-05   2    1000025    14

DECAY 1000016  11.717741
    0.38302133   2    1000024    15
    0.18798306   2    1000037    15
    0.17194716   2    1000023    16
    0.15464133   2    1000022    16
    0.10216425   2    1000035    16
    0.00024287563   2    1000025    16

DECAY 1000024  0.21045786
    0.86110165   2    1000022    24
    0.13889835   2   -1000005    6

DECAY 1000037  0.49146585
    0.53541228   2    1000022    24
    0.2437387   2    1000023    24
    0.14726668   2   -1000005    6
    0.073582341   2    1000024    23

DECAY 1000022 -1


DECAY 1000023  0.23744001
    0.79019524   2    1000022    25
    0.073706537   2    1000005   -5
    0.073706537   2   -1000005    5
    0.025617445   2    1000022    23
    0.0091936115   2    2000002   -2
    0.0091936115   2   -2000002    2
    0.0091935097   2    2000004   -4
    0.0091935097   2   -2000004    4

DECAY 1000025  0.5966792
    0.78104475   2    1000022    23
    0.0954656   2    1000005   -5
    0.0954656   2   -1000005    5
    0.026673158   2    1000022    25
    0.00033772544   2    2000002   -2
    0.00033772544   2   -2000002    2
    0.000337723   2    2000004   -4
    0.000337723   2   -2000004    4

DECAY 1000035  0.60033912
    0.48072863   2    1000022    25
    0.16936779   2    1000024   -24
    0.16936779   2   -1000024    24
    0.067676678   2    1000005   -5
    0.067676678   2   -1000005    5
    0.021060329   2    1000022    23
    0.0060054444   2    2000002   -2
    0.0060054444   2   -2000002    2
    0.0060054101   2    2000004   -4
    0.0060054101   2   -2000004    4
    0.00010040235   2    1000023    23

DECAY 25  0.0040453933
    0.61975244   2    5   -5
    0.19002645   2    24   -24
    0.077417052   2    21    21
    0.063868494   2   -15    15
    0.023433999   2    23    23
    0.021327241   2    4   -4
    0.0022650456   2    22    22
    0.0014361984   2    22    23
    0.00024700394   2    3   -3
    0.00022607839   2   -13    13

DECAY 35  15.564938
    0.18717172   2    5   -5
    0.15205104   2    1000024   -1000037
    0.15205104   2    1000037   -1000024
    0.086115374   2    1000023    1000025
    0.085064365   2    6   -6
    0.068344098   2    1000024   -1000024
    0.061231603   2    1000025    1000035
    0.05924259   2    1000022    1000025
    0.039348912   2   -15    15
    0.03015487   2    1000023    1000023
    0.024370024   2    1000037   -1000037
    0.022775214   2    1000022    1000023
    0.015126139   2    1000022    1000035
    0.013748154   2    1000035    1000035
    0.0016756433   2    1000023    1000035
    0.0009936264   2    1000022    1000022
    0.00015984187   2    25    25
    0.00014006749   2   -13    13
    7.5126907e-05   2    3   -3
    4.8553942e-05   2    1000025    1000025
    3.9821683e-05   2    24   -24
    2.9360352e-05   2    21    21
    1.9868032e-05   2    23    23
    5.3102764e-06   2    1000012   -1000012
    5.3102764e-06   2    1000014   -1000014
    3.8767021e-06   2    2000002   -2000002
    3.8767021e-06   2    2000004   -2000004
    1.5999046e-06   2    1000011   -1000011
    1.5999046e-06   2    1000013   -1000013
    8.6508309e-07   2    4   -4
    2.5329284e-07   2    1000005   -1000005
    1.9310392e-07   2    22    22
    5.3870516e-08   2    23    22

DECAY 36  15.520198
    0.18778002   2    5   -5
    0.18087263   2    1000024   -1000024
    0.10781661   2    1000037   -1000037
    0.085585543   2    6   -6
    0.078793834   2    1000023    1000023
    0.062357135   2    1000035    1000035
    0.053500422   2    1000024   -1000037
    0.053500422   2    1000037   -1000024
    0.039463573   2   -15    15
    0.03679182   2    1000022    1000023
    0.035976624   2    1000022    1000025
    0.03004572   2    1000023    1000025
    0.025398964   2    1000022    1000035
    0.015084923   2    1000025    1000035
    0.0049687646   2    1000023    1000035
    0.001325504   2    1000022    1000022
    0.00038828181   2    1000025    1000025
    0.00014047543   2   -13    13
    9.1797996e-05   2    21    21
    7.540257e-05   2    3   -3
    4.046897e-05   2    23    25
    8.7125042e-07   2    4   -4
    1.0909633e-07   2    23    22
    8.3068133e-08   2    22    22

DECAY 37  15.350773
    0.26371659   2    6   -5
    0.2125514   2    1000037    1000023
    0.1864504   2    1000024    1000035
    0.12977518   2    1000024    1000025
    0.069135303   2    1000037    1000025
    0.059598039   2    1000024    1000022
    0.039916937   2   -15    16
    0.037377799   2    1000037    1000022
    0.00048301292   2    1000024    1000023
    0.00041590697   2    1000037    1000035
    0.0003007232   2    4   -5
    0.00014208923   2   -13    14
    7.5887087e-05   2    4   -3
    4.0994826e-05   2    24    25
    6.4570391e-06   2   -1000011    1000012
    6.4570391e-06   2   -1000013    1000014
    3.8125334e-06   2    2   -3
    3.0072144e-06   2    2   -5
    4.2076782e-13   2    24    36

DECAY 5 -1


DECAY 15 -1


DECAY 23  2.4952


DECAY 24  2.085
