BLOCK SPINFO
   1   SPheno
   2   v4.0.5be

BLOCK SPHENOINFO
   1   2
   2   2

BLOCK MODSEL
   1   0

BLOCK MINPAR
   3    22.110134
   4    1

BLOCK EXTPAR
   0    2845.5814
   1   -3317.1598
   2   -3866.4855
   3    3975.032
   11    5474.3287
   12   -4094.2222
   13   -722.74736
   23    182.34446
   25    21.181068
   26    1748.1496
   31    2700.1354
   32    2700.1354
   33    1821.1846
   34    389.87461
   35    389.87461
   36    880.33684
   41    4403.8972
   42    4403.8972
   43    4363.7928
   44    1773.9771
   45    1773.9771
   46    1760.1236
   47    3356.6193
   48    3356.6193
   49    2420.7028

BLOCK SMINPUTS
   1    127.90897
   2    1.1663787e-05
   3    0.1184
   4    91.1876
   5    4.18
   6    173.2
   7    1.777
   8    0
   11    0.00051099893
   12    0
   13    0.10565837
   14    0
   21    0.005
   22    0.0025
   23    0.095
   24    1.27

BLOCK GAUGE Q=  2845.5814
   1    0.35536298
   2    0.66519887
   3    1.219778

BLOCK YU Q=  2845.5814
   1   1    8.3937112e-06
   2   2    0.0042640053
   3   3    1.0140277

BLOCK YD Q=  2845.5814
   1   1    0.00035725813
   2   2    0.0067879045
   3   3    0.35428812

BLOCK YE Q=  2845.5814
   1   1    6.2344157e-05
   2   2    0.012890794
   3   3    0.21680195

BLOCK AU Q=  2845.5814
   1   1    0
   2   2    0
   3   3    5474.3261

BLOCK AD Q=  2845.5814
   1   1    0
   2   2    0
   3   3   -4094.2214

BLOCK AE Q=  2845.5814
   1   1    0
   2   2    0
   3   3   -722.74762

BLOCK MSOFT Q=  2845.5814
   1   -3317.1598
   2   -3866.4855
   3    3975.032
   21    2962881.6
   22   -87044.626
   31    2700.1354
   32    2700.1354
   33    1821.1846
   34    389.87461
   35    389.87461
   36    880.33684
   41    4403.8972
   42    4403.8972
   43    4363.7928
   44    1773.9771
   45    1773.9771
   46    1760.1236
   47    3356.6193
   48    3356.6193
   49    2420.7028

BLOCK MASS
   6    173.2
   23    91.1876
   24    80.429995
   15    1.777
   25    124.93031
   35    1748.1563
   36    1748.1496
   37    1750.2878
   1000001    4508.2273
   2000001    3464.3392
   1000002    4507.5216
   2000002    1888.0956
   1000003    4508.2263
   2000003    3464.3377
   1000004    4507.5206
   2000004    1888.0952
   1000005    2531.2617
   2000005    4425.7272
   1000006    1827.1263
   2000006    4431.7317
   1000011    2723.4164
   2000011    456.02333
   1000012    2721.8386
   1000013    2723.4121
   2000013    455.99149
   1000014    2721.8343
   1000015    909.2519
   2000015    1843.7511
   1000016    1841.6434
   1000021    4112.0304
   1000022   -192.17895
   1000023    195.04095
   1000025   -3262.5095
   1000035   -3889.694
   1000024    194.27995
   1000037    3889.9185

BLOCK ALPHA
      -0.045539258

BLOCK HMIX Q=  2845.5814
   1    182.34446
   2    21.181068
   3    243.30614
   4    3056027

BLOCK STOPMIX
   1   1   -0.048431489
   1   2    0.99882651
   2   1   -0.99882651
   2   2   -0.048431489

BLOCK SBOTMIX
   1   1    0.0013051316
   1   2    0.99999915
   2   1   -0.99999915
   2   2    0.0013051316

BLOCK STAUMIX
   1   1    0.003147389
   1   2    0.99999505
   2   1   -0.99999505
   2   2    0.003147389

BLOCK NMIX
   1   1   -0.0099973351
   1   2    0.014156491
   1   3   -0.70931588
   1   4   -0.70467768
   2   1    0.0097678302
   2   2   -0.014235766
   2   3   -0.70489073
   2   4    0.70910577
   3   1   -0.99990093
   3   2   -0.0019472295
   3   3    0.00020602414
   3   4    0.013939199
   4   1   -0.0016667959
   4   2    0.99979655
   4   3    7.1670887e-06
   4   4    0.02010166

BLOCK UMIX
   1   1   -1.1433154e-05
   1   2    1
   2   1   -1
   2   2   -1.1433154e-05

BLOCK VMIX
   1   1    0.028408049
   1   2    0.99959641
   2   1    0.99959641
   2   2   -0.028408049

BLOCK HIGGSBOUNDSINPUTHIGGSCOUPLINGSFERMIONS
       0, 448.63764,3,36,15,15

BLOCK HIGGSBOUNDSINPUTHIGGSCOUPLINGSBOSONS
       0,4,36,21,21,23

BLOCK SPHENOLOWENERGY
   1    0.00034147229
   2    1.5887726e-06
   3    3.5263792e-05
   4    2.411763e-15
   5    1.0302786e-10
   6    2.1573111e-08
   7    8.0993526e-14
   8    3.4600436e-09
   9    7.3408671e-07
   10    9.5836781e-05
   11    0.98995726
   12    0.54237838
   13    19.374973
   14    0
   15    0
   16    0.0021590692
   17    2.2816773e-15
   18    2.4805293e-11
   19    8.2919816e-11
   20   -4.9435837e-16
   21   -2.1133322e-11
   22   -1.0269739e-08
   23    0
   24    0
   25    0
   26    0
   27    0
   28    0
   29    0
   30    0
   31    0
   39    5.1676502e-05
   40    0
   41    0
   42    0

BLOCK FWCOEF Q=  160
   305   4422   0   0   -0.18881911
   305   4422   0   2   -0.21112343
   305   4322   0   2   -0.00044186198
   305   6421   0   0   -0.095227835
   305   6421   0   2   -0.11791609
   305   6321   0   2   -0.0004482313
   3051111   4133   0   0    1.6145007
   3051111   4133   0   2    1.6151423
   3051111   4233   0   2    3.8007054e-05
   3051111   4137   0   0   -4.4371928
   3051111   4137   0   2   -4.436636
   3051111   4237   0   2   -0.00028598658
   3051313   4133   0   0    1.6145007
   3051313   4133   0   2    1.6151419
   3051313   4233   0   2    3.8006825e-05
   3051313   4137   0   0   -4.4371928
   3051313   4137   0   2   -4.4366364
   3051313   4237   0   2   -0.00028598648
   3051212   4137   0   0    1.5053501
   3051212   4137   0   2    1.5052299
   3051212   4237   0   2    6.201161e-05
   3051414   4137   0   0    1.5053501
   3051414   4137   0   2    1.5052299
   3051414   4237   0   2    6.2011651e-05
   3051616   4137   0   0    1.5053501
   3051616   4137   0   2    1.5052298
   3051616   4237   0   2    6.2023203e-05

BLOCK IMFWCOEF Q=  160
   305   4422   0   0    3.858142e-07
   305   4422   0   2   -6.2820505e-07
   305   4322   0   2   -2.4645152e-06
   305   6421   0   0    3.3047538e-07
   305   6421   0   2   -3.753415e-06
   305   6321   0   2   -1.2368841e-06
   3051111   4133   0   2    5.0908447e-07
   3051111   4233   0   2    1.1866211e-06
   3051111   4137   0   2   -3.4311596e-06
   3051111   4237   0   2   -8.9351764e-06
   3051313   4133   0   2    5.0908255e-07
   3051313   4233   0   2    1.1866204e-06
   3051313   4137   0   2   -3.4311614e-06
   3051313   4237   0   2   -8.9351779e-06
   3051212   4137   0   2    7.5223986e-07
   3051212   4237   0   2    1.9374408e-06
   3051414   4137   0   2    7.5223984e-07
   3051414   4237   0   2    1.9374408e-06
   3051616   4137   0   2    7.5054518e-07
   3051616   4237   0   2    1.9374412e-06

DECAY 23  2.4952


DECAY 24  2.085


DECAY 2000011  0.00030117132
    0.51433802   2    1000022    11
    0.4855833   2    1000023    11

DECAY 1000011  0.0018873924
    0.51125244   2    1000023    11
    0.48874567   2    1000022    11

DECAY 2000013  0.002327981
    0.43513297   2   -1000024    14
    0.2868062   2    1000022    13
    0.27806083   2    1000023    13

DECAY 1000013  0.010819503
    0.4997604   2    1000022    13
    0.49843017   2    1000023    13
    0.0018050045   2    2000013    25

DECAY 1000015  1.5507385
    0.49968876   2   -1000024    16
    0.25210501   2    1000022    15
    0.24820623   2    1000023    15

DECAY 2000015  1.7054212
    0.49781257   2    1000022    15
    0.49174602   2    1000023    15
    0.0052832883   2    1000015    23
    0.0051485388   2    1000015    25

DECAY 1000012  0.028138236
    0.680269   2    1000024    11
    0.16024168   2    1000022    12
    0.15948931   2    1000023    12

DECAY 1000014  0.037045465
    0.75714441   2    1000024    13
    0.1217129   2    1000022    14
    0.12114143   2    1000023    14

DECAY 1000016  1.7211129
    0.98605747   2    1000024    15
    0.010448076   2    1000015    24
    0.001751608   2    1000022    16
    0.0017428485   2    1000023    16

DECAY 2000001  0.025139142
    0.98436796   2    1000025    1
    0.0078172484   2    1000022    1
    0.0074670589   2    1000023    1
    0.0003477343   2   -1000024    2

DECAY 1000001  14.085237
    0.71341359   2    1000021    1
    0.18392013   2   -1000037    2
    0.092039105   2    1000035    1
    0.0099116693   2    1000025    1
    0.00035859353   2    1000023    1
    0.00035691152   2    1000022    1

DECAY 2000003  0.031432886
    0.78725888   2    1000025    3
    0.10039697   2   -1000024    4
    0.056629092   2    1000022    3
    0.05571506   2    1000023    3

DECAY 1000003  14.090907
    0.71312327   2    1000021    3
    0.18384523   2   -1000037    4
    0.092001816   2    1000035    3
    0.0099076694   2    1000025    3
    0.00050337572   2    1000022    3
    0.00050322393   2    1000023    3
    0.00011520723   2   -1000024    4

DECAY 1000005  12.435208
    0.49758952   2   -1000024    6
    0.25283768   2    1000022    5
    0.24957242   2    1000023    5

DECAY 2000005  192.244
    0.46731474   2   -1000024    6
    0.41014425   2    1000006   -24
    0.033970516   2    1000021    5
    0.028837473   2    1000022    5
    0.028482195   2    1000023    5
    0.010132215   2   -1000037    6
    0.0061359844   2    1000005    35
    0.0061342961   2    1000005    36
    0.0052482282   2    1000035    5
    0.0027319188   2    1000006   -37
    0.00065515603   2    1000025    5
    0.00013371055   2    1000005    25

DECAY 2000002  0.00080652711
    0.51174224   2    1000022    2
    0.48825455   2    1000023    2

DECAY 1000002  14.075288
    0.7115945   2    1000021    2
    0.18353739   2    1000037    1
    0.091812737   2    1000035    2
    0.010353452   2    1000025    2
    0.0022675034   2    1000024    1
    0.00021929633   2    1000023    2
    0.0002151199   2    1000022    2

DECAY 2000004  0.002143166
    0.34761114   2    1000022    4
    0.34064165   2    1000023    4
    0.31174721   2    1000024    3

DECAY 1000004  14.080891
    0.71130338   2    1000021    4
    0.18346386   2    1000037    3
    0.09177562   2    1000035    4
    0.010349331   2    1000025    4
    0.0025581494   2    1000024    3
    0.00027722104   2    1000023    4
    0.00027232925   2    1000022    4

DECAY 1000006  72.478425
    0.50364439   2    1000024    5
    0.24966287   2    1000023    6
    0.24669573   2    1000022    6

DECAY 2000006  208.97766
    0.2704812   2    1000006    25
    0.21631523   2    1000023    6
    0.21364109   2    1000022    6
    0.18920232   2    1000006    23
    0.053013407   2    1000024    5
    0.028272886   2    1000021    6
    0.011336011   2    1000005    37
    0.0098484427   2    1000037    5
    0.0045242207   2    1000035    6
    0.001264982   2    1000006    36
    0.0012032474   2    1000006    35
    0.00075008326   2    1000025    6
    0.00014687634   2    1000005    24

DECAY 1000024  1.3403214e-11
    0.60296713   3    1000022   -1    2
    0.20100459   3    1000022   -11    12
    0.19558482   3    1000022   -13    14
    0.00044346386   3    1000022   -3    4

DECAY 1000037  94.849891
    0.10857171   2    1000016   -15
    0.1085146   2   -2000015    16
    0.089182763   2    1000024    25
    0.084995436   2    1000023    24
    0.084487471   2    1000024    23
    0.083931869   2    1000022    24
    0.058014485   2    1000024    36
    0.057990991   2    1000024    35
    0.057634489   2    37    1000023
    0.057009281   2    37    1000022
    0.046986777   2    1000014   -13
    0.046986497   2    1000012   -11
    0.046920163   2   -1000013    14
    0.046919881   2   -1000011    12
    0.0097516114   3    1000024    6   -6
    0.006006713   3    1000022   -5    6
    0.0059555962   3    1000023   -5    6

DECAY 1000022 -1


DECAY 1000023  1.9723736e-09
    0.89490538   2    1000022    22
    0.030664147   3    1000022    12   -12
    0.02292897   3    1000022    1   -1
    0.02253034   3    1000022    3   -3
    0.017883174   3    1000022    2   -2
    0.005174632   3    1000022    11   -11
    0.0050337841   3    1000022    13   -13
    0.00026657323   3    1000024    1   -2
    0.00026657323   3   -1000024   -1    2

DECAY 1000025  95.056709
    0.082874665   2    2000013   -13
    0.082874665   2   -2000013    13
    0.082874204   2    2000011   -11
    0.082874204   2   -2000011    11
    0.073336995   2    1000015   -15
    0.073336995   2   -1000015    15
    0.054657825   2    1000006   -6
    0.054657825   2   -1000006    6
    0.05084414   2    2000004   -4
    0.05084414   2   -2000004    4
    0.05084411   2    2000002   -2
    0.05084411   2   -2000002    2
    0.024148938   2    1000024   -24
    0.024148938   2   -1000024    24
    0.013070731   2    1000023    25
    0.012372367   2    1000023    23
    0.011519617   2    1000022    23
    0.010795434   2    37   -1000024
    0.010795434   2   -37    1000024
    0.010738726   2    1000022    25
    0.010057633   2    2000015   -15
    0.010057633   2   -2000015    15
    0.0099328046   2    1000016   -16
    0.0099328046   2   -1000016    16
    0.0069175535   2    1000022    35
    0.0057029416   2    1000023    35
    0.0049094811   2    1000023    36
    0.0045527672   2    1000005   -5
    0.0045527672   2   -1000005    5
    0.0041267258   2    1000022    36
    0.0019954802   2    1000013   -13
    0.0019954802   2   -1000013    13
    0.0019954516   2    1000011   -11
    0.0019954516   2   -1000011    11
    0.0019770797   2    1000014   -14
    0.0019770797   2   -1000014    14
    0.0019770516   2    1000012   -12
    0.0019770516   2   -1000012    12
    0.0014250134   3    1000024    5   -6
    0.0014250134   3   -1000024   -5    6
    0.001042597   3    1000023    6   -6
    0.0010187571   3    1000022    6   -6

DECAY 1000035  95.382421
    0.083950266   2    1000024   -24
    0.083950266   2   -1000024    24
    0.056199505   2    37   -1000024
    0.056199505   2   -37    1000024
    0.054093905   2    1000016   -16
    0.054093905   2   -1000016    16
    0.054028478   2    1000023    25
    0.053829683   2    2000015   -15
    0.053829683   2   -2000015    15
    0.044399009   2    1000022    25
    0.0423657   2    1000023    23
    0.041786355   2    1000022    23
    0.0352145   2    1000022    35
    0.029019845   2    1000023    35
    0.027195574   2    1000023    36
    0.023406693   2    1000014   -14
    0.023406693   2   -1000014    14
    0.023406554   2    1000012   -12
    0.023406554   2   -1000012    12
    0.023271582   2    1000013   -13
    0.023271582   2   -1000013    13
    0.023271442   2    1000011   -11
    0.023271442   2   -1000011    11
    0.022842363   2    1000022    36
    0.0057905125   3    1000024    5   -6
    0.0057905125   3   -1000024   -5    6
    0.004332502   3    1000023    6   -6
    0.0042464443   3    1000022    6   -6

DECAY 1000021  298.49648
    0.13250751   2    1000006   -6
    0.13250751   2   -1000006    6
    0.12697507   2    2000004   -4
    0.12697507   2   -2000004    4
    0.12697505   2    2000002   -2
    0.12697505   2   -2000002    2
    0.078641596   2    1000005   -5
    0.078641596   2   -1000005    5
    0.017171715   2    2000003   -3
    0.017171715   2   -2000003    3
    0.017171644   2    2000001   -1
    0.017171644   2   -2000001    1
    0.00028156735   3    1000024    5   -6
    0.00028156735   3   -1000024   -5    6
    0.00023192506   3    1000023    6   -6
    0.00022910441   3    1000022    6   -6

DECAY 25  0.0038942858
    0.57600129   2   -5    5
    0.22593913   2   -24    24
    0.07206063   2    21    21
    0.066264412   2   -15    15
    0.028168968   2   -4    4
    0.027313132   2    23    23
    0.0023222619   2    22    22
    0.0014833004   2    22    23
    0.00022981111   2   -13    13
    0.00021631983   2   -3    3
    5.9810175e-07   2   -1    1
    1.4516158e-07   2   -2    2
    5.1664097e-09   2   -11    11

DECAY 35  11.738192
    0.83809526   2   -5    5
    0.14798732   2   -15    15
    0.011535948   2   -6    6
    0.00098109375   2   -1000024    1000024
    0.00051309357   2   -13    13
    0.00032472531   2   -3    3
    0.00024040941   2    1000022    1000022
    0.00019692   2    1000023    1000023
    8.6402465e-05   2    25    25
    1.2877227e-05   2    23    23
    1.242844e-05   2    21    21
    8.2819887e-06   2   -24    24
    1.5558492e-06   2   -1000011    1000011
    1.551258e-06   2   -1000013    1000013
    1.0416898e-06   2    1000022    1000023
    8.977915e-07   2   -1    1
    1.6027041e-07   2   -4    4
    1.1525726e-08   2   -11    11
    8.5074921e-09   2    22    23
    7.0386184e-09   2    22    22
    8.2629865e-13   2   -2    2

DECAY 36  11.418138
    0.83786546   2   -5    5
    0.14794569   2   -15    15
    0.011746843   2   -6    6
    0.001054181   2   -1000024    1000024
    0.00051294715   2   -13    13
    0.0003246326   2   -3    3
    0.00025426032   2    1000023    1000023
    0.00021560544   2    1000022    1000022
    6.0866893e-05   2    21    21
    1.7531672e-05   2    23    25
    8.9753553e-07   2   -1    1
    8.2883283e-07   2    1000022    1000023
    1.5634296e-07   2   -4    4
    6.1074488e-08   2    22    22
    2.204284e-08   2    22    23
    1.1522437e-08   2   -11    11
    8.0611687e-13   2   -2    2
    4.0823777e-39   2    25    25

DECAY 37  11.128061
    0.84396206   2   -5    6
    0.15376849   2   -15    16
    0.0012401583   2   -5    4
    0.00054362724   2   -13    14
    0.00030518182   2   -3    4
    6.0131958e-05   2    1000023    1000024
    5.8078185e-05   2    1000022    1000024
    1.9362115e-05   2   -3    6
    1.8089205e-05   2    24    25
    1.4194257e-05   2   -3    2
    8.8560145e-06   2   -5    2
    8.6772417e-07   2   -1    6
    8.4636826e-07   2   -1    2
    4.7307198e-08   2   -1    4
    1.2715498e-08   2   -11    12
    5.4631979e-12   2    24    36
    5.3784422e-12   2    24    35

DECAY 6  2.43
    1   2    5    24

DECAY 15 -1
