BLOCK SPINFO
   1   SPheno
   2   v4.0.5be

BLOCK SPHENOINFO
   1   2
   2   2

BLOCK MODSEL
   1   0

BLOCK MINPAR
   3    33.363804
   4    1

BLOCK EXTPAR
   0    3360.436
   1    1038.6156
   2    1108.9606
   3    1801.7055
   11   -7080.4574
   12    906.25997
   13   -1385.5245
   23    2060.1551
   25    32.272686
   26    2056.1966
   31    1889.4894
   32    1889.4894
   33    1883.994
   34    1932.1544
   35    1932.1544
   36    4297.2617
   41    3479.6164
   42    3479.6164
   43    2497.8255
   44    3932.1206
   45    3932.1206
   46    4540.9014
   47    2941.6827
   48    2941.6827
   49    3818.3422

BLOCK SMINPUTS
   1    127.90897
   2    1.1663787e-05
   3    0.1184
   4    91.1876
   5    4.18
   6    173.2
   7    1.777
   8    0
   11    0.00051099893
   12    0
   13    0.10565837
   14    0
   21    0.005
   22    0.0025
   23    0.095
   24    1.27

BLOCK GAUGE Q=  3360.436
   1    0.35536298
   2    0.66519887
   3    1.219778

BLOCK YU Q=  3360.436
   1   1    8.3883962e-06
   2   2    0.0042613053
   3   3    1.0133856

BLOCK YD Q=  3360.436
   1   1    0.00054399423
   2   2    0.01033589
   3   3    0.53947181

BLOCK YE Q=  3360.436
   1   1    9.4930971e-05
   2   2    0.019628714
   3   3    0.33012268

BLOCK AU Q=  3360.436
   1   1    0
   2   2    0
   3   3   -7080.4573

BLOCK AD Q=  3360.436
   1   1    0
   2   2    0
   3   3    906.25995

BLOCK AE Q=  3360.436
   1   1    0
   2   2    0
   3   3   -1385.5245

BLOCK MSOFT Q=  3360.436
   1    1038.6156
   2    1108.9606
   3    1801.7055
   21   -18185.432
   22   -4196986.5
   31    1889.4894
   32    1889.4894
   33    1883.994
   34    1932.1544
   35    1932.1544
   36    4297.2617
   41    3479.6164
   42    3479.6164
   43    2497.8255
   44    3932.1206
   45    3932.1206
   46    4540.9014
   47    2941.6827
   48    2941.6827
   49    3818.3422

BLOCK MASS
   6    173.2
   23    91.1876
   24    80.429995
   15    1.777
   25    126.78589
   35    2056.1119
   36    2056.1966
   37    2058.2144
   1000001    3547.6982
   2000001    3006.1451
   1000002    3546.8963
   2000002    3988.8321
   1000003    3547.6958
   2000003    3006.1409
   1000004    3546.8937
   2000004    3988.8315
   1000005    2544.9727
   2000005    3860.4109
   1000006    2533.6331
   2000006    4457.0505
   1000011    1900.6674
   2000011    1936.5647
   1000012    1898.6433
   1000013    1900.5601
   2000013    1936.634
   1000014    1898.6314
   1000015    1892.8969
   2000015    4293.0977
   1000016    1891.1384
   1000021    2090.5729
   1000022    1029.5327
   1000023    1150.3319
   1000025   -2071.5254
   1000035    2074.6449
   1000024    1150.4297
   1000037    2075.1606

BLOCK ALPHA
      -0.030139095

BLOCK HMIX Q=  3360.436
   1    2060.1551
   2    32.272686
   3    243.09323
   4    4227944.5

BLOCK STOPMIX
   1   1    0.99724769
   1   2    0.074142089
   2   1   -0.074142089
   2   2    0.99724769

BLOCK SBOTMIX
   1   1    0.99986316
   1   2    0.016542793
   2   1   -0.016542793
   2   2    0.99986316

BLOCK STAUMIX
   1   1    0.99996642
   1   2    0.0081947091
   2   1   -0.0081947091
   2   2    0.99996642

BLOCK NMIX
   1   1   -0.99939011
   1   2    0.010805453
   1   3   -0.029384523
   1   4    0.01546618
   2   1   -0.012892052
   2   2   -0.99790998
   2   3    0.054957807
   2   4   -0.031449953
   3   1   -0.0096541706
   3   2    0.016758623
   3   3    0.70673934
   3   4    0.70720962
   4   1   -0.030983911
   4   2    0.061465892
   4   3    0.70472384
   4   4   -0.70613472

BLOCK UMIX
   1   1   -0.99692471
   1   2    0.078365267
   2   1    0.078365267
   2   2    0.99692471

BLOCK VMIX
   1   1   -0.9989886
   1   2    0.044964066
   2   1    0.044964066
   2   2    0.9989886

BLOCK HIGGSBOUNDSINPUTHIGGSCOUPLINGSFERMIONS
       0, 1041.5262,3,36,15,15

BLOCK HIGGSBOUNDSINPUTHIGGSCOUPLINGSBOSONS
       0,4,36,21,21,23

BLOCK SPHENOLOWENERGY
   1    0.00031598088
   2    1.5918297e-06
   3    3.5273656e-05
   4    2.6113048e-15
   5    1.1155085e-10
   6    2.3286343e-08
   7    8.6681459e-14
   8    3.7029944e-09
   9    7.8338281e-07
   10    9.5694764e-05
   11    0.98849027
   12    0.54167118
   13    19.345081
   14    0
   15    0
   16    0.0021563634
   17    2.2816504e-15
   18    2.481566e-11
   19    8.2939408e-11
   20    2.6935815e-15
   21    1.1515826e-10
   22    2.9217454e-08
   23    0
   24    0
   25    0
   26    0
   27    0
   28    0
   29    0
   30    0
   31    0
   39    6.8385555e-05
   40    0
   41    0
   42    0

BLOCK FWCOEF Q=  160
   305   4422   0   0   -0.18881911
   305   4422   0   2   -0.18049261
   305   4322   0   2    9.609123e-05
   305   6421   0   0   -0.095227835
   305   6421   0   2   -0.10399039
   305   6321   0   2   -0.00025870251
   3051111   4133   0   0    1.6206543
   3051111   4133   0   2    1.6210427
   3051111   4233   0   2    0.00043164528
   3051111   4137   0   0   -4.4433464
   3051111   4137   0   2   -4.4437612
   3051111   4237   0   2   -0.0032240298
   3051313   4133   0   0    1.6206543
   3051313   4133   0   2    1.621042
   3051313   4233   0   2    0.0004316444
   3051313   4137   0   0   -4.4433464
   3051313   4137   0   2   -4.4437619
   3051313   4237   0   2   -0.0032240302
   3051212   4137   0   0    1.5053501
   3051212   4137   0   2    1.5054657
   3051212   4237   0   2    0.00069810441
   3051414   4137   0   0    1.5053501
   3051414   4137   0   2    1.5054657
   3051414   4237   0   2    0.00069810453
   3051616   4137   0   0    1.5053501
   3051616   4137   0   2    1.5054656
   3051616   4237   0   2    0.00069813831

BLOCK IMFWCOEF Q=  160
   305   4422   0   0    3.8588611e-07
   305   4422   0   2    6.154488e-05
   305   4322   0   2    5.9873366e-06
   305   6421   0   0    3.3053698e-07
   305   6421   0   2   -7.7429933e-05
   305   6321   0   2    7.6499099e-07
   3051111   4133   0   2   -1.9680053e-08
   3051111   4233   0   2    8.6221567e-06
   3051111   4137   0   2    8.2435181e-06
   3051111   4237   0   2   -6.4400742e-05
   3051313   4133   0   2   -1.9711637e-08
   3051313   4233   0   2    8.6221509e-06
   3051313   4137   0   2    8.2435289e-06
   3051313   4237   0   2   -6.440076e-05
   3051212   4137   0   2   -1.3226931e-06
   3051212   4237   0   2    1.3944795e-05
   3051414   4137   0   2   -1.3226932e-06
   3051414   4237   0   2    1.3944795e-05
   3051616   4137   0   2   -1.3229291e-06
   3051616   4237   0   2    1.3944795e-05

DECAY 23  2.4952


DECAY 24  2.085


DECAY 1000011  11.211242
    0.59551903   2   -1000024    12
    0.30254017   2    1000023    11
    0.1019408   2    1000022    11

DECAY 2000011  5.0021122
    0.99986459   2    1000022    11
    0.00013540848   2    1000023    11

DECAY 1000013  11.20921
    0.59551558   2   -1000024    14
    0.30253985   2    1000023    13
    0.10194457   2    1000022    13

DECAY 2000013  5.0026358
    0.9998532   2    1000022    13
    0.00013916797   2    1000023    13

DECAY 1000015  11.075497
    0.59499588   2   -1000024    16
    0.30267143   2    1000023    15
    0.10233269   2    1000022    15

DECAY 2000015  34.53031
    0.55432469   2    1000022    15
    0.15773575   2   -1000037    16
    0.079335529   2    1000025    15
    0.079207911   2    1000035    15
    0.054706058   2    1000016   -24
    0.027299269   2    1000015    23
    0.025958324   2    1000015    25
    0.0099986072   2    1000016   -37
    0.0050144616   2    1000015    35
    0.0050019479   2    1000015    36
    0.00088986008   2   -1000024    16
    0.00052759388   2    1000023    15

DECAY 1000012  11.204142
    0.59625543   2    1000024    11
    0.29345002   2    1000023    12
    0.11029455   2    1000022    12

DECAY 1000014  11.203947
    0.59625632   2    1000024    13
    0.29344904   2    1000023    14
    0.11029464   2    1000022    14

DECAY 1000016  11.069349
    0.59641251   2    1000024    15
    0.29312653   2    1000023    16
    0.11046096   2    1000022    16

DECAY 2000001  64.576684
    0.97976354   2    1000021    1
    0.020225652   2    1000022    1

DECAY 1000001  157.14962
    0.759264   2    1000021    1
    0.1581567   2   -1000024    2
    0.078873735   2    1000023    1
    0.0029695579   2    1000022    1
    0.00052817059   2   -1000037    2
    0.00019307216   2    1000035    1

DECAY 2000003  64.579795
    0.97970993   2    1000021    3
    0.020224697   2    1000022    3

DECAY 1000003  157.1535
    0.75924364   2    1000021    3
    0.15815256   2   -1000024    4
    0.078871815   2    1000023    3
    0.0029695156   2    1000022    3
    0.00053173925   2   -1000037    4
    0.00020336599   2    1000035    3

DECAY 1000005  49.610359
    0.42836722   2    1000021    5
    0.27881648   2   -1000024    6
    0.14249492   2    1000023    5
    0.1108516   2   -1000037    6
    0.016888561   2    1000025    5
    0.016677859   2    1000035    5
    0.0059033594   2    1000022    5

DECAY 2000005  181.3332
    0.83926719   2    1000021    5
    0.061942425   2   -1000037    6
    0.031245731   2    1000025    5
    0.031069517   2    1000035    5
    0.010775388   2    1000006   -24
    0.010282016   2    1000022    5
    0.0096060497   2    1000005    25
    0.0052970574   2    1000005    23
    0.00034351024   2   -1000024    6
    0.00017111221   2    1000023    5

DECAY 1000002  157.1039
    0.75894799   2    1000021    2
    0.15880565   2    1000024    1
    0.079599601   2    1000023    2
    0.0023285102   2    1000022    2
    0.0001738705   2    1000037    1
    0.00013462386   2    1000035    2

DECAY 2000002  173.39384
    0.95526239   2    1000021    2
    0.044701634   2    1000022    2

DECAY 1000004  157.10733
    0.75892918   2    1000021    4
    0.15880224   2    1000024    3
    0.079597745   2    1000023    4
    0.0023284589   2    1000022    4
    0.00019445087   2    1000037    3
    0.00013640232   2    1000035    4

DECAY 2000004  173.39523
    0.95525391   2    1000021    4
    0.044701252   2    1000022    4

DECAY 1000006  47.320466
    0.4108176   2    1000021    6
    0.29891561   2    1000024    5
    0.14615471   2    1000023    6
    0.052287844   2    1000035    6
    0.051883496   2    1000025    6
    0.033385378   2    1000037    5
    0.0058765649   2    1000022    6
    0.00067880229   3    1000022    24    5

DECAY 2000006  561.27467
    0.37681732   2    1000021    6
    0.18005592   2    1000005    24
    0.13741745   2    1000006    25
    0.099373441   2    1000037    5
    0.09064786   2    1000006    23
    0.05018473   2    1000035    6
    0.049841096   2    1000025    6
    0.015649078   2    1000022    6

DECAY 1000024  0.00096417937
    0.99993335   2    1000022    24

DECAY 1000037  14.094425
    0.30010262   2    1000024    25
    0.29420383   2    1000023    24
    0.28770126   2    1000024    23
    0.092489377   2    1000022    24
    0.0094697397   3    1000024    6   -6
    0.0081824986   3    1000023   -5    6
    0.0045861286   2    1000016   -15
    0.0027320787   3    1000022   -5    6
    0.00012180428   3    1000024    5   -5
    0.00010341188   2   -1000013    14
    0.00010329041   2   -1000011    12
    0.00010093259   2   -1000015    16

DECAY 1000022 -1


DECAY 1000023  7.3796918e-06
    0.98568152   2    1000022    23
    0.0047971258   3    1000022    5   -5
    0.0044109622   3    1000022    12   -12
    0.0018748778   3    1000022    15   -15
    0.0013772663   3    1000022    13   -13
    0.0013750386   3    1000022    11   -11
    0.00030202669   3    1000022    4   -4
    0.00011279666   2    1000022    22

DECAY 1000025  18.241069
    0.22608438   2    1000024   -24
    0.22608438   2   -1000024    24
    0.2073912   2    1000023    23
    0.19115421   2    1000023    25
    0.071872844   2    1000022    23
    0.058343991   2    1000022    25
    0.0059948312   3    1000024    5   -6
    0.0059948312   3   -1000024   -5    6
    0.0024917807   3    1000023    6   -6
    0.0016736939   2    1000015   -15
    0.0016736939   2   -1000015    15
    0.0010885126   3    1000022    6   -6

DECAY 1000035  13.890227
    0.2895546   2    1000024   -24
    0.2895546   2   -1000024    24
    0.28020623   2    1000023    25
    0.085579766   2    1000022    25
    0.020095341   2    1000023    23
    0.0090603333   2    1000022    23
    0.0078719023   3    1000024    5   -6
    0.0078719023   3   -1000024   -5    6
    0.003603499   3    1000023    6   -6
    0.0022658605   2    1000015   -15
    0.0022658605   2   -1000015    15
    0.0015402674   3    1000022    6   -6

DECAY 1000021  0.010887571
    0.23215613   3    1000024    5   -6
    0.23215613   3   -1000024   -5    6
    0.14450407   3    1000023    5   -5
    0.090350516   3    1000023    6   -6
    0.040193604   3    1000024    1   -2
    0.040193604   3   -1000024   -1    2
    0.040193395   3    1000024    3   -4
    0.040193395   3   -1000024   -3    4
    0.020207877   3    1000023    2   -2
    0.020207494   3    1000023    4   -4
    0.019999854   3    1000023    3   -3
    0.019999684   3    1000023    1   -1
    0.010641261   3    1000022    3   -3
    0.010641138   3    1000022    1   -1
    0.010497495   3    1000022    5   -5
    0.0097487978   3    1000022    2   -2
    0.0097486021   3    1000022    4   -4
    0.0078360511   3    1000022    6   -6
    0.00044293131   2    1000022    21

DECAY 25  0.0041456435
    0.54579643   2   -5    5
    0.2572856   2   -24    24
    0.070606583   2    21    21
    0.062931938   2   -15    15
    0.032241418   2    23    23
    0.026745086   2   -4    4
    0.0023303491   2    22    22
    0.0016390831   2    22    23
    0.00021826019   2   -13    13
    0.00020454024   2   -3    3
    5.6553058e-07   2   -1    1
    1.3781839e-07   2   -2    2
    4.9067108e-09   2   -11    11

DECAY 35  32.03931
    0.83486241   2   -5    5
    0.16217336   2   -15    15
    0.0021166974   2   -6    6
    0.00056099713   2   -13    13
    0.00025997251   2   -3    3
    1.6819267e-05   2    21    21
    5.910493e-06   2    25    25
    1.9851276e-06   2    23    23
    1.0114894e-06   2   -24    24
    7.1863703e-07   2   -1    1
    5.0768043e-08   2    22    23
    2.9487687e-08   2   -4    4
    2.4325033e-08   2    22    22
    1.2601144e-08   2   -11    11
    1.5203444e-13   2   -2    2

DECAY 36  30.71698
    0.83500826   2   -5    5
    0.16219944   2   -15    15
    0.0019311294   2   -6    6
    0.00056108814   2   -13    13
    0.00026001338   2   -3    3
    3.6457619e-05   2    21    21
    2.8101053e-06   2    23    25
    7.1875003e-07   2   -1    1
    2.6123851e-08   2   -4    4
    2.3173084e-08   2    22    23
    1.9218573e-08   2    22    22
    1.2603228e-08   2   -11    11
    1.3467515e-13   2   -2    2
    2.6548839e-36   2    25    25

DECAY 37  33.556577
    0.8614497   2   -5    6
    0.13653971   2   -15    16
    0.0012783796   2   -5    4
    0.00048271699   2   -13    14
    0.00022304796   2   -3    4
    1.039947e-05   2   -3    2
    9.1289535e-06   2   -5    2
    3.5252735e-06   2   -3    6
    2.5834134e-06   2    24    25
    6.1855465e-07   2   -1    2
    1.4672111e-07   2   -1    6
    3.0110093e-08   2   -1    4
    1.1290801e-08   2   -11    12
    1.6657709e-12   2    24    35
    1.3562808e-12   2    24    36

DECAY 6  2.43
    1   2    5    24

DECAY 15 -1
