BLOCK SPINFO
   1   SPheno
   2   v4.0.5be

BLOCK SPHENOINFO
   1   2
   2   2

BLOCK MODSEL
   1   0

BLOCK MINPAR
   3    57.730197
   4    1

BLOCK EXTPAR
   0    1292.7079
   1    59.000095
   2    1885.2477
   3    3000
   11   -3941.7912
   12    976.54135
   13   -94.167006
   23    106.2134
   25    57.945095
   26    1063.3451
   31    1645.3249
   32    1645.3249
   33    447.01335
   34    225.30241
   35    225.30241
   36    1668.5747
   41    5000
   42    5000
   43    1538.0398
   44    5000
   45    5000
   46    1295.4846
   47    5000
   48    5000
   49    1011.2219

BLOCK SMINPUTS
   1    127.90897
   2    1.1663787e-05
   3    0.1184
   4    91.1876
   5    4.18
   6    173.2
   7    1.777
   8    0
   11    0.00051099893
   12    0
   13    0.10565837
   14    0
   21    0.005
   22    0.0025
   23    0.095
   24    1.27

BLOCK GAUGE Q=  1292.7079
   1    0.35536298
   2    0.66519887
   3    1.219778

BLOCK YU Q=  1292.7079
   1   1    8.3856206e-06
   2   2    0.0042598953
   3   3    1.0130503

BLOCK YD Q=  1292.7079
   1   1    0.0009764098
   2   2    0.018551786
   3   3    0.96829256

BLOCK YE Q=  1292.7079
   1   1    0.00017039065
   2   2    0.035231383
   3   3    0.5925339

BLOCK AU Q=  1292.7079
   1   1    0
   2   2    0
   3   3   -3941.7907

BLOCK AD Q=  1292.7079
   1   1    0
   2   2    0
   3   3    976.54146

BLOCK AE Q=  1292.7079
   1   1    0
   2   2    0
   3   3   -94.167008

BLOCK MSOFT Q=  1292.7079
   1    59.000095
   2    1885.2477
   3    3000
   21    1192022.4
   22    16994.162
   31    1645.3249
   32    1645.3249
   33    447.01335
   34    225.30241
   35    225.30241
   36    1668.5747
   41    5000
   42    5000
   43    1538.0398
   44    5000
   45    5000
   46    1295.4846
   47    5000
   48    5000
   49    1011.2219

BLOCK MASS
   6    173.2
   23    91.1876
   24    80.429995
   15    1.777
   25    121.66217
   35    1062.8102
   36    1063.3451
   37    1068.4172
   1000001    5019.0715
   2000001    5012.5939
   1000002    5018.6448
   2000002    5013.6843
   1000003    5019.0807
   2000003    5012.6107
   1000004    5018.6539
   2000004    5013.6853
   1000005    938.1337
   2000005    1469.0475
   1000006    1063.8767
   2000006    1570.7588
   1000011    1656.6714
   2000011    237.21474
   1000012    1654.4156
   1000013    1656.6549
   2000013    237.08349
   1000014    1654.3991
   1000015    453.16508
   2000015    1661.5519
   1000016    449.2709
   1000021    3178.7227
   1000022    47.956434
   1000023   -117.6963
   1000025    124.28513
   1000035    1922.7247
   1000024    109.95084
   1000037    1922.9015

BLOCK ALPHA
      -0.017719482

BLOCK HMIX Q=  1292.7079
   1    106.2134
   2    57.945095
   3    244.12285
   4    1130702.8

BLOCK STOPMIX
   1   1    0.46843901
   1   2    0.88349584
   2   1   -0.88349584
   2   2    0.46843901

BLOCK SBOTMIX
   1   1    0.0087469307
   1   2    0.99996175
   2   1   -0.99996175
   2   2    0.0087469307

BLOCK STAUMIX
   1   1    0.99999064
   1   2    0.0043275221
   2   1   -0.0043275221
   2   2    0.99999064

BLOCK NMIX
   1   1   -0.87054788
   1   2    0.0089756506
   1   3   -0.44854831
   1   4    0.2021639
   2   1   -0.17852103
   2   2    0.027915906
   2   3    0.67109813
   2   4    0.71901199
   3   1   -0.45855818
   3   2   -0.030116358
   3   3    0.59027306
   3   4   -0.66362272
   4   1    0.0010136886
   4   2   -0.99911618
   4   3   -0.00307129
   4   4    0.041909364

BLOCK UMIX
   1   1   -0.0043494547
   1   2    0.99999054
   2   1    0.99999054
   2   2    0.0043494547

BLOCK VMIX
   1   1   -0.05932425
   1   2    0.99823877
   2   1    0.99823877
   2   2    0.05932425

BLOCK HIGGSBOUNDSINPUTHIGGSCOUPLINGSFERMIONS
       0, 3357.634,3,36,15,15

BLOCK HIGGSBOUNDSINPUTHIGGSCOUPLINGSBOSONS
       0,4,36,21,21,23

BLOCK SPHENOLOWENERGY
   1    0.00024265315
   2    1.6157507e-06
   3    3.532672e-05
   4    1.5857826e-14
   5    6.7716972e-10
   6    1.2695379e-07
   7    5.3100662e-13
   8    2.2676192e-08
   9    4.3229646e-06
   10    8.4178686e-05
   11    0.8695336
   12    0.54248709
   13    19.288786
   14    0
   15    0
   16    0.0021602493
   17    2.2817063e-15
   18    2.4838561e-11
   19    8.300025e-11
   20    4.2310196e-15
   21    1.8051775e-10
   22    1.152333e-07
   23    0
   24    0
   25    0
   26    0
   27    0
   28    0
   29    0
   30    0
   31    0
   39    8.9762237e-05
   40    0
   41    0
   42    0

BLOCK FWCOEF Q=  160
   305   4422   0   0   -0.18881911
   305   4422   0   2   -0.082800231
   305   4322   0   2    0.00022198662
   305   6421   0   0   -0.095227835
   305   6421   0   2   -0.061633145
   305   6321   0   2   -0.00036818415
   3051111   4133   0   0    1.5875701
   3051111   4133   0   2    1.5900256
   3051111   4233   0   2    0.00020174489
   3051111   4137   0   0   -4.4102622
   3051111   4137   0   2   -4.4158944
   3051111   4237   0   2   -0.0015766973
   3051313   4133   0   0    1.5875701
   3051313   4133   0   2    1.5900194
   3051313   4233   0   2    0.00020169259
   3051313   4137   0   0   -4.4102622
   3051313   4137   0   2   -4.4159006
   3051313   4237   0   2   -0.0015766644
   3051212   4137   0   0    1.5053501
   3051212   4137   0   2    1.5065839
   3051212   4237   0   2    0.0003439332
   3051414   4137   0   0    1.5053501
   3051414   4137   0   2    1.5065839
   3051414   4237   0   2    0.00034394328
   3051616   4137   0   0    1.5053501
   3051616   4137   0   2    1.506583
   3051616   4237   0   2    0.00034678236

BLOCK IMFWCOEF Q=  160
   305   4422   0   0    3.858515e-07
   305   4422   0   2    3.5008937e-05
   305   4322   0   2    1.4530658e-05
   305   6421   0   0    3.3050733e-07
   305   6421   0   2   -5.512342e-06
   305   6321   0   2    5.9117371e-06
   3051111   4133   0   2   -1.419906e-07
   3051111   4233   0   2    1.025329e-05
   3051111   4137   0   2    2.7800064e-06
   3051111   4237   0   2   -8.0364773e-05
   3051313   4133   0   2   -1.4203402e-07
   3051313   4233   0   2    1.0253184e-05
   3051313   4137   0   2    2.7799672e-06
   3051313   4237   0   2   -8.0365013e-05
   3051212   4137   0   2   -5.2982153e-07
   3051212   4237   0   2    1.7531455e-05
   3051414   4137   0   2   -5.2982161e-07
   3051414   4237   0   2    1.7531455e-05
   3051616   4137   0   2   -5.4679839e-07
   3051616   4237   0   2    1.75314e-05

DECAY 23  2.4952


DECAY 24  2.085


DECAY 2000011  0.98447396
    0.84407637   2    1000022    11
    0.13399734   2    1000025    11
    0.02192621   2    1000023    11

DECAY 1000011  2.09302
    0.72349792   2    1000022    11
    0.26067905   2    1000025    11
    0.015692367   2    1000023    11
    0.00013065661   2   -1000024    12

DECAY 2000013  0.99099523
    0.8390604   2    1000022    13
    0.13402826   2    1000025    13
    0.023271651   2    1000023    13
    0.0036396941   2   -1000024    14

DECAY 1000013  2.133628
    0.71357236   2    1000022    13
    0.26231965   2    1000025    13
    0.023941438   2    1000023    13
    0.0001281686   2   -1000024    14

DECAY 1000015  3.3477217
    0.37205993   2    1000023    15
    0.31909528   2    1000025    15
    0.30877375   2    1000022    15

DECAY 2000015  31.442352
    0.36585491   2   -1000024    16
    0.27447567   2    1000022    15
    0.18272505   2    1000025    15
    0.17316905   2    1000023    15
    0.0014673504   2    1000016   -24
    0.00072877394   2    1000015    23
    0.00071555974   2    1000015    25
    0.00043038476   2    1000016   -37
    0.00021669774   2    1000015    35
    0.00021654504   2    1000015    36

DECAY 1000012  2.1263479
    0.76826998   2    1000022    12
    0.15631051   2    1000025    12
    0.051526488   2    1000023    12
    0.023893028   2    1000024    11

DECAY 1000014  2.1668175
    0.75391346   2    1000022    14
    0.15338953   2    1000025    14
    0.050563614   2    1000023    14
    0.042133378   2    1000024    13

DECAY 1000016  3.3230494
    0.83803452   2    1000024    15
    0.1306928   2    1000022    16
    0.023426767   2    1000025    16
    0.007845923   2    1000023    16

DECAY 2000001  144.21979
    0.9806027   2    1000021    1
    0.014703116   2    1000022    1
    0.0040754806   2    1000025    1
    0.0006180276   2    1000023    1

DECAY 1000001  191.05388
    0.74375302   2    1000021    1
    0.16835048   2   -1000037    2
    0.084063788   2    1000035    1
    0.0031094119   2    1000022    1
    0.00041196665   2    1000023    1
    0.00030696182   2    1000025    1

DECAY 2000003  144.28994
    0.98013811   2    1000021    3
    0.014743731   2    1000022    3
    0.0041560616   2    1000025    3
    0.00072444344   2    1000023    3
    0.00023763107   2   -1000024    4

DECAY 1000003  191.09104
    0.74361342   2    1000021    3
    0.16831829   2   -1000037    4
    0.084047706   2    1000035    3
    0.0031448885   2    1000022    3
    0.00049256978   2    1000023    3
    0.00036931329   2    1000025    3

DECAY 1000005  33.375588
    0.47443014   2   -1000024    6
    0.22889268   2    1000023    5
    0.17900785   2    1000025    5
    0.11766933   2    1000022    5

DECAY 2000005  103.93323
    0.46037496   2    1000006   -24
    0.27644686   2   -1000024    6
    0.11762614   2    1000023    5
    0.090996748   2    1000025    5
    0.054122127   2    1000022    5
    0.00027586746   2    1000005    25
    0.000157293   2    1000005    23

DECAY 2000002  152.72743
    0.92672192   2    1000021    2
    0.055547914   2    1000022    2
    0.015396318   2    1000025    2
    0.0023337905   2    1000023    2

DECAY 1000002  191.04856
    0.74354112   2    1000021    2
    0.16774176   2    1000037    1
    0.083993345   2    1000035    2
    0.0024657287   2    1000022    2
    0.0014427472   2    1000025    2
    0.00081355914   2    1000024    1

DECAY 2000004  152.73109
    0.92670001   2    1000021    4
    0.05554707   2    1000022    4
    0.015401171   2    1000025    4
    0.0023398516   2    1000023    4

DECAY 1000004  191.08564
    0.74340149   2    1000021    4
    0.16770973   2    1000037    3
    0.083977313   2    1000035    4
    0.0024656421   2    1000022    4
    0.0014466381   2    1000025    4
    0.00099255703   2    1000024    3

DECAY 1000006  43.037309
    0.4989658   2    1000024    5
    0.24942257   2    1000023    6
    0.1837767   2    1000025    6
    0.067557336   2    1000022    6
    0.00017984442   2    1000022    4

DECAY 2000006  112.12583
    0.3034506   2    1000006    23
    0.25519381   2    1000024    5
    0.15002825   2    1000006    25
    0.14011598   2    1000025    6
    0.1353537   2    1000023    6
    0.0082756531   2    2000005    24
    0.0072176923   2    1000022    6
    0.00036429497   2    1000005    24

DECAY 1000024  0.00025961481
    0.33351545   3    1000022   -1    2
    0.33297001   3    1000022   -3    4
    0.11123915   3    1000022   -13    14
    0.11116964   3    1000022   -11    12
    0.11110575   3    1000022   -15    16

DECAY 1000037  50.92334
    0.14824511   2   -1000015    16
    0.14803135   2    1000016   -15
    0.084929638   2    1000023    24
    0.082910303   2    1000024    23
    0.082470324   2    1000024    25
    0.07576744   2   -2000005    6
    0.075593938   2    1000025    24
    0.047146284   2    2000006   -5
    0.039540263   2    1000024    35
    0.039516162   2    1000024    36
    0.036102327   2    1000006   -5
    0.035846902   2    37    1000023
    0.027399347   2    37    1000025
    0.015846695   2    37    1000022
    0.011176126   2    1000014   -13
    0.011174855   2    1000012   -11
    0.011041643   2   -1000013    14
    0.011040371   2   -1000011    12
    0.0054927934   2    1000022    24
    0.0043310131   3    1000024    6   -6
    0.0032582151   3    1000023   -5    6
    0.0029205557   3    1000025   -5    6
    0.00021579379   3    1000022   -5    6

DECAY 1000022 -1


DECAY 1000023  0.00075443136
    0.20361003   3    1000022    12   -12
    0.15248434   3    1000022    5   -5
    0.15191991   3    1000022    1   -1
    0.15191795   3    1000022    3   -3
    0.1184888   3    1000022    2   -2
    0.11810811   3    1000022    4   -4
    0.035450201   3    1000022    15   -15
    0.03230102   3    1000022    13   -13
    0.032274376   3    1000022    11   -11
    0.0031866384   2    1000022    22

DECAY 1000025  0.00012427813
    0.20507476   3    1000022    12   -12
    0.16086261   3    1000022    5   -5
    0.15162498   3    1000022    1   -1
    0.15162347   3    1000022    3   -3
    0.11829145   3    1000022    2   -2
    0.11796781   3    1000022    4   -4
    0.03675958   3    1000022    15   -15
    0.023612283   3    1000022    13   -13
    0.023510813   3    1000022    11   -11
    0.0015612719   3    1000024    1   -2
    0.0015612719   3   -1000024   -1    2
    0.0015022501   3    1000024    3   -4
    0.0015022501   3   -1000024   -3    4
    0.0011704663   2    1000022    22
    0.00052040392   3    1000024    13   -14
    0.00052040392   3   -1000024   -13    14
    0.00052040367   3    1000024    11   -12
    0.00052040367   3   -1000024   -11    12
    0.00048364218   3    1000024    15   -16
    0.00048364218   3   -1000024   -15    16
    0.00013452126   2    1000023    22

DECAY 1000035  51.428529
    0.082515565   2    1000024   -24
    0.082515565   2   -1000024    24
    0.073488808   2    1000016   -16
    0.073488808   2   -1000016    16
    0.073178416   2    1000015   -15
    0.073178416   2   -1000015    15
    0.048229149   2    1000023    23
    0.045094477   2    1000023    25
    0.042964522   2    1000025    25
    0.042700817   2    2000005   -5
    0.042700817   2   -2000005    5
    0.03880967   2    37   -1000024
    0.03880967   2   -37    1000024
    0.031413779   2    1000025    23
    0.021700566   2    1000023    35
    0.019053351   2    2000006   -6
    0.019053351   2   -2000006    6
    0.016942797   2    1000006   -6
    0.016942797   2   -1000006    6
    0.015663765   2    1000025    35
    0.014120808   2    1000023    36
    0.011653686   2    1000025    36
    0.0083635525   2    1000022    35
    0.0074463368   2    1000022    36
    0.0055425885   2    1000014   -14
    0.0055425885   2   -1000014    14
    0.0055419565   2    1000012   -12
    0.0055419565   2   -1000012    12
    0.0054448455   2    1000013   -13
    0.0054448455   2   -1000013    13
    0.0054442189   2    1000011   -11
    0.0054442189   2   -1000011    11
    0.0031880092   3    1000024    5   -6
    0.0031880092   3   -1000024   -5    6
    0.0030978405   2    1000022    25
    0.0023632529   2    1000022    23
    0.0021342374   3    1000023    6   -6
    0.0019038199   3    1000025    6   -6
    0.00014144007   3    1000022    6   -6

DECAY 1000021  269.05631
    0.14571169   2    1000005   -5
    0.14571169   2   -1000005    5
    0.12380874   2    1000006   -6
    0.12380874   2   -1000006    6
    0.11147228   2    2000006   -6
    0.11147228   2   -2000006    6
    0.1081439   2    2000005   -5
    0.1081439   2   -2000005    5
    0.010728012   2    1000006   -4
    0.010728012   2   -1000006    4

DECAY 25  0.006045794
    0.40894814   2    1000022    1000022
    0.37313562   2   -5    5
    0.1019546   2   -24    24
    0.04285801   2   -15    15
    0.041513817   2    21    21
    0.017707355   2   -4    4
    0.011538761   2    23    23
    0.001348161   2    22    22
    0.00070556174   2    22    23
    0.00014912686   2   -13    13
    0.0001403586   2   -3    3
    3.8807658e-07   2   -1    1
    9.125624e-08   2   -2    2
    3.3525649e-09   2   -11    11

DECAY 35  55.587747
    0.83665539   2   -5    5
    0.13989367   2   -15    15
    0.0070081149   2    1000022    1000022
    0.0055546007   2    1000022    1000023
    0.0037435147   2    1000023    1000025
    0.0023050405   2    1000025    1000025
    0.002219039   2    1000022    1000025
    0.0010364317   2    1000023    1000023
    0.00053619024   2   -1000024    1000024
    0.00046796116   2   -13    13
    0.00030284698   2   -3    3
    0.00021670859   2   -6    6
    5.1608865e-05   2    21    21
    5.866157e-06   2    25    25
    9.2994352e-07   2   -24    24
    8.3726085e-07   2   -1    1
    7.4278708e-07   2    23    23
    8.1534182e-08   2   -1000011    1000011
    7.9916756e-08   2   -1000013    1000013
    4.2601044e-08   2   -1000015    1000015
    2.4711466e-08   2    22    22
    1.653109e-08   2    22    23
    1.0513494e-08   2   -11    11
    3.6262049e-09   2   -4    4
    1.8699005e-14   2   -2    2

DECAY 36  52.487371
    0.83545361   2   -5    5
    0.13969956   2   -15    15
    0.0077360445   2    1000022    1000022
    0.0052345812   2    1000022    1000023
    0.0036837232   2    1000023    1000025
    0.0027879109   2    1000025    1000025
    0.0026687185   2    1000022    1000025
    0.0010674758   2    1000023    1000023
    0.00059471427   2   -1000024    1000024
    0.00046730375   2   -13    13
    0.00030240109   2   -3    3
    0.00023270234   2   -6    6
    6.9153712e-05   2    21    21
    1.1255991e-06   2    23    25
    8.3602801e-07   2   -1    1
    8.4526308e-08   2    22    22
    4.5596678e-08   2    22    23
    1.049873e-08   2   -11    11
    3.4533185e-09   2   -4    4
    1.7807278e-14   2   -2    2
    1.2820768e-39   2    25    25

DECAY 37  53.116193
    0.84070374   2   -5    6
    0.13406429   2   -15    16
    0.016775776   2    1000022    1000024
    0.0060764068   2    1000024    1000025
    0.0012893252   2   -5    4
    0.00047396741   2   -13    14
    0.00030257997   2    1000023    1000024
    0.00028855781   2   -3    4
    1.3341844e-05   2   -3    2
    9.2071351e-06   2   -5    2
    1.1347216e-06   2    24    25
    8.0051134e-07   2   -1    2
    7.6736611e-07   2   -3    6
    4.1365864e-08   2   -1000015    1000016
    3.7064625e-08   2   -1    4
    1.6732314e-08   2   -1    6
    1.1086147e-08   2   -11    12
    1.4138615e-10   2    24    35
    8.5662312e-11   2    24    36

DECAY 6  2.43
    1   2    5    24

DECAY 15 -1
