BLOCK SPINFO
   1   SPheno
   2   v4.0.5be

BLOCK SPHENOINFO
   1   2
   2   2

BLOCK MODSEL
   1   0

BLOCK MINPAR
   3    31.422615
   4    1

BLOCK EXTPAR
   0    2054.8565
   1    2604.3317
   2    468.09905
   3    4775.9721
   11    5134.1059
   12   -7626.0992
   13   -4862.8717
   23    253.85527
   25    30.329771
   26    4775.0003
   31    3877.0069
   32    3877.0069
   33    1114.5734
   34    2254.8346
   35    2254.8346
   36    3087.1437
   41    4520.6
   42    4520.6
   43    1185.743
   44    4238.5432
   45    4238.5432
   46    3944.5754
   47    3994.3972
   48    3994.3972
   49    4766.7984

BLOCK SMINPUTS
   1    127.90897
   2    1.1663787e-05
   3    0.1184
   4    91.1876
   5    4.18
   6    173.2
   7    1.777
   8    0
   11    0.00051099893
   12    0
   13    0.10565837
   14    0
   21    0.005
   22    0.0025
   23    0.095
   24    1.27

BLOCK GAUGE Q=  2054.8565
   1    0.35536298
   2    0.66519887
   3    1.219778

BLOCK YU Q=  2054.8565
   1   1    8.3889281e-06
   2   2    0.0042615755
   3   3    1.0134499

BLOCK YD Q=  2054.8565
   1   1    0.00051127653
   2   2    0.0097142541
   3   3    0.50702611

BLOCK YE Q=  2054.8565
   1   1    8.9221494e-05
   2   2    0.018448175
   3   3    0.31026796

BLOCK AU Q=  2054.8565
   1   1    0
   2   2    0
   3   3    5134.106

BLOCK AD Q=  2054.8565
   1   1    0
   2   2    0
   3   3   -7626.1

BLOCK AE Q=  2054.8565
   1   1    0
   2   2    0
   3   3   -4862.8718

BLOCK MSOFT Q=  2054.8565
   1    2604.3317
   2    468.09905
   3    4775.9721
   21    22628460
   22   -180128.09
   31    3877.0069
   32    3877.0069
   33    1114.5734
   34    2254.8346
   35    2254.8346
   36    3087.1437
   41    4520.6
   42    4520.6
   43    1185.743
   44    4238.5432
   45    4238.5432
   46    3944.5754
   47    3994.3972
   48    3994.3972
   49    4766.7984

BLOCK MASS
   6    173.2
   23    91.1876
   24    80.429995
   15    1.777
   25    126.87088
   35    4773.1817
   36    4775.0003
   37    4774.1817
   1000001    4572.0583
   2000001    4031.1413
   1000002    4571.5104
   2000002    4281.697
   1000003    4572.0585
   2000003    4031.1424
   1000004    4571.5106
   2000004    4281.697
   1000005    1086.8951
   2000005    4808.9228
   1000006    1074.0605
   2000006    3931.2823
   1000011    3886.572
   2000011    2259.0766
   1000012    3885.354
   1000013    3886.5707
   2000013    2259.0824
   1000014    3885.3548
   1000015    1135.2656
   2000015    3092.2087
   1000016    1132.1187
   1000021    4812.9456
   1000022    251.26883
   1000023   -269.30298
   1000025    515.45832
   1000035    2604.1353
   1000024    255.36701
   1000037    515.86131

BLOCK ALPHA
      -0.031849334

BLOCK HMIX Q=  2054.8565
   1    253.85527
   2    30.329771
   3    243.57281
   4    22800628

BLOCK STOPMIX
   1   1   -0.99848848
   1   2    0.054961377
   2   1   -0.054961377
   2   2   -0.99848848

BLOCK SBOTMIX
   1   1    0.99999896
   1   2    0.0014395373
   2   1   -0.0014395373
   2   2    0.99999896

BLOCK STAUMIX
   1   1    0.99999635
   1   2    0.0027033874
   2   1   -0.0027033874
   2   2    0.99999635

BLOCK NMIX
   1   1    0.012695458
   1   2   -0.22792616
   1   3    0.70574046
   1   4   -0.67068538
   2   1    0.010300586
   2   2   -0.073286975
   2   3   -0.69941646
   2   4   -0.71087237
   3   1    0.0044498864
   3   2    0.97091618
   3   3    0.11288007
   3   4   -0.21109253
   4   1    0.99985645
   4   2   -0.0006720373
   4   3   -0.002257927
   4   4    0.016778807

BLOCK UMIX
   1   1   -0.16205699
   1   2    0.9867814
   2   1    0.9867814
   2   2    0.16205699

BLOCK VMIX
   1   1   -0.30340847
   1   2    0.95286059
   2   1    0.95286059
   2   2    0.30340847

BLOCK HIGGSBOUNDSINPUTHIGGSCOUPLINGSFERMIONS
       0, 919.89503,3,36,15,15

BLOCK HIGGSBOUNDSINPUTHIGGSCOUPLINGSBOSONS
       0,4,36,21,21,23

BLOCK SPHENOLOWENERGY
   1    0.00032998033
   2    1.5887999e-06
   3    3.5244866e-05
   4    2.5110181e-15
   5    1.0726801e-10
   6    2.2465971e-08
   7    8.4299067e-14
   8    3.6012591e-09
   9    7.6421533e-07
   10    9.6542663e-05
   11    0.99724874
   12    0.54196483
   13    19.363675
   14    0
   15    0
   16    0.0021573577
   17    2.2816588e-15
   18    2.4795779e-11
   19    8.2893486e-11
   20    1.2111833e-15
   21    5.1781292e-11
   22    8.9962932e-08
   23    0
   24    0
   25    0
   26    0
   27    0
   28    0
   29    0
   30    0
   31    0
   39    6.9500151e-05
   40    0
   41    0
   42    0

BLOCK FWCOEF Q=  160
   305   4422   0   0   -0.18881911
   305   4422   0   2   -0.20005997
   305   4322   0   2   -0.00012704899
   305   6421   0   0   -0.095227835
   305   6421   0   2   -0.10339971
   305   6321   0   2   -0.00011203373
   3051111   4133   0   0    1.6032407
   3051111   4133   0   2    1.6035362
   3051111   4233   0   2    0.00021960453
   3051111   4137   0   0   -4.4259328
   3051111   4137   0   2   -4.4235339
   3051111   4237   0   2   -0.0016819109
   3051313   4133   0   0    1.6032407
   3051313   4133   0   2    1.603536
   3051313   4233   0   2    0.00021960428
   3051313   4137   0   0   -4.4259328
   3051313   4137   0   2   -4.4235341
   3051313   4237   0   2   -0.0016819114
   3051212   4137   0   0    1.5053501
   3051212   4137   0   2    1.5048371
   3051212   4237   0   2    0.00036561926
   3051414   4137   0   0    1.5053501
   3051414   4137   0   2    1.5048371
   3051414   4237   0   2    0.00036561926
   3051616   4137   0   0    1.5053501
   3051616   4137   0   2    1.5048397
   3051616   4237   0   2    0.00036562046

BLOCK IMFWCOEF Q=  160
   305   4422   0   0    3.8579957e-07
   305   4422   0   2    1.8482536e-05
   305   4322   0   2   -1.2257413e-06
   305   6421   0   0    3.3046284e-07
   305   6421   0   2    8.3835255e-07
   305   6321   0   2   -6.0655581e-07
   3051111   4133   0   2    7.1901552e-07
   3051111   4233   0   2    4.1198525e-06
   3051111   4137   0   2    3.6220294e-06
   3051111   4237   0   2   -3.1554012e-05
   3051313   4133   0   2    7.1900416e-07
   3051313   4233   0   2    4.1198486e-06
   3051313   4137   0   2    3.6220415e-06
   3051313   4237   0   2   -3.1554021e-05
   3051212   4137   0   2   -6.3335938e-07
   3051212   4237   0   2    6.8593136e-06
   3051414   4137   0   2   -6.3335893e-07
   3051414   4237   0   2    6.8593136e-06
   3051616   4137   0   2   -5.8738977e-07
   3051616   4237   0   2    6.8593127e-06

DECAY 23  2.4952


DECAY 24  2.085


DECAY 2000011  0.0031575626
    0.56521016   2    1000022    11
    0.37071359   2    1000023    11
    0.06396605   2    1000025    11
    0.0001075275   2   -1000024    12

DECAY 1000011  51.068538
    0.62957869   2   -1000037    12
    0.3062598   2    1000025    11
    0.028948672   2    1000035    11
    0.017443115   2   -1000024    12
    0.016245342   2    1000022    11
    0.0015243848   2    1000023    11

DECAY 2000013  0.032910909
    0.44106303   2   -1000024    14
    0.28001136   2    1000022    13
    0.25650148   2    1000023    13
    0.011458083   2    1000025    13
    0.010966037   2   -1000037    14

DECAY 1000013  51.094626
    0.62925701   2   -1000037    14
    0.30610968   2    1000025    13
    0.028933851   2    1000035    13
    0.017434203   2   -1000024    14
    0.0164914   2    1000022    13
    0.0017731331   2    1000023    13

DECAY 1000015  11.534755
    0.53100733   2   -1000037    16
    0.26008811   2    1000025    15
    0.10424194   2    1000022    15
    0.083836986   2    1000023    15
    0.020825639   2   -1000024    16

DECAY 2000015  13.174743
    0.43092139   2   -1000024    16
    0.22052039   2    1000022    15
    0.2168897   2    1000023    15
    0.099676044   2    1000035    15
    0.011958381   2   -1000037    16
    0.0072244011   2    1000016   -24
    0.0058230465   2    1000025    15
    0.0035996503   2    1000015    23
    0.0033870027   2    1000015    25

DECAY 1000012  51.096435
    0.58652127   2    1000037    11
    0.30300764   2    1000025    12
    0.061089749   2    1000024    11
    0.029040035   2    1000035    12
    0.018283523   2    1000022    12
    0.002057784   2    1000023    12

DECAY 1000014  51.122508
    0.58623535   2    1000037    13
    0.30285317   2    1000025    14
    0.061555303   2    1000024    13
    0.029025248   2    1000035    14
    0.018274202   2    1000022    14
    0.0020567349   2    1000023    14

DECAY 1000016  11.657969
    0.4905303   2    1000037    15
    0.2519545   2    1000025    16
    0.23386956   2    1000024    15
    0.021283984   2    1000022    16
    0.0023616618   2    1000023    16

DECAY 2000001  0.76455732
    0.99910894   2    1000035    1
    0.00048430575   2    1000022    1
    0.00032283565   2    1000023    1

DECAY 1000001  59.177149
    0.64551199   2   -1000037    2
    0.3119638   2    1000025    1
    0.01791016   2    1000022    1
    0.017750578   2   -1000024    2
    0.0049575234   2    1000035    1
    0.0019059526   2    1000023    1

DECAY 2000003  0.77952157
    0.97993038   2    1000035    3
    0.0093777398   2   -1000024    4
    0.0052596703   2    1000022    3
    0.0050105246   2    1000023    3
    0.00024668496   2   -1000037    4
    0.00017500402   2    1000025    3

DECAY 1000003  59.187296
    0.64540391   2   -1000037    4
    0.31191214   2    1000025    3
    0.017978674   2    1000022    3
    0.017772668   2   -1000024    4
    0.0049566747   2    1000035    3
    0.0019758858   2    1000023    3

DECAY 1000005  31.980956
    0.52812492   2   -1000024    6
    0.22560007   2   -1000037    6
    0.085976264   2    1000025    5
    0.0846415   2    1000022    5
    0.075657242   2    1000023    5

DECAY 2000005  50.493266
    0.47011148   2   -1000024    6
    0.24107324   2    1000022    5
    0.23685872   2    1000023    5
    0.026553928   2    1000035    5
    0.012755907   2   -1000037    6
    0.0062053763   2    1000025    5
    0.0026528632   2    1000006   -24
    0.0024631138   2    1000005    25
    0.0013250406   2    1000005    23

DECAY 2000002  3.7977873
    0.99928355   2    1000035    2
    0.00040300305   2    1000022    2
    0.00026502663   2    1000023    2

DECAY 1000002  59.224135
    0.60134224   2    1000037    1
    0.31269617   2    1000025    2
    0.062163817   2    1000024    1
    0.017197536   2    1000022    2
    0.0048776548   2    1000035    2
    0.0017225908   2    1000023    2

DECAY 2000004  3.8008528
    0.99847738   2    1000035    4
    0.00058447829   2    1000022    4
    0.00046884696   2    1000023    4
    0.00036691794   2    1000024    3

DECAY 1000004  59.234277
    0.60124304   2    1000037    3
    0.31264388   2    1000025    4
    0.06229296   2    1000024    3
    0.017207025   2    1000022    4
    0.0048768177   2    1000035    4
    0.0017362776   2    1000023    4

DECAY 1000006  31.688388
    0.28878909   2    1000023    6
    0.25970388   2    1000022    6
    0.17139511   2    1000037    5
    0.16283798   2    1000024    5
    0.11173917   2    1000025    6
    0.0032766542   2    1000022    4
    0.0019352456   3    1000022    24    5
    0.00032287   2    1000023    4

DECAY 2000006  371.1296
    0.26464812   2    1000005    24
    0.19892596   2    1000024    5
    0.16774879   2    1000006    25
    0.13263659   2    1000006    23
    0.10846219   2    1000023    6
    0.097846396   2    1000022    6
    0.015083559   2    1000037    5
    0.0074220987   2    1000035    6
    0.0072262938   2    1000025    6

DECAY 1000024  1.4291624e-09
    0.41151855   3    1000022   -1    2
    0.25923758   3    1000022   -3    4
    0.13717456   3    1000022   -11    12
    0.13672065   3    1000022   -13    14
    0.055348665   3    1000022   -15    16

DECAY 1000037  3.8631698
    0.30984895   2    1000023    24
    0.25248519   2    1000022    24
    0.24475875   2    1000024    23
    0.19255962   2    1000024    25
    0.00020802307   3    1000022   -5    6
    0.00013589906   3    1000023   -5    6

DECAY 1000022 -1


DECAY 1000023  1.025067e-05
    0.11614313   3    1000022    12   -12
    0.089943254   2    1000022    22
    0.08684204   3    1000022    1   -1
    0.086814452   3    1000022    3   -3
    0.067730578   3    1000022    2   -2
    0.065917722   3    1000024    1   -2
    0.065917722   3   -1000024   -1    2
    0.063433371   3    1000022    4   -4
    0.063303216   3    1000024    3   -4
    0.063303216   3   -1000024   -3    4
    0.045868091   3    1000022    5   -5
    0.021972633   3    1000024    11   -12
    0.021972633   3   -1000024   -11    12
    0.021966459   3    1000024    13   -14
    0.021966459   3   -1000024   -13    14
    0.020325709   3    1000024    15   -16
    0.020325709   3   -1000024   -15    16
    0.019597737   3    1000022    11   -11
    0.019587956   3    1000022    13   -13
    0.017067916   3    1000022    15   -15

DECAY 1000025  4.5744342
    0.23811522   2    1000023    23
    0.23050261   2    1000024   -24
    0.23050261   2   -1000024    24
    0.14526997   2    1000023    25
    0.1355763   2    1000022    25
    0.019680536   2    1000022    23
    0.00016154129   3    1000024    5   -6
    0.00016154129   3   -1000024   -5    6

DECAY 1000035  14.833856
    0.098651744   2    1000024   -24
    0.098651744   2   -1000024    24
    0.072683439   2    1000016   -16
    0.072683439   2   -1000016    16
    0.072131449   2    1000015   -15
    0.072131449   2   -1000015    15
    0.071598914   2    1000023    23
    0.062320023   2    1000023    25
    0.061565965   2    1000022    25
    0.036773414   2    1000022    23
    0.032280936   2    1000006   -6
    0.032280936   2   -1000006    6
    0.02699837   2    2000011   -11
    0.02699837   2   -2000011    11
    0.02699752   2    2000013   -13
    0.02699752   2   -2000013    13
    0.02524617   2    1000005   -5
    0.02524617   2   -1000005    5
    0.013518867   2    1000037   -24
    0.013518867   2   -1000037    24
    0.0091125584   2    1000025    25
    0.0045106574   3    1000024    5   -6
    0.0045106574   3   -1000024   -5    6
    0.0038876088   2    1000025    23
    0.0035966681   3    1000023    6   -6
    0.0032421287   3    1000022    6   -6
    0.00060244997   3    1000037    5   -6
    0.00060244997   3   -1000037   -5    6
    0.00041779052   3    1000025    6   -6

DECAY 1000021  378.46853
    0.1713168   2    1000006   -6
    0.1713168   2   -1000006    6
    0.16950199   2    1000005   -5
    0.16950199   2   -1000005    5
    0.082021988   2    1000006   -4
    0.082021988   2   -1000006    4
    0.020031409   2    2000006   -6
    0.020031409   2   -2000006    6
    0.016768768   2    2000001   -1
    0.016768768   2   -2000001    1
    0.016768727   2    2000003   -3
    0.016768727   2   -2000003    3
    0.0081877759   2    2000002   -2
    0.0081877759   2   -2000002    2
    0.0081877551   2    2000004   -4
    0.0081877551   2   -2000004    4
    0.001800606   2    1000002   -2
    0.001800606   2   -1000002    2
    0.0018005786   2    1000004   -4
    0.0018005786   2   -1000004    4
    0.0017926514   2    1000001   -1
    0.0017926514   2   -1000001    1
    0.001792648   2    1000003   -3
    0.001792648   2   -1000003    3

DECAY 25  0.0041400802
    0.54273947   2   -5    5
    0.25987818   2   -24    24
    0.07075651   2    21    21
    0.062685252   2   -15    15
    0.032618368   2    23    23
    0.026895592   2   -4    4
    0.0023490114   2    22    22
    0.0016557348   2    22    23
    0.00021724884   2   -13    13
    0.0002039212   2   -3    3
    5.6382086e-07   2   -1    1
    1.3859398e-07   2   -2    2
    4.8839731e-09   2   -11    11

DECAY 35  119.50652
    0.38075579   2   -5    5
    0.14038396   2   -1000024    1000037
    0.14038396   2   -1000037    1000024
    0.080855919   2   -15    15
    0.079906076   2    1000023    1000025
    0.062884197   2    1000022    1000025
    0.030915601   2   -1000024    1000024
    0.01760654   2   -2000015    1000015
    0.01760654   2   -1000015    2000015
    0.012899288   2    1000023    1000035
    0.0098630919   2    1000022    1000035
    0.0092693793   2    1000022    1000022
    0.0073281733   2   -1000037    1000037
    0.0037011501   2    1000025    1000025
    0.0024537755   2    1000022    1000023
    0.0013347554   2   -6    6
    0.0011158936   2    1000023    1000023
    0.00027495176   2   -13    13
    0.00025379039   2    1000025    1000035
    0.00015031433   2   -3    3
    4.8259734e-05   2   -1000006    1000006
    3.7577036e-06   2   -1000005    1000005
    1.4314313e-06   2    21    21
    1.3487585e-06   2    25    25
    1.2364121e-06   2   -1000015    1000015
    4.1557843e-07   2   -1    1
    1.4693654e-07   2    23    23
    3.9472977e-08   2    22    23
    2.5509285e-08   2   -24    24
    1.932573e-08   2   -4    4
    1.3016584e-08   2    22    22
    1.0100987e-08   2   -1000011    1000011
    1.004059e-08   2   -1000013    1000013
    6.174315e-09   2   -11    11
    9.9618725e-14   2   -2    2

DECAY 36  115.84743
    0.36670534   2   -5    5
    0.14234481   2   -1000024    1000037
    0.14234481   2   -1000037    1000024
    0.077874109   2   -15    15
    0.074333081   2    1000022    1000025
    0.071194866   2    1000023    1000025
    0.034456634   2   -1000024    1000024
    0.018181689   2   -2000015    1000015
    0.018181689   2   -1000015    2000015
    0.01341578   2    1000022    1000035
    0.010898258   2    1000022    1000022
    0.010074098   2   -1000037    1000037
    0.0098819526   2    1000023    1000035
    0.0050378515   2    1000025    1000025
    0.0019410805   2    1000022    1000023
    0.0012259364   2   -6    6
    0.001023372   2    1000023    1000023
    0.00046926678   2    1000025    1000035
    0.00026481164   2   -13    13
    0.00014476291   2   -3    3
    4.8719266e-06   2    21    21
    4.0023436e-07   2   -1    1
    3.952858e-07   2    23    25
    7.2474985e-08   2    22    23
    4.3286795e-08   2    22    22
    1.7649159e-08   2   -4    4
    5.9467024e-09   2   -11    11
    1.8868072e-13   2    23    35
    9.0978842e-14   2   -2    2
    1.9303232e-40   2    25    25

DECAY 37  118.7788
    0.37982608   2   -5    6
    0.16788236   2    1000022    1000037
    0.1555371   2    1000024    1000025
    0.14776632   2    1000023    1000037
    0.079367019   2   -15    16
    0.035521921   2   -2000015    1000016
    0.022327732   2    1000024    1000035
    0.0094785577   2    1000023    1000024
    0.0007330899   2    1000035    1000037
    0.00056169908   2   -5    4
    0.00054137833   2    1000022    1000024
    0.00028059063   2   -13    14
    0.00013961107   2   -3    4
    2.1533521e-05   2   -1000005    1000006
    6.571554e-06   2   -3    2
    4.0111101e-06   2   -5    2
    2.3910312e-06   2   -3    6
    1.1054345e-06   2   -1000015    1000016
    3.87364e-07   2   -1    2
    3.8542603e-07   2    24    25
    1.0009717e-07   2   -1    6
    2.935549e-08   2    1000025    1000037
    1.909369e-08   2   -1    4
    6.563044e-09   2   -11    12
    1.1465881e-14   2    24    35

DECAY 6  2.43
    1   2    5    24

DECAY 15 -1
