# SUSY Les Houches Accord 2 - MSSM spectrum + Decays
# SPheno v4.0.5be
# W. Porod, Comput. Phys. Commun. 153 (2003) 275-315, hep-ph/0301101;
# W. Porod, F.~Staub, Comput. Phys. Commun. 183 (2012) 2458
#                     arXiv:1104.1573 [hep-ph] 
# in case of problems send email to porod@physik.uni-wuerzburg.de
# Created: 20.12.2022,  16:22
Block SPINFO         # Program information
     1   SPheno      # spectrum calculator
     2   v4.0.5be    # version number
#
Block SPhenoINFO     # SPheno specific information
    1      2         # using 2-loop RGEs
    2      2         # using pole masses for boundary conditions at mZ
Block MODSEL  # Model selection
    1    0    # general MSSM
Block MINPAR  # Input parameters
    3    3.19715231E+01  # tanb at m_Z    
    4   -1.00000000E+00  # Sign(mu)
Block EXTPAR  # non-universal input parameters
    0    3.59015625E+03  # scale for input parameters
    1   -4.91467079E+00  # M_1
    2    1.60778400E+03  # M_2
    3    3.85705697E+03  # M_3
   11   -2.50906869E+03  # A_t
   12    1.08696955E+02  # A_b
   13   -1.81019920E+03  # A_tau
   23   -3.84170369E+02  # mu
   25    3.08946926E+01  # tan(beta)
   26    1.96493219E+03  # m_A, pole mass
   31    1.00000000E+04  # M_L11
   32    1.00000000E+04  # M_L22
   33    1.00000000E+04  # M_L33
   34    1.00000000E+04  # M_E11
   35    1.00000000E+04  # M_E22
   36    1.00000000E+04  # M_E33
   41    1.00000000E+04  # M_Q11
   42    1.00000000E+04  # M_Q22
   43    3.20049651E+03  # M_Q33
   44    1.00000000E+04  # M_U11
   45    1.00000000E+04  # M_U22
   46    3.81223348E+03  # M_U33
   47    1.00000000E+04  # M_D11
   48    1.00000000E+04  # M_D22
   49    2.38565529E+03  # M_D33
Block SMINPUTS  # SM parameters
         1     1.27908970E+02  # alpha_em^-1(MZ)^MSbar
         2     1.16637870E-05  # G_mu [GeV^-2]
         3     1.18400000E-01  # alpha_s(MZ)^MSbar
         4     9.11876000E+01  # m_Z(pole)
         5     4.18000000E+00  # m_b(m_b), MSbar
         6     1.73200000E+02  # m_t(pole)
         7     1.77700000E+00  # m_tau(pole)
         8     0.00000000E+00  # m_nu_3
        11     5.10998930E-04  # m_e(pole)
        12     0.00000000E+00  # m_nu_1
        13     1.05658372E-01  # m_muon(pole)
        14     0.00000000E+00  # m_nu_2
        21     5.00000000E-03  # m_d(2 GeV), MSbar
        22     2.50000000E-03  # m_u(2 GeV), MSbar
        23     9.50000000E-02  # m_s(2 GeV), MSbar
        24     1.27000000E+00  # m_c(m_c), MSbar
Block gauge Q=  3.59015625E+03  # (SUSY scale)
   1    3.55362975E-01  # g'(Q)^DRbar
   2    6.65198874E-01  # g(Q)^DRbar
   3    1.21977796E+00  # g3(Q)^DRbar
Block Yu Q=  3.59015625E+03  # (SUSY scale)
  1  1     8.38876309E-06   # Y_u(Q)^DRbar
  2  2     4.26149165E-03   # Y_c(Q)^DRbar
  3  3     1.01342996E+00   # Y_t(Q)^DRbar
Block Yd Q=  3.59015625E+03  # (SUSY scale)
  1  1     5.20789303E-04   # Y_d(Q)^DRbar
  2  2     9.89499676E-03   # Y_s(Q)^DRbar
  3  3     5.16459797E-01   # Y_b(Q)^DRbar
Block Ye Q=  3.59015625E+03  # (SUSY scale)
  1  1     9.08815417E-05   # Y_e(Q)^DRbar
  2  2     1.87914204E-02   # Y_mu(Q)^DRbar
  3  3     3.16040778E-01   # Y_tau(Q)^DRbar
Block Au Q=  3.59015625E+03  # (SUSY scale)
  1  1     0.00000000E+00   # A_u(Q)^DRbar
  2  2     0.00000000E+00   # A_c(Q)^DRbar
  3  3    -2.50906955E+03   # A_t(Q)^DRbar
Block Ad Q=  3.59015625E+03  # (SUSY scale)
  1  1     0.00000000E+00   # A_d(Q)^DRbar
  2  2     0.00000000E+00   # A_s(Q)^DRbar
  3  3     1.08696957E+02   # A_b(Q)^DRbar
Block Ae Q=  3.59015625E+03  # (SUSY scale)
  1  1     0.00000000E+00   # A_e(Q)^DRbar
  2  2     0.00000000E+00   # A_mu(Q)^DRbar
  3  3    -1.81019900E+03   # A_tau(Q)^DRbar
Block MSOFT Q=  3.59015625E+03  # soft SUSY breaking masses at Q
   1   -4.91467079E+00  # M_1
   2    1.60778400E+03  # M_2
   3    3.85705697E+03  # M_3
  21    3.62782990E+06  # M^2_(H,d)
  22    1.00966319E+05  # M^2_(H,u)
  31    1.00000000E+04  # M_(L,11)
  32    1.00000000E+04  # M_(L,22)
  33    1.00000000E+04  # M_(L,33)
  34    1.00000000E+04  # M_(E,11)
  35    1.00000000E+04  # M_(E,22)
  36    1.00000000E+04  # M_(E,33)
  41    1.00000000E+04  # M_(Q,11)
  42    1.00000000E+04  # M_(Q,22)
  43    3.20049651E+03  # M_(Q,33)
  44    1.00000000E+04  # M_(U,11)
  45    1.00000000E+04  # M_(U,22)
  46    3.81223348E+03  # M_(U,33)
  47    1.00000000E+04  # M_(D,11)
  48    1.00000000E+04  # M_(D,22)
  49    2.38565529E+03  # M_(D,33)
Block MASS  # Mass spectrum
#   PDG code      mass          particle
         6     1.73200000E+02  # m_t(pole)
        23     9.11876000E+01  # m_Z(pole)
        24     8.04299946E+01  # W+
        15     1.77700000E+00  # m_tau(pole)
        25     1.22041614E+02  # h0
        35     1.96491389E+03  # H0
        36     1.96493219E+03  # A0
        37     1.96812654E+03  # H+
   1000001     1.00970424E+04  # ~d_L
   2000001     1.00736078E+04  # ~d_R
   1000002     1.00966749E+04  # ~u_L
   2000002     1.00766017E+04  # ~u_R
   1000003     1.00970454E+04  # ~s_L
   2000003     1.00736126E+04  # ~s_R
   1000004     1.00966779E+04  # ~c_L
   2000004     1.00766027E+04  # ~c_R
   1000005     2.52928650E+03  # ~b_1
   2000005     3.32059409E+03  # ~b_2
   1000006     3.31765387E+03  # ~t_1
   2000006     3.88504118E+03  # ~t_2
   1000011     1.00201905E+04  # ~e_L-
   2000011     1.00090094E+04  # ~e_R-
   1000012     1.00194261E+04  # ~nu_eL
   1000013     1.00202036E+04  # ~mu_L-
   2000013     1.00090340E+04  # ~mu_R-
   1000014     1.00194389E+04  # ~nu_muL
   1000015     1.00161112E+04  # ~tau_1-
   2000015     1.00239847E+04  # ~tau_2-
   1000016     1.00231146E+04  # ~nu_tauL
   1000021     4.29983779E+03  # ~g
   1000022     4.50424714E+00  # ~chi_10
   1000023     3.93468792E+02  # ~chi_20
   1000025     3.97793659E+02  # ~chi_30
   1000035     1.71020160E+03  # ~chi_40
   1000024     3.92699967E+02  # ~chi_1+
   1000037     1.71016834E+03  # ~chi_2+
# Higgs mixing
Block alpha # Effective Higgs mixing angle
          -3.14460463E-02   # alpha
Block Hmix Q=  3.59015625E+03  # Higgs mixing parameters
   1   -3.84170369E+02  # mu
   2    3.08946926E+01  # tan[beta](Q)
   3    2.43072044E+02  # v(Q)
   4    3.86095851E+06  # m^2_A(Q)
Block stopmix # stop mixing matrix
   1  1     9.95928352E-01   # Re[R_st(1,1)]
   1  2     9.01483108E-02   # Re[R_st(1,2)]
   2  1    -9.01483108E-02   # Re[R_st(2,1)]
   2  2     9.95928352E-01   # Re[R_st(2,2)]
Block sbotmix # sbottom mixing matrix
   1  1    -6.00489673E-03   # Re[R_sb(1,1)]
   1  2     9.99981970E-01   # Re[R_sb(1,2)]
   2  1    -9.99981970E-01   # Re[R_sb(2,1)]
   2  2    -6.00489673E-03   # Re[R_sb(2,2)]
Block staumix # stau mixing matrix
   1  1    -1.14815172E-01   # Re[R_sta(1,1)]
   1  2     9.93386871E-01   # Re[R_sta(1,2)]
   2  1    -9.93386871E-01   # Re[R_sta(2,1)]
   2  2    -1.14815172E-01   # Re[R_sta(2,2)]
Block Nmix # neutralino mixing matrix
   1  1    -9.93656101E-01   # Re[N(1,1)]
   1  2    -4.33191886E-04   # Re[N(1,2)]
   1  3     1.12357955E-01   # Re[N(1,3)]
   1  4    -4.80165837E-03   # Re[N(1,4)]
   2  1    -7.62282410E-02   # Re[N(2,1)]
   2  2    -4.17411471E-02   # Re[N(2,2)]
   2  3    -7.04403276E-01   # Re[N(2,3)]
   2  4    -7.04459337E-01   # Re[N(2,4)]
   3  1    -8.26747882E-02   # Re[N(3,1)]
   3  2     2.79961320E-02   # Re[N(3,2)]
   3  3    -7.00782927E-01   # Re[N(3,3)]
   3  4     7.08014396E-01   # Re[N(3,4)]
   4  1     1.29936602E-03   # Re[N(4,1)]
   4  2    -9.98736054E-01   # Re[N(4,2)]
   4  3     9.74703659E-03   # Re[N(4,3)]
   4  4     4.92909865E-02   # Re[N(4,4)]
Block Umix # chargino mixing matrix
   1  1    -1.38155417E-02   # Re[U(1,1)]
   1  2    -9.99904561E-01   # Re[U(1,2)]
   2  1     9.99904561E-01   # Re[U(2,1)]
   2  2    -1.38155417E-02   # Re[U(2,2)]
Block Vmix # chargino mixing matrix
   1  1    -6.98006363E-02   # Re[V(1,1)]
   1  2     9.97560961E-01   # Re[V(1,2)]
   2  1     9.97560961E-01   # Re[V(2,1)]
   2  2     6.98006363E-02   # Re[V(2,2)]
DECAY        23     2.49520000E+00   # Z
DECAY        24     2.08500000E+00   # W
DECAY   2000011     5.02896069E+01   # ~e^-_R
#    BR                NDA      ID1      ID2
     9.87391497E-01    2     1000022        11   # BR(~e^-_R -> chi^0_1 e^-)
     5.79304648E-03    2     1000023        11   # BR(~e^-_R -> chi^0_2 e^-)
     6.81383306E-03    2     1000025        11   # BR(~e^-_R -> chi^0_3 e^-)
DECAY   1000011     1.37313073E+02   # ~e^-_L
#    BR                NDA      ID1      ID2
     9.06544570E-02    2     1000022        11   # BR(~e^-_L -> chi^0_1 e^-)
     2.17748551E-03    2     1000023        11   # BR(~e^-_L -> chi^0_2 e^-)
     3.01569098E-01    2     1000035        11   # BR(~e^-_L -> chi^0_4 e^-)
     1.22235674E-04    2    -1000024        12   # BR(~e^-_L -> chi^-_1 nu_e)
     6.05392995E-01    2    -1000037        12   # BR(~e^-_L -> chi^-_2 nu_e)
#    BR                NDA      ID1      ID2       ID3
DECAY   2000013     5.04299206E+01   # ~mu^-_R
#    BR                NDA      ID1      ID2
     9.84664249E-01    2     1000022        13   # BR(~mu^-_R -> chi^0_1 mu^-)
     6.46661098E-03    2     1000023        13   # BR(~mu^-_R -> chi^0_2 mu^-)
     7.47744183E-03    2     1000025        13   # BR(~mu^-_R -> chi^0_3 mu^-)
     1.38973582E-03    2    -1000024        14   # BR(~mu^-_R -> chi^-_1 nu_mu)
DECAY   1000013     1.37383446E+02   # ~mu^-_L
#    BR                NDA      ID1      ID2
     9.06146070E-02    2     1000022        13   # BR(~mu^-_L -> chi^0_1 mu^-)
     2.42981921E-03    2     1000023        13   # BR(~mu^-_L -> chi^0_2 mu^-)
     3.34515027E-04    2     1000025        13   # BR(~mu^-_L -> chi^0_3 mu^-)
     3.01415109E-01    2     1000035        13   # BR(~mu^-_L -> chi^0_4 mu^-)
     1.22173221E-04    2    -1000024        14   # BR(~mu^-_L -> chi^-_1 nu_mu)
     6.05083776E-01    2    -1000037        14   # BR(~mu^-_L -> chi^-_2 nu_mu)
#    BR                NDA      ID1      ID2       ID3
DECAY   1000015     9.09046141E+01   # ~tau^-_1
#    BR                NDA      ID1      ID2
     5.48417509E-01    2     1000022        15   # BR(~tau^-_1 -> chi^0_1 tau^-)
     1.11561720E-01    2     1000023        15   # BR(~tau^-_1 -> chi^0_2 tau^-)
     1.07159696E-01    2     1000025        15   # BR(~tau^-_1 -> chi^0_3 tau^-)
     5.34022692E-03    2     1000035        15   # BR(~tau^-_1 -> chi^0_4 tau^-)
     2.16801341E-01    2    -1000024        16   # BR(~tau^-_1 -> chi^-_1 nu_tau)
     1.07195073E-02    2    -1000037        16   # BR(~tau^-_1 -> chi^-_2 nu_tau)
DECAY   2000015     1.56330658E+02   # ~tau^-_2
#    BR                NDA      ID1      ID2
     8.18305230E-02    2     1000022        15   # BR(~tau^-_2 -> chi^0_1 tau^-)
     6.49073230E-02    2     1000023        15   # BR(~tau^-_2 -> chi^0_2 tau^-)
     6.46570311E-02    2     1000025        15   # BR(~tau^-_2 -> chi^0_3 tau^-)
     2.61910709E-01    2     1000035        15   # BR(~tau^-_2 -> chi^0_4 tau^-)
     9.37657208E-04    2    -1000024        16   # BR(~tau^-_2 -> chi^-_1 nu_tau)
     5.25756757E-01    2    -1000037        16   # BR(~tau^-_2 -> chi^-_2 nu_tau)
#    BR                NDA      ID1      ID2       ID3
DECAY   1000012     1.37317113E+02   # ~nu_e
#    BR                NDA      ID1      ID2
     9.03494693E-02    2     1000022        12   # BR(~nu_e -> chi^0_1 nu_e)
     1.66715822E-03    2     1000025        12   # BR(~nu_e -> chi^0_3 nu_e)
     3.02373926E-01    2     1000035        12   # BR(~nu_e -> chi^0_4 nu_e)
     3.11986965E-03    2     1000024        11   # BR(~nu_e -> chi^+_1 e^-)
     6.02489245E-01    2     1000037        11   # BR(~nu_e -> chi^+_2 e^-)
#    BR                NDA      ID1      ID2       ID3
DECAY   1000014     1.37387476E+02   # ~nu_mu
#    BR                NDA      ID1      ID2
     9.03033121E-02    2     1000022        14   # BR(~nu_mu -> chi^0_1 nu_mu)
     1.66630652E-03    2     1000025        14   # BR(~nu_mu -> chi^0_3 nu_mu)
     3.02219497E-01    2     1000035        14   # BR(~nu_mu -> chi^0_4 nu_mu)
     3.62892075E-03    2     1000024        13   # BR(~nu_mu -> chi^+_1 mu^-)
     6.02181632E-01    2     1000037        13   # BR(~nu_mu -> chi^+_2 mu^-)
#    BR                NDA      ID1      ID2       ID3
DECAY   1000016     1.57228633E+02   # ~nu_tau
#    BR                NDA      ID1      ID2
     7.89366117E-02    2     1000022        16   # BR(~nu_tau -> chi^0_1 nu_tau)
     1.45656779E-03    2     1000025        16   # BR(~nu_tau -> chi^0_3 nu_tau)
     2.64190011E-01    2     1000035        16   # BR(~nu_tau -> chi^0_4 nu_tau)
     1.28987562E-01    2     1000024        15   # BR(~nu_tau -> chi^+_1 tau^-)
     5.26428957E-01    2     1000037        15   # BR(~nu_tau -> chi^+_2 tau^-)
#    BR                NDA      ID1      ID2       ID3
DECAY   2000001     5.37421134E+02   # ~d_R
#    BR                NDA      ID1      ID2
     1.03324751E-02    2     1000022         1   # BR(~d_R -> chi^0_1 d)
     9.89535379E-01    2     1000021         1   # BR(~d_R -> ~g d)
DECAY   1000001     6.61338371E+02   # ~d_L
#    BR                NDA      ID1      ID2
     2.09370566E-03    2     1000022         1   # BR(~d_L -> chi^0_1 d)
     1.22291445E-04    2     1000025         1   # BR(~d_L -> chi^0_3 d)
     6.32693594E-02    2     1000035         1   # BR(~d_L -> chi^0_4 d)
     1.26776532E-01    2    -1000037         2   # BR(~d_L -> chi^-_2 u)
     8.07659342E-01    2     1000021         1   # BR(~d_L -> ~g d)
DECAY   2000003     5.37460632E+02   # ~s_R
#    BR                NDA      ID1      ID2
     1.03321804E-02    2     1000022         3   # BR(~s_R -> chi^0_1 s)
     9.89463550E-01    2     1000021         3   # BR(~s_R -> ~g s)
DECAY   1000003     6.61361901E+02   # ~s_L
#    BR                NDA      ID1      ID2
     2.09400617E-03    2     1000022         3   # BR(~s_L -> chi^0_1 s)
     1.36805747E-04    2     1000025         3   # BR(~s_L -> chi^0_3 s)
     6.32671318E-02    2     1000035         3   # BR(~s_L -> chi^0_4 s)
     1.26772089E-01    2    -1000037         4   # BR(~s_L -> chi^-_2 c)
     8.07631058E-01    2     1000021         3   # BR(~s_L -> ~g s)
DECAY   1000005     2.68439287E+01   # ~b_1
#    BR                NDA      ID1      ID2
     5.85740546E-02    2     1000022         5   # BR(~b_1 -> chi^0_1 b)
     2.36507141E-01    2     1000023         5   # BR(~b_1 -> chi^0_2 b)
     2.33612326E-01    2     1000025         5   # BR(~b_1 -> chi^0_3 b)
     4.71298632E-01    2    -1000024         6   # BR(~b_1 -> chi^-_1 t)
DECAY   2000005     1.06881346E+02   # ~b_2
#    BR                NDA      ID1      ID2
     6.23471629E-03    2     1000022         5   # BR(~b_2 -> chi^0_1 b)
     7.96256992E-02    2     1000023         5   # BR(~b_2 -> chi^0_2 b)
     7.89830916E-02    2     1000025         5   # BR(~b_2 -> chi^0_3 b)
     7.36823985E-02    2     1000035         5   # BR(~b_2 -> chi^0_4 b)
     6.10622793E-01    2    -1000024         6   # BR(~b_2 -> chi^-_1 t)
     1.50082404E-01    2    -1000037         6   # BR(~b_2 -> chi^-_2 t)
     3.04644371E-04    2     1000005        23   # BR(~b_2 -> ~b_1 Z)
     4.64253411E-04    2     1000005        25   # BR(~b_2 -> ~b_1 h^0)
DECAY   2000002     5.54597997E+02   # ~u_R
#    BR                NDA      ID1      ID2
     4.00617398E-02    2     1000022         2   # BR(~u_R -> chi^0_1 u)
     2.35052146E-04    2     1000023         2   # BR(~u_R -> chi^0_2 u)
     2.76470808E-04    2     1000025         2   # BR(~u_R -> chi^0_3 u)
     9.59426673E-01    2     1000021         2   # BR(~u_R -> ~g u)
DECAY   1000002     6.61321052E+02   # ~u_L
#    BR                NDA      ID1      ID2
     2.11428692E-03    2     1000022         2   # BR(~u_L -> chi^0_1 u)
     2.04993888E-04    2     1000023         2   # BR(~u_L -> chi^0_2 u)
     6.32098376E-02    2     1000035         2   # BR(~u_L -> chi^0_4 u)
     6.52916482E-04    2     1000024         1   # BR(~u_L -> chi^+_1 d)
     1.26181114E-01    2     1000037         1   # BR(~u_L -> chi^+_2 d)
     8.07625048E-01    2     1000021         2   # BR(~u_L -> ~g u)
DECAY   2000004     5.54605325E+02   # ~c_R
#    BR                NDA      ID1      ID2
     4.00612130E-02    2     1000022         4   # BR(~c_R -> chi^0_1 c)
     2.38297302E-04    2     1000023         4   # BR(~c_R -> chi^0_2 c)
     2.79746789E-04    2     1000025         4   # BR(~c_R -> chi^0_3 c)
     9.59414121E-01    2     1000021         4   # BR(~c_R -> ~g c)
DECAY   1000004     6.61344551E+02   # ~c_L
#    BR                NDA      ID1      ID2
     2.11421247E-03    2     1000022         4   # BR(~c_L -> chi^0_1 c)
     2.07715083E-04    2     1000023         4   # BR(~c_L -> chi^0_2 c)
     6.32076253E-02    2     1000035         4   # BR(~c_L -> chi^0_4 c)
     6.82454318E-04    2     1000024         3   # BR(~c_L -> chi^+_1 s)
     1.26176677E-01    2     1000037         3   # BR(~c_L -> chi^+_2 s)
     8.07596757E-01    2     1000021         4   # BR(~c_L -> ~g c)
DECAY   1000006     1.07508661E+02   # ~t_1
#    BR                NDA      ID1      ID2
     1.04439620E-04    2     1000022         4   # BR(~t_1 -> chi^0_1 c)
     4.64733302E-03    2     1000022         6   # BR(~t_1 -> chi^0_1 t)
     3.01942654E-01    2     1000023         6   # BR(~t_1 -> chi^0_2 t)
     3.07179848E-01    2     1000025         6   # BR(~t_1 -> chi^0_3 t)
     7.22355683E-02    2     1000035         6   # BR(~t_1 -> chi^0_4 t)
     1.69163183E-01    2     1000024         5   # BR(~t_1 -> chi^+_1 b)
     1.41806082E-01    2     1000037         5   # BR(~t_1 -> chi^+_2 b)
     5.97489668E-04    2     1000005        24   # BR(~t_1 -> ~b_1 W^+)
#    BR                NDA      ID1      ID2       ID3
     2.31352903E-03    3     1000022        24         5   # BR(~t_1 -> chi^0_1 W^+ b)
DECAY   2000006     1.76589229E+02   # ~t_2
#    BR                NDA      ID1      ID2
     4.80535752E-02    2     1000022         6   # BR(~t_2 -> chi^0_1 t)
     2.18389577E-01    2     1000023         6   # BR(~t_2 -> chi^0_2 t)
     2.18408625E-01    2     1000025         6   # BR(~t_2 -> chi^0_3 t)
     2.41728790E-03    2     1000035         6   # BR(~t_2 -> chi^0_4 t)
     4.31986796E-01    2     1000024         5   # BR(~t_2 -> chi^+_1 b)
     4.82807775E-03    2     1000037         5   # BR(~t_2 -> chi^+_2 b)
     3.48303343E-02    2     2000005        24   # BR(~t_2 -> ~b_2 W^+)
     1.73751874E-02    2     1000006        23   # BR(~t_2 -> ~t_1 Z)
     2.36979453E-02    2     1000006        25   # BR(~t_2 -> ~t_1 h^0)
DECAY   1000024     2.59528905E-01   # chi^+_1
#    BR                NDA      ID1      ID2
     9.98373575E-01    2     1000022        24   # BR(chi^+_1 -> chi^0_1 W^+)
#    BR                NDA      ID1      ID2       ID3
     1.62633547E-03    3     1000022        -5         6   # BR(chi^+_1 -> chi^0_1 b_bar t)
DECAY   1000037     1.49261594E+01   # chi^+_2
#    BR                NDA      ID1      ID2
     5.42930559E-04    2     1000022        24   # BR(chi^+_2 -> chi^0_1 W^+)
     2.44122418E-01    2     1000023        24   # BR(chi^+_2 -> chi^0_2 W^+)
     2.44032679E-01    2     1000025        24   # BR(chi^+_2 -> chi^0_3 W^+)
     2.43740586E-01    2     1000024        23   # BR(chi^+_2 -> chi^+_1 Z)
     2.40482377E-01    2     1000024        25   # BR(chi^+_2 -> chi^+_1 h^0)
#    BR                NDA      ID1      ID2       ID3
     1.01575670E-02    3     1000024         6        -6   # BR(chi^+_2 -> chi^+_1 t t_bar)
     2.10653577E-04    3     1000024         5        -5   # BR(chi^+_2 -> chi^+_1 b b_bar)
     8.03998297E-03    3     1000023        -5         6   # BR(chi^+_2 -> chi^0_2 b_bar t)
     8.61079603E-03    3     1000025        -5         6   # BR(chi^+_2 -> chi^0_3 b_bar t)
DECAY   1000022     0.00000000E+00   # chi^0_1
DECAY   1000023     2.35290911E-01   # chi^0_2
#    BR                NDA      ID1      ID2
     5.96731568E-01    2     1000022        23   # BR(chi^0_2 -> chi^0_1 Z)
     4.03250806E-01    2     1000022        25   # BR(chi^0_2 -> chi^0_1 h^0)
#    BR                NDA      ID1      ID2       ID3
DECAY   1000025     2.30908631E-01   # chi^0_3
#    BR                NDA      ID1      ID2
     5.23761026E-01    2     1000022        23   # BR(chi^0_3 -> chi^0_1 Z)
     4.76186940E-01    2     1000022        25   # BR(chi^0_3 -> chi^0_1 h^0)
#    BR                NDA      ID1      ID2       ID3
DECAY   1000035     1.66620776E+01   # chi^0_4
#    BR                NDA      ID1      ID2
     2.19994748E-01    2     1000024       -24   # BR(chi^0_4 -> chi^+_1 W^-)
     2.19994748E-01    2    -1000024        24   # BR(chi^0_4 -> chi^-_1 W^+)
     1.81155277E-04    2     1000022        23   # BR(chi^0_4 -> chi^0_1 Z)
     6.76172976E-02    2     1000023        23   # BR(chi^0_4 -> chi^0_2 Z)
     1.51169941E-01    2     1000025        23   # BR(chi^0_4 -> chi^0_3 Z)
     2.64378353E-04    2     1000022        25   # BR(chi^0_4 -> chi^0_1 h^0)
     1.48945534E-01    2     1000023        25   # BR(chi^0_4 -> chi^0_2 h^0)
     1.69386701E-01    2     1000025        25   # BR(chi^0_4 -> chi^0_3 h^0)
#    BR                NDA      ID1      ID2       ID3
     4.09348139E-03    3     1000023         6        -6   # BR(chi^0_4 -> chi^0_2 t t_bar)
     4.33345637E-03    3     1000025         6        -6   # BR(chi^0_4 -> chi^0_3 t t_bar)
     6.89254518E-03    3     1000024         5        -6   # BR(chi^0_4 -> chi^+_1 b t_bar)
     6.89254518E-03    3    -1000024        -5         6   # BR(chi^0_4 -> chi^-_1 b_bar t)
DECAY   1000021     9.97979700E+01   # ~g
#    BR                NDA      ID1      ID2
     2.55196362E-03    2     1000006        -4   # BR(~g -> ~t_1 c_bar)
     2.55196362E-03    2    -1000006         4   # BR(~g -> ~t^*_1 c)
     9.94980274E-02    2     1000006        -6   # BR(~g -> ~t_1 t_bar)
     9.94980274E-02    2    -1000006         6   # BR(~g -> ~t^*_1 t)
     2.12448331E-02    2     2000006        -6   # BR(~g -> ~t_2 t_bar)
     2.12448331E-02    2    -2000006         6   # BR(~g -> ~t^*_2 t)
     2.72738024E-01    2     1000005        -5   # BR(~g -> ~b_1 b_bar)
     2.72738024E-01    2    -1000005         5   # BR(~g -> ~b^*_1 b)
     1.03871500E-01    2     2000005        -5   # BR(~g -> ~b_2 b_bar)
     1.03871500E-01    2    -2000005         5   # BR(~g -> ~b^*_2 b)
#    BR                NDA      ID1      ID2       ID3
DECAY        25     3.54320922E-03   # Gamma(h0)
     2.32253414E-03   2        22        22   # BR(h0 -> photon photon)
     1.24444340E-03   2        22        23   # BR(h0 -> photon Z)
     2.07044772E-02   2        23        23   # BR(h0 -> Z Z)
     1.81542730E-01   2       -24        24   # BR(h0 -> W W)
     7.41120652E-02   2        21        21   # BR(h0 -> gluon gluon)
     5.48267625E-09   2       -11        11   # BR(h0 -> Electron electron)
     2.43877480E-04   2       -13        13   # BR(h0 -> Muon muon)
     7.03144307E-02   2       -15        15   # BR(h0 -> Tau tau)
     1.55214110E-07   2        -2         2   # BR(h0 -> Up up)
     3.01181448E-02   2        -4         4   # BR(h0 -> Charm charm)
     6.37446630E-07   2        -1         1   # BR(h0 -> Down down)
     2.30549622E-04   2        -3         3   # BR(h0 -> Strange strange)
     6.13725366E-01   2        -5         5   # BR(h0 -> Bottom bottom)
     5.44058328E-03   2   1000022   1000022   # BR(h0 -> neutralino1 neutralino1)
DECAY        35     3.04760557E+01   # Gamma(HH)
     2.40482726E-08   2        22        22   # BR(HH -> photon photon)
     1.96280992E-08   2        22        23   # BR(HH -> photon Z)
     1.89855596E-06   2        23        23   # BR(HH -> Z Z)
     1.03240875E-06   2       -24        24   # BR(HH -> W W)
     1.44815607E-05   2        21        21   # BR(HH -> gluon gluon)
     1.02273912E-08   2       -11        11   # BR(HH -> Electron electron)
     4.55312792E-04   2       -13        13   # BR(HH -> Muon muon)
     1.31491049E-01   2       -15        15   # BR(HH -> Tau tau)
     1.93939075E-13   2        -2         2   # BR(HH -> Up up)
     3.76165736E-08   2        -4         4   # BR(HH -> Charm charm)
     2.78149414E-03   2        -6         6   # BR(HH -> Top top)
     8.03061681E-07   2        -1         1   # BR(HH -> Down down)
     2.90467536E-04   2        -3         3   # BR(HH -> Strange strange)
     7.92086514E-01   2        -5         5   # BR(HH -> Bottom bottom)
     2.29254918E-03   2  -1000024   1000024   # BR(HH -> Chargino1 chargino1)
     1.84139163E-03   2   1000022   1000022   # BR(HH -> neutralino1 neutralino1)
     3.65528736E-02   2   1000022   1000023   # BR(HH -> neutralino1 neutralino2)
     3.02428677E-02   2   1000022   1000025   # BR(HH -> neutralino1 neutralino3)
     3.10481899E-04   2   1000022   1000035   # BR(HH -> neutralino1 neutralino4)
     4.11626642E-06   2   1000023   1000023   # BR(HH -> neutralino2 neutralino2)
     6.12651128E-04   2   1000023   1000025   # BR(HH -> neutralino2 neutralino3)
     1.00873661E-03   2   1000025   1000025   # BR(HH -> neutralino3 neutralino3)
     1.11874355E-05   2        25        25   # BR(HH -> h0 h0)
DECAY        36     2.97800179E+01   # Gamma(A0)
     2.31395683E-08   2        22        22   # BR(A0 -> photon photon)
     5.82525958E-08   2        22        23   # BR(A0 -> photon Z)
     3.40893396E-05   2        21        21   # BR(A0 -> gluon gluon)
     1.02035009E-08   2       -11        11   # BR(A0 -> Electron electron)
     4.54249261E-04   2       -13        13   # BR(A0 -> Muon muon)
     1.31184372E-01   2       -15        15   # BR(A0 -> Tau tau)
     1.87570430E-13   2        -2         2   # BR(A0 -> Up up)
     3.63753735E-08   2        -4         4   # BR(A0 -> Charm charm)
     2.78447005E-03   2        -6         6   # BR(A0 -> Top top)
     8.01183571E-07   2        -1         1   # BR(A0 -> Down down)
     2.89788490E-04   2        -3         3   # BR(A0 -> Strange strange)
     7.90240531E-01   2        -5         5   # BR(A0 -> Bottom bottom)
     2.69639644E-03   2  -1000024   1000024   # BR(A0 -> Chargino1 chargino1)
     1.89473263E-03   2   1000022   1000022   # BR(A0 -> neutralino1 neutralino1)
     3.29422335E-02   2   1000022   1000023   # BR(A0 -> neutralino1 neutralino2)
     3.52990269E-02   2   1000022   1000025   # BR(A0 -> neutralino1 neutralino3)
     3.22773731E-04   2   1000022   1000035   # BR(A0 -> neutralino1 neutralino4)
     4.38580733E-06   2   1000023   1000023   # BR(A0 -> neutralino2 neutralino2)
     4.60262787E-04   2   1000023   1000025   # BR(A0 -> neutralino2 neutralino3)
     1.38914603E-03   2   1000025   1000025   # BR(A0 -> neutralino3 neutralino3)
     2.61302147E-06   2        23        25   # BR(A0 -> Z h0)
     1.19604249E-37   2        25        25   # BR(A0 -> h0 h0)
DECAY        37     2.98331446E+01   # Gamma(Hp)
     1.11517050E-08   2       -11        12   # BR(Hp -> Electron nu_e)
     4.76770215E-04   2       -13        14   # BR(Hp -> Muon nu_mu)
     1.34857603E-01   2       -15        16   # BR(Hp -> Tau nu_tau)
     7.55311182E-07   2        -1         2   # BR(Hp -> Down up)
     1.26853941E-05   2        -3         2   # BR(Hp -> Strange up)
     8.37113933E-06   2        -5         2   # BR(Hp -> Bottom up)
     3.66887022E-08   2        -1         4   # BR(Hp -> Down charm)
     2.72224137E-04   2        -3         4   # BR(Hp -> Strange charm)
     1.17225851E-03   2        -5         4   # BR(Hp -> Bottom charm)
     1.72497254E-07   2        -1         6   # BR(Hp -> Down top)
     4.15846266E-06   2        -3         6   # BR(Hp -> Strange top)
     7.89897958E-01   2        -5         6   # BR(Hp -> Bottom top)
     7.15265348E-02   2   1000022   1000024   # BR(Hp -> neutralino1 chargino1)
     6.49656966E-04   2   1000022   1000037   # BR(Hp -> neutralino1 chargino2)
     1.11633652E-03   2   1000023   1000024   # BR(Hp -> neutralino2 chargino1)
     1.84149307E-06   2   1000024   1000025   # BR(Hp -> chargino1 neutralino3)
     2.62508176E-06   2        24        25   # BR(Hp -> W h0)
     1.56002338E-11   2        24        35   # BR(Hp -> W HH)
     1.51610143E-11   2        24        36   # BR(Hp -> W A0)
DECAY         6     2.43000000E+00   # top
#    BR                NDA      ID1      ID2
     1.00000000E+00    2           5        24   # BR(t -> b W)
Block HiggsBoundsInputHiggsCouplingsFermions
# ScalarNormEffCoupSq PseudoSNormEffCoupSq NP IP1 IP2 IP2
    9.44520671E-01    0.00000000E+00        3  25   5   5  # h0-b-b eff. coupling^2, normalised to SM
    9.54537510E+02    0.00000000E+00        3  35   5   5  # H0-b-b eff. coupling^2, normalised to SM
    0.00000000E+00    9.54482031E+02        3  36   5   5  # A0-b-b eff. coupling^2, normalised to SM
#
    1.00005813E+00    0.00000000E+00        3  25   6   6  # h0-t-t eff. coupling^2, normalised to SM
    9.89563596E-04    0.00000000E+00        3  35   6   6  # H0-t-t eff. coupling^2, normalised to SM
    0.00000000E+00    1.04768866E-03        3  36   6   6  # A0-t-t eff. coupling^2, normalised to SM
#
    9.44520671E-01    0.00000000E+00        3  25  15  15  # h0-tau-tau eff. coupling^2, normalised to SM
    9.54537510E+02    0.00000000E+00        3  35  15  15  # H0-tau-tau eff. coupling^2, normalised to SM
    0.00000000E+00    9.54482031E+02        3  36  15  15  # A0-tau-tau eff. coupling^2, normalised to SM
#
Block HiggsBoundsInputHiggsCouplingsBosons
    9.99999171E-01        3  25  24  24  # h0-W-W eff. coupling^2, normalised to SM
    8.29330596E-07        3  35  24  24  # H0-W-W eff. coupling^2, normalised to SM
    0.00000000E+00        3  36  24  24  # A0-W-W eff. coupling^2, normalised to SM
#
    9.99999171E-01        3  25  23  23  # h0-Z-Z eff. coupling^2, normalised to SM
    8.29330596E-07        3  35  23  23  # H0-Z-Z eff. coupling^2, normalised to SM
    0.00000000E+00        3  36  23  23  # A0-Z-Z eff. coupling^2, normalised to SM
#
    1.26730436E+00        3  25  21  21  # h0-g-g eff. coupling^2, normalised to SM
    5.23031247E-03        3  35  21  21  # H0-g-g eff. coupling^2, normalised to SM
    1.14396444E-01        3  36  21  21  # A0-g-g eff. coupling^2, normalised to SM
#
    0.00000000E+00        3  25  25  23  # h0-h0-Z eff. coupling^2, normalised to SM
    0.00000000E+00        3  35  25  23  # H0-h0-Z eff. coupling^2, normalised to SM
    8.29330596E-07        3  36  25  23  # A0-h0-Z eff. coupling^2, normalised to SM
    0.00000000E+00        3  35  35  23  # H0-H0-Z eff. coupling^2, normalised to SM
    9.99999171E-01        3  36  35  23  # A0-H0-Z eff. coupling^2, normalised to SM
    0.00000000E+00        3  36  36  23  # A0-A0-Z eff. coupling^2, normalised to SM
#
    0.00000000E+00        4  25  21  21  23  # h0-g-g-Z eff. coupling^2, normalised to SM
    0.00000000E+00        4  35  21  21  23  # H0-g-g-Z eff. coupling^2, normalised to SM
    0.00000000E+00        4  36  21  21  23  # A0-g-g-Z eff. coupling^2, normalised to SM
Block SPhenoLowEnergy  # low energy observables
    1    3.40339737E-04   # BR(b -> s gamma)
    2    1.58843813E-06   # BR(b -> s mu+ mu-)
    3    3.52556661E-05   # BR(b -> s nu nu)
    4    2.10114491E-15   # BR(Bd -> e+ e-)
    5    8.97586333E-11   # BR(Bd -> mu+ mu-)
    6    1.87964673E-08   # BR(Bd -> tau+ tau-)
    7    7.12413918E-14   # BR(Bs -> e+ e-)
    8    3.04343387E-09   # BR(Bs -> mu+ mu-)
    9    6.45770650E-07   # BR(Bs -> tau+ tau-)
   10    9.52216579E-05   # BR(B_u -> tau nu)
   11    9.83603271E-01   # BR(B_u -> tau nu)/BR(B_u -> tau nu)_SM
   12    5.41996699E-01   # |Delta(M_Bd)| [ps^-1] 
   13    1.93566744E+01   # |Delta(M_Bs)| [ps^-1] 
   14    0.00000000E+00   # neutron EDM according to the chiral quark model
   15    0.00000000E+00   # neutron EDM according to the relativistic quark-parton model
   16    2.15747967E-03   # epsilon_K
   17    2.28166153E-15   # Delta(M_K)
   18    2.47995063E-11   # BR(K^0 -> pi^0 nu nu)
   19    8.29046076E-11   # BR(K^+ -> pi^+ nu nu)
   20   -3.42598283E-16   # Delta(g-2)_electron/2
   21   -1.46471947E-11   # Delta(g-2)_muon/2
   22   -4.14728343E-09   # Delta(g-2)_tau/2
   23    0.00000000E+00   # electric dipole moment of the electron
   24    0.00000000E+00   # electric dipole moment of the muon
   25    0.00000000E+00   # electric dipole moment of the tau
   26    0.00000000E+00   # Br(mu -> e gamma)
   27    0.00000000E+00   # Br(tau -> e gamma)
   28    0.00000000E+00   # Br(tau -> mu gamma)
   29    0.00000000E+00   # Br(mu -> 3 e)
   30    0.00000000E+00   # Br(tau -> 3 e)
   31    0.00000000E+00   # Br(tau -> 3 mu)
   39    6.52013161E-05   # Delta(rho_parameter)
   40    0.00000000E+00   # BR(Z -> e mu)
   41    0.00000000E+00   # BR(Z -> e tau)
   42    0.00000000E+00   # BR(Z -> mu tau)
Block FWCOEF Q=  1.60000000E+02  # Wilson coefficients at scale Q
#    id        order  M        value         comment
     0305 4422   00   0    -1.88819110E-01   # C7
     0305 4422   00   2    -2.10537758E-01   # C7
     0305 4322   00   2    -3.16809784E-04   # C7'
     0305 6421   00   0    -9.52278348E-02   # C8
     0305 6421   00   2    -1.14899805E-01   # C8
     0305 6321   00   2    -3.37227843E-04   # C8'
 03051111 4133   00   0     1.62292929E+00   # C9 e+e-
 03051111 4133   00   2     1.62331410E+00   # C9 e+e-
 03051111 4233   00   2     2.09684596E-04   # C9' e+e-
 03051111 4137   00   0    -4.44562139E+00   # C10 e+e-
 03051111 4137   00   2    -4.44430982E+00   # C10 e+e-
 03051111 4237   00   2    -1.55930228E-03   # C10' e+e-
 03051313 4133   00   0     1.62292929E+00   # C9 mu+mu-
 03051313 4133   00   2     1.62331402E+00   # C9 mu+mu-
 03051313 4233   00   2     2.09684000E-04   # C9' mu+mu-
 03051313 4137   00   0    -4.44562139E+00   # C10 mu+mu-
 03051313 4137   00   2    -4.44430989E+00   # C10 mu+mu-
 03051313 4237   00   2    -1.55930186E-03   # C10' mu+mu-
 03051212 4137   00   0     1.50535012E+00   # C11 nu_1 nu_1
 03051212 4137   00   2     1.50506741E+00   # C11 nu_1 nu_1
 03051212 4237   00   2     3.37463979E-04   # C11' nu_1 nu_1
 03051414 4137   00   0     1.50535012E+00   # C11 nu_2 nu_2
 03051414 4137   00   2     1.50506741E+00   # C11 nu_2 nu_2
 03051414 4237   00   2     3.37464098E-04   # C11' nu_2 nu_2
 03051616 4137   00   0     1.50535012E+00   # C11 nu_3 nu_3
 03051616 4137   00   2     1.50506741E+00   # C11 nu_3 nu_3
 03051616 4237   00   2     3.37497727E-04   # C11' nu_3 nu_3
Block IMFWCOEF Q=  1.60000000E+02  # Im(Wilson coefficients) at scale Q
#    id        order  M        value         comment
     0305 4422   00   0     3.85813205E-07   # C7
     0305 4422   00   2    -9.48316268E-06   # C7
     0305 4322   00   2    -1.01639022E-06   # C7'
     0305 6421   00   0     3.30474525E-07   # C8
     0305 6421   00   2     4.57795001E-06   # C8
     0305 6321   00   2    -2.12255089E-07   # C8'
 03051111 4133   00   2     3.44867050E-07   # C9 e+e-
 03051111 4233   00   2     4.64760798E-06   # C9' e+e-
 03051111 4137   00   2    -5.72638061E-07   # C10 e+e-
 03051111 4237   00   2    -3.45692403E-05   # C10' e+e-
 03051313 4133   00   2     3.44865451E-07   # C9 mu+mu-
 03051313 4233   00   2     4.64760719E-06   # C9' mu+mu-
 03051313 4137   00   2    -5.72636558E-07   # C10 mu+mu-
 03051313 4237   00   2    -3.45692427E-05   # C10' mu+mu-
 03051212 4137   00   2     1.44233123E-07   # C11 nu_1 nu_1
 03051212 4237   00   2     7.48147457E-06   # C11' nu_1 nu_1
 03051414 4137   00   2     1.44233186E-07   # C11 nu_2 nu_2
 03051414 4237   00   2     7.48147457E-06   # C11' nu_2 nu_2
 03051616 4137   00   2     1.44251051E-07   # C11 nu_3 nu_3
 03051616 4237   00   2     7.48147455E-06   # C11' nu_3 nu_3
