BLOCK SPINFO
   1   SPheno
   2   v4.0.5be

BLOCK SPHENOINFO
   1   2
   2   2

BLOCK MODSEL
   1   0

BLOCK MINPAR
   3    43.861432
   4   -1

BLOCK EXTPAR
   0    3030.5652
   1    2467.0712
   2    3931.1171
   3    1458.5405
   11   -4964.6854
   12    1863.6606
   13    6652.6005
   23   -1488.3616
   25    42.878505
   26    4180.7241
   31    2134.5615
   32    2134.5615
   33    4754.5965
   34    2718.421
   35    2718.421
   36    3027.4479
   41    3251.8424
   42    3251.8424
   43    3747.3411
   44    1884.3949
   45    1884.3949
   46    2445.0314
   47    1971.1402
   48    1971.1402
   49    4804.4553

BLOCK SMINPUTS
   1    127.90897
   2    1.1663787e-05
   3    0.1184
   4    91.1876
   5    4.18
   6    173.2
   7    1.777
   8    0
   11    0.00051099893
   12    0
   13    0.10565837
   14    0
   21    0.005
   22    0.0025
   23    0.095
   24    1.27

BLOCK GAUGE Q=  3030.5652
   1    0.35536298
   2    0.66519887
   3    1.219778

BLOCK YU Q=  3030.5652
   1   1    8.386652e-06
   2   2    0.0042604192
   3   3    1.0131749

BLOCK YD Q=  3030.5652
   1   1    0.00072261754
   2   2    0.013729733
   3   3    0.71661017

BLOCK YE Q=  3030.5652
   1   1    0.00012610205
   2   2    0.026073904
   3   3    0.43852017

BLOCK AU Q=  3030.5652
   1   1    0
   2   2    0
   3   3   -4964.6908

BLOCK AD Q=  3030.5652
   1   1    0
   2   2    0
   3   3    1863.6645

BLOCK AE Q=  3030.5652
   1   1    0
   2   2    0
   3   3    6652.598

BLOCK MSOFT Q=  3030.5652
   1    2467.0712
   2    3931.1171
   3    1458.5405
   21    15251533
   22   -2099770.3
   31    2134.5615
   32    2134.5615
   33    4754.5965
   34    2718.421
   35    2718.421
   36    3027.4479
   41    3251.8424
   42    3251.8424
   43    3747.3411
   44    1884.3949
   45    1884.3949
   46    2445.0314
   47    1971.1402
   48    1971.1402
   49    4804.4553

BLOCK MASS
   6    173.2
   23    91.1876
   24    80.429995
   15    1.777
   25    123.94657
   35    4180.2042
   36    4180.7241
   37    4181.2477
   1000001    3328.9686
   2000001    2039.1963
   1000002    3327.8616
   2000002    1959.6697
   1000003    3328.9628
   2000003    2039.1858
   1000004    3327.8552
   2000004    1959.6694
   1000005    3762.8686
   2000005    4839.5948
   1000006    2434.1995
   2000006    3773.0372
   1000011    2166.0066
   2000011    2727.5836
   1000012    2164.1413
   1000013    2165.9807
   2000013    2727.5404
   1000014    2164.1191
   1000015    3038.3708
   2000015    4767.4865
   1000016    4767.1514
   1000021    1704.7636
   1000022    1509.4727
   1000023   -1512.934
   1000025    2434.6427
   1000035    3922.5557
   1000024    1511.6064
   1000037    3922.6728

BLOCK ALPHA
      -0.022826866

BLOCK HMIX Q=  3030.5652
   1   -1488.3616
   2    42.878505
   3    243.21724
   4    17478454

BLOCK STOPMIX
   1   1    0.085185063
   1   2    0.99636515
   2   1   -0.99636515
   2   2    0.085185063

BLOCK SBOTMIX
   1   1   -0.99989039
   1   2    0.014805898
   2   1   -0.014805898
   2   2   -0.99989039

BLOCK STAUMIX
   1   1   -0.0091114163
   1   2    0.99995849
   2   1   -0.99995849
   2   2   -0.0091114163

BLOCK NMIX
   1   1   -0.033546794
   1   2    0.0220756
   1   3    0.70710562
   1   4    0.70596666
   2   1   -0.0082098212
   2   2    0.01037575
   2   3   -0.70683196
   2   4    0.70725775
   3   1   -0.99940315
   3   2   -0.001577091
   3   3   -0.017922624
   3   4   -0.029489732
   4   1    0.00075062529
   4   2   -0.99970122
   4   3    0.0083066168
   4   4    0.02297634

BLOCK UMIX
   1   1   -0.011749599
   1   2   -0.99993097
   2   1    0.99993097
   2   2   -0.011749599

BLOCK VMIX
   1   1   -0.032491691
   1   2    0.99947201
   2   1    0.99947201
   2   2    0.032491691

BLOCK HIGGSBOUNDSINPUTHIGGSCOUPLINGSFERMIONS
       0, 1838.5662,3,36,15,15

BLOCK HIGGSBOUNDSINPUTHIGGSCOUPLINGSBOSONS
       0,4,36,21,21,23

BLOCK SPHENOLOWENERGY
   1    0.00034876197
   2    1.5891754e-06
   3    3.5278927e-05
   4    2.1513132e-15
   5    9.1902536e-11
   6    1.9286247e-08
   7    7.225824e-14
   8    3.0868997e-09
   9    6.5639705e-07
   10    9.5959131e-05
   11    0.99122109
   12    0.54273558
   13    19.386612
   14    0
   15    0
   16    0.0021616787
   17    2.281704e-15
   18    2.4816539e-11
   19    8.294717e-11
   20   -1.6271416e-15
   21   -6.9565962e-11
   22   -9.9234069e-09
   23    0
   24    0
   25    0
   26    0
   27    0
   28    0
   29    0
   30    0
   31    0
   39    6.8031715e-05
   40    0
   41    0
   42    0

BLOCK FWCOEF Q=  160
   305   4422   0   0   -0.18881911
   305   4422   0   2   -0.22173142
   305   4322   0   2   -0.00074588207
   305   6421   0   0   -0.095227835
   305   6421   0   2   -0.11504915
   305   6321   0   2   -0.00043087956
   3051111   4133   0   0    1.6174207
   3051111   4133   0   2    1.6181588
   3051111   4233   0   2    0.00032135553
   3051111   4137   0   0   -4.4401128
   3051111   4137   0   2   -4.4411307
   3051111   4237   0   2   -0.0024126503
   3051313   4133   0   0    1.6174207
   3051313   4133   0   2    1.6181565
   3051313   4233   0   2    0.00032135494
   3051313   4137   0   0   -4.4401128
   3051313   4137   0   2   -4.4411329
   3051313   4237   0   2   -0.0024126517
   3051212   4137   0   0    1.5053501
   3051212   4137   0   2    1.5055711
   3051212   4237   0   2    0.00052279403
   3051414   4137   0   0    1.5053501
   3051414   4137   0   2    1.5055711
   3051414   4237   0   2    0.00052279406
   3051616   4137   0   0    1.5053501
   3051616   4137   0   2    1.5055714
   3051616   4237   0   2    0.00052280189

BLOCK IMFWCOEF Q=  160
   305   4422   0   0    3.8572008e-07
   305   4422   0   2   -1.3284845e-05
   305   4322   0   2   -1.2088208e-05
   305   6421   0   0    3.3039476e-07
   305   6421   0   2    2.5059215e-05
   305   6321   0   2   -5.989538e-06
   3051111   4133   0   2    9.3372086e-07
   3051111   4233   0   2    6.2310468e-06
   3051111   4137   0   2   -4.9646158e-06
   3051111   4237   0   2   -4.6779135e-05
   3051313   4133   0   2    9.3369248e-07
   3051313   4233   0   2    6.2310387e-06
   3051313   4137   0   2   -4.9646422e-06
   3051313   4237   0   2   -4.6779163e-05
   3051212   4137   0   2    1.0813316e-06
   3051212   4237   0   2    1.0136511e-05
   3051414   4137   0   2    1.0813309e-06
   3051414   4237   0   2    1.0136511e-05
   3051616   4137   0   2    1.0881541e-06
   3051616   4237   0   2    1.0136513e-05

DECAY 23  2.4952


DECAY 24  2.085


DECAY 1000011  0.00082607153
    0.83849618   2   -1000024    12
    0.10870443   2    1000023    11
    0.05279937   2    1000022    11

DECAY 2000011  0.5734358
    0.98628171   2    1000025    11
    0.012944992   2    1000022    11
    0.00077249423   2    1000023    11

DECAY 1000013  0.0085388924
    0.45999471   2    1000023    13
    0.45889193   2    1000022    13
    0.081113356   2   -1000024    14

DECAY 2000013  0.61068128
    0.92588419   2    1000025    13
    0.028995528   2   -1000024    14
    0.026692254   2    1000022    13
    0.015190541   2    1000023    13
    0.0032374842   2    1000013    25

DECAY 1000015  15.130393
    0.4350551   2   -1000024    16
    0.21881424   2    1000022    15
    0.21703295   2    1000023    15
    0.12909771   2    1000025    15

DECAY 2000015  25.884778
    0.28490863   2    1000022    15
    0.28483777   2    1000023    15
    0.16914646   2   -1000037    16
    0.12725209   2    1000025    15
    0.08449008   2    1000035    15
    0.024673187   2    1000015    25
    0.024648512   2    1000015    23

DECAY 1000012  0.0098359129
    0.53631491   2    1000024    11
    0.40852279   2    1000022    12
    0.055162299   2    1000023    12

DECAY 1000014  0.017512376
    0.73958176   2    1000024    13
    0.22943759   2    1000022    14
    0.030980647   2    1000023    14

DECAY 1000016  25.905257
    0.57087943   2    1000024    15
    0.1687412   2    1000037    15
    0.12540638   2    1000025    16
    0.084495818   2    1000035    16
    0.049285472   2    1000015    24
    0.0010489669   2    1000022    16
    0.00014273479   2    1000023    16

DECAY 2000001  14.593905
    0.99998041   2    1000021    1

DECAY 1000001  143.1286
    0.99923307   2    1000021    1
    0.00068909227   2    1000025    1

DECAY 2000003  14.596229
    0.99976823   2    1000021    3
    0.00010631815   2   -1000024    4

DECAY 1000003  143.13737
    0.99916763   2    1000021    3
    0.00068904852   2    1000025    3

DECAY 1000005  319.82631
    0.58654873   2    1000021    5
    0.16753375   2   -1000024    6
    0.16078129   2    1000006   -24
    0.042391979   2    1000022    5
    0.042194142   2    1000023    5
    0.0005501096   2    1000025    5

DECAY 2000005  377.57511
    0.77624868   2    1000021    5
    0.10639401   2   -1000024    6
    0.05330249   2    1000022    5
    0.053281639   2    1000023    5
    0.0040230365   2    1000025    5
    0.0026584708   2    2000006   -24
    0.0025722636   2    1000005    25
    0.0013693136   2    1000005    23
    0.00013519703   2    1000006   -24

DECAY 2000002  9.1522247
    0.99990574   2    1000021    2

DECAY 1000002  143.02828
    0.99912864   2    1000021    2
    0.00071312777   2    1000025    2
    0.00013636272   2    1000024    1

DECAY 2000004  9.1522798
    0.99988055   2    1000021    4

DECAY 1000004  143.03611
    0.99906861   2    1000021    4
    0.00071307854   2    1000025    4
    0.00019117013   2    1000024    3

DECAY 1000006  86.204085
    0.57466048   2    1000021    6
    0.21752912   2    1000024    5
    0.10337017   2    1000022    6
    0.10316319   2    1000023    6
    0.001275622   2    1000021    4

DECAY 2000006  330.37821
    0.56212076   2    1000021    6
    0.11242065   2    1000006    25
    0.082272461   2    1000024    5
    0.082107637   2    1000023    6
    0.081692935   2    1000022    6
    0.078691082   2    1000006    23
    0.00069447558   2    1000025    6

DECAY 1000024  3.7959031e-11
    0.54833456   3    1000022   -1    2
    0.18278501   3    1000022   -11    12
    0.18057305   3    1000022   -13    14
    0.086444731   3    1000022   -3    4
    0.001862645   3    1000022   -15    16

DECAY 1000037  83.013838
    0.10053933   2    1000014   -13
    0.1005375   2    1000012   -11
    0.10048015   2   -1000013    14
    0.10047805   2   -1000011    12
    0.098175338   2    1000024    25
    0.091181742   2    1000023    24
    0.090968243   2    1000024    23
    0.09064094   2    1000022    24
    0.048963892   2    1000004   -3
    0.048962906   2    1000002   -1
    0.048841288   2   -1000003    4
    0.048840558   2   -1000001    2
    0.011516525   3    1000024    6   -6
    0.0069004189   3    1000023   -5    6
    0.0064682268   3    1000022   -5    6
    0.0034967144   2    2000006   -5
    0.0022194276   3    1000021   -5    6
    0.00032606777   2    1000025    24
    0.00030325358   2    1000006   -5

DECAY 1000022 -1


DECAY 1000023  1.3234764e-08
    0.90674766   2    1000022    22
    0.026451252   3    1000022    12   -12
    0.019779248   3    1000022    1   -1
    0.019606988   3    1000022    3   -3
    0.015426417   3    1000022    2   -2
    0.0044637222   3    1000022    11   -11
    0.0044026089   3    1000022    13   -13
    0.0016638718   3    1000022    4   -4
    0.00044016265   3    1000024    1   -2
    0.00044016265   3   -1000024   -1    2
    0.00014673403   3    1000024    11   -12
    0.00014673403   3   -1000024   -11    12
    0.00014221921   3    1000024    13   -14
    0.00014221921   3   -1000024   -13    14

DECAY 1000025  11.870347
    0.11361194   2    1000024   -24
    0.11361194   2   -1000024    24
    0.10899771   2    1000023    23
    0.10658441   2    1000023    25
    0.096637205   2    1000022    25
    0.085083473   2    2000002   -2
    0.085083473   2   -2000002    2
    0.08508314   2    2000004   -4
    0.08508314   2   -2000004    4
    0.015283533   2    2000003   -3
    0.015283533   2   -2000003    3
    0.015282751   2    2000001   -1
    0.015282751   2   -2000001    1
    0.0064895462   2    1000022    23
    0.0056344231   2    1000014   -14
    0.0056344231   2   -1000014    14
    0.0056335531   2    1000012   -12
    0.0056335531   2   -1000012    12
    0.0056277557   2    1000013   -13
    0.0056277557   2   -1000013    13
    0.0056267272   2    1000011   -11
    0.0056267272   2   -1000011    11
    0.0025030239   3    1000024    5   -6
    0.0025030239   3   -1000024   -5    6
    0.0012386097   3    1000023    6   -6
    0.0011311079   3    1000022    6   -6
    0.00015092241   3    1000021    6   -6

DECAY 1000035  88.592002
    0.085306849   2    1000024   -24
    0.085306849   2   -1000024    24
    0.083067656   2    1000023    25
    0.07537132   2    1000022    25
    0.070077329   2    1000023    23
    0.04715999   2    1000014   -14
    0.04715999   2   -1000014    14
    0.047159144   2    1000012   -12
    0.047159144   2   -1000012    12
    0.047013499   2    1000013   -13
    0.047013499   2   -1000013    13
    0.047012503   2    1000011   -11
    0.047012503   2   -1000011    11
    0.022937048   2    1000004   -4
    0.022937048   2   -1000004    4
    0.022936654   2    1000002   -2
    0.022936654   2   -1000002    2
    0.022870964   2    1000003   -3
    0.022870964   2   -1000003    3
    0.022870554   2    1000001   -1
    0.022870554   2   -1000001    1
    0.015367425   2    1000022    23
    0.0058749219   3    1000024    5   -6
    0.0058749219   3   -1000024   -5    6
    0.0039093114   3    1000023    6   -6
    0.0036724813   3    1000022    6   -6
    0.0018590311   2    1000005   -5
    0.0018590311   2   -1000005    5
    0.0018251797   3    1000021    6   -6
    0.00026603432   2    1000025    25
    0.00013871336   2    1000006   -6
    0.00013871336   2   -1000006    6

DECAY 1000021  6.0240295e-06
    0.49846639   2    1000022    21
    0.4419335   2    1000023    21
    0.028326187   3    1000022    5   -5
    0.025799812   3    1000023    5   -5
    0.0010214706   3    1000022    4   -4
    0.00097756105   3    1000022    2   -2
    0.00062531616   3    1000024    5   -6
    0.00062531616   3   -1000024   -5    6
    0.00055395957   3    1000022    3   -3
    0.00044126372   3    1000024    3   -4
    0.00044126372   3   -1000024   -3    4
    0.00035673368   3    1000023    3   -3
    0.00018238925   3    1000022    1   -1
    0.00010412702   3    1000023    4   -4

DECAY 25  0.0037363475
    0.58826417   2   -5    5
    0.21210151   2   -24    24
    0.073454994   2    21    21
    0.06765929   2   -15    15
    0.029159917   2   -4    4
    0.025140752   2    23    23
    0.0023494531   2    22    22
    0.0014131997   2    22    23
    0.00023463554   2   -13    13
    0.00022131215   2   -3    3
    6.1190721e-07   2   -1    1
    1.5027146e-07   2   -2    2
    5.2748805e-09   2   -11    11

DECAY 35  88.654958
    0.8264899   2   -5    5
    0.16249381   2   -15    15
    0.0077704801   2    1000023    1000025
    0.0010184335   2   -6    6
    0.00094918382   2    1000022    1000025
    0.00052605478   2   -13    13
    0.00043664234   2   -3    3
    0.00015184097   2   -1000024    1000024
    0.00010609108   2    1000022    1000022
    3.4929699e-05   2    1000022    1000023
    1.4186748e-05   2    1000023    1000023
    4.1764643e-06   2    21    21
    2.7177233e-06   2    25    25
    1.2075948e-06   2   -1    1
    1.225101e-07   2    23    23
    7.8830742e-08   2   -1000002    1000002
    7.8800825e-08   2   -1000004    1000004
    2.4598256e-08   2   -24    24
    1.5127173e-08   2   -4    4
    1.1813553e-08   2   -11    11
    2.705241e-09   2   -1000001    1000001
    2.6811788e-09   2   -1000003    1000003
    1.984317e-09   2    22    22
    1.6180547e-09   2    22    23
    7.7979469e-14   2   -2    2

DECAY 36  83.27682
    0.82572563   2   -5    5
    0.16234368   2   -15    15
    0.0083027236   2    1000022    1000025
    0.0010748925   2   -6    6
    0.00099796549   2    1000023    1000025
    0.00052556762   2   -13    13
    0.0004362394   2   -3    3
    0.00031718513   2   -1000024    1000024
    0.00020860395   2    1000022    1000022
    3.3619116e-05   2    1000023    1000023
    2.2539209e-05   2    1000022    1000023
    9.7922274e-06   2    21    21
    1.206477e-06   2   -1    1
    2.8893425e-07   2    23    25
    2.0034498e-08   2    22    23
    1.89069e-08   2    22    22
    1.5793811e-08   2   -4    4
    1.18026e-08   2   -11    11
    8.1421505e-14   2   -2    2
    6.30121e-38   2    25    25

DECAY 37  82.934865
    0.79421333   2   -5    6
    0.19396783   2   -15    16
    0.0094549494   2    1000024    1000025
    0.0011770509   2   -5    4
    0.0006857453   2   -13    14
    0.00042950673   2   -3    4
    3.620138e-05   2    1000023    1000024
    2.0190727e-05   2   -3    2
    8.4053565e-06   2   -5    2
    3.1040365e-06   2    1000022    1000024
    2.0652419e-06   2   -3    6
    1.1923002e-06   2   -1    2
    2.903275e-07   2    24    25
    6.5352406e-08   2   -1    6
    5.6481671e-08   2   -1    4
    1.6039654e-08   2   -11    12
    3.4857354e-12   2   -1000003    1000004
    2.031631e-14   2    24    35
    5.1681484e-16   2   -1000001    1000004
    9.7933692e-19   2   -1000003    1000002
    5.0754768e-20   2   -1000001    1000002

DECAY 6  2.43
    1   2    5    24

DECAY 15 -1
