BLOCK SPINFO
   1   SPheno
   2   v4.0.5be

BLOCK SPHENOINFO
   1   2
   2   2

BLOCK MODSEL
   1   0

BLOCK MINPAR
   3    11.159307
   4   -1

BLOCK EXTPAR
   0    1665.0659
   1   -186.07559
   2   -1719.429
   3    3000
   11    2953.3796
   12    1158.0602
   13   -1815.9652
   23   -1794.6477
   25    10.695131
   26    629.32389
   31    611.59475
   32    611.59475
   33    1844.5908
   34    1877.3494
   35    1877.3494
   36    984.63588
   41    5000
   42    5000
   43    1892.9069
   44    5000
   45    5000
   46    1464.5393
   47    5000
   48    5000
   49    1031.9896

BLOCK SMINPUTS
   1    127.90897
   2    1.1663787e-05
   3    0.1184
   4    91.1876
   5    4.18
   6    173.2
   7    1.777
   8    0
   11    0.00051099893
   12    0
   13    0.10565837
   14    0
   21    0.005
   22    0.0025
   23    0.095
   24    1.27

BLOCK GAUGE Q=  1665.0659
   1    0.35536298
   2    0.66519887
   3    1.219778

BLOCK YU Q=  1665.0659
   1   1    8.4209419e-06
   2   2    0.0042778385
   3   3    1.0173174

BLOCK YD Q=  1665.0659
   1   1    0.00018097852
   2   2    0.0034385919
   3   3    0.17947398

BLOCK YE Q=  1665.0659
   1   1    3.1582075e-05
   2   2    0.0065301715
   3   3    0.10982674

BLOCK AU Q=  1665.0659
   1   1    0
   2   2    0
   3   3    2953.3796

BLOCK AD Q=  1665.0659
   1   1    0
   2   2    0
   3   3    1158.0602

BLOCK AE Q=  1665.0659
   1   1    0
   2   2    0
   3   3   -1815.9652

BLOCK MSOFT Q=  1665.0659
   1   -186.07559
   2   -1719.429
   3    3000
   21   -2846373.4
   22   -3161329.6
   31    611.59475
   32    611.59475
   33    1844.5908
   34    1877.3494
   35    1877.3494
   36    984.63588
   41    5000
   42    5000
   43    1892.9069
   44    5000
   45    5000
   46    1464.5393
   47    5000
   48    5000
   49    1031.9896

BLOCK MASS
   6    173.2
   23    91.1876
   24    80.429995
   15    1.777
   25    121.85559
   35    629.30947
   36    629.32389
   37    634.64563
   1000001    5032.4134
   2000001    5024.1787
   1000002    5031.9807
   2000002    5025.7667
   1000003    5032.4148
   2000003    5024.1781
   1000004    5031.9812
   2000004    5025.7673
   1000005    1050.1906
   2000005    1912.7016
   1000006    1421.9736
   2000006    1949.7158
   1000011    635.88597
   2000011    1879.1691
   1000012    630.70209
   1000013    635.88474
   2000013    1879.1685
   1000014    630.70225
   1000015    985.59007
   2000015    1856.6452
   1000016    1854.499
   1000021    3200.0704
   1000022   -185.49791
   1000023   -1710.0512
   1000025    1788.0597
   1000035   -1834.7962
   1000024    1710.7068
   1000037    1835.6053

BLOCK ALPHA
      -0.094518856

BLOCK HMIX Q=  1665.0659
   1   -1794.6477
   2    10.695131
   3    243.90357
   4    396048.56

BLOCK STOPMIX
   1   1   -0.2734074
   1   2    0.96189833
   2   1   -0.96189833
   2   2   -0.2734074

BLOCK SBOTMIX
   1   1   -0.022821862
   1   2    0.99973955
   2   1   -0.99973955
   2   2   -0.022821862

BLOCK STAUMIX
   1   1   -0.012473064
   1   2    0.99992221
   2   1   -0.99992221
   2   2   -0.012473064

BLOCK NMIX
   1   1    0.99966076
   1   2   -0.00040557738
   1   3   -0.025528588
   1   4    0.0051465588
   2   1   -0.012778701
   2   2   -0.82441148
   2   3   -0.4083238
   2   4    0.39173218
   3   1    0.014398568
   3   2   -0.014137311
   3   3    0.70663939
   3   4    0.70728607
   4   1   -0.017542704
   4   2    0.56581418
   4   3   -0.57730472
   4   4    0.58844356

BLOCK UMIX
   1   1   -0.7819583
   1   2   -0.62333075
   2   1   -0.62333075
   2   2    0.7819583

BLOCK VMIX
   1   1    0.79929982
   1   2    0.60093244
   2   1    0.60093244
   2   2   -0.79929982

BLOCK HIGGSBOUNDSINPUTHIGGSCOUPLINGSFERMIONS
       0, 114.38583,3,36,15,15

BLOCK HIGGSBOUNDSINPUTHIGGSCOUPLINGSBOSONS
       0,4,36,21,21,23

BLOCK SPHENOLOWENERGY
   1    0.00037873745
   2    1.5885975e-06
   3    3.5279279e-05
   4    2.4216831e-15
   5    1.0345153e-10
   6    2.1654712e-08
   7    8.1909156e-14
   8    3.4991558e-09
   9    7.4214061e-07
   10    9.5232899e-05
   11    0.98371939
   12    0.54303278
   13    19.39705
   14    0
   15    0
   16    0.0021613709
   17    2.2817021e-15
   18    2.4814421e-11
   19    8.2940549e-11
   20    1.6728938e-15
   21    7.1521272e-11
   22    1.1025252e-08
   23    0
   24    0
   25    0
   26    0
   27    0
   28    0
   29    0
   30    0
   31    0
   39    3.3200115e-05
   40    0
   41    0
   42    0

BLOCK FWCOEF Q=  160
   305   4422   0   0   -0.18881911
   305   4422   0   2   -0.24606126
   305   4322   0   2   -0.001190809
   305   6421   0   0   -0.095227835
   305   6421   0   2   -0.16164621
   305   6321   0   2   -0.001340237
   3051111   4133   0   0    1.5954462
   3051111   4133   0   2    1.5962243
   3051111   4233   0   2   -1.2327869e-05
   3051111   4137   0   0   -4.4181383
   3051111   4137   0   2   -4.4190699
   3051111   4237   0   2    9.6815635e-05
   3051313   4133   0   0    1.5954462
   3051313   4133   0   2    1.5962239
   3051313   4233   0   2   -1.2328241e-05
   3051313   4137   0   0   -4.4181383
   3051313   4137   0   2   -4.4190703
   3051313   4237   0   2    9.6815996e-05
   3051212   4137   0   0    1.5053501
   3051212   4137   0   2    1.5055569
   3051212   4237   0   2   -2.1095629e-05
   3051414   4137   0   0    1.5053501
   3051414   4137   0   2    1.5055569
   3051414   4237   0   2   -2.1095548e-05
   3051616   4137   0   0    1.5053501
   3051616   4137   0   2    1.5055574
   3051616   4237   0   2   -2.1071088e-05

BLOCK IMFWCOEF Q=  160
   305   4422   0   0    3.8585207e-07
   305   4422   0   2    1.5169237e-06
   305   4322   0   2    7.8864395e-07
   305   6421   0   0    3.3050781e-07
   305   6421   0   2    5.3948399e-06
   305   6321   0   2    4.8773825e-07
   3051111   4133   0   2    1.205265e-07
   3051111   4233   0   2    2.8401637e-07
   3051111   4137   0   2   -5.9574597e-07
   3051111   4237   0   2   -2.1813351e-06
   3051313   4133   0   2    1.2052487e-07
   3051313   4233   0   2    2.8401633e-07
   3051313   4137   0   2   -5.9574771e-07
   3051313   4237   0   2   -2.1813353e-06
   3051212   4137   0   2    1.9240308e-07
   3051212   4237   0   2    4.7480094e-07
   3051414   4137   0   2    1.9240306e-07
   3051414   4237   0   2    4.7480094e-07
   3051616   4137   0   2    2.0140451e-07
   3051616   4237   0   2    4.7483248e-07

DECAY 23  2.4952


DECAY 24  2.085


DECAY 1000011  0.66714196
    0.99999999   2    1000022    11

DECAY 2000011  9.2528112
    0.9999925   2    1000022    11

DECAY 1000013  0.66714035
    0.99999999   2    1000022    13

DECAY 2000013  9.2534981
    0.99991801   2    1000022    13

DECAY 1000015  4.604363
    1   2    1000022    15

DECAY 2000015  3.13336
    0.72816909   2    1000022    15
    0.072500292   2   -1000024    16
    0.041988842   2    1000023    15
    0.039326584   2    1000015    23
    0.039015527   2    1000015    35
    0.038961076   2    1000015    36
    0.038178253   2    1000015    25
    0.0010344745   2   -1000037    16
    0.00045180205   2    1000035    15
    0.00037405866   2    1000025    15

DECAY 1000012  0.66168005
    1   2    1000022    12

DECAY 1000014  0.66168027
    1   2    1000022    14

DECAY 1000016  3.1329471
    0.72937117   2    1000022    16
    0.078500217   2    1000015    24
    0.076899953   2    1000015    37
    0.074964871   2    1000024    15
    0.039036222   2    1000023    16
    0.00083635856   2    1000037    15
    0.0003850632   2    1000035    16

DECAY 2000001  142.87133
    0.9804238   2    1000021    1
    0.019566017   2    1000022    1

DECAY 1000001  192.86941
    0.73070734   2    1000021    1
    0.10986324   2   -1000024    2
    0.067077066   2   -1000037    2
    0.060733661   2    1000023    1
    0.027948241   2    1000035    1
    0.0036459943   2    1000022    1

DECAY 2000003  142.87307
    0.98041146   2    1000021    3
    0.019565782   2    1000022    3

DECAY 1000003  192.87187
    0.73069875   2    1000021    3
    0.10986431   2   -1000024    4
    0.067081048   2   -1000037    4
    0.060733726   2    1000023    3
    0.027949415   2    1000035    3
    0.0036459529   2    1000022    3

DECAY 1000005  0.55119821
    1   2    1000022    5

DECAY 2000005  32.122146
    0.950561   2    1000006   -24
    0.012911255   2    1000005    23
    0.012866764   2    1000005    25
    0.0081628831   2    1000022    5
    0.0073771779   2    1000023    5
    0.002490901   2   -1000024    6
    0.0023663506   2    1000005    36
    0.0023536824   2    1000005    35
    0.00060672245   2    1000035    5
    0.00030326141   2    1000025    5

DECAY 2000002  151.43067
    0.92609788   2    1000021    2
    0.073863803   2    1000022    2

DECAY 1000002  192.85817
    0.73051649   2    1000021    2
    0.11478182   2    1000024    1
    0.062338072   2    1000037    1
    0.061403469   2    1000023    2
    0.027335583   2    1000035    2
    0.003612816   2    1000022    2

DECAY 2000004  151.43345
    0.92608083   2    1000021    4
    0.073862442   2    1000022    4

DECAY 1000004  192.86046
    0.73050777   2    1000021    4
    0.1147823   2    1000024    3
    0.062340186   2    1000037    3
    0.061403991   2    1000023    4
    0.027337608   2    1000035    4
    0.0036127731   2    1000022    4

DECAY 1000006  2.7803829
    0.99745747   2    1000022    6
    0.0023905436   2    1000005    24

DECAY 2000006  36.478302
    0.46800796   2    1000006    23
    0.46254361   2    1000006    25
    0.023520396   2    1000005    24
    0.014816807   2    1000022    6
    0.013605401   2    1000023    6
    0.0072564215   2    1000024    5
    0.0053842416   2    1000037    5
    0.0048651647   2    1000005    37

DECAY 1000024  17.872613
    0.20097404   2    1000014   -13
    0.20096185   2    1000012   -11
    0.19133909   2   -1000013    14
    0.19133885   2   -1000011    12
    0.14720418   2    1000006   -5
    0.025795848   2    1000022    24
    0.021117724   2    37    1000022
    0.018027229   2   -1000005    6
    0.0023865791   2   -1000015    16
    0.00082222184   3    1000022   -5    6

DECAY 1000037  17.772904
    0.22415939   2    1000006   -5
    0.13677977   2   -1000013    14
    0.13677963   2   -1000011    12
    0.12771039   2    1000014   -13
    0.12769   2    1000012   -11
    0.12055134   2    1000023    24
    0.045773456   2    1000022    24
    0.028633827   2    37    1000022
    0.025876767   2   -1000005    6
    0.020116862   2    1000024    23
    0.003389113   2   -1000015    16
    0.0015654828   3    1000022   -5    6
    0.00091044448   2    1000024    25

DECAY 1000022 -1


DECAY 1000023  17.708109
    0.10904841   2    1000013   -13
    0.10904841   2   -1000013    13
    0.10904342   2    1000011   -11
    0.10904342   2   -1000011    11
    0.10604115   2    1000012   -12
    0.10604115   2   -1000012    12
    0.10604113   2    1000014   -14
    0.10604113   2   -1000014    14
    0.04195495   2    1000006   -6
    0.04195495   2   -1000006    6
    0.01413939   2    1000022    25
    0.0093647871   2    1000022    35
    0.0079163644   2    1000022    36
    0.0075343574   2    1000005   -5
    0.0075343574   2   -1000005    5
    0.0065667419   2    1000022    23
    0.0010744722   2    1000015   -15
    0.0010744722   2   -1000015    15
    0.00048577224   3    1000022    6   -6

DECAY 1000025  8.134555
    0.30226969   2    1000006   -6
    0.30226969   2   -1000006    6
    0.10895825   2    1000022    23
    0.07715148   2    1000022    35
    0.067144557   2    1000022    25
    0.045115298   2    1000005   -5
    0.045115298   2   -1000005    5
    0.032811577   2    1000022    36
    0.0064198769   2    1000015   -15
    0.0064198769   2   -1000015    15
    0.003276779   3    1000022    6   -6
    0.00024372734   3    1000023    12   -12
    0.00018222849   3    1000023    1   -1
    0.00018222671   3    1000023    3   -3
    0.00017833172   3    1000023    5   -5
    0.00017672386   2    1000012   -12
    0.00017672386   2   -1000012    12
    0.00017672383   2    1000014   -14
    0.00017672383   2   -1000014    14
    0.00016028844   3    1000024    1   -2
    0.00016028844   3   -1000024   -1    2
    0.00016020166   3    1000024    3   -4
    0.00016020166   3   -1000024   -3    4
    0.00014212377   3    1000023    2   -2
    0.00014179782   3    1000023    4   -4

DECAY 1000035  15.28409
    0.10847247   2    1000006   -6
    0.10847247   2   -1000006    6
    0.06796992   2    1000012   -12
    0.06796992   2   -1000012    12
    0.067969911   2    1000014   -14
    0.067969911   2   -1000014    14
    0.065454283   2    1000024   -24
    0.065454283   2   -1000024    24
    0.063344654   2    1000013   -13
    0.063344654   2   -1000013    13
    0.063331209   2    1000011   -11
    0.063331209   2   -1000011    11
    0.035896996   2    1000022    25
    0.018305946   2    1000022    23
    0.017411381   2    1000022    35
    0.016397964   2    1000022    36
    0.015390691   2    1000005   -5
    0.015390691   2   -1000005    5
    0.002226156   2    1000015   -15
    0.002226156   2   -1000015    15
    0.0021233692   2    1000023    25
    0.0014205122   3    1000022    6   -6

DECAY 1000021  214.0802
    0.17616677   2    1000005   -5
    0.17616677   2   -1000005    5
    0.15228419   2    1000006   -6
    0.15228419   2   -1000006    6
    0.091378414   2    2000005   -5
    0.091378414   2   -2000005    5
    0.079140143   2    2000006   -6
    0.079140143   2   -2000006    6
    0.00075745509   3    1000025    6   -6
    0.00038186298   3    1000037    5   -6
    0.00038186298   3   -1000037   -5    6
    0.00025121139   3    1000035    6   -6

DECAY 25  0.0038689286
    0.64845442   2   -5    5
    0.16282347   2   -24    24
    0.072068553   2   -15    15
    0.06665109   2    21    21
    0.027778066   2   -4    4
    0.018499813   2    23    23
    0.0021167854   2    22    22
    0.0011198793   2    22    23
    0.00025031332   2   -13    13
    0.00023679737   2   -3    3
    6.5471445e-07   2   -1    1
    1.4315603e-07   2   -2    2
    5.6273648e-09   2   -11    11

DECAY 35  2.1589088
    0.80661618   2   -5    5
    0.10868363   2   -6    6
    0.079828855   2   -15    15
    0.0025008393   2    25    25
    0.00097221506   2   -24    24
    0.00049535658   2    23    23
    0.0002837222   2   -13    13
    0.00020903041   2   -3    3
    0.00020454113   2    1000022    1000022
    0.00020262477   2    21    21
    1.8301416e-06   2   -4    4
    5.7787511e-07   2   -1    1
    4.6051046e-07   2    22    22
    1.3600172e-07   2    22    23
    6.3752888e-09   2   -11    11
    9.4373175e-12   2   -2    2

DECAY 36  2.1956879
    0.78387911   2   -5    5
    0.13648423   2   -6    6
    0.077581988   2   -15    15
    0.00081899027   2    23    25
    0.00042194678   2    21    21
    0.00033166448   2    1000022    1000022
    0.00027572588   2   -13    13
    0.00020313566   2   -3    3
    1.5742981e-06   2   -4    4
    8.4343262e-07   2    22    22
    5.6157864e-07   2   -1    1
    2.3013869e-07   2    22    23
    6.1956103e-09   2   -11    11
    8.1171751e-12   2   -2    2
    7.8625521e-34   2    25    25

DECAY 37  1.7871936
    0.9084483   2   -5    6
    0.088434732   2   -15    16
    0.0013341958   2   -5    4
    0.0010518246   2    24    25
    0.00031265302   2   -13    14
    0.00022429345   2   -3    4
    0.00016592327   2   -3    6
    1.0212309e-05   2   -3    2
    9.5275898e-06   2   -5    2
    7.597289e-06   2   -1    6
    6.173804e-07   2   -1    2
    1.0877681e-07   2   -1    4
    7.312987e-09   2   -11    12
    3.2639754e-09   2    24    35
    3.2202538e-09   2    24    36

DECAY 6  2.43
    1   2    5    24

DECAY 15 -1
