BLOCK SPINFO
   1   SPheno
   2   v4.0.5be

BLOCK SPHENOINFO
   1   2
   2   2

BLOCK MODSEL
   1   0

BLOCK MINPAR
   3    11.859658
   4    1

BLOCK EXTPAR
   0    1289.1631
   1   -1338.7637
   2   -894.36688
   3    3000
   11   -2634.906
   12   -519.05345
   13   -1512.5711
   23    460.7765
   25    11.424495
   26    4646.1913
   31    941.66194
   32    941.66194
   33    815.14419
   34    1883.8159
   35    1883.8159
   36    1646.6572
   41    5000
   42    5000
   43    1442.5117
   44    5000
   45    5000
   46    1281.1746
   47    5000
   48    5000
   49    1155.6039

BLOCK SMINPUTS
   1    127.90897
   2    1.1663787e-05
   3    0.1184
   4    91.1876
   5    4.18
   6    173.2
   7    1.777
   8    0
   11    0.00051099893
   12    0
   13    0.10565837
   14    0
   21    0.005
   22    0.0025
   23    0.095
   24    1.27

BLOCK GAUGE Q=  1289.1631
   1    0.35536298
   2    0.66519887
   3    1.219778

BLOCK YU Q=  1289.1631
   1   1    8.4164302e-06
   2   2    0.0042755465
   3   3    1.0167724

BLOCK YD Q=  1289.1631
   1   1    0.00019321693
   2   2    0.0036711216
   3   3    0.19161065

BLOCK YE Q=  1289.1631
   1   1    3.3717767e-05
   2   2    0.0069717648
   3   3    0.11725362

BLOCK AU Q=  1289.1631
   1   1    0
   2   2    0
   3   3   -2634.906

BLOCK AD Q=  1289.1631
   1   1    0
   2   2    0
   3   3   -519.05344

BLOCK AE Q=  1289.1631
   1   1    0
   2   2    0
   3   3   -1512.5712

BLOCK MSOFT Q=  1289.1631
   1   -1338.7637
   2   -894.36688
   3    3000
   21    21126672
   22   -21031.158
   31    941.66194
   32    941.66194
   33    815.14419
   34    1883.8159
   35    1883.8159
   36    1646.6572
   41    5000
   42    5000
   43    1442.5117
   44    5000
   45    5000
   46    1281.1746
   47    5000
   48    5000
   49    1155.6039

BLOCK MASS
   6    173.2
   23    91.1876
   24    80.429995
   15    1.777
   25    121.95006
   35    4645.6934
   36    4646.1913
   37    4646.5708
   1000001    5018.7666
   2000001    5008.5692
   1000002    5018.33
   2000002    5012.7183
   1000003    5018.7677
   2000003    5008.5703
   1000004    5018.3311
   2000004    5012.7193
   1000005    1115.5969
   2000005    1395.5117
   1000006    1129.3418
   2000006    1471.6019
   1000011    959.59426
   2000011    1880.408
   1000012    955.92999
   1000013    959.59856
   2000013    1880.4119
   1000014    955.93431
   1000015    837.30704
   2000015    1644.3887
   1000016    833.19842
   1000021    3173.1564
   1000022   -464.15758
   1000023    473.85858
   1000025   -941.41862
   1000035   -1341.5471
   1000024    467.72968
   1000037    941.64528

BLOCK ALPHA
      -0.084201098

BLOCK HMIX Q=  1289.1631
   1    460.7765
   2    11.424495
   3    244.16121
   4    21587094

BLOCK STOPMIX
   1   1    0.47829369
   1   2    0.87819995
   2   1   -0.87819995
   2   2    0.47829369

BLOCK SBOTMIX
   1   1    0.018307891
   1   2    0.9998324
   2   1   -0.9998324
   2   2    0.018307891

BLOCK STAUMIX
   1   1    0.99998241
   1   2    0.0059320187
   2   1   -0.0059320187
   2   2    0.99998241

BLOCK NMIX
   1   1   -0.032029209
   1   2    0.10668366
   1   3   -0.70812372
   1   4   -0.6972471
   2   1    0.018743396
   2   2   -0.043675068
   2   3   -0.70458189
   2   4    0.70802933
   3   1    0.01127791
   3   2    0.99330885
   3   3    0.045004051
   3   4    0.10575901
   4   1   -0.99924753
   4   2    0.0069720822
   4   3    0.0099894536
   4   4    0.036823596

BLOCK UMIX
   1   1   -0.064455645
   1   2    0.99792057
   2   1   -0.99792057
   2   2   -0.064455645

BLOCK VMIX
   1   1    0.15114137
   1   2    0.98851216
   2   1    0.98851216
   2   2   -0.15114137

BLOCK HIGGSBOUNDSINPUTHIGGSCOUPLINGSFERMIONS
       0, 130.51908,3,36,15,15

BLOCK HIGGSBOUNDSINPUTHIGGSCOUPLINGSBOSONS
       0,4,36,21,21,23

BLOCK SPHENOLOWENERGY
   1    0.00030533324
   2    1.5902998e-06
   3    3.5198653e-05
   4    2.4712981e-15
   5    1.0557105e-10
   6    2.2100754e-08
   7    8.3227885e-14
   8    3.5554928e-09
   9    7.5416806e-07
   10    9.6774451e-05
   11    0.99964303
   12    0.54308301
   13    19.404674
   14    0
   15    0
   16    0.0021615662
   17    2.2817014e-15
   18    2.4781107e-11
   19    8.2851421e-11
   20   -3.437845e-15
   21   -1.4698063e-10
   22   -4.5837167e-08
   23    0
   24    0
   25    0
   26    0
   27    0
   28    0
   29    0
   30    0
   31    0
   39   -3.1325248e-06
   40    0
   41    0
   42    0

BLOCK FWCOEF Q=  160
   305   4422   0   0   -0.18881911
   305   4422   0   2   -0.17002666
   305   4322   0   2    4.9805067e-05
   305   6421   0   0   -0.095227835
   305   6421   0   2   -0.089092489
   305   6321   0   2   -3.9815505e-05
   3051111   4133   0   0    1.5863668
   3051111   4133   0   2    1.587565
   3051111   4233   0   2    2.0476902e-05
   3051111   4137   0   0   -4.4090589
   3051111   4137   0   2   -4.4020786
   3051111   4237   0   2   -0.00015952135
   3051313   4133   0   0    1.5863668
   3051313   4133   0   2    1.5875645
   3051313   4233   0   2    2.0476895e-05
   3051313   4137   0   0   -4.4090589
   3051313   4137   0   2   -4.402079
   3051313   4237   0   2   -0.00015952137
   3051212   4137   0   0    1.5053501
   3051212   4137   0   2    1.503838
   3051212   4237   0   2    3.4810193e-05
   3051414   4137   0   0    1.5053501
   3051414   4137   0   2    1.503838
   3051414   4237   0   2    3.4810193e-05
   3051616   4137   0   0    1.5053501
   3051616   4137   0   2    1.5038378
   3051616   4237   0   2    3.4810301e-05

BLOCK IMFWCOEF Q=  160
   305   4422   0   0    3.8584126e-07
   305   4422   0   2   -5.5234435e-06
   305   4322   0   2    1.9153813e-06
   305   6421   0   0    3.3049855e-07
   305   6421   0   2   -4.5405057e-06
   305   6321   0   2    6.9233974e-07
   3051111   4133   0   2   -2.6381536e-06
   3051111   4233   0   2    3.9474537e-07
   3051111   4137   0   2    2.0024076e-05
   3051111   4237   0   2   -3.0772025e-06
   3051313   4133   0   2   -2.6381556e-06
   3051313   4233   0   2    3.9474527e-07
   3051313   4137   0   2    2.0024089e-05
   3051313   4237   0   2   -3.0772029e-06
   3051212   4137   0   2   -4.1566806e-06
   3051212   4237   0   2    6.7149612e-07
   3051414   4137   0   2   -4.1566809e-06
   3051414   4237   0   2    6.7149612e-07
   3051616   4137   0   2   -4.1590225e-06
   3051616   4237   0   2    6.7149755e-07

DECAY 23  2.4952


DECAY 24  2.085


DECAY 1000011  0.060519665
    0.3370791   2   -1000024    12
    0.32858139   2    1000022    11
    0.19090563   2   -1000037    12
    0.09813284   2    1000025    11
    0.045301015   2    1000023    11

DECAY 2000011  2.2866389
    0.99469316   2    1000035    11
    0.0037380826   2    1000022    11
    0.0012736298   2    1000023    11
    0.00029511411   2    1000025    11

DECAY 1000013  0.061064728
    0.33407369   2   -1000024    14
    0.33011225   2    1000022    13
    0.18929057   2   -1000037    14
    0.097301168   2    1000025    13
    0.049222308   2    1000023    13

DECAY 2000013  2.2898989
    0.99328774   2    1000035    13
    0.0040838243   2    1000022    13
    0.001617712   2    1000023    13
    0.0006959368   2   -1000024    14
    0.00029559602   2    1000025    13

DECAY 1000015  0.13900579
    0.50038182   2    1000022    15
    0.39195731   2    1000023    15
    0.10766085   2   -1000024    16

DECAY 2000015  1.7753457
    0.51967441   2    1000035    15
    0.21218299   2   -1000024    16
    0.11072066   2    1000022    15
    0.10757904   2    1000023    15
    0.024221885   2    1000016   -24
    0.011928308   2    1000015    23
    0.011788053   2    1000015    25
    0.0010998557   2   -1000037    16
    0.00080480964   2    1000025    15

DECAY 1000012  0.1667386
    0.66695107   2    1000024    11
    0.22586492   2    1000022    12
    0.04339338   2    1000037    11
    0.04146087   2    1000023    12
    0.022329758   2    1000025    12

DECAY 1000014  0.16728112
    0.66799126   2    1000024    13
    0.22513469   2    1000022    14
    0.043276821   2    1000037    13
    0.041326837   2    1000023    14
    0.022270399   2    1000025    14

DECAY 1000016  0.21725642
    0.85462449   2    1000024    15
    0.12304215   2    1000022    16
    0.022333366   2    1000023    16

DECAY 2000001  144.07953
    0.98327374   2    1000021    1
    0.016697645   2    1000035    1

DECAY 1000001  205.04636
    0.6960959   2    1000021    1
    0.19972934   2   -1000037    2
    0.098547559   2    1000025    1
    0.0031760313   2    1000035    1
    0.0013375915   2    1000022    1
    0.00087967636   2   -1000024    2
    0.00023390593   2    1000023    1

DECAY 2000003  144.08228
    0.98325579   2    1000021    3
    0.016697333   2    1000035    3

DECAY 1000003  205.0496
    0.69608546   2    1000021    3
    0.19972643   2   -1000037    4
    0.098546039   2    1000025    3
    0.0031759826   2    1000035    3
    0.0013407952   2    1000022    3
    0.00088820081   2   -1000024    4
    0.00023709406   2    1000023    3

DECAY 1000005  1.0596077
    0.47674622   2   -1000024    6
    0.26809871   2    1000022    5
    0.25514689   2    1000023    5

DECAY 2000005  42.736098
    0.4938825   2   -1000024    6
    0.35169262   2    1000006   -24
    0.091313669   2   -1000037    6
    0.041974943   2    1000025    5
    0.010730402   2    1000022    5
    0.009594593   2    1000023    5
    0.00049525868   2    1000005    25
    0.00028747633   2    1000005    23

DECAY 2000002  151.75185
    0.9364089   2    1000021    2
    0.063482528   2    1000035    2

DECAY 1000002  205.04154
    0.69589036   2    1000021    2
    0.19596605   2    1000037    1
    0.099340204   2    1000025    2
    0.0048366026   2    1000024    1
    0.0027148388   2    1000035    2
    0.0010797657   2    1000022    2
    0.00017217861   2    1000023    2

DECAY 2000004  151.75548
    0.93638683   2    1000021    4
    0.063481022   2    1000035    4

DECAY 1000004  205.04472
    0.69587985   2    1000021    4
    0.19596309   2    1000037    3
    0.099338746   2    1000025    4
    0.0048429357   2    1000024    3
    0.0027148092   2    1000035    4
    0.0010840096   2    1000022    4
    0.00017656186   2    1000023    4

DECAY 1000006  23.416286
    0.46380747   2    1000024    5
    0.26442629   2    1000023    6
    0.2513544   2    1000022    6
    0.017992528   2    1000037    5
    0.0024053882   2    1000025    6

DECAY 2000006  55.952227
    0.23737156   2    1000022    6
    0.23283811   2    1000023    6
    0.21223664   2    1000006    23
    0.14900688   2    1000024    5
    0.10121655   2    1000006    25
    0.046353897   2    1000037    5
    0.020264922   2    1000025    6
    0.00071144409   2    1000005    24

DECAY 1000024  1.9187203e-09
    0.43328062   3    1000022   -1    2
    0.23556157   3    1000022   -3    4
    0.14445937   3    1000022   -11    12
    0.14383129   3    1000022   -13    14
    0.04286715   3    1000022   -15    16

DECAY 1000037  6.6890212
    0.24421971   2    1000022    24
    0.23383868   2    1000023    24
    0.2315052   2    1000024    23
    0.22911844   2    1000024    25
    0.028541468   2    1000016   -15
    0.02703412   2   -1000015    16
    0.0030269989   3    1000022   -5    6
    0.0019530385   3    1000023   -5    6
    0.00070638775   3    1000024    6   -6

DECAY 1000022 -1


DECAY 1000023  3.1895607e-07
    0.45983152   2    1000022    22
    0.12716007   3    1000022    12   -12
    0.09507416   3    1000022    1   -1
    0.094951346   3    1000022    3   -3
    0.074149646   3    1000022    2   -2
    0.05681222   3    1000022    4   -4
    0.02145424   3    1000022    11   -11
    0.021410652   3    1000022    13   -13
    0.011995373   3    1000022    15   -15
    0.0068626665   3    1000024    1   -2
    0.0068626665   3   -1000024   -1    2
    0.0052733957   3    1000024    3   -4
    0.0052733957   3   -1000024   -3    4
    0.0022876861   3    1000024    11   -12
    0.0022876861   3   -1000024   -11    12
    0.0022833749   3    1000024    13   -14
    0.0022833749   3   -1000024   -13    14
    0.0013729638   3    1000024    15   -16
    0.0013729638   3   -1000024   -15    16
    0.001000599   3    1000022    5   -5

DECAY 1000025  8.6053966
    0.21795464   2    1000023    25
    0.19814835   2    1000024   -24
    0.19814835   2   -1000024    24
    0.16406535   2    1000023    23
    0.14666561   2    1000022    25
    0.02624654   2    1000022    23
    0.011019555   2    1000016   -16
    0.011019555   2   -1000016    16
    0.010491557   2    1000015   -15
    0.010491557   2   -1000015    15
    0.00270658   3    1000024    5   -6
    0.00270658   3   -1000024   -5    6
    0.00015342224   3    1000023    6   -6
    0.00012382057   3    1000022    6   -6

DECAY 1000035  7.2542328
    0.10866784   2    1000023    25
    0.1007074   2    1000024   -24
    0.1007074   2   -1000024    24
    0.084379153   2    1000023    23
    0.073400178   2    1000022    25
    0.044912032   2    1000016   -16
    0.044912032   2   -1000016    16
    0.042098473   2    1000015   -15
    0.042098473   2   -1000015    15
    0.028842798   2    1000012   -12
    0.028842798   2   -1000012    12
    0.02884226   2    1000014   -14
    0.02884226   2   -1000014    14
    0.027051789   2    1000022    23
    0.026945204   2    1000006   -6
    0.026945204   2   -1000006    6
    0.026942528   2    1000011   -11
    0.026942528   2   -1000011    11
    0.026942028   2    1000013   -13
    0.026942028   2   -1000013    13
    0.014701305   2    1000005   -5
    0.014701305   2   -1000005    5
    0.0053609844   2    1000037   -24
    0.0053609844   2   -1000037    24
    0.0046302154   2    1000025    25
    0.0031785903   3    1000024    5   -6
    0.0031785903   3   -1000024   -5    6
    0.0014256506   3    1000023    6   -6
    0.0011587858   3    1000022    6   -6
    0.00018839336   2    1000025    23

DECAY 1000021  261.93686
    0.13769227   2    1000005   -5
    0.13769227   2   -1000005    5
    0.12305745   2    2000006   -6
    0.12305745   2   -2000006    6
    0.12231194   2    1000006   -6
    0.12231194   2   -1000006    6
    0.11665713   2    2000005   -5
    0.11665713   2   -2000005    5
    0.0001435208   2    1000006   -4
    0.0001435208   2   -1000006    4

DECAY 25  0.003510522
    0.61843711   2   -5    5
    0.18136429   2   -24    24
    0.074044572   2    21    21
    0.070814094   2   -15    15
    0.030634487   2   -4    4
    0.020645826   2    23    23
    0.0023370863   2    22    22
    0.0012438872   2    22    23
    0.00024561421   2   -13    13
    0.00023223412   2   -3    3
    6.4210403e-07   2   -1    1
    1.578765e-07   2   -2    2
    5.5217213e-09   2   -11    11

DECAY 35  65.161338
    0.25375359   2   -1000024    1000037
    0.25375359   2   -1000037    1000024
    0.14139513   2    1000022    1000025
    0.1114985   2    1000023    1000025
    0.092191545   2   -5    5
    0.038185851   2    1000022    1000035
    0.030891108   2    1000023    1000035
    0.018781585   2   -15    15
    0.018516097   2   -6    6
    0.015315172   2   -1000024    1000024
    0.0056160566   2    1000022    1000022
    0.0041681671   2   -2000006    2000006
    0.0032600652   2   -1000037    1000037
    0.003130373   2   -1000006    1000006
    0.0018167849   2   -2000006    1000006
    0.0018167849   2   -1000006    2000006
    0.0015833495   2    1000025    1000025
    0.00084142351   2   -2000015    1000015
    0.00084142351   2   -1000015    2000015
    0.00068579242   2    1000023    1000023
    0.00052324925   2    1000022    1000023
    0.00045408533   2   -2000005    1000005
    0.00045408533   2   -1000005    2000005
    0.00038878297   2    1000025    1000035
    6.5308106e-05   2   -13    13
    3.7888044e-05   2   -3    3
    1.4528935e-05   2    1000035    1000035
    6.2988374e-06   2    25    25
    1.3496253e-06   2    21    21
    1.3001537e-06   2    23    23
    1.1283039e-06   2   -1000015    1000015
    9.7814188e-07   2   -1000005    1000005
    7.4367951e-07   2   -2000005    2000005
    5.6978898e-07   2   -1000011    1000011
    5.69367e-07   2   -1000013    1000013
    2.5920891e-07   2   -4    4
    2.358944e-07   2   -2000011    2000011
    2.3570933e-07   2   -2000013    2000013
    2.3231492e-07   2   -24    24
    1.0474748e-07   2   -1    1
    4.4033607e-08   2    22    23
    2.1274043e-08   2   -2000015    2000015
    1.9328553e-09   2   -2000013    1000013
    1.9328553e-09   2   -1000013    2000013
    1.4665582e-09   2   -11    11
    9.9079097e-10   2    22    22
    1.336109e-12   2   -2    2
    4.5209694e-14   2   -2000011    1000011
    4.5209694e-14   2   -1000011    2000011

DECAY 36  64.734485
    0.25702088   2   -1000024    1000037
    0.25702088   2   -1000037    1000024
    0.14475825   2    1000023    1000025
    0.11104979   2    1000022    1000025
    0.088793777   2   -5    5
    0.038399768   2    1000023    1000035
    0.031327513   2    1000022    1000035
    0.018089411   2   -15    15
    0.016682839   2   -6    6
    0.013821683   2   -1000024    1000024
    0.0055289967   2   -2000006    1000006
    0.0055289967   2   -1000006    2000006
    0.0042166654   2    1000022    1000022
    0.0017818467   2   -1000037    1000037
    0.0011673527   2    1000022    1000023
    0.0010106884   2    1000023    1000023
    0.00087167822   2    1000025    1000025
    0.00084714829   2   -2000015    1000015
    0.00084714829   2   -1000015    2000015
    0.00045652587   2   -2000005    1000005
    0.00045652587   2   -1000005    2000005
    0.00020519176   2    1000025    1000035
    6.2901332e-05   2   -13    13
    3.6491903e-05   2   -3    3
    7.4263869e-06   2    21    21
    5.9329891e-06   2    1000035    1000035
    3.2937383e-06   2    23    25
    2.3284579e-07   2   -4    4
    1.0088663e-07   2   -1    1
    4.3634485e-08   2    22    23
    1.9392006e-09   2   -2000013    1000013
    1.9392006e-09   2   -1000013    2000013
    1.4125104e-09   2   -11    11
    6.9282727e-10   2    22    22
    1.2002357e-12   2   -2    2
    4.5358105e-14   2   -2000011    1000011
    4.5358105e-14   2   -1000011    2000011
    1.841694e-41   2    25    25

DECAY 37  65.512067
    0.26467351   2    1000022    1000037
    0.26166281   2    1000024    1000025
    0.25627413   2    1000023    1000037
    0.11818983   2   -5    6
    0.065399015   2    1000024    1000035
    0.01995037   2   -15    16
    0.0058884783   2   -2000005    1000006
    0.0032034592   2    1000023    1000024
    0.0016741322   2   -2000015    1000016
    0.0010037755   2   -2000005    2000006
    0.00097903184   2   -1000005    2000006
    0.00058350459   2    1000035    1000037
    0.00020524573   2    1000022    1000024
    0.00014725179   2   -5    4
    7.0531652e-05   2   -13    14
    3.5577254e-05   2   -3    4
    2.7153787e-05   2   -3    6
    1.7208138e-05   2   -1000005    1000006
    3.2562837e-06   2    24    25
    2.9606678e-06   2   -1000015    1000016
    2.2269131e-06   2   -1000011    1000012
    2.2263247e-06   2   -1000013    1000014
    1.6630591e-06   2   -3    2
    1.2429767e-06   2   -1    6
    1.0515269e-06   2   -5    2
    2.3508571e-07   2    1000025    1000037
    9.8044119e-08   2   -1    2
    1.5917928e-08   2   -1    4
    3.8714119e-09   2   -2000013    1000014
    1.6497427e-09   2   -11    12
    9.0552838e-14   2   -2000011    1000012

DECAY 6  2.43
    1   2    5    24

DECAY 15 -1
