BLOCK SPINFO
   1   SPheno
   2   v4.0.5be

BLOCK SPHENOINFO
   1   2
   2   2

BLOCK MODSEL
   1   0

BLOCK MINPAR
   3    43.867473
   4   -1

BLOCK EXTPAR
   0    2805.7151
   1   -389.67226
   2   -3666.207
   3    3130.6042
   11    4592.0671
   12    3204.0664
   13    7152.3222
   23   -1210.767
   25    44.11926
   26    763.22744
   31    1019.8949
   32    1019.8949
   33    4232.1366
   34    4160.5433
   35    4160.5433
   36    2514.9279
   41    3520.3244
   42    3520.3244
   43    4014.0561
   44    2958.6748
   45    2958.6748
   46    1854.805
   47    3234.2216
   48    3234.2216
   49    730.06144

BLOCK SMINPUTS
   1    127.90897
   2    1.1663787e-05
   3    0.1184
   4    91.1876
   5    4.18
   6    173.2
   7    1.777
   8    0
   11    0.00051099893
   12    0
   13    0.10565837
   14    0
   21    0.005
   22    0.0025
   23    0.095
   24    1.27

BLOCK GAUGE Q=  2805.7151
   1    0.35536298
   2    0.66519887
   3    1.219778

BLOCK YU Q=  2805.7151
   1   1    8.3865256e-06
   2   2    0.004260355
   3   3    1.0131596

BLOCK YD Q=  2805.7151
   1   1    0.00074351639
   2   2    0.014126811
   3   3    0.73733527

BLOCK YE Q=  2805.7151
   1   1    0.00012974905
   2   2    0.026827988
   3   3    0.45120262

BLOCK AU Q=  2805.7151
   1   1    0
   2   2    0
   3   3    4592.0671

BLOCK AD Q=  2805.7151
   1   1    0
   2   2    0
   3   3    3204.0662

BLOCK AE Q=  2805.7151
   1   1    0
   2   2    0
   3   3    7152.322

BLOCK MSOFT Q=  2805.7151
   1   -389.67226
   2   -3666.207
   3    3130.6042
   21   -820460.76
   22   -1457347.7
   31    1019.8949
   32    1019.8949
   33    4232.1366
   34    4160.5433
   35    4160.5433
   36    2514.9279
   41    3520.3244
   42    3520.3244
   43    4014.0561
   44    2958.6748
   45    2958.6748
   46    1854.805
   47    3234.2216
   48    3234.2216
   49    730.06144

BLOCK MASS
   6    173.2
   23    91.1876
   24    80.429995
   15    1.777
   25    124.58879
   35    762.94516
   36    763.22744
   37    769.35612
   1000001    3631.9235
   2000001    3331.63
   1000002    3631.0614
   2000002    3064.9158
   1000003    3631.919
   2000003    3331.6204
   1000004    3631.0564
   2000004    3064.9154
   1000005    916.23617
   2000005    4044.6287
   1000006    1943.5743
   2000006    4050.2887
   1000011    1050.1873
   2000011    4165.0162
   1000012    1046.8412
   1000013    1050.1856
   2000013    4164.9848
   1000014    1046.8398
   1000015    2506.1017
   2000015    4227.2276
   1000016    4226.0485
   1000021    3326.5975
   1000022   -386.07858
   1000023   -1211.334
   1000025    1212.8164
   1000035   -3675.2293
   1000024    1210.8519
   1000037    3675.4469

BLOCK ALPHA
      -0.02379931

BLOCK HMIX Q=  2805.7151
   1   -1210.767
   2    44.11926
   3    243.32642
   4    582516.12

BLOCK STOPMIX
   1   1   -0.050993493
   1   2    0.99869899
   2   1   -0.99869899
   2   2   -0.050993493

BLOCK SBOTMIX
   1   1   -0.011804227
   1   2    0.99993033
   2   1   -0.99993033
   2   2   -0.011804227

BLOCK STAUMIX
   1   1   -0.0094195753
   1   2    0.99995563
   2   1   -0.99995563
   2   2   -0.0094195753

BLOCK NMIX
   1   1    0.9990155
   1   2   -0.00036882989
   1   3   -0.041970044
   1   4    0.014366861
   2   1    0.039842579
   2   2    0.022928244
   2   3    0.70638831
   2   4   -0.70633025
   3   1    0.019506075
   3   2   -0.010998907
   3   3    0.70652868
   3   4    0.70733002
   4   1   -0.00033061501
   4   2    0.99967654
   4   3   -0.008443411
   4   4    0.023987827

BLOCK UMIX
   1   1   -0.01199812
   1   2   -0.99992802
   2   1   -0.99992802
   2   2    0.01199812

BLOCK VMIX
   1   1    0.034013544
   1   2    0.99942137
   2   1    0.99942137
   2   2   -0.034013544

BLOCK HIGGSBOUNDSINPUTHIGGSCOUPLINGSFERMIONS
       0, 1946.5091,3,36,15,15

BLOCK HIGGSBOUNDSINPUTHIGGSCOUPLINGSBOSONS
       0,4,36,21,21,23

BLOCK SPHENOLOWENERGY
   1    0.00035613752
   2    1.5879568e-06
   3    3.5264431e-05
   4    6.3226581e-15
   5    2.7004587e-10
   6    5.3582161e-08
   7    2.2245435e-13
   8    9.5014278e-09
   9    1.9088109e-06
   10    8.3014148e-05
   11    0.85750437
   12    0.54191603
   13    19.326626
   14    0
   15    0
   16    0.0021576024
   17    2.281684e-15
   18    2.4805356e-11
   19    8.2920152e-11
   20    2.4107697e-15
   21    1.0306929e-10
   22    1.2186112e-08
   23    0
   24    0
   25    0
   26    0
   27    0
   28    0
   29    0
   30    0
   31    0
   39    7.1867595e-05
   40    0
   41    0
   42    0

BLOCK FWCOEF Q=  160
   305   4422   0   0   -0.18881911
   305   4422   0   2   -0.22284271
   305   4322   0   2   -0.00063154723
   305   6421   0   0   -0.095227835
   305   6421   0   2   -0.14273327
   305   6321   0   2   -0.00092035258
   3051111   4133   0   0    1.614743
   3051111   4133   0   2    1.6153913
   3051111   4233   0   2   -0.00013935143
   3051111   4137   0   0   -4.4374351
   3051111   4137   0   2   -4.4368875
   3051111   4237   0   2    0.0010522853
   3051313   4133   0   0    1.614743
   3051313   4133   0   2    1.6153878
   3051313   4233   0   2   -0.00013940352
   3051313   4137   0   0   -4.4374351
   3051313   4137   0   2   -4.4368911
   3051313   4237   0   2    0.0010523359
   3051212   4137   0   0    1.5053501
   3051212   4137   0   2    1.5052318
   3051212   4237   0   2   -0.0002281602
   3051414   4137   0   0    1.5053501
   3051414   4137   0   2    1.5052318
   3051414   4237   0   2   -0.00022814895
   3051616   4137   0   0    1.5053501
   3051616   4137   0   2    1.5052321
   3051616   4237   0   2   -0.00022497944

BLOCK IMFWCOEF Q=  160
   305   4422   0   0    3.8587762e-07
   305   4422   0   2    2.365679e-09
   305   4322   0   2    6.2407245e-06
   305   6421   0   0    3.305297e-07
   305   6421   0   2    1.4731652e-05
   305   6321   0   2    3.4969726e-06
   3051111   4133   0   2    6.635525e-07
   3051111   4233   0   2    4.1244071e-06
   3051111   4137   0   2   -4.3832297e-06
   3051111   4237   0   2   -3.1033678e-05
   3051313   4133   0   2    6.6352898e-07
   3051313   4233   0   2    4.1244029e-06
   3051313   4137   0   2   -4.383253e-06
   3051313   4237   0   2   -3.1033701e-05
   3051212   4137   0   2    9.5630431e-07
   3051212   4237   0   2    6.7286448e-06
   3051414   4137   0   2    9.5630367e-07
   3051414   4237   0   2    6.7286448e-06
   3051616   4137   0   2    9.6131945e-07
   3051616   4237   0   2    6.7286609e-06

DECAY 23  2.4952


DECAY 24  2.085


DECAY 1000011  0.98341373
    1   2    1000022    11

DECAY 2000011  20.563619
    0.99832175   2    1000022    11
    0.0013538217   2    1000023    11
    0.00032436849   2    1000025    11

DECAY 1000013  0.98343012
    1   2    1000022    13

DECAY 2000013  20.665767
    0.99338443   2    1000022    13
    0.0025537205   2    1000023    13
    0.0024182668   2   -1000024    14
    0.0015293206   2    1000025    13
    0.00011399521   2    1000013    25

DECAY 1000015  23.922103
    0.50157292   2    1000022    15
    0.2493463   2   -1000024    16
    0.12483143   2    1000023    15
    0.12424935   2    1000025    15

DECAY 2000015  52.25727
    0.26862714   2    1000015    36
    0.26843976   2    1000015    35
    0.1383199   2    1000023    15
    0.13781151   2    1000025    15
    0.10004273   2    1000022    15
    0.04240004   2   -1000037    16
    0.021197643   2    1000035    15
    0.011847438   2    1000015    23
    0.01129497   2    1000015    25

DECAY 1000012  0.98102781
    1   2    1000022    12

DECAY 1000014  0.98102559
    1   2    1000022    14

DECAY 1000016  52.235782
    0.53620687   2    1000015    37
    0.27672767   2    1000024    15
    0.09987934   2    1000022    16
    0.042218213   2    1000037    15
    0.023688936   2    1000015    24
    0.021140584   2    1000035    16
    0.00013757203   2    1000025    16

DECAY 2000001  1.8120483
    0.9971266   2    1000022    1
    0.0013219529   2    1000021    1
    0.0012347153   2    1000023    1
    0.00030149891   2    1000025    1

DECAY 1000001  7.9433206
    0.93628836   2    1000021    1
    0.062518585   2    1000022    1
    0.0004577747   2   -1000024    2
    0.00040050647   2    1000023    1
    0.00033473503   2    1000025    1

DECAY 2000003  1.8319008
    0.98633007   2    1000022    3
    0.0054382391   2   -1000024    4
    0.003926936   2    1000023    3
    0.0030029992   2    1000025    3
    0.0013017575   2    1000021    3

DECAY 1000003  7.9556222
    0.93481473   2    1000021    3
    0.062424956   2    1000022    3
    0.0011123516   2    1000023    3
    0.0010464324   2    1000025    3
    0.00058701145   2   -1000024    4

DECAY 1000005  0.35997197
    1   2    1000022    5

DECAY 2000005  226.58598
    0.3004001   2   -1000024    6
    0.23442052   2    1000006   -24
    0.14750397   2    1000021    5
    0.079870263   2    1000025    5
    0.0798436   2    1000023    5
    0.054102984   2    1000005    36
    0.054025697   2    1000005    35
    0.019311008   2    1000006   -37
    0.011796269   2    1000005    23
    0.0092444623   2    1000005    25
    0.0043720994   2   -1000037    6
    0.0027228345   2    1000022    5
    0.0023861957   2    1000035    5

DECAY 2000002  6.6255343
    0.99855281   2    1000022    2
    0.0011675891   2    1000023    2
    0.00027960269   2    1000025    2

DECAY 1000002  7.9324524
    0.93271709   2    1000021    2
    0.062071787   2    1000022    2
    0.0036866882   2    1000024    1
    0.0014343693   2    1000023    2

DECAY 2000004  6.6271044
    0.99831571   2    1000022    4
    0.0012264053   2    1000023    4
    0.00033908218   2    1000025    4
    0.00011880015   2    1000024    3

DECAY 1000004  7.9445321
    0.93125998   2    1000021    4
    0.061977324   2    1000022    4
    0.0051101517   2    1000024    3
    0.0014973935   2    1000023    4
    0.00015514446   2    1000025    4

DECAY 1000006  33.239807
    0.44682943   2    1000024    5
    0.21829329   2    1000025    6
    0.21597185   2    1000023    6
    0.11877115   2    1000022    6

DECAY 2000006  241.67959
    0.16930896   2    1000006    25
    0.15013808   2    1000024    5
    0.14073244   2    1000023    6
    0.14070706   2    1000025    6
    0.13820369   2    1000021    6
    0.11028156   2    1000006    23
    0.10160477   2    1000005    37
    0.02217635   2    1000005    24
    0.0090864144   2    1000006    36
    0.0089067582   2    1000006    35
    0.0046062169   2    1000037    5
    0.0023121384   2    1000022    6
    0.0019355742   2    1000035    6

DECAY 1000024  4.136075
    0.7484381   2   -1000005    6
    0.20969051   2    1000022    24
    0.037881656   2    37    1000022
    0.0036398094   3    1000022   -5    6
    0.00022891388   2    1000014   -13

DECAY 1000037  116.24844
    0.1173651   2    1000014   -13
    0.11736502   2    1000012   -11
    0.11735133   2   -1000013    14
    0.11735126   2   -1000011    12
    0.070394724   2    1000024    25
    0.066823652   2    1000024    23
    0.066777675   2    1000025    24
    0.066299471   2    1000023    24
    0.06362673   2    37    1000023
    0.060278852   2    1000024    36
    0.060138601   2    1000024    35
    0.06010437   2    37    1000025
    0.006582294   3    1000024    6   -6
    0.0042229479   3    1000025   -5    6
    0.0040226353   3    1000023   -5    6
    0.00024038241   2    1000004   -3
    0.00024032927   2    1000002   -1
    0.00023137294   2   -1000001    2
    0.00023132094   2   -1000003    4
    0.0001781386   2    37    1000022
    0.000131479   3    1000024    5   -5

DECAY 1000022 -1


DECAY 1000023  4.5302801
    0.39635994   2    1000005   -5
    0.39635994   2   -1000005    5
    0.13426478   2    1000022    25
    0.037287472   2    1000022    23
    0.032228032   2    1000022    35
    0.0017653457   2    1000022    36
    0.0013274999   3    1000022    6   -6
    0.00012979324   2    1000013   -13
    0.00012979324   2   -1000013    13

DECAY 1000025  5.0567054
    0.35770497   2    1000005   -5
    0.35770497   2   -1000005    5
    0.13989572   2    1000022    23
    0.10996367   2    1000022    25
    0.032000428   2    1000022    35
    0.0014875996   2    1000022    36
    0.0010674972   3    1000022    6   -6

DECAY 1000035  121.53708
    0.064430476   2    1000024   -24
    0.064430476   2   -1000024    24
    0.060870883   2    37   -1000024
    0.060870883   2   -37    1000024
    0.056173001   2    1000014   -14
    0.056173001   2   -1000014    14
    0.056172974   2    1000012   -12
    0.056172974   2   -1000012    12
    0.056069886   2    1000013   -13
    0.056069886   2   -1000013    13
    0.056069837   2    1000011   -11
    0.056069837   2   -1000011    11
    0.054663039   2    1000023    25
    0.05178967   2    1000025    23
    0.050273613   2    1000025    35
    0.049786835   2    1000025    25
    0.045651217   2    1000023    35
    0.011880686   2    1000023    23
    0.011802897   2    1000023    36
    0.010771747   2    1000025    36
    0.0037062137   3    1000024    5   -6
    0.0037062137   3   -1000024   -5    6
    0.0026417269   3    1000023    6   -6
    0.0025098936   3    1000025    6   -6
    0.00011386928   2    1000002   -2
    0.00011386928   2   -1000002    2
    0.00011384988   2    1000004   -4
    0.00011384988   2   -1000004    4
    0.00010954193   2    1000003   -3
    0.00010954193   2   -1000003    3
    0.00010951908   2    1000001   -1
    0.00010951908   2   -1000001    1
    0.00010365335   2    1000022    35

DECAY 1000021  132.26224
    0.31792827   2    1000005   -5
    0.31792827   2   -1000005    5
    0.1633652   2    1000006   -6
    0.1633652   2   -1000006    6
    0.0085031381   2    2000002   -2
    0.0085031381   2   -2000002    2
    0.0085030753   2    2000004   -4
    0.0085030753   2   -2000004    4
    0.00083196354   2    1000006   -4
    0.00083196354   2   -1000006    4
    0.0003653026   3    1000024    5   -6
    0.0003653026   3   -1000024   -5    6
    0.00031816268   3    1000023    5   -5
    0.00031653629   3    1000025    5   -5

DECAY 25  0.004172968
    0.60913064   2   -5    5
    0.20337544   2   -24    24
    0.066812156   2   -15    15
    0.066096264   2    21    21
    0.026219771   2   -4    4
    0.024418936   2    23    23
    0.0021498642   2    22    22
    0.0013415581   2    22    23
    0.00023287471   2   -13    13
    0.00022174415   2   -3    3
    6.1308162e-07   2   -1    1
    1.3511779e-07   2   -2    2
    5.2352877e-09   2   -11    11

DECAY 35  49.002579
    0.93371313   2   -5    5
    0.065087944   2   -15    15
    0.0006182821   2   -6    6
    0.00025170515   2   -13    13
    0.00022312355   2   -3    3
    9.7376778e-05   2    21    21
    3.1584319e-06   2    25    25
    2.9030165e-06   2   -24    24
    1.6716924e-06   2    23    23
    6.166297e-07   2   -1    1
    4.7256348e-08   2    22    22
    3.1204579e-08   2    22    23
    9.8382401e-09   2   -4    4
    5.6555312e-09   2   -11    11
    5.0731013e-14   2   -2    2

DECAY 36  46.660995
    0.93363771   2   -5    5
    0.065085115   2   -15    15
    0.00067800262   2   -6    6
    0.00025168818   2   -13    13
    0.00022309535   2   -3    3
    0.00012085938   2    21    21
    2.7919932e-06   2    23    25
    6.1655171e-07   2   -1    1
    6.5807356e-08   2    22    22
    3.7024787e-08   2    22    23
    8.4550784e-09   2   -4    4
    5.6551488e-09   2   -11    11
    4.3575271e-14   2   -2    2
    6.8544737e-37   2    25    25

DECAY 37  44.883687
    0.93205531   2   -5    6
    0.065965218   2   -15    16
    0.0014968098   2   -5    4
    0.00023321291   2   -13    14
    0.00022393588   2   -3    4
    1.0688822e-05   2   -5    2
    1.030579e-05   2   -3    2
    3.010227e-06   2    24    25
    8.2760261e-07   2   -3    6
    6.2109329e-07   2   -1    2
    2.8745861e-08   2   -1    4
    2.4403535e-08   2   -1    6
    5.4548745e-09   2   -11    12
    3.2572419e-10   2    24    35
    2.6011914e-10   2    24    36

DECAY 6  2.43
    1   2    5    24

DECAY 15 -1
