BLOCK SPINFO
   1   SPheno
   2   v4.0.5be

BLOCK SPHENOINFO
   1   2
   2   2

BLOCK MODSEL
   1   0

BLOCK MINPAR
   3    39.288373
   4    1

BLOCK EXTPAR
   0    2380.4628
   1    818.11464
   2    3094.2504
   3    4644.738
   11   -5711.3656
   12   -6022.9393
   13   -4546.3189
   23    4008.4055
   25    38.173516
   26    1609.501
   31    4201.2996
   32    4201.2996
   33    4086.842
   34    2036.4125
   35    2036.4125
   36    3743.9788
   41    879.57418
   42    879.57418
   43    2744.4222
   44    1225.8689
   45    1225.8689
   46    2167.1684
   47    2684.3389
   48    2684.3389
   49    4206.8758

BLOCK SMINPUTS
   1    127.90897
   2    1.1663787e-05
   3    0.1184
   4    91.1876
   5    4.18
   6    173.2
   7    1.777
   8    0
   11    0.00051099893
   12    0
   13    0.10565837
   14    0
   21    0.005
   22    0.0025
   23    0.095
   24    1.27

BLOCK GAUGE Q=  2380.4628
   1    0.35536298
   2    0.66519887
   3    1.219778

BLOCK YU Q=  2380.4628
   1   1    8.3872485e-06
   2   2    0.0042607222
   3   3    1.013247

BLOCK YD Q=  2380.4628
   1   1    0.00064337165
   2   2    0.012224061
   3   3    0.63802307

BLOCK YE Q=  2380.4628
   1   1    0.00011227306
   2   2    0.023214507
   3   3    0.39042983

BLOCK AU Q=  2380.4628
   1   1    0
   2   2    0
   3   3   -5711.3655

BLOCK AD Q=  2380.4628
   1   1    0
   2   2    0
   3   3   -6022.94

BLOCK AE Q=  2380.4628
   1   1    0
   2   2    0
   3   3   -4546.319

BLOCK MSOFT Q=  2380.4628
   1    818.11464
   2    3094.2504
   3    4644.738
   21   -13502465
   22   -15938045
   31    4201.2996
   32    4201.2996
   33    4086.842
   34    2036.4125
   35    2036.4125
   36    3743.9788
   41    879.57418
   42    879.57418
   43    2744.4222
   44    1225.8689
   45    1225.8689
   46    2167.1684
   47    2684.3389
   48    2684.3389
   49    4206.8758

BLOCK MASS
   6    173.2
   23    91.1876
   24    80.429995
   15    1.777
   25    124.41465
   35    1609.0565
   36    1609.501
   37    1611.3202
   1000001    822.15843
   2000001    2732.6299
   1000002    818.39636
   2000002    1189.9842
   1000003    822.15233
   2000003    2732.6272
   1000004    818.3921
   2000004    1189.9825
   1000005    2727.8103
   2000005    4246.7265
   1000006    2046.8432
   2000006    2768.4599
   1000011    4214.2137
   2000011    2037.9571
   1000012    4213.0832
   1000013    4214.201
   2000013    2037.9496
   1000014    4213.071
   1000015    3739.3277
   2000015    4099.0815
   1000016    4094.6733
   1000021    4529.6922
   1000022    812.08793
   1000023    3085.9965
   1000025   -3971.1346
   1000035    3974.7243
   1000024    3086.1351
   1000037    3974.92

BLOCK ALPHA
      -0.025788695

BLOCK HMIX Q=  2380.4628
   1    4008.4055
   2    38.173516
   3    243.44984
   4    2590493.5

BLOCK STOPMIX
   1   1    0.24211806
   1   2    0.97024679
   2   1   -0.97024679
   2   2    0.24211806

BLOCK SBOTMIX
   1   1    0.99962092
   1   2    0.027532152
   2   1   -0.027532152
   2   2    0.99962092

BLOCK STAUMIX
   1   1    0.10159316
   1   2    0.99482603
   2   1   -0.99482603
   2   2    0.10159316

BLOCK NMIX
   1   1    0.99992551
   1   2   -0.00011817814
   1   3    0.011864179
   1   4   -0.0028647708
   2   1    0.0007836474
   2   2    0.99820969
   2   3   -0.047250785
   2   4    0.036662863
   3   1   -0.0063617206
   3   2    0.0074985622
   3   3    0.70699778
   3   4    0.70714739
   4   1   -0.010387205
   4   2    0.059339481
   4   3    0.70553578
   4   4   -0.70610919

BLOCK UMIX
   1   1   -0.99740111
   1   2    0.072048778
   2   1    0.072048778
   2   2    0.99740111

BLOCK VMIX
   1   1   -0.99837782
   1   2    0.056936119
   2   1    0.056936119
   2   2    0.99837782

BLOCK HIGGSBOUNDSINPUTHIGGSCOUPLINGSFERMIONS
       0, 1457.2173,3,36,15,15

BLOCK HIGGSBOUNDSINPUTHIGGSCOUPLINGSBOSONS
       0,4,36,21,21,23

BLOCK SPHENOLOWENERGY
   1    0.00032664616
   2    1.5904487e-06
   3    3.5273926e-05
   4    2.6757527e-15
   5    1.1429853e-10
   6    2.3544613e-08
   7    8.9749731e-14
   8    3.8338935e-09
   9    8.0071178e-07
   10    9.4941482e-05
   11    0.98070916
   12    0.54151726
   13    19.336111
   14    0
   15    0
   16    0.0021560979
   17    2.2816495e-15
   18    2.48154e-11
   19    8.2939064e-11
   20    7.755692e-16
   21    3.3156726e-11
   22    9.467004e-09
   23    0
   24    0
   25    0
   26    0
   27    0
   28    0
   29    0
   30    0
   31    0
   39    6.7350017e-05
   40    0
   41    0
   42    0

BLOCK FWCOEF Q=  160
   305   4422   0   0   -0.18881911
   305   4422   0   2   -0.19389539
   305   4322   0   2   -3.7355093e-05
   305   6421   0   0   -0.095227835
   305   6421   0   2   -0.10851861
   305   6321   0   2   -0.00021011892
   3051111   4133   0   0    1.6086933
   3051111   4133   0   2    1.608928
   3051111   4233   0   2    5.8051947e-05
   3051111   4137   0   0   -4.4313854
   3051111   4137   0   2   -4.4318306
   3051111   4237   0   2   -0.00044140175
   3051313   4133   0   0    1.6086933
   3051313   4133   0   2    1.6089274
   3051313   4233   0   2    5.8049422e-05
   3051313   4137   0   0   -4.4313854
   3051313   4137   0   2   -4.4318312
   3051313   4237   0   2   -0.00044139955
   3051212   4137   0   0    1.5053501
   3051212   4137   0   2    1.5054475
   3051212   4237   0   2    9.58361e-05
   3051414   4137   0   0    1.5053501
   3051414   4137   0   2    1.5054475
   3051414   4237   0   2    9.5836626e-05
   3051616   4137   0   0    1.5053501
   3051616   4137   0   2    1.5054475
   3051616   4237   0   2    9.5984975e-05

BLOCK IMFWCOEF Q=  160
   305   4422   0   0    3.8592609e-07
   305   4422   0   2    7.6384829e-06
   305   4322   0   2    5.3653804e-06
   305   6421   0   0    3.3057122e-07
   305   6421   0   2   -1.354496e-06
   305   6321   0   2    3.7046459e-06
   3051111   4133   0   2   -6.2033054e-08
   3051111   4233   0   2    2.8065936e-06
   3051111   4137   0   2    1.3912158e-06
   3051111   4237   0   2   -2.1338125e-05
   3051313   4133   0   2   -6.2039177e-08
   3051313   4233   0   2    2.8065918e-06
   3051313   4137   0   2    1.3912099e-06
   3051313   4237   0   2   -2.133813e-05
   3051212   4137   0   2   -2.890871e-07
   3051212   4237   0   2    4.6328583e-06
   3051414   4137   0   2   -2.8908712e-07
   3051414   4237   0   2    4.6328583e-06
   3051616   4137   0   2   -2.8924733e-07
   3051616   4237   0   2    4.6328584e-06

DECAY 23  2.4952


DECAY 24  2.085


DECAY 2000011  7.245133
    1   2    1000022    11

DECAY 1000011  16.822221
    0.4717434   2   -1000024    12
    0.29157646   2    1000022    11
    0.2365016   2    1000023    11
    0.00013937726   2   -1000037    12

DECAY 2000013  7.2450881
    1   2    1000022    13

DECAY 1000013  16.838218
    0.4712872   2   -1000024    14
    0.29129879   2    1000022    13
    0.2362741   2    1000023    13
    0.0009276268   2    2000013    25
    0.00013923086   2   -1000037    14

DECAY 1000015  17.043124
    0.99402346   2    1000022    15
    0.0040377454   2   -1000024    16
    0.0019387977   2    1000023    15

DECAY 2000015  16.831248
    0.39262218   2   -1000024    16
    0.28998279   2    1000022    15
    0.19725063   2    1000023    15
    0.060832662   2    1000015    23
    0.056416988   2    1000015    25
    0.0014034198   2    1000025    15
    0.0013600612   2    1000035    15
    0.00013126343   2   -1000037    16

DECAY 1000012  16.815351
    0.47214727   2    1000024    11
    0.29186341   2    1000022    12
    0.23584525   2    1000023    12

DECAY 1000014  16.815746
    0.47213134   2    1000024    13
    0.29185559   2    1000022    14
    0.23583589   2    1000023    14
    0.00011858502   2    1000037    13

DECAY 1000016  16.892197
    0.3974957   2    1000024    15
    0.28109294   2    1000022    16
    0.19823137   2    1000023    16
    0.12070561   2    1000015    24
    0.0024589577   2    1000037    15

DECAY 1000001  6.8098391e-05
    1   2    1000022    1

DECAY 2000001  1.2678659
    0.99998267   2    1000022    1

DECAY 1000003  6.8000192e-05
    1   2    1000022    3

DECAY 2000003  1.2757749
    0.99378265   2    1000022    3
    0.0062091963   2    1000003    25

DECAY 1000005  66.381241
    0.99511113   2    1000006   -24
    0.0048888663   2    1000022    5

DECAY 2000005  26.844949
    0.35936795   2    1000005    25
    0.26214728   2    2000006   -24
    0.14816535   2    1000005    23
    0.081778216   2    1000022    5
    0.073131662   2    1000006   -37
    0.038939342   2    1000006   -24
    0.015760389   2   -1000037    6
    0.010112854   2    1000025    5
    0.0098501315   2    1000035    5
    0.0005384923   2   -1000024    6
    0.00020834455   2    1000023    5

DECAY 1000002  2.6892604e-05
    1   2    1000022    2

DECAY 2000002  0.75846993
    1   2    1000022    2

DECAY 1000004  2.6179573e-05
    1   2    1000022    4

DECAY 2000004  0.75845832
    0.99999894   2    1000022    4

DECAY 1000006  3.0406391
    0.99993994   2    1000022    6

DECAY 2000006  80.217883
    0.54151715   2    1000006    25
    0.45148219   2    1000006    23
    0.0070006511   2    1000022    6

DECAY 1000024  144.87243
    0.24233109   2    1000004   -3
    0.24233024   2    1000002   -1
    0.24152001   2   -1000003    4
    0.24151928   2   -1000001    2
    0.013056809   2   -1000005    6
    0.0096996314   2    2000006   -5
    0.0094006203   2    1000006   -5

DECAY 1000037  133.55246
    0.46522812   2    1000006   -5
    0.25029967   2   -1000005    6
    0.10812091   2    2000006   -5
    0.048517983   2    1000023    24
    0.04261197   2    1000024    25
    0.041447924   2    1000024    23
    0.020810865   2    1000022    24
    0.012296361   2    37    1000022
    0.0018837958   2   -1000003    4
    0.0018692892   2   -1000001    2
    0.0013000912   3    1000024    6   -6
    0.0012893334   2    1000004   -3
    0.0012093025   3    1000023   -5    6
    0.0012073772   3    1000022   -5    6
    0.0011686325   2    1000002   -1
    0.00057320004   2   -1000015    16

DECAY 1000022 -1


DECAY 1000023  144.87611
    0.12114829   2    1000004   -4
    0.12114829   2   -1000004    4
    0.12114802   2    1000002   -2
    0.12114802   2   -1000002    2
    0.12091202   2    1000003   -3
    0.12091202   2   -1000003    3
    0.12091154   2    1000001   -1
    0.12091154   2   -1000001    1
    0.0067549004   2    1000005   -5
    0.0067549004   2   -1000005    5
    0.0045487019   2    1000006   -6
    0.0045487019   2   -1000006    6
    0.0045162742   2    2000006   -6
    0.0045162742   2   -2000006    6

DECAY 1000025  139.38145
    0.24897175   2    1000006   -6
    0.24897175   2   -1000006    6
    0.10517801   2    2000006   -6
    0.10517801   2   -2000006    6
    0.048237985   2    1000005   -5
    0.048237985   2   -1000005    5
    0.040493924   2    1000024   -24
    0.040493924   2   -1000024    24
    0.036696286   2    1000023    25
    0.03396127   2    1000023    23
    0.014592809   2    1000022    23
    0.011782885   2    1000022    25
    0.0093938355   2    1000022    35
    0.0030823021   2    1000022    36
    0.0011845607   3    1000024    5   -6
    0.0011845607   3   -1000024   -5    6
    0.0009047384   3    1000022    6   -6
    0.00049728823   3    1000023    6   -6
    0.00027676796   2    1000015   -15
    0.00027676796   2   -1000015    15

DECAY 1000035  129.9979
    0.26027889   2    1000006   -6
    0.26027889   2   -1000006    6
    0.1143373   2    2000006   -6
    0.1143373   2   -2000006    6
    0.051743054   2    1000005   -5
    0.051743054   2   -1000005    5
    0.043272225   2    1000023    25
    0.030312419   2    1000024   -24
    0.030312419   2   -1000024    24
    0.013957009   2    1000022    25
    0.0090268879   2    1000022    35
    0.0058305878   2    1000022    23
    0.0036529223   2    1000022    36
    0.0012909505   3    1000024    5   -6
    0.0012909505   3   -1000024   -5    6
    0.00098017709   3    1000022    6   -6
    0.000754685   2    1000003   -3
    0.000754685   2   -1000003    3
    0.00069269277   2    1000001   -1
    0.00069269277   2   -1000001    1
    0.000619297   2    1000004   -4
    0.000619297   2   -1000004    4
    0.00061181419   2    1000002   -2
    0.00061181419   2   -1000002    2
    0.00058935307   3    1000023    6   -6
    0.00058021268   2    1000023    23
    0.00029856759   2    1000015   -15
    0.00029856759   2   -1000015    15

DECAY 1000021  1035.586
    0.060578441   2    1000004   -4
    0.060578441   2   -1000004    4
    0.060578399   2    1000002   -2
    0.060578399   2   -1000002    2
    0.060540792   2    1000003   -3
    0.060540792   2   -1000003    3
    0.060540731   2    1000001   -1
    0.060540731   2   -1000001    1
    0.056108615   2    2000004   -4
    0.056108615   2   -2000004    4
    0.056108592   2    2000002   -2
    0.056108592   2   -2000002    2
    0.039113378   2    1000006   -6
    0.039113378   2   -1000006    6
    0.026783886   2    2000006   -6
    0.026783886   2   -2000006    6
    0.026292181   2    1000005   -5
    0.026292181   2   -1000005    5
    0.026190737   2    2000003   -3
    0.026190737   2   -2000003    3
    0.026190678   2    2000001   -1
    0.026190678   2   -2000001    1
    0.000949056   2    2000005   -5
    0.000949056   2   -2000005    5

DECAY 25  0.0038553306
    0.58648667   2   -5    5
    0.21609806   2   -24    24
    0.07143917   2    21    21
    0.067620819   2   -15    15
    0.028296467   2   -4    4
    0.025856357   2    23    23
    0.0023190716   2    22    22
    0.0014301463   2    22    23
    0.00023452294   2   -13    13
    0.00021796211   2   -3    3
    6.0263817e-07   2   -1    1
    1.4582042e-07   2   -2    2
    5.2723441e-09   2   -11    11

DECAY 35  28.118534
    0.79117049   2   -5    5
    0.20667487   2   -15    15
    0.0012406209   2   -6    6
    0.00071431133   2   -13    13
    0.00014412497   2   -3    3
    3.4102012e-05   2    21    21
    1.3834872e-05   2    25    25
    4.16748e-06   2    23    23
    3.0168034e-06   2   -24    24
    3.9827084e-07   2   -1    1
    2.7097571e-08   2    22    22
    1.9414214e-08   2    22    23
    1.6046115e-08   2   -11    11
    2.3074167e-10   2   -4    4
    1.2248766e-15   2   -2    2

DECAY 36  26.942271
    0.79146565   2   -5    5
    0.20674333   2   -15    15
    0.0008735829   2   -6    6
    0.00071454433   2   -13    13
    0.00014418033   2   -3    3
    5.245613e-05   2    21    21
    5.755606e-06   2    23    25
    3.9842398e-07   2   -1    1
    5.3797697e-08   2    22    22
    2.4441017e-08   2    22    23
    1.6051313e-08   2   -11    11
    1.4513137e-09   2   -4    4
    7.5859166e-15   2   -2    2
    1.7211154e-37   2    25    25

DECAY 37  32.787011
    0.84635727   2   -5    6
    0.15170593   2   -15    16
    0.0012648588   2   -5    4
    0.00053633555   2   -13    14
    0.00011403431   2   -3    4
    9.0324051e-06   2   -5    2
    5.3004911e-06   2   -3    2
    4.7563346e-06   2    24    25
    2.0485346e-06   2   -3    6
    3.1622627e-07   2   -1    2
    8.6397004e-08   2   -1    6
    1.546067e-08   2   -1    4
    1.2544944e-08   2   -11    12
    2.4650058e-12   2    24    35
    8.2651853e-13   2    24    36

DECAY 6  2.43
    1   2    5    24

DECAY 15 -1
