BLOCK DCINFO
   1   SDECAY/HDECAY
   2   1.3b /3.4

BLOCK SPINFO
   1   SOFTSUSY
   2   3.4.0

BLOCK MODSEL
   1   0

BLOCK SMINPUTS
   1    127.90897
   2    1.1663787e-05
   3    0.1184
   4    91.1876
   5    4.18
   6    173.2
   7    1.777

BLOCK MINPAR
   3    9.72

BLOCK EXTPAR
   0   -1
   1    672.66
   2    2060.55
   3    2304.15
   11    4304.67
   12    989.25
   13   -1925.41
   23   -2410.05
   26    715.89
   31    3976.54
   32    3976.54
   33    2327.19
   34    1077.22
   35    1077.22
   36    2062.01
   41    3322.6
   42    3322.6
   43    3433.51
   44    3842.92
   45    3842.92
   46    2098.82
   47    461.83
   48    461.83
   49    2789.23

BLOCK MASS
   24    80.4164
   25    127.59035
   35    716.05668
   36    715.89014
   37    720.37065
   5    4.8187603
   1000001    3391.6481
   2000001    692.09406
   1000002    3390.8924
   2000002    3894.1865
   1000003    3391.6481
   2000003    692.09406
   1000004    3390.8924
   2000004    3894.1865
   1000005    2861.4064
   2000005    3456.2362
   1000006    2162.6957
   2000006    3466.1329
   1000011    3986.6325
   2000011    1082.9642
   1000012    3985.5419
   1000013    3986.6325
   2000013    1082.9642
   1000014    3985.5419
   1000015    2065.0038
   2000015    2344.2338
   1000016    2342.3974
   1000021    2505.4477
   1000022    665.92661
   1000023    2105.1861
   1000025   -2445.4804
   1000035    2451.921
   1000024    2105.3561
   1000037    2452.3381

BLOCK NMIX
   1   1    0.99981326
   1   2   -2.8815263e-05
   1   3   -0.019059188
   1   4   -0.0031922883
   2   1    0.0022395844
   2   2    0.99127879
   2   3    0.10201941
   2   4    0.083386915
   3   1   -0.011217116
   3   2    0.013293476
   3   3   -0.70688787
   3   4    0.70711173
   4   1    0.015575775
   4   2   -0.13110925
   4   3    0.69967016
   4   4    0.70216054

BLOCK UMIX
   1   1    0.98893764
   1   2    0.14833188
   2   1   -0.14833188
   2   2    0.98893764

BLOCK VMIX
   1   1    0.99252497
   1   2   -0.12204173
   2   1   -0.12204173
   2   2   -0.99252497

BLOCK STOPMIX
   1   1   -0.084696544
   1   2    0.99640679
   2   1   -0.99640679
   2   2   -0.084696544

BLOCK SBOTMIX
   1   1   -0.015148502
   1   2    0.99988526
   2   1   -0.99988526
   2   2   -0.015148502

BLOCK STAUMIX
   1   1   -0.029459727
   1   2    0.99956597
   2   1   -0.99956597
   2   2   -0.029459727

BLOCK ALPHA
      -0.1120795

BLOCK HMIX Q=  2682.856
   1   -2449.3389
   2    9.2594296
   3    242.74784
   4    557030.2

BLOCK GAUGE Q=  2682.856
   1    0.36446016
   2    0.63492475
   3    1.0167347

BLOCK AU Q=  2682.856
   1   1    0
   2   2    0
   3   3    4304.67

BLOCK AD Q=  2682.856
   1   1    0
   2   2    0
   3   3    989.25

BLOCK AE Q=  2682.856
   1   1    0
   2   2    0
   3   3   -1925.41

BLOCK YU Q=  2682.856
   1   1    0
   2   2    0
   3   3    0.84702044

BLOCK YD Q=  2682.856
   1   1    0
   2   2    0
   3   3    0.13468669

BLOCK YE Q=  2682.856
   1   1    0
   2   2    0
   3   3    0.093655916

BLOCK MSOFT Q=  2682.856
   1    672.66
   2    2060.55
   3    2304.15
   21   -5571382.2
   22   -5932348.5
   31    3976.54
   32    3976.54
   33    2327.19
   34    1077.22
   35    1077.22
   36    2062.01
   41    3322.6
   42    3322.6
   43    3433.51
   44    3842.92
   45    3842.92
   46    2098.82
   47    461.82997
   48    461.82997
   49    2789.23

BLOCK HIGGSBOUNDSINPUTHIGGSCOUPLINGSFERMIONS
       0, 85.737037,3,36,15,15

BLOCK HIGGSBOUNDSINPUTHIGGSCOUPLINGSBOSONS
       0,4,36,21,21,23

DECAY 6  1.4185946
    1   2    5    24

DECAY 1000021  84.801706
    0.24057903   2    2000001   -1
    0.24057903   2   -2000001    1
    0.24057903   2    2000003   -3
    0.24057903   2   -2000003    3
    0.018841932   2    1000006   -6
    0.018841932   2   -1000006    6

DECAY 1000006  4.0519063
    0.99992899   2    1000022    6
    7.1013896e-05   2    1000024    5

DECAY 2000006  127.92126
    0.33989802   2    1000021    6
    0.19696391   2    1000006    25
    0.16796359   2    1000006    23
    0.087114219   2    1000024    5
    0.049180375   2    1000025    6
    0.04639309   2    1000035    6
    0.042614715   2    1000023    6
    0.031714093   2    1000006    36
    0.030161287   2    1000006    35
    0.0041782004   2    1000022    6
    0.0023722398   2    1000037    5
    0.0014462499   2    1000005    24

DECAY 1000005  10.189901
    0.83797807   2    1000021    5
    0.1475806   2    1000022    5
    0.0056929909   2   -1000037    6
    0.0036715557   2    1000025    5
    0.0034342901   2    1000035    5
    0.00096833205   2   -1000024    6
    0.00049293191   2    1000023    5
    0.00018123052   2    1000006   -24

DECAY 2000005  121.00778
    0.352732   2    1000021    5
    0.33971049   2    1000006   -24
    0.10144211   2   -1000037    6
    0.086953795   2   -1000024    6
    0.066115907   2    1000006   -37
    0.04448654   2    1000023    5
    0.00388296   2    1000022    5
    0.0017716916   2    1000035    5
    0.0012957177   2    1000025    5
    0.00085515913   2    1000005    25
    0.00075363829   2    1000005    23

DECAY 1000002  67.358618
    0.77346198   2    1000021    2
    0.14535696   2    1000024    1
    0.072573295   2    1000023    2
    0.0065335261   2    1000022    2
    0.0013332704   2    1000037    1
    0.00073533532   2    1000035    2
    5.6289558e-06   2    1000025    2

DECAY 2000002  107.95233
    0.92332684   2    1000021    2
    0.076661891   2    1000022    2
    7.2687621e-06   2    1000035    2
    3.795571e-06   2    1000025    2
    2.0592594e-07   2    1000023    2

DECAY 1000001  67.406897
    0.77390885   2    1000021    1
    0.14431717   2   -1000024    2
    0.072452447   2    1000023    1
    0.0065345079   2    1000022    1
    0.001970497   2   -1000037    2
    0.00080572226   2    1000035    1
    1.0803855e-05   2    1000025    1

DECAY 2000001  0.002504747
    1   2    1000022    1

DECAY 1000004  54.110791
    0.70855769   2    1000021    4
    0.18695324   2    1000024    3
    0.093341471   2    1000023    4
    0.0084982978   2    1000022    4
    0.0017029041   2    1000037    3
    0.00093920707   2    1000035    4
    7.1907946e-06   2    1000025    4

DECAY 2000004  81.970725
    0.89486246   2    1000021    4
    0.10512225   2    1000022    4
    9.8621822e-06   2    1000035    4
    5.1502028e-06   2    1000025    4
    2.8037284e-07   2    1000023    4

DECAY 1000003  54.140397
    0.70908878   2    1000021    3
    0.18564771   2   -1000024    4
    0.093202191   2    1000023    3
    0.0085009718   2    1000022    3
    0.0025172448   2   -1000037    4
    0.0010292964   2    1000035    3
    1.3804061e-05   2    1000025    3

DECAY 2000003  0.002236123
    1   2    1000022    3

DECAY 1000011  29.790229
    0.5458124   2   -1000024    12
    0.27494586   2    1000023    11
    0.16701159   2    1000022    11
    0.0091243401   2   -1000037    12
    0.0030959954   2    1000035    11
    9.8088184e-06   2    1000025    11

DECAY 2000011  2.2127462
    1   2    1000022    11

DECAY 1000013  29.790228
    0.5458124   2   -1000024    14
    0.27494586   2    1000023    13
    0.16701159   2    1000022    13
    0.0091243401   2   -1000037    14
    0.0030959954   2    1000035    13
    9.8088183e-06   2    1000025    13

DECAY 2000013  2.2127461
    1   2    1000022    13

DECAY 1000015  8.7538677
    1   2    1000022    15

DECAY 2000015  3.7256069
    0.70389967   2    1000022    15
    0.1842299   2   -1000024    16
    0.092988921   2    1000023    15
    0.0097604629   2    1000015    25
    0.0091210504   2    1000015    23

DECAY 1000012  29.791421
    0.54937433   2    1000024    11
    0.27332176   2    1000023    12
    0.16698751   2    1000022    12
    0.0061705445   2    1000037    11
    0.0040646531   2    1000035    12
    8.1205315e-05   2    1000025    12

DECAY 1000014  29.791421
    0.54937433   2    1000024    13
    0.27332176   2    1000023    14
    0.16698751   2    1000022    14
    0.0061705445   2    1000037    13
    0.0040646531   2    1000035    14
    8.1205315e-05   2    1000025    14

DECAY 1000016  3.70544
    0.70550704   2    1000022    16
    0.18454356   2    1000024    15
    0.091855794   2    1000023    16
    0.018093603   2   -1000015   -24

DECAY 1000024  0.060073572
    0.70464274   2    1000022    37
    0.2948303   2    1000022    24
    0.00052696612   2   -1000015    16

DECAY 1000037  9.7377694
    0.26475709   2    1000006   -5
    0.15506438   2    1000024    25
    0.1519151   2    1000023    24
    0.14609608   2    1000022    37
    0.14386617   2    1000024    23
    0.13613106   2    1000022    24
    0.0017101731   2   -1000015    16
    0.00028519446   2    1000016   -15
    0.00017474384   2   -2000015    16

DECAY 1000022 -1


DECAY 1000023  0.058715287
    0.59872475   2    1000022    35
    0.1967114   2    1000022    25
    0.10502094   2    1000022    23
    0.097491634   2    1000022    36
    0.00026326854   2    1000015   -15
    0.00026326854   2   -1000015    15
    0.00025698654   2    2000011   -11
    0.00025698654   2   -2000011    11
    0.00025698654   2    2000013   -13
    0.00025698654   2   -2000013    13
    0.00012419829   2    2000001   -1
    0.00012419829   2   -2000001    1
    0.00012419829   2    2000003   -3
    0.00012419829   2   -2000003    3

DECAY 1000025  9.0200063
    0.14788678   2    1000024   -24
    0.14788678   2   -1000024    24
    0.13874399   2    1000023    23
    0.13709492   2    1000022    36
    0.12211761   2    1000006   -6
    0.12211761   2   -1000006    6
    0.10179821   2    1000022    23
    0.053196195   2    1000022    25
    0.025416919   2    1000022    35
    0.0013048408   2    1000023    25
    0.00097253194   2    1000015   -15
    0.00097253194   2   -1000015    15
    7.8280836e-05   2    2000015   -15
    7.8280836e-05   2   -2000015    15
    5.825634e-05   2    2000011   -11
    5.825634e-05   2   -2000011    11
    5.825634e-05   2    2000013   -13
    5.825634e-05   2   -2000013    13
    2.4655504e-05   2    2000001   -1
    2.4655504e-05   2   -2000001    1
    2.4655504e-05   2    2000003   -3
    2.4655504e-05   2   -2000003    3
    1.4415578e-06   2    1000016   -16
    1.4415578e-06   2   -1000016    16

DECAY 1000035  8.7047525
    0.17332343   2    1000023    25
    0.14053804   2    1000024   -24
    0.14053804   2   -1000024    24
    0.13919985   2    1000022    35
    0.10802357   2    1000006   -6
    0.10802357   2   -1000006    6
    0.10630279   2    1000022    25
    0.053228385   2    1000022    23
    0.025937969   2    1000022    36
    0.0017804925   2    1000023    23
    0.00097604494   2    1000015   -15
    0.00097604494   2   -1000015    15
    0.00015855625   2    2000015   -15
    0.00015855625   2   -2000015    15
    0.00011699945   2    2000011   -11
    0.00011699945   2   -2000011    11
    0.00011699945   2    2000013   -13
    0.00011699945   2   -2000013    13
    8.4503494e-05   2    1000016   -16
    8.4503494e-05   2   -1000016    16
    4.9412891e-05   2    2000001   -1
    4.9412891e-05   2   -2000001    1
    4.9412891e-05   2    2000003   -3
    4.9412891e-05   2   -2000003    3

DECAY 25  0.0044958911
    0.55924404   2    5   -5
    0.24586294   2    24   -24
    0.074981983   2    21    21
    0.063819182   2   -15    15
    0.032001192   2    23    23
    0.019591877   2    4   -4
    0.0022847013   2    22    22
    0.0017410962   2    22    23
    0.00024719114   2    3   -3
    0.00022579807   2   -13    13

DECAY 35  1.4586061
    0.66340384   2    5   -5
    0.23716096   2    6   -6
    0.089810158   2   -15    15
    0.0062174717   2    25    25
    0.0015206006   2    24   -24
    0.00074288685   2    23    23
    0.00053090738   2    21    21
    0.00031450153   2   -13    13
    0.00029380027   2    3   -3
    3.1416133e-06   2    4   -4
    1.3366624e-06   2    22    22
    3.9627315e-07   2    23    22

DECAY 36  1.4986904
    0.64632997   2    5   -5
    0.26318671   2    6   -6
    0.087475371   2   -15    15
    0.0013979033   2    23    25
    0.0010116038   2    21    21
    0.00030631935   2   -13    13
    0.00028638531   2    3   -3
    2.8431568e-06   2    4   -4
    2.1697158e-06   2    22    22
    7.2260541e-07   2    23    22

DECAY 37  1.4778361
    0.90750072   2    6   -5
    0.089264988   2   -15    16
    0.0014646594   2    24    25
    0.0011425541   2    4   -5
    0.00031258614   2   -13    14
    0.0002885489   2    4   -3
    1.4519242e-05   2    2   -3
    1.1425293e-05   2    2   -5
    1.5961445e-09   2    24    36

DECAY 5 -1


DECAY 15 -1


DECAY 23  2.4952


DECAY 24  2.085
