BLOCK SPINFO
   1   SPheno
   2   v4.0.5be

BLOCK SPHENOINFO
   1   2
   2   2

BLOCK MODSEL
   1   0

BLOCK MINPAR
   3    38.977103
   4    1

BLOCK EXTPAR
   0    1312.5473
   1   -349.08194
   2   -1784.2233
   3    3000
   11    4449.0053
   12    416.90469
   13   -827.89828
   23    355.41433
   25    37.814892
   26    4461.7203
   31    1383.7124
   32    1383.7124
   33    1152.7416
   34    897.47684
   35    897.47684
   36    982.68353
   41    5000
   42    5000
   43    1517.0957
   44    5000
   45    5000
   46    1383.8485
   47    5000
   48    5000
   49    1049.283

BLOCK SMINPUTS
   1    127.90897
   2    1.1663787e-05
   3    0.1184
   4    91.1876
   5    4.18
   6    173.2
   7    1.777
   8    0
   11    0.00051099893
   12    0
   13    0.10565837
   14    0
   21    0.005
   22    0.0025
   23    0.095
   24    1.27

BLOCK GAUGE Q=  1312.5473
   1    0.35536298
   2    0.66519887
   3    1.219778

BLOCK YU Q=  1312.5473
   1   1    8.3873033e-06
   2   2    0.0042607501
   3   3    1.0132536

BLOCK YD Q=  1312.5473
   1   1    0.00063733161
   2   2    0.0121093
   3   3    0.63203324

BLOCK YE Q=  1312.5473
   1   1    0.00011121903
   2   2    0.022996567
   3   3    0.38676443

BLOCK AU Q=  1312.5473
   1   1    0
   2   2    0
   3   3    4449.0054

BLOCK AD Q=  1312.5473
   1   1    0
   2   2    0
   3   3    416.90468

BLOCK AE Q=  1312.5473
   1   1    0
   2   2    0
   3   3   -827.89827

BLOCK MSOFT Q=  1312.5473
   1   -349.08194
   2   -1784.2233
   3    3000
   21    19702536
   22   -20269.417
   31    1383.7124
   32    1383.7124
   33    1152.7416
   34    897.47684
   35    897.47684
   36    982.68353
   41    5000
   42    5000
   43    1517.0957
   44    5000
   45    5000
   46    1383.8485
   47    5000
   48    5000
   49    1049.283

BLOCK MASS
   6    173.2
   23    91.1876
   24    80.429995
   15    1.777
   25    121.31922
   35    4460.1537
   36    4461.7203
   37    4461.2605
   1000001    5021.0378
   2000001    5013.5948
   1000002    5020.6226
   2000002    5017.2955
   1000003    5021.0439
   2000003    5013.6043
   1000004    5020.6282
   2000004    5017.2964
   1000005    1039.9927
   2000005    1453.5706
   1000006    1076.3883
   2000006    1600.5195
   1000011    1400.4202
   2000011    888.93289
   1000012    1397.8551
   1000013    1400.4425
   2000013    889.00384
   1000014    1397.8764
   1000015    993.18173
   2000015    1179.5953
   1000016    1175.8442
   1000021    3181.4091
   1000022   -321.99357
   1000023    361.39721
   1000025   -383.47021
   1000035   -1828.9545
   1000024    357.30768
   1000037    1829.0852

BLOCK ALPHA
      -0.025660774

BLOCK HMIX Q=  1312.5473
   1    355.41433
   2    37.814892
   3    244.11249
   4    19906948

BLOCK STOPMIX
   1   1   -0.56156525
   1   2    0.82743245
   2   1   -0.82743245
   2   2   -0.56156525

BLOCK SBOTMIX
   1   1    0.022718007
   1   2    0.99974191
   2   1   -0.99974191
   2   2    0.022718007

BLOCK STAUMIX
   1   1    0.061711051
   1   2    0.99809406
   2   1   -0.99809406
   2   2    0.061711051

BLOCK NMIX
   1   1   -0.73594253
   1   2    0.023558134
   1   3   -0.50417195
   1   4   -0.4512696
   2   1   -0.045555298
   2   2    0.026780039
   2   3    0.70276378
   2   4   -0.70945797
   3   1    0.67550833
   3   2    0.029458128
   3   3   -0.5018686
   3   4   -0.53939653
   4   1    0.0013432435
   4   2   -0.99892946
   4   3   -0.0078498216
   4   4   -0.045568778

BLOCK UMIX
   1   1   -0.011101156
   1   2    0.99993838
   2   1   -0.99993838
   2   2   -0.011101156

BLOCK VMIX
   1   1    0.064445954
   1   2    0.9979212
   2   1    0.9979212
   2   2   -0.064445954

BLOCK HIGGSBOUNDSINPUTHIGGSCOUPLINGSFERMIONS
       0, 1429.966,3,36,15,15

BLOCK HIGGSBOUNDSINPUTHIGGSCOUPLINGSBOSONS
       0,4,36,21,21,23

BLOCK SPHENOLOWENERGY
   1    0.00038778772
   2    1.5901907e-06
   3    3.5288953e-05
   4    3.2300902e-15
   5    1.3798624e-10
   6    2.8915314e-08
   7    1.0846214e-13
   8    4.6335148e-09
   9    9.8382175e-07
   10    9.6226528e-05
   11    0.99398319
   12    0.54391038
   13    19.43186
   14    0
   15    0
   16    0.0021685078
   17    2.2817726e-15
   18    2.4812703e-11
   19    8.293922e-11
   20   -5.313468e-15
   21   -2.2718381e-10
   22   -7.914964e-08
   23    0
   24    0
   25    0
   26    0
   27    0
   28    0
   29    0
   30    0
   31    0
   39    7.3061723e-05
   40    0
   41    0
   42    0

BLOCK FWCOEF Q=  160
   305   4422   0   0   -0.18881911
   305   4422   0   2   -0.26541248
   305   4322   0   2   -0.00048606614
   305   6421   0   0   -0.095227835
   305   6421   0   2   -0.13604645
   305   6321   0   2   -0.00027063129
   3051111   4133   0   0    1.5874733
   3051111   4133   0   2    1.5896775
   3051111   4233   0   2    0.00024846282
   3051111   4137   0   0   -4.4101654
   3051111   4137   0   2   -4.4121182
   3051111   4237   0   2   -0.0019461975
   3051313   4133   0   0    1.5874733
   3051313   4133   0   2    1.5896743
   3051313   4233   0   2    0.00024846166
   3051313   4137   0   0   -4.4101654
   3051313   4137   0   2   -4.4121213
   3051313   4237   0   2   -0.0019462003
   3051212   4137   0   0    1.5053501
   3051212   4137   0   2    1.5057813
   3051212   4237   0   2    0.00042457309
   3051414   4137   0   0    1.5053501
   3051414   4137   0   2    1.5057813
   3051414   4237   0   2    0.0004245731
   3051616   4137   0   0    1.5053501
   3051616   4137   0   2    1.5057811
   3051616   4237   0   2    0.00042457654

BLOCK IMFWCOEF Q=  160
   305   4422   0   0    3.8571752e-07
   305   4422   0   2   -1.2243985e-05
   305   4322   0   2   -7.6105343e-06
   305   6421   0   0    3.3039256e-07
   305   6421   0   2   -1.9616344e-05
   305   6321   0   2   -3.3517296e-06
   3051111   4133   0   2    2.7603494e-07
   3051111   4233   0   2    4.7612119e-06
   3051111   4137   0   2   -9.7396347e-07
   3051111   4237   0   2   -3.7298855e-05
   3051313   4133   0   2    2.7599304e-07
   3051313   4233   0   2    4.7611929e-06
   3051313   4137   0   2   -9.7398539e-07
   3051313   4237   0   2   -3.7298907e-05
   3051212   4137   0   2    2.8957384e-07
   3051212   4237   0   2    8.1369527e-06
   3051414   4137   0   2    2.895726e-07
   3051414   4237   0   2    8.1369527e-06
   3051616   4137   0   2    2.8594831e-07
   3051616   4237   0   2    8.136949e-06

DECAY 23  2.4952


DECAY 24  2.085


DECAY 2000011  3.1825948
    0.57373681   2    1000022    11
    0.42423381   2    1000025    11
    0.0020293273   2    1000023    11

DECAY 1000011  1.5602715
    0.51502022   2    1000025    11
    0.48410807   2    1000022    11
    0.00085105942   2   -1000024    12

DECAY 2000013  3.1961854
    0.57192826   2    1000022    13
    0.42298637   2    1000025    13
    0.0030283444   2    1000023    13
    0.0020570272   2   -1000024    14

DECAY 1000013  1.5734518
    0.51273207   2    1000025    13
    0.48219976   2    1000022    13
    0.0040496815   2    1000023    13
    0.00084394757   2   -1000024    14
    0.0001745413   2    2000013    25

DECAY 1000015  8.2957039
    0.34130457   2    1000022    15
    0.26960168   2   -1000024    16
    0.25714404   2    1000025    15
    0.13194971   2    1000023    15

DECAY 2000015  4.2183317
    0.34119426   2    1000023    15
    0.33523008   2    1000025    15
    0.30495945   2    1000022    15
    0.009170969   2    1000015    25
    0.0081964881   2    1000015    23
    0.0012487506   2   -1000024    16

DECAY 1000012  1.5945828
    0.60081211   2    1000022    12
    0.36240909   2    1000025    12
    0.027999637   2    1000024    11
    0.0087791702   2    1000023    12

DECAY 1000014  1.6074617
    0.59600958   2    1000022    14
    0.35951277   2    1000025    14
    0.035768656   2    1000024    13
    0.0087090031   2    1000023    14

DECAY 1000016  4.2241721
    0.69091212   2    1000024    15
    0.18204612   2    1000022    16
    0.10746758   2    1000025    16
    0.016949077   2    1000015    24
    0.0026251026   2    1000023    16

DECAY 2000001  143.97668
    0.98074902   2    1000021    1
    0.010442866   2    1000022    1
    0.0087677405   2    1000025    1

DECAY 1000001  192.55686
    0.73734066   2    1000021    1
    0.17264332   2   -1000037    2
    0.086192582   2    1000035    1
    0.0027210844   2    1000022    1
    0.00093596374   2    1000025    1
    0.00013839076   2    1000023    1

DECAY 2000003  144.00655
    0.98055247   2    1000021    3
    0.010466246   2    1000022    3
    0.0087911578   2    1000025    3
    0.00010052165   2   -1000024    4

DECAY 1000003  192.57385
    0.73727892   2    1000021    3
    0.17262845   2   -1000037    4
    0.086185153   2    1000035    3
    0.0027399673   2    1000022    3
    0.00095476669   2    1000025    3
    0.00017545349   2    1000023    3

DECAY 1000005  12.812368
    0.462434   2   -1000024    6
    0.24573823   2    1000023    5
    0.1575241   2    1000022    5
    0.13430366   2    1000025    5

DECAY 2000005  92.366628
    0.6117013   2    1000006   -24
    0.27365232   2   -1000024    6
    0.054582864   2    1000023    5
    0.029425206   2    1000022    5
    0.028386953   2    1000025    5
    0.0016229697   2    1000005    25
    0.00062838639   2    1000005    23

DECAY 2000002  152.68508
    0.92733546   2    1000021    2
    0.039418314   2    1000022    2
    0.033095407   2    1000025    2
    0.00015071435   2    1000023    2

DECAY 1000002  192.55328
    0.73712978   2    1000021    2
    0.17192774   2    1000037    1
    0.086100187   2    1000035    2
    0.0025436164   2    1000025    2
    0.0013152137   2    1000022    2
    0.00094387973   2    1000024    1

DECAY 2000004  152.6887
    0.92731371   2    1000021    4
    0.0394198   2    1000022    4
    0.033098008   2    1000025    4
    0.00015662473   2    1000023    4

DECAY 1000004  192.57014
    0.73706796   2    1000021    4
    0.17191301   2    1000037    3
    0.086092785   2    1000035    4
    0.0025461111   2    1000025    4
    0.001316998   2    1000022    4
    0.001018872   2    1000024    3

DECAY 1000006  34.423586
    0.42781949   2    1000024    5
    0.2727523   2    1000023    6
    0.17899475   2    1000022    6
    0.12036061   2    1000025    6
    0.00019327459   2    1000022    4

DECAY 2000006  106.40073
    0.44331887   2    1000006    23
    0.15025489   2    1000024    5
    0.1251196   2    1000023    6
    0.098741528   2    1000025    6
    0.086709966   2    1000006    25
    0.056495784   2    2000005    24
    0.037629768   2    1000022    6
    0.0017295821   2    1000005    24

DECAY 1000024  0.00011175438
    0.33430155   3    1000022   -1    2
    0.33236595   3    1000022   -3    4
    0.11144566   3    1000022   -11    12
    0.11144372   3    1000022   -13    14
    0.11044312   3    1000022   -15    16

DECAY 1000037  33.358802
    0.11889574   2    1000023    24
    0.11813333   2    1000024    23
    0.11651943   2    1000024    25
    0.082743633   2    1000016   -15
    0.082077459   2   -2000015    16
    0.081269235   2   -2000005    6
    0.073614979   2    1000025    24
    0.071056975   2    1000006   -5
    0.044635521   2    1000022    24
    0.041579903   2    1000012   -11
    0.041576345   2    1000014   -13
    0.04131858   2   -1000011    12
    0.041314855   2   -1000013    14
    0.030850553   2    2000006   -5
    0.0054393117   3    1000024    6   -6
    0.0041813911   3    1000023   -5    6
    0.0027051752   3    1000025   -5    6
    0.0016710325   3    1000022   -5    6
    0.00036652224   2   -1000015    16

DECAY 1000022 -1


DECAY 1000023  0.00015455752
    0.20268802   3    1000022    12   -12
    0.15153072   3    1000022    1   -1
    0.1515214   3    1000022    3   -3
    0.13627413   3    1000022    5   -5
    0.11818129   3    1000022    2   -2
    0.11666757   3    1000022    4   -4
    0.034167058   3    1000022    11   -11
    0.034164725   3    1000022    13   -13
    0.033502834   3    1000022    15   -15
    0.021285587   2    1000022    22

DECAY 1000025  6.7220325e-05
    0.14057669   3    1000024    1   -2
    0.14057669   3   -1000024   -1    2
    0.13902735   3    1000024    3   -4
    0.13902735   3   -1000024   -3    4
    0.046855042   3    1000024    11   -12
    0.046855042   3   -1000024   -11    12
    0.046852904   3    1000024    13   -14
    0.046852904   3   -1000024   -13    14
    0.045927572   3    1000024    15   -16
    0.045927572   3   -1000024   -15    16
    0.028903622   3    1000023    12   -12
    0.021617667   3    1000023    1   -1
    0.021613129   3    1000023    3   -3
    0.020098046   2    1000023    22
    0.016859716   3    1000023    2   -2
    0.016143124   3    1000023    4   -4
    0.014475614   3    1000023    5   -5
    0.0048823774   3    1000023    11   -11
    0.0048808981   3    1000023    13   -13
    0.00448165   3    1000023    15   -15
    0.0014685307   2    1000022    22
    0.0013509853   3    1000022    5   -5
    0.0012615353   3    1000022    12   -12
    0.00086503118   3    1000022    1   -1
    0.00086502492   3    1000022    3   -3
    0.00067943771   3    1000022    2   -2
    0.00067721505   3    1000022    4   -4
    0.00018710555   3    1000022    15   -15
    0.0001052581   3    1000022    13   -13
    0.00010491272   3    1000022    11   -11

DECAY 1000035  35.492837
    0.11164388   2    1000024   -24
    0.11164388   2   -1000024    24
    0.081426059   2    1000023    25
    0.07476841   2    1000023    23
    0.046093517   2    1000025    25
    0.046077357   2    2000005   -5
    0.046077357   2   -2000005    5
    0.039005058   2    1000016   -16
    0.039005058   2   -1000016    16
    0.038427533   2    2000015   -15
    0.038427533   2   -2000015    15
    0.03547996   2    1000006   -6
    0.03547996   2   -1000006    6
    0.026486724   2    1000022    25
    0.021904069   2    1000025    23
    0.019598314   2    1000012   -12
    0.019598314   2   -1000012    12
    0.01959663   2    1000014   -14
    0.01959663   2   -1000014    14
    0.019340923   2    1000011   -11
    0.019340923   2   -1000011    11
    0.019339177   2    1000013   -13
    0.019339177   2   -1000013    13
    0.014754396   2    1000022    23
    0.011304046   2    2000006   -6
    0.011304046   2   -2000006    6
    0.0046906642   3    1000024    5   -6
    0.0046906642   3   -1000024   -5    6
    0.0026404971   3    1000023    6   -6
    0.001537371   3    1000025    6   -6
    0.0009687282   3    1000022    6   -6
    0.00017162337   2    1000015   -15
    0.00017162337   2   -1000015    15

DECAY 1000021  272.45542
    0.150816   2    1000006   -6
    0.150816   2   -1000006    6
    0.13783677   2    1000005   -5
    0.13783677   2   -1000005    5
    0.10821181   2    2000005   -5
    0.10821181   2   -2000005    5
    0.083171914   2    2000006   -6
    0.083171914   2   -2000006    6
    0.019866048   2    1000006   -4
    0.019866048   2   -1000006    4

DECAY 25  0.0034658706
    0.63267558   2   -5    5
    0.17106818   2   -24    24
    0.071407209   2   -15    15
    0.070639438   2    21    21
    0.030959506   2   -4    4
    0.01922729   2    23    23
    0.0023518045   2    22    22
    0.0011881021   2    22    23
    0.00024765741   2   -13    13
    0.00023442588   2   -3    3
    6.481639e-07   2   -1    1
    1.5955396e-07   2   -2    2
    5.5676634e-09   2   -11    11

DECAY 35  102.34785
    0.43476627   2   -5    5
    0.12234571   2   -1000024    1000037
    0.12234571   2   -1000037    1000024
    0.12019374   2   -15    15
    0.06237235   2    1000023    1000035
    0.03117138   2    1000022    1000035
    0.029230435   2    1000025    1000035
    0.016116631   2    1000022    1000022
    0.011737592   2    1000023    1000025
    0.011498161   2    1000022    1000023
    0.010066322   2    1000025    1000025
    0.0086819528   2   -1000006    1000006
    0.0063892873   2   -2000006    2000006
    0.0019174133   2   -2000015    1000015
    0.0019174133   2   -1000015    2000015
    0.0015597466   2   -2000006    1000006
    0.0015597466   2   -1000006    2000006
    0.0014996773   2   -1000024    1000024
    0.0011311967   2   -2000005    1000005
    0.0011311967   2   -1000005    2000005
    0.001009049   2   -6    6
    0.0004199718   2   -13    13
    0.00041765747   2    1000023    1000023
    0.00024583847   2   -3    3
    0.00015837871   2    1000022    1000025
    3.9849186e-05   2   -1000015    1000015
    3.8606841e-05   2   -2000015    2000015
    1.3107668e-05   2   -1000037    1000037
    7.6554489e-06   2    25    25
    6.5662507e-06   2    1000035    1000035
    3.9923921e-06   2    21    21
    3.52227e-06   2   -1000005    1000005
    2.6880784e-06   2   -2000005    2000005
    6.7969804e-07   2   -1    1
    3.0378585e-08   2   -2000011    2000011
    3.0180651e-08   2   -2000013    2000013
    2.8033211e-08   2    22    23
    2.2948495e-08   2   -1000011    1000011
    2.2715107e-08   2   -1000013    1000013
    1.8646102e-08   2    22    22
    1.316976e-08   2   -4    4
    1.2609296e-08   2    23    23
    9.4310955e-09   2   -11    11
    2.3549348e-09   2   -24    24
    8.3330384e-10   2   -2000013    1000013
    8.3330384e-10   2   -1000013    2000013
    6.7886809e-14   2   -2    2
    1.9491199e-14   2   -2000011    1000011
    1.9491199e-14   2   -1000011    2000011

DECAY 36  98.923564
    0.42252941   2   -5    5
    0.12665242   2   -1000024    1000037
    0.12665242   2   -1000037    1000024
    0.11681786   2   -15    15
    0.061308817   2    1000023    1000035
    0.033916531   2    1000022    1000035
    0.031872652   2    1000025    1000035
    0.015529237   2    1000022    1000022
    0.013144645   2    1000022    1000023
    0.012838691   2    1000023    1000025
    0.0096088527   2    1000025    1000025
    0.0094601079   2   -2000006    1000006
    0.0094601079   2   -1000006    2000006
    0.0020239203   2   -2000015    1000015
    0.0020239203   2   -1000015    2000015
    0.0015643298   2   -1000024    1000024
    0.0011733373   2   -2000005    1000005
    0.0011733373   2   -1000005    2000005
    0.00093738374   2   -6    6
    0.00049211019   2    1000023    1000023
    0.00040817672   2   -13    13
    0.00023892597   2   -3    3
    0.00013498716   2    1000022    1000025
    2.0955138e-05   2   -1000037    1000037
    1.0508842e-05   2    1000035    1000035
    5.623932e-06   2    21    21
    6.6058439e-07   2   -1    1
    3.1228992e-08   2    23    25
    1.2690505e-08   2   -4    4
    9.1661931e-09   2   -11    11
    7.7721433e-09   2    22    23
    9.1503186e-10   2    22    22
    8.64074e-10   2   -2000013    1000013
    8.64074e-10   2   -1000013    2000013
    1.0479664e-13   2    23    35
    6.5420525e-14   2   -2    2
    2.0210781e-14   2   -2000011    1000011
    2.0210781e-14   2   -1000011    2000011
    1.4834615e-36   2    25    25

DECAY 37  102.73001
    0.43151576   2   -5    6
    0.13193948   2   -15    16
    0.12204854   2    1000024    1000035
    0.12111402   2    1000023    1000037
    0.063863627   2    1000022    1000037
    0.05997542   2    1000025    1000037
    0.026393797   2    1000024    1000025
    0.023861529   2    1000022    1000024
    0.008822829   2   -2000005    1000006
    0.0038824777   2   -1000015    1000016
    0.0025672338   2   -2000005    2000006
    0.0025391362   2   -1000005    2000006
    0.00063889816   2   -5    4
    0.00046645299   2   -13    14
    0.00022639868   2   -3    4
    6.9779477e-05   2   -1000005    1000006
    3.9169614e-05   2    1000023    1000024
    1.7355954e-05   2   -2000015    1000016
    1.0649864e-05   2   -3    2
    4.5623912e-06   2   -5    2
    1.881258e-06   2   -3    6
    6.2844421e-07   2   -1    2
    1.1901687e-07   2   -2000011    1000012
    1.1873981e-07   2   -2000013    1000014
    7.0785569e-08   2   -1    6
    3.0121954e-08   2   -1    4
    3.0070973e-08   2    24    25
    1.0910384e-08   2   -11    12
    1.6264401e-09   2   -1000013    1000014
    1.4108046e-11   2    1000035    1000037
    3.8041485e-14   2   -1000011    1000012
    2.2017123e-14   2    24    35

DECAY 6  2.43
    1   2    5    24

DECAY 15 -1
