# SUSY Les Houches Accord 2 - MSSM spectrum + Decays
# SPheno v4.0.5be
# W. Porod, Comput. Phys. Commun. 153 (2003) 275-315, hep-ph/0301101;
# W. Porod, F.~Staub, Comput. Phys. Commun. 183 (2012) 2458
#                     arXiv:1104.1573 [hep-ph] 
# in case of problems send email to porod@physik.uni-wuerzburg.de
# Created: 07.09.2021,  16:46
Block SPINFO         # Program information
     1   SPheno      # spectrum calculator
     2   v4.0.5be    # version number
#
Block SPhenoINFO     # SPheno specific information
    1      2         # using 2-loop RGEs
    2      2         # using pole masses for boundary conditions at mZ
Block MODSEL  # Model selection
    1    0    # general MSSM
Block MINPAR  # Input parameters
    3    2.29932288E+01  # tanb at m_Z    
    4   -1.00000000E+00  # Sign(mu)
Block EXTPAR  # non-universal input parameters
    0    3.05476191E+03  # scale for input parameters
    1   -2.18961307E+02  # M_1
    2    1.47204376E+03  # M_2
    3    3.07786839E+03  # M_3
   11   -3.69375330E+03  # A_t
   12    1.91252693E+03  # A_b
   13    3.03439158E+02  # A_tau
   23   -2.25895024E+02  # mu
   25    2.20826386E+01  # tan(beta)
   26    2.97808470E+03  # m_A, pole mass
   31    1.00000000E+04  # M_L11
   32    1.00000000E+04  # M_L22
   33    1.00000000E+04  # M_L33
   34    1.00000000E+04  # M_E11
   35    1.00000000E+04  # M_E22
   36    1.00000000E+04  # M_E33
   41    1.00000000E+04  # M_Q11
   42    1.00000000E+04  # M_Q22
   43    3.40606080E+03  # M_Q33
   44    1.00000000E+04  # M_U11
   45    1.00000000E+04  # M_U22
   46    2.63056768E+03  # M_U33
   47    1.00000000E+04  # M_D11
   48    1.00000000E+04  # M_D22
   49    2.59118308E+03  # M_D33
Block SMINPUTS  # SM parameters
         1     1.27908970E+02  # alpha_em^-1(MZ)^MSbar
         2     1.16637870E-05  # G_mu [GeV^-2]
         3     1.18400000E-01  # alpha_s(MZ)^MSbar
         4     9.11876000E+01  # m_Z(pole)
         5     4.18000000E+00  # m_b(m_b), MSbar
         6     1.73200000E+02  # m_t(pole)
         7     1.77700000E+00  # m_tau(pole)
         8     0.00000000E+00  # m_nu_3
        11     5.10998930E-04  # m_e(pole)
        12     0.00000000E+00  # m_nu_1
        13     1.05658372E-01  # m_muon(pole)
        14     0.00000000E+00  # m_nu_2
        21     5.00000000E-03  # m_d(2 GeV), MSbar
        22     2.50000000E-03  # m_u(2 GeV), MSbar
        23     9.50000000E-02  # m_s(2 GeV), MSbar
        24     1.27000000E+00  # m_c(m_c), MSbar
Block gauge Q=  3.05476191E+03  # (SUSY scale)
   1    3.55362975E-01  # g'(Q)^DRbar
   2    6.65198874E-01  # g(Q)^DRbar
   3    1.21977796E+00  # g3(Q)^DRbar
Block Yu Q=  3.05476191E+03  # (SUSY scale)
  1  1     8.39296457E-06   # Y_u(Q)^DRbar
  2  2     4.26362600E-03   # Y_c(Q)^DRbar
  3  3     1.01393753E+00   # Y_t(Q)^DRbar
Block Yd Q=  3.05476191E+03  # (SUSY scale)
  1  1     3.72431668E-04   # Y_d(Q)^DRbar
  2  2     7.07620169E-03   # Y_s(Q)^DRbar
  3  3     3.69335511E-01   # Y_b(Q)^DRbar
Block Ye Q=  3.05476191E+03  # (SUSY scale)
  1  1     6.49920495E-05   # Y_e(Q)^DRbar
  2  2     1.34382946E-02   # Y_mu(Q)^DRbar
  3  3     2.26010007E-01   # Y_tau(Q)^DRbar
Block Au Q=  3.05476191E+03  # (SUSY scale)
  1  1     0.00000000E+00   # A_u(Q)^DRbar
  2  2     0.00000000E+00   # A_c(Q)^DRbar
  3  3    -3.69375683E+03   # A_t(Q)^DRbar
Block Ad Q=  3.05476191E+03  # (SUSY scale)
  1  1     0.00000000E+00   # A_d(Q)^DRbar
  2  2     0.00000000E+00   # A_s(Q)^DRbar
  3  3     1.91252706E+03   # A_b(Q)^DRbar
Block Ae Q=  3.05476191E+03  # (SUSY scale)
  1  1     0.00000000E+00   # A_e(Q)^DRbar
  2  2     0.00000000E+00   # A_mu(Q)^DRbar
  3  3     3.03439054E+02   # A_tau(Q)^DRbar
Block MSOFT Q=  3.05476191E+03  # soft SUSY breaking masses at Q
   1   -2.18961307E+02  # M_1
   2    1.47204376E+03  # M_2
   3    3.07786839E+03  # M_3
  21    8.73170973E+06  # M^2_(H,d)
  22    1.33443043E+05  # M^2_(H,u)
  31    1.00000000E+04  # M_(L,11)
  32    1.00000000E+04  # M_(L,22)
  33    1.00000000E+04  # M_(L,33)
  34    1.00000000E+04  # M_(E,11)
  35    1.00000000E+04  # M_(E,22)
  36    1.00000000E+04  # M_(E,33)
  41    1.00000000E+04  # M_(Q,11)
  42    1.00000000E+04  # M_(Q,22)
  43    3.40606080E+03  # M_(Q,33)
  44    1.00000000E+04  # M_(U,11)
  45    1.00000000E+04  # M_(U,22)
  46    2.63056768E+03  # M_(U,33)
  47    1.00000000E+04  # M_(D,11)
  48    1.00000000E+04  # M_(D,22)
  49    2.59118308E+03  # M_(D,33)
Block MASS  # Mass spectrum
#   PDG code      mass          particle
         6     1.73200000E+02  # m_t(pole)
        23     9.11876000E+01  # m_Z(pole)
        24     8.04299946E+01  # W+
        15     1.77700000E+00  # m_tau(pole)
        25     1.24003758E+02  # h0
        35     2.97774692E+03  # H0
        36     2.97808470E+03  # A0
        37     2.98020240E+03  # H+
   1000001     1.01002201E+04  # ~d_L
   2000001     1.00767205E+04  # ~d_R
   1000002     1.00998548E+04  # ~u_L
   2000002     1.00797876E+04  # ~u_R
   1000003     1.01002228E+04  # ~s_L
   2000003     1.00767243E+04  # ~s_R
   1000004     1.00998575E+04  # ~c_L
   2000004     1.00797891E+04  # ~c_R
   1000005     2.70710632E+03  # ~b_1
   2000005     3.47080506E+03  # ~b_2
   1000006     2.67992901E+03  # ~t_1
   2000006     3.48202146E+03  # ~t_2
   1000011     1.00201259E+04  # ~e_L-
   2000011     1.00089267E+04  # ~e_R-
   1000012     1.00193637E+04  # ~nu_eL
   1000013     1.00201360E+04  # ~mu_L-
   2000013     1.00089464E+04  # ~mu_R-
   1000014     1.00193738E+04  # ~nu_muL
   1000015     1.00144813E+04  # ~tau_1-
   2000015     1.00230106E+04  # ~tau_2-
   1000016     1.00222195E+04  # ~nu_tauL
   1000021     3.50159625E+03  # ~g
   1000022     1.97219509E+02  # ~chi_10
   1000023     2.37548840E+02  # ~chi_20
   1000025     2.65427345E+02  # ~chi_30
   1000035     1.57443426E+03  # ~chi_40
   1000024     2.37721834E+02  # ~chi_1+
   1000037     1.57440184E+03  # ~chi_2+
# Higgs mixing
Block alpha # Effective Higgs mixing angle
          -4.35749131E-02   # alpha
Block Hmix Q=  3.05476191E+03  # Higgs mixing parameters
   1   -2.25895024E+02  # mu
   2    2.20826386E+01  # tan[beta](Q)
   3    2.43230782E+02  # v(Q)
   4    8.86898848E+06  # m^2_A(Q)
Block stopmix # stop mixing matrix
   1  1     1.07981868E-01   # Re[R_st(1,1)]
   1  2     9.94152864E-01   # Re[R_st(1,2)]
   2  1    -9.94152864E-01   # Re[R_st(2,1)]
   2  2     1.07981868E-01   # Re[R_st(2,2)]
Block sbotmix # sbottom mixing matrix
   1  1    -3.08635986E-03   # Re[R_sb(1,1)]
   1  2     9.99995237E-01   # Re[R_sb(1,2)]
   2  1    -9.99995237E-01   # Re[R_sb(2,1)]
   2  2    -3.08635986E-03   # Re[R_sb(2,2)]
Block staumix # stau mixing matrix
   1  1    -5.47507256E-02   # Re[R_sta(1,1)]
   1  2     9.98500054E-01   # Re[R_sta(1,2)]
   2  1    -9.98500054E-01   # Re[R_sta(2,1)]
   2  2    -5.47507256E-02   # Re[R_sta(2,2)]
Block Nmix # neutralino mixing matrix
   1  1    -7.87577987E-01   # Re[N(1,1)]
   1  2    -1.91033738E-02   # Re[N(1,2)]
   1  3     4.70894345E-01   # Re[N(1,3)]
   1  4    -3.97006916E-01   # Re[N(1,4)]
   2  1    -6.56054700E-02   # Re[N(2,1)]
   2  2    -4.04479131E-02   # Re[N(2,2)]
   2  3    -7.05408077E-01   # Re[N(2,3)]
   2  4    -7.04598704E-01   # Re[N(2,4)]
   3  1    -6.12711290E-01   # Re[N(3,1)]
   3  2     2.67538403E-02   # Re[N(3,2)]
   3  3    -5.29744383E-01   # Re[N(3,3)]
   3  4     5.85866875E-01   # Re[N(3,4)]
   4  1     1.30839950E-03   # Re[N(4,1)]
   4  2    -9.98640706E-01   # Re[N(4,2)]
   4  3     5.37121833E-03   # Re[N(4,3)]
   4  4     5.18283575E-02   # Re[N(4,4)]
Block Umix # chargino mixing matrix
   1  1    -7.61085586E-03   # Re[U(1,1)]
   1  2    -9.99971037E-01   # Re[U(1,2)]
   2  1     9.99971037E-01   # Re[U(2,1)]
   2  2    -7.61085586E-03   # Re[U(2,2)]
Block Vmix # chargino mixing matrix
   1  1    -7.33377606E-02   # Re[V(1,1)]
   1  2     9.97307161E-01   # Re[V(1,2)]
   2  1     9.97307161E-01   # Re[V(2,1)]
   2  2     7.33377606E-02   # Re[V(2,2)]
DECAY        23     2.49520000E+00   # Z
DECAY        24     2.08500000E+00   # W
DECAY   2000011     5.02401898E+01   # ~e^-_R
#    BR                NDA      ID1      ID2
     6.20426826E-01    2     1000022        11   # BR(~e^-_R -> chi^0_1 e^-)
     4.30360368E-03    2     1000023        11   # BR(~e^-_R -> chi^0_2 e^-)
     3.75267924E-01    2     1000025        11   # BR(~e^-_R -> chi^0_3 e^-)
DECAY   1000011     1.38442535E+02   # ~e^-_L
#    BR                NDA      ID1      ID2
     6.15839014E-02    2     1000022        11   # BR(~e^-_L -> chi^0_1 e^-)
     1.81369291E-03    2     1000023        11   # BR(~e^-_L -> chi^0_2 e^-)
     2.87399515E-02    2     1000025        11   # BR(~e^-_L -> chi^0_3 e^-)
     3.01789030E-01    2     1000035        11   # BR(~e^-_L -> chi^0_4 e^-)
     6.06036559E-01    2    -1000037        12   # BR(~e^-_L -> chi^-_2 nu_e)
#    BR                NDA      ID1      ID2       ID3
DECAY   2000013     5.03121237E+01   # ~mu^-_R
#    BR                NDA      ID1      ID2
     6.19699354E-01    2     1000022        13   # BR(~mu^-_R -> chi^0_1 mu^-)
     4.65269260E-03    2     1000023        13   # BR(~mu^-_R -> chi^0_2 mu^-)
     3.74932397E-01    2     1000025        13   # BR(~mu^-_R -> chi^0_3 mu^-)
     7.13869618E-04    2    -1000024        14   # BR(~mu^-_R -> chi^-_1 nu_mu)
DECAY   1000013     1.38478645E+02   # ~mu^-_L
#    BR                NDA      ID1      ID2
     6.16255015E-02    2     1000022        13   # BR(~mu^-_L -> chi^0_1 mu^-)
     1.94243095E-03    2     1000023        13   # BR(~mu^-_L -> chi^0_2 mu^-)
     2.88053366E-02    2     1000025        13   # BR(~mu^-_L -> chi^0_3 mu^-)
     3.01710676E-01    2     1000035        13   # BR(~mu^-_L -> chi^0_4 mu^-)
     6.05879200E-01    2    -1000037        14   # BR(~mu^-_L -> chi^-_2 nu_mu)
#    BR                NDA      ID1      ID2       ID3
DECAY   1000015     7.08344765E+01   # ~tau^-_1
#    BR                NDA      ID1      ID2
     4.77343271E-01    2     1000022        15   # BR(~tau^-_1 -> chi^0_1 tau^-)
     7.45901083E-02    2     1000023        15   # BR(~tau^-_1 -> chi^0_2 tau^-)
     2.99817423E-01    2     1000025        15   # BR(~tau^-_1 -> chi^0_3 tau^-)
     1.60519398E-03    2     1000035        15   # BR(~tau^-_1 -> chi^0_4 tau^-)
     1.43422392E-01    2    -1000024        16   # BR(~tau^-_1 -> chi^-_1 nu_tau)
     3.22161196E-03    2    -1000037        16   # BR(~tau^-_1 -> chi^-_2 nu_tau)
DECAY   2000015     1.48424272E+02   # ~tau^-_2
#    BR                NDA      ID1      ID2
     7.01707489E-02    2     1000022        15   # BR(~tau^-_2 -> chi^0_1 tau^-)
     3.57413861E-02    2     1000023        15   # BR(~tau^-_2 -> chi^0_2 tau^-)
     4.92721830E-02    2     1000025        15   # BR(~tau^-_2 -> chi^0_3 tau^-)
     2.80819976E-01    2     1000035        15   # BR(~tau^-_2 -> chi^0_4 tau^-)
     5.63923826E-01    2    -1000037        16   # BR(~tau^-_2 -> chi^-_2 nu_tau)
#    BR                NDA      ID1      ID2       ID3
DECAY   1000012     1.38446601E+02   # ~nu_e
#    BR                NDA      ID1      ID2
     5.13442650E-02    2     1000022        12   # BR(~nu_e -> chi^0_1 nu_e)
     3.98791892E-02    2     1000025        12   # BR(~nu_e -> chi^0_3 nu_e)
     3.02600895E-01    2     1000035        12   # BR(~nu_e -> chi^0_4 nu_e)
     3.42261433E-03    2     1000024        11   # BR(~nu_e -> chi^+_1 e^-)
     6.02743757E-01    2     1000037        11   # BR(~nu_e -> chi^+_2 e^-)
#    BR                NDA      ID1      ID2       ID3
DECAY   1000014     1.38482708E+02   # ~nu_mu
#    BR                NDA      ID1      ID2
     5.13309295E-02    2     1000022        14   # BR(~nu_mu -> chi^0_1 nu_mu)
     3.98688316E-02    2     1000025        14   # BR(~nu_mu -> chi^0_3 nu_mu)
     3.02522333E-01    2     1000035        14   # BR(~nu_mu -> chi^0_4 nu_mu)
     3.68134689E-03    2     1000024        13   # BR(~nu_mu -> chi^+_1 mu^-)
     6.02587283E-01    2     1000037        13   # BR(~nu_mu -> chi^+_2 mu^-)
#    BR                NDA      ID1      ID2       ID3
DECAY   1000016     1.48662934E+02   # ~nu_tau
#    BR                NDA      ID1      ID2
     4.78294622E-02    2     1000022        16   # BR(~nu_tau -> chi^0_1 nu_tau)
     3.71492484E-02    2     1000025        16   # BR(~nu_tau -> chi^0_3 nu_tau)
     2.81894176E-01    2     1000035        16   # BR(~nu_tau -> chi^0_4 nu_tau)
     7.16163785E-02    2     1000024        15   # BR(~nu_tau -> chi^+_1 tau^-)
     5.61502091E-01    2     1000037        15   # BR(~nu_tau -> chi^+_2 tau^-)
#    BR                NDA      ID1      ID2       ID3
DECAY   2000001     6.20517512E+02   # ~d_R
#    BR                NDA      ID1      ID2
     5.61930080E-03    2     1000022         1   # BR(~d_R -> chi^0_1 d)
     3.39889433E-03    2     1000025         1   # BR(~d_R -> chi^0_3 d)
     9.90942745E-01    2     1000021         1   # BR(~d_R -> ~g d)
DECAY   1000001     7.45498085E+02   # ~d_L
#    BR                NDA      ID1      ID2
     8.74500596E-04    2     1000022         1   # BR(~d_L -> chi^0_1 d)
     1.09921956E-03    2     1000025         1   # BR(~d_L -> chi^0_3 d)
     5.66424684E-02    2     1000035         1   # BR(~d_L -> chi^0_4 d)
     1.13534211E-01    2    -1000037         2   # BR(~d_L -> chi^-_2 u)
     8.27793393E-01    2     1000021         1   # BR(~d_L -> ~g d)
DECAY   2000003     6.20537871E+02   # ~s_R
#    BR                NDA      ID1      ID2
     5.62269311E-03    2     1000022         3   # BR(~s_R -> chi^0_1 s)
     3.40330452E-03    2     1000025         3   # BR(~s_R -> chi^0_3 s)
     9.90910811E-01    2     1000021         3   # BR(~s_R -> ~g s)
DECAY   1000003     7.45512048E+02   # ~s_L
#    BR                NDA      ID1      ID2
     8.77466611E-04    2     1000022         3   # BR(~s_L -> chi^0_1 s)
     1.10297080E-03    2     1000025         3   # BR(~s_L -> chi^0_3 s)
     5.66414244E-02    2     1000035         3   # BR(~s_L -> chi^0_4 s)
     1.13532143E-01    2    -1000037         4   # BR(~s_L -> chi^-_2 c)
     8.27778231E-01    2     1000021         3   # BR(~s_L -> ~g s)
DECAY   1000005     1.58968566E+01   # ~b_1
#    BR                NDA      ID1      ID2
     1.60451027E-01    2     1000022         5   # BR(~b_1 -> chi^0_1 b)
     2.26839931E-01    2     1000023         5   # BR(~b_1 -> chi^0_2 b)
     1.61503752E-01    2     1000025         5   # BR(~b_1 -> chi^0_3 b)
     4.51203945E-01    2    -1000024         6   # BR(~b_1 -> chi^-_1 t)
DECAY   2000005     1.30173247E+02   # ~b_2
#    BR                NDA      ID1      ID2
     1.75469168E-02    2     1000022         5   # BR(~b_2 -> chi^0_1 b)
     3.57629119E-02    2     1000023         5   # BR(~b_2 -> chi^0_2 b)
     2.23125180E-02    2     1000025         5   # BR(~b_2 -> chi^0_3 b)
     7.38634442E-02    2     1000035         5   # BR(~b_2 -> chi^0_4 b)
     5.34594039E-01    2    -1000024         6   # BR(~b_2 -> chi^-_1 t)
     1.50599992E-01    2    -1000037         6   # BR(~b_2 -> chi^-_2 t)
     1.65148417E-01    2     1000006       -24   # BR(~b_2 -> ~t_1 W^-)
     1.10581381E-04    2     1000005        25   # BR(~b_2 -> ~b_1 h^0)
DECAY   2000002     6.37674665E+02   # ~u_R
#    BR                NDA      ID1      ID2
     2.18790648E-02    2     1000022         2   # BR(~u_R -> chi^0_1 u)
     1.51765055E-04    2     1000023         2   # BR(~u_R -> chi^0_2 u)
     1.32337665E-02    2     1000025         2   # BR(~u_R -> chi^0_3 u)
     9.64735346E-01    2     1000021         2   # BR(~u_R -> ~g u)
DECAY   1000002     7.45482902E+02   # ~u_L
#    BR                NDA      ID1      ID2
     1.51305416E-03    2     1000022         2   # BR(~u_L -> chi^0_1 u)
     1.61876565E-04    2     1000023         2   # BR(~u_L -> chi^0_2 u)
     4.03876102E-04    2     1000025         2   # BR(~u_L -> chi^0_3 u)
     5.65885343E-02    2     1000035         2   # BR(~u_L -> chi^0_4 u)
     6.40781363E-04    2     1000024         1   # BR(~u_L -> chi^+_1 d)
     1.12927926E-01    2     1000037         1   # BR(~u_L -> chi^+_2 d)
     8.27763952E-01    2     1000021         2   # BR(~u_L -> ~g u)
DECAY   2000004     6.37682059E+02   # ~c_R
#    BR                NDA      ID1      ID2
     2.18797154E-02    2     1000022         4   # BR(~c_R -> chi^0_1 c)
     1.54598468E-04    2     1000023         4   # BR(~c_R -> chi^0_2 c)
     1.32355715E-02    2     1000025         4   # BR(~c_R -> chi^0_3 c)
     9.64724334E-01    2     1000021         4   # BR(~c_R -> ~g c)
DECAY   1000004     7.45496834E+02   # ~c_L
#    BR                NDA      ID1      ID2
     1.51379751E-03    2     1000022         4   # BR(~c_L -> chi^0_1 c)
     1.64303053E-04    2     1000023         4   # BR(~c_L -> chi^0_2 c)
     4.05548429E-04    2     1000025         4   # BR(~c_L -> chi^0_3 c)
     5.65875060E-02    2     1000035         4   # BR(~c_L -> chi^0_4 c)
     6.54212528E-04    2     1000024         3   # BR(~c_L -> chi^+_1 s)
     1.12925849E-01    2     1000037         3   # BR(~c_L -> chi^+_2 s)
     8.27748784E-01    2     1000021         4   # BR(~c_L -> ~g c)
DECAY   1000006     1.12886745E+02   # ~t_1
#    BR                NDA      ID1      ID2
     1.00204895E-01    2     1000022         6   # BR(~t_1 -> chi^0_1 t)
     2.35250571E-01    2     1000023         6   # BR(~t_1 -> chi^0_2 t)
     1.89020780E-01    2     1000025         6   # BR(~t_1 -> chi^0_3 t)
     4.75508801E-01    2     1000024         5   # BR(~t_1 -> chi^+_1 b)
#    BR                NDA      ID1      ID2       ID3
DECAY   2000006     1.35634829E+02   # ~t_2
#    BR                NDA      ID1      ID2
     9.31994049E-02    2     1000022         6   # BR(~t_2 -> chi^0_1 t)
     2.57326935E-01    2     1000023         6   # BR(~t_2 -> chi^0_2 t)
     1.68013883E-01    2     1000025         6   # BR(~t_2 -> chi^0_3 t)
     7.33915789E-02    2     1000035         6   # BR(~t_2 -> chi^0_4 t)
     7.00710045E-02    2     1000024         5   # BR(~t_2 -> chi^+_1 b)
     1.44050077E-01    2     1000037         5   # BR(~t_2 -> chi^+_2 b)
     1.21390818E-04    2     1000005        24   # BR(~t_2 -> ~b_1 W^+)
     8.10382660E-02    2     1000006        23   # BR(~t_2 -> ~t_1 Z)
     1.12787460E-01    2     1000006        25   # BR(~t_2 -> ~t_1 h^0)
DECAY   1000024     1.74647264E-04   # chi^+_1
#    BR                NDA      ID1      ID2       ID3
     3.34115868E-01    3     1000022        -1         2   # BR(chi^+_1 -> chi^0_1 d_bar u)
     3.32693063E-01    3     1000022        -3         4   # BR(chi^+_1 -> chi^0_1 s_bar c)
     1.11371507E-01    3     1000022       -11        12   # BR(chi^+_1 -> chi^0_1 e^+ nu_e)
     1.11369187E-01    3     1000022       -13        14   # BR(chi^+_1 -> chi^0_1 mu^+ nu_mu)
     1.10450376E-01    3     1000022       -15        16   # BR(chi^+_1 -> chi^0_1 tau^+ nu_tau)
DECAY   1000037     1.37299461E+01   # chi^+_2
#    BR                NDA      ID1      ID2
     8.68022456E-02    2     1000022        24   # BR(chi^+_2 -> chi^0_1 W^+)
     2.44914723E-01    2     1000023        24   # BR(chi^+_2 -> chi^0_2 W^+)
     1.57978146E-01    2     1000025        24   # BR(chi^+_2 -> chi^0_3 W^+)
     2.43796727E-01    2     1000024        23   # BR(chi^+_2 -> chi^+_1 Z)
     2.41216665E-01    2     1000024        25   # BR(chi^+_2 -> chi^+_1 h^0)
#    BR                NDA      ID1      ID2       ID3
     9.55272634E-03    3     1000024         6        -6   # BR(chi^+_2 -> chi^+_1 t t_bar)
     2.87113563E-03    3     1000022        -5         6   # BR(chi^+_2 -> chi^0_1 b_bar t)
     7.59519528E-03    3     1000023        -5         6   # BR(chi^+_2 -> chi^0_2 b_bar t)
     5.24953502E-03    3     1000025        -5         6   # BR(chi^+_2 -> chi^0_3 b_bar t)
DECAY   1000022     0.00000000E+00   # chi^0_1
DECAY   1000023     1.29312195E-04   # chi^0_2
#    BR                NDA      ID1      ID2
     1.44682495E-02    2     1000022        22   # BR(chi^0_2 -> chi^0_1 photon)
#    BR                NDA      ID1      ID2       ID3
     1.19132189E-01    3     1000022         2        -2   # BR(chi^0_2 -> chi^0_1 u u_bar)
     1.17678287E-01    3     1000022         4        -4   # BR(chi^0_2 -> chi^0_1 c c_bar)
     1.52750755E-01    3     1000022         1        -1   # BR(chi^0_2 -> chi^0_1 d d_bar)
     1.52741786E-01    3     1000022         3        -3   # BR(chi^0_2 -> chi^0_1 s s_bar)
     1.36447646E-01    3     1000022         5        -5   # BR(chi^0_2 -> chi^0_1 b b_bar)
     3.44709114E-02    3     1000022        11       -11   # BR(chi^0_2 -> chi^0_1 e^- e^+)
     3.44676732E-02    3     1000022        13       -13   # BR(chi^0_2 -> chi^0_1 mu^- mu^+)
     3.35710877E-02    3     1000022        15       -15   # BR(chi^0_2 -> chi^0_1 tau^- tau^+)
     2.04271416E-01    3     1000022        12       -12   # BR(chi^0_2 -> chi^0_1 nu_e nu_bar_e)
DECAY   1000025     1.19197979E-04   # chi^0_3
#    BR                NDA      ID1      ID2
     1.20829366E-03    2     1000022        22   # BR(chi^0_3 -> chi^0_1 photon)
     1.92902174E-02    2     1000023        22   # BR(chi^0_3 -> chi^0_2 photon)
#    BR                NDA      ID1      ID2       ID3
     2.00089016E-03    3     1000022         2        -2   # BR(chi^0_3 -> chi^0_1 u u_bar)
     1.99551903E-03    3     1000022         4        -4   # BR(chi^0_3 -> chi^0_1 c c_bar)
     2.56331419E-03    3     1000022         1        -1   # BR(chi^0_3 -> chi^0_1 d d_bar)
     2.56328694E-03    3     1000022         3        -3   # BR(chi^0_3 -> chi^0_1 s s_bar)
     2.53947021E-03    3     1000022         5        -5   # BR(chi^0_3 -> chi^0_1 b b_bar)
     5.76687168E-04    3     1000022        11       -11   # BR(chi^0_3 -> chi^0_1 e^- e^+)
     5.76680511E-04    3     1000022        13       -13   # BR(chi^0_3 -> chi^0_1 mu^- mu^+)
     5.74783831E-04    3     1000022        15       -15   # BR(chi^0_3 -> chi^0_1 tau^- tau^+)
     3.43093152E-03    3     1000022        12       -12   # BR(chi^0_3 -> chi^0_1 nu_e nu_bar_e)
     3.35780526E-02    3     1000023         2        -2   # BR(chi^0_3 -> chi^0_2 u u_bar)
     3.26889115E-02    3     1000023         4        -4   # BR(chi^0_3 -> chi^0_2 c c_bar)
     4.30538747E-02    3     1000023         1        -1   # BR(chi^0_3 -> chi^0_2 d d_bar)
     4.30483051E-02    3     1000023         3        -3   # BR(chi^0_3 -> chi^0_2 s s_bar)
     3.35058131E-02    3     1000023         5        -5   # BR(chi^0_3 -> chi^0_2 b b_bar)
     9.71614094E-03    3     1000023        11       -11   # BR(chi^0_3 -> chi^0_2 e^- e^+)
     9.71415048E-03    3     1000023        13       -13   # BR(chi^0_3 -> chi^0_2 mu^- mu^+)
     9.17323051E-03    3     1000023        15       -15   # BR(chi^0_3 -> chi^0_2 tau^- tau^+)
     5.75754354E-02    3     1000023        12       -12   # BR(chi^0_3 -> chi^0_2 nu_e nu_bar_e)
     1.15723511E-01    3     1000024         1        -2   # BR(chi^0_3 -> chi^+_1 d u_bar)
     1.15723511E-01    3    -1000024        -1         2   # BR(chi^0_3 -> chi^-_1 d_bar u)
     1.14593570E-01    3     1000024         3        -4   # BR(chi^0_3 -> chi^+_1 s c_bar)
     1.14593570E-01    3    -1000024        -3         4   # BR(chi^0_3 -> chi^-_1 s_bar c)
     3.85746094E-02    3     1000024        11       -12   # BR(chi^0_3 -> chi^+_1 e^- nu_bar_e)
     3.85746094E-02    3    -1000024       -11        12   # BR(chi^0_3 -> chi^-_1 e^+ nu_e)
     3.85728122E-02    3     1000024        13       -14   # BR(chi^0_3 -> chi^+_1 mu^- nu_bar_mu)
     3.85728122E-02    3    -1000024       -13        14   # BR(chi^0_3 -> chi^-_1 mu^+ nu_mu)
     3.78485029E-02    3     1000024        15       -16   # BR(chi^0_3 -> chi^+_1 tau^- nu_bar_tau)
     3.78485029E-02    3    -1000024       -15        16   # BR(chi^0_3 -> chi^-_1 tau^+ nu_tau)
DECAY   1000035     1.48257895E+01   # chi^0_4
#    BR                NDA      ID1      ID2
     2.27273580E-01    2     1000024       -24   # BR(chi^0_4 -> chi^+_1 W^-)
     2.27273580E-01    2    -1000024        24   # BR(chi^0_4 -> chi^-_1 W^+)
     4.57116413E-02    2     1000022        23   # BR(chi^0_4 -> chi^0_1 Z)
     8.98093885E-02    2     1000023        23   # BR(chi^0_4 -> chi^0_2 Z)
     9.09071536E-02    2     1000025        23   # BR(chi^0_4 -> chi^0_3 Z)
     5.51375747E-02    2     1000022        25   # BR(chi^0_4 -> chi^0_1 h^0)
     1.35257346E-01    2     1000023        25   # BR(chi^0_4 -> chi^0_2 h^0)
     1.06627331E-01    2     1000025        25   # BR(chi^0_4 -> chi^0_3 h^0)
#    BR                NDA      ID1      ID2       ID3
     1.53204967E-03    3     1000022         6        -6   # BR(chi^0_4 -> chi^0_1 t t_bar)
     4.11029624E-03    3     1000023         6        -6   # BR(chi^0_4 -> chi^0_2 t t_bar)
     2.74981386E-03    3     1000025         6        -6   # BR(chi^0_4 -> chi^0_3 t t_bar)
     6.79232444E-03    3     1000024         5        -6   # BR(chi^0_4 -> chi^+_1 b t_bar)
     6.79232444E-03    3    -1000024        -5         6   # BR(chi^0_4 -> chi^-_1 b_bar t)
DECAY   1000021     3.38191300E+01   # ~g
#    BR                NDA      ID1      ID2
     2.45290671E-01    2     1000006        -6   # BR(~g -> ~t_1 t_bar)
     2.45290671E-01    2    -1000006         6   # BR(~g -> ~t^*_1 t)
     2.48022409E-01    2     1000005        -5   # BR(~g -> ~b_1 b_bar)
     2.48022409E-01    2    -1000005         5   # BR(~g -> ~b^*_1 b)
     4.65103138E-04    2     2000005        -5   # BR(~g -> ~b_2 b_bar)
     4.65103138E-04    2    -2000005         5   # BR(~g -> ~b^*_2 b)
     1.15954145E-04    2     1000023        21   # BR(~g -> chi^0_2 g)
#    BR                NDA      ID1      ID2       ID3
     1.48916551E-03    3     1000022         6        -6   # BR(~g -> chi^0_1 t t_bar)
     4.22564384E-03    3     1000023         6        -6   # BR(~g -> chi^0_2 t t_bar)
     2.81448070E-03    3     1000025         6        -6   # BR(~g -> chi^0_3 t t_bar)
     9.61493154E-04    3     1000035         6        -6   # BR(~g -> chi^0_4 t t_bar)
     5.68023989E-04    3     1000024         5        -6   # BR(~g -> chi^+_1 b t_bar)
     5.68023989E-04    3    -1000024        -5         6   # BR(~g -> chi^-_1 b_bar t)
     7.50409223E-04    3     1000037         5        -6   # BR(~g -> chi^+_2 b t_bar)
     7.50409223E-04    3    -1000037        -5         6   # BR(~g -> chi^-_2 b_bar t)
DECAY        25     3.38953734E-03   # Gamma(h0)
     2.59070774E-03   2        22        22   # BR(h0 -> photon photon)
     1.56465522E-03   2        22        23   # BR(h0 -> photon Z)
     2.79157681E-02   2        23        23   # BR(h0 -> Z Z)
     2.35242121E-01   2       -24        24   # BR(h0 -> W W)
     8.11729635E-02   2        21        21   # BR(h0 -> gluon gluon)
     5.01884767E-09   2       -11        11   # BR(h0 -> Electron electron)
     2.23246785E-04   2       -13        13   # BR(h0 -> Muon muon)
     6.43688483E-02   2       -15        15   # BR(h0 -> Tau tau)
     1.42651125E-07   2        -2         2   # BR(h0 -> Up up)
     2.76852544E-02   2        -4         4   # BR(h0 -> Charm charm)
     5.81752822E-07   2        -1         1   # BR(h0 -> Down down)
     2.10405982E-04   2        -3         3   # BR(h0 -> Strange strange)
     5.59025300E-01   2        -5         5   # BR(h0 -> Bottom bottom)
DECAY        35     4.14813201E+01   # Gamma(HH)
     1.21580325E-08   2        22        22   # BR(HH -> photon photon)
     3.95273321E-08   2        22        23   # BR(HH -> photon Z)
     1.58553488E-06   2        23        23   # BR(HH -> Z Z)
     4.83456813E-07   2       -24        24   # BR(HH -> W W)
     2.31433753E-06   2        21        21   # BR(HH -> gluon gluon)
     5.12163435E-09   2       -11        11   # BR(HH -> Electron electron)
     2.28039408E-04   2       -13        13   # BR(HH -> Muon muon)
     6.58604673E-02   2       -15        15   # BR(HH -> Tau tau)
     3.05701019E-13   2        -2         2   # BR(HH -> Up up)
     5.93025321E-08   2        -4         4   # BR(HH -> Charm charm)
     4.52463886E-03   2        -6         6   # BR(HH -> Top top)
     3.78977260E-07   2        -1         1   # BR(HH -> Down down)
     1.37073011E-04   2        -3         3   # BR(HH -> Strange strange)
     3.58298266E-01   2        -5         5   # BR(HH -> Bottom bottom)
     3.50004668E-03   2  -1000024   1000024   # BR(HH -> Chargino1 chargino1)
     1.61279955E-01   2  -1000024   1000037   # BR(HH -> Chargino1 chargino2)
     1.61279955E-01   2  -1000037   1000024   # BR(HH -> Chargino2 chargino1)
     1.81038475E-07   2  -1000037   1000037   # BR(HH -> Chargino2 chargino2)
     1.91649468E-02   2   1000022   1000022   # BR(HH -> neutralino1 neutralino1)
     2.29456155E-02   2   1000022   1000023   # BR(HH -> neutralino1 neutralino2)
     2.27799546E-05   2   1000022   1000025   # BR(HH -> neutralino1 neutralino3)
     4.16207902E-02   2   1000022   1000035   # BR(HH -> neutralino1 neutralino4)
     2.20712095E-05   2   1000023   1000023   # BR(HH -> neutralino2 neutralino2)
     2.23898284E-02   2   1000023   1000025   # BR(HH -> neutralino2 neutralino3)
     7.95865926E-02   2   1000023   1000035   # BR(HH -> neutralino2 neutralino4)
     1.83276891E-02   2   1000025   1000025   # BR(HH -> neutralino3 neutralino3)
     4.07964719E-02   2   1000025   1000035   # BR(HH -> neutralino3 neutralino4)
     9.05173834E-08   2   1000035   1000035   # BR(HH -> neutralino4 neutralino4)
     9.62396390E-06   2        25        25   # BR(HH -> h0 h0)
DECAY        36     4.08456721E+01   # Gamma(A0)
     2.15779742E-09   2        22        22   # BR(A0 -> photon photon)
     2.26791562E-08   2        22        23   # BR(A0 -> photon Z)
     1.42632623E-05   2        21        21   # BR(A0 -> gluon gluon)
     5.01449411E-09   2       -11        11   # BR(A0 -> Electron electron)
     2.23269223E-04   2       -13        13   # BR(A0 -> Muon muon)
     6.44828846E-02   2       -15        15   # BR(A0 -> Tau tau)
     2.90321718E-13   2        -2         2   # BR(A0 -> Up up)
     5.63168057E-08   2        -4         4   # BR(A0 -> Charm charm)
     4.36075236E-03   2        -6         6   # BR(A0 -> Top top)
     3.71043338E-07   2        -1         1   # BR(A0 -> Down down)
     1.34203661E-04   2        -3         3   # BR(A0 -> Strange strange)
     3.50799994E-01   2        -5         5   # BR(A0 -> Bottom bottom)
     3.56942441E-03   2  -1000024   1000024   # BR(A0 -> Chargino1 chargino1)
     1.63831982E-01   2  -1000024   1000037   # BR(A0 -> Chargino1 chargino2)
     1.63831982E-01   2  -1000037   1000024   # BR(A0 -> Chargino2 chargino1)
     2.09331493E-06   2  -1000037   1000037   # BR(A0 -> Chargino2 chargino2)
     2.30109179E-02   2   1000022   1000022   # BR(A0 -> neutralino1 neutralino1)
     1.93017205E-02   2   1000022   1000023   # BR(A0 -> neutralino1 neutralino2)
     8.21377106E-06   2   1000022   1000025   # BR(A0 -> neutralino1 neutralino3)
     4.17372516E-02   2   1000022   1000035   # BR(A0 -> neutralino1 neutralino4)
     1.92813073E-05   2   1000023   1000023   # BR(A0 -> neutralino2 neutralino2)
     1.85045079E-02   2   1000023   1000025   # BR(A0 -> neutralino2 neutralino3)
     8.31000082E-02   2   1000023   1000035   # BR(A0 -> neutralino2 neutralino4)
     2.33329141E-02   2   1000025   1000025   # BR(A0 -> neutralino3 neutralino3)
     3.97302247E-02   2   1000025   1000035   # BR(A0 -> neutralino3 neutralino4)
     1.04998379E-06   2   1000035   1000035   # BR(A0 -> neutralino4 neutralino4)
     2.60475951E-06   2        23        25   # BR(A0 -> Z h0)
     1.26817943E-41   2        25        25   # BR(A0 -> h0 h0)
DECAY        37     4.40868984E+01   # Gamma(Hp)
     5.91012683E-09   2       -11        12   # BR(Hp -> Electron nu_e)
     2.52676381E-04   2       -13        14   # BR(Hp -> Muon nu_mu)
     7.14712481E-02   2       -15        16   # BR(Hp -> Tau nu_tau)
     3.78643420E-07   2        -1         2   # BR(Hp -> Down up)
     6.39069956E-06   2        -3         2   # BR(Hp -> Strange up)
     4.08139396E-06   2        -5         2   # BR(Hp -> Bottom up)
     2.06903114E-08   2        -1         4   # BR(Hp -> Down charm)
     1.36517678E-04   2        -3         4   # BR(Hp -> Strange charm)
     5.71541275E-04   2        -5         4   # BR(Hp -> Bottom charm)
     3.29147126E-07   2        -1         6   # BR(Hp -> Down top)
     7.37849564E-06   2        -3         6   # BR(Hp -> Strange top)
     3.90370173E-01   2        -5         6   # BR(Hp -> Bottom top)
     4.93656997E-02   2   1000022   1000024   # BR(Hp -> neutralino1 chargino1)
     7.80126438E-02   2   1000022   1000037   # BR(Hp -> neutralino1 chargino2)
     1.30970523E-03   2   1000023   1000024   # BR(Hp -> neutralino2 chargino1)
     1.52598437E-01   2   1000023   1000037   # BR(Hp -> neutralino2 chargino2)
     2.82278947E-02   2   1000024   1000025   # BR(Hp -> chargino1 neutralino3)
     7.53583663E-02   2   1000025   1000037   # BR(Hp -> neutralino3 chargino2)
     1.52304093E-01   2   1000024   1000035   # BR(Hp -> chargino1 neutralino4)
     1.15446992E-12   2   1000035   1000037   # BR(Hp -> neutralino4 chargino2)
     2.41996331E-06   2        24        25   # BR(Hp -> W h0)
     2.75580239E-12   2        24        35   # BR(Hp -> W HH)
     1.31494444E-12   2        24        36   # BR(Hp -> W A0)
DECAY         6     2.43000000E+00   # top
#    BR                NDA      ID1      ID2
     1.00000000E+00    2           5        24   # BR(t -> b W)
Block HiggsBoundsInputHiggsCouplingsFermions
# ScalarNormEffCoupSq PseudoSNormEffCoupSq NP IP1 IP2 IP2
    9.27234930E-01    0.00000000E+00        3  25   5   5  # h0-b-b eff. coupling^2, normalised to SM
    4.87715693E+02    0.00000000E+00        3  35   5   5  # H0-b-b eff. coupling^2, normalised to SM
    0.00000000E+00    4.87642928E+02        3  36   5   5  # A0-b-b eff. coupling^2, normalised to SM
#
    1.00014922E+00    0.00000000E+00        3  25   6   6  # h0-t-t eff. coupling^2, normalised to SM
    1.90146289E-03    0.00000000E+00        3  35   6   6  # H0-t-t eff. coupling^2, normalised to SM
    0.00000000E+00    2.05068082E-03        3  36   6   6  # A0-t-t eff. coupling^2, normalised to SM
#
    9.27234930E-01    0.00000000E+00        3  25  15  15  # h0-tau-tau eff. coupling^2, normalised to SM
    4.87715693E+02    0.00000000E+00        3  35  15  15  # H0-tau-tau eff. coupling^2, normalised to SM
    0.00000000E+00    4.87642928E+02        3  36  15  15  # A0-tau-tau eff. coupling^2, normalised to SM
#
Block HiggsBoundsInputHiggsCouplingsBosons
    9.99997182E-01        3  25  24  24  # h0-W-W eff. coupling^2, normalised to SM
    2.81774159E-06        3  35  24  24  # H0-W-W eff. coupling^2, normalised to SM
    0.00000000E+00        3  36  24  24  # A0-W-W eff. coupling^2, normalised to SM
#
    9.99997182E-01        3  25  23  23  # h0-Z-Z eff. coupling^2, normalised to SM
    2.81774159E-06        3  35  23  23  # H0-Z-Z eff. coupling^2, normalised to SM
    0.00000000E+00        3  36  23  23  # A0-Z-Z eff. coupling^2, normalised to SM
#
    1.26459572E+00        3  25  21  21  # h0-g-g eff. coupling^2, normalised to SM
    1.12153488E-03        3  35  21  21  # H0-g-g eff. coupling^2, normalised to SM
    9.71656994E-02        3  36  21  21  # A0-g-g eff. coupling^2, normalised to SM
#
    0.00000000E+00        3  25  25  23  # h0-h0-Z eff. coupling^2, normalised to SM
    0.00000000E+00        3  35  25  23  # H0-h0-Z eff. coupling^2, normalised to SM
    2.81774159E-06        3  36  25  23  # A0-h0-Z eff. coupling^2, normalised to SM
    0.00000000E+00        3  35  35  23  # H0-H0-Z eff. coupling^2, normalised to SM
    9.99997182E-01        3  36  35  23  # A0-H0-Z eff. coupling^2, normalised to SM
    0.00000000E+00        3  36  36  23  # A0-A0-Z eff. coupling^2, normalised to SM
#
    0.00000000E+00        4  25  21  21  23  # h0-g-g-Z eff. coupling^2, normalised to SM
    0.00000000E+00        4  35  21  21  23  # H0-g-g-Z eff. coupling^2, normalised to SM
    0.00000000E+00        4  36  21  21  23  # A0-g-g-Z eff. coupling^2, normalised to SM
Block SPhenoLowEnergy  # low energy observables
    1    3.37542149E-04   # BR(b -> s gamma)
    2    1.58869719E-06   # BR(b -> s mu+ mu-)
    3    3.52552831E-05   # BR(b -> s nu nu)
    4    2.19150207E-15   # BR(Bd -> e+ e-)
    5    9.36186232E-11   # BR(Bd -> mu+ mu-)
    6    1.96065112E-08   # BR(Bd -> tau+ tau-)
    7    7.39907494E-14   # BR(Bs -> e+ e-)
    8    3.16088720E-09   # BR(Bs -> mu+ mu-)
    9    6.70733725E-07   # BR(Bs -> tau+ tau-)
   10    9.64449295E-05   # BR(B_u -> tau nu)
   11    9.96239198E-01   # BR(B_u -> tau nu)/BR(B_u -> tau nu)_SM
   12    5.42334077E-01   # |Delta(M_Bd)| [ps^-1] 
   13    1.93760159E+01   # |Delta(M_Bs)| [ps^-1] 
   14    0.00000000E+00   # neutron EDM according to the chiral quark model
   15    0.00000000E+00   # neutron EDM according to the relativistic quark-parton model
   16    2.15881380E-03   # epsilon_K
   17    2.28167366E-15   # Delta(M_K)
   18    2.47973531E-11   # BR(K^0 -> pi^0 nu nu)
   19    8.28999031E-11   # BR(K^+ -> pi^+ nu nu)
   20   -2.58552763E-16   # Delta(g-2)_electron/2
   21   -1.10539639E-11   # Delta(g-2)_muon/2
   22   -3.12870419E-09   # Delta(g-2)_tau/2
   23    0.00000000E+00   # electric dipole moment of the electron
   24    0.00000000E+00   # electric dipole moment of the muon
   25    0.00000000E+00   # electric dipole moment of the tau
   26    0.00000000E+00   # Br(mu -> e gamma)
   27    0.00000000E+00   # Br(tau -> e gamma)
   28    0.00000000E+00   # Br(tau -> mu gamma)
   29    0.00000000E+00   # Br(mu -> 3 e)
   30    0.00000000E+00   # Br(tau -> 3 e)
   31    0.00000000E+00   # Br(tau -> 3 mu)
   39    5.29170647E-05   # Delta(rho_parameter)
   40    0.00000000E+00   # BR(Z -> e mu)
   41    0.00000000E+00   # BR(Z -> e tau)
   42    0.00000000E+00   # BR(Z -> mu tau)
Block FWCOEF Q=  1.60000000E+02  # Wilson coefficients at scale Q
#    id        order  M        value         comment
     0305 4422   00   0    -1.88819110E-01   # C7
     0305 4422   00   2    -2.08407828E-01   # C7
     0305 4322   00   2    -2.04411824E-04   # C7'
     0305 6421   00   0    -9.52278348E-02   # C8
     0305 6421   00   2    -1.09615704E-01   # C8
     0305 6321   00   2    -1.91286780E-04   # C8'
 03051111 4133   00   0     1.61701144E+00   # C9 e+e-
 03051111 4133   00   2     1.61762371E+00   # C9 e+e-
 03051111 4233   00   2     1.14727558E-04   # C9' e+e-
 03051111 4137   00   0    -4.43970354E+00   # C10 e+e-
 03051111 4137   00   2    -4.43832815E+00   # C10 e+e-
 03051111 4237   00   2    -8.59987028E-04   # C10' e+e-
 03051313 4133   00   0     1.61701144E+00   # C9 mu+mu-
 03051313 4133   00   2     1.61762365E+00   # C9 mu+mu-
 03051313 4233   00   2     1.14727513E-04   # C9' mu+mu-
 03051313 4137   00   0    -4.43970354E+00   # C10 mu+mu-
 03051313 4137   00   2    -4.43832821E+00   # C10 mu+mu-
 03051313 4237   00   2    -8.59987030E-04   # C10' mu+mu-
 03051212 4137   00   0     1.50535012E+00   # C11 nu_1 nu_1
 03051212 4137   00   2     1.50505322E+00   # C11 nu_1 nu_1
 03051212 4237   00   2     1.86365912E-04   # C11' nu_1 nu_1
 03051414 4137   00   0     1.50535012E+00   # C11 nu_2 nu_2
 03051414 4137   00   2     1.50505322E+00   # C11 nu_2 nu_2
 03051414 4237   00   2     1.86365919E-04   # C11' nu_2 nu_2
 03051616 4137   00   0     1.50535012E+00   # C11 nu_3 nu_3
 03051616 4137   00   2     1.50505322E+00   # C11 nu_3 nu_3
 03051616 4237   00   2     1.86367980E-04   # C11' nu_3 nu_3
Block IMFWCOEF Q=  1.60000000E+02  # Im(Wilson coefficients) at scale Q
#    id        order  M        value         comment
     0305 4422   00   0     3.85815335E-07   # C7
     0305 4422   00   2    -7.51468398E-06   # C7
     0305 4322   00   2    -1.28044479E-06   # C7'
     0305 6421   00   0     3.30476350E-07   # C8
     0305 6421   00   2     5.59959696E-06   # C8
     0305 6321   00   2    -3.54409763E-07   # C8'
 03051111 4133   00   2     3.26039083E-07   # C9 e+e-
 03051111 4233   00   2     2.29041220E-06   # C9' e+e-
 03051111 4137   00   2    -1.81688322E-07   # C10 e+e-
 03051111 4237   00   2    -1.71719620E-05   # C10' e+e-
 03051313 4133   00   2     3.26038199E-07   # C9 mu+mu-
 03051313 4233   00   2     2.29041198E-06   # C9' mu+mu-
 03051313 4137   00   2    -1.81687624E-07   # C10 mu+mu-
 03051313 4237   00   2    -1.71719626E-05   # C10' mu+mu-
 03051212 4137   00   2     5.98258208E-08   # C11 nu_1 nu_1
 03051212 4237   00   2     3.72130056E-06   # C11' nu_1 nu_1
 03051414 4137   00   2     5.98258545E-08   # C11 nu_2 nu_2
 03051414 4237   00   2     3.72130056E-06   # C11' nu_2 nu_2
 03051616 4137   00   2     5.98353225E-08   # C11 nu_3 nu_3
 03051616 4237   00   2     3.72130055E-06   # C11' nu_3 nu_3
