BLOCK SPINFO
   1   SPheno
   2   v4.0.5be

BLOCK SPHENOINFO
   1   2
   2   2

BLOCK MODSEL
   1   0

BLOCK MINPAR
   3    56.023146
   4   -1

BLOCK EXTPAR
   0    3507.4219
   1   -3213.1755
   2    1943.1296
   3    3811.5532
   11    5976.6
   12   -301.632
   13    4734.2481
   23   -735.8159
   25    56.535038
   26    4960.0271
   31    3221.5207
   32    3221.5207
   33    4273.3975
   34    2600.0006
   35    2600.0006
   36    3021.9308
   41    4251.6136
   42    4251.6136
   43    3744.5529
   44    541.57966
   45    541.57966
   46    3219.4898
   47    1722.2251
   48    1722.2251
   49    4212.6217

BLOCK SMINPUTS
   1    127.90897
   2    1.1663787e-05
   3    0.1184
   4    91.1876
   5    4.18
   6    173.2
   7    1.777
   8    0
   11    0.00051099893
   12    0
   13    0.10565837
   14    0
   21    0.005
   22    0.0025
   23    0.095
   24    1.27

BLOCK GAUGE Q=  3507.4219
   1    0.35536298
   2    0.66519887
   3    1.219778

BLOCK YU Q=  3507.4219
   1   1    8.3856836e-06
   2   2    0.0042599273
   3   3    1.0130579

BLOCK YD Q=  3507.4219
   1   1    0.00095265666
   2   2    0.018100477
   3   3    0.94473688

BLOCK YE Q=  3507.4219
   1   1    0.00016624555
   2   2    0.034374308
   3   3    0.57811931

BLOCK AU Q=  3507.4219
   1   1    0
   2   2    0
   3   3    5976.597

BLOCK AD Q=  3507.4219
   1   1    0
   2   2    0
   3   3   -301.63213

BLOCK AE Q=  3507.4219
   1   1    0
   2   2    0
   3   3    4734.2491

BLOCK MSOFT Q=  3507.4219
   1   -3213.1755
   2    1943.1296
   3    3811.5532
   21    24841819
   22   -314822.18
   31    3221.5207
   32    3221.5207
   33    4273.3975
   34    2600.0006
   35    2600.0006
   36    3021.9308
   41    4251.6136
   42    4251.6136
   43    3744.5529
   44    541.57966
   45    541.57966
   46    3219.4898
   47    1722.2251
   48    1722.2251
   49    4212.6217

BLOCK MASS
   6    173.2
   23    91.1876
   24    80.429995
   15    1.777
   25    126.5405
   35    4951.8694
   36    4960.0271
   37    4952.864
   1000001    4377.687
   2000001    1906.6231
   1000002    4376.959
   2000002    893.22148
   1000003    4377.6782
   2000003    1906.598
   1000004    4376.9502
   2000004    893.2207
   1000005    3783.6937
   2000005    4272.1294
   1000006    3230.8716
   2000006    3807.6437
   1000011    3239.1863
   2000011    2610.6067
   1000012    3237.7975
   1000013    3239.143
   2000013    2610.5096
   1000014    3237.7515
   1000015    3013.9793
   2000015    4276.7827
   1000016    4275.6912
   1000021    3999.8748
   1000022    746.42143
   1000023   -749.21183
   1000025    2016.296
   1000035   -3165.709
   1000024    747.11083
   1000037    2015.9345

BLOCK ALPHA
      -0.017863679

BLOCK HMIX Q=  3507.4219
   1   -735.8159
   2    56.535038
   3    243.06186
   4    24601868

BLOCK STOPMIX
   1   1   -0.20194285
   1   2    0.97939731
   2   1   -0.97939731
   2   2   -0.20194285

BLOCK SBOTMIX
   1   1   -0.9996556
   1   2    0.026242784
   2   1   -0.026242784
   2   2   -0.9996556

BLOCK STAUMIX
   1   1   -0.0087015129
   1   2    0.99996214
   2   1   -0.99996214
   2   2   -0.0087015129

BLOCK NMIX
   1   1   -0.0078421731
   1   2   -0.043132273
   1   3   -0.70739058
   1   4   -0.70546203
   2   1   -0.013222711
   2   2   -0.020663959
   2   3    0.70663324
   2   4   -0.7071546
   3   1    0.00039376365
   3   2   -0.99885563
   3   3    0.015926922
   3   4    0.045095653
   4   1   -0.99988175
   4   2    0.00021819709
   4   3   -0.0037903048
   4   4    0.014902376

BLOCK UMIX
   1   1   -0.022536977
   1   2   -0.99974601
   2   1    0.99974601
   2   2   -0.022536977

BLOCK VMIX
   1   1   -0.063809025
   1   2    0.99796213
   2   1    0.99796213
   2   2    0.063809025

BLOCK HIGGSBOUNDSINPUTHIGGSCOUPLINGSFERMIONS
       0, 3196.2105,3,36,15,15

BLOCK HIGGSBOUNDSINPUTHIGGSCOUPLINGSBOSONS
       0,4,36,21,21,23

BLOCK SPHENOLOWENERGY
   1    0.00031186797
   2    1.5912303e-06
   3    3.5246537e-05
   4    3.3377094e-15
   5    1.4257762e-10
   6    2.9530373e-08
   7    1.1412205e-13
   8    4.8750965e-09
   9    1.0228202e-06
   10    9.6265952e-05
   11    0.99439043
   12    0.54179256
   13    19.358822
   14    0
   15    0
   16    0.002156784
   17    2.2816537e-15
   18    2.47985e-11
   19    8.2897505e-11
   20   -2.3920647e-15
   21   -1.0227058e-10
   22   -2.2777268e-08
   23    0
   24    0
   25    0
   26    0
   27    0
   28    0
   29    0
   30    0
   31    0
   39    7.0823856e-05
   40    0
   41    0
   42    0

BLOCK FWCOEF Q=  160
   305   4422   0   0   -0.18881911
   305   4422   0   2   -0.17840368
   305   4322   0   2    0.00016616894
   305   6421   0   0   -0.095227835
   305   6421   0   2   -0.092031326
   305   6321   0   2    3.7593816e-05
   3051111   4133   0   0    1.6232409
   3051111   4133   0   2    1.6234633
   3051111   4233   0   2    0.00057212026
   3051111   4137   0   0   -4.445933
   3051111   4137   0   2   -4.4438203
   3051111   4237   0   2   -0.0042558716
   3051313   4133   0   0    1.6232409
   3051313   4133   0   2    1.623462
   3051313   4233   0   2    0.00057211875
   3051313   4137   0   0   -4.445933
   3051313   4137   0   2   -4.4438217
   3051313   4237   0   2   -0.004255875
   3051212   4137   0   0    1.5053501
   3051212   4137   0   2    1.5048956
   3051212   4237   0   2    0.0009209929
   3051414   4137   0   0    1.5053501
   3051414   4137   0   2    1.5048956
   3051414   4237   0   2    0.00092099294
   3051616   4137   0   0    1.5053501
   3051616   4137   0   2    1.5048956
   3051616   4237   0   2    0.0009210043

BLOCK IMFWCOEF Q=  160
   305   4422   0   0    3.8586713e-07
   305   4422   0   2   -1.6188779e-05
   305   4322   0   2    3.9539735e-06
   305   6421   0   0    3.3052071e-07
   305   6421   0   2    3.8075532e-06
   305   6321   0   2    2.0157026e-06
   3051111   4133   0   2   -6.98247e-07
   3051111   4233   0   2    1.0847713e-05
   3051111   4137   0   2    6.1618706e-06
   3051111   4237   0   2   -8.0694866e-05
   3051313   4133   0   2   -6.9825146e-07
   3051313   4233   0   2    1.084769e-05
   3051313   4137   0   2    6.1618897e-06
   3051313   4237   0   2   -8.0694929e-05
   3051212   4137   0   2   -1.2843023e-06
   3051212   4237   0   2    1.7462792e-05
   3051414   4137   0   2   -1.2843022e-06
   3051414   4237   0   2    1.7462792e-05
   3051616   4137   0   2   -1.2847983e-06
   3051616   4237   0   2    1.7462793e-05

DECAY 23  2.4952


DECAY 24  2.085


DECAY 2000011  0.0026144255
    0.73900454   2    1000023    11
    0.26040621   2    1000022    11
    0.00046254516   2   -1000024    12
    0.00012666618   2    1000025    11

DECAY 1000011  16.09239
    0.66478514   2   -1000037    12
    0.33151066   2    1000025    11
    0.0017789339   2    1000022    11
    0.00080678512   2   -1000024    12
    0.00061032936   2    1000023    11
    0.00050814674   2    1000035    11

DECAY 2000013  0.10601467
    0.48765243   2   -1000024    14
    0.26163246   2    1000023    13
    0.25064019   2    1000022    13

DECAY 1000013  16.160529
    0.66195091   2   -1000037    14
    0.33009769   2    1000025    13
    0.0038853817   2    1000022    13
    0.0027155069   2    1000023    13
    0.00080337024   2   -1000024    14
    0.00050542164   2    1000035    13

DECAY 1000015  35.305106
    0.49995327   2   -1000024    16
    0.25048893   2    1000022    15
    0.249517   2    1000023    15

DECAY 2000015  62.520866
    0.36422554   2   -1000037    16
    0.21441725   2    1000022    15
    0.21367207   2    1000023    15
    0.18174089   2    1000025    15
    0.01755338   2    1000035    15
    0.0041869772   2    1000015    25
    0.0040769516   2    1000015    23
    0.00012693345   2   -1000024    16

DECAY 1000012  16.108577
    0.66074809   2    1000037    11
    0.33095498   2    1000025    12
    0.0064576231   2    1000024    11
    0.0012028647   2    1000022    12
    0.00048984502   2    1000035    12
    0.00014659467   2    1000023    12

DECAY 1000014  16.175961
    0.65796331   2    1000037    13
    0.32955973   2    1000025    14
    0.010645949   2    1000024    13
    0.001197833   2    1000022    14
    0.0004871947   2    1000035    14
    0.00014598145   2    1000023    14

DECAY 1000016  62.527016
    0.42943282   2    1000024    15
    0.36272887   2    1000037    15
    0.18166233   2    1000025    16
    0.017544912   2    1000035    16
    0.0081497126   2    1000015    24
    0.00042905594   2    1000022    16

DECAY 2000001  0.0002293416
    0.63402159   2    1000023    1
    0.25848784   2    1000022    1
    0.10749057   2   -1000024    2

DECAY 1000001  45.46947
    0.52592171   2   -1000037    2
    0.26247885   2    1000025    1
    0.20729728   2    1000021    1
    0.0030650129   2    1000035    1
    0.00069667605   2    1000022    1
    0.00040576556   2   -1000024    2
    0.0001346842   2    1000023    1

DECAY 2000003  0.01797572
    0.49506658   2   -1000024    4
    0.25430407   2    1000023    3
    0.25062935   2    1000022    3

DECAY 1000003  45.497544
    0.52559508   2   -1000037    4
    0.26231588   2    1000025    3
    0.20716054   2    1000021    3
    0.0030630898   2    1000035    3
    0.00099128261   2    1000022    3
    0.00043809752   2   -1000024    4
    0.00042886473   2    1000023    3

DECAY 1000005  187.50925
    0.37698955   2   -1000024    6
    0.16599881   2    1000022    5
    0.16511107   2    1000023    5
    0.15413085   2    1000006   -24
    0.092144331   2   -1000037    6
    0.045372069   2    1000025    5
    0.00025330974   2    1000035    5

DECAY 2000005  148.78692
    0.47725289   2   -1000024    6
    0.23943568   2    1000022    5
    0.2392885   2    1000023    5
    0.034532312   2    1000021    5
    0.0032628421   2    1000035    5
    0.0019562524   2    2000006   -24
    0.0015507775   2    1000005    25
    0.0011655145   2    1000005    23
    0.00077830952   2    1000006   -24
    0.00051830946   2   -1000037    6
    0.0002586116   2    1000025    5

DECAY 2000002  4.1924534e-05
    0.73367734   2    1000023    2
    0.26631998   2    1000022    2

DECAY 1000002  45.471788
    0.52383887   2    1000037    1
    0.26230115   2    1000025    2
    0.2065558   2    1000021    2
    0.0032535968   2    1000024    1
    0.0030471391   2    1000035    2
    0.0007919175   2    1000022    2
    0.00021153405   2    1000023    2

DECAY 2000004  0.00010032564
    0.45204034   2    1000023    4
    0.28886579   2    1000024    3
    0.25909388   2    1000022    4

DECAY 1000004  45.499465
    0.5235182   2    1000037    3
    0.26214054   2    1000025    4
    0.20641981   2    1000021    4
    0.0038407313   2    1000024    3
    0.0030452563   2    1000035    4
    0.0008077015   2    1000022    4
    0.00022775652   2    1000023    4

DECAY 1000006  117.86364
    0.48841238   2    1000024    5
    0.25079692   2    1000023    6
    0.24810225   2    1000022    6
    0.0079249439   2    1000037    5
    0.0039763165   2    1000025    6
    0.00078181238   3    1000022    24    5

DECAY 2000006  197.34688
    0.32515246   2    1000024    5
    0.18092494   2    1000022    6
    0.18047631   2    1000023    6
    0.11242455   2    1000006    25
    0.080778024   2    1000037    5
    0.078662751   2    1000006    23
    0.041013249   2    1000025    6
    0.00056771962   2    1000035    6

DECAY 1000024  2.8202068e-13
    0.83546114   2    1000022    211
    0.086958353   3    1000022   -11    12
    0.077580503   3    1000022   -13    14

DECAY 1000037  16.9198
    0.24728617   2    1000024    25
    0.24257918   2    1000023    24
    0.24061767   2    1000022    24
    0.24032102   2    1000024    23
    0.011194378   3    1000024    6   -6
    0.0092790424   3    1000023   -5    6
    0.0086562808   3    1000022   -5    6

DECAY 1000022 -1


DECAY 1000023  4.2569047e-09
    0.920839   2    1000022    22
    0.016523072   3    1000022    12   -12
    0.01235508   3    1000022    1   -1
    0.012151817   3    1000022    3   -3
    0.0096363153   3    1000022    2   -2
    0.0066635306   3    1000024    1   -2
    0.0066635306   3   -1000024   -1    2
    0.0027883155   3    1000022    11   -11
    0.002716401   3    1000022    13   -13
    0.0022212808   3    1000024    11   -12
    0.0022212808   3   -1000024   -11    12
    0.0021846108   3    1000024    13   -14
    0.0021846108   3   -1000024   -13    14
    0.00042554244   3    1000024    3   -4
    0.00042554244   3   -1000024   -3    4

DECAY 1000025  19.817635
    0.20629985   2    1000024   -24
    0.20629985   2   -1000024    24
    0.18583322   2    1000023    25
    0.17147339   2    1000022    25
    0.16881014   2    1000023    23
    0.038408054   2    1000022    23
    0.007127837   3    1000024    5   -6
    0.007127837   3   -1000024   -5    6
    0.0043776941   3    1000023    6   -6
    0.0041804564   3    1000022    6   -6

DECAY 1000035  53.312005
    0.16846087   2    2000004   -4
    0.16846087   2   -2000004    4
    0.16846076   2    2000002   -2
    0.16846076   2   -2000002    2
    0.040263401   2    1000024   -24
    0.040263401   2   -1000024    24
    0.029726436   2    1000022    23
    0.027847323   2    1000023    25
    0.025831712   2    1000022    25
    0.020190716   2    2000003   -3
    0.020190716   2   -2000003    3
    0.020190107   2    2000001   -1
    0.020190107   2   -2000001    1
    0.015272813   2    2000013   -13
    0.015272813   2   -2000013    13
    0.015267985   2    2000011   -11
    0.015267985   2   -2000011    11
    0.010536425   2    1000023    23
    0.0020445499   3    1000024    5   -6
    0.0020445499   3   -1000024   -5    6
    0.0014744681   3    1000023    6   -6
    0.0014345881   3    1000022    6   -6
    0.001305682   2    1000015   -15
    0.001305682   2   -1000015    15

DECAY 1000021  372.81342
    0.14334553   2    2000004   -4
    0.14334553   2   -2000004    4
    0.14334551   2    2000002   -2
    0.14334551   2   -2000002    2
    0.0948289   2    2000003   -3
    0.0948289   2   -2000003    3
    0.094827434   2    2000001   -1
    0.094827434   2   -2000001    1
    0.020624262   2    1000006   -6
    0.020624262   2   -1000006    6
    0.0017579233   2    1000005   -5
    0.0017579233   2   -1000005    5
    0.00039684645   2    2000006   -6
    0.00039684645   2   -2000006    6
    0.00037996972   2    1000006   -4
    0.00037996972   2   -1000006    4
    0.00015763493   3    1000022    5   -5
    0.00015740234   3    1000023    5   -5
    0.00015603766   3    1000024    5   -6
    0.00015603766   3   -1000024   -5    6

DECAY 25  0.0040812103
    0.54756623   2   -5    5
    0.25486155   2   -24    24
    0.071164497   2    21    21
    0.063097605   2   -15    15
    0.031789789   2    23    23
    0.027116946   2   -4    4
    0.0023492575   2    22    22
    0.001629023   2    22    23
    0.00021881447   2   -13    13
    0.00020557615   2   -3    3
    5.6839582e-07   2   -1    1
    1.3973563e-07   2   -2    2
    4.9191737e-09   2   -11    11

DECAY 35  276.84658
    0.7412151   2   -5    5
    0.10487429   2   -15    15
    0.048644566   2   -1000024    1000037
    0.048644566   2   -1000037    1000024
    0.026956571   2    1000023    1000025
    0.021775699   2    1000022    1000025
    0.0042605391   2    1000022    1000035
    0.001919661   2    1000023    1000035
    0.00059018641   2   -1000024    1000024
    0.00035275671   2   -13    13
    0.00030047639   2   -6    6
    0.00027190781   2   -3    3
    0.00011646427   2    1000022    1000022
    2.3651475e-05   2    1000022    1000023
    2.2740065e-05   2   -1000037    1000037
    1.3592721e-05   2    1000023    1000023
    1.1375716e-05   2    1000025    1000025
    4.7469416e-06   2    21    21
    7.5157554e-07   2   -1    1
    1.0107996e-07   2   -2000004    1000004
    1.0107996e-07   2   -1000004    2000004
    3.8134231e-08   2    25    25
    2.9440626e-08   2   -1000002    1000002
    2.9424855e-08   2   -1000004    1000004
    1.981702e-08   2    22    23
    1.311305e-08   2    23    23
    1.2051132e-08   2    22    22
    7.921465e-09   2   -11    11
    5.6596449e-09   2   -4    4
    2.190765e-09   2   -24    24
    9.6881882e-10   2   -1000001    1000001
    9.5792066e-10   2   -1000003    1000003
    3.9168746e-13   2   -2000002    1000002
    3.9168746e-13   2   -1000002    2000002
    2.9173117e-14   2   -2    2

DECAY 36  245.82596
    0.72384413   2   -5    5
    0.10239615   2   -15    15
    0.054917664   2   -1000024    1000037
    0.054917664   2   -1000037    1000024
    0.030447332   2    1000022    1000025
    0.024585675   2    1000023    1000025
    0.0048187444   2    1000023    1000035
    0.0021979914   2    1000022    1000035
    0.00071148488   2   -1000024    1000024
    0.00034440606   2   -13    13
    0.00028140946   2   -6    6
    0.00026551082   2   -3    3
    0.00013413909   2    1000022    1000022
    5.5309665e-05   2   -1000037    1000037
    2.8285399e-05   2    1000022    1000023
    2.7678954e-05   2    1000025    1000025
    1.8072534e-05   2    1000023    1000023
    7.3294263e-06   2    21    21
    7.3389944e-07   2   -1    1
    1.1660815e-07   2   -2000004    1000004
    1.1660815e-07   2   -1000004    2000004
    4.059063e-08   2    23    25
    7.733998e-09   2   -11    11
    5.3037418e-09   2   -4    4
    4.5833975e-09   2    22    23
    1.6790306e-09   2    22    22
    1.6187194e-10   2    23    35
    4.5185948e-13   2   -2000002    1000002
    4.5185948e-13   2   -1000002    2000002
    2.7338356e-14   2   -2    2
    3.2510214e-40   2    25    25

DECAY 37  293.47388
    0.74805928   2   -5    6
    0.1059296   2   -15    16
    0.046275396   2    1000022    1000037
    0.046017258   2    1000024    1000025
    0.045937575   2    1000023    1000037
    0.0058257805   2    1000024    1000035
    0.001110644   2   -5    4
    0.0003744988   2   -13    14
    0.00023319685   2   -3    4
    0.00017538072   2    1000023    1000024
    4.1080861e-05   2    1000022    1000024
    1.098232e-05   2   -3    2
    7.9311429e-06   2   -5    2
    6.4685395e-07   2   -1    2
    6.3677804e-07   2   -3    6
    3.3860712e-08   2    24    25
    3.0494636e-08   2   -1    4
    2.5943752e-08   2   -2000003    1000004
    1.3215014e-08   2   -1    6
    8.7595658e-09   2   -11    12
    1.3879788e-09   2   -2000001    1000004
    1.0068073e-10   2   -1000005    1000004
    2.2900748e-11   2   -1000003    1000006
    2.434454e-12   2    1000025    1000037
    1.7940509e-12   2   -1000003    1000004
    1.2203585e-12   2   -2000005    1000004
    1.3630953e-13   2   -2000001    1000002
    7.2890678e-15   2   -2000003    1000002
    2.9085419e-15   2   -1000001    1000006
    2.6578849e-16   2   -1000001    1000004
    3.7710504e-18   2   -1000005    1000002
    5.0404839e-19   2   -1000003    1000002
    4.5709347e-20   2   -2000005    1000002
    2.6102242e-20   2   -1000001    1000002

DECAY 6  2.43
    1   2    5    24

DECAY 15 -1
