BLOCK SPINFO
   1   SPheno
   2   v4.0.5be

BLOCK SPHENOINFO
   1   2
   2   2

BLOCK MODSEL
   1   0

BLOCK MINPAR
   3    33.491969
   4   -1

BLOCK EXTPAR
   0    1347.1964
   1   -315.26452
   2   -681.80002
   3    3000
   11    1988.1954
   12   -436.67305
   13   -213.54377
   23   -173.7243
   25    32.613617
   26    626.07056
   31    1293.2236
   32    1293.2236
   33    1689.2708
   34    227.23899
   35    227.23899
   36    814.03032
   41    5000
   42    5000
   43    1679.2548
   44    5000
   45    5000
   46    1167.092
   47    5000
   48    5000
   49    1361.0805

BLOCK SMINPUTS
   1    127.90897
   2    1.1663787e-05
   3    0.1184
   4    91.1876
   5    4.18
   6    173.2
   7    1.777
   8    0
   11    0.00051099893
   12    0
   13    0.10565837
   14    0
   21    0.005
   22    0.0025
   23    0.095
   24    1.27

BLOCK GAUGE Q=  1347.1964
   1    0.35536298
   2    0.66519887
   3    1.219778

BLOCK YU Q=  1347.1964
   1   1    8.3883125e-06
   2   2    0.0042612628
   3   3    1.0133755

BLOCK YD Q=  1347.1964
   1   1    0.00054973555
   2   2    0.010444976
   3   3    0.5451654

BLOCK YE Q=  1347.1964
   1   1    9.5932874e-05
   2   2    0.019835876
   3   3    0.3336068

BLOCK AU Q=  1347.1964
   1   1    0
   2   2    0
   3   3    1988.1954

BLOCK AD Q=  1347.1964
   1   1    0
   2   2    0
   3   3   -436.67304

BLOCK AE Q=  1347.1964
   1   1    0
   2   2    0
   3   3   -213.54377

BLOCK MSOFT Q=  1347.1964
   1   -315.26452
   2   -681.80002
   3    3000
   21    377598.78
   22    5022.5863
   31    1293.2236
   32    1293.2236
   33    1689.2708
   34    227.23899
   35    227.23899
   36    814.03032
   41    5000
   42    5000
   43    1679.2548
   44    5000
   45    5000
   46    1167.092
   47    5000
   48    5000
   49    1361.0805

BLOCK MASS
   6    173.2
   23    91.1876
   24    80.429995
   15    1.777
   25    120.33916
   35    626.05926
   36    626.07056
   37    632.94715
   1000001    5022.1178
   2000001    5012.0261
   1000002    5021.6656
   2000002    5013.0258
   1000003    5022.1212
   2000003    5012.0317
   1000004    5021.669
   2000004    5013.0268
   1000005    1339.8429
   2000005    1658.869
   1000006    1079.2146
   2000006    1681.7212
   1000011    1297.616
   2000011    243.27072
   1000012    1294.7984
   1000013    1297.6112
   2000013    243.23649
   1000014    1294.7935
   1000015    814.47089
   2000015    1691.7494
   1000016    1689.4868
   1000021    3176.7058
   1000022   -161.79567
   1000023    180.32369
   1000025   -321.02209
   1000035   -726.25515
   1000024    171.93553
   1000037    726.43244

BLOCK ALPHA
      -0.03167999

BLOCK HMIX Q=  1347.1964
   1   -173.7243
   2    32.613617
   3    244.12261
   4    391964.35

BLOCK STOPMIX
   1   1   -0.19157172
   1   2    0.98147862
   2   1   -0.98147862
   2   2   -0.19157172

BLOCK SBOTMIX
   1   1   -0.014610866
   1   2    0.99989326
   2   1   -0.99989326
   2   2   -0.014610866

BLOCK STAUMIX
   1   1   -0.0044449815
   1   2    0.99999012
   2   1   -0.99999012
   2   2   -0.0044449815

BLOCK NMIX
   1   1   -0.20278661
   1   2    0.099542305
   1   3    0.71308357
   1   4   -0.66368724
   2   1    0.062797142
   2   2   -0.062444999
   2   3    0.69273206
   2   4    0.71573699
   3   1    0.97711455
   3   2    0.038344709
   3   3    0.10303036
   3   4   -0.1821032
   4   1    0.013463203
   4   2   -0.99233141
   4   3    0.031919778
   4   4   -0.11865174

BLOCK UMIX
   1   1   -0.045129774
   1   2   -0.99898113
   2   1   -0.99898113
   2   2    0.045129774

BLOCK VMIX
   1   1    0.16782972
   1   2    0.985816
   2   1    0.985816
   2   2   -0.16782972

BLOCK HIGGSBOUNDSINPUTHIGGSCOUPLINGSFERMIONS
       0, 1063.6481,3,36,15,15

BLOCK HIGGSBOUNDSINPUTHIGGSCOUPLINGSBOSONS
       0,4,36,21,21,23

BLOCK SPHENOLOWENERGY
   1    0.00036165339
   2    1.5840427e-06
   3    3.5176842e-05
   4    3.8449338e-15
   5    1.6424214e-10
   6    3.3850426e-08
   7    1.314073e-13
   8    5.6134045e-09
   9    1.1721365e-06
   10    8.2825956e-05
   11    0.85556042
   12    0.54330837
   13    19.360432
   14    0
   15    0
   16    0.002162961
   17    2.2817333e-15
   18    2.4740624e-11
   19    8.2764912e-11
   20    6.5226084e-15
   21    2.7877186e-10
   22    7.9740455e-08
   23    0
   24    0
   25    0
   26    0
   27    0
   28    0
   29    0
   30    0
   31    0
   39    9.2780248e-05
   40    0
   41    0
   42    0

BLOCK FWCOEF Q=  160
   305   4422   0   0   -0.18881911
   305   4422   0   2   -0.22645159
   305   4322   0   2   -0.0010679676
   305   6421   0   0   -0.095227835
   305   6421   0   2   -0.15422384
   305   6321   0   2   -0.0012871474
   3051111   4133   0   0    1.588274
   3051111   4133   0   2    1.5902355
   3051111   4233   0   2   -0.00010340558
   3051111   4137   0   0   -4.4109661
   3051111   4137   0   2   -4.4018033
   3051111   4237   0   2    0.00081436253
   3051313   4133   0   0    1.588274
   3051313   4133   0   2    1.5902333
   3051313   4233   0   2   -0.00010343622
   3051313   4137   0   0   -4.4109661
   3051313   4137   0   2   -4.4018055
   3051313   4237   0   2    0.00081439059
   3051212   4137   0   0    1.5053501
   3051212   4137   0   2    1.5033635
   3051212   4237   0   2   -0.00017764036
   3051414   4137   0   0    1.5053501
   3051414   4137   0   2    1.5033635
   3051414   4237   0   2   -0.00017763385
   3051616   4137   0   0    1.5053501
   3051616   4137   0   2    1.5033633
   3051616   4237   0   2   -0.00017580025

BLOCK IMFWCOEF Q=  160
   305   4422   0   0    3.8583715e-07
   305   4422   0   2    1.5396654e-05
   305   4322   0   2    2.5361921e-06
   305   6421   0   0    3.3049504e-07
   305   6421   0   2    8.0040402e-06
   305   6321   0   2    8.9680123e-07
   3051111   4133   0   2    2.3146342e-07
   3051111   4233   0   2    2.6234206e-06
   3051111   4137   0   2   -1.0155201e-06
   3051111   4237   0   2   -2.0509576e-05
   3051313   4133   0   2    2.3145116e-07
   3051313   4233   0   2    2.6234061e-06
   3051313   4137   0   2   -1.0155294e-06
   3051313   4237   0   2   -2.0509607e-05
   3051212   4137   0   2    4.1754453e-07
   3051212   4237   0   2    4.4733716e-06
   3051414   4137   0   2    4.1754461e-07
   3051414   4237   0   2    4.4733716e-06
   3051616   4137   0   2    4.1472168e-07
   3051616   4237   0   2    4.4733762e-06

DECAY 23  2.4952


DECAY 24  2.085


DECAY 2000011  0.016610556
    0.94109009   2    1000022    11
    0.058909241   2    1000023    11

DECAY 1000011  9.5962735
    0.56001506   2   -1000037    12
    0.27242296   2    1000035    11
    0.16469937   2    1000025    11
    0.0023400124   2   -1000024    12
    0.00047801219   2    1000023    11

DECAY 2000013  0.017565769
    0.90677882   2    1000022    13
    0.066141655   2    1000023    13
    0.027079525   2   -1000024    14

DECAY 1000013  9.6060627
    0.55943855   2   -1000037    14
    0.27214292   2    1000035    13
    0.16454077   2    1000025    13
    0.0023376186   2   -1000024    14
    0.00096549504   2    1000023    13
    0.00056559844   2    1000022    13

DECAY 1000015  6.2444705
    0.44831669   2    1000025    15
    0.2632917   2   -1000024    16
    0.1609484   2    1000022    15
    0.12741461   2    1000023    15

DECAY 2000015  20.629849
    0.47933624   2   -1000037    16
    0.23323561   2    1000035    15
    0.107229   2    1000025    15
    0.090339601   2    1000022    15
    0.085601855   2    1000023    15
    0.0013014201   2   -1000024    16
    0.00079221573   2    1000015    35
    0.00079105385   2    1000015    36
    0.00070225498   2    1000015    23
    0.00067074672   2    1000015    25

DECAY 1000012  9.6490975
    0.53903834   2    1000037    11
    0.27719082   2    1000035    12
    0.12169623   2    1000025    12
    0.032109545   2    1000024    11
    0.024731697   2    1000022    12
    0.0052333674   2    1000023    12

DECAY 1000014  9.6587746
    0.53849366   2    1000037    13
    0.27691013   2    1000035    14
    0.12157372   2    1000025    14
    0.033087555   2    1000024    13
    0.024706818   2    1000022    14
    0.0052281027   2    1000023    14

DECAY 1000016  20.671802
    0.46483422   2    1000037    15
    0.23884118   2    1000035    16
    0.196689   2    1000024    15
    0.078181161   2    1000025    16
    0.015260959   2    1000022    16
    0.0032396853   2    1000023    16
    0.001555524   2    1000015    37
    0.0013982768   2    1000015    24

DECAY 2000001  144.38072
    0.98077255   2    1000021    1
    0.018352129   2    1000025    1
    0.00079542063   2    1000022    1

DECAY 1000001  206.93491
    0.68937536   2    1000021    1
    0.20437834   2   -1000037    2
    0.10132318   2    1000035    1
    0.0019616929   2    1000022    1
    0.0019496769   2    1000025    1
    0.00057765489   2    1000023    1
    0.00043410419   2   -1000024    2

DECAY 2000003  144.40296
    0.9806256   2    1000021    3
    0.018350113   2    1000025    3
    0.0008334201   2    1000022    3
    0.00011227398   2    1000023    3

DECAY 1000003  206.94797
    0.68933359   2    1000021    3
    0.20436584   2   -1000037    4
    0.10131691   2    1000035    3
    0.0019882247   2    1000022    3
    0.0019501079   2    1000025    3
    0.0006027587   2    1000023    3
    0.0004425744   2   -1000024    4

DECAY 1000005  15.717449
    0.47000744   2   -1000024    6
    0.25263959   2    1000022    5
    0.23254729   2    1000023    5
    0.044509799   2    1000025    5
    0.00016793627   2   -1000037    6

DECAY 2000005  77.688005
    0.40540318   2   -1000024    6
    0.27300308   2    1000006   -24
    0.13328807   2   -1000037    6
    0.0642254   2    1000022    5
    0.060887625   2    1000035    5
    0.059859149   2    1000023    5
    0.0029898071   2    1000025    5
    0.00018615261   2    1000005    25
    0.00015753005   2    1000005    23

DECAY 2000002  152.81507
    0.92732193   2    1000021    2
    0.069370922   2    1000025    2
    0.0030062771   2    1000022    2
    0.0002881449   2    1000023    2

DECAY 1000002  206.93137
    0.68915948   2    1000021    2
    0.19901097   2    1000037    1
    0.10034063   2    1000035    2
    0.0060032164   2    1000024    1
    0.0047768701   2    1000025    2
    0.000428875   2    1000022    2
    0.0002799647   2    1000023    2

DECAY 2000004  152.81872
    0.92730004   2    1000021    4
    0.069369645   2    1000025    4
    0.003011419   2    1000022    4
    0.00029419467   2    1000023    4

DECAY 1000004  206.94435
    0.68911766   2    1000021    4
    0.19899873   2    1000037    3
    0.10033449   2    1000035    4
    0.0060551317   2    1000024    3
    0.0047768639   2    1000025    4
    0.000432703   2    1000022    4
    0.00028442776   2    1000023    4

DECAY 1000006  42.741473
    0.48400178   2    1000024    5
    0.2478115   2    1000023    6
    0.22481309   2    1000022    6
    0.042906447   2    1000025    6
    0.00025901088   2    1000037    5
    0.0002013714   2    1000035    6

DECAY 2000006  79.898351
    0.2044213   2    1000023    6
    0.17134013   2    1000022    6
    0.14983103   2    1000006    25
    0.14047844   2    1000006    23
    0.12686654   2    1000037    5
    0.11991432   2    1000024    5
    0.06221473   2    1000035    6
    0.024561253   2    1000025    6
    0.00037225261   2    1000005    24

DECAY 1000024  3.9536585e-07
    0.34705492   3    1000022   -1    2
    0.32149034   3    1000022   -3    4
    0.11570005   3    1000022   -11    12
    0.11565966   3    1000022   -13    14
    0.10009503   3    1000022   -15    16

DECAY 1000037  6.387298
    0.25642721   2    1000023    24
    0.24913041   2    1000024    23
    0.2328295   2    1000024    25
    0.22103441   2    1000022    24
    0.032819348   2    1000025    24
    0.0026134888   3    1000023   -5    6
    0.0023951247   3    1000022   -5    6
    0.0011800343   3    1000024    6   -6
    0.0011299904   3    1000024    5   -5
    0.00015911994   3    1000025   -5    6
    0.00013644786   3    1000024    15   -15

DECAY 1000022 -1


DECAY 1000023  6.4635626e-06
    0.19896464   3    1000022    12   -12
    0.14876109   3    1000022    1   -1
    0.14871631   3    1000022    3   -3
    0.11602129   3    1000022    2   -2
    0.10903509   3    1000022    4   -4
    0.084351643   2    1000022    22
    0.081825086   3    1000022    5   -5
    0.033384448   3    1000022    11   -11
    0.033383337   3    1000022    13   -13
    0.029580118   3    1000022    15   -15
    0.0028228806   3    1000024    1   -2
    0.0028228806   3   -1000024   -1    2
    0.0025244924   3    1000024    3   -4
    0.0025244924   3   -1000024   -3    4
    0.00094101794   3    1000024    11   -12
    0.00094101794   3   -1000024   -11    12
    0.00094045949   3    1000024    13   -14
    0.00094045949   3   -1000024   -13    14
    0.00075961889   3    1000024    15   -16
    0.00075961889   3   -1000024   -15    16

DECAY 1000025  1.3539345
    0.17316257   2    1000024   -24
    0.17316257   2   -1000024    24
    0.14450774   2    1000023    23
    0.10316458   2    2000013   -13
    0.10316458   2   -2000013    13
    0.10308327   2    2000011   -11
    0.10308327   2   -2000011    11
    0.045033474   2    1000022    25
    0.041649069   2    1000023    25
    0.0099629377   2    1000022    23

DECAY 1000035  7.1517151
    0.23265871   2    1000024   -24
    0.23265871   2   -1000024    24
    0.17683033   2    1000023    23
    0.14419293   2    1000023    25
    0.13174787   2    1000022    25
    0.050105072   2    1000022    23
    0.020673333   2    1000025    25
    0.0033789034   2    1000025    23
    0.0027714779   3    1000024    5   -6
    0.0027714779   3   -1000024   -5    6
    0.00059882239   3    1000022    5   -5
    0.00049334514   3    1000023    5   -5
    0.00032934671   3    1000022    6   -6
    0.00031603678   3    1000023    6   -6

DECAY 1000021  236.04191
    0.16291278   2    1000006   -6
    0.16291278   2   -1000006    6
    0.13463212   2    1000005   -5
    0.13463212   2   -1000005    5
    0.10535163   2    2000005   -5
    0.10535163   2   -2000005    5
    0.097010381   2    2000006   -6
    0.097010381   2   -2000006    6

DECAY 25  0.0036955381
    0.66553175   2   -5    5
    0.14330871   2   -24    24
    0.075054086   2   -15    15
    0.06784004   2    21    21
    0.028856138   2   -4    4
    0.01579472   2    23    23
    0.0020950375   2    22    22
    0.0010111158   2    22    23
    0.00026106292   2   -13    13
    0.00024651029   2   -3    3
    6.8157189e-07   2   -1    1
    1.4871669e-07   2   -2    2
    5.8690527e-09   2   -11    11

DECAY 35  13.440768
    0.85471129   2   -5    5
    0.11096166   2   -15    15
    0.013294715   2    1000023    1000025
    0.0068421316   2   -1000024    1000024
    0.005011633   2    1000022    1000022
    0.0047148248   2    1000022    1000025
    0.0014816531   2   -6    6
    0.0010715106   2    1000022    1000023
    0.0010173561   2    1000023    1000023
    0.0003932309   2   -13    13
    0.00027964188   2   -3    3
    0.00010746229   2    21    21
    7.9728167e-05   2    25    25
    1.9450277e-05   2   -24    24
    9.8850039e-06   2    23    23
    1.3175568e-06   2   -1000011    1000011
    1.3087597e-06   2   -1000013    1000013
    7.7311772e-07   2   -1    1
    2.0164044e-07   2    22    22
    1.8832684e-07   2    22    23
    2.8159683e-08   2   -4    4
    8.8359811e-09   2   -11    11
    1.4521878e-13   2   -2    2

DECAY 36  13.27485
    0.85019451   2   -5    5
    0.11037001   2   -15    15
    0.012355296   2    1000022    1000025
    0.010195229   2   -1000024    1000024
    0.0077472056   2    1000022    1000022
    0.0045093834   2    1000023    1000025
    0.0019094958   2   -6    6
    0.0013488773   2    1000023    1000023
    0.00053883484   2    1000022    1000023
    0.00039109195   2   -13    13
    0.00027814413   2   -3    3
    0.00014357265   2    21    21
    1.6900676e-05   2    23    25
    7.6897693e-07   2   -1    1
    4.1945143e-07   2    22    22
    2.3461192e-07   2    22    23
    2.4780113e-08   2   -4    4
    8.7879189e-09   2   -11    11
    1.2777024e-13   2   -2    2
    2.4945055e-38   2    25    25

DECAY 37  11.225296
    0.84023367   2   -5    6
    0.1264852   2   -15    16
    0.029610082   2    1000024    1000025
    0.0014141872   2   -5    4
    0.0010794444   2    1000023    1000024
    0.00044717704   2   -13    14
    0.00037913209   2    1000022    1000024
    0.00030177315   2   -3    4
    2.1071449e-05   2    24    25
    1.3846531e-05   2   -3    2
    1.0098834e-05   2   -5    2
    3.2964655e-06   2   -3    6
    8.3719518e-07   2   -1    2
    1.3390257e-07   2   -1    6
    3.9725016e-08   2   -1    4
    1.0459518e-08   2   -11    12
    1.8583526e-09   2    24    35
    1.8431894e-09   2    24    36

DECAY 6  2.43
    1   2    5    24

DECAY 15 -1
