BLOCK SPINFO
   1   SPheno
   2   v4.0.5be

BLOCK SPHENOINFO
   1   2
   2   2

BLOCK MODSEL
   1   0

BLOCK MINPAR
   3    31.769012
   4   -1

BLOCK EXTPAR
   0    1289.0803
   1   -505.05989
   2    1198.1328
   3    3000
   11   -3353.3689
   12   -1469.2762
   13   -257.78599
   23   -1103.6734
   25    30.939693
   26    2903.4998
   31    906.0533
   32    906.0533
   33    1276.7622
   34    1122.0127
   35    1122.0127
   36    904.98567
   41    5000
   42    5000
   43    1849.1473
   44    5000
   45    5000
   46    1004.5282
   47    5000
   48    5000
   49    1860.3988

BLOCK SMINPUTS
   1    127.90897
   2    1.1663787e-05
   3    0.1184
   4    91.1876
   5    4.18
   6    173.2
   7    1.777
   8    0
   11    0.00051099893
   12    0
   13    0.10565837
   14    0
   21    0.005
   22    0.0025
   23    0.095
   24    1.27

BLOCK GAUGE Q=  1289.0803
   1    0.35536298
   2    0.66519887
   3    1.219778

BLOCK YU Q=  1289.0803
   1   1    8.3887503e-06
   2   2    0.0042614852
   3   3    1.0134284

BLOCK YD Q=  1289.0803
   1   1    0.00052154708
   2   2    0.0099093945
   3   3    0.51721127

BLOCK YE Q=  1289.0803
   1   1    9.1013779e-05
   2   2    0.018818763
   3   3    0.31650063

BLOCK AU Q=  1289.0803
   1   1    0
   2   2    0
   3   3   -3353.3688

BLOCK AD Q=  1289.0803
   1   1    0
   2   2    0
   3   3   -1469.2762

BLOCK AE Q=  1289.0803
   1   1    0
   2   2    0
   3   3   -257.78599

BLOCK MSOFT Q=  1289.0803
   1   -505.05989
   2    1198.1328
   3    3000
   21    7241245.2
   22   -1217625.6
   31    906.0533
   32    906.0533
   33    1276.7622
   34    1122.0127
   35    1122.0127
   36    904.98567
   41    5000
   42    5000
   43    1849.1473
   44    5000
   45    5000
   46    1004.5282
   47    5000
   48    5000
   49    1860.3988

BLOCK MASS
   6    173.2
   23    91.1876
   24    80.429995
   15    1.777
   25    123.14077
   35    2903.1199
   36    2903.4998
   37    2904.224
   1000001    5018.6368
   2000001    5009.8192
   1000002    5018.2006
   2000002    5011.6488
   1000003    5018.643
   2000003    5009.8225
   1000004    5018.2042
   2000004    5011.6498
   1000005    1818.8319
   2000005    1877.6729
   1000006    895.36273
   2000006    1855.9273
   1000011    920.6635
   2000011    1122.8806
   1000012    916.91525
   1000013    920.65139
   2000013    1122.894
   1000014    916.91841
   1000015    905.82846
   2000015    1289.2435
   1000016    1284.8862
   1000021    3176.3506
   1000022   -503.85222
   1000023    1089.4498
   1000025   -1112.4398
   1000035    1260.609
   1000024    1090.9565
   1000037    1260.9971

BLOCK ALPHA
      -0.031541562

BLOCK HMIX Q=  1289.0803
   1   -1103.6734
   2    30.939693
   3    244.15408
   4    8430311

BLOCK STOPMIX
   1   1    0.18394383
   1   2    0.98293676
   2   1   -0.98293676
   2   2    0.18394383

BLOCK SBOTMIX
   1   1   -0.9207146
   1   2    0.39023663
   2   1   -0.39023663
   2   2   -0.9207146

BLOCK STAUMIX
   1   1   -0.067858571
   1   2    0.99769495
   2   1   -0.99769495
   2   2   -0.067858571

BLOCK NMIX
   1   1    0.99837093
   1   2    0.0011503753
   1   3   -0.0515425
   1   4    0.024444719
   2   1   -0.018090612
   2   2   -0.34516372
   2   3   -0.66979924
   2   4   -0.65719382
   3   1   -0.053723874
   3   2    0.024465244
   3   3   -0.70479881
   3   4    0.70694684
   4   1    0.006478585
   4   2   -0.93822286
   4   3    0.22797145
   4   4    0.2602401

BLOCK UMIX
   1   1   -0.31735244
   1   2   -0.94830766
   2   1    0.94830766
   2   2   -0.31735244

BLOCK VMIX
   1   1   -0.3633353
   1   2    0.93165845
   2   1    0.93165845
   2   2    0.3633353

BLOCK HIGGSBOUNDSINPUTHIGGSCOUPLINGSFERMIONS
       0, 957.26461,3,36,15,15

BLOCK HIGGSBOUNDSINPUTHIGGSCOUPLINGSBOSONS
       0,4,36,21,21,23

BLOCK SPHENOLOWENERGY
   1    0.0003710463
   2    1.588822e-06
   3    3.527751e-05
   4    2.4505411e-15
   5    1.0468404e-10
   6    2.1894781e-08
   7    8.2529548e-14
   8    3.5256502e-09
   9    7.4717022e-07
   10    9.5738852e-05
   11    0.98894569
   12    0.54396046
   13    19.430055
   14    0
   15    0
   16    0.0021703797
   17    2.281792e-15
   18    2.4808374e-11
   19    8.2927716e-11
   20   -3.6538947e-15
   21   -1.5619972e-10
   22   -4.4217881e-08
   23    0
   24    0
   25    0
   26    0
   27    0
   28    0
   29    0
   30    0
   31    0
   39    7.4345264e-05
   40    0
   41    0
   42    0

BLOCK FWCOEF Q=  160
   305   4422   0   0   -0.18881911
   305   4422   0   2   -0.24565594
   305   4322   0   2   -0.00048384583
   305   6421   0   0   -0.095227835
   305   6421   0   2   -0.13150348
   305   6321   0   2   -0.00032593024
   3051111   4133   0   0    1.586661
   3051111   4133   0   2    1.5880063
   3051111   4233   0   2    0.00011470411
   3051111   4137   0   0   -4.4093531
   3051111   4137   0   2   -4.4101259
   3051111   4237   0   2   -0.0008999715
   3051313   4133   0   0    1.586661
   3051313   4133   0   2    1.5880027
   3051313   4233   0   2    0.00011470373
   3051313   4137   0   0   -4.4093531
   3051313   4137   0   2   -4.4101295
   3051313   4237   0   2   -0.00089997219
   3051212   4137   0   0    1.5053501
   3051212   4137   0   2    1.505528
   3051212   4237   0   2    0.00019636967
   3051414   4137   0   0    1.5053501
   3051414   4137   0   2    1.505528
   3051414   4237   0   2    0.0001963697
   3051616   4137   0   0    1.5053501
   3051616   4137   0   2    1.505528
   3051616   4237   0   2    0.00019637774

BLOCK IMFWCOEF Q=  160
   305   4422   0   0    3.8567206e-07
   305   4422   0   2   -1.5792516e-05
   305   4322   0   2   -6.3952052e-06
   305   6421   0   0    3.3035363e-07
   305   6421   0   2    3.9496767e-06
   305   6321   0   2   -2.8686283e-06
   3051111   4133   0   2   -5.7521351e-07
   3051111   4233   0   2    2.493915e-06
   3051111   4137   0   2    4.6013025e-06
   3051111   4237   0   2   -1.9573787e-05
   3051313   4133   0   2   -5.752642e-07
   3051313   4233   0   2    2.4939106e-06
   3051313   4137   0   2    4.6012661e-06
   3051313   4237   0   2   -1.9573802e-05
   3051212   4137   0   2   -8.5693224e-07
   3051212   4237   0   2    4.2709295e-06
   3051414   4137   0   2   -8.5693247e-07
   3051414   4237   0   2    4.2709295e-06
   3051616   4137   0   2   -8.560264e-07
   3051616   4237   0   2    4.2709314e-06

DECAY 23  2.4952


DECAY 24  2.085


DECAY 1000011  0.56808121
    1   2    1000022    11

DECAY 2000011  3.5870933
    0.99999667   2    1000022    11

DECAY 1000013  0.56806861
    1   2    1000022    13

DECAY 2000013  3.5882203
    0.99971055   2    1000022    13
    0.00027613486   2    1000013    25

DECAY 1000015  2.1632002
    1   2    1000022    15

DECAY 2000015  2.3383667
    0.5023573   2    1000022    15
    0.18585863   2    1000015    25
    0.16955959   2    1000015    23
    0.061569004   2    1000023    15
    0.036125532   2    1000025    15
    0.032008987   2   -1000024    16
    0.0083378389   2   -1000037    16
    0.0041831173   2    1000035    15

DECAY 1000012  0.5569856
    1   2    1000022    12

DECAY 1000014  0.55699084
    1   2    1000022    14

DECAY 1000016  2.3044942
    0.49775632   2    1000022    16
    0.34181541   2    1000015    24
    0.12934218   2    1000024    15
    0.021822866   2    1000023    16
    0.0057790568   2    1000037    15
    0.0030491926   2    1000035    16
    0.00043496888   2    1000025    16

DECAY 2000001  144.15737
    0.98099295   2    1000021    1
    0.018949624   2    1000022    1

DECAY 1000001  201.40033
    0.70673038   2    1000021    1
    0.17314626   2   -1000037    2
    0.084957175   2    1000035    1
    0.02005378   2   -1000024    2
    0.011644184   2    1000023    1
    0.0033533092   2    1000022    1
    0.00011491381   2    1000025    1

DECAY 2000003  144.17537
    0.98087287   2    1000021    3
    0.018947449   2    1000022    3

DECAY 1000003  201.41155
    0.70669421   2    1000021    3
    0.17313803   2   -1000037    4
    0.08495477   2    1000035    3
    0.020059685   2   -1000024    4
    0.011663346   2    1000023    3
    0.0033532535   2    1000022    3
    0.00013670719   2    1000025    3

DECAY 1000005  72.199838
    0.69844317   2    1000006   -24
    0.15373481   2   -1000024    6
    0.059575484   2   -1000037    6
    0.037507878   2    1000023    5
    0.0249261   2    1000025    5
    0.019131403   2    1000035    5
    0.0066811481   2    1000022    5

DECAY 2000005  22.900846
    0.46213002   2    1000006   -24
    0.21789548   2   -1000024    6
    0.095570217   2    1000025    5
    0.094922897   2   -1000037    6
    0.060571612   2    1000023    5
    0.039867206   2    1000035    5
    0.029042561   2    1000022    5

DECAY 2000002  152.57188
    0.92813879   2    1000021    2
    0.071645346   2    1000022    2
    0.00019137104   2    1000025    2

DECAY 1000002  201.39418
    0.70652631   2    1000021    2
    0.16710652   2    1000037    1
    0.084533585   2    1000035    2
    0.026284371   2    1000024    1
    0.012086173   2    1000023    2
    0.0034410292   2    1000022    2

DECAY 2000004  152.5752
    0.9281189   2    1000021    4
    0.071643802   2    1000022    4
    0.00019671934   2    1000025    4

DECAY 1000004  201.40503
    0.7064898   2    1000021    4
    0.16710193   2    1000037    3
    0.084529694   2    1000035    4
    0.026322643   2    1000024    3
    0.012089008   2    1000023    4
    0.0034408507   2    1000022    4

DECAY 1000006  0.80821573
    0.99890906   2    1000022    6
    0.0010382197   2    1000022    4

DECAY 2000006  98.903026
    0.4055241   2    1000006    25
    0.31977289   2    1000006    23
    0.078936359   2    1000025    6
    0.065077337   2    1000023    6
    0.052250705   2    1000037    5
    0.037858404   2    1000024    5
    0.036580762   2    1000035    6
    0.0039994405   2    1000022    6

DECAY 1000024  4.2261427
    0.77950363   2    1000006   -5
    0.14954448   2    1000022    24
    0.024387795   2   -1000015    16
    0.012999691   2    1000014   -13
    0.012930885   2    1000012   -11
    0.0094811805   2   -1000013    14
    0.0094799468   2   -1000011    12
    0.0016658005   3    1000022   -5    6

DECAY 1000037  8.1865834
    0.14024921   2    1000025    24
    0.13294343   2   -1000013    14
    0.13293544   2   -1000011    12
    0.13071113   2    1000014   -13
    0.13070012   2    1000012   -11
    0.10299633   2    1000023    24
    0.082291326   2    1000024    23
    0.070269044   2    1000006   -5
    0.056582628   2    1000024    25
    0.018703527   2    1000022    24
    0.0011826777   2   -1000015    16
    0.00032824748   3    1000022   -5    6
    0.00010126562   3    1000022   -15    16

DECAY 1000022 -1


DECAY 1000023  3.3684962
    0.30920132   2    1000006   -6
    0.30920132   2   -1000006    6
    0.16732719   2    1000022    23
    0.12596825   2    1000022    25
    0.015221231   2    1000015   -15
    0.015221231   2   -1000015    15
    0.0073646132   2    1000013   -13
    0.0073646132   2   -1000013    13
    0.0073226316   2    1000011   -11
    0.0073226316   2   -1000011    11
    0.0068150811   2    1000012   -12
    0.0068150811   2   -1000012    12
    0.006814853   2    1000014   -14
    0.006814853   2   -1000014    14
    0.0004217102   3    1000022    6   -6
    0.00038882597   2    1000006   -4
    0.00038882597   2   -1000006    4

DECAY 1000025  4.4860153
    0.40924188   2    1000006   -6
    0.40924188   2   -1000006    6
    0.13279463   2    1000022    25
    0.019554631   2    1000022    23
    0.013941772   2    1000015   -15
    0.013941772   2   -1000015    15
    0.00052887569   3    1000022    6   -6
    0.00015858555   2    1000012   -12
    0.00015858555   2   -1000012    12
    0.00015858092   2    1000014   -14
    0.00015858092   2   -1000014    14

DECAY 1000035  8.9552647
    0.13534244   2    1000025    23
    0.082274882   2    1000024   -24
    0.082274882   2   -1000024    24
    0.060930257   2    1000012   -12
    0.060930257   2   -1000012    12
    0.060929313   2    1000014   -14
    0.060929313   2   -1000014    14
    0.060916257   2    1000025    25
    0.058947366   2    1000013   -13
    0.058947366   2   -1000013    13
    0.0589378   2    1000011   -11
    0.0589378   2   -1000011    11
    0.049763477   2    1000023    25
    0.040142187   2    1000006   -6
    0.040142187   2   -1000006    6
    0.015068002   2    1000022    23
    0.012650686   2    1000022    25
    0.00058259043   2    1000015   -15
    0.00058259043   2   -1000015    15
    0.00054904157   2    1000023    23
    0.00010051285   3    1000022    6   -6

DECAY 1000021  203.07978
    0.18767607   2    1000006   -6
    0.18767607   2   -1000006    6
    0.10588666   2    2000006   -6
    0.10588666   2   -2000006    6
    0.10486327   2    1000005   -5
    0.10486327   2   -1000005    5
    0.097683531   2    2000005   -5
    0.097683531   2   -2000005    5
    0.0027937303   2    1000006   -4
    0.0027937303   2   -1000006    4
    0.00054292604   3    1000024    5   -6
    0.00054292604   3   -1000024   -5    6
    0.00042818987   3    1000023    6   -6
    0.00041654098   3    1000025    6   -6

DECAY 25  0.0036427734
    0.60181784   2   -5    5
    0.19938005   2   -24    24
    0.072628039   2    21    21
    0.069019162   2   -15    15
    0.029737869   2   -4    4
    0.023251135   2    23    23
    0.0023550188   2    22    22
    0.0013447006   2    22    23
    0.00023933733   2   -13    13
    0.00022606988   2   -3    3
    6.2506158e-07   2   -1    1
    1.5325197e-07   2   -2    2
    5.3805912e-09   2   -11    11

DECAY 35  62.959985
    0.53260463   2   -5    5
    0.080992088   2   -15    15
    0.06296611   2   -1000024    1000037
    0.06296611   2   -1000037    1000024
    0.04866292   2   -2000006    1000006
    0.04866292   2   -1000006    2000006
    0.045733257   2    1000025    1000035
    0.021247904   2    1000022    1000023
    0.019469367   2   -1000024    1000024
    0.019406793   2   -1000006    1000006
    0.013886115   2    1000022    1000025
    0.010444613   2    1000023    1000035
    0.0083760445   2    1000023    1000023
    0.0078340771   2   -1000037    1000037
    0.007233379   2    1000023    1000025
    0.0040095577   2    1000035    1000035
    0.0024196065   2   -6    6
    0.0016175244   2    1000022    1000035
    0.00030185182   2   -2000015    1000015
    0.00030185182   2   -1000015    2000015
    0.00026915661   2   -13    13
    0.00021272599   2    1000022    1000022
    0.00020604751   2   -3    3
    0.00013536547   2    1000025    1000025
    1.276965e-05   2    21    21
    1.0684159e-05   2    25    25
    8.1786138e-06   2   -1000015    1000015
    5.4383234e-06   2   -2000015    2000015
    5.6975111e-07   2   -1    1
    4.4453702e-07   2    23    23
    2.8764513e-07   2    22    23
    1.4018363e-07   2   -24    24
    1.1386242e-07   2   -1000011    1000011
    1.1176053e-07   2   -1000013    1000013
    9.6899607e-08   2    22    22
    6.046905e-08   2   -2000013    2000013
    5.9815473e-08   2   -2000011    2000011
    1.7007883e-08   2   -2000013    1000013
    1.7007883e-08   2   -1000013    2000013
    1.4784682e-08   2   -4    4
    6.0451794e-09   2   -11    11
    3.9792993e-13   2   -2000011    1000011
    3.9792993e-13   2   -1000011    2000011
    7.6220359e-14   2   -2    2

DECAY 36  61.082314
    0.52781917   2   -5    5
    0.080290611   2   -15    15
    0.057085936   2   -2000006    1000006
    0.057085936   2   -1000006    2000006
    0.046594715   2   -1000024    1000037
    0.046594715   2   -1000037    1000024
    0.040260851   2   -1000024    1000024
    0.025760707   2    1000023    1000035
    0.024291236   2   -1000037    1000037
    0.02246945   2    1000022    1000025
    0.018923785   2    1000025    1000035
    0.017069171   2    1000023    1000023
    0.014310542   2    1000022    1000023
    0.012465243   2    1000035    1000035
    0.0037952906   2    1000023    1000025
    0.0025067032   2   -6    6
    0.00091105267   2    1000022    1000035
    0.00037835841   2    1000025    1000025
    0.00031836027   2   -2000015    1000015
    0.00031836027   2   -1000015    2000015
    0.00026682301   2   -13    13
    0.00026495039   2    1000022    1000022
    0.00020426067   2   -3    3
    1.2299846e-05   2    21    21
    7.2840746e-07   2    23    25
    5.6481019e-07   2   -1    1
    1.0821101e-07   2    22    23
    1.7310031e-08   2   -2000013    1000013
    1.7310031e-08   2   -1000013    2000013
    1.6353491e-08   2    22    22
    1.5010801e-08   2   -4    4
    5.992761e-09   2   -11    11
    4.0488311e-13   2   -2000011    1000011
    4.0488311e-13   2   -1000011    2000011
    7.7382208e-14   2   -2    2
    3.5668018e-36   2    25    25

DECAY 37  55.704847
    0.52831258   2   -5    6
    0.10523004   2   -15    16
    0.088500207   2    1000023    1000037
    0.083802953   2    1000024    1000035
    0.070252463   2    1000025    1000037
    0.058693546   2   -1000005    1000006
    0.039798064   2    1000022    1000024
    0.014935906   2    1000024    1000025
    0.0054159955   2   -2000005    1000006
    0.002894095   2    1000022    1000037
    0.00078065454   2   -5    4
    0.00069423509   2   -1000015    1000016
    0.00037202576   2   -13    14
    0.00021546541   2   -3    4
    7.4870561e-05   2    1000023    1000024
    1.0086974e-05   2   -3    2
    5.5746791e-06   2   -5    2
    4.4904393e-06   2   -2000015    1000016
    3.2258932e-06   2   -3    6
    9.0755287e-07   2    1000035    1000037
    7.998559e-07   2    24    25
    5.9818214e-07   2   -1    2
    5.0542036e-07   2   -1000011    1000012
    5.0205507e-07   2   -1000013    1000014
    1.3333626e-07   2   -1    6
    4.0293389e-08   2   -2000013    1000014
    2.9144335e-08   2   -1    4
    8.7017213e-09   2   -11    12
    9.4259164e-13   2   -2000011    1000012
    4.0100406e-14   2    24    35

DECAY 6  2.43
    1   2    5    24

DECAY 15 -1
