BLOCK SPINFO
   1   SPheno
   2   v4.0.5be

BLOCK SPHENOINFO
   1   2
   2   2

BLOCK MODSEL
   1   0

BLOCK MINPAR
   3    36.114102
   4   -1

BLOCK EXTPAR
   0    1779.6321
   1    843.14284
   2    2678.963
   3    3888.5858
   11   -3506.219
   12   -201.08941
   13   -3048.3787
   23   -1306.265
   25    35.425117
   26    2635.3573
   31    2618.4913
   32    2618.4913
   33    3764.7216
   34    3021.6821
   35    3021.6821
   36    3770.8464
   41    1260.2911
   42    1260.2911
   43    1462.6981
   44    3739.6952
   45    3739.6952
   46    2305.9349
   47    3671.084
   48    3671.084
   49    1349.125

BLOCK SMINPUTS
   1    127.90897
   2    1.1663787e-05
   3    0.1184
   4    91.1876
   5    4.18
   6    173.2
   7    1.777
   8    0
   11    0.00051099893
   12    0
   13    0.10565837
   14    0
   21    0.005
   22    0.0025
   23    0.095
   24    1.27

BLOCK GAUGE Q=  1779.6321
   1    0.35536298
   2    0.66519887
   3    1.219778

BLOCK YU Q=  1779.6321
   1   1    8.387712e-06
   2   2    0.0042609577
   3   3    1.013303

BLOCK YD Q=  1779.6321
   1   1    0.00059708347
   2   2    0.011344586
   3   3    0.5921197

BLOCK YE Q=  1779.6321
   1   1    0.00010419543
   2   2    0.021544311
   3   3    0.36233986

BLOCK AU Q=  1779.6321
   1   1    0
   2   2    0
   3   3   -3506.2189

BLOCK AD Q=  1779.6321
   1   1    0
   2   2    0
   3   3   -201.08941

BLOCK AE Q=  1779.6321
   1   1    0
   2   2    0
   3   3   -3048.3787

BLOCK MSOFT Q=  1779.6321
   1    843.14284
   2    2678.963
   3    3888.5858
   21    5229671.2
   22   -1662232.9
   31    2618.4913
   32    2618.4913
   33    3764.7216
   34    3021.6821
   35    3021.6821
   36    3770.8464
   41    1260.2911
   42    1260.2911
   43    1462.6981
   44    3739.6952
   45    3739.6952
   46    2305.9349
   47    3671.084
   48    3671.084
   49    1349.125

BLOCK MASS
   6    173.2
   23    91.1876
   24    80.429995
   15    1.777
   25    122.74146
   35    2635.065
   36    2635.3573
   37    2636.9312
   1000001    1214.8295
   2000001    3711.9676
   1000002    1212.2551
   2000002    3783.0744
   1000003    1214.8321
   2000003    3711.9643
   1000004    1212.258
   2000004    3783.0741
   1000005    1271.3418
   2000005    1431.9094
   1000006    1396.0317
   2000006    2268.638
   1000011    2633.2991
   2000011    3022.7141
   1000012    2631.7115
   1000013    2633.2918
   2000013    3022.7017
   1000014    2631.7053
   1000015    3763.6708
   2000015    3783.5238
   1000016    3772.8208
   1000021    3823.8783
   1000022    843.9685
   1000023    1313.0113
   1000025   -1315.15
   1000035    2655.1796
   1000024    1312.4735
   1000037    2655.2649

BLOCK ALPHA
      -0.027780467

BLOCK HMIX Q=  1779.6321
   1   -1306.265
   2    35.425117
   3    243.78772
   4    6945107.8

BLOCK STOPMIX
   1   1    0.98840374
   1   2    0.15184876
   2   1   -0.15184876
   2   2    0.98840374

BLOCK SBOTMIX
   1   1   -0.30927186
   1   2    0.95097367
   2   1   -0.95097367
   2   2   -0.30927186

BLOCK STAUMIX
   1   1   -0.69348276
   1   2    0.72047322
   2   1   -0.72047322
   2   2   -0.69348276

BLOCK NMIX
   1   1    0.99772798
   1   2   -0.0015148382
   1   3   -0.056968824
   1   4   -0.035932487
   2   1   -0.065708289
   2   2   -0.040470885
   2   3   -0.70511443
   2   4   -0.70488167
   3   1   -0.014847003
   3   2    0.014457373
   3   3   -0.70656119
   3   4    0.70734846
   4   1   -0.00093409161
   4   2    0.99907497
   4   3   -0.018424929
   4   4   -0.038843949

BLOCK UMIX
   1   1   -0.026465007
   1   2   -0.99964974
   2   1    0.99964974
   2   2   -0.026465007

BLOCK VMIX
   1   1   -0.055491302
   1   2    0.99845917
   2   1    0.99845917
   2   2    0.055491302

BLOCK HIGGSBOUNDSINPUTHIGGSCOUPLINGSFERMIONS
       0, 1254.9389,3,36,15,15

BLOCK HIGGSBOUNDSINPUTHIGGSCOUPLINGSBOSONS
       0,4,36,21,21,23

BLOCK SPHENOLOWENERGY
   1    0.00035083786
   2    1.5890327e-06
   3    3.5277738e-05
   4    2.2407042e-15
   5    9.5719363e-11
   6    1.998026e-08
   7    7.5894972e-14
   8    3.2422e-09
   9    6.8585552e-07
   10    9.5229571e-05
   11    0.98368501
   12    0.54258328
   13    19.376427
   14    0
   15    0
   16    0.0021611884
   17    2.2816989e-15
   18    2.4813854e-11
   19    8.2943068e-11
   20   -1.8173128e-15
   21   -7.7695774e-11
   22   -1.5640286e-08
   23    0
   24    0
   25    0
   26    0
   27    0
   28    0
   29    0
   30    0
   31    0
   39    6.7585998e-05
   40    0
   41    0
   42    0

BLOCK FWCOEF Q=  160
   305   4422   0   0   -0.18881911
   305   4422   0   2   -0.22341562
   305   4322   0   2   -0.00071127144
   305   6421   0   0   -0.095227835
   305   6421   0   2   -0.11848406
   305   6321   0   2   -0.0004779585
   3051111   4133   0   0    1.5982773
   3051111   4133   0   2    1.5991463
   3051111   4233   0   2    0.00018454229
   3051111   4137   0   0   -4.4209694
   3051111   4137   0   2   -4.4218241
   3051111   4237   0   2   -0.0014232282
   3051313   4133   0   0    1.5982773
   3051313   4133   0   2    1.5991454
   3051313   4233   0   2    0.00018454172
   3051313   4137   0   0   -4.4209694
   3051313   4137   0   2   -4.421825
   3051313   4237   0   2   -0.0014232287
   3051212   4137   0   0    1.5053501
   3051212   4137   0   2    1.5055373
   3051212   4237   0   2    0.00030973226
   3051414   4137   0   0    1.5053501
   3051414   4137   0   2    1.5055373
   3051414   4237   0   2    0.00030973232
   3051616   4137   0   0    1.5053501
   3051616   4137   0   2    1.5055375
   3051616   4237   0   2    0.00030975165

BLOCK IMFWCOEF Q=  160
   305   4422   0   0    3.8569901e-07
   305   4422   0   2   -1.7355379e-05
   305   4322   0   2   -1.0055926e-05
   305   6421   0   0    3.3037671e-07
   305   6421   0   2   -5.088389e-07
   305   6321   0   2   -5.0565877e-06
   3051111   4133   0   2    1.2596191e-06
   3051111   4233   0   2    3.9911895e-06
   3051111   4137   0   2   -7.9820882e-06
   3051111   4237   0   2   -3.0787179e-05
   3051313   4133   0   2    1.2595996e-06
   3051313   4233   0   2    3.9911852e-06
   3051313   4137   0   2   -7.9821042e-06
   3051313   4237   0   2   -3.0787194e-05
   3051212   4137   0   2    1.7571415e-06
   3051212   4237   0   2    6.7001119e-06
   3051414   4137   0   2    1.7571412e-06
   3051414   4237   0   2    6.7001119e-06
   3051616   4137   0   2    1.7616201e-06
   3051616   4237   0   2    6.7001127e-06

DECAY 23  2.4952


DECAY 24  2.085


DECAY 1000011  2.6828725
    0.9825474   2    1000022    11
    0.013930428   2    1000023    11
    0.0034184689   2   -1000024    12
    0.00010370547   2    1000025    11

DECAY 2000011  12.899051
    0.99648303   2    1000022    11
    0.0033462837   2    1000023    11
    0.00017060088   2    1000025    11

DECAY 1000013  2.6965897
    0.97756864   2    1000022    13
    0.016391187   2    1000023    13
    0.0034010577   2   -1000024    14
    0.0026391191   2    1000025    13

DECAY 2000013  12.936312
    0.99361341   2    1000022    13
    0.0040426004   2    1000023    13
    0.0014197639   2   -1000024    14
    0.00087800425   2    1000025    13

DECAY 1000015  28.882232
    0.38850513   2    1000022    15
    0.14926739   2   -1000024    16
    0.13494182   2   -1000037    16
    0.13422385   2    1000023    15
    0.12568823   2    1000025    15
    0.06737358   2    1000035    15

DECAY 2000015  28.071654
    0.3598415   2    1000022    15
    0.16293209   2   -1000037    16
    0.14144097   2    1000025    15
    0.1364722   2    1000023    15
    0.11802902   2   -1000024    16
    0.081284199   2    1000035    15

DECAY 1000012  2.7075663
    0.98385185   2    1000022    12
    0.014871452   2    1000024    11
    0.0012071541   2    1000025    12

DECAY 1000014  2.7212657
    0.97889552   2    1000022    14
    0.019834212   2    1000024    13
    0.0012010703   2    1000025    14

DECAY 1000016  24.637585
    0.3423515   2    1000037    15
    0.31203688   2    1000024    15
    0.17378499   2    1000022    16
    0.17155089   2    1000035    16
    0.00026074172   2    1000025    16

DECAY 1000001  0.045952029
    1   2    1000022    1

DECAY 2000001  1.8624242
    0.99611258   2    1000022    1
    0.0036826304   2    1000023    1
    0.00019296155   2    1000025    1

DECAY 1000003  0.04595553
    1   2    1000022    3

DECAY 2000003  1.877451
    0.98815381   2    1000022    3
    0.0055740028   2    1000023    3
    0.0038728989   2   -1000024    4
    0.0021185654   2    1000025    3
    0.00027923566   2    1000003    25

DECAY 1000005  0.25498366
    1   2    1000022    5

DECAY 2000005  1.1192634
    0.40767362   2    1000005    23
    0.31750214   2    1000005    25
    0.10995656   2    1000023    5
    0.10817532   2    1000025    5
    0.056692353   2    1000022    5

DECAY 1000002  0.043966223
    1   2    1000022    2

DECAY 2000002  7.6232837
    0.99610946   2    1000022    2
    0.0037014777   2    1000023    2
    0.00018881   2    1000025    2

DECAY 1000004  0.043966949
    1   2    1000022    4

DECAY 2000004  7.6253922
    0.99583369   2    1000022    4
    0.0037696255   2    1000023    4
    0.00025798727   2    1000025    4
    0.00013822777   2    1000024    3

DECAY 1000006  0.70040363
    0.54697748   2    1000005    24
    0.24432587   2    1000022    6
    0.20801992   2    1000024    5
    0.00067465625   3    1000022    24    5

DECAY 2000006  136.55871
    0.26032044   2    2000005    24
    0.22149214   2    1000006    25
    0.15446009   2    1000006    23
    0.14575063   2    1000024    5
    0.076089405   2    1000023    6
    0.075357598   2    1000025    6
    0.040977265   2    1000005    24
    0.02555244   2    1000022    6

DECAY 1000024  0.68733032
    0.98732696   2    1000022    24
    0.0084160028   3    1000022   -5    6
    0.0018321798   2    1000004   -3
    0.0016756157   2    1000002   -1
    0.00038592442   2   -1000003    4
    0.00036244044   2   -1000001    2

DECAY 1000037  143.90142
    0.15221665   2   -1000001    2
    0.15221617   2   -1000003    4
    0.1521949   2    1000002   -1
    0.15219455   2    1000004   -3
    0.12112434   2    1000006   -5
    0.1092368   2   -2000005    6
    0.036044954   2    1000024    25
    0.036023046   2    1000025    24
    0.035826694   2    1000024    23
    0.034443393   2    1000023    24
    0.011596956   2   -1000005    6
    0.0024529554   3    1000024    6   -6
    0.0017805635   3    1000025   -5    6
    0.00153692   3    1000023   -5    6
    0.00098291701   2    2000006   -5

DECAY 1000022 -1


DECAY 1000023  0.67960468
    0.86801005   2    1000022    25
    0.053078169   2    1000022    23
    0.037017202   2    1000005   -5
    0.037017202   2   -1000005    5
    0.00077940276   3    1000022    6   -6
    0.00076989991   2    1000004   -4
    0.00076989991   2   -1000004    4
    0.00075624487   2    1000002   -2
    0.00075624487   2   -1000002    2
    0.00029499476   2    1000003   -3
    0.00029499476   2   -1000003    3
    0.00021902385   2    1000001   -1
    0.00021902385   2   -1000001    1

DECAY 1000025  1.437762
    0.49676936   2    1000022    23
    0.46448367   2    1000022    25
    0.018977179   2    1000005   -5
    0.018977179   2   -1000005    5
    0.00045584764   3    1000022    6   -6

DECAY 1000035  148.99428
    0.073557648   2    1000002   -2
    0.073557648   2   -1000002    2
    0.073557394   2    1000004   -4
    0.073557394   2   -1000004    4
    0.073441906   2    1000001   -1
    0.073441906   2   -1000001    1
    0.073441762   2    1000003   -3
    0.073441762   2   -1000003    3
    0.056890677   2    1000006   -6
    0.056890677   2   -1000006    6
    0.054280843   2    2000005   -5
    0.054280843   2   -2000005    5
    0.035458027   2    1000024   -24
    0.035458027   2   -1000024    24
    0.034640105   2    1000025    25
    0.030834684   2    1000023    25
    0.030307751   2    1000025    23
    0.0057605635   2    1000005   -5
    0.0057605635   2   -1000005    5
    0.0038385741   2    1000023    23
    0.0020266155   3    1000024    5   -6
    0.0020266155   3   -1000024   -5    6
    0.0013522284   3    1000025    6   -6
    0.0012460962   3    1000023    6   -6
    0.00040574629   2    2000006   -6
    0.00040574629   2   -2000006    6

DECAY 1000021  673.52719
    0.067984496   2    1000002   -2
    0.067984496   2   -1000002    2
    0.06798442   2    1000004   -4
    0.06798442   2   -1000004    4
    0.067919915   2    1000001   -1
    0.067919915   2   -1000001    1
    0.067919851   2    1000003   -3
    0.067919851   2   -1000003    3
    0.066571988   2    1000005   -5
    0.066571988   2   -1000005    5
    0.062019864   2    2000005   -5
    0.062019864   2   -2000005    5
    0.061098674   2    1000006   -6
    0.061098674   2   -1000006    6
    0.036632539   2    2000006   -6
    0.036632539   2   -2000006    6
    0.00068188053   3    1000024    5   -6
    0.00068188053   3   -1000024   -5    6
    0.00038310669   3    1000025    6   -6
    0.00037800351   3    1000023    6   -6
    0.00027952861   2    2000003   -3
    0.00027952861   2   -2000003    3
    0.00027951271   2    2000001   -1
    0.00027951271   2   -2000001    1
    0.00013723365   3    1000023    5   -5
    0.0001344298   3    1000025    5   -5

DECAY 25  0.0036057039
    0.60765066   2   -5    5
    0.19280291   2   -24    24
    0.073401679   2    21    21
    0.069734906   2   -15    15
    0.029985073   2   -4    4
    0.022302853   2    23    23
    0.0023416453   2    22    22
    0.0013089964   2    22    23
    0.00024183309   2   -13    13
    0.00022865343   2   -3    3
    6.3220683e-07   2   -1    1
    1.5452758e-07   2   -2    2
    5.4367062e-09   2   -11    11

DECAY 35  58.391366
    0.86989161   2   -5    5
    0.10858445   2   -15    15
    0.013700588   2    1000022    1000025
    0.0053397258   2    1000022    1000023
    0.0016380976   2   -6    6
    0.00036523356   2   -13    13
    0.00030268567   2   -3    3
    0.00015311763   2    1000022    1000022
    9.3517953e-06   2    25    25
    5.8076847e-06   2    21    21
    3.4816222e-06   2    1000023    1000025
    2.9936743e-06   2   -1000024    1000024
    8.3713693e-07   2   -1    1
    6.46484e-07   2    23    23
    2.7390922e-07   2   -1000001    1000001
    2.7364912e-07   2   -1000003    1000003
    2.3237844e-07   2   -24    24
    1.9077553e-07   2   -1000002    1000002
    1.9065448e-07   2   -1000004    1000004
    1.6205308e-07   2    1000025    1000025
    1.8058107e-08   2   -4    4
    1.6079876e-08   2    1000023    1000023
    8.2032976e-09   2   -11    11
    7.5269936e-09   2    22    23
    4.1965658e-09   2    22    22
    9.3095403e-14   2   -2    2

DECAY 36  55.535691
    0.86861365   2   -5    5
    0.10843208   2   -15    15
    0.01450737   2    1000022    1000023
    0.0055697016   2    1000022    1000025
    0.001763315   2   -6    6
    0.00036472231   2   -13    13
    0.00030226741   2   -3    3
    0.00025374865   2    1000022    1000022
    0.00015755275   2   -1000024    1000024
    1.9925779e-05   2    21    21
    1.2738219e-05   2    1000025    1000025
    1.0182978e-06   2    23    25
    8.6864718e-07   2    1000023    1000023
    8.3597961e-07   2   -1    1
    6.5954717e-08   2    22    22
    6.1823932e-08   2    22    23
    5.0229218e-08   2    1000023    1000025
    1.9253328e-08   2   -4    4
    8.1917603e-09   2   -11    11
    9.927116e-14   2   -2    2
    2.211019e-39   2    25    25

DECAY 37  50.956012
    0.84089069   2   -5    6
    0.13497462   2   -15    16
    0.022015815   2    1000022    1000024
    0.0012455114   2   -5    4
    0.00047718358   2   -13    14
    0.00031710705   2   -3    4
    3.5281259e-05   2    1000023    1000024
    1.4829599e-05   2   -3    2
    1.4137212e-05   2    1000024    1000025
    8.8942376e-06   2   -5    2
    2.7218236e-06   2   -3    6
    1.1127169e-06   2    24    25
    8.8028007e-07   2   -1    2
    5.0363555e-07   2   -1000001    1000002
    5.0249705e-07   2   -1000003    1000004
    1.0337693e-07   2   -1    6
    4.1995195e-08   2   -1    4
    2.6917597e-08   2   -1000003    1000002
    2.6897347e-08   2   -1000001    1000004
    1.1161373e-08   2   -11    12
    6.0456371e-13   2    24    35
    2.5803555e-13   2    24    36

DECAY 6  2.43
    1   2    5    24

DECAY 15 -1
