BLOCK SPINFO
   1   SPheno
   2   v4.0.5be

BLOCK SPHENOINFO
   1   2
   2   2

BLOCK MODSEL
   1   0

BLOCK MINPAR
   3    35.047426
   4   -1

BLOCK EXTPAR
   0    2850.0354
   1    1060.6346
   2   -3244.4396
   3    2674.6518
   11   -7205.6411
   12   -6627.7027
   13    6789.1521
   23   -2024.4862
   25    34.049457
   26    2028.0288
   31    1234.7903
   32    1234.7903
   33    4021.6548
   34    4059.3761
   35    4059.3761
   36    4847.6095
   41    852.85967
   42    852.85967
   43    4275.6338
   44    2377.0081
   45    2377.0081
   46    1790.742
   47    4017.1231
   48    4017.1231
   49    3162.6962

BLOCK SMINPUTS
   1    127.90897
   2    1.1663787e-05
   3    0.1184
   4    91.1876
   5    4.18
   6    173.2
   7    1.777
   8    0
   11    0.00051099893
   12    0
   13    0.10565837
   14    0
   21    0.005
   22    0.0025
   23    0.095
   24    1.27

BLOCK GAUGE Q=  2850.0354
   1    0.35536298
   2    0.66519887
   3    1.219778

BLOCK YU Q=  2850.0354
   1   1    8.3879873e-06
   2   2    0.0042610975
   3   3    1.0133362

BLOCK YD Q=  2850.0354
   1   1    0.00057391582
   2   2    0.010904401
   3   3    0.56914466

BLOCK YE Q=  2850.0354
   1   1    0.00010015251
   2   2    0.020708362
   3   3    0.34828059

BLOCK AU Q=  2850.0354
   1   1    0
   2   2    0
   3   3   -7205.6421

BLOCK AD Q=  2850.0354
   1   1    0
   2   2    0
   3   3   -6627.7131

BLOCK AE Q=  2850.0354
   1   1    0
   2   2    0
   3   3    6789.1524

BLOCK MSOFT Q=  2850.0354
   1    1060.6346
   2   -3244.4396
   3    2674.6518
   21   -145761.91
   22   -4254643.6
   31    1234.7903
   32    1234.7903
   33    4021.6548
   34    4059.3761
   35    4059.3761
   36    4847.6095
   41    852.85967
   42    852.85967
   43    4275.6338
   44    2377.0081
   45    2377.0081
   46    1790.742
   47    4017.1231
   48    4017.1231
   49    3162.6962

BLOCK MASS
   6    173.2
   23    91.1876
   24    80.429995
   15    1.777
   25    125.45186
   35    2027.8755
   36    2028.0288
   37    2029.4618
   1000001    1083.9893
   2000001    4083.5129
   1000002    1081.1419
   2000002    2488.0849
   1000003    1083.9888
   2000003    4083.5053
   1000004    1081.1422
   2000004    2488.0846
   1000005    3243.096
   2000005    4278.8094
   1000006    1894.1487
   2000006    4288.3125
   1000011    1264.2756
   2000011    4066.5376
   1000012    1261.5026
   1000013    1264.2737
   2000013    4066.5127
   1000014    1261.5023
   1000015    4035.1017
   2000015    4845.5056
   1000016    4033.5772
   1000021    2846.6685
   1000022    1052.8042
   1000023   -2034.4918
   1000025    2037.6162
   1000035   -3226.8061
   1000024    2034.6311
   1000037    3226.9044

BLOCK ALPHA
      -0.028692094

BLOCK HMIX Q=  2850.0354
   1   -2024.4862
   2    34.049457
   3    243.30612
   4    4112901

BLOCK STOPMIX
   1   1    0.067760442
   1   2    0.99770162
   2   1   -0.99770162
   2   2    0.067760442

BLOCK SBOTMIX
   1   1   -0.016946777
   1   2    0.99985639
   2   1   -0.99985639
   2   2   -0.016946777

BLOCK STAUMIX
   1   1   -0.99981669
   1   2    0.019146449
   2   1   -0.019146449
   2   2   -0.99981669

BLOCK NMIX
   1   1    0.99943344
   1   2    0.00026953804
   1   3   -0.030102556
   1   4   -0.015051735
   2   1    0.010638261
   2   2    0.04790842
   2   3    0.70659651
   2   4   -0.70591287
   3   1    0.031928163
   3   2   -0.010029881
   3   3    0.70646833
   3   4    0.70695297
   4   1   -0.00045936255
   4   2    0.99880134
   4   3   -0.026790127
   4   4    0.040962983

BLOCK UMIX
   1   1   -0.036979172
   1   2   -0.99931604
   2   1   -0.99931604
   2   2    0.036979172

BLOCK VMIX
   1   1    0.056979144
   1   2    0.99837537
   2   1    0.99837537
   2   2   -0.056979144

BLOCK HIGGSBOUNDSINPUTHIGGSCOUPLINGSFERMIONS
       0, 1159.3655,3,36,15,15

BLOCK HIGGSBOUNDSINPUTHIGGSCOUPLINGSBOSONS
       0,4,36,21,21,23

BLOCK SPHENOLOWENERGY
   1    0.00035222634
   2    1.5866089e-06
   3    3.5233539e-05
   4    1.6301436e-15
   5    6.9633118e-11
   6    1.4295569e-08
   7    5.6371548e-14
   8    2.4080452e-09
   9    5.0204203e-07
   10    9.4008121e-05
   11    0.9710679
   12    0.54274825
   13    19.360606
   14    0
   15    0
   16    0.0021630068
   17    2.2817196e-15
   18    2.4805131e-11
   19    8.2837968e-11
   20    8.3747769e-16
   21    3.5801908e-11
   22    8.9329361e-09
   23    0
   24    0
   25    0
   26    0
   27    0
   28    0
   29    0
   30    0
   31    0
   39    7.1443959e-05
   40    0
   41    0
   42    0

BLOCK FWCOEF Q=  160
   305   4422   0   0   -0.18881911
   305   4422   0   2   -0.22365631
   305   4322   0   2   -0.001356191
   305   6421   0   0   -0.095227835
   305   6421   0   2   -0.12360373
   305   6321   0   2   -0.0011720749
   3051111   4133   0   0    1.6149188
   3051111   4133   0   2    1.614717
   3051111   4233   0   2    0.00022096856
   3051111   4137   0   0   -4.4376109
   3051111   4137   0   2   -4.434131
   3051111   4237   0   2   -0.0016639218
   3051313   4133   0   0    1.6149188
   3051313   4133   0   2    1.6147144
   3051313   4233   0   2    0.00022096774
   3051313   4137   0   0   -4.4376109
   3051313   4137   0   2   -4.4341335
   3051313   4237   0   2   -0.0016639217
   3051212   4137   0   0    1.5053501
   3051212   4137   0   2    1.5045958
   3051212   4237   0   2    0.00036075662
   3051414   4137   0   0    1.5053501
   3051414   4137   0   2    1.5045958
   3051414   4237   0   2    0.00036075677
   3051616   4137   0   0    1.5053501
   3051616   4137   0   2    1.5045964
   3051616   4237   0   2    0.00036079998

BLOCK IMFWCOEF Q=  160
   305   4422   0   0    3.8566107e-07
   305   4422   0   2   -2.1958089e-06
   305   4322   0   2   -2.0108443e-05
   305   6421   0   0    3.3034421e-07
   305   6421   0   2    4.1107852e-05
   305   6321   0   2   -1.5679042e-05
   3051111   4133   0   2   -8.8003747e-06
   3051111   4233   0   2    4.957017e-06
   3051111   4137   0   2    6.9648062e-05
   3051111   4237   0   2   -3.7329559e-05
   3051313   4133   0   2   -8.8002579e-06
   3051313   4233   0   2    4.9570152e-06
   3051313   4137   0   2    6.9648171e-05
   3051313   4237   0   2   -3.732957e-05
   3051212   4137   0   2   -1.5096657e-05
   3051212   4237   0   2    8.0934619e-06
   3051414   4137   0   2   -1.5096658e-05
   3051414   4237   0   2    8.0934619e-06
   3051616   4137   0   2   -1.508527e-05
   3051616   4237   0   2    8.0934626e-06

DECAY 23  2.4952


DECAY 24  2.085


DECAY 1000011  0.14922812
    1   2    1000022    11

DECAY 2000011  17.778417
    0.99926965   2    1000022    11
    0.00065716543   2    1000025    11

DECAY 1000013  0.1492264
    1   2    1000022    13

DECAY 2000013  17.821115
    0.9968692   2    1000022    13
    0.0012004977   2    1000025    13
    0.0010925603   2   -1000024    14
    0.00061920462   2    1000023    13
    0.0002174718   2    1000013    25

DECAY 1000015  16.802092
    0.27401768   2   -1000037    16
    0.26311681   2    1000022    15
    0.1631428   2    1000023    15
    0.16025614   2    1000025    15
    0.13687046   2    1000035    15
    0.0025961085   2   -1000024    16

DECAY 2000015  39.510053
    0.55865087   2    1000022    15
    0.19989912   2   -1000024    16
    0.10070511   2    1000025    15
    0.099990543   2    1000023    15
    0.02048323   2    1000016   -24
    0.010141276   2    1000015    23
    0.009380706   2    1000015    25
    0.00049535387   2   -1000037    16
    0.00025378186   2    1000035    15

DECAY 1000012  0.14565625
    1   2    1000022    12

DECAY 1000014  0.1456559
    1   2    1000022    14

DECAY 1000016  16.767181
    0.32602477   2    1000024    15
    0.27365943   2    1000037    15
    0.26185336   2    1000022    16
    0.13698198   2    1000035    16
    0.0010494941   2    1000023    16
    0.00043095519   2    1000025    16

DECAY 1000001  0.00048454513
    1   2    1000022    1

DECAY 2000001  87.15433
    0.97721249   2    1000021    1
    0.02277042   2    1000022    1

DECAY 1000003  0.00048455666
    1   2    1000022    3

DECAY 2000003  87.165534
    0.97707806   2    1000021    3
    0.022767528   2    1000022    3

DECAY 1000005  30.142909
    0.44724452   2    1000021    5
    0.24949967   2   -1000024    6
    0.12754218   2    1000023    5
    0.12665316   2    1000025    5
    0.048771715   2    1000022    5
    0.00028875207   2    1000006   -24

DECAY 2000005  322.4356
    0.39363224   2    1000006   -24
    0.32544734   2    1000021    5
    0.16069566   2   -1000024    6
    0.029413404   2    1000006   -37
    0.02560689   2    1000023    5
    0.025551918   2    1000025    5
    0.02201571   2   -1000037    6
    0.01085758   2    1000035    5
    0.0033084093   2    1000005    25
    0.0018068081   2    1000005    23
    0.0016640386   2    1000022    5

DECAY 1000002  0.00040463764
    1   2    1000022    2

DECAY 2000002  3.7412075
    0.99981735   2    1000022    2
    0.00016419637   2    1000025    2

DECAY 1000004  0.00040416697
    1   2    1000022    4

DECAY 2000004  3.7413997
    0.99976469   2    1000022    4
    0.00017746771   2    1000025    4

DECAY 1000006  1.9357108
    0.99980342   2    1000022    6
    0.00019452714   3    1000022    24    5

DECAY 2000006  354.62307
    0.29166714   2    1000021    6
    0.27059165   2    1000006    25
    0.17985519   2    1000006    23
    0.074604642   2    1000023    6
    0.074297876   2    1000025    6
    0.048126288   2    1000024    5
    0.01966224   2    1000037    5
    0.013560395   2    1000006    36
    0.013259249   2    1000006    35
    0.0094892202   2    1000035    6
    0.0033621774   2    1000005    24
    0.0015239209   2    1000022    6

DECAY 1000024  2.5531053
    0.49458619   2    1000022    24
    0.42792794   2    1000006   -5
    0.019050833   2    1000004   -3
    0.01759921   2    1000002   -1
    0.012306476   3    1000022   -5    6
    0.0076054569   2   -1000003    4
    0.0073802638   2   -1000001    2
    0.0056026357   2    1000014   -13
    0.004315442   2    1000012   -11
    0.0018076562   2   -1000013    14
    0.0018076493   2   -1000011    12

DECAY 1000037  199.60629
    0.16778076   2   -1000001    2
    0.1677807   2   -1000003    4
    0.16768866   2    1000004   -3
    0.16768863   2    1000002   -1
    0.05091832   2   -1000013    14
    0.050918264   2   -1000011    12
    0.050903317   2    1000014   -13
    0.05090325   2    1000012   -11
    0.031253401   2    1000023    24
    0.031025032   2    1000024    25
    0.02859187   2    1000024    23
    0.028541138   2    1000025    24
    0.0021822261   2    1000006   -5
    0.0014911169   3    1000024    6   -6
    0.001131371   3    1000025   -5    6
    0.0010609047   3    1000023   -5    6
    0.00010041996   2    1000022    24

DECAY 1000022 -1


DECAY 1000023  2.4612483
    0.47022923   2    1000022    23
    0.45396072   2    1000022    25
    0.0082987647   3    1000022    6   -6
    0.0070825109   2    1000004   -4
    0.0070825109   2   -1000004    4
    0.0069706998   2    1000002   -2
    0.0069706998   2   -1000002    2
    0.0066762148   2    1000003   -3
    0.0066762148   2   -1000003    3
    0.0059278434   2    1000001   -1
    0.0059278434   2   -1000001    1
    0.0026316351   2    1000013   -13
    0.0026316351   2   -1000013    13
    0.0019686814   2    1000011   -11
    0.0019686814   2   -1000011    11
    0.0012288936   2    1000014   -14
    0.0012288936   2   -1000014    14
    0.0012288928   2    1000012   -12
    0.0012288928   2   -1000012    12

DECAY 1000025  1.1708642
    0.85551082   2    1000022    25
    0.11056877   2    1000022    23
    0.016426954   3    1000022    6   -6
    0.0030435132   2    1000003   -3
    0.0030435132   2   -1000003    3
    0.0014728555   2    1000013   -13
    0.0014728555   2   -1000013    13
    0.0014631605   2    1000001   -1
    0.0014631605   2   -1000001    1
    0.0010686961   2    1000014   -14
    0.0010686961   2   -1000014    14
    0.0010686954   2    1000012   -12
    0.0010686954   2   -1000012    12
    0.00035463046   2    1000004   -4
    0.00035463046   2   -1000004    4
    0.00016122293   3    1000022    5   -5
    0.00011193813   2    1000002   -2
    0.00011193813   2   -1000002    2

DECAY 1000035  204.04518
    0.082073177   2    1000004   -4
    0.082073177   2   -1000004    4
    0.082073126   2    1000002   -2
    0.082073126   2   -1000002    2
    0.081990595   2    1000003   -3
    0.081990595   2   -1000003    3
    0.081990538   2    1000001   -1
    0.081990538   2   -1000001    1
    0.028987764   2    1000023    25
    0.028151612   2    1000025    23
    0.027292125   2    1000024   -24
    0.027292125   2   -1000024    24
    0.025936925   2    1000025    25
    0.024930134   2    1000014   -14
    0.024930134   2   -1000014    14
    0.024930129   2    1000012   -12
    0.024930129   2   -1000012    12
    0.024866171   2    1000013   -13
    0.024866171   2   -1000013    13
    0.024866104   2    1000011   -11
    0.024866104   2   -1000011    11
    0.0012318274   2    1000023    23
    0.0010985835   2    1000006   -6
    0.0010985835   2   -1000006    6
    0.0010447751   3    1000024    5   -6
    0.0010447751   3   -1000024   -5    6
    0.00062313285   3    1000023    6   -6
    0.00055967411   3    1000025    6   -6

DECAY 1000021  281.14239
    0.10974235   2    1000002   -2
    0.10974235   2   -1000002    2
    0.10974232   2    1000004   -4
    0.10974232   2   -1000004    4
    0.10954735   2    1000003   -3
    0.10954735   2   -1000003    3
    0.10954731   2    1000001   -1
    0.10954731   2   -1000001    1
    0.04468225   2    1000006   -6
    0.04468225   2   -1000006    6
    0.0083509225   2    2000002   -2
    0.0083509225   2   -2000002    2
    0.0083508865   2    2000004   -4
    0.0083508865   2   -2000004    4

DECAY 25  0.003945033
    0.56643398   2   -5    5
    0.23557124   2   -24    24
    0.07183834   2    21    21
    0.065252007   2   -15    15
    0.028772079   2    23    23
    0.027813239   2   -4    4
    0.0023443711   2    22    22
    0.0015332986   2    22    23
    0.0002264664   2   -13    13
    0.00021423479   2   -3    3
    5.9235044e-07   2   -1    1
    1.4332779e-07   2   -2    2
    5.0912108e-09   2   -11    11

DECAY 35  38.916048
    0.85240916   2   -5    5
    0.14469026   2   -15    15
    0.0016203123   2   -6    6
    0.00069267039   2   -3    3
    0.00056099863   2   -13    13
    1.1976396e-05   2    21    21
    6.8781056e-06   2    25    25
    1.9177295e-06   2   -1    1
    1.4254036e-06   2    23    23
    1.0607626e-06   2   -1000001    1000001
    1.0586345e-06   2   -1000003    1000003
    7.4082336e-07   2   -24    24
    7.3060587e-07   2   -1000002    1000002
    7.2986439e-07   2   -1000004    1000004
    4.5277854e-08   2   -4    4
    1.260124e-08   2   -11    11
    1.0951099e-08   2    22    23
    7.7834158e-09   2    22    22
    2.3369891e-13   2   -2    2

DECAY 36  37.299617
    0.85216987   2   -5    5
    0.14464962   2   -15    15
    0.0018945089   2   -6    6
    0.00069249782   2   -3    3
    0.0005608445   2   -13    13
    2.86249e-05   2    21    21
    2.012441e-06   2    23    25
    1.9172529e-06   2   -1    1
    4.942665e-08   2   -4    4
    2.9528534e-08   2    22    22
    1.259777e-08   2   -11    11
    1.1550832e-08   2    22    23
    2.5510902e-13   2   -2    2
    2.0157224e-39   2    25    25

DECAY 37  32.282311
    0.84298269   2   -5    6
    0.15442704   2   -15    16
    0.0012514329   2   -5    4
    0.00073666273   2   -3    4
    0.00054595518   2   -13    14
    3.4343752e-05   2   -3    2
    8.9365265e-06   2   -5    2
    4.0541045e-06   2   -3    6
    2.3333947e-06   2    24    25
    2.0464931e-06   2   -1    2
    2.0237729e-06   2   -1000001    1000002
    2.0179704e-06   2   -1000003    1000004
    1.3654085e-07   2   -1    6
    1.0810094e-07   2   -1000003    1000002
    1.0807941e-07   2   -1000001    1000004
    9.6390582e-08   2   -1    4
    1.2769948e-08   2   -11    12
    4.2335783e-13   2    24    35
    2.5469571e-13   2    24    36

DECAY 6  2.43
    1   2    5    24

DECAY 15 -1
