# SUSY Les Houches Accord 2 - MSSM spectrum + Decays
# SPheno v4.0.5be
# W. Porod, Comput. Phys. Commun. 153 (2003) 275-315, hep-ph/0301101;
# W. Porod, F.~Staub, Comput. Phys. Commun. 183 (2012) 2458
#                     arXiv:1104.1573 [hep-ph] 
# in case of problems send email to porod@physik.uni-wuerzburg.de
# Created: 07.09.2021,  17:01
Block SPINFO         # Program information
     1   SPheno      # spectrum calculator
     2   v4.0.5be    # version number
#
Block SPhenoINFO     # SPheno specific information
    1      2         # using 2-loop RGEs
    2      2         # using pole masses for boundary conditions at mZ
Block MODSEL  # Model selection
    1    0    # general MSSM
Block MINPAR  # Input parameters
    3    2.26207550E+01  # tanb at m_Z    
    4   -1.00000000E+00  # Sign(mu)
Block EXTPAR  # non-universal input parameters
    0    3.36403920E+03  # scale for input parameters
    1   -2.02276386E+02  # M_1
    2   -1.43770872E+03  # M_2
    3    1.70841171E+03  # M_3
   11    6.69768894E+03  # A_t
   12    2.36553292E+02  # A_b
   13   -3.44388165E+02  # A_tau
   23   -2.45532638E+02  # mu
   25    2.16501392E+01  # tan(beta)
   26    6.76838117E+02  # m_A, pole mass
   31    1.00000000E+04  # M_L11
   32    1.00000000E+04  # M_L22
   33    1.00000000E+04  # M_L33
   34    1.00000000E+04  # M_E11
   35    1.00000000E+04  # M_E22
   36    1.00000000E+04  # M_E33
   41    1.00000000E+04  # M_Q11
   42    1.00000000E+04  # M_Q22
   43    4.51436881E+03  # M_Q33
   44    1.00000000E+04  # M_U11
   45    1.00000000E+04  # M_U22
   46    2.54653769E+03  # M_U33
   47    1.00000000E+04  # M_D11
   48    1.00000000E+04  # M_D22
   49    2.07921491E+03  # M_D33
Block SMINPUTS  # SM parameters
         1     1.27908970E+02  # alpha_em^-1(MZ)^MSbar
         2     1.16637870E-05  # G_mu [GeV^-2]
         3     1.18400000E-01  # alpha_s(MZ)^MSbar
         4     9.11876000E+01  # m_Z(pole)
         5     4.18000000E+00  # m_b(m_b), MSbar
         6     1.73200000E+02  # m_t(pole)
         7     1.77700000E+00  # m_tau(pole)
         8     0.00000000E+00  # m_nu_3
        11     5.10998930E-04  # m_e(pole)
        12     0.00000000E+00  # m_nu_1
        13     1.05658372E-01  # m_muon(pole)
        14     0.00000000E+00  # m_nu_2
        21     5.00000000E-03  # m_d(2 GeV), MSbar
        22     2.50000000E-03  # m_u(2 GeV), MSbar
        23     9.50000000E-02  # m_s(2 GeV), MSbar
        24     1.27000000E+00  # m_c(m_c), MSbar
Block gauge Q=  3.36403920E+03  # (SUSY scale)
   1    3.55362975E-01  # g'(Q)^DRbar
   2    6.65198874E-01  # g(Q)^DRbar
   3    1.21977796E+00  # g3(Q)^DRbar
Block Yu Q=  3.36403920E+03  # (SUSY scale)
  1  1     8.39331111E-06   # Y_u(Q)^DRbar
  2  2     4.26380204E-03   # Y_c(Q)^DRbar
  3  3     1.01397940E+00   # Y_t(Q)^DRbar
Block Yd Q=  3.36403920E+03  # (SUSY scale)
  1  1     3.65152486E-04   # Y_d(Q)^DRbar
  2  2     6.93789723E-03   # Y_s(Q)^DRbar
  3  3     3.62116844E-01   # Y_b(Q)^DRbar
Block Ye Q=  3.36403920E+03  # (SUSY scale)
  1  1     6.37217790E-05   # Y_e(Q)^DRbar
  2  2     1.31756429E-02   # Y_mu(Q)^DRbar
  3  3     2.21592639E-01   # Y_tau(Q)^DRbar
Block Au Q=  3.36403920E+03  # (SUSY scale)
  1  1     0.00000000E+00   # A_u(Q)^DRbar
  2  2     0.00000000E+00   # A_c(Q)^DRbar
  3  3     6.69768580E+03   # A_t(Q)^DRbar
Block Ad Q=  3.36403920E+03  # (SUSY scale)
  1  1     0.00000000E+00   # A_d(Q)^DRbar
  2  2     0.00000000E+00   # A_s(Q)^DRbar
  3  3     2.36553367E+02   # A_b(Q)^DRbar
Block Ae Q=  3.36403920E+03  # (SUSY scale)
  1  1     0.00000000E+00   # A_e(Q)^DRbar
  2  2     0.00000000E+00   # A_mu(Q)^DRbar
  3  3    -3.44388254E+02   # A_tau(Q)^DRbar
Block MSOFT Q=  3.36403920E+03  # soft SUSY breaking masses at Q
   1   -2.02276386E+02  # M_1
   2   -1.43770872E+03  # M_2
   3    1.70841171E+03  # M_3
  21    3.13189490E+05  # M^2_(H,d)
  22    3.26032023E+04  # M^2_(H,u)
  31    1.00000000E+04  # M_(L,11)
  32    1.00000000E+04  # M_(L,22)
  33    1.00000000E+04  # M_(L,33)
  34    1.00000000E+04  # M_(E,11)
  35    1.00000000E+04  # M_(E,22)
  36    1.00000000E+04  # M_(E,33)
  41    1.00000000E+04  # M_(Q,11)
  42    1.00000000E+04  # M_(Q,22)
  43    4.51436881E+03  # M_(Q,33)
  44    1.00000000E+04  # M_(U,11)
  45    1.00000000E+04  # M_(U,22)
  46    2.54653769E+03  # M_(U,33)
  47    1.00000000E+04  # M_(D,11)
  48    1.00000000E+04  # M_(D,22)
  49    2.07921491E+03  # M_(D,33)
Block MASS  # Mass spectrum
#   PDG code      mass          particle
         6     1.73200000E+02  # m_t(pole)
        23     9.11876000E+01  # m_Z(pole)
        24     8.04299946E+01  # W+
        15     1.77700000E+00  # m_tau(pole)
        25     1.28348374E+02  # h0
        35     6.76901172E+02  # H0
        36     6.76838117E+02  # A0
        37     6.83478451E+02  # H+
   1000001     1.01178905E+04  # ~d_L
   2000001     1.00937447E+04  # ~d_R
   1000002     1.01175362E+04  # ~u_L
   2000002     1.00971147E+04  # ~u_R
   1000003     1.01178925E+04  # ~s_L
   2000003     1.00937476E+04  # ~s_R
   1000004     1.01175382E+04  # ~c_L
   2000004     1.00971158E+04  # ~c_R
   1000005     2.15601693E+03  # ~b_1
   2000005     4.50161000E+03  # ~b_2
   1000006     2.50913704E+03  # ~t_1
   2000006     4.51021987E+03  # ~t_2
   1000011     1.00205011E+04  # ~e_L-
   2000011     1.00087732E+04  # ~e_R-
   1000012     1.00197434E+04  # ~nu_eL
   1000013     1.00205087E+04  # ~mu_L-
   2000013     1.00087877E+04  # ~mu_R-
   1000014     1.00197508E+04  # ~nu_muL
   1000015     1.00128948E+04  # ~tau_1-
   2000015     1.00226445E+04  # ~tau_2-
   1000016     1.00218638E+04  # ~nu_tauL
   1000021     2.08567369E+03  # ~g
   1000022     1.87259195E+02  # ~chi_10
   1000023     2.54488335E+02  # ~chi_20
   1000025     2.66154247E+02  # ~chi_30
   1000035     1.53529033E+03  # ~chi_40
   1000024     2.49707596E+02  # ~chi_1+
   1000037     1.53525527E+03  # ~chi_2+
# Higgs mixing
Block alpha # Effective Higgs mixing angle
          -4.66371224E-02   # alpha
Block Hmix Q=  3.36403920E+03  # Higgs mixing parameters
   1   -2.45532638E+02  # mu
   2    2.16501392E+01  # tan[beta](Q)
   3    2.43082841E+02  # v(Q)
   4    4.58109837E+05  # m^2_A(Q)
Block stopmix # stop mixing matrix
   1  1    -6.56318726E-02   # Re[R_st(1,1)]
   1  2     9.97843904E-01   # Re[R_st(1,2)]
   2  1    -9.97843904E-01   # Re[R_st(2,1)]
   2  2    -6.56318726E-02   # Re[R_st(2,2)]
Block sbotmix # sbottom mixing matrix
   1  1    -7.64149280E-04   # Re[R_sb(1,1)]
   1  2     9.99999708E-01   # Re[R_sb(1,2)]
   2  1    -9.99999708E-01   # Re[R_sb(2,1)]
   2  2    -7.64149280E-04   # Re[R_sb(2,2)]
Block staumix # stau mixing matrix
   1  1    -4.59683895E-02   # Re[R_sta(1,1)]
   1  2     9.98942895E-01   # Re[R_sta(1,2)]
   2  1    -9.98942895E-01   # Re[R_sta(2,1)]
   2  2    -4.59683895E-02   # Re[R_sta(2,2)]
Block Nmix # neutralino mixing matrix
   1  1     8.74566994E-01   # Re[N(1,1)]
   1  2    -1.86109165E-02   # Re[N(1,2)]
   1  3    -3.84173772E-01   # Re[N(1,3)]
   1  4     2.95290908E-01   # Re[N(1,4)]
   2  1    -6.66185614E-02   # Re[N(2,1)]
   2  2     3.05116329E-02   # Re[N(2,2)]
   2  3    -6.99519292E-01   # Re[N(2,3)]
   2  4    -7.10847219E-01   # Re[N(2,4)]
   3  1    -4.80302893E-01   # Re[N(3,1)]
   3  2    -4.21035777E-02   # Re[N(3,2)]
   3  3    -6.02460021E-01   # Re[N(3,3)]
   3  4     6.36064732E-01   # Re[N(3,4)]
   4  1    -1.91626037E-03   # Re[N(4,1)]
   4  2     9.98473817E-01   # Re[N(4,2)]
   4  3    -1.11891492E-02   # Re[N(4,3)]
   4  4     5.40478316E-02   # Re[N(4,4)]
Block Umix # chargino mixing matrix
   1  1    -1.58706075E-02   # Re[U(1,1)]
   1  2    -9.99874054E-01   # Re[U(1,2)]
   2  1    -9.99874054E-01   # Re[U(2,1)]
   2  2     1.58706075E-02   # Re[U(2,2)]
Block Vmix # chargino mixing matrix
   1  1     7.65969040E-02   # Re[V(1,1)]
   1  2     9.97062142E-01   # Re[V(1,2)]
   2  1     9.97062142E-01   # Re[V(2,1)]
   2  2    -7.65969040E-02   # Re[V(2,2)]
DECAY        23     2.49520000E+00   # Z
DECAY        24     2.08500000E+00   # W
DECAY   2000011     5.02468072E+01   # ~e^-_R
#    BR                NDA      ID1      ID2
     7.64995606E-01    2     1000022        11   # BR(~e^-_R -> chi^0_1 e^-)
     4.43615192E-03    2     1000023        11   # BR(~e^-_R -> chi^0_2 e^-)
     2.30564722E-01    2     1000025        11   # BR(~e^-_R -> chi^0_3 e^-)
DECAY   1000011     1.38764363E+02   # ~e^-_L
#    BR                NDA      ID1      ID2
     6.39192134E-02    2     1000022        11   # BR(~e^-_L -> chi^0_1 e^-)
     2.83169742E-02    2     1000025        11   # BR(~e^-_L -> chi^0_3 e^-)
     3.01553184E-01    2     1000035        11   # BR(~e^-_L -> chi^0_4 e^-)
     1.59916104E-04    2    -1000024        12   # BR(~e^-_L -> chi^-_1 nu_e)
     6.06042526E-01    2    -1000037        12   # BR(~e^-_L -> chi^-_2 nu_e)
#    BR                NDA      ID1      ID2       ID3
DECAY   2000013     5.03159246E+01   # ~mu^-_R
#    BR                NDA      ID1      ID2
     7.64047191E-01    2     1000022        13   # BR(~mu^-_R -> chi^0_1 mu^-)
     4.76578331E-03    2     1000023        13   # BR(~mu^-_R -> chi^0_2 mu^-)
     2.30497318E-01    2     1000025        13   # BR(~mu^-_R -> chi^0_3 mu^-)
     6.85961241E-04    2    -1000024        14   # BR(~mu^-_R -> chi^-_1 nu_mu)
DECAY   1000013     1.38799040E+02   # ~mu^-_L
#    BR                NDA      ID1      ID2
     6.39400634E-02    2     1000022        13   # BR(~mu^-_L -> chi^0_1 mu^-)
     1.30028728E-04    2     1000023        13   # BR(~mu^-_L -> chi^0_2 mu^-)
     2.84002899E-02    2     1000025        13   # BR(~mu^-_L -> chi^0_3 mu^-)
     3.01478124E-01    2     1000035        13   # BR(~mu^-_L -> chi^0_4 mu^-)
     1.59876272E-04    2    -1000024        14   # BR(~mu^-_L -> chi^-_1 nu_mu)
     6.05891617E-01    2    -1000037        14   # BR(~mu^-_L -> chi^-_2 nu_mu)
#    BR                NDA      ID1      ID2       ID3
DECAY   1000015     6.99749728E+01   # ~tau^-_1
#    BR                NDA      ID1      ID2
     5.74351868E-01    2     1000022        15   # BR(~tau^-_1 -> chi^0_1 tau^-)
     7.02332903E-02    2     1000023        15   # BR(~tau^-_1 -> chi^0_2 tau^-)
     2.12544230E-01    2     1000025        15   # BR(~tau^-_1 -> chi^0_3 tau^-)
     9.91184981E-04    2     1000035        15   # BR(~tau^-_1 -> chi^0_4 tau^-)
     1.39891609E-01    2    -1000024        16   # BR(~tau^-_1 -> chi^-_1 nu_tau)
     1.98781773E-03    2    -1000037        16   # BR(~tau^-_1 -> chi^-_2 nu_tau)
DECAY   2000015     1.48405864E+02   # ~tau^-_2
#    BR                NDA      ID1      ID2
     6.75323708E-02    2     1000022        15   # BR(~tau^-_2 -> chi^0_1 tau^-)
     3.28459225E-02    2     1000023        15   # BR(~tau^-_2 -> chi^0_2 tau^-)
     5.21642492E-02    2     1000025        15   # BR(~tau^-_2 -> chi^0_3 tau^-)
     2.81577158E-01    2     1000035        15   # BR(~tau^-_2 -> chi^0_4 tau^-)
     5.65880125E-01    2    -1000037        16   # BR(~tau^-_2 -> chi^-_2 nu_tau)
#    BR                NDA      ID1      ID2       ID3
DECAY   1000012     1.38768323E+02   # ~nu_e
#    BR                NDA      ID1      ID2
     7.49586109E-02    2     1000022        12   # BR(~nu_e -> chi^0_1 nu_e)
     1.38682065E-03    2     1000023        12   # BR(~nu_e -> chi^0_2 nu_e)
     1.45997940E-02    2     1000025        12   # BR(~nu_e -> chi^0_3 nu_e)
     3.02758681E-01    2     1000035        12   # BR(~nu_e -> chi^0_4 nu_e)
     3.72462790E-03    2     1000024        11   # BR(~nu_e -> chi^+_1 e^-)
     6.02571466E-01    2     1000037        11   # BR(~nu_e -> chi^+_2 e^-)
#    BR                NDA      ID1      ID2       ID3
DECAY   1000014     1.38802995E+02   # ~nu_mu
#    BR                NDA      ID1      ID2
     7.49399425E-02    2     1000022        14   # BR(~nu_mu -> chi^0_1 nu_mu)
     1.38647527E-03    2     1000023        14   # BR(~nu_mu -> chi^0_2 nu_mu)
     1.45961579E-02    2     1000025        14   # BR(~nu_mu -> chi^0_3 nu_mu)
     3.02683299E-01    2     1000035        14   # BR(~nu_mu -> chi^0_4 nu_mu)
     3.97262665E-03    2     1000024        13   # BR(~nu_mu -> chi^+_1 mu^-)
     6.02421498E-01    2     1000037        13   # BR(~nu_mu -> chi^+_2 mu^-)
#    BR                NDA      ID1      ID2       ID3
DECAY   1000016     1.48578139E+02   # ~nu_tau
#    BR                NDA      ID1      ID2
     7.00243331E-02    2     1000022        16   # BR(~nu_tau -> chi^0_1 nu_tau)
     1.29553115E-03    2     1000023        16   # BR(~nu_tau -> chi^0_2 nu_tau)
     1.36387418E-02    2     1000025        16   # BR(~nu_tau -> chi^0_3 nu_tau)
     2.82834747E-01    2     1000035        16   # BR(~nu_tau -> chi^0_4 nu_tau)
     6.92730633E-02    2     1000024        15   # BR(~nu_tau -> chi^+_1 tau^-)
     5.62933584E-01    2     1000037        15   # BR(~nu_tau -> chi^+_2 tau^-)
#    BR                NDA      ID1      ID2       ID3
DECAY   2000001     7.35781077E+02   # ~d_R
#    BR                NDA      ID1      ID2
     5.85400720E-03    2     1000022         1   # BR(~d_R -> chi^0_1 d)
     1.76439253E-03    2     1000025         1   # BR(~d_R -> chi^0_3 d)
     9.92347572E-01    2     1000021         1   # BR(~d_R -> ~g d)
DECAY   1000001     8.61146365E+02   # ~d_L
#    BR                NDA      ID1      ID2
     1.57092202E-03    2     1000022         1   # BR(~d_L -> chi^0_1 d)
     4.92439807E-02    2     1000035         1   # BR(~d_L -> chi^0_4 d)
     9.86971299E-02    2    -1000037         2   # BR(~d_L -> chi^-_2 u)
     8.50271790E-01    2     1000021         1   # BR(~d_L -> ~g d)
DECAY   2000003     7.35800579E+02   # ~s_R
#    BR                NDA      ID1      ID2
     5.85578600E-03    2     1000022         3   # BR(~s_R -> chi^0_1 s)
     1.76909422E-03    2     1000025         3   # BR(~s_R -> chi^0_3 s)
     9.92321605E-01    2     1000021         3   # BR(~s_R -> ~g s)
DECAY   1000003     8.61159867E+02   # ~s_L
#    BR                NDA      ID1      ID2
     1.57255258E-03    2     1000022         3   # BR(~s_L -> chi^0_1 s)
     1.01464983E-04    2     1000025         3   # BR(~s_L -> chi^0_3 s)
     4.92432205E-02    2     1000035         3   # BR(~s_L -> chi^0_4 s)
     9.86956279E-02    2    -1000037         4   # BR(~s_L -> chi^-_2 c)
     8.50258656E-01    2     1000021         3   # BR(~s_L -> ~g s)
DECAY   1000005     1.27552284E+01   # ~b_1
#    BR                NDA      ID1      ID2
     1.35403249E-01    2     1000022         5   # BR(~b_1 -> chi^0_1 b)
     2.10156767E-01    2     1000023         5   # BR(~b_1 -> chi^0_2 b)
     1.76149238E-01    2     1000025         5   # BR(~b_1 -> chi^0_3 b)
     4.23399098E-01    2    -1000024         6   # BR(~b_1 -> chi^-_1 t)
     5.48593176E-02    2     1000021         5   # BR(~b_1 -> ~g b)
DECAY   2000005     4.56485619E+02   # ~b_2
#    BR                NDA      ID1      ID2
     5.08941815E-03    2     1000022         5   # BR(~b_2 -> chi^0_1 b)
     1.25875332E-02    2     1000023         5   # BR(~b_2 -> chi^0_2 b)
     9.35982804E-03    2     1000025         5   # BR(~b_2 -> chi^0_3 b)
     3.38172068E-02    2     1000035         5   # BR(~b_2 -> chi^0_4 b)
     1.98704081E-01    2    -1000024         6   # BR(~b_2 -> chi^-_1 t)
     6.89076313E-02    2    -1000037         6   # BR(~b_2 -> chi^-_2 t)
     4.80079204E-01    2     1000021         5   # BR(~b_2 -> ~g b)
     1.91332079E-01    2     1000006       -24   # BR(~b_2 -> ~t_1 W^-)
DECAY   2000002     7.52967189E+02   # ~u_R
#    BR                NDA      ID1      ID2
     2.28891983E-02    2     1000022         2   # BR(~u_R -> chi^0_1 u)
     1.32733884E-04    2     1000023         2   # BR(~u_R -> chi^0_2 u)
     6.89874191E-03    2     1000025         2   # BR(~u_R -> chi^0_3 u)
     9.70079221E-01    2     1000021         2   # BR(~u_R -> ~g u)
DECAY   1000002     8.61135706E+02   # ~u_L
#    BR                NDA      ID1      ID2
     9.71740850E-04    2     1000022         2   # BR(~u_L -> chi^0_1 u)
     8.41259089E-04    2     1000025         2   # BR(~u_L -> chi^0_3 u)
     4.91754332E-02    2     1000035         2   # BR(~u_L -> chi^0_4 u)
     6.06110493E-04    2     1000024         1   # BR(~u_L -> chi^+_1 d)
     9.81402395E-02    2     1000037         1   # BR(~u_L -> chi^+_2 d)
     8.50247255E-01    2     1000021         2   # BR(~u_L -> ~g u)
DECAY   2000004     7.52974546E+02   # ~c_R
#    BR                NDA      ID1      ID2
     2.28893998E-02    2     1000022         4   # BR(~c_R -> chi^0_1 c)
     1.35180449E-04    2     1000023         4   # BR(~c_R -> chi^0_2 c)
     6.90063274E-03    2     1000025         4   # BR(~c_R -> chi^0_3 c)
     9.70069826E-01    2     1000021         4   # BR(~c_R -> ~g c)
DECAY   1000004     8.61149174E+02   # ~c_L
#    BR                NDA      ID1      ID2
     9.72095884E-04    2     1000022         4   # BR(~c_L -> chi^0_1 c)
     8.42963426E-04    2     1000025         4   # BR(~c_L -> chi^0_3 c)
     4.91746825E-02    2     1000035         4   # BR(~c_L -> chi^0_4 c)
     6.17304070E-04    2     1000024         3   # BR(~c_L -> chi^+_1 s)
     9.81387286E-02    2     1000037         3   # BR(~c_L -> chi^+_2 s)
     8.50234119E-01    2     1000021         4   # BR(~c_L -> ~g c)
DECAY   1000006     1.21646105E+02   # ~t_1
#    BR                NDA      ID1      ID2
     7.47645729E-02    2     1000022         6   # BR(~t_1 -> chi^0_1 t)
     2.08729719E-01    2     1000023         6   # BR(~t_1 -> chi^0_2 t)
     1.71205976E-01    2     1000025         6   # BR(~t_1 -> chi^0_3 t)
     4.12328069E-01    2     1000024         5   # BR(~t_1 -> chi^+_1 b)
     1.85348669E-04    2     1000037         5   # BR(~t_1 -> chi^+_2 b)
     1.32692201E-01    2     1000021         6   # BR(~t_1 -> ~g t)
#    BR                NDA      ID1      ID2       ID3
DECAY   2000006     4.83319790E+02   # ~t_2
#    BR                NDA      ID1      ID2
     1.56887490E-02    2     1000022         6   # BR(~t_2 -> chi^0_1 t)
     9.49827838E-02    2     1000023         6   # BR(~t_2 -> chi^0_2 t)
     7.87253869E-02    2     1000025         6   # BR(~t_2 -> chi^0_3 t)
     3.24294064E-02    2     1000035         6   # BR(~t_2 -> chi^0_4 t)
     2.41292021E-02    2     1000024         5   # BR(~t_2 -> chi^+_1 b)
     6.45506565E-02    2     1000037         5   # BR(~t_2 -> chi^+_2 b)
     4.55754084E-01    2     1000021         6   # BR(~t_2 -> ~g t)
     9.08839604E-02    2     1000006        23   # BR(~t_2 -> ~t_1 Z)
     1.42746708E-01    2     1000006        25   # BR(~t_2 -> ~t_1 h^0)
DECAY   1000024     1.43099937E-03   # chi^+_1
#    BR                NDA      ID1      ID2       ID3
     3.33585150E-01    3     1000022        -1         2   # BR(chi^+_1 -> chi^0_1 d_bar u)
     3.33123313E-01    3     1000022        -3         4   # BR(chi^+_1 -> chi^0_1 s_bar c)
     1.11195387E-01    3     1000022       -11        12   # BR(chi^+_1 -> chi^0_1 e^+ nu_e)
     1.11194581E-01    3     1000022       -13        14   # BR(chi^+_1 -> chi^0_1 mu^+ nu_mu)
     1.10901568E-01    3     1000022       -15        16   # BR(chi^+_1 -> chi^0_1 tau^+ nu_tau)
DECAY   1000037     2.24832745E+01   # chi^+_2
#    BR                NDA      ID1      ID2
     2.21035309E-02    2     1000022        24   # BR(chi^+_2 -> chi^0_1 W^+)
     1.54594790E-01    2     1000023        24   # BR(chi^+_2 -> chi^0_2 W^+)
     1.30606577E-01    2     1000025        24   # BR(chi^+_2 -> chi^0_3 W^+)
     2.80038431E-02    2          37   1000022   # BR(chi^+_2 -> H^+ chi^0_1)
     8.92447249E-02    2          37   1000023   # BR(chi^+_2 -> H^+ chi^0_2)
     7.22515054E-02    2          37   1000025   # BR(chi^+_2 -> H^+ chi^0_3)
     1.53474589E-01    2     1000024        23   # BR(chi^+_2 -> chi^+_1 Z)
     9.18221556E-02    2     1000024        36   # BR(chi^+_2 -> chi^+_1 A^0)
     1.51339514E-01    2     1000024        25   # BR(chi^+_2 -> chi^+_1 h^0)
     9.16391953E-02    2     1000024        35   # BR(chi^+_2 -> chi^+_1 H^0)
#    BR                NDA      ID1      ID2       ID3
     5.86088908E-03    3     1000024         6        -6   # BR(chi^+_2 -> chi^+_1 t t_bar)
     6.50553127E-04    3     1000022        -5         6   # BR(chi^+_2 -> chi^0_1 b_bar t)
     4.70855698E-03    3     1000023        -5         6   # BR(chi^+_2 -> chi^0_2 b_bar t)
     3.69854529E-03    3     1000025        -5         6   # BR(chi^+_2 -> chi^0_3 b_bar t)
DECAY   1000022     0.00000000E+00   # chi^0_1
DECAY   1000023     1.43620692E-03   # chi^0_2
#    BR                NDA      ID1      ID2
     2.81635644E-03    2     1000022        22   # BR(chi^0_2 -> chi^0_1 photon)
#    BR                NDA      ID1      ID2       ID3
     1.18959108E-01    3     1000022         2        -2   # BR(chi^0_2 -> chi^0_1 u u_bar)
     1.18526452E-01    3     1000022         4        -4   # BR(chi^0_2 -> chi^0_1 c c_bar)
     1.52528818E-01    3     1000022         1        -1   # BR(chi^0_2 -> chi^0_1 d d_bar)
     1.52526467E-01    3     1000022         3        -3   # BR(chi^0_2 -> chi^0_1 s s_bar)
     1.47675664E-01    3     1000022         5        -5   # BR(chi^0_2 -> chi^0_1 b b_bar)
     3.44210963E-02    3     1000022        11       -11   # BR(chi^0_2 -> chi^0_1 e^- e^+)
     3.44201171E-02    3     1000022        13       -13   # BR(chi^0_2 -> chi^0_1 mu^- mu^+)
     3.41454862E-02    3     1000022        15       -15   # BR(chi^0_2 -> chi^0_1 tau^- tau^+)
     2.03976381E-01    3     1000022        12       -12   # BR(chi^0_2 -> chi^0_1 nu_e nu_bar_e)
DECAY   1000025     4.96630257E-05   # chi^0_3
#    BR                NDA      ID1      ID2
     4.15641644E-03    2     1000022        22   # BR(chi^0_3 -> chi^0_1 photon)
     4.19374911E-03    2     1000023        22   # BR(chi^0_3 -> chi^0_2 photon)
#    BR                NDA      ID1      ID2       ID3
     9.90988552E-02    3     1000022         2        -2   # BR(chi^0_3 -> chi^0_1 u u_bar)
     9.89332128E-02    3     1000022         4        -4   # BR(chi^0_3 -> chi^0_1 c c_bar)
     1.27036607E-01    3     1000022         1        -1   # BR(chi^0_3 -> chi^0_1 d d_bar)
     1.27035908E-01    3     1000022         3        -3   # BR(chi^0_3 -> chi^0_1 s s_bar)
     1.26467041E-01    3     1000022         5        -5   # BR(chi^0_3 -> chi^0_1 b b_bar)
     2.86447970E-02    3     1000022        11       -11   # BR(chi^0_3 -> chi^0_1 e^- e^+)
     2.86447844E-02    3     1000022        13       -13   # BR(chi^0_3 -> chi^0_1 mu^- mu^+)
     2.86329796E-02    3     1000022        15       -15   # BR(chi^0_3 -> chi^0_1 tau^- tau^+)
     1.69915921E-01    3     1000022        12       -12   # BR(chi^0_3 -> chi^0_1 nu_e nu_bar_e)
     1.30136965E-03    3     1000023         2        -2   # BR(chi^0_3 -> chi^0_2 u u_bar)
     1.11124464E-03    3     1000023         4        -4   # BR(chi^0_3 -> chi^0_2 c c_bar)
     1.66861874E-03    3     1000023         1        -1   # BR(chi^0_3 -> chi^0_2 d d_bar)
     1.66733701E-03    3     1000023         3        -3   # BR(chi^0_3 -> chi^0_2 s s_bar)
     2.75180129E-04    3     1000023         5        -5   # BR(chi^0_3 -> chi^0_2 b b_bar)
     3.76561558E-04    3     1000023        11       -11   # BR(chi^0_3 -> chi^0_2 e^- e^+)
     3.76105843E-04    3     1000023        13       -13   # BR(chi^0_3 -> chi^0_2 mu^- mu^+)
     2.67836512E-04    3     1000023        15       -15   # BR(chi^0_3 -> chi^0_2 tau^- tau^+)
     2.23141661E-03    3     1000023        12       -12   # BR(chi^0_3 -> chi^0_2 nu_e nu_bar_e)
     2.50509572E-02    3     1000024         1        -2   # BR(chi^0_3 -> chi^+_1 d u_bar)
     2.50509572E-02    3    -1000024        -1         2   # BR(chi^0_3 -> chi^-_1 d_bar u)
     2.43360173E-02    3     1000024         3        -4   # BR(chi^0_3 -> chi^+_1 s c_bar)
     2.43360173E-02    3    -1000024        -3         4   # BR(chi^0_3 -> chi^-_1 s_bar c)
     8.35030652E-03    3     1000024        11       -12   # BR(chi^0_3 -> chi^+_1 e^- nu_bar_e)
     8.35030652E-03    3    -1000024       -11        12   # BR(chi^0_3 -> chi^-_1 e^+ nu_e)
     8.34914075E-03    3     1000024        13       -14   # BR(chi^0_3 -> chi^+_1 mu^- nu_bar_mu)
     8.34914075E-03    3    -1000024       -13        14   # BR(chi^0_3 -> chi^-_1 mu^+ nu_mu)
     7.89560696E-03    3     1000024        15       -16   # BR(chi^0_3 -> chi^+_1 tau^- nu_bar_tau)
     7.89560696E-03    3    -1000024       -15        16   # BR(chi^0_3 -> chi^-_1 tau^+ nu_tau)
DECAY   1000035     2.38532066E+01   # chi^0_4
#    BR                NDA      ID1      ID2
     1.46423569E-01    2     1000024       -24   # BR(chi^0_4 -> chi^+_1 W^-)
     1.46423569E-01    2    -1000024        24   # BR(chi^0_4 -> chi^-_1 W^+)
     9.21653337E-02    2          37  -1000024   # BR(chi^0_4 -> H^+ chi^-_1)
     9.21653337E-02    2         -37   1000024   # BR(chi^0_4 -> H^- chi^+_1)
     6.72754654E-03    2     1000022        23   # BR(chi^0_4 -> chi^0_1 Z)
     1.01908295E-01    2     1000023        23   # BR(chi^0_4 -> chi^0_2 Z)
     3.61119269E-02    2     1000025        23   # BR(chi^0_4 -> chi^0_3 Z)
     9.75947240E-03    2     1000022        36   # BR(chi^0_4 -> chi^0_1 A^0)
     2.41277173E-02    2     1000023        36   # BR(chi^0_4 -> chi^0_2 A^0)
     2.11556092E-02    2     1000025        36   # BR(chi^0_4 -> chi^0_3 A^0)
     1.42078176E-02    2     1000022        25   # BR(chi^0_4 -> chi^0_1 h^0)
     8.38463456E-02    2     1000023        25   # BR(chi^0_4 -> chi^0_2 h^0)
     8.50456003E-02    2     1000025        25   # BR(chi^0_4 -> chi^0_3 h^0)
     1.57876183E-02    2     1000022        35   # BR(chi^0_4 -> chi^0_1 H^0)
     6.75765029E-02    2     1000023        35   # BR(chi^0_4 -> chi^0_2 H^0)
     4.19165804E-02    2     1000025        35   # BR(chi^0_4 -> chi^0_3 H^0)
#    BR                NDA      ID1      ID2       ID3
     3.98606606E-04    3     1000022         6        -6   # BR(chi^0_4 -> chi^0_1 t t_bar)
     2.54771093E-03    3     1000023         6        -6   # BR(chi^0_4 -> chi^0_2 t t_bar)
     2.20427047E-03    3     1000025         6        -6   # BR(chi^0_4 -> chi^0_3 t t_bar)
     4.73757425E-03    3     1000024         5        -6   # BR(chi^0_4 -> chi^+_1 b t_bar)
     4.73757425E-03    3    -1000024        -5         6   # BR(chi^0_4 -> chi^-_1 b_bar t)
DECAY   1000021     1.13867146E-01   # ~g
#    BR                NDA      ID1      ID2
     5.22998614E-04    2     1000022        21   # BR(~g -> chi^0_1 g)
     3.97023599E-03    2     1000023        21   # BR(~g -> chi^0_2 g)
     2.74988924E-03    2     1000025        21   # BR(~g -> chi^0_3 g)
#    BR                NDA      ID1      ID2       ID3
     6.73633551E-02    3     1000022         6        -6   # BR(~g -> chi^0_1 t t_bar)
     4.36468990E-02    3     1000022         5        -5   # BR(~g -> chi^0_1 b b_bar)
     1.68891798E-01    3     1000023         6        -6   # BR(~g -> chi^0_2 t t_bar)
     6.72934771E-02    3     1000023         5        -5   # BR(~g -> chi^0_2 b b_bar)
     1.23092309E-01    3     1000025         6        -6   # BR(~g -> chi^0_3 t t_bar)
     5.59459762E-02    3     1000025         5        -5   # BR(~g -> chi^0_3 b b_bar)
     2.33096154E-01    3     1000024         5        -6   # BR(~g -> chi^+_1 b t_bar)
     2.33096154E-01    3    -1000024        -5         6   # BR(~g -> chi^-_1 b_bar t)
DECAY        25     4.37276704E-03   # Gamma(h0)
     2.33242174E-03   2        22        22   # BR(h0 -> photon photon)
     1.77281749E-03   2        22        23   # BR(h0 -> photon Z)
     3.68352823E-02   2        23        23   # BR(h0 -> Z Z)
     2.85700151E-01   2       -24        24   # BR(h0 -> W W)
     6.91035444E-02   2        21        21   # BR(h0 -> gluon gluon)
     4.66759390E-09   2       -11        11   # BR(h0 -> Electron electron)
     2.07624588E-04   2       -13        13   # BR(h0 -> Muon muon)
     5.98692884E-02   2       -15        15   # BR(h0 -> Tau tau)
     1.18765791E-07   2        -2         2   # BR(h0 -> Up up)
     2.30510320E-02   2        -4         4   # BR(h0 -> Charm charm)
     5.37870136E-07   2        -1         1   # BR(h0 -> Down down)
     1.94536835E-04   2        -3         3   # BR(h0 -> Strange strange)
     5.20932640E-01   2        -5         5   # BR(h0 -> Bottom bottom)
DECAY        35     5.96905502E+00   # Gamma(HH)
     2.21819343E-07   2        22        22   # BR(HH -> photon photon)
     1.46468749E-07   2        22        23   # BR(HH -> photon Z)
     5.31978751E-05   2        23        23   # BR(HH -> Z Z)
     1.00318638E-04   2       -24        24   # BR(HH -> W W)
     9.34688928E-05   2        21        21   # BR(HH -> gluon gluon)
     8.73819479E-09   2       -11        11   # BR(HH -> Electron electron)
     3.88888262E-04   2       -13        13   # BR(HH -> Muon muon)
     1.12286048E-01   2       -15        15   # BR(HH -> Tau tau)
     6.55070168E-13   2        -2         2   # BR(HH -> Up up)
     1.27023730E-07   2        -4         4   # BR(HH -> Charm charm)
     6.74837666E-03   2        -6         6   # BR(HH -> Top top)
     7.81444973E-07   2        -1         1   # BR(HH -> Down down)
     2.82660664E-04   2        -3         3   # BR(HH -> Strange strange)
     7.97540517E-01   2        -5         5   # BR(HH -> Bottom bottom)
     2.00639142E-03   2  -1000024   1000024   # BR(HH -> Chargino1 chargino1)
     1.78759128E-02   2   1000022   1000022   # BR(HH -> neutralino1 neutralino1)
     3.84139490E-02   2   1000022   1000023   # BR(HH -> neutralino1 neutralino2)
     7.50769698E-03   2   1000022   1000025   # BR(HH -> neutralino1 neutralino3)
     6.93071223E-04   2   1000023   1000023   # BR(HH -> neutralino2 neutralino2)
     1.18290184E-02   2   1000023   1000025   # BR(HH -> neutralino2 neutralino3)
     3.69003165E-03   2   1000025   1000025   # BR(HH -> neutralino3 neutralino3)
     4.89166707E-04   2        25        25   # BR(HH -> h0 h0)
DECAY        36     5.91517587E+00   # Gamma(A0)
     4.04956216E-07   2        22        22   # BR(A0 -> photon photon)
     1.83142071E-07   2        22        23   # BR(A0 -> photon Z)
     1.69432082E-04   2        21        21   # BR(A0 -> gluon gluon)
     8.68798127E-09   2       -11        11   # BR(A0 -> Electron electron)
     3.86653435E-04   2       -13        13   # BR(A0 -> Muon muon)
     1.11643952E-01   2       -15        15   # BR(A0 -> Tau tau)
     5.85147980E-13   2        -2         2   # BR(A0 -> Up up)
     1.13456778E-07   2        -4         4   # BR(A0 -> Charm charm)
     8.26081563E-03   2        -6         6   # BR(A0 -> Top top)
     7.76964201E-07   2        -1         1   # BR(A0 -> Down down)
     2.81039939E-04   2        -3         3   # BR(A0 -> Strange strange)
     7.93018945E-01   2        -5         5   # BR(A0 -> Bottom bottom)
     4.39483083E-03   2  -1000024   1000024   # BR(A0 -> Chargino1 chargino1)
     2.98438390E-02   2   1000022   1000022   # BR(A0 -> neutralino1 neutralino1)
     1.85324477E-02   2   1000022   1000023   # BR(A0 -> neutralino1 neutralino2)
     1.64090687E-02   2   1000022   1000025   # BR(A0 -> neutralino1 neutralino3)
     1.26980438E-03   2   1000023   1000023   # BR(A0 -> neutralino2 neutralino2)
     4.65576240E-03   2   1000023   1000025   # BR(A0 -> neutralino2 neutralino3)
     1.10443022E-02   2   1000025   1000025   # BR(A0 -> neutralino3 neutralino3)
     8.76190084E-05   2        23        25   # BR(A0 -> Z h0)
     1.06433069E-38   2        25        25   # BR(A0 -> h0 h0)
DECAY        37     5.56143377E+00   # Gamma(Hp)
     1.03995109E-08   2       -11        12   # BR(Hp -> Electron nu_e)
     4.44611551E-04   2       -13        14   # BR(Hp -> Muon nu_mu)
     1.25759823E-01   2       -15        16   # BR(Hp -> Tau nu_tau)
     8.10206346E-07   2        -1         2   # BR(Hp -> Down up)
     1.34150537E-05   2        -3         2   # BR(Hp -> Strange up)
     9.13581405E-06   2        -5         2   # BR(Hp -> Bottom up)
     4.38317664E-08   2        -1         4   # BR(Hp -> Down charm)
     2.92147599E-04   2        -3         4   # BR(Hp -> Strange charm)
     1.27933265E-03   2        -5         4   # BR(Hp -> Bottom charm)
     6.48034085E-07   2        -1         6   # BR(Hp -> Down top)
     1.45027958E-05   2        -3         6   # BR(Hp -> Strange top)
     7.84760020E-01   2        -5         6   # BR(Hp -> Bottom top)
     6.57222653E-02   2   1000022   1000024   # BR(Hp -> neutralino1 chargino1)
     7.03504062E-05   2   1000023   1000024   # BR(Hp -> neutralino2 chargino1)
     2.15352699E-02   2   1000024   1000025   # BR(Hp -> chargino1 neutralino3)
     9.76076273E-05   2        24        25   # BR(Hp -> W h0)
     2.98264661E-09   2        24        35   # BR(Hp -> W HH)
     3.12820005E-09   2        24        36   # BR(Hp -> W A0)
DECAY         6     2.43000000E+00   # top
#    BR                NDA      ID1      ID2
     1.00000000E+00    2           5        24   # BR(t -> b W)
Block HiggsBoundsInputHiggsCouplingsFermions
# ScalarNormEffCoupSq PseudoSNormEffCoupSq NP IP1 IP2 IP2
    1.02092900E+00    0.00000000E+00        3  25   5   5  # h0-b-b eff. coupling^2, normalised to SM
    4.68707598E+02    0.00000000E+00        3  35   5   5  # H0-b-b eff. coupling^2, normalised to SM
    0.00000000E+00    4.68728527E+02        3  36   5   5  # A0-b-b eff. coupling^2, normalised to SM
#
    9.99955349E-01    0.00000000E+00        3  25   6   6  # h0-t-t eff. coupling^2, normalised to SM
    2.17808163E-03    0.00000000E+00        3  35   6   6  # H0-t-t eff. coupling^2, normalised to SM
    0.00000000E+00    2.13343106E-03        3  36   6   6  # A0-t-t eff. coupling^2, normalised to SM
#
    1.02092900E+00    0.00000000E+00        3  25  15  15  # h0-tau-tau eff. coupling^2, normalised to SM
    4.68707598E+02    0.00000000E+00        3  35  15  15  # H0-tau-tau eff. coupling^2, normalised to SM
    0.00000000E+00    4.68728527E+02        3  36  15  15  # A0-tau-tau eff. coupling^2, normalised to SM
#
Block HiggsBoundsInputHiggsCouplingsBosons
    9.99999769E-01        3  25  24  24  # h0-W-W eff. coupling^2, normalised to SM
    2.31214803E-07        3  35  24  24  # H0-W-W eff. coupling^2, normalised to SM
    0.00000000E+00        3  36  24  24  # A0-W-W eff. coupling^2, normalised to SM
#
    9.99999769E-01        3  25  23  23  # h0-Z-Z eff. coupling^2, normalised to SM
    2.31214803E-07        3  35  23  23  # H0-Z-Z eff. coupling^2, normalised to SM
    0.00000000E+00        3  36  23  23  # A0-Z-Z eff. coupling^2, normalised to SM
#
    1.25811425E+00        3  25  21  21  # h0-g-g eff. coupling^2, normalised to SM
    1.14418263E-02        3  35  21  21  # H0-g-g eff. coupling^2, normalised to SM
    1.12870206E-01        3  36  21  21  # A0-g-g eff. coupling^2, normalised to SM
#
    0.00000000E+00        3  25  25  23  # h0-h0-Z eff. coupling^2, normalised to SM
    0.00000000E+00        3  35  25  23  # H0-h0-Z eff. coupling^2, normalised to SM
    2.31214803E-07        3  36  25  23  # A0-h0-Z eff. coupling^2, normalised to SM
    0.00000000E+00        3  35  35  23  # H0-H0-Z eff. coupling^2, normalised to SM
    9.99999769E-01        3  36  35  23  # A0-H0-Z eff. coupling^2, normalised to SM
    0.00000000E+00        3  36  36  23  # A0-A0-Z eff. coupling^2, normalised to SM
#
    0.00000000E+00        4  25  21  21  23  # h0-g-g-Z eff. coupling^2, normalised to SM
    0.00000000E+00        4  35  21  21  23  # H0-g-g-Z eff. coupling^2, normalised to SM
    0.00000000E+00        4  36  21  21  23  # A0-g-g-Z eff. coupling^2, normalised to SM
Block SPhenoLowEnergy  # low energy observables
    1    3.65971283E-04   # BR(b -> s gamma)
    2    1.58787773E-06   # BR(b -> s mu+ mu-)
    3    3.52675717E-05   # BR(b -> s nu nu)
    4    3.57141876E-15   # BR(Bd -> e+ e-)
    5    1.52565945E-10   # BR(Bd -> mu+ mu-)
    6    3.18789300E-08   # BR(Bd -> tau+ tau-)
    7    1.21846360E-13   # BR(Bs -> e+ e-)
    8    5.20523768E-09   # BR(Bs -> mu+ mu-)
    9    1.10199802E-06   # BR(Bs -> tau+ tau-)
   10    9.05983614E-05   # BR(B_u -> tau nu)
   11    9.35846388E-01   # BR(B_u -> tau nu)/BR(B_u -> tau nu)_SM
   12    5.42550877E-01   # |Delta(M_Bd)| [ps^-1] 
   13    1.93606190E+01   # |Delta(M_Bs)| [ps^-1] 
   14    0.00000000E+00   # neutron EDM according to the chiral quark model
   15    0.00000000E+00   # neutron EDM according to the relativistic quark-parton model
   16    2.15996049E-03   # epsilon_K
   17    2.28169267E-15   # Delta(M_K)
   18    2.48069466E-11   # BR(K^0 -> pi^0 nu nu)
   19    8.29223504E-11   # BR(K^+ -> pi^+ nu nu)
   20    2.10210369E-16   # Delta(g-2)_electron/2
   21    8.98715638E-12   # Delta(g-2)_muon/2
   22    2.54255975E-09   # Delta(g-2)_tau/2
   23    0.00000000E+00   # electric dipole moment of the electron
   24    0.00000000E+00   # electric dipole moment of the muon
   25    0.00000000E+00   # electric dipole moment of the tau
   26    0.00000000E+00   # Br(mu -> e gamma)
   27    0.00000000E+00   # Br(tau -> e gamma)
   28    0.00000000E+00   # Br(tau -> mu gamma)
   29    0.00000000E+00   # Br(mu -> 3 e)
   30    0.00000000E+00   # Br(tau -> 3 e)
   31    0.00000000E+00   # Br(tau -> 3 mu)
   39    5.48925445E-05   # Delta(rho_parameter)
   40    0.00000000E+00   # BR(Z -> e mu)
   41    0.00000000E+00   # BR(Z -> e tau)
   42    0.00000000E+00   # BR(Z -> mu tau)
Block FWCOEF Q=  1.60000000E+02  # Wilson coefficients at scale Q
#    id        order  M        value         comment
     0305 4422   00   0    -1.88819110E-01   # C7
     0305 4422   00   2    -2.32937495E-01   # C7
     0305 4322   00   2    -1.08427813E-03   # C7'
     0305 6421   00   0    -9.52278348E-02   # C8
     0305 6421   00   2    -1.51381656E-01   # C8
     0305 6321   00   2    -1.24517794E-03   # C8'
 03051111 4133   00   0     1.62038152E+00   # C9 e+e-
 03051111 4133   00   2     1.62085503E+00   # C9 e+e-
 03051111 4233   00   2     1.29117338E-05   # C9' e+e-
 03051111 4137   00   0    -4.44307363E+00   # C10 e+e-
 03051111 4137   00   2    -4.44287759E+00   # C10 e+e-
 03051111 4237   00   2    -9.32680035E-05   # C10' e+e-
 03051313 4133   00   0     1.62038152E+00   # C9 mu+mu-
 03051313 4133   00   2     1.62085494E+00   # C9 mu+mu-
 03051313 4233   00   2     1.29066645E-05   # C9' mu+mu-
 03051313 4137   00   0    -4.44307363E+00   # C10 mu+mu-
 03051313 4137   00   2    -4.44287769E+00   # C10 mu+mu-
 03051313 4237   00   2    -9.32629708E-05   # C10' mu+mu-
 03051212 4137   00   0     1.50535012E+00   # C11 nu_1 nu_1
 03051212 4137   00   2     1.50530886E+00   # C11 nu_1 nu_1
 03051212 4237   00   2     2.01952117E-05   # C11' nu_1 nu_1
 03051414 4137   00   0     1.50535012E+00   # C11 nu_2 nu_2
 03051414 4137   00   2     1.50530886E+00   # C11 nu_2 nu_2
 03051414 4237   00   2     2.01963078E-05   # C11' nu_2 nu_2
 03051616 4137   00   0     1.50535012E+00   # C11 nu_3 nu_3
 03051616 4137   00   2     1.50530886E+00   # C11 nu_3 nu_3
 03051616 4237   00   2     2.05052068E-05   # C11' nu_3 nu_3
Block IMFWCOEF Q=  1.60000000E+02  # Im(Wilson coefficients) at scale Q
#    id        order  M        value         comment
     0305 4422   00   0     3.85830591E-07   # C7
     0305 4422   00   2    -2.04729729E-07   # C7
     0305 4322   00   2     1.72256311E-06   # C7'
     0305 6421   00   0     3.30489417E-07   # C8
     0305 6421   00   2     2.42684065E-05   # C8
     0305 6321   00   2     1.33654677E-06   # C8'
 03051111 4133   00   2    -7.52219347E-09   # C9 e+e-
 03051111 4233   00   2     2.22644043E-06   # C9' e+e-
 03051111 4137   00   2     2.27050196E-06   # C10 e+e-
 03051111 4237   00   2    -1.65799401E-05   # C10' e+e-
 03051313 4133   00   2    -7.52312964E-09   # C9 mu+mu-
 03051313 4233   00   2     2.22644025E-06   # C9' mu+mu-
 03051313 4137   00   2     2.27050256E-06   # C10 mu+mu-
 03051313 4237   00   2    -1.65799406E-05   # C10' mu+mu-
 03051212 4137   00   2    -4.70700165E-07   # C11 nu_1 nu_1
 03051212 4237   00   2     3.59027055E-06   # C11' nu_1 nu_1
 03051414 4137   00   2    -4.70700133E-07   # C11 nu_2 nu_2
 03051414 4237   00   2     3.59027055E-06   # C11' nu_2 nu_2
 03051616 4137   00   2    -4.70691187E-07   # C11 nu_3 nu_3
 03051616 4237   00   2     3.59027054E-06   # C11' nu_3 nu_3
