BLOCK SPINFO
   1   SPheno
   2   v4.0.5be

BLOCK SPHENOINFO
   1   2
   2   2

BLOCK MODSEL
   1   0

BLOCK MINPAR
   3    40.041767
   4    1

BLOCK EXTPAR
   0    1346.2496
   1    239.77066
   2   -676.08086
   3    3000
   11    3377.7162
   12    1644.4677
   13    267.95471
   23    254.40719
   25    38.968547
   26    3638.657
   31    1388.2084
   32    1388.2084
   33    1074.2439
   34    1166.6574
   35    1166.6574
   36    272.611
   41    5000
   42    5000
   43    1641.3164
   44    5000
   45    5000
   46    1251.4894
   47    5000
   48    5000
   49    900.07402

BLOCK SMINPUTS
   1    127.90897
   2    1.1663787e-05
   3    0.1184
   4    91.1876
   5    4.18
   6    173.2
   7    1.777
   8    0
   11    0.00051099893
   12    0
   13    0.10565837
   14    0
   21    0.005
   22    0.0025
   23    0.095
   24    1.27

BLOCK GAUGE Q=  1346.2496
   1    0.35536298
   2    0.66519887
   3    1.219778

BLOCK YU Q=  1346.2496
   1   1    8.3871323e-06
   2   2    0.0042606632
   3   3    1.0132329

BLOCK YD Q=  1346.2496
   1   1    0.00065676191
   2   2    0.012478476
   3   3    0.65130201

BLOCK YE Q=  1346.2496
   1   1    0.00011460976
   2   2    0.023697663
   3   3    0.3985557

BLOCK AU Q=  1346.2496
   1   1    0
   2   2    0
   3   3    3377.7162

BLOCK AD Q=  1346.2496
   1   1    0
   2   2    0
   3   3    1644.4677

BLOCK AE Q=  1346.2496
   1   1    0
   2   2    0
   3   3    267.95471

BLOCK MSOFT Q=  1346.2496
   1    239.77066
   2   -676.08086
   3    3000
   21    13157932
   22    8725.4929
   31    1388.2084
   32    1388.2084
   33    1074.2439
   34    1166.6574
   35    1166.6574
   36    272.611
   41    5000
   42    5000
   43    1641.3164
   44    5000
   45    5000
   46    1251.4894
   47    5000
   48    5000
   49    900.07402

BLOCK MASS
   6    173.2
   23    91.1876
   24    80.429995
   15    1.777
   25    125.3708
   35    3636.7984
   36    3638.657
   37    3638.0952
   1000001    5023.6111
   2000001    5013.2809
   1000002    5023.1727
   2000002    5015.6451
   1000003    5023.6164
   2000003    5013.2897
   1000004    5023.1778
   2000004    5015.646
   1000005    865.23295
   2000005    1600.6634
   1000006    1089.4817
   2000006    1663.5322
   1000011    1394.5198
   2000011    1165.2224
   1000012    1391.9052
   1000013    1394.5269
   2000013    1165.2387
   1000014    1391.9115
   1000015    294.38603
   2000015    1085.7224
   1000016    1082.2713
   1000021    3181.1092
   1000022    215.25702
   1000023   -247.01613
   1000025    281.45857
   1000035   -723.94367
   1000024    248.94475
   1000037    724.14871

BLOCK ALPHA
      -0.025007049

BLOCK HMIX Q=  1346.2496
   1    254.40719
   2    38.968547
   3    244.08009
   4    13239824

BLOCK STOPMIX
   1   1   -0.34696119
   1   2    0.93787949
   2   1   -0.93787949
   2   2   -0.34696119

BLOCK SBOTMIX
   1   1    0.0094066667
   1   2    0.99995576
   2   1   -0.99995576
   2   2    0.0094066667

BLOCK STAUMIX
   1   1    0.015253414
   1   2    0.99988366
   2   1   -0.99988366
   2   2    0.015253414

BLOCK NMIX
   1   1   -0.78215929
   1   2   -0.036219884
   1   3   -0.47157274
   1   4    0.40562806
   2   1    0.061887713
   2   2    0.11778723
   2   3   -0.70814465
   2   4   -0.69341707
   3   1    0.61997054
   3   2   -0.048228324
   3   3   -0.52386441
   3   4    0.58213112
   4   1    0.0057699043
   4   2   -0.99120549
   4   3   -0.041429335
   4   4   -0.12554681

BLOCK UMIX
   1   1   -0.058952178
   1   2    0.99826081
   2   1   -0.99826081
   2   2   -0.058952178

BLOCK VMIX
   1   1    0.17844723
   1   2    0.98394948
   2   1    0.98394948
   2   2   -0.17844723

BLOCK HIGGSBOUNDSINPUTHIGGSCOUPLINGSFERMIONS
       0, 1518.5477,3,36,15,15

BLOCK HIGGSBOUNDSINPUTHIGGSCOUPLINGSBOSONS
       0,4,36,21,21,23

BLOCK SPHENOLOWENERGY
   1    0.00037063698
   2    1.5859306e-06
   3    3.5216019e-05
   4    2.708147e-15
   5    1.1568938e-10
   6    2.4246076e-08
   7    9.0772666e-14
   8    3.8778196e-09
   9    8.2347036e-07
   10    9.6011341e-05
   11    0.9917604
   12    0.54375329
   13    19.425427
   14    0
   15    0
   16    0.0021663009
   17    2.2817504e-15
   18    2.4765009e-11
   19    8.2824326e-11
   20   -9.6763918e-15
   21   -4.1371551e-10
   22   -1.2910999e-07
   23    0
   24    0
   25    0
   26    0
   27    0
   28    0
   29    0
   30    0
   31    0
   39    8.3973629e-05
   40    0
   41    0
   42    0

BLOCK FWCOEF Q=  160
   305   4422   0   0   -0.18881911
   305   4422   0   2   -0.24712755
   305   4322   0   2   -0.00041525054
   305   6421   0   0   -0.095227835
   305   6421   0   2   -0.12506162
   305   6321   0   2   -0.0002449157
   3051111   4133   0   0    1.5884123
   3051111   4133   0   2    1.5901265
   3051111   4233   0   2    0.00021293911
   3051111   4137   0   0   -4.4111044
   3051111   4137   0   2   -4.4054338
   3051111   4237   0   2   -0.0016643264
   3051313   4133   0   0    1.5884123
   3051313   4133   0   2    1.5901232
   3051313   4233   0   2    0.00021293791
   3051313   4137   0   0   -4.4111044
   3051313   4137   0   2   -4.4054371
   3051313   4237   0   2   -0.0016643292
   3051212   4137   0   0    1.5053501
   3051212   4137   0   2    1.5041271
   3051212   4237   0   2    0.00036300047
   3051414   4137   0   0    1.5053501
   3051414   4137   0   2    1.5041271
   3051414   4237   0   2    0.0003630005
   3051616   4137   0   0    1.5053501
   3051616   4137   0   2    1.5044115
   3051616   4237   0   2    0.00036304903

BLOCK IMFWCOEF Q=  160
   305   4422   0   0    3.8576566e-07
   305   4422   0   2   -1.9556833e-05
   305   4322   0   2   -5.8783467e-06
   305   6421   0   0    3.304338e-07
   305   6421   0   2   -1.3902679e-05
   305   6321   0   2   -2.29692e-06
   3051111   4133   0   2    1.7653247e-07
   3051111   4233   0   2    4.2894371e-06
   3051111   4137   0   2    7.4360208e-08
   3051111   4237   0   2   -3.3535811e-05
   3051313   4133   0   2    1.7646661e-07
   3051313   4233   0   2    4.2894187e-06
   3051313   4137   0   2    7.4370978e-08
   3051313   4237   0   2   -3.3535864e-05
   3051212   4137   0   2    2.163038e-07
   3051212   4237   0   2    7.3144086e-06
   3051414   4137   0   2    2.1630492e-07
   3051414   4237   0   2    7.3144086e-06
   3051616   4137   0   2    2.3146336e-07
   3051616   4237   0   2    7.3151458e-06

DECAY 23  2.4952


DECAY 24  2.085


DECAY 2000011  5.3574844
    0.62371039   2    1000022    11
    0.37245794   2    1000025    11
    0.003817909   2    1000023    11

DECAY 1000011  11.552649
    0.56483575   2   -1000037    12
    0.27682658   2    1000035    11
    0.10438477   2    1000022    11
    0.039148197   2    1000025    11
    0.011343354   2    1000023    11
    0.003461346   2   -1000024    12

DECAY 2000013  5.3812386
    0.6214677   2    1000022    13
    0.37141032   2    1000025    13
    0.0049078313   2    1000023    13
    0.0021957526   2   -1000024    14

DECAY 1000013  11.567427
    0.56412122   2   -1000037    14
    0.27647774   2    1000035    13
    0.10453767   2    1000022    13
    0.039438304   2    1000025    13
    0.011962467   2    1000023    13
    0.0034569437   2   -1000024    14

DECAY 1000015  0.36235281
    0.65798673   2    1000022    15
    0.20823165   2   -1000024    16
    0.11524507   2    1000023    15
    0.018536547   2    1000025    15

DECAY 2000015  8.9664805
    0.3276419   2   -1000037    16
    0.18263194   2    1000023    15
    0.17783781   2    1000022    15
    0.1609027   2    1000035    15
    0.13082057   2    1000025    15
    0.0090431255   2    1000015    25
    0.0087469472   2    1000015    23
    0.0023750061   2   -1000024    16

DECAY 1000012  11.601534
    0.54390629   2    1000037    11
    0.27781473   2    1000035    12
    0.073273482   2    1000022    12
    0.06993536   2    1000025    12
    0.031514394   2    1000024    11
    0.0035557438   2    1000023    12

DECAY 1000014  11.616201
    0.54322778   2    1000037    13
    0.27746704   2    1000035    14
    0.073181323   2    1000022    14
    0.069847423   2    1000025    14
    0.032725166   2    1000024    13
    0.0035512721   2    1000023    14

DECAY 1000016  9.0079325
    0.36975213   2    1000024    15
    0.31266112   2    1000037    15
    0.15962225   2    1000035    16
    0.071044618   2    1000022    16
    0.066183572   2    1000025    16
    0.017325368   2    1000015    24
    0.0034109426   2    1000023    16

DECAY 2000001  143.99404
    0.98065316   2    1000021    1
    0.011847577   2    1000022    1
    0.0074241081   2    1000025    1

DECAY 1000001  206.60628
    0.68867191   2    1000021    1
    0.20452914   2   -1000037    2
    0.10103571   2    1000035    1
    0.0026761934   2    1000025    1
    0.001214176   2    1000023    1
    0.0011326462   2    1000022    1
    0.00074023527   2   -1000024    2

DECAY 2000003  144.02578
    0.98044342   2    1000021    3
    0.011868807   2    1000022    3
    0.0074518141   2    1000025    3
    0.00012788123   2    1000023    3
    0.00010692503   2   -1000024    4

DECAY 1000003  206.62414
    0.68861501   2    1000021    3
    0.20451196   2   -1000037    4
    0.10102721   2    1000035    3
    0.0026964501   2    1000025    3
    0.0012515526   2    1000023    3
    0.0011491896   2    1000022    3
    0.00074862669   2   -1000024    4

DECAY 1000005  12.07092
    0.45852936   2   -1000024    6
    0.25645995   2    1000023    5
    0.14399888   2    1000025    5
    0.14094619   2    1000022    5

DECAY 2000005  106.76637
    0.46783842   2    1000006   -24
    0.27501548   2   -1000024    6
    0.091600964   2   -1000037    6
    0.061067354   2    1000023    5
    0.041299294   2    1000035    5
    0.034502011   2    1000025    5
    0.02749882   2    1000022    5
    0.00077789784   2    1000005    25
    0.00039976091   2    1000005    23

DECAY 2000002  152.60263
    0.92694569   2    1000021    2
    0.044737927   2    1000022    2
    0.028034276   2    1000025    2
    0.00027976047   2    1000023    2

DECAY 1000002  206.60444
    0.68845702   2    1000021    2
    0.19868976   2    1000037    1
    0.10060901   2    1000035    2
    0.0067821678   2    1000024    1
    0.0032840374   2    1000022    2
    0.0017669446   2    1000023    2
    0.00041105548   2    1000025    2

DECAY 2000004  152.60627
    0.92692383   2    1000021    4
    0.044738793   2    1000022    4
    0.028037626   2    1000025    4
    0.00028543119   2    1000023    4

DECAY 1000004  206.62222
    0.68840006   2    1000021    4
    0.19867313   2    1000037    3
    0.10060057   2    1000035    4
    0.0068560712   2    1000024    3
    0.0032852003   2    1000022    4
    0.0017710001   2    1000023    4
    0.00041397489   2    1000025    4

DECAY 1000006  41.61888
    0.47002582   2    1000024    5
    0.23745514   2    1000023    6
    0.21110555   2    1000025    6
    0.080236237   2    1000022    6
    0.00056323903   2    1000037    5
    0.00029352808   2    1000035    6
    0.00019391638   2    1000022    4
    0.00010178491   2    1000023    4

DECAY 2000006  110.81925
    0.26779074   2    1000006    23
    0.20293289   2    1000006    25
    0.13140986   2    1000023    6
    0.12176474   2    1000024    5
    0.090034726   2    1000037    5
    0.076307308   2    1000025    6
    0.064773126   2    1000022    6
    0.044146878   2    1000035    6
    0.00083973183   2    1000005    24

DECAY 1000024  2.1807822e-05
    0.33049508   3    1000022   -1    2
    0.32831706   3    1000022   -3    4
    0.12095533   3    1000022   -15    16
    0.11011485   3    1000022   -13    14
    0.11011462   3    1000022   -11    12

DECAY 1000037  5.9151311
    0.26262635   2    1000023    24
    0.2501002   2    1000024    23
    0.22811111   2    1000024    25
    0.14500787   2    1000025    24
    0.10952538   2    1000022    24
    0.0020768322   3    1000023   -5    6
    0.00091946558   3    1000025   -5    6
    0.00087067408   3    1000022   -5    6
    0.00058092522   3    1000024    6   -6
    0.00015154447   2   -1000015    16

DECAY 1000022 -1


DECAY 1000023  3.9664378e-05
    0.20115413   3    1000022    12   -12
    0.15048362   3    1000022    1   -1
    0.15046887   3    1000022    3   -3
    0.12682512   3    1000022    5   -5
    0.11736619   3    1000022    2   -2
    0.11499355   3    1000022    4   -4
    0.037830174   3    1000022    15   -15
    0.033907943   3    1000022    11   -11
    0.033903364   3    1000022    13   -13
    0.033067039   2    1000022    22

DECAY 1000025  0.00016681938
    0.11770152   3    1000023    12   -12
    0.087985203   3    1000023    1   -1
    0.087977942   3    1000023    3   -3
    0.076335866   3    1000023    5   -5
    0.068620421   3    1000023    2   -2
    0.067447911   3    1000023    4   -4
    0.058607192   3    1000024    1   -2
    0.058607192   3   -1000024   -1    2
    0.058191101   3    1000024    3   -4
    0.058191101   3   -1000024   -3    4
    0.046099282   3    1000022    15   -15
    0.026215247   3    1000023    15   -15
    0.021867329   3    1000024    15   -16
    0.021867329   3   -1000024   -15    16
    0.021395813   2    1000023    22
    0.019872885   3    1000023    11   -11
    0.019870637   3    1000023    13   -13
    0.019543501   3    1000024    11   -12
    0.019543501   3   -1000024   -11    12
    0.019543463   3    1000024    13   -14
    0.019543463   3   -1000024   -13    14
    0.0010800107   3    1000022    5   -5
    0.00093405746   3    1000022    12   -12
    0.00064600757   3    1000022    1   -1
    0.00064600291   3    1000022    3   -3
    0.00050664158   3    1000022    2   -2
    0.00050487704   3    1000022    4   -4
    0.00045177694   2    1000022    22
    0.00010142025   3    1000022    13   -13
    0.00010130941   3    1000022    11   -11

DECAY 1000035  7.0404966
    0.22695481   2    1000024   -24
    0.22695481   2   -1000024    24
    0.14788712   2    1000023    25
    0.10564349   2    1000025    23
    0.10286379   2    1000025    25
    0.071178304   2    1000022    23
    0.070035224   2    1000022    25
    0.043792075   2    1000023    23
    0.0020929622   3    1000024    5   -6
    0.0020929622   3   -1000024   -5    6
    0.00013639084   3    1000023    6   -6
    0.00010195659   3    1000022    6   -6

DECAY 1000021  261.54095
    0.15435435   2    1000005   -5
    0.15435435   2   -1000005    5
    0.15134437   2    1000006   -6
    0.15134437   2   -1000006    6
    0.10040409   2    2000005   -5
    0.10040409   2   -2000005    5
    0.085520702   2    2000006   -6
    0.085520702   2   -2000006    6
    0.0082992294   2    1000006   -4
    0.0082992294   2   -1000006    4

DECAY 25  0.003925931
    0.56812567   2   -5    5
    0.23472128   2   -24    24
    0.070801132   2    21    21
    0.0653069   2   -15    15
    0.028622678   2    23    23
    0.028102353   2   -4    4
    0.0023501954   2    22    22
    0.0015292398   2    22    23
    0.00022656487   2   -13    13
    0.00021324527   2   -3    3
    5.8960138e-07   2   -1    1
    1.4481718e-07   2   -2    2
    5.0934251e-09   2   -11    11

DECAY 35  108.1288
    0.42161646   2   -5    5
    0.12138465   2   -1000024    1000037
    0.12138465   2   -1000037    1000024
    0.10263388   2   -15    15
    0.063085346   2    1000023    1000035
    0.036844215   2    1000025    1000035
    0.024086924   2    1000022    1000035
    0.023149209   2   -2000005    1000005
    0.023149209   2   -1000005    2000005
    0.014273616   2    1000022    1000023
    0.010043776   2    1000025    1000025
    0.0097316786   2   -1000024    1000024
    0.0082565603   2    1000022    1000022
    0.0068189934   2    1000023    1000025
    0.0027206003   2   -2000006    1000006
    0.0027206003   2   -1000006    2000006
    0.0023784122   2   -1000006    1000006
    0.0012732323   2    1000023    1000023
    0.0010609221   2   -1000037    1000037
    0.0010089269   2   -2000006    2000006
    0.00057493169   2   -6    6
    0.00053572876   2    1000035    1000035
    0.00035662952   2   -13    13
    0.00027754467   2   -2000015    1000015
    0.00027754467   2   -1000015    2000015
    0.00021190943   2   -3    3
    0.00011470561   2    1000022    1000025
    1.2041102e-05   2   -1000005    1000005
    6.8213491e-06   2    21    21
    4.3873456e-06   2    25    25
    3.9898e-06   2   -2000005    2000005
    5.8588705e-07   2   -1    1
    3.9492083e-07   2   -1000015    1000015
    2.4479631e-07   2   -2000015    2000015
    1.1149425e-07   2    23    23
    9.1424161e-08   2    22    23
    4.8154933e-08   2    22    22
    2.7540649e-08   2   -2000011    2000011
    2.7351486e-08   2   -2000013    2000013
    2.6373803e-08   2   -24    24
    2.1169866e-08   2   -1000011    1000011
    2.0942726e-08   2   -1000013    1000013
    8.8065749e-09   2   -4    4
    8.0092851e-09   2   -11    11
    4.1168508e-10   2   -2000013    1000013
    4.1168508e-10   2   -1000013    2000013
    4.5398562e-14   2   -2    2
    9.6294956e-15   2   -2000011    1000011
    9.6294956e-15   2   -1000011    2000011

DECAY 36  104.16837
    0.40674951   2   -5    5
    0.126223   2   -1000024    1000037
    0.126223   2   -1000037    1000024
    0.099018393   2   -15    15
    0.06278446   2    1000023    1000035
    0.039688373   2    1000025    1000035
    0.026414126   2    1000022    1000035
    0.024042392   2   -2000005    1000005
    0.024042392   2   -1000005    2000005
    0.013564528   2    1000022    1000023
    0.011935388   2    1000025    1000025
    0.0099553505   2   -1000024    1000024
    0.0094817249   2    1000022    1000022
    0.0059865798   2    1000023    1000025
    0.0046718085   2   -2000006    1000006
    0.0046718085   2   -1000006    2000006
    0.0012220696   2    1000023    1000023
    0.00096019602   2   -1000037    1000037
    0.00058967373   2   -6    6
    0.0004869965   2    1000035    1000035
    0.00034406672   2   -13    13
    0.00028828913   2   -2000015    1000015
    0.00028828913   2   -1000015    2000015
    0.00020443409   2   -3    3
    0.00015520649   2    1000022    1000025
    7.1135844e-06   2    21    21
    5.6521791e-07   2   -1    1
    2.2159676e-07   2    23    25
    2.4662569e-08   2    22    23
    9.0830223e-09   2   -4    4
    7.7271143e-09   2   -11    11
    1.2451098e-09   2    22    22
    4.2875157e-10   2   -2000013    1000013
    4.2875157e-10   2   -1000013    2000013
    2.3390856e-13   2    23    35
    4.6826382e-14   2   -2    2
    1.0028544e-14   2   -2000011    1000011
    1.0028544e-14   2   -1000011    2000011
    3.022605e-38   2    25    25

DECAY 37  108.73872
    0.42094021   2   -5    6
    0.12825514   2    1000023    1000037
    0.12307012   2    1000024    1000035
    0.10727823   2   -15    16
    0.07407165   2    1000025    1000037
    0.048942286   2    1000022    1000037
    0.04562415   2   -1000005    2000006
    0.034029683   2    1000022    1000024
    0.0068359234   2    1000024    1000025
    0.0053347647   2   -2000005    1000006
    0.0024752933   2   -1000005    1000006
    0.0011411206   2    1000023    1000024
    0.00062317916   2   -5    4
    0.00055239856   2   -1000015    1000016
    0.00037926678   2   -13    14
    0.00023781225   2   -2000005    2000006
    0.00019244051   2   -3    4
    9.0325294e-06   2   -3    2
    4.4501418e-06   2   -5    2
    1.4357131e-06   2   -3    6
    5.3408846e-07   2   -1    2
    3.4199244e-07   2   -2000015    1000016
    2.1227379e-07   2    24    25
    1.0766642e-07   2   -2000011    1000012
    1.0740183e-07   2   -2000013    1000014
    5.2724375e-08   2   -1    6
    2.547708e-08   2   -1    4
    1.674961e-08   2    1000035    1000037
    8.8710894e-09   2   -11    12
    7.8520789e-10   2   -1000013    1000014
    4.5925243e-14   2    24    35
    1.8364964e-14   2   -1000011    1000012

DECAY 6  2.43
    1   2    5    24

DECAY 15 -1
