BLOCK SPINFO
   1   SPheno
   2   v4.0.5be

BLOCK SPHENOINFO
   1   2
   2   2

BLOCK MODSEL
   1   0

BLOCK MINPAR
   3    25.615624
   4   -1

BLOCK EXTPAR
   0    1511.7873
   1    1951.054
   2   -655.21063
   3    3000
   11   -2285.8738
   12   -208.21026
   13   -737.67672
   23   -244.2348
   25    24.810347
   26    4988.1141
   31    632.63845
   32    632.63845
   33    1683.7497
   34    1659.9374
   35    1659.9374
   36    1198.4853
   41    5000
   42    5000
   43    1184.4039
   44    5000
   45    5000
   46    1955.2158
   47    5000
   48    5000
   49    1357.8943

BLOCK SMINPUTS
   1    127.90897
   2    1.1663787e-05
   3    0.1184
   4    91.1876
   5    4.18
   6    173.2
   7    1.777
   8    0
   11    0.00051099893
   12    0
   13    0.10565837
   14    0
   21    0.005
   22    0.0025
   23    0.095
   24    1.27

BLOCK GAUGE Q=  1511.7873
   1    0.35536298
   2    0.66519887
   3    1.219778

BLOCK YU Q=  1511.7873
   1   1    8.3911798e-06
   2   2    0.0042627193
   3   3    1.0137219

BLOCK YD Q=  1511.7873
   1   1    0.00041834648
   2   2    0.0079485831
   3   3    0.41486862

BLOCK YE Q=  1511.7873
   1   1    7.300452e-05
   2   2    0.015095019
   3   3    0.25387339

BLOCK AU Q=  1511.7873
   1   1    0
   2   2    0
   3   3   -2285.8737

BLOCK AD Q=  1511.7873
   1   1    0
   2   2    0
   3   3   -208.21026

BLOCK AE Q=  1511.7873
   1   1    0
   2   2    0
   3   3   -737.67672

BLOCK MSOFT Q=  1511.7873
   1    1951.054
   2   -655.21063
   3    3000
   21    24665363
   22    14358.443
   31    632.63845
   32    632.63845
   33    1683.7497
   34    1659.9374
   35    1659.9374
   36    1198.4853
   41    5000
   42    5000
   43    1184.4039
   44    5000
   45    5000
   46    1955.2158
   47    5000
   48    5000
   49    1357.8943

BLOCK MASS
   6    173.2
   23    91.1876
   24    80.429995
   15    1.777
   25    121.45323
   35    4986.7237
   36    4988.1141
   37    4987.6994
   1000001    5027.6246
   2000001    5016.5574
   1000002    5027.1677
   2000002    5021.0106
   1000003    5027.6276
   2000003    5016.5622
   1000004    5027.1706
   2000004    5021.0114
   1000005    1177.3454
   2000005    1381.6202
   1000006    1165.0447
   2000006    1961.7278
   1000011    657.15406
   2000011    1656.6949
   1000012    651.82069
   1000013    657.18779
   2000013    1656.7196
   1000014    651.8548
   1000015    1202.3535
   2000015    1697.396
   1000016    1695.0615
   1000021    3188.7286
   1000022   -240.46667
   1000023    250.16767
   1000025   -698.38022
   1000035    1949.5745
   1000024    242.78961
   1000037    698.6193

BLOCK ALPHA
      -0.039058526

BLOCK HMIX Q=  1511.7873
   1   -244.2348
   2    24.810347
   3    244.01787
   4    24881282

BLOCK STOPMIX
   1   1    0.99127513
   1   2    0.13180905
   2   1   -0.13180905
   2   2    0.99127513

BLOCK SBOTMIX
   1   1   -0.99958201
   1   2    0.02891015
   2   1   -0.02891015
   2   2   -0.99958201

BLOCK STAUMIX
   1   1   -0.0066562746
   1   2    0.99997785
   2   1   -0.99997785
   2   2   -0.0066562746

BLOCK NMIX
   1   1   -0.014296915
   1   2   -0.13001482
   1   3   -0.71017724
   1   4    0.69176589
   2   1    0.01739449
   2   2    0.058939269
   2   3   -0.70213583
   2   4   -0.70938626
   3   1    0.0022514541
   3   2   -0.9897585
   3   3    0.051476107
   3   4   -0.13312874
   4   1    0.99974395
   4   2   -0.00065580137
   4   3    0.0019445525
   4   4    0.022535034

BLOCK UMIX
   1   1   -0.073128804
   1   2   -0.9973225
   2   1   -0.9973225
   2   2    0.073128804

BLOCK VMIX
   1   1    0.18932979
   1   2    0.98191355
   2   1    0.98191355
   2   2   -0.18932979

BLOCK HIGGSBOUNDSINPUTHIGGSCOUPLINGSFERMIONS
       0, 615.55333,3,36,15,15

BLOCK HIGGSBOUNDSINPUTHIGGSCOUPLINGSBOSONS
       0,4,36,21,21,23

BLOCK SPHENOLOWENERGY
   1    0.00034927694
   2    1.5855784e-06
   3    3.5201739e-05
   4    2.2812242e-15
   5    9.7451544e-11
   6    2.041178e-08
   7    7.7052979e-14
   8    3.2917086e-09
   9    6.9858517e-07
   10    9.6647972e-05
   11    0.99833655
   12    0.54282536
   13    19.394754
   14    0
   15    0
   16    0.0021611476
   17    2.2816973e-15
   18    2.477499e-11
   19    8.2840682e-11
   20    9.8715326e-15
   21    4.2208071e-10
   22    5.9354987e-08
   23    0
   24    0
   25    0
   26    0
   27    0
   28    0
   29    0
   30    0
   31    0
   39    7.3456195e-05
   40    0
   41    0
   42    0

BLOCK FWCOEF Q=  160
   305   4422   0   0   -0.18881911
   305   4422   0   2   -0.2232025
   305   4322   0   2   -0.00020612891
   305   6421   0   0   -0.095227835
   305   6421   0   2   -0.11251377
   305   6321   0   2   -0.00011934054
   3051111   4133   0   0    1.592216
   3051111   4133   0   2    1.5931569
   3051111   4233   0   2    0.00011334464
   3051111   4137   0   0   -4.4149081
   3051111   4137   0   2   -4.4082025
   3051111   4237   0   2   -0.00088038012
   3051313   4133   0   0    1.592216
   3051313   4133   0   2    1.5931552
   3051313   4233   0   2    0.00011334447
   3051313   4137   0   0   -4.4149081
   3051313   4137   0   2   -4.4082042
   3051313   4237   0   2   -0.00088038083
   3051212   4137   0   0    1.5053501
   3051212   4137   0   2    1.5039102
   3051212   4237   0   2    0.00019186032
   3051414   4137   0   0    1.5053501
   3051414   4137   0   2    1.5039102
   3051414   4237   0   2    0.00019186032
   3051616   4137   0   0    1.5053501
   3051616   4137   0   2    1.5039098
   3051616   4237   0   2    0.00019186039

BLOCK IMFWCOEF Q=  160
   305   4422   0   0    3.8580409e-07
   305   4422   0   2    1.700687e-05
   305   4322   0   2   -2.7500408e-06
   305   6421   0   0    3.3046672e-07
   305   6421   0   2    1.1626155e-05
   305   6321   0   2   -8.6751786e-07
   3051111   4133   0   2   -1.852889e-06
   3051111   4233   0   2    2.1456104e-06
   3051111   4137   0   2    1.231668e-05
   3051111   4237   0   2   -1.6667916e-05
   3051313   4133   0   2   -1.8529883e-06
   3051313   4233   0   2    2.1456076e-06
   3051313   4137   0   2    1.2316814e-05
   3051313   4237   0   2   -1.6667929e-05
   3051212   4137   0   2   -2.2781855e-06
   3051212   4237   0   2    3.6324192e-06
   3051414   4137   0   2   -2.2781876e-06
   3051414   4237   0   2    3.6324192e-06
   3051616   4137   0   2   -2.2859238e-06
   3051616   4237   0   2    3.6324119e-06

DECAY 23  2.4952


DECAY 24  2.085


DECAY 1000011  0.074039059
    0.55528479   2    1000022    11
    0.31156112   2   -1000024    12
    0.13315399   2    1000023    11

DECAY 2000011  0.0040649658
    0.59179332   2    1000023    11
    0.40114595   2    1000022    11
    0.0070190249   2    1000025    11

DECAY 1000013  0.076248507
    0.55404526   2    1000022    13
    0.30255838   2   -1000024    14
    0.14339626   2    1000023    13

DECAY 2000013  0.018491896
    0.38679324   2   -1000024    14
    0.32132148   2    1000023    13
    0.28446612   2    1000022    13
    0.0036804838   2    1000013    25
    0.0022705142   2    1000025    13
    0.0014681645   2   -1000037    14

DECAY 1000015  2.8348039
    0.49897247   2   -1000024    16
    0.25425043   2    1000022    15
    0.24566359   2    1000023    15
    0.00074118447   2   -1000037    16
    0.0003723279   2    1000025    15

DECAY 2000015  17.636854
    0.58155701   2   -1000037    16
    0.28597744   2    1000025    15
    0.067231407   2    1000022    15
    0.060214864   2    1000023    15
    0.0040510811   2   -1000024    16
    0.00049010246   2    1000015    23
    0.00047809424   2    1000015    25

DECAY 1000012  0.18978485
    0.80390674   2    1000024    11
    0.1689657   2    1000022    12
    0.027127559   2    1000023    12

DECAY 1000014  0.19197622
    0.80612849   2    1000024    13
    0.16705124   2    1000022    14
    0.026820272   2    1000023    14

DECAY 1000016  17.701844
    0.56055278   2    1000037    15
    0.28529881   2    1000025    16
    0.14611781   2    1000024    15
    0.0060605456   2    1000022    16
    0.00099425304   2    1000023    16
    0.00097579535   2    1000015    24

DECAY 2000001  142.65667
    0.98584693   2    1000021    1
    0.014142827   2    1000035    1

DECAY 1000001  206.16663
    0.68774287   2    1000021    1
    0.20535885   2   -1000037    2
    0.1012125   2    1000025    1
    0.0024738879   2    1000035    1
    0.0017361115   2    1000022    1
    0.0011426853   2   -1000024    2
    0.00033310044   2    1000023    1

DECAY 2000003  142.66969
    0.98576048   2    1000021    3
    0.014141559   2    1000035    3

DECAY 1000003  206.17506
    0.68771625   2    1000021    3
    0.20535089   2   -1000037    4
    0.1012085   2    1000025    3
    0.0024737893   2    1000035    3
    0.0017513883   2    1000022    3
    0.0011510933   2   -1000024    4
    0.00034808078   2    1000023    3

DECAY 1000005  30.911741
    0.65276038   2   -1000024    6
    0.15588055   2   -1000037    6
    0.068901317   2    1000025    5
    0.063625685   2    1000022    5
    0.05883207   2    1000023    5

DECAY 2000005  8.8092277
    0.48675658   2   -1000024    6
    0.25181663   2    1000022    5
    0.24890105   2    1000023    5
    0.00420342   2   -1000037    6
    0.0032252941   2    1000006   -24
    0.0020968991   2    1000025    5
    0.0017509898   2    1000005    25
    0.0012491373   2    1000005    23

DECAY 2000002  149.18934
    0.94578536   2    1000021    2
    0.054176354   2    1000035    2

DECAY 1000002  206.16205
    0.68752735   2    1000021    2
    0.19904705   2    1000037    1
    0.10104097   2    1000025    2
    0.0076588251   2    1000024    1
    0.0024373784   2    1000035    2
    0.0018774045   2    1000022    2
    0.00041102731   2    1000023    2

DECAY 2000004  149.19298
    0.94576248   2    1000021    4
    0.05417505   2    1000035    4

DECAY 1000004  206.17041
    0.68750066   2    1000021    4
    0.19903927   2    1000037    3
    0.10103705   2    1000025    4
    0.0076887733   2    1000024    3
    0.0024372833   2    1000035    4
    0.0018815328   2    1000022    4
    0.00041542707   2    1000023    4

DECAY 1000006  29.702016
    0.34290246   2    1000023    6
    0.32845453   2    1000022    6
    0.14522857   2    1000037    5
    0.12014772   2    1000024    5
    0.060160657   2    1000025    6
    0.0019087508   3    1000022    24    5
    0.00098342004   2    1000022    4
    0.0002138845   2    1000023    4

DECAY 2000006  127.64159
    0.29928464   2    1000024    5
    0.1799121   2    1000005    24
    0.15272427   2    1000023    6
    0.1474401   2    1000022    6
    0.1255041   2    1000006    25
    0.091223781   2    1000006    23
    0.0025325275   2    1000037    5
    0.0013058875   2    1000025    6

DECAY 1000024  1.8419808e-10
    0.52819549   3    1000022   -1    2
    0.17616979   3    1000022   -11    12
    0.17436934   3    1000022   -13    14
    0.11583642   3    1000022   -3    4
    0.005428949   3    1000022   -15    16

DECAY 1000037  6.2816146
    0.2551153   2    1000022    24
    0.24878426   2    1000023    24
    0.24227907   2    1000024    23
    0.2215082   2    1000024    25
    0.0079135819   2    1000012   -11
    0.007902392   2    1000014   -13
    0.0064598726   2   -1000011    12
    0.0064496867   2   -1000013    14
    0.001615364   3    1000023   -5    6
    0.0015162452   3    1000022   -5    6
    0.00044394774   3    1000024    6   -6

DECAY 1000022 -1


DECAY 1000023  3.2441799e-07
    0.33791359   2    1000022    22
    0.13630867   3    1000022    12   -12
    0.10191315   3    1000022    1   -1
    0.10178769   3    1000022    3   -3
    0.079483754   3    1000022    2   -2
    0.061673661   3    1000022    4   -4
    0.022990671   3    1000022    11   -11
    0.0229465   3    1000022    13   -13
    0.021739264   3    1000024    1   -2
    0.021739264   3   -1000024   -1    2
    0.01844729   3    1000024    3   -4
    0.01844729   3   -1000024   -3    4
    0.013246477   3    1000022    15   -15
    0.0072470593   3    1000024    11   -12
    0.0072470593   3   -1000024   -11    12
    0.0072385768   3    1000024    13   -14
    0.0072385768   3   -1000024   -13    14
    0.0052785959   3    1000024    15   -16
    0.0052785959   3   -1000024   -15    16
    0.0018342635   3    1000022    5   -5

DECAY 1000025  7.3042182
    0.22745281   2    1000024   -24
    0.22745281   2   -1000024    24
    0.18761709   2    1000023    23
    0.15261884   2    1000022    25
    0.14196352   2    1000023    25
    0.034943705   2    1000022    23
    0.0034328192   2    1000012   -12
    0.0034328192   2   -1000012    12
    0.003427965   2    1000014   -14
    0.003427965   2   -1000014    14
    0.0026995585   2    1000011   -11
    0.0026995585   2   -1000011    11
    0.0026952994   2    1000013   -13
    0.0026952994   2   -1000013    13
    0.001607092   3    1000024    5   -6
    0.001607092   3   -1000024   -5    6

DECAY 1000035  20.086568
    0.09357739   2    1000015   -15
    0.09357739   2   -1000015    15
    0.059974024   2    1000024   -24
    0.059974024   2   -1000024    24
    0.048187011   2    1000012   -12
    0.048187011   2   -1000012    12
    0.048185742   2    1000014   -14
    0.048185742   2   -1000014    14
    0.047752804   2    1000011   -11
    0.047752804   2   -1000011    11
    0.047751546   2    1000013   -13
    0.047751546   2   -1000013    13
    0.039514539   2    1000022    25
    0.035463063   2    1000023    25
    0.034574352   2    1000022    23
    0.025573133   2    1000023    23
    0.020132089   2    2000005   -5
    0.020132089   2   -2000005    5
    0.018820079   2    2000011   -11
    0.018820079   2   -2000011    11
    0.018817158   2    2000013   -13
    0.018817158   2   -2000013    13
    0.0082599519   2    1000005   -5
    0.0082599519   2   -1000005    5
    0.0080275283   2    1000006   -6
    0.0080275283   2   -1000006    6
    0.0036379835   2    1000016   -16
    0.0036379835   2   -1000016    16
    0.003558292   2    2000015   -15
    0.003558292   2   -2000015    15
    0.001992317   3    1000024    5   -6
    0.001992317   3   -1000024   -5    6
    0.0014037549   3    1000023    6   -6
    0.0013791203   3    1000022    6   -6
    0.0010275957   2    1000037   -24
    0.0010275957   2   -1000037    24
    0.00085095735   2    1000025    25
    0.00080379502   2    1000025    23
    0.00023142208   3    1000025    12   -12
    0.00012218802   3    1000037    13   -14
    0.00012218802   3   -1000037   -13    14
    0.00012215842   3    1000037    11   -12
    0.00012215842   3   -1000037   -11    12
    0.00011785589   3    1000025    13   -13
    0.00011783412   3    1000025    11   -11

DECAY 1000021  264.17011
    0.13328249   2    1000005   -5
    0.13328249   2   -1000005    5
    0.12961696   2    1000006   -6
    0.12961696   2   -1000006    6
    0.11784496   2    2000005   -5
    0.11784496   2   -2000005    5
    0.071722248   2    2000006   -6
    0.071722248   2   -2000006    6
    0.047435961   2    1000006   -4
    0.047435961   2   -1000006    4

DECAY 25  0.0034611243
    0.62482756   2   -5    5
    0.17393068   2   -24    24
    0.075008967   2    21    21
    0.071618731   2   -15    15
    0.030989798   2   -4    4
    0.019601866   2    23    23
    0.0023346353   2    22    22
    0.0012034313   2    22    23
    0.00024855355   2   -13    13
    0.00023496909   2   -3    3
    6.4966668e-07   2   -1    1
    1.5970922e-07   2   -2    2
    5.5878085e-09   2   -11    11

DECAY 35  106.51701
    0.33431176   2   -5    5
    0.17627114   2   -1000024    1000037
    0.17627114   2   -1000037    1000024
    0.097598468   2    1000023    1000025
    0.081433642   2    1000022    1000025
    0.061484158   2   -15    15
    0.019869655   2    1000023    1000035
    0.019080911   2    1000022    1000035
    0.014379732   2   -1000024    1000024
    0.0035371604   2   -2000006    1000006
    0.0035371604   2   -1000006    2000006
    0.002985742   2    1000022    1000022
    0.0028312751   2   -6    6
    0.0016786508   2   -1000037    1000037
    0.00085097525   2    1000025    1000025
    0.0006762194   2    1000022    1000023
    0.00055986269   2   -2000015    1000015
    0.00055986269   2   -1000015    2000015
    0.0005323502   2    1000023    1000023
    0.00028861439   2   -2000005    1000005
    0.00028861439   2   -1000005    2000005
    0.00026769655   2   -2000006    2000006
    0.0002263463   2   -1000006    1000006
    0.00022128801   2   -13    13
    0.00013020487   2    1000025    1000035
    0.00012093588   2   -3    3
    2.414013e-06   2    25    25
    1.224154e-06   2    21    21
    4.6189188e-07   2   -2000005    2000005
    3.3435108e-07   2   -1    1
    2.8627897e-07   2   -1000005    1000005
    2.1705969e-07   2    23    23
    2.0774332e-07   2    1000035    1000035
    1.9991715e-07   2   -2000015    2000015
    7.4485791e-08   2   -1000011    1000011
    7.4242945e-08   2   -1000013    1000013
    6.3805867e-08   2   -1000015    1000015
    3.7557882e-08   2    22    23
    3.7505077e-08   2   -4    4
    3.7176211e-08   2   -2000011    2000011
    3.7033005e-08   2   -2000013    2000013
    3.6002242e-08   2   -24    24
    1.5259407e-08   2    22    22
    4.9692409e-09   2   -11    11
    3.4613963e-10   2   -2000013    1000013
    3.4613963e-10   2   -1000013    2000013
    1.9330802e-13   2   -2    2
    8.0962446e-15   2   -2000011    1000011
    8.0962446e-15   2   -1000011    2000011

DECAY 36  103.88974
    0.32149433   2   -5    5
    0.17972337   2   -1000024    1000037
    0.17972337   2   -1000037    1000024
    0.099500522   2    1000022    1000025
    0.083354963   2    1000023    1000025
    0.059127924   2   -15    15
    0.020888799   2    1000022    1000035
    0.019065243   2    1000023    1000035
    0.01582552   2   -1000024    1000024
    0.0038912884   2   -2000006    1000006
    0.0038912884   2   -1000006    2000006
    0.003596141   2    1000022    1000022
    0.002765074   2   -1000037    1000037
    0.0026043477   2   -6    6
    0.0013913978   2    1000025    1000025
    0.00057405923   2   -2000015    1000015
    0.00057405923   2   -1000015    2000015
    0.00047592891   2    1000022    1000023
    0.00047067261   2    1000023    1000023
    0.0002961366   2   -2000005    1000005
    0.0002961366   2   -1000005    2000005
    0.00021281018   2   -13    13
    0.00013433459   2    1000025    1000035
    0.00011629755   2   -3    3
    4.8218086e-06   2    21    21
    6.1508917e-07   2    23    25
    3.2153123e-07   2   -1    1
    7.8661083e-08   2    1000035    1000035
    6.1139224e-08   2    22    23
    4.0909646e-08   2    22    22
    3.4207751e-08   2   -4    4
    4.7788521e-09   2   -11    11
    3.5356482e-10   2   -2000013    1000013
    3.5356482e-10   2   -1000013    2000013
    1.7631762e-13   2   -2    2
    5.4951748e-14   2    23    35
    8.2699178e-15   2   -2000011    1000011
    8.2699178e-15   2   -1000011    2000011
    1.2929703e-38   2    25    25

DECAY 37  106.19055
    0.33746278   2   -5    6
    0.18968763   2    1000022    1000037
    0.18123704   2    1000024    1000025
    0.17848192   2    1000023    1000037
    0.061633906   2   -15    16
    0.038750903   2    1000024    1000035
    0.0047799052   2   -1000005    2000006
    0.0041982823   2    1000023    1000024
    0.0011234579   2   -1000015    1000016
    0.0008034993   2    1000022    1000024
    0.00052533458   2   -2000005    1000006
    0.00049721339   2   -5    4
    0.00026354381   2    1000035    1000037
    0.00021789777   2   -13    14
    0.00016328268   2   -2000005    2000006
    0.00011301595   2   -3    4
    4.5417919e-05   2   -1000005    1000006
    5.3212972e-06   2   -3    2
    3.9895515e-06   2   -3    6
    3.5506156e-06   2   -5    2
    6.0174657e-07   2    24    25
    3.8570878e-07   2   -2000015    1000016
    3.1352037e-07   2   -1    2
    2.9352993e-07   2   -1000011    1000012
    2.9318832e-07   2   -1000013    1000014
    1.75231e-07   2   -1    6
    2.2990129e-08   2    1000025    1000037
    1.6317945e-08   2   -1    4
    5.0966514e-09   2   -11    12
    6.997096e-10   2   -2000013    1000014
    1.6366383e-14   2   -2000011    1000012

DECAY 6  2.43
    1   2    5    24

DECAY 15 -1
