# SUSY Les Houches Accord 2 - MSSM spectrum + Decays
# SPheno v4.0.5be
# W. Porod, Comput. Phys. Commun. 153 (2003) 275-315, hep-ph/0301101;
# W. Porod, F.~Staub, Comput. Phys. Commun. 183 (2012) 2458
#                     arXiv:1104.1573 [hep-ph] 
# in case of problems send email to porod@physik.uni-wuerzburg.de
# Created: 12.05.2022,  22:34
Block SPINFO         # Program information
     1   SPheno      # spectrum calculator
     2   v4.0.5be    # version number
#
Block SPhenoINFO     # SPheno specific information
    1      2         # using 2-loop RGEs
    2      2         # using pole masses for boundary conditions at mZ
Block MODSEL  # Model selection
    1    0    # general MSSM
Block MINPAR  # Input parameters
    3    4.12606371E+01  # tanb at m_Z    
    4   -1.00000000E+00  # Sign(mu)
Block EXTPAR  # non-universal input parameters
    0    2.62833516E+03  # scale for input parameters
    1    1.05153702E+02  # M_1
    2    1.83121309E+03  # M_2
    3    4.70470838E+03  # M_3
   11   -6.23820644E+03  # A_t
   12    8.50949334E+02  # A_b
   13    5.75447986E+01  # A_tau
   23   -4.88352272E+02  # mu
   25    4.03560793E+01  # tan(beta)
   26    1.20914748E+03  # m_A, pole mass
   31    1.00000000E+04  # M_L11
   32    1.00000000E+04  # M_L22
   33    1.00000000E+04  # M_L33
   34    1.00000000E+04  # M_E11
   35    1.00000000E+04  # M_E22
   36    1.00000000E+04  # M_E33
   41    1.00000000E+04  # M_Q11
   42    1.00000000E+04  # M_Q22
   43    2.08548101E+03  # M_Q33
   44    1.00000000E+04  # M_U11
   45    1.00000000E+04  # M_U22
   46    3.38460114E+03  # M_U33
   47    1.00000000E+04  # M_D11
   48    1.00000000E+04  # M_D22
   49    3.70863548E+03  # M_D33
Block SMINPUTS  # SM parameters
         1     1.27908970E+02  # alpha_em^-1(MZ)^MSbar
         2     1.16637870E-05  # G_mu [GeV^-2]
         3     1.18400000E-01  # alpha_s(MZ)^MSbar
         4     9.11876000E+01  # m_Z(pole)
         5     4.18000000E+00  # m_b(m_b), MSbar
         6     1.73200000E+02  # m_t(pole)
         7     1.77700000E+00  # m_tau(pole)
         8     0.00000000E+00  # m_nu_3
        11     5.10998930E-04  # m_e(pole)
        12     0.00000000E+00  # m_nu_1
        13     1.05658372E-01  # m_muon(pole)
        14     0.00000000E+00  # m_nu_2
        21     5.00000000E-03  # m_d(2 GeV), MSbar
        22     2.50000000E-03  # m_u(2 GeV), MSbar
        23     9.50000000E-02  # m_s(2 GeV), MSbar
        24     1.27000000E+00  # m_c(m_c), MSbar
Block gauge Q=  2.62833516E+03  # (SUSY scale)
   1    3.55362975E-01  # g'(Q)^DRbar
   2    6.65198874E-01  # g(Q)^DRbar
   3    1.21977796E+00  # g3(Q)^DRbar
Block Yu Q=  2.62833516E+03  # (SUSY scale)
  1  1     8.38694582E-06   # Y_u(Q)^DRbar
  2  2     4.26056848E-03   # Y_c(Q)^DRbar
  3  3     1.01321042E+00   # Y_t(Q)^DRbar
Block Yd Q=  2.62833516E+03  # (SUSY scale)
  1  1     6.80131754E-04   # Y_d(Q)^DRbar
  2  2     1.29225033E-02   # Y_s(Q)^DRbar
  3  3     6.74477578E-01   # Y_b(Q)^DRbar
Block Ye Q=  2.62833516E+03  # (SUSY scale)
  1  1     1.18687965E-04   # Y_e(Q)^DRbar
  2  2     2.45409068E-02   # Y_mu(Q)^DRbar
  3  3     4.12737681E-01   # Y_tau(Q)^DRbar
Block Au Q=  2.62833516E+03  # (SUSY scale)
  1  1     0.00000000E+00   # A_u(Q)^DRbar
  2  2     0.00000000E+00   # A_c(Q)^DRbar
  3  3    -6.23820732E+03   # A_t(Q)^DRbar
Block Ad Q=  2.62833516E+03  # (SUSY scale)
  1  1     0.00000000E+00   # A_d(Q)^DRbar
  2  2     0.00000000E+00   # A_s(Q)^DRbar
  3  3     8.50949600E+02   # A_b(Q)^DRbar
Block Ae Q=  2.62833516E+03  # (SUSY scale)
  1  1     0.00000000E+00   # A_e(Q)^DRbar
  2  2     0.00000000E+00   # A_mu(Q)^DRbar
  3  3     5.75447982E+01   # A_tau(Q)^DRbar
Block MSOFT Q=  2.62833516E+03  # soft SUSY breaking masses at Q
   1    1.05153702E+02  # M_1
   2    1.83121309E+03  # M_2
   3    4.70470838E+03  # M_3
  21    8.96364083E+05  # M^2_(H,d)
  22   -1.95889406E+05  # M^2_(H,u)
  31    1.00000000E+04  # M_(L,11)
  32    1.00000000E+04  # M_(L,22)
  33    1.00000000E+04  # M_(L,33)
  34    1.00000000E+04  # M_(E,11)
  35    1.00000000E+04  # M_(E,22)
  36    1.00000000E+04  # M_(E,33)
  41    1.00000000E+04  # M_(Q,11)
  42    1.00000000E+04  # M_(Q,22)
  43    2.08548101E+03  # M_(Q,33)
  44    1.00000000E+04  # M_(U,11)
  45    1.00000000E+04  # M_(U,22)
  46    3.38460114E+03  # M_(U,33)
  47    1.00000000E+04  # M_(D,11)
  48    1.00000000E+04  # M_(D,22)
  49    3.70863548E+03  # M_(D,33)
Block MASS  # Mass spectrum
#   PDG code      mass          particle
         6     1.73200000E+02  # m_t(pole)
        23     9.11876000E+01  # m_Z(pole)
        24     8.04299946E+01  # W+
        15     1.77700000E+00  # m_tau(pole)
        25     1.26827685E+02  # h0
        35     1.20907923E+03  # H0
        36     1.20914748E+03  # A0
        37     1.21532995E+03  # H+
   1000001     1.00630425E+04  # ~d_L
   2000001     1.00425146E+04  # ~d_R
   1000002     1.00628516E+04  # ~u_L
   2000002     1.00456855E+04  # ~u_R
   1000003     1.00630529E+04  # ~s_L
   2000003     1.00425321E+04  # ~s_R
   1000004     1.00628619E+04  # ~c_L
   2000004     1.00456874E+04  # ~c_R
   1000005     2.09947899E+03  # ~b_1
   2000005     3.77393558E+03  # ~b_2
   1000006     2.07473471E+03  # ~t_1
   2000006     3.32965255E+03  # ~t_2
   1000011     1.00192585E+04  # ~e_L-
   2000011     1.00086866E+04  # ~e_R-
   1000012     1.00185065E+04  # ~nu_eL
   1000013     1.00193031E+04  # ~mu_L-
   2000013     1.00087707E+04  # ~mu_R-
   1000014     1.00185500E+04  # ~nu_muL
   1000015     1.00304196E+04  # ~tau_1-
   2000015     1.00341083E+04  # ~tau_2-
   1000016     1.00309075E+04  # ~nu_tauL
   1000021     5.08367208E+03  # ~g
   1000022     1.05751693E+02  # ~chi_10
   1000023     4.98923644E+02  # ~chi_20
   1000025     5.02156270E+02  # ~chi_30
   1000035     1.92935365E+03  # ~chi_40
   1000024     4.98351475E+02  # ~chi_1+
   1000037     1.92931647E+03  # ~chi_2+
# Higgs mixing
Block alpha # Effective Higgs mixing angle
          -2.45722242E-02   # alpha
Block Hmix Q=  2.62833516E+03  # Higgs mixing parameters
   1   -4.88352272E+02  # mu
   2    4.03560793E+01  # tan[beta](Q)
   3    2.43350677E+02  # v(Q)
   4    1.46203763E+06  # m^2_A(Q)
Block stopmix # stop mixing matrix
   1  1     9.91564463E-01   # Re[R_st(1,1)]
   1  2     1.29614491E-01   # Re[R_st(1,2)]
   2  1    -1.29614491E-01   # Re[R_st(2,1)]
   2  2     9.91564463E-01   # Re[R_st(2,2)]
Block sbotmix # sbottom mixing matrix
   1  1    -9.99989161E-01   # Re[R_sb(1,1)]
   1  2     4.65584590E-03   # Re[R_sb(1,2)]
   2  1    -4.65584590E-03   # Re[R_sb(2,1)]
   2  2    -9.99989161E-01   # Re[R_sb(2,2)]
Block staumix # stau mixing matrix
   1  1    -8.18584849E-01   # Re[R_sta(1,1)]
   1  2     5.74385624E-01   # Re[R_sta(1,2)]
   2  1    -5.74385624E-01   # Re[R_sta(2,1)]
   2  2    -8.18584849E-01   # Re[R_sta(2,2)]
Block Nmix # neutralino mixing matrix
   1  1    -9.95571192E-01   # Re[N(1,1)]
   1  2     6.68971469E-04   # Re[N(1,2)]
   1  3     9.23356480E-02   # Re[N(1,3)]
   1  4     1.76545494E-02   # Re[N(1,4)]
   2  1    -7.78455244E-02   # Re[N(2,1)]
   2  2    -3.88676115E-02   # Re[N(2,2)]
   2  3    -7.04356880E-01   # Re[N(2,3)]
   2  4    -7.04493271E-01   # Re[N(2,4)]
   3  1     5.26962418E-02   # Re[N(3,1)]
   3  2    -2.41603476E-02   # Re[N(3,2)]
   3  3     7.03737435E-01   # Re[N(3,3)]
   3  4    -7.08091101E-01   # Re[N(3,4)]
   4  1     1.08764118E-03   # Re[N(4,1)]
   4  2    -9.98952020E-01   # Re[N(4,2)]
   4  3     1.04468465E-02   # Re[N(4,3)]
   4  4     4.45481939E-02   # Re[N(4,4)]
Block Umix # chargino mixing matrix
   1  1    -1.47934663E-02   # Re[U(1,1)]
   1  2    -9.99890571E-01   # Re[U(1,2)]
   2  1     9.99890571E-01   # Re[U(2,1)]
   2  2    -1.47934663E-02   # Re[U(2,2)]
Block Vmix # chargino mixing matrix
   1  1    -6.30714153E-02   # Re[V(1,1)]
   1  2     9.98009016E-01   # Re[V(1,2)]
   2  1     9.98009016E-01   # Re[V(2,1)]
   2  2     6.30714153E-02   # Re[V(2,2)]
DECAY        23     2.49520000E+00   # Z
DECAY        24     2.08500000E+00   # W
DECAY   2000011     5.02766517E+01   # ~e^-_R
#    BR                NDA      ID1      ID2
     9.91203682E-01    2     1000022        11   # BR(~e^-_R -> chi^0_1 e^-)
     6.03147387E-03    2     1000023        11   # BR(~e^-_R -> chi^0_2 e^-)
     2.76369203E-03    2     1000025        11   # BR(~e^-_R -> chi^0_3 e^-)
DECAY   1000011     1.35263893E+02   # ~e^-_L
#    BR                NDA      ID1      ID2
     9.19714154E-02    2     1000022        11   # BR(~e^-_L -> chi^0_1 e^-)
     2.09991142E-03    2     1000023        11   # BR(~e^-_L -> chi^0_2 e^-)
     3.01314607E-01    2     1000035        11   # BR(~e^-_L -> chi^0_4 e^-)
     1.41995700E-04    2    -1000024        12   # BR(~e^-_L -> chi^-_1 nu_e)
     6.04466893E-01    2    -1000037        12   # BR(~e^-_L -> chi^-_2 nu_e)
#    BR                NDA      ID1      ID2       ID3
DECAY   2000013     5.05157179E+01   # ~mu^-_R
#    BR                NDA      ID1      ID2
     9.86541328E-01    2     1000022        13   # BR(~mu^-_R -> chi^0_1 mu^-)
     7.17484644E-03    2     1000023        13   # BR(~mu^-_R -> chi^0_2 mu^-)
     3.92036755E-03    2     1000025        13   # BR(~mu^-_R -> chi^0_3 mu^-)
     2.36164405E-03    2    -1000024        14   # BR(~mu^-_R -> chi^-_1 nu_mu)
DECAY   1000013     1.35384028E+02   # ~mu^-_L
#    BR                NDA      ID1      ID2
     9.18977699E-02    2     1000022        13   # BR(~mu^-_L -> chi^0_1 mu^-)
     2.53578344E-03    2     1000023        13   # BR(~mu^-_L -> chi^0_2 mu^-)
     4.42099061E-04    2     1000025        13   # BR(~mu^-_L -> chi^0_3 mu^-)
     3.01048865E-01    2     1000035        13   # BR(~mu^-_L -> chi^0_4 mu^-)
     1.41870336E-04    2    -1000024        14   # BR(~mu^-_L -> chi^-_1 nu_mu)
     6.03933612E-01    2    -1000037        14   # BR(~mu^-_L -> chi^-_2 nu_mu)
#    BR                NDA      ID1      ID2       ID3
DECAY   1000015     1.52447731E+02   # ~tau^-_1
#    BR                NDA      ID1      ID2
     1.76473359E-01    2     1000022        15   # BR(~tau^-_1 -> chi^0_1 tau^-)
     1.11534634E-01    2     1000023        15   # BR(~tau^-_1 -> chi^0_2 tau^-)
     1.01432839E-01    2     1000025        15   # BR(~tau^-_1 -> chi^0_3 tau^-)
     1.77085278E-01    2     1000035        15   # BR(~tau^-_1 -> chi^0_4 tau^-)
     7.82470872E-02    2    -1000024        16   # BR(~tau^-_1 -> chi^-_1 nu_tau)
     3.55226803E-01    2    -1000037        16   # BR(~tau^-_1 -> chi^-_2 nu_tau)
DECAY   2000015     1.34902604E+02   # ~tau^-_2
#    BR                NDA      ID1      ID2
     2.67502459E-01    2     1000022        15   # BR(~tau^-_2 -> chi^0_1 tau^-)
     1.27161885E-01    2     1000023        15   # BR(~tau^-_2 -> chi^0_2 tau^-)
     1.34803315E-01    2     1000025        15   # BR(~tau^-_2 -> chi^0_3 tau^-)
     1.02487816E-01    2     1000035        15   # BR(~tau^-_2 -> chi^0_4 tau^-)
     1.62468159E-01    2    -1000024        16   # BR(~tau^-_2 -> chi^-_1 nu_tau)
     2.05576366E-01    2    -1000037        16   # BR(~tau^-_2 -> chi^-_2 nu_tau)
#    BR                NDA      ID1      ID2       ID3
DECAY   1000012     1.35268162E+02   # ~nu_e
#    BR                NDA      ID1      ID2
     9.24254533E-02    2     1000022        12   # BR(~nu_e -> chi^0_1 nu_e)
     8.87614629E-04    2     1000025        12   # BR(~nu_e -> chi^0_3 nu_e)
     3.01980771E-01    2     1000035        12   # BR(~nu_e -> chi^0_4 nu_e)
     2.58081753E-03    2     1000024        11   # BR(~nu_e -> chi^+_1 e^-)
     6.02122945E-01    2     1000037        11   # BR(~nu_e -> chi^+_2 e^-)
#    BR                NDA      ID1      ID2       ID3
DECAY   1000014     1.35388271E+02   # ~nu_mu
#    BR                NDA      ID1      ID2
     9.23438599E-02    2     1000022        14   # BR(~nu_mu -> chi^0_1 nu_mu)
     8.86831078E-04    2     1000025        14   # BR(~nu_mu -> chi^0_3 nu_mu)
     3.01714383E-01    2     1000035        14   # BR(~nu_mu -> chi^0_4 nu_mu)
     3.46056181E-03    2     1000024        13   # BR(~nu_mu -> chi^+_1 mu^-)
     6.01591968E-01    2     1000037        13   # BR(~nu_mu -> chi^+_2 mu^-)
#    BR                NDA      ID1      ID2       ID3
DECAY   1000016     1.69286087E+02   # ~nu_tau
#    BR                NDA      ID1      ID2
     7.39440768E-02    2     1000022        16   # BR(~nu_tau -> chi^0_1 nu_tau)
     7.10135821E-04    2     1000025        16   # BR(~nu_tau -> chi^0_3 nu_tau)
     2.41642608E-01    2     1000035        16   # BR(~nu_tau -> chi^0_4 nu_tau)
     2.01847183E-01    2     1000024        15   # BR(~nu_tau -> chi^+_1 tau^-)
     4.81854078E-01    2     1000037        15   # BR(~nu_tau -> chi^+_2 tau^-)
#    BR                NDA      ID1      ID2       ID3
DECAY   2000001     4.44088179E+02   # ~d_R
#    BR                NDA      ID1      ID2
     1.25107581E-02    2     1000022         1   # BR(~d_R -> chi^0_1 d)
     9.87377802E-01    2     1000021         1   # BR(~d_R -> ~g d)
DECAY   1000001     5.65313693E+02   # ~d_L
#    BR                NDA      ID1      ID2
     2.48063086E-03    2     1000022         1   # BR(~d_L -> chi^0_1 d)
     7.25722226E-02    2     1000035         1   # BR(~d_L -> chi^0_4 d)
     1.45361366E-01    2    -1000037         2   # BR(~d_L -> chi^-_2 u)
     7.79415021E-01    2     1000021         1   # BR(~d_L -> ~g d)
DECAY   2000003     4.44156219E+02   # ~s_R
#    BR                NDA      ID1      ID2
     1.25095020E-02    2     1000022         3   # BR(~s_R -> chi^0_1 s)
     1.13200839E-04    2     1000023         3   # BR(~s_R -> chi^0_2 s)
     9.87230638E-01    2     1000021         3   # BR(~s_R -> ~g s)
DECAY   1000003     5.65351710E+02   # ~s_L
#    BR                NDA      ID1      ID2
     2.48096930E-03    2     1000022         3   # BR(~s_L -> chi^0_1 s)
     1.16856517E-04    2     1000025         3   # BR(~s_L -> chi^0_3 s)
     7.25674344E-02    2     1000035         3   # BR(~s_L -> chi^0_4 s)
     1.45351788E-01    2    -1000037         4   # BR(~s_L -> chi^-_2 c)
     7.79364517E-01    2     1000021         3   # BR(~s_L -> ~g s)
DECAY   1000005     5.48635048E+01   # ~b_1
#    BR                NDA      ID1      ID2
     8.35666550E-03    2     1000022         5   # BR(~b_1 -> chi^0_1 b)
     1.53060951E-01    2     1000023         5   # BR(~b_1 -> chi^0_2 b)
     1.52541007E-01    2     1000025         5   # BR(~b_1 -> chi^0_3 b)
     4.06160592E-03    2     1000035         5   # BR(~b_1 -> chi^0_4 b)
     6.81979770E-01    2    -1000024         6   # BR(~b_1 -> chi^-_1 t)
DECAY   2000005     7.01358732E+01   # ~b_2
#    BR                NDA      ID1      ID2
     3.37199661E-02    2     1000022         5   # BR(~b_2 -> chi^0_1 b)
     2.33409332E-01    2     1000023         5   # BR(~b_2 -> chi^0_2 b)
     2.32904111E-01    2     1000025         5   # BR(~b_2 -> chi^0_3 b)
     4.68028616E-01    2    -1000024         6   # BR(~b_2 -> chi^-_1 t)
     3.76186932E-03    2     1000006       -24   # BR(~b_2 -> ~t_1 W^-)
     1.18790031E-02    2     1000006       -37   # BR(~b_2 -> ~t_1 H^-)
     1.85183795E-03    2     1000005        23   # BR(~b_2 -> ~b_1 Z)
     5.62001553E-03    2     1000005        36   # BR(~b_2 -> ~b_1 A^0)
     3.05293700E-03    2     1000005        25   # BR(~b_2 -> ~b_1 h^0)
     5.62111116E-03    2     1000005        35   # BR(~b_2 -> ~b_1 H^0)
DECAY   2000002     4.61239882E+02   # ~u_R
#    BR                NDA      ID1      ID2
     4.81973414E-02    2     1000022         2   # BR(~u_R -> chi^0_1 u)
     2.93289735E-04    2     1000023         2   # BR(~u_R -> chi^0_2 u)
     1.34388144E-04    2     1000025         2   # BR(~u_R -> chi^0_3 u)
     9.51374927E-01    2     1000021         2   # BR(~u_R -> ~g u)
DECAY   1000002     5.65315764E+02   # ~u_L
#    BR                NDA      ID1      ID2
     2.44341322E-03    2     1000022         2   # BR(~u_L -> chi^0_1 u)
     2.16774519E-04    2     1000023         2   # BR(~u_L -> chi^0_2 u)
     7.25141108E-02    2     1000035         2   # BR(~u_L -> chi^0_4 u)
     6.20453816E-04    2     1000024         1   # BR(~u_L -> chi^+_1 d)
     1.44811113E-01    2     1000037         1   # BR(~u_L -> chi^+_2 d)
     7.79377113E-01    2     1000021         2   # BR(~u_L -> ~g u)
DECAY   2000004     4.61247270E+02   # ~c_R
#    BR                NDA      ID1      ID2
     4.81965790E-02    2     1000022         4   # BR(~c_R -> chi^0_1 c)
     2.97170371E-04    2     1000023         4   # BR(~c_R -> chi^0_2 c)
     1.38309235E-04    2     1000025         4   # BR(~c_R -> chi^0_3 c)
     9.51360049E-01    2     1000021         4   # BR(~c_R -> ~g c)
DECAY   1000004     5.65353739E+02   # ~c_L
#    BR                NDA      ID1      ID2
     2.44325352E-03    2     1000022         4   # BR(~c_L -> chi^0_1 c)
     2.19933983E-04    2     1000023         4   # BR(~c_L -> chi^0_2 c)
     7.25093377E-02    2     1000035         4   # BR(~c_L -> chi^0_4 c)
     6.79080386E-04    2     1000024         3   # BR(~c_L -> chi^+_1 s)
     1.44801568E-01    2     1000037         3   # BR(~c_L -> chi^+_2 s)
     7.79326599E-01    2     1000021         4   # BR(~c_L -> ~g c)
DECAY   1000006     5.49033491E+01   # ~t_1
#    BR                NDA      ID1      ID2
     2.34560830E-04    2     1000022         4   # BR(~t_1 -> chi^0_1 c)
     7.52922138E-03    2     1000022         6   # BR(~t_1 -> chi^0_1 t)
     3.30286707E-01    2     1000023         6   # BR(~t_1 -> chi^0_2 t)
     3.36535783E-01    2     1000025         6   # BR(~t_1 -> chi^0_3 t)
     3.18571518E-01    2     1000024         5   # BR(~t_1 -> chi^+_1 b)
     5.80512942E-03    2     1000037         5   # BR(~t_1 -> chi^+_2 b)
#    BR                NDA      ID1      ID2       ID3
     1.01842424E-03    3     1000022        24         5   # BR(~t_1 -> chi^0_1 W^+ b)
DECAY   2000006     3.42867960E+02   # ~t_2
#    BR                NDA      ID1      ID2
     2.08277526E-02    2     1000022         6   # BR(~t_2 -> chi^0_1 t)
     9.41905541E-02    2     1000023         6   # BR(~t_2 -> chi^0_2 t)
     9.39747177E-02    2     1000025         6   # BR(~t_2 -> chi^0_3 t)
     9.53053043E-04    2     1000035         6   # BR(~t_2 -> chi^0_4 t)
     1.85013095E-01    2     1000024         5   # BR(~t_2 -> chi^+_1 b)
     1.90310600E-03    2     1000037         5   # BR(~t_2 -> chi^+_2 b)
     2.67237702E-01    2     1000005        24   # BR(~t_2 -> ~b_1 W^+)
     6.62300099E-04    2     1000005        37   # BR(~t_2 -> ~b_1 H^+)
     1.37345189E-01    2     1000006        23   # BR(~t_2 -> ~t_1 Z)
     5.89592511E-04    2     1000006        36   # BR(~t_2 -> ~t_1 A^0)
     1.96754271E-01    2     1000006        25   # BR(~t_2 -> ~t_1 h^0)
     5.48667299E-04    2     1000006        35   # BR(~t_2 -> ~t_1 H^0)
DECAY   1000024     3.20124717E-01   # chi^+_1
#    BR                NDA      ID1      ID2
     9.96885109E-01    2     1000022        24   # BR(chi^+_1 -> chi^0_1 W^+)
#    BR                NDA      ID1      ID2       ID3
     3.11278192E-03    3     1000022        -5         6   # BR(chi^+_1 -> chi^0_1 b_bar t)
DECAY   1000037     2.20585082E+01   # chi^+_2
#    BR                NDA      ID1      ID2
     1.88049962E-01    2     1000023        24   # BR(chi^+_2 -> chi^0_2 W^+)
     1.88571210E-01    2     1000025        24   # BR(chi^+_2 -> chi^0_3 W^+)
     1.04623093E-03    2          37   1000022   # BR(chi^+_2 -> H^+ chi^0_1)
     5.67324131E-02    2          37   1000023   # BR(chi^+_2 -> H^+ chi^0_2)
     5.20530496E-02    2          37   1000025   # BR(chi^+_2 -> H^+ chi^0_3)
     1.87878556E-01    2     1000024        23   # BR(chi^+_2 -> chi^+_1 Z)
     5.81160358E-02    2     1000024        36   # BR(chi^+_2 -> chi^+_1 A^0)
     1.84375873E-01    2     1000024        25   # BR(chi^+_2 -> chi^+_1 h^0)
     5.79410537E-02    2     1000024        35   # BR(chi^+_2 -> chi^+_1 H^0)
#    BR                NDA      ID1      ID2       ID3
     9.64197784E-03    3     1000024         6        -6   # BR(chi^+_2 -> chi^+_1 t t_bar)
     4.60935043E-04    3     1000024         5        -5   # BR(chi^+_2 -> chi^+_1 b b_bar)
     7.30770953E-03    3     1000023        -5         6   # BR(chi^+_2 -> chi^0_2 b_bar t)
     7.77810035E-03    3     1000025        -5         6   # BR(chi^+_2 -> chi^0_3 b_bar t)
DECAY   1000022     0.00000000E+00   # chi^0_1
DECAY   1000023     2.88370949E-01   # chi^0_2
#    BR                NDA      ID1      ID2
     3.67576677E-01    2     1000022        23   # BR(chi^0_2 -> chi^0_1 Z)
     6.32355064E-01    2     1000022        25   # BR(chi^0_2 -> chi^0_1 h^0)
#    BR                NDA      ID1      ID2       ID3
DECAY   1000025     4.40196029E-01   # chi^0_3
#    BR                NDA      ID1      ID2
     5.33278042E-01    2     1000022        23   # BR(chi^0_3 -> chi^0_1 Z)
     4.66643112E-01    2     1000022        25   # BR(chi^0_3 -> chi^0_1 h^0)
#    BR                NDA      ID1      ID2       ID3
DECAY   1000035     2.41026421E+01   # chi^0_4
#    BR                NDA      ID1      ID2
     1.72998730E-01    2     1000024       -24   # BR(chi^0_4 -> chi^+_1 W^-)
     1.72998730E-01    2    -1000024        24   # BR(chi^0_4 -> chi^-_1 W^+)
     5.21051204E-02    2          37  -1000024   # BR(chi^0_4 -> H^+ chi^-_1)
     5.21051204E-02    2         -37   1000024   # BR(chi^0_4 -> H^- chi^+_1)
     4.77300483E-02    2     1000023        23   # BR(chi^0_4 -> chi^0_2 Z)
     1.24753784E-01    2     1000025        23   # BR(chi^0_4 -> chi^0_3 Z)
     3.99365778E-04    2     1000022        36   # BR(chi^0_4 -> chi^0_1 A^0)
     5.63072257E-03    2     1000023        36   # BR(chi^0_4 -> chi^0_2 A^0)
     6.08034831E-03    2     1000025        36   # BR(chi^0_4 -> chi^0_3 A^0)
     1.21834209E-01    2     1000023        25   # BR(chi^0_4 -> chi^0_2 h^0)
     1.35076643E-01    2     1000025        25   # BR(chi^0_4 -> chi^0_3 h^0)
     5.70396929E-04    2     1000022        35   # BR(chi^0_4 -> chi^0_1 H^0)
     4.71969660E-02    2     1000023        35   # BR(chi^0_4 -> chi^0_2 H^0)
     4.26457916E-02    2     1000025        35   # BR(chi^0_4 -> chi^0_3 H^0)
#    BR                NDA      ID1      ID2       ID3
     3.19681226E-03    3     1000023         6        -6   # BR(chi^0_4 -> chi^0_2 t t_bar)
     1.91077664E-04    3     1000023         5        -5   # BR(chi^0_4 -> chi^0_2 b b_bar)
     3.34375862E-03    3     1000025         6        -6   # BR(chi^0_4 -> chi^0_3 t t_bar)
     1.89707197E-04    3     1000025         5        -5   # BR(chi^0_4 -> chi^0_3 b b_bar)
     5.45436806E-03    3     1000024         5        -6   # BR(chi^0_4 -> chi^+_1 b t_bar)
     5.45436806E-03    3    -1000024        -5         6   # BR(chi^0_4 -> chi^-_1 b_bar t)
DECAY   1000021     2.92729393E+02   # ~g
#    BR                NDA      ID1      ID2
     8.11354574E-03    2     1000006        -4   # BR(~g -> ~t_1 c_bar)
     8.11354574E-03    2    -1000006         4   # BR(~g -> ~t^*_1 c)
     1.74689747E-01    2     1000006        -6   # BR(~g -> ~t_1 t_bar)
     1.74689747E-01    2    -1000006         6   # BR(~g -> ~t^*_1 t)
     8.61041076E-02    2     2000006        -6   # BR(~g -> ~t_2 t_bar)
     8.61041076E-02    2    -2000006         6   # BR(~g -> ~t^*_2 t)
     1.76829415E-01    2     1000005        -5   # BR(~g -> ~b_1 b_bar)
     1.76829415E-01    2    -1000005         5   # BR(~g -> ~b^*_1 b)
     5.17901437E-02    2     2000005        -5   # BR(~g -> ~b_2 b_bar)
     5.17901437E-02    2    -2000005         5   # BR(~g -> ~b^*_2 b)
#    BR                NDA      ID1      ID2       ID3
     9.50655871E-04    3     1000035         6        -6   # BR(~g -> chi^0_4 t t_bar)
     1.94788597E-03    3     1000037         5        -6   # BR(~g -> chi^+_2 b t_bar)
     1.94788597E-03    3    -1000037        -5         6   # BR(~g -> chi^-_2 b_bar t)
DECAY        25     3.65430177E-03   # Gamma(h0)
     2.64878555E-03   2        22        22   # BR(h0 -> photon photon)
     1.86575006E-03   2        22        23   # BR(h0 -> photon Z)
     3.67619028E-02   2        23        23   # BR(h0 -> Z Z)
     2.93128413E-01   2       -24        24   # BR(h0 -> W W)
     7.99502717E-02   2        21        21   # BR(h0 -> gluon gluon)
     4.53519980E-09   2       -11        11   # BR(h0 -> Electron electron)
     2.01734684E-04   2       -13        13   # BR(h0 -> Muon muon)
     5.81691733E-02   2       -15        15   # BR(h0 -> Tau tau)
     1.25444372E-07   2        -2         2   # BR(h0 -> Up up)
     2.43489090E-02   2        -4         4   # BR(h0 -> Charm charm)
     5.23765944E-07   2        -1         1   # BR(h0 -> Down down)
     1.89432932E-04   2        -3         3   # BR(h0 -> Strange strange)
     5.02734974E-01   2        -5         5   # BR(h0 -> Bottom bottom)
DECAY        35     2.36953751E+01   # Gamma(HH)
     1.20840641E-08   2        22        22   # BR(HH -> photon photon)
     4.63648760E-09   2        22        23   # BR(HH -> photon Z)
     1.96569465E-06   2        23        23   # BR(HH -> Z Z)
     2.09996698E-06   2       -24        24   # BR(HH -> W W)
     4.41461627E-05   2        21        21   # BR(HH -> gluon gluon)
     1.11021459E-08   2       -11        11   # BR(HH -> Electron electron)
     4.94181621E-04   2       -13        13   # BR(HH -> Muon muon)
     1.42704310E-01   2       -15        15   # BR(HH -> Tau tau)
     6.93493809E-14   2        -2         2   # BR(HH -> Up up)
     1.34485849E-08   2        -4         4   # BR(HH -> Charm charm)
     9.95175039E-04   2        -6         6   # BR(HH -> Top top)
     9.39352078E-07   2        -1         1   # BR(HH -> Down down)
     3.39666377E-04   2        -3         3   # BR(HH -> Strange strange)
     8.14125110E-01   2        -5         5   # BR(HH -> Bottom bottom)
     3.82825973E-04   2  -1000024   1000024   # BR(HH -> Chargino1 chargino1)
     9.63003465E-04   2   1000022   1000022   # BR(HH -> neutralino1 neutralino1)
     1.94507213E-02   2   1000022   1000023   # BR(HH -> neutralino1 neutralino2)
     2.01899605E-02   2   1000022   1000025   # BR(HH -> neutralino1 neutralino3)
     1.97141472E-09   2   1000023   1000023   # BR(HH -> neutralino2 neutralino2)
     1.80936611E-04   2   1000023   1000025   # BR(HH -> neutralino2 neutralino3)
     1.09513544E-04   2   1000025   1000025   # BR(HH -> neutralino3 neutralino3)
     1.54011456E-05   2        25        25   # BR(HH -> h0 h0)
DECAY        36     2.29274254E+01   # Gamma(A0)
     1.02314603E-07   2        22        22   # BR(A0 -> photon photon)
     8.28800636E-08   2        22        23   # BR(A0 -> photon Z)
     7.16520618E-05   2        21        21   # BR(A0 -> gluon gluon)
     1.10736087E-08   2       -11        11   # BR(A0 -> Electron electron)
     4.92911014E-04   2       -13        13   # BR(A0 -> Muon muon)
     1.42338703E-01   2       -15        15   # BR(A0 -> Tau tau)
     7.16707706E-14   2        -2         2   # BR(A0 -> Up up)
     1.38920757E-08   2        -4         4   # BR(A0 -> Charm charm)
     1.12543139E-03   2        -6         6   # BR(A0 -> Top top)
     9.36929088E-07   2        -1         1   # BR(A0 -> Down down)
     3.38790565E-04   2        -3         3   # BR(A0 -> Strange strange)
     8.12054358E-01   2        -5         5   # BR(A0 -> Bottom bottom)
     1.10522008E-03   2  -1000024   1000024   # BR(A0 -> Chargino1 chargino1)
     1.00706032E-03   2   1000022   1000022   # BR(A0 -> neutralino1 neutralino1)
     2.15863403E-02   2   1000022   1000023   # BR(A0 -> neutralino1 neutralino2)
     1.94490488E-02   2   1000022   1000025   # BR(A0 -> neutralino1 neutralino3)
     5.32005011E-09   2   1000023   1000023   # BR(A0 -> neutralino2 neutralino2)
     5.82909349E-05   2   1000023   1000025   # BR(A0 -> neutralino2 neutralino3)
     3.68247771E-04   2   1000025   1000025   # BR(A0 -> neutralino3 neutralino3)
     2.79288679E-06   2        23        25   # BR(A0 -> Z h0)
     1.22937317E-36   2        25        25   # BR(A0 -> h0 h0)
DECAY        37     2.70547108E+01   # Gamma(Hp)
     1.26468925E-08   2       -11        12   # BR(Hp -> Electron nu_e)
     5.40694148E-04   2       -13        14   # BR(Hp -> Muon nu_mu)
     1.52938507E-01   2       -15        16   # BR(Hp -> Tau nu_tau)
     9.17461444E-07   2        -1         2   # BR(Hp -> Down up)
     1.53100594E-05   2        -3         2   # BR(Hp -> Strange up)
     8.75326858E-06   2        -5         2   # BR(Hp -> Bottom up)
     4.30581599E-08   2        -1         4   # BR(Hp -> Down charm)
     3.30559215E-04   2        -3         4   # BR(Hp -> Strange charm)
     1.22576856E-03   2        -5         4   # BR(Hp -> Bottom charm)
     7.27512254E-08   2        -1         6   # BR(Hp -> Down top)
     2.05381610E-06   2        -3         6   # BR(Hp -> Strange top)
     8.08535146E-01   2        -5         6   # BR(Hp -> Bottom top)
     3.60631205E-02   2   1000022   1000024   # BR(Hp -> neutralino1 chargino1)
     3.25309742E-04   2   1000023   1000024   # BR(Hp -> neutralino2 chargino1)
     1.13177060E-05   2   1000024   1000025   # BR(Hp -> chargino1 neutralino3)
     2.41399750E-06   2        24        25   # BR(Hp -> W h0)
     4.78340752E-10   2        24        35   # BR(Hp -> W HH)
     4.52794295E-10   2        24        36   # BR(Hp -> W A0)
DECAY         6     2.43000000E+00   # top
#    BR                NDA      ID1      ID2
     1.00000000E+00    2           5        24   # BR(t -> b W)
Block HiggsBoundsInputHiggsCouplingsFermions
# ScalarNormEffCoupSq PseudoSNormEffCoupSq NP IP1 IP2 IP2
    9.83752945E-01    0.00000000E+00        3  25   5   5  # h0-b-b eff. coupling^2, normalised to SM
    1.62862938E+03    0.00000000E+00        3  35   5   5  # H0-b-b eff. coupling^2, normalised to SM
    0.00000000E+00    1.62861314E+03        3  36   5   5  # A0-b-b eff. coupling^2, normalised to SM
#
    1.00000998E+00    0.00000000E+00        3  25   6   6  # h0-t-t eff. coupling^2, normalised to SM
    6.04043356E-04    0.00000000E+00        3  35   6   6  # H0-t-t eff. coupling^2, normalised to SM
    0.00000000E+00    6.14019363E-04        3  36   6   6  # A0-t-t eff. coupling^2, normalised to SM
#
    9.83752945E-01    0.00000000E+00        3  25  15  15  # h0-tau-tau eff. coupling^2, normalised to SM
    1.62862938E+03    0.00000000E+00        3  35  15  15  # H0-tau-tau eff. coupling^2, normalised to SM
    0.00000000E+00    1.62861314E+03        3  36  15  15  # A0-tau-tau eff. coupling^2, normalised to SM
#
Block HiggsBoundsInputHiggsCouplingsBosons
    9.99999959E-01        3  25  24  24  # h0-W-W eff. coupling^2, normalised to SM
    4.08525250E-08        3  35  24  24  # H0-W-W eff. coupling^2, normalised to SM
    0.00000000E+00        3  36  24  24  # A0-W-W eff. coupling^2, normalised to SM
#
    9.99999959E-01        3  25  23  23  # h0-Z-Z eff. coupling^2, normalised to SM
    4.08525250E-08        3  35  23  23  # H0-Z-Z eff. coupling^2, normalised to SM
    0.00000000E+00        3  36  23  23  # A0-Z-Z eff. coupling^2, normalised to SM
#
    1.24895761E+00        3  25  21  21  # h0-g-g eff. coupling^2, normalised to SM
    1.70155051E-02        3  35  21  21  # H0-g-g eff. coupling^2, normalised to SM
    1.49600430E-01        3  36  21  21  # A0-g-g eff. coupling^2, normalised to SM
#
    0.00000000E+00        3  25  25  23  # h0-h0-Z eff. coupling^2, normalised to SM
    0.00000000E+00        3  35  25  23  # H0-h0-Z eff. coupling^2, normalised to SM
    4.08525250E-08        3  36  25  23  # A0-h0-Z eff. coupling^2, normalised to SM
    0.00000000E+00        3  35  35  23  # H0-H0-Z eff. coupling^2, normalised to SM
    9.99999959E-01        3  36  35  23  # A0-H0-Z eff. coupling^2, normalised to SM
    0.00000000E+00        3  36  36  23  # A0-A0-Z eff. coupling^2, normalised to SM
#
    0.00000000E+00        4  25  21  21  23  # h0-g-g-Z eff. coupling^2, normalised to SM
    0.00000000E+00        4  35  21  21  23  # H0-g-g-Z eff. coupling^2, normalised to SM
    0.00000000E+00        4  36  21  21  23  # A0-g-g-Z eff. coupling^2, normalised to SM
Block SPhenoLowEnergy  # low energy observables
    1    3.67260564E-04   # BR(b -> s gamma)
    2    1.58842420E-06   # BR(b -> s mu+ mu-)
    3    3.52754657E-05   # BR(b -> s nu nu)
    4    1.08140338E-15   # BR(Bd -> e+ e-)
    5    4.61825071E-11   # BR(Bd -> mu+ mu-)
    6    8.86786868E-09   # BR(Bd -> tau+ tau-)
    7    3.66071710E-14   # BR(Bs -> e+ e-)
    8    1.56340837E-09   # BR(Bs -> mu+ mu-)
    9    3.05285935E-07   # BR(Bs -> tau+ tau-)
   10    8.90500858E-05   # BR(B_u -> tau nu)
   11    9.19853294E-01   # BR(B_u -> tau nu)/BR(B_u -> tau nu)_SM
   12    5.41929714E-01   # |Delta(M_Bd)| [ps^-1] 
   13    1.93160865E+01   # |Delta(M_Bs)| [ps^-1] 
   14    0.00000000E+00   # neutron EDM according to the chiral quark model
   15    0.00000000E+00   # neutron EDM according to the relativistic quark-parton model
   16    2.15796075E-03   # epsilon_K
   17    2.28167233E-15   # Delta(M_K)
   18    2.48117845E-11   # BR(K^0 -> pi^0 nu nu)
   19    8.29340817E-11   # BR(K^+ -> pi^+ nu nu)
   20   -4.01986636E-16   # Delta(g-2)_electron/2
   21   -1.71862324E-11   # Delta(g-2)_muon/2
   22   -4.86472727E-09   # Delta(g-2)_tau/2
   23    0.00000000E+00   # electric dipole moment of the electron
   24    0.00000000E+00   # electric dipole moment of the muon
   25    0.00000000E+00   # electric dipole moment of the tau
   26    0.00000000E+00   # Br(mu -> e gamma)
   27    0.00000000E+00   # Br(tau -> e gamma)
   28    0.00000000E+00   # Br(tau -> mu gamma)
   29    0.00000000E+00   # Br(mu -> 3 e)
   30    0.00000000E+00   # Br(tau -> 3 e)
   31    0.00000000E+00   # Br(tau -> 3 mu)
   39    6.80292166E-05   # Delta(rho_parameter)
   40    0.00000000E+00   # BR(Z -> e mu)
   41    0.00000000E+00   # BR(Z -> e tau)
   42    0.00000000E+00   # BR(Z -> mu tau)
Block FWCOEF Q=  1.60000000E+02  # Wilson coefficients at scale Q
#    id        order  M        value         comment
     0305 4422   00   0    -1.88819110E-01   # C7
     0305 4422   00   2    -2.38576830E-01   # C7
     0305 4322   00   2    -6.49677175E-04   # C7'
     0305 6421   00   0    -9.52278348E-02   # C8
     0305 6421   00   2    -1.38644071E-01   # C8
     0305 6321   00   2    -6.71906028E-04   # C8'
 03051111 4133   00   0     1.61228269E+00   # C9 e+e-
 03051111 4133   00   2     1.61279718E+00   # C9 e+e-
 03051111 4233   00   2     2.95669895E-04   # C9' e+e-
 03051111 4137   00   0    -4.43497480E+00   # C10 e+e-
 03051111 4137   00   2    -4.43564067E+00   # C10 e+e-
 03051111 4237   00   2    -2.23418728E-03   # C10' e+e-
 03051313 4133   00   0     1.61228269E+00   # C9 mu+mu-
 03051313 4133   00   2     1.61279702E+00   # C9 mu+mu-
 03051313 4233   00   2     2.95661807E-04   # C9' mu+mu-
 03051313 4137   00   0    -4.43497480E+00   # C10 mu+mu-
 03051313 4137   00   2    -4.43564082E+00   # C10 mu+mu-
 03051313 4237   00   2    -2.23417966E-03   # C10' mu+mu-
 03051212 4137   00   0     1.50535012E+00   # C11 nu_1 nu_1
 03051212 4137   00   2     1.50549583E+00   # C11 nu_1 nu_1
 03051212 4237   00   2     4.84684130E-04   # C11' nu_1 nu_1
 03051414 4137   00   0     1.50535012E+00   # C11 nu_2 nu_2
 03051414 4137   00   2     1.50549583E+00   # C11 nu_2 nu_2
 03051414 4237   00   2     4.84685860E-04   # C11' nu_2 nu_2
 03051616 4137   00   0     1.50535012E+00   # C11 nu_3 nu_3
 03051616 4137   00   2     1.50549583E+00   # C11 nu_3 nu_3
 03051616 4237   00   2     4.85173199E-04   # C11' nu_3 nu_3
Block IMFWCOEF Q=  1.60000000E+02  # Im(Wilson coefficients) at scale Q
#    id        order  M        value         comment
     0305 4422   00   0     3.85762816E-07   # C7
     0305 4422   00   2    -1.32012478E-05   # C7
     0305 4322   00   2    -2.27811146E-06   # C7'
     0305 6421   00   0     3.30431364E-07   # C8
     0305 6421   00   2     2.69053307E-06   # C8
     0305 6321   00   2    -8.23671523E-07   # C8'
 03051111 4133   00   2     1.63582418E-07   # C9 e+e-
 03051111 4233   00   2     8.25864153E-06   # C9' e+e-
 03051111 4137   00   2     1.01602867E-06   # C10 e+e-
 03051111 4237   00   2    -6.24220269E-05   # C10' e+e-
 03051313 4133   00   2     1.63579608E-07   # C9 mu+mu-
 03051313 4233   00   2     8.25863943E-06   # C9' mu+mu-
 03051313 4137   00   2     1.01603095E-06   # C10 mu+mu-
 03051313 4237   00   2    -6.24220333E-05   # C10' mu+mu-
 03051212 4137   00   2    -1.98249624E-07   # C11 nu_1 nu_1
 03051212 4237   00   2     1.35418277E-05   # C11' nu_1 nu_1
 03051414 4137   00   2    -1.98249534E-07   # C11 nu_2 nu_2
 03051414 4237   00   2     1.35418277E-05   # C11' nu_2 nu_2
 03051616 4137   00   2    -1.98224365E-07   # C11 nu_3 nu_3
 03051616 4237   00   2     1.35418277E-05   # C11' nu_3 nu_3
