BLOCK SPINFO
   1   SPheno
   2   v4.0.5be

BLOCK SPHENOINFO
   1   2
   2   2

BLOCK MODSEL
   1   0

BLOCK MINPAR
   3    8.8545341
   4   -1

BLOCK EXTPAR
   0    2371.8877
   1   -1519.1897
   2    4383.5232
   3    3119.5107
   11    3633.8533
   12    7638.3179
   13    5536.5702
   23   -442.25842
   25    8.4545071
   26    555.17691
   31    2677.9942
   32    2677.9942
   33    3523.8879
   34    3240.7466
   35    3240.7466
   36    581.53433
   41    3837.4358
   42    3837.4358
   43    1061.1113
   44    4107.8884
   45    4107.8884
   46    4727.0922
   47    2136.1453
   48    2136.1453
   49    1637.7305

BLOCK SMINPUTS
   1    127.90897
   2    1.1663787e-05
   3    0.1184
   4    91.1876
   5    4.18
   6    173.2
   7    1.777
   8    0
   11    0.00051099893
   12    0
   13    0.10565837
   14    0
   21    0.005
   22    0.0025
   23    0.095
   24    1.27

BLOCK GAUGE Q=  2371.8877
   1    0.35536298
   2    0.66519887
   3    1.219778

BLOCK YU Q=  2371.8877
   1   1    8.4428179e-06
   2   2    0.0042889515
   3   3    1.0199602

BLOCK YD Q=  2371.8877
   1   1    0.00014343527
   2   2    0.0027252702
   3   3    0.14224284

BLOCK YE Q=  2371.8877
   1   1    2.5030504e-05
   2   2    0.0051755144
   3   3    0.087043637

BLOCK AU Q=  2371.8877
   1   1    0
   2   2    0
   3   3    3633.8533

BLOCK AD Q=  2371.8877
   1   1    0
   2   2    0
   3   3    7638.3327

BLOCK AE Q=  2371.8877
   1   1    0
   2   2    0
   3   3    5536.5701

BLOCK MSOFT Q=  2371.8877
   1   -1519.1897
   2    4383.5232
   3    3119.5107
   21    151338.21
   22   -361569.79
   31    2677.9942
   32    2677.9942
   33    3523.8879
   34    3240.7466
   35    3240.7466
   36    581.53433
   41    3837.4358
   42    3837.4358
   43    1061.1113
   44    4107.8884
   45    4107.8884
   46    4727.0922
   47    2136.1453
   48    2136.1453
   49    1637.7305

BLOCK MASS
   6    173.2
   23    91.1876
   24    80.429995
   15    1.777
   25    120.38197
   35    555.60807
   36    555.17691
   37    561.17933
   1000001    3911.6822
   2000001    2226.9151
   1000002    3910.9193
   2000002    4168.0086
   1000003    3911.682
   2000003    2226.915
   1000004    3910.9191
   2000004    4168.0084
   1000005    1181.5834
   2000005    1720.238
   1000006    1182.7724
   2000006    4756.4954
   1000011    2690.6128
   2000011    3238.4505
   1000012    2689.0562
   1000013    2690.6123
   2000013    3238.4494
   1000014    2689.0556
   1000015    563.83112
   2000015    3538.1875
   1000016    3536.8924
   1000021    3281.3232
   1000022   -455.79618
   1000023    456.11738
   1000025   -1514.3602
   1000035    4354.1852
   1000024    456.87838
   1000037    4354.265

BLOCK ALPHA
      -0.12083834

BLOCK HMIX Q=  2371.8877
   1   -442.25842
   2    8.4545071
   3    243.55759
   4    308221.4

BLOCK STOPMIX
   1   1   -0.99969921
   1   2    0.024525129
   2   1   -0.024525129
   2   2   -0.99969921

BLOCK SBOTMIX
   1   1   -0.99982682
   1   2    0.018609936
   2   1   -0.018609936
   2   2   -0.99982682

BLOCK STAUMIX
   1   1   -0.0013310454
   1   2    0.99999911
   2   1   -0.99999911
   2   2   -0.0013310454

BLOCK NMIX
   1   1    0.032039936
   1   2    0.012938273
   1   3   -0.70696869
   1   4    0.70640025
   2   1   -0.013482074
   2   2   -0.012555934
   2   3   -0.70712298
   2   4   -0.70685053
   3   1   -0.99939565
   3   2    0.00044699469
   3   3   -0.013125717
   3   4    0.032184754
   4   1    0.00013711923
   4   2   -0.99983736
   4   3   -0.0002742757
   4   4    0.018032087

BLOCK UMIX
   1   1    0.00038686031
   1   2   -0.99999993
   2   1    0.99999993
   2   2    0.00038686031

BLOCK VMIX
   1   1   -0.025501811
   1   2    0.99967478
   2   1    0.99967478
   2   2    0.025501811

BLOCK HIGGSBOUNDSINPUTHIGGSCOUPLINGSFERMIONS
       0, 71.478691,3,36,15,15

BLOCK HIGGSBOUNDSINPUTHIGGSCOUPLINGSBOSONS
       0,4,36,21,21,23

BLOCK SPHENOLOWENERGY
   1    0.00039570259
   2    1.5904889e-06
   3    3.530484e-05
   4    2.5519472e-15
   5    1.0901628e-10
   6    2.2821304e-08
   7    8.6251799e-14
   8    3.684674e-09
   9    7.8154479e-07
   10    9.5357198e-05
   11    0.98500335
   12    0.54346437
   13    19.412912
   14    0
   15    0
   16    0.0021636047
   17    2.2817256e-15
   18    2.4837715e-11
   19    8.2993123e-11
   20   -2.9054458e-16
   21   -1.2421634e-11
   22   -4.8744398e-09
   23    0
   24    0
   25    0
   26    0
   27    0
   28    0
   29    0
   30    0
   31    0
   39   -2.7563016e-05
   40    0
   41    0
   42    0

BLOCK FWCOEF Q=  160
   305   4422   0   0   -0.18881911
   305   4422   0   2   -0.26269965
   305   4322   0   2   -0.0014651991
   305   6421   0   0   -0.095227835
   305   6421   0   2   -0.17633313
   305   6321   0   2   -0.0015965497
   3051111   4133   0   0    1.6079211
   3051111   4133   0   2    1.6086977
   3051111   4233   0   2    4.1810574e-06
   3051111   4137   0   0   -4.4306132
   3051111   4137   0   2   -4.4340827
   3051111   4237   0   2   -3.1377643e-05
   3051313   4133   0   0    1.6079211
   3051313   4133   0   2    1.6086977
   3051313   4233   0   2    4.1808329e-06
   3051313   4137   0   0   -4.4306132
   3051313   4137   0   2   -4.4340827
   3051313   4237   0   2   -3.1377426e-05
   3051212   4137   0   0    1.5053501
   3051212   4137   0   2    1.5061034
   3051212   4237   0   2    6.8137461e-06
   3051414   4137   0   0    1.5053501
   3051414   4137   0   2    1.5061034
   3051414   4237   0   2    6.8137945e-06
   3051616   4137   0   0    1.5053501
   3051616   4137   0   2    1.5061036
   3051616   4237   0   2    6.8274335e-06

BLOCK IMFWCOEF Q=  160
   305   4422   0   0    3.858281e-07
   305   4422   0   2   -5.9353661e-06
   305   4322   0   2    2.8740445e-07
   305   6421   0   0    3.3048728e-07
   305   6421   0   2    5.3334091e-06
   305   6321   0   2    2.1998989e-07
   3051111   4133   0   2    1.1074638e-07
   3051111   4233   0   2    4.5500323e-07
   3051111   4137   0   2    2.5648073e-06
   3051111   4237   0   2   -3.4551101e-06
   3051313   4133   0   2    1.107465e-07
   3051313   4233   0   2    4.550032e-07
   3051313   4137   0   2    2.5648074e-06
   3051313   4237   0   2   -3.4551102e-06
   3051212   4137   0   2   -5.5892167e-07
   3051212   4237   0   2    7.5028928e-07
   3051414   4137   0   2   -5.5892168e-07
   3051414   4237   0   2    7.5028928e-07
   3051616   4137   0   2   -5.5659536e-07
   3051616   4237   0   2    7.5028921e-07

DECAY 23  2.4952


DECAY 24  2.085


DECAY 1000011  1.5875918
    0.99089373   2    1000025    11
    0.0063569587   2    1000022    11
    0.0027472046   2    1000023    11

DECAY 2000011  9.9406494
    0.99809967   2    1000025    11
    0.0016144777   2    1000022    11
    0.00028585112   2    1000023    11

DECAY 1000013  1.5889434
    0.99005038   2    1000025    13
    0.006776985   2    1000022    13
    0.0031705272   2    1000023    13

DECAY 2000013  9.9439629
    0.9977664   2    1000025    13
    0.0016972808   2    1000022    13
    0.00036911927   2    1000023    13
    0.00016671613   2   -1000024    14

DECAY 1000015  0.020684461
    0.48714397   2   -1000024    16
    0.26532617   2    1000022    15
    0.24752986   2    1000023    15

DECAY 2000015  4.7400439
    0.62381284   2    1000025    15
    0.1264525   2    1000015    36
    0.12628887   2    1000015    35
    0.057245677   2    1000022    15
    0.055641276   2    1000023    15
    0.0053540595   2    1000015    25
    0.0052027682   2    1000015    23

DECAY 1000012  1.5908401
    0.99054901   2    1000025    12
    0.0091273286   2    1000024    11
    0.00020114101   2    1000023    12
    0.00012252325   2    1000022    12

DECAY 1000014  1.5921908
    0.98970811   2    1000025    14
    0.0099684996   2    1000024    13
    0.00020097033   2    1000023    14
    0.00012241928   2    1000022    14

DECAY 1000016  4.7482308
    0.62436426   2    1000025    16
    0.25241251   2    1000015    37
    0.11269646   2    1000024    15
    0.010380564   2    1000015    24

DECAY 2000001  0.36022161
    0.99616711   2    1000025    1
    0.0032535935   2    1000022    1
    0.00057697682   2    1000023    1

DECAY 1000001  27.510998
    0.98550791   2    1000021    1
    0.014397194   2    1000025    1

DECAY 2000003  0.36082375
    0.99450429   2    1000025    3
    0.0036655016   2    1000022    3
    0.00099333808   2    1000023    3
    0.00083687339   2   -1000024    4

DECAY 1000003  27.512936
    0.98543787   2    1000021    3
    0.014396181   2    1000025    3

DECAY 1000005  16.973858
    0.9796527   2   -1000024    6
    0.010182764   2    1000023    5
    0.010164538   2    1000022    5

DECAY 2000005  1.6170975
    0.37328412   2   -1000024    6
    0.18542812   2    1000022    5
    0.18495792   2    1000023    5
    0.10491485   2    1000006   -24
    0.069160865   2    1000005    25
    0.052231465   2    1000005    23
    0.030022667   2    1000025    5

DECAY 1000002  27.480155
    0.9845945   2    1000021    2
    0.014264525   2    1000025    2
    0.00079277083   2    1000024    1
    0.00021186071   2    1000022    2
    0.00013634566   2    1000023    2

DECAY 2000002  54.575865
    0.87146059   2    1000021    2
    0.12833823   2    1000025    2
    0.00017091633   2    1000022    2

DECAY 1000004  27.482015
    0.9845245   2    1000021    4
    0.014263608   2    1000025    4
    0.00081312186   2    1000024    3
    0.00023712006   2    1000022    4
    0.00016164386   2    1000023    4

DECAY 2000004  54.578745
    0.87141292   2    1000021    4
    0.1283314   2    1000025    4
    0.00018452855   2    1000022    4

DECAY 1000006  17.093166
    0.49003814   2    1000023    6
    0.48952275   2    1000022    6
    0.020215289   2    1000024    5
    0.00022381634   3    1000022    24    5

DECAY 2000006  385.81147
    0.2659545   2    1000021    6
    0.25037128   2    1000024    5
    0.1248082   2    1000023    6
    0.12465247   2    1000022    6
    0.094164552   2    1000005    24
    0.070650146   2    1000006    25
    0.047037641   2    1000006    23
    0.022308019   2    1000025    6

DECAY 1000024  5.8510119e-13
    0.59876352   3    1000022   -1    2
    0.19964218   3    1000022   -11    12
    0.18156645   3    1000022   -13    14
    0.012633685   3    1000023   -1    2
    0.0042146801   3    1000023   -11    12
    0.003179481   3    1000023   -13    14

DECAY 1000037  216.61069
    0.2278617   2    1000006   -5
    0.22646388   2   -1000005    6
    0.044918937   2    1000024    35
    0.04486606   2    1000024    36
    0.04486255   2    37    1000023
    0.041944085   2    1000024    25
    0.040788462   2    1000023    24
    0.040769147   2    1000024    23
    0.04076126   2    1000022    24
    0.040645113   2    37    1000022
    0.033836761   2    1000014   -13
    0.033836745   2    1000012   -11
    0.033810443   2   -1000013    14
    0.033810427   2   -1000011    12
    0.010233325   2    1000016   -15
    0.010210914   2   -2000015    16
    0.0099084992   2    1000004   -3
    0.0099084923   2    1000002   -1
    0.0098826687   2   -1000001    2
    0.009882632   2   -1000003    4
    0.0046847984   3    1000024    6   -6
    0.0031561653   3    1000022   -5    6
    0.0028246116   3    1000023   -5    6

DECAY 1000022 -1


DECAY 1000023  6.7345408e-12
    0.99273316   2    1000022    22
    0.006838783   2    1000022    111
    0.00035818044   3    1000022    12   -12

DECAY 1000025  13.443782
    0.20972457   2    1000015   -15
    0.20972457   2   -1000015    15
    0.080140138   2    1000024   -24
    0.080140138   2   -1000024    24
    0.068317944   2    1000023    23
    0.066533165   2    1000022    25
    0.057042923   2    37   -1000024
    0.057042923   2   -37    1000024
    0.050740144   2    1000023    35
    0.040956301   2    1000023    25
    0.031135438   2    1000022    35
    0.012061109   2    1000022    23
    0.011476091   2    1000022    36
    0.0071302198   2    1000023    36
    0.0036177862   2    1000005   -5
    0.0036177862   2   -1000005    5
    0.00240764   2    1000006   -6
    0.00240764   2   -1000006    6
    0.0018741463   3    1000024    5   -6
    0.0018741463   3   -1000024   -5    6
    0.0011352703   3    1000022    6   -6
    0.00089561604   3    1000023    6   -6

DECAY 1000035  219.03017
    0.11256086   2    1000005   -5
    0.11256086   2   -1000005    5
    0.11208669   2    1000006   -6
    0.11208669   2   -1000006    6
    0.044347468   2    37   -1000024
    0.044347468   2   -37    1000024
    0.040344497   2    1000024   -24
    0.040344497   2   -1000024    24
    0.032615069   2    1000022    25
    0.031736623   2    1000023    35
    0.020776107   2    1000023    23
    0.020588024   2    1000022    36
    0.020030487   2    1000023    25
    0.019524948   2    1000022    23
    0.019474254   2    1000022    35
    0.016738326   2    1000014   -14
    0.016738326   2   -1000014    14
    0.016738318   2    1000012   -12
    0.016738318   2   -1000012    12
    0.016709533   2    1000013   -13
    0.016709533   2   -1000013    13
    0.016709525   2    1000011   -11
    0.016709525   2   -1000011    11
    0.01280589   2    1000023    36
    0.0050617281   2    1000016   -16
    0.0050617281   2   -1000016    16
    0.0050458569   2    2000015   -15
    0.0050458569   2   -2000015    15
    0.0048992848   2    1000002   -2
    0.0048992848   2   -1000002    2
    0.0048992656   2    1000004   -4
    0.0048992656   2   -1000004    4
    0.0048838176   2    1000003   -3
    0.0048838176   2   -1000003    3
    0.0048838131   2    1000001   -1
    0.0048838131   2   -1000001    1
    0.0027918115   3    1000024    5   -6
    0.0027918115   3   -1000024   -5    6
    0.0025646897   3    1000022    6   -6
    0.0023165183   3    1000023    6   -6

DECAY 1000021  255.10641
    0.14482528   2    1000006   -6
    0.14482528   2   -1000006    6
    0.14421384   2    1000005   -5
    0.14421384   2   -1000005    5
    0.10009218   2    2000005   -5
    0.10009218   2   -2000005    5
    0.055390627   2    2000003   -3
    0.055390627   2   -2000003    3
    0.055390614   2    2000001   -1
    0.055390614   2   -2000001    1

DECAY 25  0.0037448798
    0.66752427   2   -5    5
    0.14211853   2   -24    24
    0.075659341   2   -15    15
    0.067052324   2    21    21
    0.028382099   2   -4    4
    0.015676853   2    23    23
    0.0020765773   2    22    22
    0.00099780363   2    22    23
    0.00026229077   2   -13    13
    0.00024907095   2   -3    3
    6.8865185e-07   2   -1    1
    1.4627321e-07   2   -2    2
    5.8966548e-09   2   -11    11

DECAY 35  0.99438221
    0.67606646   2   -5    5
    0.20540398   2   -6    6
    0.092956752   2   -15    15
    0.018895675   2    25    25
    0.0037500711   2   -24    24
    0.0018163714   2    23    23
    0.00053892352   2    21    21
    0.00031966203   2   -13    13
    0.00024483935   2   -3    3
    5.0666791e-06   2   -4    4
    1.2684354e-06   2    22    22
    6.7690825e-07   2   -1    1
    2.4653578e-07   2    22    23
    7.183134e-09   2   -11    11
    2.6131084e-11   2   -2    2

DECAY 36  1.0503231
    0.633832   2   -5    5
    0.2746596   2   -6    6
    0.087131079   2   -15    15
    0.0029535005   2    23    25
    0.00088705537   2    21    21
    0.0002996183   2   -13    13
    0.00022950711   2   -3    3
    4.1025307e-06   2   -4    4
    2.2796912e-06   2    22    22
    6.3451909e-07   2   -1    1
    6.0834973e-07   2    22    23
    6.7327325e-09   2   -11    11
    2.1159894e-11   2   -2    2
    1.4737651e-38   2    25    25

DECAY 37  0.89668082
    0.89611257   2   -5    6
    0.098125528   2   -15    16
    0.0036687916   2    24    25
    0.0010140425   2   -5    4
    0.00045047483   2   -3    6
    0.00034691546   2   -13    14
    0.00024198571   2   -3    4
    2.0647994e-05   2   -1    6
    1.0854558e-05   2   -3    2
    7.2413289e-06   2   -5    2
    6.575872e-07   2   -1    2
    2.5905921e-07   2   -1    4
    1.168344e-08   2    24    36
    8.1143894e-09   2   -11    12
    8.0535028e-09   2    24    35

DECAY 6  2.43
    1   2    5    24

DECAY 15 -1
