BLOCK SPINFO
   1   SPheno
   2   v4.0.5be

BLOCK SPHENOINFO
   1   2
   2   2

BLOCK MODSEL
   1   0

BLOCK MINPAR
   3    22.449888
   4   -1

BLOCK EXTPAR
   0    1144.7718
   1    170.18322
   2    209.21098
   3    3000
   11   -3474.4907
   12    668.31164
   13    799.68364
   23   -239.49498
   25    21.744518
   26    1968.6714
   31    321.28284
   32    321.28284
   33    1543.7767
   34    1311.9424
   35    1311.9424
   36    1792.1803
   41    5000
   42    5000
   43    1485.7222
   44    5000
   45    5000
   46    1116.3346
   47    5000
   48    5000
   49    1716.6275

BLOCK SMINPUTS
   1    127.90897
   2    1.1663787e-05
   3    0.1184
   4    91.1876
   5    4.18
   6    173.2
   7    1.777
   8    0
   11    0.00051099893
   12    0
   13    0.10565837
   14    0
   21    0.005
   22    0.0025
   23    0.095
   24    1.27

BLOCK GAUGE Q=  1144.7718
   1    0.35536298
   2    0.66519887
   3    1.219778

BLOCK YU Q=  1144.7718
   1   1    8.3932337e-06
   2   2    0.0042637627
   3   3    1.01397

BLOCK YD Q=  1144.7718
   1   1    0.0003667409
   2   2    0.006968077
   3   3    0.36369205

BLOCK YE Q=  1144.7718
   1   1    6.3998968e-05
   2   2    0.013232957
   3   3    0.22255657

BLOCK AU Q=  1144.7718
   1   1    0
   2   2    0
   3   3   -3474.4905

BLOCK AD Q=  1144.7718
   1   1    0
   2   2    0
   3   3    668.31161

BLOCK AE Q=  1144.7718
   1   1    0
   2   2    0
   3   3    799.68366

BLOCK MSOFT Q=  1144.7718
   1    170.18322
   2    209.21098
   3    3000
   21    3814795.1
   22   -21954.838
   31    321.28284
   32    321.28284
   33    1543.7767
   34    1311.9424
   35    1311.9424
   36    1792.1803
   41    5000
   42    5000
   43    1485.7222
   44    5000
   45    5000
   46    1116.3346
   47    5000
   48    5000
   49    1716.6275

BLOCK MASS
   6    173.2
   23    91.1876
   24    80.429995
   15    1.777
   25    123.60181
   35    1968.2167
   36    1968.6714
   37    1970.1884
   1000001    5016.4598
   2000001    5005.6069
   1000002    5016.0278
   2000002    5007.2361
   1000003    5016.4619
   2000003    5005.6099
   1000004    5016.03
   2000004    5007.2373
   1000005    1403.6972
   2000005    1702.8948
   1000006    886.33667
   2000006    1478.5606
   1000011    327.92391
   2000011    1313.3002
   1000012    317.91032
   1000013    327.91922
   2000013    1313.2966
   1000014    317.9058
   1000015    1546.7912
   2000015    1792.7599
   1000016    1544.4639
   1000021    3166.6863
   1000022    157.22492
   1000023    193.67318
   1000025   -252.79362
   1000035    296.14499
   1000024    186.11757
   1000037    296.18998

BLOCK ALPHA
      -0.044736899

BLOCK HMIX Q=  1144.7718
   1   -239.49498
   2    21.744518
   3    244.2129
   4    3875667.2

BLOCK STOPMIX
   1   1    0.37689074
   1   2    0.92625772
   2   1   -0.92625772
   2   2    0.37689074

BLOCK SBOTMIX
   1   1   -0.99988644
   1   2    0.01507
   2   1   -0.01507
   2   2   -0.99988644

BLOCK STAUMIX
   1   1   -0.99991795
   1   2    0.012809883
   2   1   -0.012809883
   2   2   -0.99991795

BLOCK NMIX
   1   1   -0.8219244
   1   2    0.28838745
   1   3    0.41685072
   1   4    0.25982384
   2   1   -0.52695457
   2   2   -0.7096951
   2   3   -0.36908696
   2   4   -0.28710026
   3   1    0.078099446
   3   2   -0.12618178
   3   3    0.68554429
   3   4   -0.71274656
   4   1   -0.20164234
   4   2    0.63027272
   4   3   -0.46908349
   4   4   -0.58485669

BLOCK UMIX
   1   1   -0.67701487
   1   2   -0.73596934
   2   1    0.73596934
   2   2   -0.67701487

BLOCK VMIX
   1   1   -0.83868933
   1   2    0.54461015
   2   1    0.54461015
   2   2    0.83868933

BLOCK HIGGSBOUNDSINPUTHIGGSCOUPLINGSFERMIONS
       0, 472.82405,3,36,15,15

BLOCK HIGGSBOUNDSINPUTHIGGSCOUPLINGSBOSONS
       0,4,36,21,21,23

BLOCK SPHENOLOWENERGY
   1    0.00037990976
   2    1.5872678e-06
   3    3.5241441e-05
   4    2.0841042e-15
   5    8.9030552e-11
   6    1.8632363e-08
   7    7.0155217e-14
   8    2.9970281e-09
   9    6.3553145e-07
   10    9.5977748e-05
   11    0.99141339
   12    0.54363264
   13    19.420636
   14    0
   15    0
   16    0.0021652857
   17    2.2817401e-15
   18    2.4789343e-11
   19    8.2878397e-11
   20   -2.6686971e-14
   21   -1.1410833e-09
   22   -5.3541395e-08
   23    0
   24    0
   25    0
   26    0
   27    0
   28    0
   29    0
   30    0
   31    0
   39    0.00010400312
   40    0
   41    0
   42    0

BLOCK FWCOEF Q=  160
   305   4422   0   0   -0.18881911
   305   4422   0   2   -0.25511623
   305   4322   0   2   -0.00054473129
   305   6421   0   0   -0.095227835
   305   6421   0   2   -0.13734292
   305   6321   0   2   -0.00041799078
   3051111   4133   0   0    1.5822482
   3051111   4133   0   2    1.5838107
   3051111   4233   0   2    5.685913e-05
   3051111   4137   0   0   -4.4049403
   3051111   4137   0   2   -4.4019277
   3051111   4237   0   2   -0.00044835743
   3051313   4133   0   0    1.5822482
   3051313   4133   0   2    1.5838076
   3051313   4233   0   2    5.6858915e-05
   3051313   4137   0   0   -4.4049403
   3051313   4137   0   2   -4.4019308
   3051313   4237   0   2   -0.00044835768
   3051212   4137   0   0    1.5053501
   3051212   4137   0   2    1.5047559
   3051212   4237   0   2    9.791909e-05
   3051414   4137   0   0    1.5053501
   3051414   4137   0   2    1.5047559
   3051414   4237   0   2    9.7919118e-05
   3051616   4137   0   0    1.5053501
   3051616   4137   0   2    1.5047507
   3051616   4237   0   2    9.7928776e-05

BLOCK IMFWCOEF Q=  160
   305   4422   0   0    3.8578798e-07
   305   4422   0   2   -1.6326487e-05
   305   4322   0   2   -5.5355244e-06
   305   6421   0   0    3.3045292e-07
   305   6421   0   2    3.4800405e-06
   305   6321   0   2   -2.1503059e-06
   3051111   4133   0   2   -3.6873227e-06
   3051111   4233   0   2    1.4225814e-06
   3051111   4137   0   2    2.16422e-05
   3051111   4237   0   2   -1.1229564e-05
   3051313   4133   0   2   -3.6875483e-06
   3051313   4233   0   2    1.4225799e-06
   3051313   4137   0   2    2.1642331e-05
   3051313   4237   0   2   -1.1229571e-05
   3051212   4137   0   2   -3.6103015e-06
   3051212   4237   0   2    2.4525606e-06
   3051414   4137   0   2   -3.6102986e-06
   3051414   4237   0   2    2.4525606e-06
   3051616   4137   0   2   -3.7025387e-06
   3051616   4237   0   2    2.4525928e-06

DECAY 23  2.4952


DECAY 24  2.085


DECAY 1000011  1.2969074
    0.4688015   2   -1000024    12
    0.46366645   2    1000023    11
    0.040897779   2   -1000037    12
    0.014990712   2    1000022    11
    0.010336557   2    1000035    11
    0.0013068685   2    1000025    11

DECAY 2000011  6.363633
    0.68059417   2    1000022    11
    0.2755571   2    1000023    11
    0.037983736   2    1000035    11
    0.0058649739   2    1000025    11

DECAY 1000013  1.2971199
    0.46870525   2   -1000024    14
    0.46362597   2    1000023    13
    0.040880141   2   -1000037    14
    0.015077604   2    1000022    13
    0.010336983   2    1000035    13
    0.0013739215   2    1000025    13

DECAY 2000013  6.3722215
    0.67979643   2    1000022    13
    0.27527822   2    1000023    13
    0.038074559   2    1000035    13
    0.0061698468   2    1000025    13
    0.00037343333   2   -1000024    14
    0.00029646177   2   -1000037    14

DECAY 1000015  22.762023
    0.29827951   2   -1000037    16
    0.29411428   2    1000023    15
    0.26875058   2   -1000024    16
    0.088265463   2    1000035    15
    0.031431851   2    1000025    15
    0.019158323   2    1000022    15

DECAY 2000015  12.256699
    0.51118012   2    1000022    15
    0.21736126   2    1000023    15
    0.071096634   2   -1000024    16
    0.070229805   2    1000025    15
    0.067806135   2   -1000037    16
    0.060839416   2    1000035    15
    0.00076100997   2    1000016   -24
    0.00037509091   2    1000015    25
    0.00035052472   2    1000015    23

DECAY 1000012  1.4075438
    0.60415974   2    1000024    11
    0.30022895   2    1000022    12
    0.07208193   2    1000023    12
    0.010271656   2    1000037    11
    0.0094684412   2    1000035    12
    0.0037892783   2    1000025    12

DECAY 1000014  1.4077581
    0.60423754   2    1000024    13
    0.30017346   2    1000022    14
    0.072067516   2    1000023    14
    0.010269873   2    1000037    13
    0.0094633358   2    1000035    14
    0.0037882774   2    1000025    14

DECAY 1000016  22.824576
    0.44205693   2    1000024    15
    0.19221263   2    1000037    15
    0.15437177   2    1000022    16
    0.15050371   2    1000035    16
    0.052902282   2    1000023    16
    0.0079526856   2    1000025    16

DECAY 2000001  144.92368
    0.98076439   2    1000021    1
    0.013001286   2    1000022    1
    0.0053385767   2    1000023    1
    0.00077858941   2    1000035    1
    0.00011706241   2    1000025    1

DECAY 1000001  209.88169
    0.68260831   2    1000021    1
    0.1131728   2   -1000037    2
    0.096173605   2   -1000024    2
    0.046363552   2    1000035    1
    0.03978251   2    1000023    1
    0.019845069   2    1000022    1
    0.002054155   2    1000025    1

DECAY 2000003  144.93359
    0.98069947   2    1000021    3
    0.013006176   2    1000022    3
    0.0053427323   2    1000023    3
    0.00078580515   2    1000035    3
    0.00013260988   2    1000025    3

DECAY 1000003  209.88856
    0.68258704   2    1000021    3
    0.11317522   2   -1000037    4
    0.096173023   2   -1000024    4
    0.046367081   2    1000035    3
    0.039784355   2    1000023    3
    0.019848423   2    1000022    3
    0.0020648525   2    1000025    3

DECAY 1000005  103.065
    0.54241489   2    1000006   -24
    0.24031292   2   -1000037    6
    0.12521175   2   -1000024    6
    0.03100503   2    1000035    5
    0.026802265   2    1000023    5
    0.017543265   2    1000022    5
    0.016709882   2    1000025    5

DECAY 2000005  9.5314098
    0.23168787   2   -1000024    6
    0.21389915   2    1000025    5
    0.21153599   2   -1000037    6
    0.14116725   2    1000022    5
    0.10709988   2    1000035    5
    0.086574253   2    1000023    5
    0.0043370846   2    1000006   -24
    0.0017291539   2    1000005    25
    0.001137109   2    1000005    23
    0.00083225036   2    2000006   -24

DECAY 2000002  153.46005
    0.9273145   2    1000021    2
    0.049128292   2    1000022    2
    0.020173007   2    1000023    2
    0.0029420128   2    1000035    2
    0.00044218495   2    1000025    2

DECAY 1000002  209.88092
    0.68239629   2    1000021    2
    0.14757942   2    1000024    1
    0.067717417   2    1000023    2
    0.06196664   2    1000037    1
    0.036903238   2    1000035    2
    0.0021176911   2    1000022    2
    0.001319296   2    1000025    2

DECAY 2000004  153.46371
    0.92729276   2    1000021    4
    0.049127912   2    1000022    4
    0.020173503   2    1000023    4
    0.0029459584   2    1000035    4
    0.00044813582   2    1000025    4

DECAY 1000004  209.88772
    0.68237494   2    1000021    4
    0.14758715   2    1000024    3
    0.067715943   2    1000023    4
    0.061975129   2    1000037    3
    0.036905011   2    1000035    4
    0.0021182042   2    1000022    4
    0.0013236179   2    1000025    4

DECAY 1000006  29.450193
    0.29073291   2    1000024    5
    0.23538861   2    1000025    6
    0.20460223   2    1000037    5
    0.094982167   2    1000022    6
    0.08807816   2    1000023    6
    0.085943164   2    1000035    6
    0.00025763886   2    1000023    4

DECAY 2000006  112.24407
    0.30216614   2    1000006    23
    0.23791716   2    1000006    25
    0.13838995   2    1000035    6
    0.11925532   2    1000025    6
    0.11639637   2    1000037    5
    0.040754624   2    1000023    6
    0.039807617   2    1000024    5
    0.0053128189   2    1000022    6

DECAY 1000024  1.4216923e-05
    0.33195439   3    1000022   -1    2
    0.32892116   3    1000022   -3    4
    0.11520449   3    1000022   -11    12
    0.11520279   3    1000022   -13    14
    0.10871717   3    1000022   -15    16

DECAY 1000037  0.25163423
    0.66206047   2    1000023    24
    0.33237712   2    1000024    23
    0.0034060682   2    1000022    24
    0.00056967411   3    1000025   -1    2
    0.00056761247   3    1000025   -3    4
    0.00018856858   3    1000025   -15    16
    0.00018784456   3    1000025   -11    12
    0.00018784135   3    1000025   -13    14
    0.00011188775   3    1000024    12   -12

DECAY 1000022 -1


DECAY 1000023  1.2422823e-06
    0.14982849   3    1000022    1   -1
    0.14981748   3    1000022    3   -3
    0.13396821   3    1000022    5   -5
    0.12460685   3    1000022    12   -12
    0.11662957   3    1000022    2   -2
    0.11485348   3    1000022    4   -4
    0.036585121   2    1000022    22
    0.031799819   3    1000022    15   -15
    0.023073655   3    1000022    13   -13
    0.023063529   3    1000022    11   -11
    0.0168585   3    1000024    1   -2
    0.0168585   3   -1000024   -1    2
    0.014694495   3    1000024    3   -4
    0.014694495   3   -1000024   -3    4
    0.0060108792   3    1000024    11   -12
    0.0060108792   3   -1000024   -11    12
    0.0060050374   3    1000024    13   -14
    0.0060050374   3   -1000024   -13    14
    0.0043179817   3    1000024    15   -16
    0.0043179817   3   -1000024   -15    16

DECAY 1000025  0.22927297
    0.95907886   2    1000022    23
    0.0063337564   3    1000024    1   -2
    0.0063337564   3   -1000024   -1    2
    0.0063273049   3    1000024    3   -4
    0.0063273049   3   -1000024   -3    4
    0.0021337985   3    1000024    11   -12
    0.0021337985   3   -1000024   -11    12
    0.0021337861   3    1000024    13   -14
    0.0021337861   3   -1000024   -13    14
    0.0021081533   3    1000024    15   -16
    0.0021081533   3   -1000024   -15    16
    0.00053670612   3    1000023    12   -12
    0.00039306095   3    1000023    1   -1
    0.00039305171   3    1000023    3   -3
    0.00037548628   3    1000023    5   -5
    0.00030660378   3    1000023    2   -2
    0.00030507491   3    1000023    4   -4
    0.00016192433   2    1000022    22
    0.0001122729   2    1000023    22

DECAY 1000035  0.41567615
    0.46064227   2    1000024   -24
    0.46064227   2   -1000024    24
    0.057736808   2    1000022    25
    0.019736989   2    1000022    23
    0.00015478532   3    1000022    12   -12
    0.00013599221   3    1000025    12   -12
    0.00012138626   2    1000023    23
    0.00010714515   3    1000025    1   -1
    0.00010713981   3    1000025    3   -3

DECAY 1000021  243.97307
    0.14961641   2    1000006   -6
    0.14961641   2   -1000006    6
    0.12862141   2    2000006   -6
    0.12862141   2   -2000006    6
    0.12403715   2    1000005   -5
    0.12403715   2   -1000005    5
    0.097050296   2    2000005   -5
    0.097050296   2   -2000005    5
    0.0005420689   2    1000006   -4
    0.0005420689   2   -1000006    4

DECAY 25  0.0037056376
    0.59708155   2   -5    5
    0.20606268   2   -24    24
    0.070626426   2    21    21
    0.068478058   2   -15    15
    0.029320811   2   -4    4
    0.02425568   2    23    23
    0.0023395395   2    22    22
    0.0013734153   2    22    23
    0.00023694932   2   -13    13
    0.00022410654   2   -3    3
    6.1963185e-07   2   -1    1
    1.511013e-07   2   -2    2
    5.3269017e-09   2   -11    11

DECAY 35  38.932802
    0.29241595   2   -5    5
    0.15376577   2   -1000024    1000024
    0.09260318   2   -1000024    1000037
    0.09260318   2   -1000037    1000024
    0.059576201   2    1000025    1000035
    0.052444943   2    1000022    1000022
    0.052411266   2   -1000037    1000037
    0.051817265   2   -15    15
    0.048117962   2    1000035    1000035
    0.038888253   2    1000022    1000025
    0.033609254   2    1000022    1000023
    0.00873505   2   -1000006    1000006
    0.0072148091   2    1000023    1000025
    0.0050461521   2    1000023    1000023
    0.0046536487   2    1000025    1000025
    0.0041579391   2   -6    6
    0.0015345613   2    1000022    1000035
    0.0001680002   2   -13    13
    0.00011582205   2   -3    3
    0.00010177303   2    1000023    1000035
    6.8261198e-06   2    25    25
    2.3262245e-06   2    23    23
    2.1229219e-06   2    21    21
    1.2619226e-06   2   -24    24
    6.5812923e-07   2   -1000011    1000011
    6.5646688e-07   2   -1000013    1000013
    3.8379231e-07   2    22    23
    3.2022079e-07   2   -1    1
    1.0857421e-07   2    22    22
    5.031359e-08   2   -4    4
    3.7736748e-09   2   -11    11
    1.2854163e-09   2   -2000013    1000013
    1.2854163e-09   2   -1000013    2000013
    2.5938458e-13   2   -2    2
    3.0066032e-14   2   -2000011    1000011
    3.0066032e-14   2   -1000011    2000011

DECAY 36  38.023973
    0.28660381   2   -5    5
    0.14664242   2   -1000024    1000024
    0.10554169   2   -1000024    1000037
    0.10554169   2   -1000037    1000024
    0.06402463   2    1000025    1000035
    0.050781795   2   -15    15
    0.04928637   2    1000022    1000022
    0.048322106   2    1000022    1000025
    0.043303695   2    1000035    1000035
    0.043146087   2   -1000037    1000037
    0.03130612   2    1000022    1000023
    0.0091809899   2    1000023    1000025
    0.0061340735   2    1000025    1000025
    0.0046823482   2    1000023    1000023
    0.0041791751   2   -6    6
    0.00084943306   2    1000022    1000035
    0.00017387245   2    1000023    1000035
    0.00016463979   2   -13    13
    0.00011350418   2   -3    3
    1.7641827e-05   2    21    21
    3.2055116e-06   2    23    25
    3.1381232e-07   2   -1    1
    2.9388404e-07   2    22    23
    4.9320869e-08   2   -4    4
    3.3706078e-08   2    22    22
    3.6981972e-09   2   -11    11
    1.3006684e-09   2   -2000013    1000013
    1.3006684e-09   2   -1000013    2000013
    2.5428871e-13   2   -2    2
    3.0422763e-14   2   -2000011    1000011
    3.0422763e-14   2   -1000011    2000011
    1.5615178e-40   2    25    25

DECAY 37  37.795324
    0.2860514   2   -5    6
    0.21021344   2    1000023    1000037
    0.13822339   2    1000024    1000035
    0.11493102   2    1000024    1000025
    0.074988566   2    1000025    1000037
    0.052540335   2   -15    16
    0.044378751   2    1000022    1000024
    0.036987171   2    1000022    1000037
    0.036526277   2    1000023    1000024
    0.0044242656   2    1000035    1000037
    0.00041961192   2   -5    4
    0.00018574901   2   -13    14
    0.0001067316   2   -3    4
    6.1811557e-06   2   -3    6
    4.9717312e-06   2   -3    2
    3.2371546e-06   2    24    25
    2.9964631e-06   2   -5    2
    2.6551885e-06   2   -1000011    1000012
    2.6527902e-06   2   -1000013    1000014
    2.9605491e-07   2   -1    2
    2.7635192e-07   2   -1    6
    1.6305717e-08   2   -1    4
    4.3446887e-09   2   -11    12
    2.6890807e-09   2   -2000013    1000014
    1.0727004e-12   2    24    35
    2.8924036e-13   2    24    36
    6.2898327e-14   2   -2000011    1000012

DECAY 6  2.43
    1   2    5    24

DECAY 15 -1
