BLOCK SPINFO
   1   SPheno
   2   v4.0.5be

BLOCK SPHENOINFO
   1   2
   2   2

BLOCK MODSEL
   1   0

BLOCK MINPAR
   3    36.288229
   4    1

BLOCK EXTPAR
   0    2584.7734
   1    839.93312
   2   -4383.4143
   3    1799.2236
   11   -4140.5231
   12    7090.0464
   13    2199.9791
   23    895.42607
   25    35.296138
   26    1679.9078
   31    2473.7262
   32    2473.7262
   33    3107.258
   34    3604.1294
   35    3604.1294
   36    2880.1119
   41    4950.9393
   42    4950.9393
   43    4552.9393
   44    3391.4992
   45    3391.4992
   46    1339.6798
   47    1797.7798
   48    1797.7798
   49    3040.7056

BLOCK SMINPUTS
   1    127.90897
   2    1.1663787e-05
   3    0.1184
   4    91.1876
   5    4.18
   6    173.2
   7    1.777
   8    0
   11    0.00051099893
   12    0
   13    0.10565837
   14    0
   21    0.005
   22    0.0025
   23    0.095
   24    1.27

BLOCK GAUGE Q=  2584.7734
   1    0.35536298
   2    0.66519887
   3    1.219778

BLOCK YU Q=  2584.7734
   1   1    8.3877365e-06
   2   2    0.0042609701
   3   3    1.0133059

BLOCK YD Q=  2584.7734
   1   1    0.0005949113
   2   2    0.011303315
   3   3    0.58996559

BLOCK YE Q=  2584.7734
   1   1    0.00010381637
   2   2    0.021465933
   3   3    0.36102168

BLOCK AU Q=  2584.7734
   1   1    0
   2   2    0
   3   3   -4140.5283

BLOCK AD Q=  2584.7734
   1   1    0
   2   2    0
   3   3    7090.0673

BLOCK AE Q=  2584.7734
   1   1    0
   2   2    0
   3   3    2199.9829

BLOCK MSOFT Q=  2584.7734
   1    839.93312
   2   -4383.4143
   3    1799.2236
   21    1876300.1
   22   -905077.82
   31    2473.7262
   32    2473.7262
   33    3107.258
   34    3604.1294
   35    3604.1294
   36    2880.1119
   41    4950.9393
   42    4950.9393
   43    4552.9393
   44    3391.4992
   45    3391.4992
   46    1339.6798
   47    1797.7798
   48    1797.7798
   49    3040.7056

BLOCK MASS
   6    173.2
   23    91.1876
   24    80.429995
   15    1.777
   25    122.55707
   35    1679.8286
   36    1679.9078
   37    1682.1958
   1000001    5014.5208
   2000001    1888.712
   1000002    5014.0026
   2000002    3436.9074
   1000003    5014.5192
   2000003    1888.7117
   1000004    5014.0011
   2000004    3436.9074
   1000005    3095.8016
   2000005    4578.8809
   1000006    1457.9101
   2000006    4582.624
   1000011    2483.262
   2000011    3612.5219
   1000012    2481.6141
   1000013    2483.251
   2000013    3612.5003
   1000014    2481.6018
   1000015    2882.1739
   2000015    3116.1105
   1000016    3114.4408
   1000021    2059.2041
   1000022    823.97021
   1000023   -912.32764
   1000025    925.34985
   1000035   -4407.6067
   1000024    912.34684
   1000037    4407.8283

BLOCK ALPHA
      -0.027729422

BLOCK HMIX Q=  2584.7734
   1    895.42607
   2    35.296138
   3    243.44338
   4    2822090.3

BLOCK STOPMIX
   1   1    0.031699636
   1   2    0.99949744
   2   1   -0.99949744
   2   2    0.031699636

BLOCK SBOTMIX
   1   1    0.0049368932
   1   2    0.99998781
   2   1   -0.99998781
   2   2    0.0049368932

BLOCK STAUMIX
   1   1    0.036639102
   1   2    0.99932856
   2   1   -0.99932856
   2   2    0.036639102

BLOCK NMIX
   1   1   -0.93548492
   1   2   -0.0036028014
   1   3   -0.26147179
   1   4    0.23767097
   2   1   -0.017948354
   2   2   -0.014871085
   2   3    0.70695242
   2   4    0.70687692
   3   1    0.35291046
   3   2   -0.0098421813
   3   3   -0.65714622
   3   4    0.66597011
   4   1   -0.00016389623
   4   2    0.99983449
   4   3    0.0031038802
   4   4    0.017925874

BLOCK UMIX
   1   1   -0.0043686225
   1   2    0.99999046
   2   1   -0.99999046
   2   2   -0.0043686225

BLOCK VMIX
   1   1    0.025300948
   1   2    0.99967988
   2   1    0.99967988
   2   2   -0.025300948

BLOCK HIGGSBOUNDSINPUTHIGGSCOUPLINGSFERMIONS
       0, 1245.8174,3,36,15,15

BLOCK HIGGSBOUNDSINPUTHIGGSCOUPLINGSBOSONS
       0,4,36,21,21,23

BLOCK SPHENOLOWENERGY
   1    0.00030936337
   2    1.5920336e-06
   3    3.5256341e-05
   4    3.4721591e-15
   5    1.4832173e-10
   6    3.0758674e-08
   7    1.1654721e-13
   8    4.9787335e-09
   9    1.0465536e-06
   10    9.4583567e-05
   11    0.97701204
   12    0.54305225
   13    19.388947
   14    0
   15    0
   16    0.0021611898
   17    2.2817008e-15
   18    2.4806947e-11
   19    8.2914324e-11
   20   -1.0639636e-15
   21   -4.5487128e-11
   22   -1.2045831e-08
   23    0
   24    0
   25    0
   26    0
   27    0
   28    0
   29    0
   30    0
   31    0
   39    6.6995344e-05
   40    0
   41    0
   42    0

BLOCK FWCOEF Q=  160
   305   4422   0   0   -0.18881911
   305   4422   0   2   -0.17364351
   305   4322   0   2    0.00019839778
   305   6421   0   0   -0.095227835
   305   6421   0   2   -0.095945224
   305   6321   0   2   -8.7225197e-05
   3051111   4133   0   0    1.6115097
   3051111   4133   0   2    1.6117802
   3051111   4233   0   2    8.0087918e-05
   3051111   4137   0   0   -4.4342018
   3051111   4137   0   2   -4.4329261
   3051111   4237   0   2   -0.00060682637
   3051313   4133   0   0    1.6115097
   3051313   4133   0   2    1.6117776
   3051313   4233   0   2    8.0086236e-05
   3051313   4137   0   0   -4.4342018
   3051313   4137   0   2   -4.4329287
   3051313   4237   0   2   -0.00060682526
   3051212   4137   0   0    1.5053501
   3051212   4137   0   2    1.5050736
   3051212   4237   0   2    0.0001316688
   3051414   4137   0   0    1.5053501
   3051414   4137   0   2    1.5050736
   3051414   4237   0   2    0.00013166914
   3051616   4137   0   0    1.5053501
   3051616   4137   0   2    1.5050736
   3051616   4237   0   2    0.00013176431

BLOCK IMFWCOEF Q=  160
   305   4422   0   0    3.8585801e-07
   305   4422   0   2   -2.0059498e-07
   305   4322   0   2    9.188601e-06
   305   6421   0   0    3.3051291e-07
   305   6421   0   2   -1.3301262e-05
   305   6321   0   2    5.4843882e-06
   3051111   4133   0   2   -1.4760785e-06
   3051111   4233   0   2    2.8688755e-06
   3051111   4137   0   2    1.1865002e-05
   3051111   4237   0   2   -2.1728063e-05
   3051313   4133   0   2   -1.4760631e-06
   3051313   4233   0   2    2.8688733e-06
   3051313   4137   0   2    1.1865018e-05
   3051313   4237   0   2   -2.1728071e-05
   3051212   4137   0   2   -2.5700816e-06
   3051212   4237   0   2    4.7145252e-06
   3051414   4137   0   2   -2.5700817e-06
   3051414   4237   0   2    4.7145252e-06
   3051616   4137   0   2   -2.5696539e-06
   3051616   4237   0   2    4.7145247e-06

DECAY 23  2.4952


DECAY 24  2.085


DECAY 1000011  2.4571443
    0.89255299   2    1000022    11
    0.10532854   2    1000025    11
    0.0019914205   2    1000023    11
    0.00012704707   2   -1000024    12

DECAY 2000011  16.254142
    0.87825251   2    1000022    11
    0.1214321   2    1000025    11
    0.00031534454   2    1000023    11

DECAY 1000013  2.4741626
    0.88690725   2    1000022    13
    0.10754835   2    1000025    13
    0.0054182245   2    1000023    13
    0.00012617229   2   -1000024    14

DECAY 2000013  16.312607
    0.87522283   2    1000022    13
    0.12176165   2    1000025    13
    0.0017793405   2   -1000024    14
    0.0012035117   2    1000023    13

DECAY 1000015  24.231823
    0.46150836   2    1000022    15
    0.24950816   2   -1000024    16
    0.16394164   2    1000025    15
    0.12504184   2    1000023    15

DECAY 2000015  10.213106
    0.33388677   2    1000022    15
    0.33094874   2    1000023    15
    0.32797567   2    1000025    15
    0.0034645419   2    1000015    25
    0.0031835481   2    1000015    23
    0.00054073087   2   -1000024    16

DECAY 1000012  2.457985
    0.86602535   2    1000022    12
    0.12962641   2    1000025    12
    0.0042554825   2    1000024    11

DECAY 1000014  2.4749818
    0.86007162   2    1000022    14
    0.12873516   2    1000025    14
    0.011101105   2    1000024    13

DECAY 1000016  10.198695
    0.66320835   2    1000024    15
    0.28618067   2    1000022    16
    0.043967745   2    1000025    16
    0.0066118808   2    1000015    24

DECAY 2000001  0.68102001
    0.88831146   2    1000022    1
    0.11137814   2    1000025    1
    0.00029892429   2    1000023    1

DECAY 1000001  277.66508
    0.98526998   2    1000021    1
    0.008216198   2   -1000037    2
    0.0041098642   2    1000035    1
    0.001999032   2    1000022    1
    0.00039190329   2    1000025    1

DECAY 2000003  0.68664877
    0.88133751   2    1000022    3
    0.1122083   2    1000025    3
    0.0041093174   2   -1000024    4
    0.0023448762   2    1000023    3

DECAY 1000003  277.67866
    0.98522126   2    1000021    3
    0.0082157402   2   -1000037    4
    0.0041096447   2    1000035    3
    0.002001894   2    1000022    3
    0.00041033092   2    1000025    3

DECAY 1000005  113.06059
    0.67191963   2    1000021    5
    0.15682752   2   -1000024    6
    0.079024292   2    1000023    5
    0.069336861   2    1000025    5
    0.022889647   2    1000022    5

DECAY 2000005  395.74086
    0.58122063   2    1000021    5
    0.21713667   2   -1000024    6
    0.12020298   2    1000006   -24
    0.036929456   2    1000023    5
    0.032155543   2    1000025    5
    0.0063168094   2    1000022    5
    0.0049397902   2    1000006   -37
    0.00050383135   2    1000005    25
    0.0003199337   2    1000005    23
    0.00027435462   2    1000035    5

DECAY 2000002  118.26688
    0.94257583   2    1000021    2
    0.050452767   2    1000022    2
    0.0069533363   2    1000025    2

DECAY 1000002  277.63585
    0.98518926   2    1000021    2
    0.008199578   2    1000037    1
    0.004103623   2    1000035    2
    0.0021796678   2    1000022    2
    0.00020835046   2    1000025    2

DECAY 2000004  118.26892
    0.94255871   2    1000021    4
    0.050452333   2    1000022    4
    0.0069572976   2    1000025    4

DECAY 1000004  277.6492
    0.98514115   2    1000021    4
    0.0081991469   2    1000037    3
    0.0041033924   2    1000035    4
    0.002179916   2    1000022    4
    0.0002110345   2    1000025    4
    0.000138051   2    1000024    3

DECAY 1000006  22.358853
    0.49170877   2    1000024    5
    0.22295348   2    1000023    6
    0.2126096   2    1000025    6
    0.07272879   2    1000022    6

DECAY 2000006  405.80844
    0.56366467   2    1000021    6
    0.10616132   2    1000023    6
    0.094780824   2    1000025    6
    0.085179192   2    1000006    25
    0.072545582   2    1000024    5
    0.058708174   2    1000006    23
    0.012899996   2    1000022    6
    0.0024242346   2    1000006    35
    0.002418743   2    1000006    36
    0.00062832941   2    1000005    24
    0.00055411965   2    1000037    5

DECAY 1000024  0.01489997
    0.9999963   2    1000022    24

DECAY 1000037  111.63404
    0.084626995   2    1000024    25
    0.081028114   2    1000014   -13
    0.081027368   2    1000012   -11
    0.080978446   2   -1000013    14
    0.080977778   2   -1000011    12
    0.075942829   2    1000023    24
    0.075372416   2    1000024    23
    0.066218476   2    1000025    24
    0.06370647   2    1000024    36
    0.063660453   2    1000024    35
    0.0604213   2    37    1000023
    0.055075723   2    37    1000025
    0.043552682   2    1000016   -15
    0.043435228   2   -2000015    16
    0.010004129   3    1000024    6   -6
    0.0093232062   2    1000022    24
    0.0086142485   2    37    1000022
    0.0064342436   3    1000023   -5    6
    0.0054091262   3    1000025   -5    6
    0.0020386306   2    1000006   -5
    0.00074726515   3    1000022   -5    6
    0.00057659672   3    1000021   -5    6
    0.00025672127   3    1000024    5   -5
    0.00024821047   3    1000021   -3    4
    0.00024820982   3    1000021   -1    2

DECAY 1000022 -1


DECAY 1000023  0.020072426
    0.20370035   3    1000022    12   -12
    0.15232408   3    1000022    1   -1
    0.15232324   3    1000022    3   -3
    0.15058659   3    1000022    5   -5
    0.11879962   3    1000022    2   -2
    0.11863739   3    1000022    4   -4
    0.034374024   3    1000022    11   -11
    0.034373692   3    1000022    13   -13
    0.03427789   3    1000022    15   -15
    0.00060313019   2    1000022    22

DECAY 1000025  0.00050342238
    0.99422799   2    1000022    23
    0.0010728918   2    1000023    22
    0.00080993761   3    1000022    5   -5
    0.00045956531   3    1000023    12   -12
    0.00034365424   3    1000023    1   -1
    0.00034344326   3    1000023    3   -3
    0.00030301989   3    1000024    1   -2
    0.00030301989   3   -1000024   -1    2
    0.00028919549   3    1000024    3   -4
    0.00028919549   3   -1000024   -3    4
    0.00026801833   3    1000023    2   -2
    0.0002361641   3    1000023    4   -4
    0.00010100744   3    1000024    11   -12
    0.00010100744   3   -1000024   -11    12
    0.00010097433   3    1000024    13   -14
    0.00010097433   3   -1000024   -13    14

DECAY 1000035  114.6186
    0.073163595   2    1000024   -24
    0.073163595   2   -1000024    24
    0.058827761   2    37   -1000024
    0.058827761   2   -37    1000024
    0.055594181   2    1000023    25
    0.054741565   2    1000025    25
    0.046620235   2    1000023    35
    0.043400364   2    1000025    23
    0.039472558   2    1000014   -14
    0.039472558   2   -1000014    14
    0.039472196   2    1000012   -12
    0.039472196   2   -1000012    12
    0.03941005   2    1000013   -13
    0.03941005   2   -1000013    13
    0.039409725   2    1000011   -11
    0.039409725   2   -1000011    11
    0.036225368   2    1000025    35
    0.024477711   2    1000023    23
    0.021213994   2    1000016   -16
    0.021213994   2   -1000016    16
    0.021136459   2    2000015   -15
    0.021136459   2   -2000015    15
    0.015364867   2    1000023    36
    0.01472815   2    1000025    36
    0.0073929264   2    1000022    25
    0.0058793783   2    1000022    23
    0.0056794937   3    1000024    5   -6
    0.0056794937   3   -1000024   -5    6
    0.0055249417   2    1000022    35
    0.0040207041   3    1000023    6   -6
    0.00367679   3    1000025    6   -6
    0.0025082668   2    1000022    36
    0.00099823378   2    1000006   -6
    0.00099823378   2   -1000006    6
    0.00054517325   3    1000022    6   -6
    0.00039609258   3    1000021    5   -5
    0.00034006832   3    1000021    6   -6
    0.00016395631   3    1000021    4   -4
    0.0001639559   3    1000021    2   -2
    0.00016383853   3    1000021    3   -3
    0.00016383811   3    1000021    1   -1
    0.00012578178   3    1000023    5   -5
    0.00010933175   3    1000025    5   -5

DECAY 1000021  17.476865
    0.41188693   2    1000006   -6
    0.41188693   2   -1000006    6
    0.043938515   2    2000003   -3
    0.043938515   2   -2000003    3
    0.043938393   2    2000001   -1
    0.043938393   2   -2000001    1

DECAY 25  0.0036082516
    0.61164856   2   -5    5
    0.18878706   2   -24    24
    0.073772027   2    21    21
    0.070027169   2   -15    15
    0.029930223   2   -4    4
    0.0217568   2    23    23
    0.0023202265   2    22    22
    0.0012850058   2    22    23
    0.00024284968   2   -13    13
    0.00022928746   2   -3    3
    6.3395482e-07   2   -1    1
    1.5424523e-07   2   -2    2
    5.4595631e-09   2   -11    11

DECAY 35  29.123555
    0.85420745   2   -5    5
    0.14343809   2   -15    15
    0.0014906317   2   -6    6
    0.00048756546   2   -13    13
    0.0002923682   2   -3    3
    5.4053856e-05   2    1000022    1000022
    2.360682e-05   2    21    21
    3.2489703e-06   2    25    25
    1.2652022e-06   2    23    23
    8.6145742e-07   2   -24    24
    8.0822933e-07   2   -1    1
    2.3335859e-08   2   -4    4
    1.0952411e-08   2   -11    11
    8.9900041e-09   2    22    22
    5.8590432e-09   2    22    23
    1.2032594e-13   2   -2    2

DECAY 36  28.033651
    0.85259188   2   -5    5
    0.14316748   2   -15    15
    0.0019520798   2    1000022    1000022
    0.0014620614   2   -6    6
    0.00048664149   2   -13    13
    0.00029181434   2   -3    3
    4.534804e-05   2    21    21
    1.7390679e-06   2    23    25
    8.0669767e-07   2   -1    1
    7.0427981e-08   2    22    22
    4.2840557e-08   2    22    23
    2.1913385e-08   2   -4    4
    1.0931625e-08   2   -11    11
    1.1300192e-13   2   -2    2
    3.950301e-37   2    25    25

DECAY 37  30.045376
    0.85048301   2   -5    6
    0.14744329   2   -15    16
    0.0012686214   2   -5    4
    0.00052126545   2   -13    14
    0.00025739703   2   -3    4
    1.1971487e-05   2   -3    2
    9.0592728e-06   2   -5    2
    2.8812729e-06   2   -3    6
    1.6326422e-06   2    24    25
    7.1400325e-07   2   -1    2
    1.1504439e-07   2   -1    6
    3.4180726e-08   2   -1    4
    1.2192453e-08   2   -11    12
    3.3645517e-12   2    24    35
    2.8378107e-12   2    24    36

DECAY 6  2.43
    1   2    5    24

DECAY 15 -1
