BLOCK SPINFO
   1   SPheno
   2   v4.0.5be

BLOCK SPHENOINFO
   1   2
   2   2

BLOCK MODSEL
   1   0

BLOCK MINPAR
   3    52.365966
   4    1

BLOCK EXTPAR
   0    4303.1722
   1    893.3645
   2    948.70522
   3    2215.9289
   11    278.25093
   12   -1460.5153
   13   -2989.4496
   23    1159.1382
   25    51.497672
   26    3657.7283
   31    1506.4745
   32    1506.4745
   33    2824.1507
   34    4515.282
   35    4515.282
   36    4090.5089
   41    4254.8653
   42    4254.8653
   43    4996.5199
   44    2409.8308
   45    2409.8308
   46    3652.7503
   47    1330.3559
   48    1330.3559
   49    2422.0469

BLOCK SMINPUTS
   1    127.90897
   2    1.1663787e-05
   3    0.1184
   4    91.1876
   5    4.18
   6    173.2
   7    1.777
   8    0
   11    0.00051099893
   12    0
   13    0.10565837
   14    0
   21    0.005
   22    0.0025
   23    0.095
   24    1.27

BLOCK GAUGE Q=  4303.1722
   1    0.35536298
   2    0.66519887
   3    1.219778

BLOCK YU Q=  4303.1722
   1   1    8.3859527e-06
   2   2    0.004260064
   3   3    1.0130904

BLOCK YD Q=  4303.1722
   1   1    0.00086780122
   2   2    0.016488223
   3   3    0.86058689

BLOCK YE Q=  4303.1722
   1   1    0.00015143766
   2   2    0.031312505
   3   3    0.52662482

BLOCK AU Q=  4303.1722
   1   1    0
   2   2    0
   3   3    278.25093

BLOCK AD Q=  4303.1722
   1   1    0
   2   2    0
   3   3   -1460.5153

BLOCK AE Q=  4303.1722
   1   1    0
   2   2    0
   3   3   -2989.4495

BLOCK MSOFT Q=  4303.1722
   1    893.3645
   2    948.70522
   3    2215.9289
   21    12513852
   22   -946700.69
   31    1506.4745
   32    1506.4745
   33    2824.1507
   34    4515.282
   35    4515.282
   36    4090.5089
   41    4254.8653
   42    4254.8653
   43    4996.5199
   44    2409.8308
   45    2409.8308
   46    3652.7503
   47    1330.3559
   48    1330.3559
   49    2422.0469

BLOCK MASS
   6    173.2
   23    91.1876
   24    80.429995
   15    1.777
   25    121.35532
   35    3654.7835
   36    3657.7283
   37    3655.8632
   1000001    4338.7517
   2000001    1515.6284
   1000002    4338.0716
   2000002    2530.1669
   1000003    4338.7451
   2000003    1515.6071
   1000004    4338.0651
   2000004    2530.166
   1000005    2494.3933
   2000005    5029.9933
   1000006    3680.2627
   2000006    5031.5134
   1000011    1519.0701
   2000011    4519.4395
   1000012    1516.582
   1000013    1518.9846
   2000013    4519.3483
   1000014    1516.5207
   1000015    2813.6929
   2000015    4061.2868
   1000016    2813.551
   1000021    2502.7339
   1000022    877.67228
   1000023    982.90893
   1000025   -1172.1903
   1000035    1190.3964
   1000024    981.46961
   1000037    1188.4883

BLOCK ALPHA
      -0.019131709

BLOCK HMIX Q=  4303.1722
   1    1159.1382
   2    51.497672
   3    242.86804
   4    13378976

BLOCK STOPMIX
   1   1   -0.00011363726
   1   2    0.99999999
   2   1   -0.99999999
   2   2   -0.00011363726

BLOCK SBOTMIX
   1   1    0.0063433944
   1   2    0.99997988
   2   1   -0.99997988
   2   2    0.0063433944

BLOCK STAUMIX
   1   1    0.99991552
   1   2    0.012997901
   2   1   -0.012997901
   2   2    0.99991552

BLOCK NMIX
   1   1   -0.99147925
   1   2    0.049669816
   1   3   -0.095845901
   1   4    0.072906535
   2   1   -0.08049229
   2   2   -0.96035289
   2   3    0.2044582
   2   4   -0.17158138
   3   1   -0.01499457
   3   2    0.025237112
   3   3    0.7062492
   3   4    0.70735445
   4   1   -0.10131655
   4   2    0.27316356
   4   3    0.6709862
   4   4   -0.68183146

BLOCK UMIX
   1   1   -0.95335297
   1   2    0.30185777
   2   1    0.30185777
   2   2    0.95335297

BLOCK VMIX
   1   1   -0.96734614
   1   2    0.25345895
   2   1    0.25345895
   2   2    0.96734614

BLOCK HIGGSBOUNDSINPUTHIGGSCOUPLINGSFERMIONS
       0, 2652.0103,3,36,15,15

BLOCK HIGGSBOUNDSINPUTHIGGSCOUPLINGSBOSONS
       0,4,36,21,21,23

BLOCK SPHENOLOWENERGY
   1    0.0003228725
   2    1.5896606e-06
   3    3.5246947e-05
   4    2.6004431e-15
   5    1.11088e-10
   6    2.3253789e-08
   7    8.6999023e-14
   8    3.7165979e-09
   9    7.8837687e-07
   10    9.5716988e-05
   11    0.98871984
   12    0.54198422
   13    19.359417
   14    0
   15    0
   16    0.0021574633
   17    2.2816612e-15
   18    2.4794949e-11
   19    8.2893151e-11
   20    5.8289319e-15
   21    2.4924877e-10
   22    3.8982876e-08
   23    0
   24    0
   25    0
   26    0
   27    0
   28    0
   29    0
   30    0
   31    0
   39    7.273575e-05
   40    0
   41    0
   42    0

BLOCK FWCOEF Q=  160
   305   4422   0   0   -0.18881911
   305   4422   0   2   -0.19085489
   305   4322   0   2   -3.5992526e-05
   305   6421   0   0   -0.095227835
   305   6421   0   2   -0.1015362
   305   6321   0   2   -0.00012090003
   3051111   4133   0   0    1.6302032
   3051111   4133   0   2    1.6304147
   3051111   4233   0   2    0.00024719959
   3051111   4137   0   0   -4.4528953
   3051111   4137   0   2   -4.450713
   3051111   4237   0   2   -0.001822062
   3051313   4133   0   0    1.6302032
   3051313   4133   0   2    1.6304124
   3051313   4233   0   2    0.00024719883
   3051313   4137   0   0   -4.4528953
   3051313   4137   0   2   -4.4507154
   3051313   4237   0   2   -0.0018220633
   3051212   4137   0   0    1.5053501
   3051212   4137   0   2    1.5048836
   3051212   4237   0   2    0.00039368844
   3051414   4137   0   0    1.5053501
   3051414   4137   0   2    1.5048836
   3051414   4237   0   2    0.00039368853
   3051616   4137   0   0    1.5053501
   3051616   4137   0   2    1.5048834
   3051616   4237   0   2    0.00039371317

BLOCK IMFWCOEF Q=  160
   305   4422   0   0    3.8581548e-07
   305   4422   0   2    1.3894198e-05
   305   4322   0   2    1.0484215e-06
   305   6421   0   0    3.3047647e-07
   305   6421   0   2   -1.8248281e-05
   305   6321   0   2    7.9804006e-08
   3051111   4133   0   2    1.1895398e-07
   3051111   4233   0   2    5.3060359e-06
   3051111   4137   0   2   -6.6760812e-07
   3051111   4237   0   2   -3.9106303e-05
   3051313   4133   0   2    1.1890054e-07
   3051313   4233   0   2    5.3060299e-06
   3051313   4137   0   2   -6.6755826e-07
   3051313   4237   0   2   -3.9106334e-05
   3051212   4137   0   2    2.3410221e-07
   3051212   4237   0   2    8.4495989e-06
   3051414   4137   0   2    2.3410275e-07
   3051414   4237   0   2    8.4495989e-06
   3051616   4137   0   2    2.3162231e-07
   3051616   4237   0   2    8.4495984e-06

DECAY 23  2.4952


DECAY 24  2.085


DECAY 1000011  7.3145723
    0.56390384   2   -1000024    12
    0.31099027   2    1000023    11
    0.093467126   2    1000022    11
    0.025062775   2   -1000037    12
    0.0065315818   2    1000035    11

DECAY 2000011  21.011045
    0.98382435   2    1000022    11
    0.0096084152   2    1000035    11
    0.0063556936   2    1000023    11
    0.00021145017   2    1000025    11

DECAY 1000013  7.3179089
    0.5635241   2   -1000024    14
    0.31083647   2    1000023    13
    0.093425518   2    1000022    13
    0.025041041   2   -1000037    14
    0.0067980311   2    1000035    13
    0.00037484099   2    1000025    13

DECAY 2000013  21.166555
    0.97660875   2    1000022    13
    0.011161555   2    1000035    13
    0.0064668833   2    1000023    13
    0.0032798307   2   -1000037    14
    0.0020171052   2    1000025    13
    0.00034453497   2   -1000024    14
    0.00012134374   2    1000013    25

DECAY 1000015  41.867514
    0.41744874   2   -1000024    16
    0.24264661   2    1000023    15
    0.12624364   2    1000025    15
    0.12085802   2    1000035    15
    0.058749083   2    1000022    15
    0.034053906   2   -1000037    16

DECAY 2000015  58.320085
    0.31529165   2    1000022    15
    0.29495343   2   -1000037    16
    0.16128893   2    1000025    15
    0.14918994   2    1000035    15
    0.027898967   2   -1000024    16
    0.018452618   2    1000016   -24
    0.014809704   2    1000023    15
    0.0092051504   2    1000015    23
    0.0089096072   2    1000015    25

DECAY 1000012  7.3345537
    0.57533182   2    1000024    11
    0.25760704   2    1000023    12
    0.1351189   2    1000022    12
    0.017411265   2    1000037    11
    0.014367913   2    1000035    12
    0.00016306614   2    1000025    12

DECAY 1000014  7.3383091
    0.57506857   2    1000024    13
    0.25743465   2    1000023    14
    0.1350333   2    1000022    14
    0.017944288   2    1000037    13
    0.014356254   2    1000035    14
    0.00016293701   2    1000025    14

DECAY 1000016  41.890538
    0.45275165   2    1000024    15
    0.25306931   2    1000037    15
    0.19176071   2    1000023    16
    0.080850846   2    1000022    16
    0.021344308   2    1000035    16
    0.00022318638   2    1000025    16

DECAY 2000001  0.37062827
    0.99149082   2    1000022    1
    0.0049670702   2    1000023    1
    0.0034441242   2    1000035    1

DECAY 1000001  204.39092
    0.74603473   2    1000021    1
    0.15290429   2   -1000024    2
    0.07525664   2    1000023    1
    0.014567744   2   -1000037    2
    0.0067754439   2    1000035    1
    0.004398469   2    1000022    1

DECAY 2000003  0.37331134
    0.98440687   2    1000022    3
    0.0052392383   2    1000023    3
    0.0048687074   2    1000035    3
    0.0029594046   2   -1000037    4
    0.0018512179   2    1000025    3
    0.00067455787   2   -1000024    4

DECAY 1000003  204.41232
    0.74595322   2    1000021    3
    0.15288833   2   -1000024    4
    0.075252899   2    1000023    3
    0.014572436   2   -1000037    4
    0.0068188288   2    1000035    3
    0.0043989651   2    1000022    3
    0.00011173585   2    1000025    3

DECAY 1000005  45.408472
    0.43054662   2   -1000037    6
    0.24500821   2    1000025    5
    0.2167894   2    1000035    5
    0.053548972   2   -1000024    6
    0.02905944   2    1000022    5
    0.025047352   2    1000023    5

DECAY 2000005  446.91416
    0.50295697   2    1000021    5
    0.20102347   2   -1000037    6
    0.095360521   2   -1000024    6
    0.074034179   2    1000025    5
    0.070513687   2    1000035    5
    0.047214143   2    1000023    5
    0.0037543092   2    1000022    5
    0.0034746413   2    1000005    25
    0.0016678366   2    1000005    23

DECAY 2000002  4.4533701
    0.96514201   2    1000022    2
    0.020859268   2    1000021    2
    0.0078963199   2    1000035    2
    0.0059264516   2    1000023    2
    0.00017595252   2    1000025    2

DECAY 1000002  204.3591
    0.74580065   2    1000021    2
    0.15742038   2    1000024    1
    0.079883922   2    1000023    2
    0.010270481   2    1000037    1
    0.0052000017   2    1000035    2
    0.0013836754   2    1000022    2

DECAY 2000004  4.4543603
    0.96492623   2    1000022    4
    0.020825726   2    1000021    4
    0.0079532646   2    1000035    4
    0.0059296422   2    1000023    4
    0.00023906546   2    1000025    4
    0.0001165633   2    1000037    3

DECAY 1000004  204.3797
    0.74572177   2    1000021    4
    0.15741356   2    1000024    3
    0.07987587   2    1000023    4
    0.010358501   2    1000037    3
    0.0052025609   2    1000035    4
    0.0013835727   2    1000022    4

DECAY 1000006  210.82316
    0.39202243   2    1000021    6
    0.26761087   2    1000037    5
    0.14314525   2    1000025    6
    0.13288281   2    1000035    6
    0.035232545   2    1000022    6
    0.019745685   2    1000024    5
    0.0092910651   2    1000023    6

DECAY 2000006  445.44916
    0.5028627   2    1000021    6
    0.14056383   2    1000037    5
    0.10290932   2    1000025    6
    0.1001156   2    1000024    5
    0.098743104   2    1000035    6
    0.049389489   2    1000023    6
    0.0033534097   2    1000005    24
    0.0019241475   2    1000022    6
    0.0001382665   2    1000006    25

DECAY 1000024  0.011047216
    0.99999425   2    1000022    24

DECAY 1000037  3.2729576
    0.33717237   2    1000023    24
    0.29233489   2    1000024    23
    0.25563057   2    1000024    25
    0.11458822   2    1000022    24
    0.00024704691   3    1000022   -5    6

DECAY 1000022 -1


DECAY 1000023  0.00016836915
    0.99822633   2    1000022    23
    0.0011408924   3    1000022    5   -5
    0.00017972222   3    1000022    12   -12
    0.00011447478   3    1000022    15   -15
    0.00011259373   2    1000022    22

DECAY 1000025  6.1588008
    0.22617395   2    1000024   -24
    0.22617395   2   -1000024    24
    0.21040546   2    1000023    23
    0.13240952   2    1000023    25
    0.12127245   2    1000022    23
    0.083417301   2    1000022    25
    0.00013740326   2    1000023    22

DECAY 1000035  3.2720866
    0.30913259   2    1000024   -24
    0.30913259   2   -1000024    24
    0.23041235   2    1000023    25
    0.14442331   2    1000022    25
    0.0039668096   2    1000022    23
    0.0028637932   2    1000023    23

DECAY 1000021  59.470669
    0.24977809   2    2000003   -3
    0.24977809   2   -2000003    3
    0.24976995   2    2000001   -1
    0.24976995   2   -2000001    1
    0.00024284595   3    1000022    4   -4
    0.00024284428   3    1000022    2   -2

DECAY 25  0.0034590999
    0.62698786   2   -5    5
    0.17210834   2   -24    24
    0.074685712   2    21    21
    0.071831321   2   -15    15
    0.031023804   2   -4    4
    0.019358266   2    23    23
    0.0023263757   2    22    22
    0.0011927263   2    22    23
    0.00024921124   2   -13    13
    0.00023557543   2   -3    3
    6.5134295e-07   2   -1    1
    1.598851e-07   2   -2    2
    5.6025962e-09   2   -11    11

DECAY 35  145.32667
    0.61539359   2   -5    5
    0.15188596   2   -15    15
    0.063832308   2   -1000024    1000037
    0.063832308   2   -1000037    1000024
    0.033093215   2    1000023    1000025
    0.017943944   2    1000022    1000025
    0.015737391   2    1000023    1000035
    0.0090519875   2   -1000024    1000024
    0.0089827399   2    1000022    1000035
    0.0045721625   2    1000025    1000035
    0.0040563629   2   -1000037    1000037
    0.0037052982   2    1000035    1000035
    0.0031304843   2    1000023    1000023
    0.0029341619   2    1000022    1000023
    0.00067730554   2    1000022    1000022
    0.00056019239   2   -13    13
    0.00033016903   2   -6    6
    0.00021589106   2   -3    3
    5.7473787e-05   2    1000025    1000025
    5.6100949e-06   2    21    21
    5.9687931e-07   2   -1    1
    5.8973499e-07   2    25    25
    8.094118e-08   2    23    23
    3.7001846e-08   2    22    23
    1.9032052e-08   2   -24    24
    1.2580869e-08   2   -11    11
    1.0516111e-08   2    22    22
    1.0455392e-08   2   -1000011    1000011
    1.0306798e-08   2   -1000013    1000013
    3.8262606e-09   2   -4    4
    2.7335872e-09   2   -1000001    1000001
    2.715199e-09   2   -1000003    1000003
    1.9720528e-14   2   -2    2

DECAY 36  136.01862
    0.60242134   2   -5    5
    0.14870752   2   -15    15
    0.064259426   2   -1000024    1000037
    0.064259426   2   -1000037    1000024
    0.027258902   2    1000023    1000035
    0.022062568   2    1000023    1000025
    0.015195689   2    1000022    1000035
    0.013948795   2   -1000024    1000024
    0.012245142   2    1000022    1000025
    0.0081435265   2   -1000037    1000037
    0.0073246126   2    1000035    1000035
    0.0048318666   2    1000023    1000023
    0.0044438353   2    1000022    1000023
    0.0027199153   2    1000025    1000035
    0.0010073428   2    1000022    1000022
    0.00054847699   2   -13    13
    0.00030470856   2   -6    6
    0.00021132317   2   -3    3
    9.5511738e-05   2    1000025    1000025
    9.172332e-06   2    21    21
    5.842485e-07   2   -1    1
    1.6656429e-07   2    23    25
    8.0016791e-08   2    22    23
    4.7113223e-08   2    22    22
    1.2317819e-08   2   -11    11
    3.4854426e-09   2   -4    4
    1.7884709e-12   2    23    35
    1.796532e-14   2   -2    2
    8.7336804e-40   2    25    25

DECAY 37  144.22127
    0.62612162   2   -5    6
    0.13901261   2   -15    16
    0.08113095   2    1000023    1000037
    0.066743294   2    1000024    1000035
    0.066410759   2    1000024    1000025
    0.0087589522   2    1000022    1000037
    0.0054247158   2    1000022    1000024
    0.0042041083   2    1000025    1000037
    0.00092819588   2   -5    4
    0.00049145907   2   -13    14
    0.00041088279   2    1000035    1000037
    0.00020098994   2   -3    4
    0.00014374022   2    1000023    1000024
    9.4346081e-06   2   -3    2
    6.6282758e-06   2   -5    2
    8.0838719e-07   2   -3    6
    5.5769876e-07   2   -1    2
    1.5691538e-07   2    24    25
    4.1423329e-08   2   -1000011    1000012
    4.1212743e-08   2   -1000013    1000014
    2.6315711e-08   2   -1    4
    2.3367462e-08   2   -1    6
    1.1495279e-08   2   -11    12
    1.3854761e-14   2    24    35

DECAY 6  2.43
    1   2    5    24

DECAY 15 -1
