BLOCK SPINFO
   1   SPheno
   2   v4.0.5be

BLOCK SPHENOINFO
   1   2
   2   2

BLOCK MODSEL
   1   0

BLOCK MINPAR
   3    28.328468
   4    1

BLOCK EXTPAR
   0    3191.5054
   1   -351.07443
   2    2571.9489
   3    3237.0233
   11    2822.771
   12    2532.2953
   13   -4796.3881
   23    336.99237
   25    27.237248
   26    986.37855
   31    2225.9923
   32    2225.9923
   33    1989.6285
   34    4945.6951
   35    4945.6951
   36    2532.5863
   41    2733.0649
   42    2733.0649
   43    4411.7424
   44    2931.3475
   45    2931.3475
   46    2176.4064
   47    589.81347
   48    589.81347
   49    1802.6905

BLOCK SMINPUTS
   1    127.90897
   2    1.1663787e-05
   3    0.1184
   4    91.1876
   5    4.18
   6    173.2
   7    1.777
   8    0
   11    0.00051099893
   12    0
   13    0.10565837
   14    0
   21    0.005
   22    0.0025
   23    0.095
   24    1.27

BLOCK GAUGE Q=  3191.5054
   1    0.35536298
   2    0.66519887
   3    1.219778

BLOCK YU Q=  3191.5054
   1   1    8.3900211e-06
   2   2    0.0042621307
   3   3    1.0135819

BLOCK YD Q=  3191.5054
   1   1    0.00045920492
   2   2    0.0087248935
   3   3    0.45538738

BLOCK YE Q=  3191.5054
   1   1    8.0134616e-05
   2   2    0.016569297
   3   3    0.27866832

BLOCK AU Q=  3191.5054
   1   1    0
   2   2    0
   3   3    2822.7706

BLOCK AD Q=  3191.5054
   1   1    0
   2   2    0
   3   3    2532.296

BLOCK AE Q=  3191.5054
   1   1    0
   2   2    0
   3   3   -4796.3882

BLOCK MSOFT Q=  3191.5054
   1   -351.07443
   2    2571.9489
   3    3237.0233
   21    846445.83
   22   -35415.991
   31    2225.9923
   32    2225.9923
   33    1989.6285
   34    4945.6951
   35    4945.6951
   36    2532.5863
   41    2733.0649
   42    2733.0649
   43    4411.7424
   44    2931.3475
   45    2931.3475
   46    2176.4064
   47    589.81347
   48    589.81347
   49    1802.6905

BLOCK MASS
   6    173.2
   23    91.1876
   24    80.429995
   15    1.777
   25    120.88322
   35    986.37598
   36    986.37855
   37    989.82495
   1000001    2888.5443
   2000001    869.18068
   1000002    2887.444
   2000002    3053.4813
   1000003    2888.5428
   2000003    869.17541
   1000004    2887.4425
   2000004    3053.4806
   1000005    1952.306
   2000005    4476.9357
   1000006    2273.6855
   2000006    4479.8221
   1000011    2249.8264
   2000011    4953.0606
   1000012    2248.0085
   1000013    2249.8192
   2000013    4953.0472
   1000014    2247.9987
   1000015    2008.0222
   2000015    2525.7182
   1000016    2006.2929
   1000021    3374.4194
   1000022   -314.10788
   1000023    340.31273
   1000025   -375.46899
   1000035    2593.2219
   1000024    339.55917
   1000037    2593.4473

BLOCK ALPHA
      -0.036146712

BLOCK HMIX Q=  3191.5054
   1    336.99237
   2    27.237248
   3    243.19903
   4    972942.65

BLOCK STOPMIX
   1   1   -0.024687752
   1   2    0.99969521
   2   1   -0.99969521
   2   2   -0.024687752

BLOCK SBOTMIX
   1   1    0.00092020391
   1   2    0.99999958
   2   1   -0.99999958
   2   2    0.00092020391

BLOCK STAUMIX
   1   1    0.99994397
   1   2    0.010585574
   2   1   -0.010585574
   2   2    0.99994397

BLOCK NMIX
   1   1    0.6621566
   1   2    0.013000681
   1   3    0.55203327
   1   4    0.50659539
   2   1   -0.04761223
   2   2   -0.025159911
   2   3    0.70586444
   2   4   -0.706297
   3   1    0.74785124
   3   2   -0.012477705
   3   3   -0.44383465
   3   4   -0.49353179
   4   1    0.00047516722
   4   2   -0.99952102
   4   3   -0.0050470577
   4   4    0.030529222

BLOCK UMIX
   1   1   -0.0071422679
   1   2    0.99997449
   2   1    0.99997449
   2   2    0.0071422679

BLOCK VMIX
   1   1   -0.043198118
   1   2    0.99906653
   2   1    0.99906653
   2   2    0.043198118

BLOCK HIGGSBOUNDSINPUTHIGGSCOUPLINGSFERMIONS
       0, 741.8677,3,36,15,15

BLOCK HIGGSBOUNDSINPUTHIGGSCOUPLINGSBOSONS
       0,4,36,21,21,23

BLOCK SPHENOLOWENERGY
   1    0.00035874631
   2    1.5870679e-06
   3    3.5246032e-05
   4    2.4814029e-15
   5    1.0600281e-10
   6    2.2196317e-08
   7    8.3281693e-14
   8    3.5577944e-09
   9    7.5483377e-07
   10    9.1917037e-05
   11    0.94946781
   12    0.54239928
   13    19.357548
   14    0
   15    0
   16    0.0021593135
   17    2.2816843e-15
   18    2.4794961e-11
   19    8.2890691e-11
   20    1.4950072e-15
   21    6.3916259e-11
   22    1.8765229e-08
   23    0
   24    0
   25    0
   26    0
   27    0
   28    0
   29    0
   30    0
   31    0
   39    6.4535798e-05
   40    0
   41    0
   42    0

BLOCK FWCOEF Q=  160
   305   4422   0   0   -0.18881911
   305   4422   0   2   -0.22747106
   305   4322   0   2   -0.00080552157
   305   6421   0   0   -0.095227835
   305   6421   0   2   -0.13885081
   305   6321   0   2   -0.00088354795
   3051111   4133   0   0    1.6186839
   3051111   4133   0   2    1.6192393
   3051111   4233   0   2   -4.1637541e-05
   3051111   4137   0   0   -4.441376
   3051111   4137   0   2   -4.4390434
   3051111   4237   0   2    0.00031171897
   3051313   4133   0   0    1.6186839
   3051313   4133   0   2    1.6192386
   3051313   4233   0   2   -4.164118e-05
   3051313   4137   0   0   -4.441376
   3051313   4137   0   2   -4.4390441
   3051313   4237   0   2    0.00031172245
   3051212   4137   0   0    1.5053501
   3051212   4137   0   2    1.5048456
   3051212   4237   0   2   -6.7525607e-05
   3051414   4137   0   0    1.5053501
   3051414   4137   0   2    1.5048456
   3051414   4237   0   2   -6.7524825e-05
   3051616   4137   0   0    1.5053501
   3051616   4137   0   2    1.5048456
   3051616   4237   0   2   -6.7304315e-05

BLOCK IMFWCOEF Q=  160
   305   4422   0   0    3.8581351e-07
   305   4422   0   2    4.7443917e-06
   305   4322   0   2   -1.7298429e-06
   305   6421   0   0    3.3047478e-07
   305   6421   0   2   -1.7474451e-06
   305   6321   0   2   -8.8901223e-07
   3051111   4133   0   2   -4.2326335e-07
   3051111   4233   0   2    1.16576e-06
   3051111   4137   0   2    3.5609586e-06
   3051111   4237   0   2   -8.7360501e-06
   3051313   4133   0   2   -4.2326125e-07
   3051313   4233   0   2    1.1657595e-06
   3051313   4137   0   2    3.560962e-06
   3051313   4237   0   2   -8.7360524e-06
   3051212   4137   0   2   -7.5789302e-07
   3051212   4237   0   2    1.8924902e-06
   3051414   4137   0   2   -7.5789308e-07
   3051414   4237   0   2    1.8924902e-06
   3051616   4137   0   2   -7.5811968e-07
   3051616   4237   0   2    1.8924911e-06

DECAY 23  2.4952


DECAY 24  2.085


DECAY 1000011  2.7075691
    0.51778468   2    1000025    11
    0.47291992   2    1000022    11
    0.0089390619   2    1000023    11
    0.0003563367   2   -1000024    12

DECAY 2000011  24.639684
    0.5584287   2    1000025    11
    0.43930301   2    1000022    11
    0.0022681532   2    1000023    11

DECAY 1000013  2.7192923
    0.51639119   2    1000025    13
    0.47220404   2    1000022    13
    0.011049968   2    1000023    13
    0.00035479925   2   -1000024    14

DECAY 2000013  24.693262
    0.55742892   2    1000025    13
    0.43867974   2    1000022    13
    0.0028039301   2    1000023    13
    0.0010852212   2   -1000024    14

DECAY 1000015  5.316456
    0.38591714   2    1000022    15
    0.33540247   2    1000025    15
    0.27825994   2    1000023    15
    0.00042045594   2   -1000024    16

DECAY 2000015  19.846116
    0.38029038   2    1000025    15
    0.32849559   2    1000022    15
    0.18947171   2   -1000024    16
    0.095840781   2    1000023    15
    0.0029977332   2    1000016   -24
    0.0014692177   2    1000015    23
    0.001434592   2    1000015    25

DECAY 1000012  2.7267547
    0.5820555   2    1000025    12
    0.40501208   2    1000022    12
    0.012932157   2    1000024    11

DECAY 1000014  2.7384645
    0.5795638   2    1000025    14
    0.40327833   2    1000022    14
    0.017157606   2    1000024    13

DECAY 1000016  5.3266814
    0.55480809   2    1000024    15
    0.26203466   2    1000025    16
    0.18315713   2    1000022    16

DECAY 2000001  0.34116917
    0.52630185   2    1000025    1
    0.47137509   2    1000022    1
    0.0023153819   2    1000023    1

DECAY 1000001  1.8361189
    0.52057015   2   -1000037    2
    0.26046914   2    1000035    1
    0.14197319   2    1000025    1
    0.074423488   2    1000022    1
    0.0018769272   2    1000023    1
    0.00068706583   2   -1000024    2

DECAY 2000003  0.34305062
    0.52391689   2    1000025    3
    0.46965777   2    1000022    3
    0.003670292   2    1000023    3
    0.0027550472   2   -1000024    4

DECAY 1000003  1.8413784
    0.51907332   2   -1000037    4
    0.25972278   2    1000035    3
    0.14201897   2    1000025    3
    0.074915607   2    1000022    3
    0.0030193552   2    1000023    3
    0.0012352854   2   -1000024    4

DECAY 1000005  16.04184
    0.46421766   2   -1000024    6
    0.23534553   2    1000023    5
    0.17353258   2    1000022    5
    0.12690422   2    1000025    5

DECAY 2000005  221.18868
    0.40692173   2   -1000024    6
    0.29799383   2    1000021    5
    0.079154398   2   -1000037    6
    0.068593951   2    1000006   -24
    0.041150436   2    1000023    5
    0.039306317   2    1000035    5
    0.02613729   2    1000022    5
    0.018112718   2    1000025    5
    0.0099231846   2    1000005    36
    0.0099220649   2    1000005    35
    0.0026208634   2    1000006   -37
    0.00010128367   2    1000005    25

DECAY 1000002  1.8743244
    0.50561929   2    1000037    1
    0.25336411   2    1000035    2
    0.11347471   2    1000022    2
    0.09546333   2    1000025    2
    0.024617641   2    1000024    1
    0.0074609202   2    1000023    2

DECAY 2000002  6.6411657
    0.55701875   2    1000025    2
    0.44071108   2    1000022    2
    0.0022701444   2    1000023    2

DECAY 1000004  1.8795597
    0.50420646   2    1000037    3
    0.25265363   2    1000035    4
    0.1132968   2    1000022    4
    0.095328937   2    1000025    4
    0.026805017   2    1000024    3
    0.0077091177   2    1000023    4

DECAY 2000004  6.6433097
    0.55687679   2    1000025    4
    0.44061112   2    1000022    4
    0.002350318   2    1000023    4
    0.00016172417   2    1000024    3

DECAY 1000006  92.816153
    0.47679759   2    1000024    5
    0.23644245   2    1000023    6
    0.14921679   2    1000022    6
    0.13754303   2    1000025    6

DECAY 2000006  226.84743
    0.2889781   2    1000021    6
    0.19841467   2    1000023    6
    0.10200531   2    1000022    6
    0.099861417   2    1000025    6
    0.081605422   2    1000024    5
    0.076407992   2    1000037    5
    0.05867543   2    1000006    25
    0.038481993   2    1000035    6
    0.033509804   2    1000006    23
    0.019388857   2    1000005    37
    0.001280893   2    1000006    36
    0.0012690071   2    1000006    35
    0.00012109836   2    1000005    24

DECAY 1000024  2.4864183e-05
    0.33548707   3    1000022   -1    2
    0.33155823   3    1000022   -3    4
    0.11182513   3    1000022   -11    12
    0.11181884   3    1000022   -13    14
    0.10931073   3    1000022   -15    16

DECAY 1000037  45.785903
    0.12611486   2    1000024    25
    0.11783372   2    1000023    24
    0.11770332   2    1000024    23
    0.088374392   2    1000024    35
    0.088369788   2    1000024    36
    0.08804802   2    37    1000023
    0.063359826   2    1000022    24
    0.055772105   2    37    1000022
    0.054373314   2    1000025    24
    0.040122937   2    1000016   -15
    0.039983106   2   -1000015    16
    0.036766098   2    37    1000025
    0.015386679   2    1000014   -13
    0.01538587   2    1000012   -11
    0.015264092   2   -1000013    14
    0.015263499   2   -1000011    12
    0.0093540433   3    1000024    6   -6
    0.0062160345   3    1000023   -5    6
    0.0031893295   3    1000022   -5    6
    0.0027556587   3    1000025   -5    6
    0.00032771077   2    1000006   -5

DECAY 1000022 -1


DECAY 1000023  2.3395403e-05
    0.20111402   3    1000022    12   -12
    0.15038707   3    1000022    1   -1
    0.15036541   3    1000022    3   -3
    0.11729315   3    1000022    2   -2
    0.11376504   3    1000022    4   -4
    0.11307016   3    1000022    5   -5
    0.05433264   2    1000022    22
    0.033935595   3    1000022    11   -11
    0.03392773   3    1000022    13   -13
    0.031809168   3    1000022    15   -15

DECAY 1000025  0.00032122025
    0.12291917   3    1000024    1   -2
    0.12291917   3   -1000024   -1    2
    0.12223841   3    1000024    3   -4
    0.12223841   3   -1000024   -3    4
    0.052145341   3    1000023    12   -12
    0.04097485   3    1000024    11   -12
    0.04097485   3   -1000024   -11    12
    0.040973761   3    1000024    13   -14
    0.040973761   3   -1000024   -13    14
    0.04053982   3    1000024    15   -16
    0.04053982   3   -1000024   -15    16
    0.038994167   3    1000023    1   -1
    0.038991205   3    1000023    3   -3
    0.033519946   3    1000023    5   -5
    0.030410435   3    1000023    2   -2
    0.029914306   3    1000023    4   -4
    0.01403149   2    1000023    22
    0.0088006293   3    1000023    11   -11
    0.0087995376   3    1000023    13   -13
    0.0085024748   3    1000023    15   -15
    0.00028422357   2    1000022    22

DECAY 1000035  47.097877
    0.11472345   2    1000024   -24
    0.11472345   2   -1000024    24
    0.085713055   2    37   -1000024
    0.085713055   2   -37    1000024
    0.081151343   2    1000023    25
    0.052877446   2    1000023    35
    0.040181202   2    1000022    23
    0.038780105   2    1000023    23
    0.036871118   2    1000022    25
    0.036398014   2    1000022    35
    0.035447728   2    1000025    23
    0.033400338   2    1000025    25
    0.032884436   2    1000023    36
    0.025036137   2    1000025    35
    0.01951877   2    1000016   -16
    0.01951877   2   -1000016    16
    0.019395101   2    1000015   -15
    0.019395101   2   -1000015    15
    0.01791147   2    1000022    36
    0.010764507   2    1000025    36
    0.0074811245   2    1000014   -14
    0.0074811245   2   -1000014    14
    0.0074807301   2    1000012   -12
    0.0074807301   2   -1000012    12
    0.0074004759   2    1000013   -13
    0.0074004759   2   -1000013    13
    0.0074001893   2    1000011   -11
    0.0074001893   2   -1000011    11
    0.0057695981   3    1000024    5   -6
    0.0057695981   3   -1000024   -5    6
    0.0042000795   3    1000023    6   -6
    0.0021704575   3    1000022    6   -6
    0.0018582069   3    1000025    6   -6
    0.00013283957   2    1000006   -6
    0.00013283957   2   -1000006    6

DECAY 1000021  283.37672
    0.15362724   2    2000003   -3
    0.15362724   2   -2000003    3
    0.15362698   2    2000001   -1
    0.15362698   2   -2000001    1
    0.077998355   2    1000005   -5
    0.077998355   2   -1000005    5
    0.052590274   2    1000006   -6
    0.052590274   2   -1000006    6
    0.01263929   2    1000004   -4
    0.01263929   2   -1000004    4
    0.012639258   2    1000002   -2
    0.012639258   2   -1000002    2
    0.0125867   2    1000003   -3
    0.0125867   2   -1000003    3
    0.012586629   2    1000001   -1
    0.012586629   2   -1000001    1
    0.0057847054   2    2000002   -2
    0.0057847054   2   -2000002    2
    0.0057846864   2    2000004   -4
    0.0057846864   2   -2000004    4

DECAY 25  0.0035213165
    0.64169749   2   -5    5
    0.16018171   2   -24    24
    0.073475814   2   -15    15
    0.072579348   2    21    21
    0.030355062   2   -4    4
    0.017846801   2    23    23
    0.0022495515   2    22    22
    0.0011179486   2    22    23
    0.00025482625   2   -13    13
    0.00024062721   2   -3    3
    6.6531023e-07   2   -1    1
    1.5644008e-07   2   -2    2
    5.7288351e-09   2   -11    11

DECAY 35  12.353654
    0.80623652   2   -5    5
    0.13944713   2   -15    15
    0.019493868   2    1000023    1000025
    0.011401044   2    1000022    1000023
    0.010516815   2    1000022    1000022
    0.0060980318   2    1000025    1000025
    0.0035297286   2   -6    6
    0.0018088794   2    1000022    1000025
    0.00051267766   2   -1000024    1000024
    0.00048156923   2   -13    13
    0.00029534641   2   -3    3
    0.00010551311   2    25    25
    4.311946e-05   2    21    21
    1.637299e-05   2   -24    24
    1.2014108e-05   2    23    23
    8.1658448e-07   2   -1    1
    3.7752666e-07   2    1000023    1000023
    6.6475694e-08   2    22    22
    5.5199395e-08   2   -4    4
    4.7928122e-08   2    22    23
    1.0819472e-08   2   -11    11
    2.8463465e-13   2   -2    2

DECAY 36  12.085757
    0.80469909   2   -5    5
    0.13917866   2   -15    15
    0.015899322   2    1000022    1000022
    0.012632596   2    1000025    1000025
    0.011023123   2    1000023    1000025
    0.0075668963   2    1000022    1000023
    0.0038533844   2   -6    6
    0.0032584054   2    1000022    1000025
    0.0010038682   2   -1000024    1000024
    0.00048063532   2   -13    13
    0.00029477495   2   -3    3
    8.9335518e-05   2    21    21
    1.7976759e-05   2    23    25
    8.3473881e-07   2    1000023    1000023
    8.1500426e-07   2   -1    1
    1.5380871e-07   2    22    22
    6.5398929e-08   2    22    23
    5.2459039e-08   2   -4    4
    1.0798497e-08   2   -11    11
    2.7053401e-13   2   -2    2
    6.8246477e-39   2    25    25

DECAY 37  11.078679
    0.79819822   2   -5    6
    0.14338684   2   -15    16
    0.029966327   2    1000024    1000025
    0.02598781   2    1000022    1000024
    0.001227015   2   -5    4
    0.00050692656   2   -13    14
    0.00038683345   2    1000023    1000024
    0.00028967447   2   -3    4
    1.9946406e-05   2    24    25
    1.3376515e-05   2   -3    2
    8.7621786e-06   2   -5    2
    7.1124046e-06   2   -3    6
    8.0364736e-07   2   -1    2
    3.0786568e-07   2   -1    6
    3.9984467e-08   2   -1    4
    1.1857065e-08   2   -11    12
    5.9748991e-11   2    24    35
    5.9526249e-11   2    24    36

DECAY 6  2.43
    1   2    5    24

DECAY 15 -1
