BLOCK SPINFO
   1   SPheno
   2   v4.0.5be

BLOCK SPHENOINFO
   1   2
   2   2

BLOCK MODSEL
   1   0

BLOCK MINPAR
   3    10.693747
   4   -1

BLOCK EXTPAR
   0    1710.6402
   1    1519.1722
   2    1047.829
   3    3000
   11    4879.4062
   12    1222.5426
   13    1521.096
   23   -443.11577
   25    10.230002
   26    479.68393
   31    1771.6098
   32    1771.6098
   33    1327.5569
   34    505.50622
   35    505.50622
   36    761.19726
   41    5000
   42    5000
   43    1738.0401
   44    5000
   45    5000
   46    1836.514
   47    5000
   48    5000
   49    646.14312

BLOCK SMINPUTS
   1    127.90897
   2    1.1663787e-05
   3    0.1184
   4    91.1876
   5    4.18
   6    173.2
   7    1.777
   8    0
   11    0.00051099893
   12    0
   13    0.10565837
   14    0
   21    0.005
   22    0.0025
   23    0.095
   24    1.27

BLOCK GAUGE Q=  1710.6402
   1    0.35536298
   2    0.66519887
   3    1.219778

BLOCK YU Q=  1710.6402
   1   1    8.4243349e-06
   2   2    0.0042795621
   3   3    1.0177273

BLOCK YD Q=  1710.6402
   1   1    0.00017317755
   2   2    0.0032903735
   3   3    0.17173787

BLOCK YE Q=  1710.6402
   1   1    3.0220749e-05
   2   2    0.0062486925
   3   3    0.10509273

BLOCK AU Q=  1710.6402
   1   1    0
   2   2    0
   3   3    4879.4064

BLOCK AD Q=  1710.6402
   1   1    0
   2   2    0
   3   3    1222.5427

BLOCK AE Q=  1710.6402
   1   1    0
   2   2    0
   3   3    1521.096

BLOCK MSOFT Q=  1710.6402
   1    1519.1722
   2    1047.829
   3    3000
   21    15913.54
   22   -117860.85
   31    1771.6098
   32    1771.6098
   33    1327.5569
   34    505.50622
   35    505.50622
   36    761.19726
   41    5000
   42    5000
   43    1738.0401
   44    5000
   45    5000
   46    1836.514
   47    5000
   48    5000
   49    646.14312

BLOCK MASS
   6    173.2
   23    91.1876
   24    80.429995
   15    1.777
   25    124.04304
   35    480.08321
   36    479.68393
   37    486.31162
   1000001    5039.3098
   2000001    5029.292
   1000002    5038.8881
   2000002    5029.7764
   1000003    5039.3103
   2000003    5029.2923
   1000004    5038.8885
   2000004    5029.7769
   1000005    676.82902
   2000005    1723.6016
   1000006    1524.8342
   2000006    1919.0873
   1000011    1778.7394
   2000011    526.10409
   1000012    1776.6817
   1000013    1778.7389
   2000013    526.10206
   1000014    1776.6812
   1000015    775.26301
   2000015    1337.1308
   1000016    1334.4602
   1000021    3210.4331
   1000022    445.54239
   1000023   -452.12375
   1000025    1094.3636
   1000035    1508.3775
   1000024    448.11906
   1000037    1094.5449

BLOCK ALPHA
      -0.10356495

BLOCK HMIX Q=  1710.6402
   1   -443.11577
   2    10.230002
   3    243.8207
   4    230096.67

BLOCK STOPMIX
   1   1   -0.73012959
   1   2    0.6833087
   2   1   -0.6833087
   2   2   -0.73012959

BLOCK SBOTMIX
   1   1   -0.005480691
   1   2    0.99998498
   2   1   -0.99998498
   2   2   -0.005480691

BLOCK STAUMIX
   1   1   -0.0090153958
   1   2    0.99995936
   2   1   -0.99995936
   2   2   -0.0090153958

BLOCK NMIX
   1   1   -0.026132862
   1   2    0.077565223
   1   3    0.70877687
   1   4    0.70066829
   2   1   -0.017383495
   2   2    0.040200662
   2   3   -0.70489714
   2   4    0.70795603
   3   1    0.008348614
   3   2    0.99616076
   3   3   -0.026705301
   3   4   -0.082951032
   4   1    0.99947246
   4   2   -0.0055936833
   4   3    0.0064951711
   4   4    0.031326269

BLOCK UMIX
   1   1   -0.038088975
   1   2   -0.99927435
   2   1    0.99927435
   2   2   -0.038088975

BLOCK VMIX
   1   1   -0.11812422
   1   2    0.99299883
   2   1    0.99299883
   2   2    0.11812422

BLOCK HIGGSBOUNDSINPUTHIGGSCOUPLINGSFERMIONS
       0, 104.65295,3,36,15,15

BLOCK HIGGSBOUNDSINPUTHIGGSCOUPLINGSBOSONS
       0,4,36,21,21,23

BLOCK SPHENOLOWENERGY
   1    0.00039772479
   2    1.5885048e-06
   3    3.5260025e-05
   4    2.5973501e-15
   5    1.1095582e-10
   6    2.3226104e-08
   7    8.7819467e-14
   8    3.751644e-09
   9    7.9570903e-07
   10    9.4224793e-05
   11    0.97330604
   12    0.54370289
   13    19.418061
   14    0
   15    0
   16    0.002164263
   17    2.2817333e-15
   18    2.4819245e-11
   19    8.2942695e-11
   20   -1.3989985e-15
   21   -5.98116e-11
   22   -2.3803583e-08
   23    0
   24    0
   25    0
   26    0
   27    0
   28    0
   29    0
   30    0
   31    0
   39    1.142049e-05
   40    0
   41    0
   42    0

BLOCK FWCOEF Q=  160
   305   4422   0   0   -0.18881911
   305   4422   0   2   -0.26351325
   305   4322   0   2   -0.0016333667
   305   6421   0   0   -0.095227835
   305   6421   0   2   -0.18170125
   305   6321   0   2   -0.0017813426
   3051111   4133   0   0    1.5963991
   3051111   4133   0   2    1.5973412
   3051111   4233   0   2   -1.1624361e-05
   3051111   4137   0   0   -4.4190912
   3051111   4137   0   2   -4.4181118
   3051111   4237   0   2    9.1626328e-05
   3051313   4133   0   0    1.5963991
   3051313   4133   0   2    1.597341
   3051313   4233   0   2   -1.1625092e-05
   3051313   4137   0   0   -4.4190912
   3051313   4137   0   2   -4.418112
   3051313   4237   0   2    9.1627039e-05
   3051212   4137   0   0    1.5053501
   3051212   4137   0   2    1.5051462
   3051212   4237   0   2   -1.9945665e-05
   3051414   4137   0   0    1.5053501
   3051414   4137   0   2    1.5051462
   3051414   4237   0   2   -1.9945508e-05
   3051616   4137   0   0    1.5053501
   3051616   4137   0   2    1.5051461
   3051616   4237   0   2   -1.9900894e-05

BLOCK IMFWCOEF Q=  160
   305   4422   0   0    3.8584099e-07
   305   4422   0   2   -8.0109521e-06
   305   4322   0   2    1.4699589e-06
   305   6421   0   0    3.3049833e-07
   305   6421   0   2    2.4631199e-06
   305   6321   0   2    7.1846708e-07
   3051111   4133   0   2   -2.1853201e-06
   3051111   4233   0   2    4.2655366e-07
   3051111   4137   0   2    1.8134912e-05
   3051111   4237   0   2   -3.2748949e-06
   3051313   4133   0   2   -2.1853188e-06
   3051313   4233   0   2    4.2655354e-07
   3051313   4137   0   2    1.8134914e-05
   3051313   4237   0   2   -3.2748952e-06
   3051212   4137   0   2   -3.7744608e-06
   3051212   4237   0   2    7.1306664e-07
   3051414   4137   0   2   -3.7744608e-06
   3051414   4237   0   2    7.1306664e-07
   3051616   4137   0   2   -3.776249e-06
   3051616   4237   0   2    7.1306902e-07

DECAY 23  2.4952


DECAY 24  2.085


DECAY 2000011  0.00019900198
    0.72557276   2    1000022    11
    0.27442363   2    1000023    11

DECAY 1000011  9.2907738
    0.64972585   2   -1000037    12
    0.32587052   2    1000025    11
    0.018559709   2    1000035    11
    0.0029947364   2    1000022    11
    0.0021445512   2   -1000024    12
    0.0007046328   2    1000023    11

DECAY 2000013  0.00026008287
    0.61872816   2    1000022    13
    0.26305723   2    1000023    13
    0.11821461   2   -1000024    14

DECAY 1000013  9.2920139
    0.64963848   2   -1000037    14
    0.32582671   2    1000025    13
    0.018557172   2    1000035    13
    0.0030599841   2    1000022    13
    0.0021442642   2   -1000024    14
    0.0007691703   2    1000023    13

DECAY 1000015  0.15290354
    0.49537518   2   -1000024    16
    0.26180718   2    1000022    15
    0.24281765   2    1000023    15

DECAY 2000015  2.3447865
    0.5456724   2   -1000037    16
    0.27391936   2    1000025    15
    0.057288491   2    1000022    15
    0.050973541   2    1000023    15
    0.025516589   2    1000015    36
    0.025327591   2    1000015    35
    0.0080837827   2    1000015    25
    0.0079007801   2    1000015    23
    0.0053174615   2   -1000024    16

DECAY 1000012  9.3423133
    0.63551414   2    1000037    11
    0.31705535   2    1000025    12
    0.020482083   2    1000024    11
    0.018997504   2    1000035    12
    0.0061578761   2    1000022    12
    0.0017930539   2    1000023    12

DECAY 1000014  9.343513
    0.63543186   2    1000037    13
    0.31701429   2    1000025    14
    0.020608872   2    1000024    13
    0.018994997   2    1000035    14
    0.0061570829   2    1000022    14
    0.0017928229   2    1000023    14

DECAY 1000016  2.420184
    0.51251234   2    1000037    15
    0.25595478   2    1000025    16
    0.14868866   2    1000024    15
    0.046868456   2    1000015    37
    0.01605058   2    1000022    16
    0.015267826   2    1000015    24
    0.0046573664   2    1000023    16

DECAY 2000001  141.69395
    0.98358535   2    1000021    1
    0.016394141   2    1000035    1

DECAY 1000001  201.42096
    0.69709552   2    1000021    1
    0.19966136   2   -1000037    2
    0.09891688   2    1000025    1
    0.0030758062   2    1000035    1
    0.00073282417   2    1000022    1
    0.0003144868   2   -1000024    2
    0.00020312561   2    1000023    1

DECAY 2000003  141.6961
    0.98357059   2    1000021    3
    0.016393894   2    1000035    3

DECAY 1000003  201.42388
    0.69708563   2    1000021    3
    0.1996586   2   -1000037    4
    0.098915458   2    1000025    3
    0.0030757621   2    1000035    3
    0.00073547185   2    1000022    3
    0.00032332378   2   -1000024    4
    0.00020574959   2    1000023    3

DECAY 1000005  0.19308653
    0.35350542   2   -1000024    6
    0.33383287   2    1000022    5
    0.31266171   2    1000023    5

DECAY 2000005  53.945415
    0.55012312   2   -1000024    6
    0.27006122   2    1000006   -24
    0.10485203   2   -1000037    6
    0.049569586   2    1000025    5
    0.0090045538   2    1000022    5
    0.0083189777   2    1000023    5
    0.0032013976   2    1000005    36
    0.0031825903   2    1000005    35
    0.00084786318   2    1000005    25
    0.00057896288   2    1000005    23
    0.00025970615   2    1000035    5

DECAY 2000002  148.72309
    0.9374364   2    1000021    2
    0.062485597   2    1000035    2

DECAY 1000002  201.41703
    0.69689135   2    1000021    2
    0.19714553   2    1000037    1
    0.099501103   2    1000025    2
    0.0030245082   2    1000024    1
    0.0027120731   2    1000035    2
    0.00057625943   2    1000022    2
    0.0001491723   2    1000023    2

DECAY 2000004  148.72669
    0.93741367   2    1000021    4
    0.062484103   2    1000035    4

DECAY 1000004  201.41989
    0.69688138   2    1000021    4
    0.19714276   2    1000037    3
    0.099499761   2    1000025    4
    0.0030297487   2    1000024    3
    0.0027120402   2    1000035    4
    0.0005806514   2    1000022    4
    0.00015366278   2    1000023    4

DECAY 1000006  39.957591
    0.33059174   2    1000023    6
    0.31615874   2    1000022    6
    0.26383259   2    1000024    5
    0.056824596   2    1000037    5
    0.028621225   2    1000025    6
    0.003369541   2    1000005    37
    0.00049279   2    1000005    24
    0.00010877297   3    1000022    24    5

DECAY 2000006  100.48451
    0.27453611   2    1000006    23
    0.21754994   2    1000024    5
    0.17220209   2    1000022    6
    0.17028998   2    1000023    6
    0.12220249   2    2000005    24
    0.022864736   2    1000037    5
    0.012584986   2    1000025    6
    0.0033983935   2    1000035    6
    0.0020738419   2    1000005    37
    0.0018502961   2    1000006    25
    0.00044713007   2    1000005    24

DECAY 1000024  1.0665268e-10
    0.50307292   3    1000022   -1    2
    0.1676953   3    1000022   -11    12
    0.16629904   3    1000022   -13    14
    0.15058986   3    1000022   -3    4
    0.012342874   3    1000022   -15    16

DECAY 1000037  13.120689
    0.15175099   2    1000023    24
    0.14692308   2    1000024    23
    0.14665454   2    1000022    24
    0.14441468   2    1000024    25
    0.1095992   2    1000024    36
    0.10902893   2    37    1000022
    0.10862746   2    1000024    35
    0.075999012   2    37    1000023
    0.0031241259   3    1000023   -5    6
    0.0022213604   3    1000022   -5    6
    0.0016336961   3    1000024    6   -6

DECAY 1000022 -1


DECAY 1000023  9.7540537e-08
    0.59577738   2    1000022    22
    0.087271937   3    1000022    12   -12
    0.065258629   3    1000022    1   -1
    0.065100478   3    1000022    3   -3
    0.050896004   3    1000022    2   -2
    0.030643117   3    1000022    4   -4
    0.014728277   3    1000024    1   -2
    0.014728277   3   -1000024   -1    2
    0.014725758   3    1000022    11   -11
    0.014669876   3    1000022    13   -13
    0.009079103   3    1000024    3   -4
    0.009079103   3   -1000024   -3    4
    0.004909498   3    1000024    11   -12
    0.004909498   3   -1000024   -11    12
    0.0048925489   3    1000024    13   -14
    0.0048925489   3   -1000024   -13    14
    0.0046483368   3    1000022    15   -15
    0.0018948184   3    1000024    15   -16
    0.0018948184   3   -1000024   -15    16

DECAY 1000025  15.001568
    0.15184856   2    1000023    25
    0.13201557   2    1000024   -24
    0.13201557   2   -1000024    24
    0.10444487   2    1000023    23
    0.096283443   2    1000022    25
    0.094612657   2    37   -1000024
    0.094612657   2   -37    1000024
    0.090197698   2    1000022    35
    0.059157731   2    1000023    35
    0.027139234   2    1000022    23
    0.0074997713   2    1000023    36
    0.0054255358   2    1000022    36
    0.0017806174   3    1000024    5   -6
    0.0017806174   3   -1000024   -5    6
    0.00064382146   3    1000023    6   -6
    0.00048213775   3    1000022    6   -6

DECAY 1000035  24.818191
    0.11767634   2    2000013   -13
    0.11767634   2   -2000013    13
    0.11767608   2    2000011   -11
    0.11767608   2   -2000011    11
    0.082584653   2    1000015   -15
    0.082584653   2   -1000015    15
    0.035424093   2    1000023    25
    0.033742445   2    1000024   -24
    0.033742445   2   -1000024    24
    0.032429288   2    1000005   -5
    0.032429288   2   -1000005    5
    0.032062674   2    37   -1000024
    0.032062674   2   -37    1000024
    0.029163655   2    1000022    35
    0.025590425   2    1000023    23
    0.022517557   2    1000022    25
    0.019217589   2    1000023    35
    0.010845776   2    1000022    23
    0.0070782667   2    1000023    36
    0.0049267525   2    1000022    36
    0.0018386457   2    1000016   -16
    0.0018386457   2   -1000016    16
    0.0017123218   2    2000015   -15
    0.0017123218   2   -2000015    15
    0.00096250333   2    1000025    25
    0.00094686186   2    1000037   -24
    0.00094686186   2   -1000037    24
    0.00082219423   3    1000024    5   -6
    0.00082219423   3   -1000024   -5    6
    0.00067684132   3    1000023    6   -6
    0.00056208293   3    1000022    6   -6

DECAY 1000021  232.2404
    0.18681473   2    1000005   -5
    0.18681473   2   -1000005    5
    0.13937937   2    1000006   -6
    0.13937937   2   -1000006    6
    0.10364366   2    2000005   -5
    0.10364366   2   -2000005    5
    0.070050567   2    2000006   -6
    0.070050567   2   -2000006    6

DECAY 25  0.0043714712
    0.63411923   2   -5    5
    0.1831514   2   -24    24
    0.071383172   2   -15    15
    0.061006942   2    21    21
    0.024867926   2   -4    4
    0.02175144   2    23    23
    0.0020188885   2    22    22
    0.0012183928   2    22    23
    0.00024765253   2   -13    13
    0.00023417753   2   -3    3
    6.474699e-07   2   -1    1
    1.2815252e-07   2   -2    2
    5.5675167e-09   2   -11    11

DECAY 35  1.1724219
    0.792616   2   -5    5
    0.09813934   2   -15    15
    0.08747924   2   -6    6
    0.016399648   2    25    25
    0.0029399653   2   -24    24
    0.0013761769   2    23    23
    0.00043746007   2    21    21
    0.00034099281   2   -13    13
    0.00026688626   2   -3    3
    2.8742088e-06   2   -4    4
    7.3785101e-07   2   -1    1
    5.9904441e-07   2    22    22
    6.8477505e-08   2    22    23
    7.6627969e-09   2   -11    11
    1.4824659e-11   2   -2    2

DECAY 36  1.2136295
    0.75927837   2   -5    5
    0.14326889   2   -6    6
    0.094001945   2   -15    15
    0.0022542141   2    23    25
    0.00060972567   2    21    21
    0.00032659708   2   -13    13
    0.00025563896   2   -3    3
    2.2225856e-06   2   -4    4
    1.306476e-06   2    22    22
    7.0675588e-07   2   -1    1
    3.7803494e-07   2    22    23
    7.3392961e-09   2   -11    11
    1.1468842e-11   2   -2    2
    2.6845637e-37   2    25    25

DECAY 37  0.93780069
    0.87592414   2   -5    6
    0.11858993   2   -15    16
    0.0031653251   2    24    25
    0.0013304448   2   -5    4
    0.00041926862   2   -13    14
    0.00029294721   2   -3    4
    0.00024303364   2   -3    6
    1.3255077e-05   2   -3    2
    1.1132017e-05   2   -1    6
    9.5008455e-06   2   -5    2
    8.0475978e-07   2   -1    2
    1.6924049e-07   2   -1    4
    1.8266622e-08   2    24    36
    1.3397623e-08   2    24    35
    9.8067374e-09   2   -11    12

DECAY 6  2.43
    1   2    5    24

DECAY 15 -1
