BLOCK SPINFO
   1   SPheno
   2   v4.0.5be

BLOCK SPHENOINFO
   1   2
   2   2

BLOCK MODSEL
   1   0

BLOCK MINPAR
   3    31.431748
   4    1

BLOCK EXTPAR
   0    3198.3284
   1    28.057653
   2   -2766.3373
   3    3765.8073
   11   -4863.2964
   12    223.05546
   13    5691.5887
   23    2088.9453
   25    30.332509
   26    1689.1492
   31    1444.18
   32    1444.18
   33    1058.9137
   34    3940.1722
   35    3940.1722
   36    3403.702
   41    2114.6341
   42    2114.6341
   43    4495.6424
   44    3243.4858
   45    3243.4858
   46    2117.6923
   47    3640.6612
   48    3640.6612
   49    3420.3517

BLOCK SMINPUTS
   1    127.90897
   2    1.1663787e-05
   3    0.1184
   4    91.1876
   5    4.18
   6    173.2
   7    1.777
   8    0
   11    0.00051099893
   12    0
   13    0.10565837
   14    0
   21    0.005
   22    0.0025
   23    0.095
   24    1.27

BLOCK GAUGE Q=  3198.3284
   1    0.35536298
   2    0.66519887
   3    1.219778

BLOCK YU Q=  3198.3284
   1   1    8.3889273e-06
   2   2    0.0042615751
   3   3    1.0134498

BLOCK YD Q=  3198.3284
   1   1    0.00051132263
   2   2    0.00971513
   3   3    0.50707182

BLOCK YE Q=  3198.3284
   1   1    8.9229538e-05
   2   2    0.018449838
   3   3    0.31029593

BLOCK AU Q=  3198.3284
   1   1    0
   2   2    0
   3   3   -4863.3019

BLOCK AD Q=  3198.3284
   1   1    0
   2   2    0
   3   3    223.05521

BLOCK AE Q=  3198.3284
   1   1    0
   2   2    0
   3   3    5691.5859

BLOCK MSOFT Q=  3198.3284
   1    28.057653
   2   -2766.3373
   3    3765.8073
   21   -1571018.6
   22   -4352335
   31    1444.18
   32    1444.18
   33    1058.9137
   34    3940.1722
   35    3940.1722
   36    3403.702
   41    2114.6341
   42    2114.6341
   43    4495.6424
   44    3243.4858
   45    3243.4858
   46    2117.6923
   47    3640.6612
   48    3640.6612
   49    3420.3517

BLOCK MASS
   6    173.2
   23    91.1876
   24    80.429995
   15    1.777
   25    123.56253
   35    1689.1139
   36    1689.1492
   37    1691.0443
   1000001    2289.8517
   2000001    3756.0843
   1000002    2288.4699
   2000002    3368.5389
   1000003    2289.8507
   2000003    3756.0818
   1000004    2288.469
   2000004    3368.5384
   1000005    3534.1916
   2000005    4557.5536
   1000006    2241.9522
   2000006    4562.6773
   1000011    1480.0771
   2000011    3943.7623
   1000012    1477.5965
   1000013    1480.073
   2000013    3943.7446
   1000014    1477.5953
   1000015    1097.3852
   2000015    3387.0822
   1000016    1096.1503
   1000021    3881.2164
   1000022    27.696231
   1000023   -2098.8263
   1000025    2103.3289
   1000035   -2754.7587
   1000024    2099.203
   1000037    2754.8643

BLOCK ALPHA
      -0.031982928

BLOCK HMIX Q=  3198.3284
   1    2088.9453
   2    30.332509
   3    243.19669
   4    2853225

BLOCK STOPMIX
   1   1    0.04364156
   1   2    0.99904725
   2   1   -0.99904725
   2   2    0.04364156

BLOCK SBOTMIX
   1   1    0.015553032
   1   2    0.99987904
   2   1   -0.99987904
   2   2    0.015553032

BLOCK STAUMIX
   1   1    0.99995604
   1   2    0.0093763737
   2   1   -0.0093763737
   2   2    0.99995604

BLOCK NMIX
   1   1   -0.99976825
   1   2   -5.9501835e-05
   1   3   -0.021503608
   1   4    0.0010202766
   2   1    0.014451767
   2   2    0.077601215
   2   3   -0.70553645
   2   4   -0.70426381
   3   1    0.015924704
   3   2   -0.011560531
   3   3   -0.70680474
   3   4    0.70713493
   4   1   -0.0009999471
   4   2    0.99691745
   4   3    0.046722192
   4   4    0.063020908

BLOCK UMIX
   1   1   -0.06694167
   1   2    0.99775689
   2   1   -0.99775689
   2   2   -0.06694167

BLOCK VMIX
   1   1    0.089981005
   1   2    0.99594348
   2   1    0.99594348
   2   2   -0.089981005

BLOCK HIGGSBOUNDSINPUTHIGGSCOUPLINGSFERMIONS
       0, 920.0611,3,36,15,15

BLOCK HIGGSBOUNDSINPUTHIGGSCOUPLINGSBOSONS
       0,4,36,21,21,23

BLOCK SPHENOLOWENERGY
   1    0.00032798352
   2    1.5890637e-06
   3    3.5248276e-05
   4    2.497008e-15
   5    1.0666877e-10
   6    2.2296797e-08
   7    8.3841201e-14
   8    3.581675e-09
   9    7.5862959e-07
   10    9.5216582e-05
   11    0.98355084
   12    0.54186256
   13    19.352251
   14    0
   15    0
   16    0.0021569645
   17    2.2816569e-15
   18    2.4801044e-11
   19    8.2893064e-11
   20   -1.2822701e-15
   21   -5.4820535e-11
   22   -1.6045134e-08
   23    0
   24    0
   25    0
   26    0
   27    0
   28    0
   29    0
   30    0
   31    0
   39    6.3089425e-05
   40    0
   41    0
   42    0

BLOCK FWCOEF Q=  160
   305   4422   0   0   -0.18881911
   305   4422   0   2   -0.19522723
   305   4322   0   2    5.6876432e-06
   305   6421   0   0   -0.095227835
   305   6421   0   2   -0.11014776
   305   6321   0   2   -0.00020049583
   3051111   4133   0   0    1.6188528
   3051111   4133   0   2    1.6189235
   3051111   4233   0   2    5.1552324e-05
   3051111   4137   0   0   -4.4415449
   3051111   4137   0   2   -4.4394604
   3051111   4237   0   2   -0.00038581292
   3051313   4133   0   0    1.6188528
   3051313   4133   0   2    1.6189224
   3051313   4233   0   2    5.1551412e-05
   3051313   4137   0   0   -4.4415449
   3051313   4137   0   2   -4.4394615
   3051313   4237   0   2   -0.00038581225
   3051212   4137   0   0    1.5053501
   3051212   4137   0   2    1.5048996
   3051212   4237   0   2    8.3574265e-05
   3051414   4137   0   0    1.5053501
   3051414   4137   0   2    1.5048996
   3051414   4237   0   2    8.3574453e-05
   3051616   4137   0   0    1.5053501
   3051616   4137   0   2    1.5048995
   3051616   4237   0   2    8.3627437e-05

BLOCK IMFWCOEF Q=  160
   305   4422   0   0    3.8587099e-07
   305   4422   0   2   -1.4847825e-06
   305   4322   0   2    5.8143111e-06
   305   6421   0   0    3.3052402e-07
   305   6421   0   2   -6.3583253e-06
   305   6321   0   2    3.5392734e-06
   3051111   4133   0   2   -2.4078093e-06
   3051111   4233   0   2    2.0093067e-06
   3051111   4137   0   2    1.8544848e-05
   3051111   4237   0   2   -1.504326e-05
   3051313   4133   0   2   -2.4077922e-06
   3051313   4233   0   2    2.009306e-06
   3051313   4137   0   2    1.8544867e-05
   3051313   4237   0   2   -1.5043263e-05
   3051212   4137   0   2   -3.9984465e-06
   3051212   4237   0   2    3.2586546e-06
   3051414   4137   0   2   -3.9984467e-06
   3051414   4237   0   2    3.2586546e-06
   3051616   4137   0   2   -4.0000386e-06
   3051616   4237   0   2    3.2586542e-06

DECAY 23  2.4952


DECAY 24  2.085


DECAY 1000011  1.8574626
    1   2    1000022    11

DECAY 2000011  19.809533
    0.99976248   2    1000022    11
    0.00012989757   2    1000025    11
    0.00010734487   2    1000023    11

DECAY 1000013  1.8574621
    1   2    1000022    13

DECAY 2000013  19.84004
    0.99822132   2    1000022    13
    0.00068828838   2   -1000024    14
    0.00047402942   2    1000025    13
    0.00045144306   2    1000023    13
    0.0001618283   2    1000013    25

DECAY 1000015  1.3784249
    1   2    1000022    15

DECAY 2000015  46.294459
    0.36739677   2    1000022    15
    0.2264843   2    1000016   -37
    0.11332496   2    1000015    36
    0.11321589   2    1000015    35
    0.052774267   2   -1000024    16
    0.035944121   2    1000016   -24
    0.026486048   2    1000025    15
    0.026430822   2    1000023    15
    0.019817432   2    1000015    25
    0.017944267   2    1000015    23
    0.00012150757   2   -1000037    16

DECAY 1000012  1.853521
    0.9999989   2    1000022    12

DECAY 1000014  1.8535195
    0.9999989   2    1000022    14

DECAY 1000016  1.3742376
    1   2    1000022    16

DECAY 1000001  0.32294899
    0.98822691   2    1000022    1
    0.0071232781   2   -1000024    2
    0.0044913777   2    1000023    1
    0.00015843112   2    1000025    1

DECAY 2000001  2.0962734
    0.99977174   2    1000022    1
    0.00012172562   2    1000025    1
    0.00010102221   2    1000023    1

DECAY 1000003  0.32307486
    0.98784755   2    1000022    3
    0.007175305   2   -1000024    4
    0.0046564758   2    1000023    3
    0.00032066628   2    1000025    3

DECAY 2000003  2.1035881
    0.99629613   2    1000022    3
    0.0015782954   2   -1000024    4
    0.00090837126   2    1000025    3
    0.00088797956   2    1000023    3
    0.0003242416   2    1000003    25

DECAY 1000005  16.978841
    0.43795163   2   -1000024    6
    0.22272902   2    1000023    5
    0.22167215   2    1000025    5
    0.11696529   2    1000022    5
    0.00033762002   2   -1000037    6
    0.00017286518   2    1000006   -24
    0.00017141727   2    1000035    5

DECAY 2000005  186.97713
    0.30455587   2   -1000024    6
    0.28511797   2    1000006   -24
    0.14523516   2    1000021    5
    0.088847334   2   -1000037    6
    0.044531242   2    1000006   -37
    0.043137449   2    1000035    5
    0.038789496   2    1000023    5
    0.038629472   2    1000025    5
    0.0051317624   2    1000005    25
    0.0034167835   2    1000022    5
    0.0026074563   2    1000005    23

DECAY 1000002  0.32513518
    0.98230177   2    1000022    2
    0.012615079   2    1000024    1
    0.0050263016   2    1000023    2

DECAY 2000002  7.5193195
    0.99982725   2    1000022    2

DECAY 1000004  0.32526588
    0.98190597   2    1000022    4
    0.012944365   2    1000024    3
    0.0050616004   2    1000023    4

DECAY 2000004  7.5202216
    0.9997068   2    1000022    4
    0.00012464453   2    1000025    4
    0.00010815525   2    1000023    4

DECAY 1000006  5.6205523
    0.87812211   2    1000022    6
    0.12186032   2    1000024    5

DECAY 2000006  200.35367
    0.20403154   2    1000006    25
    0.14498421   2    1000023    6
    0.14442584   2    1000025    6
    0.13347937   2    1000006    23
    0.12938583   2    1000021    6
    0.079375619   2    1000037    5
    0.075001095   2    1000024    5
    0.039336917   2    1000035    6
    0.020923676   2    1000006    36
    0.020867349   2    1000006    35
    0.004938538   2    1000005    24
    0.0032500319   2    1000022    6

DECAY 1000024  2.8599202
    0.50715909   2    1000022    24
    0.38373293   2    1000016   -15
    0.056597997   2    37    1000022
    0.022544277   3    1000022   -5    6
    0.0086745914   2   -1000015    16
    0.0072880397   2    1000014   -13
    0.006658998   2    1000012   -11
    0.0036612809   2   -1000013    14
    0.0036612408   2   -1000011    12

DECAY 1000037  68.876941
    0.12396811   2   -1000015    16
    0.12383966   2    1000016   -15
    0.088685028   2   -1000013    14
    0.088684629   2   -1000011    12
    0.088603352   2    1000014   -13
    0.088602896   2    1000012   -11
    0.052390891   2    1000024    25
    0.050322656   2    1000004   -3
    0.050322422   2    1000002   -1
    0.050234524   2   -1000001    2
    0.050234421   2   -1000003    4
    0.046617143   2    1000023    24
    0.046276074   2    1000024    23
    0.04611543   2    1000025    24
    0.0019613508   2    1000006   -5
    0.0011736759   3    1000023   -5    6
    0.00093901861   3    1000025   -5    6
    0.00077052422   3    1000024    6   -6
    0.00023960599   2    1000022    24

DECAY 1000022 -1


DECAY 1000023  2.7949714
    0.28403835   2    1000022    23
    0.22289247   2    1000022    25
    0.19607244   2    1000015   -15
    0.19607244   2   -1000015    15
    0.033495421   2    1000022    35
    0.025327726   2    1000022    36
    0.012515435   3    1000022    6   -6
    0.0042681372   2    1000016   -16
    0.0042681372   2   -1000016    16
    0.0033605646   2    1000013   -13
    0.0033605646   2   -1000013    13
    0.0030402901   2    1000011   -11
    0.0030402901   2   -1000011    11
    0.0020529835   2    1000014   -14
    0.0020529835   2   -1000014    14
    0.0020529771   2    1000012   -12
    0.0020529771   2   -1000012    12

DECAY 1000025  2.6482584
    0.27027848   2    1000022    25
    0.25044481   2    1000022    23
    0.20113325   2    1000015   -15
    0.20113325   2   -1000015    15
    0.031439925   2    1000022    35
    0.030859067   2    1000022    36
    0.012505849   3    1000022    6   -6
    0.00037347702   2    1000016   -16
    0.00037347702   2   -1000016    16
    0.00034653168   2    1000013   -13
    0.00034653168   2   -1000013    13
    0.00018057664   2    1000014   -14
    0.00018057664   2   -1000014    14
    0.00018057609   2    1000012   -12
    0.00018057609   2   -1000012    12

DECAY 1000035  73.402272
    0.05821178   2    1000016   -16
    0.05821178   2   -1000016    16
    0.058049107   2    1000015   -15
    0.058049107   2   -1000015    15
    0.055425481   2    1000025    25
    0.048127877   2    1000023    25
    0.046597382   2    1000024   -24
    0.046597382   2   -1000024    24
    0.043504076   2    1000025    23
    0.04169208   2    1000014   -14
    0.04169208   2   -1000014    14
    0.041692027   2    1000012   -12
    0.041692027   2   -1000012    12
    0.041490209   2    1000013   -13
    0.041490209   2   -1000013    13
    0.041489899   2    1000011   -11
    0.041489899   2   -1000011    11
    0.023638855   2    1000004   -4
    0.023638855   2   -1000004    4
    0.023638761   2    1000002   -2
    0.023638761   2   -1000002    2
    0.023528655   2    1000003   -3
    0.023528655   2   -1000003    3
    0.023528546   2    1000001   -1
    0.023528546   2   -1000001    1
    0.0011488236   3    1000024    5   -6
    0.0011488236   3   -1000024   -5    6
    0.00095898356   2    1000023    23
    0.00088761371   2    1000006   -6
    0.00088761371   2   -1000006    6
    0.00030056234   3    1000025    6   -6
    0.00026113239   3    1000023    6   -6
    0.00011069412   2    1000022    23
    0.00010013638   2    1000022    25

DECAY 1000021  264.25485
    0.09510052   2    1000006   -6
    0.09510052   2   -1000006    6
    0.092502809   2    1000004   -4
    0.092502809   2   -1000004    4
    0.092502753   2    1000002   -2
    0.092502753   2   -1000002    2
    0.092383775   2    1000003   -3
    0.092383775   2   -1000003    3
    0.092383684   2    1000001   -1
    0.092383684   2   -1000001    1
    0.013233366   2    2000002   -2
    0.013233366   2   -2000002    2
    0.013233357   2    2000004   -4
    0.013233357   2   -2000004    4
    0.0063405546   2    1000005   -5
    0.0063405546   2   -1000005    5
    0.00087492219   2    2000003   -3
    0.00087492219   2   -2000003    3
    0.00087488736   2    2000001   -1
    0.00087488736   2   -2000001    1
    0.00049599536   3    1000023    6   -6
    0.00047245733   3    1000025    6   -6

DECAY 25  0.0037168573
    0.59624363   2   -5    5
    0.20456994   2   -24    24
    0.073199014   2    21    21
    0.068382346   2   -15    15
    0.029241586   2   -4    4
    0.024060866   2    23    23
    0.0023306637   2    22    22
    0.0013710082   2    22    23
    0.00023719172   2   -13    13
    0.00022333043   2   -3    3
    0.00013964909   2    1000022    1000022
    6.1748246e-07   2   -1    1
    1.5069335e-07   2   -2    2
    5.3323515e-09   2   -11    11

DECAY 35  18.985164
    0.84881756   2   -5    5
    0.14748615   2   -15    15
    0.0028090876   2   -6    6
    0.0005237548   2   -13    13
    0.00024693892   2   -3    3
    8.8134439e-05   2    1000022    1000022
    2.154667e-05   2    21    21
    2.8019582e-06   2    25    25
    1.9611722e-06   2    23    23
    1.3248666e-06   2   -24    24
    6.8252383e-07   2   -1    1
    3.0859761e-08   2   -4    4
    1.1765349e-08   2   -11    11
    8.5185807e-09   2    22    22
    4.5521541e-09   2    22    23
    1.5901717e-13   2   -2    2

DECAY 36  18.343459
    0.84894173   2   -5    5
    0.14750925   2   -15    15
    0.0026314919   2   -6    6
    0.0005238308   2   -13    13
    0.00024697773   2   -3    3
    9.1849103e-05   2    1000022    1000022
    5.133944e-05   2    21    21
    2.6850316e-06   2    23    25
    6.8263065e-07   2   -1    1
    7.8268459e-08   2    22    22
    4.549833e-08   2    22    23
    2.7173222e-08   2   -4    4
    1.1767026e-08   2   -11    11
    1.4004984e-13   2   -2    2
    8.5295132e-38   2    25    25

DECAY 37  20.390183
    0.83408737   2   -5    6
    0.16385718   2   -15    16
    0.0012413526   2   -5    4
    0.0005792945   2   -13    14
    0.00020775319   2   -3    4
    9.6619557e-06   2   -3    2
    8.8645449e-06   2   -5    2
    5.2503627e-06   2   -3    6
    2.4285965e-06   2    24    25
    5.7616506e-07   2   -1    2
    2.2699878e-07   2   -1    6
    2.8827837e-08   2   -1    4
    1.3549759e-08   2   -11    12
    1.788278e-12   2    24    35
    1.6306804e-12   2    24    36

DECAY 6  2.43
    1   2    5    24

DECAY 15 -1
