BLOCK SPINFO
   1   SPheno
   2   v4.0.5be

BLOCK SPHENOINFO
   1   2
   2   2

BLOCK MODSEL
   1   0

BLOCK MINPAR
   3    59.433638
   4    1

BLOCK EXTPAR
   0    1840.312
   1   -55.753928
   2    1826.6248
   3    3000
   11    5120.3075
   12   -503.35122
   13    1354.9278
   23    846.21547
   25    58.130511
   26    3000.7525
   31    1020.1483
   32    1020.1483
   33    1530.4179
   34    1124.2071
   35    1124.2071
   36    1371.2927
   41    5000
   42    5000
   43    1839.6227
   44    5000
   45    5000
   46    1961.3016
   47    5000
   48    5000
   49    1088.334

BLOCK SMINPUTS
   1    127.90897
   2    1.1663787e-05
   3    0.1184
   4    91.1876
   5    4.18
   6    173.2
   7    1.777
   8    0
   11    0.00051099893
   12    0
   13    0.10565837
   14    0
   21    0.005
   22    0.0025
   23    0.095
   24    1.27

BLOCK GAUGE Q=  1840.312
   1    0.35536298
   2    0.66519887
   3    1.219778

BLOCK YU Q=  1840.312
   1   1    8.3856126e-06
   2   2    0.0042598912
   3   3    1.0130494

BLOCK YD Q=  1840.312
   1   1    0.00097953325
   2   2    0.018611132
   3   3    0.97139004

BLOCK YE Q=  1840.312
   1   1    0.00017093572
   2   2    0.035344084
   3   3    0.59442936

BLOCK AU Q=  1840.312
   1   1    0
   2   2    0
   3   3    5120.3076

BLOCK AD Q=  1840.312
   1   1    0
   2   2    0
   3   3   -503.35118

BLOCK AE Q=  1840.312
   1   1    0
   2   2    0
   3   3    1354.9278

BLOCK MSOFT Q=  1840.312
   1   -55.753928
   2    1826.6248
   3    3000
   21    8379334.9
   22   -638315.34
   31    1020.1483
   32    1020.1483
   33    1530.4179
   34    1124.2071
   35    1124.2071
   36    1371.2927
   41    5000
   42    5000
   43    1839.6227
   44    5000
   45    5000
   46    1961.3016
   47    5000
   48    5000
   49    1088.334

BLOCK MASS
   6    173.2
   23    91.1876
   24    80.429995
   15    1.777
   25    125.20551
   35    2998.9794
   36    3000.7525
   37    3000.214
   1000001    5042.2432
   2000001    5033.3134
   1000002    5041.8043
   2000002    5034.6982
   1000003    5042.2511
   2000003    5033.3145
   1000004    5041.8076
   2000004    5034.6986
   1000005    1141.0342
   2000005    1845.2144
   1000006    1661.4801
   2000006    2038.3924
   1000011    1041.1769
   2000011    1126.5102
   1000012    1037.8452
   1000013    1041.0747
   2000013    1126.5359
   1000014    1037.8234
   1000015    1355.5127
   2000015    1545.0642
   1000016    1537.7999
   1000021    3216.5561
   1000022   -55.600002
   1000023    853.11071
   1000025   -856.57257
   1000035    1869.7366
   1000024    852.98377
   1000037    1869.973

BLOCK ALPHA
      -0.016841445

BLOCK HMIX Q=  1840.312
   1    846.21547
   2    58.130511
   3    243.74
   4    9004515.4

BLOCK STOPMIX
   1   1   -0.74480634
   1   2    0.66728068
   2   1   -0.66728068
   2   2   -0.74480634

BLOCK SBOTMIX
   1   1    0.033628049
   1   2    0.99943442
   2   1   -0.99943442
   2   2    0.033628049

BLOCK STAUMIX
   1   1    0.16380381
   1   2    0.98649294
   2   1   -0.98649294
   2   2    0.16380381

BLOCK NMIX
   1   1    0.99862824
   1   2    0.00012909625
   1   3    0.052290942
   1   4    0.0026966827
   2   1    0.035069333
   2   2    0.055032536
   2   3   -0.70622955
   2   4    0.70496906
   3   1   -0.038860518
   3   2    0.020149799
   3   3    0.70561761
   3   4    0.70723944
   4   1    0.0012780385
   4   2   -0.99828122
   4   3   -0.024683225
   4   4    0.05313865

BLOCK UMIX
   1   1   -0.034920348
   1   2    0.9993901
   2   1    0.9993901
   2   2    0.034920348

BLOCK VMIX
   1   1   -0.075201183
   1   2    0.99716838
   2   1    0.99716838
   2   2    0.075201183

BLOCK HIGGSBOUNDSINPUTHIGGSCOUPLINGSFERMIONS
       0, 3379.1563,3,36,15,15

BLOCK HIGGSBOUNDSINPUTHIGGSCOUPLINGSBOSONS
       0,4,36,21,21,23

BLOCK SPHENOLOWENERGY
   1    0.00037724878
   2    1.5870611e-06
   3    3.5239339e-05
   4    6.1974994e-15
   5    2.6474942e-10
   6    5.537062e-08
   7    2.0925449e-13
   8    8.9393208e-09
   9    1.8943168e-06
   10    9.2466321e-05
   11    0.95514169
   12    0.54395061
   13    19.41324
   14    0
   15    0
   16    0.0021743256
   17    2.2818342e-15
   18    2.4801663e-11
   19    8.2902788e-11
   20    5.8782178e-15
   21    2.5127329e-10
   22    6.4585957e-08
   23    0
   24    0
   25    0
   26    0
   27    0
   28    0
   29    0
   30    0
   31    0
   39    7.8552021e-05
   40    0
   41    0
   42    0

BLOCK FWCOEF Q=  160
   305   4422   0   0   -0.18881911
   305   4422   0   2   -0.25238067
   305   4322   0   2   -0.00052986729
   305   6421   0   0   -0.095227835
   305   6421   0   2   -0.13532181
   305   6321   0   2   -0.00037030213
   3051111   4133   0   0    1.6003045
   3051111   4133   0   2    1.6009941
   3051111   4233   0   2    0.00058664083
   3051111   4137   0   0   -4.4229965
   3051111   4137   0   2   -4.4201898
   3051111   4237   0   2   -0.0045102716
   3051313   4133   0   0    1.6003045
   3051313   4133   0   2    1.6009873
   3051313   4233   0   2    0.00058663572
   3051313   4137   0   0   -4.4229965
   3051313   4137   0   2   -4.4201966
   3051313   4237   0   2   -0.0045102821
   3051212   4137   0   0    1.5053501
   3051212   4137   0   2    1.5047443
   3051212   4237   0   2    0.00098109085
   3051414   4137   0   0    1.5053501
   3051414   4137   0   2    1.5047443
   3051414   4237   0   2    0.00098109113
   3051616   4137   0   0    1.5053501
   3051616   4137   0   2    1.5047445
   3051616   4237   0   2    0.00098116927

BLOCK IMFWCOEF Q=  160
   305   4422   0   0    3.8550084e-07
   305   4422   0   2    3.7325705e-05
   305   4322   0   2   -7.2455798e-06
   305   6421   0   0    3.3020696e-07
   305   6421   0   2   -1.5487142e-05
   305   6321   0   2   -3.7322985e-06
   3051111   4133   0   2   -1.4531978e-06
   3051111   4233   0   2    1.1881815e-05
   3051111   4137   0   2    1.2231168e-05
   3051111   4237   0   2   -9.1364332e-05
   3051313   4133   0   2   -1.4531383e-06
   3051313   4233   0   2    1.1881748e-05
   3051313   4137   0   2    1.2231245e-05
   3051313   4237   0   2   -9.1364542e-05
   3051212   4137   0   2   -2.5732542e-06
   3051212   4237   0   2    1.9873949e-05
   3051414   4137   0   2   -2.5732563e-06
   3051414   4237   0   2    1.9873949e-05
   3051616   4137   0   2   -2.5690309e-06
   3051616   4237   0   2    1.9873966e-05

DECAY 23  2.4952


DECAY 24  2.085


DECAY 1000011  1.3013991
    0.9970017   2    1000022    11
    0.0020695003   2    1000023    11
    0.00092864021   2   -1000024    12

DECAY 2000011  5.620103
    0.99950402   2    1000022    11
    0.00027064314   2    1000025    11
    0.00022531474   2    1000023    11

DECAY 1000013  1.3040721
    0.99491343   2    1000022    13
    0.0031297022   2    1000023    13
    0.0010309589   2    1000025    13
    0.00092590338   2   -1000024    14

DECAY 2000013  5.6304231
    0.99770852   2    1000022    13
    0.0009041855   2   -1000024    14
    0.00071099428   2    1000025    13
    0.0006762974   2    1000023    13

DECAY 1000015  13.597084
    0.49473471   2    1000022    15
    0.25174967   2   -1000024    16
    0.12930212   2    1000023    15
    0.12421349   2    1000025    15

DECAY 2000015  7.8643254
    0.33500433   2    1000025    15
    0.33079237   2    1000023    15
    0.2592856   2    1000022    15
    0.034244392   2    1000015    23
    0.030217734   2    1000015    25
    0.010455569   2   -1000024    16

DECAY 1000012  1.2988977
    0.99472534   2    1000022    12
    0.0041890169   2    1000024    11
    0.00059827823   2    1000025    12
    0.00048735945   2    1000023    12

DECAY 1000014  1.3015772
    0.99265643   2    1000022    14
    0.0062603853   2    1000024    13
    0.00059692675   2    1000025    14
    0.0004862607   2    1000023    14

DECAY 1000016  7.6720485
    0.67912546   2    1000024    15
    0.25031927   2    1000022    16
    0.069295807   2    1000015    24
    0.0007024517   2    1000025    16
    0.00055701376   2    1000023    16

DECAY 2000001  141.86408
    0.98019851   2    1000021    1
    0.019749006   2    1000022    1

DECAY 1000001  190.23735
    0.73583389   2    1000021    1
    0.1733449   2   -1000037    2
    0.086526631   2    1000035    1
    0.0036829977   2    1000022    1
    0.00026847185   2   -1000024    2
    0.00026225113   2    1000023    1

DECAY 2000003  141.92944
    0.97974792   2    1000021    3
    0.019740582   2    1000022    3
    0.00023025913   2   -1000024    4
    0.00014292227   2    1000025    3
    0.000137955   2    1000023    3

DECAY 1000003  190.2727
    0.73570149   2    1000021    3
    0.17331318   2   -1000037    4
    0.086510864   2    1000035    3
    0.0036828168   2    1000022    3
    0.00034789871   2    1000023    3
    0.000277389   2   -1000024    4
    0.00016636096   2    1000025    3

DECAY 1000005  7.8407408
    0.38587385   2   -1000024    6
    0.26523983   2    1000023    5
    0.25843483   2    1000025    5
    0.090451477   2    1000022    5

DECAY 2000005  58.610195
    0.38433441   2   -1000024    6
    0.19887864   2    1000006   -24
    0.18211672   2    1000023    5
    0.18155511   2    1000025    5
    0.038207608   2    1000005    25
    0.009448008   2    1000005    23
    0.0054594982   2    1000022    5

DECAY 2000002  150.43771
    0.92529233   2    1000021    2
    0.074514442   2    1000022    2
    0.00010642488   2    1000025    2

DECAY 1000002  190.22808
    0.73562989   2    1000021    2
    0.17255884   2    1000037    1
    0.086439649   2    1000035    2
    0.0036935649   2    1000022    2
    0.0012454776   2    1000024    1
    0.00041331802   2    1000023    2

DECAY 2000004  150.44111
    0.92527125   2    1000021    4
    0.074512751   2    1000022    4
    0.00011211602   2    1000025    4

DECAY 1000004  190.26281
    0.73549708   2    1000021    4
    0.17252771   2    1000037    3
    0.086423987   2    1000035    4
    0.0036928926   2    1000022    4
    0.0014168494   2    1000024    3
    0.0004177205   2    1000023    4

DECAY 1000006  38.437421
    0.4345052   2    1000024    5
    0.25559372   2    1000023    6
    0.255226   2    1000025    6
    0.045518484   2    1000022    6
    0.0072360887   2    1000005    24
    0.001622471   2    1000022    4
    0.00016662746   3    1000022    24    5
    0.00010454134   2    1000023    4

DECAY 2000006  94.434027
    0.30239076   2    1000024    5
    0.26004163   2    1000006    23
    0.13712659   2    1000025    6
    0.1366133   2    1000023    6
    0.12000071   2    2000005    24
    0.027333433   2    1000022    6
    0.0098190164   2    1000005    24
    0.0050602341   2    1000006    25
    0.0016143208   2    1000037    5

DECAY 1000024  0.5788635
    0.98597232   2    1000022    24
    0.013779029   3    1000022   -5    6
    0.00024274718   3    1000022   -15    16

DECAY 1000037  33.770864
    0.11679943   2    1000024    25
    0.11604435   2    1000014   -13
    0.11603967   2    1000012   -11
    0.1159114   2   -1000013    14
    0.11589096   2   -1000011    12
    0.11233113   2    1000025    24
    0.11138061   2    1000023    24
    0.11101857   2    1000024    23
    0.025411061   2    1000016   -15
    0.024100076   2   -2000015    16
    0.021750038   2    1000006   -5
    0.0045064052   3    1000024    6   -6
    0.0036761785   3    1000023   -5    6
    0.0036351247   3    1000025   -5    6
    0.00096968519   2   -1000015    16
    0.00026504936   2    1000022    24
    0.00013001445   3    1000024    5   -5
    0.00010053824   2   -1000005    6

DECAY 1000022 -1


DECAY 1000023  0.61607345
    0.51248311   2    1000022    23
    0.48269434   2    1000022    25
    0.0042004763   3    1000022    6   -6
    0.00038383574   3    1000022    5   -5
    0.00022473625   3    1000022    15   -15

DECAY 1000025  0.54374814
    0.51656324   2    1000022    25
    0.47726806   2    1000022    23
    0.0054378164   3    1000022    6   -6
    0.00043877909   3    1000022    5   -5
    0.00025746385   3    1000022    15   -15

DECAY 1000035  36.189683
    0.10415504   2    1000024   -24
    0.10415504   2   -1000024    24
    0.09630958   2    1000023    25
    0.092632682   2    1000025    23
    0.09056916   2    1000025    25
    0.054320049   2    1000014   -14
    0.054320049   2   -1000014    14
    0.054318014   2    1000012   -12
    0.054318014   2   -1000012    12
    0.053869469   2    1000013   -13
    0.053869469   2   -1000013    13
    0.053859813   2    1000011   -11
    0.053859813   2   -1000011    11
    0.012363284   2    1000023    23
    0.011877867   2    1000016   -16
    0.011877867   2   -1000016    16
    0.011197575   2    2000015   -15
    0.011197575   2   -2000015    15
    0.0048811625   2    1000006   -6
    0.0048811625   2   -1000006    6
    0.0033125684   3    1000024    5   -6
    0.0033125684   3   -1000024   -5    6
    0.0014601277   3    1000023    6   -6
    0.0013650012   3    1000025    6   -6
    0.0004504681   2    1000015   -15
    0.0004504681   2   -1000015    15
    0.00022473063   2    2000005   -5
    0.00022473063   2   -2000005    5
    0.00012607251   2    1000022    23
    0.00011016102   2    1000022    25

DECAY 1000021  215.8679
    0.16848477   2    1000005   -5
    0.16848477   2   -1000005    5
    0.13539105   2    1000006   -6
    0.13539105   2   -1000006    6
    0.099290697   2    2000005   -5
    0.099290697   2   -2000005    5
    0.064480249   2    2000006   -6
    0.064480249   2   -2000006    6
    0.031993619   2    1000006   -4
    0.031993619   2   -1000006    4
    0.00022167953   3    1000035    6   -6
    0.00013678073   3    1000037    5   -6
    0.00013678073   3   -1000037   -5    6
    0.0001262047   3    1000035    5   -5

DECAY 25  0.0038931502
    0.56952507   2   -5    5
    0.23263713   2   -24    24
    0.07150597   2    21    21
    0.065513713   2   -15    15
    0.02827636   2    23    23
    0.028199204   2   -4    4
    0.0023604943   2    22    22
    0.001521037   2    22    23
    0.00022727439   2   -13    13
    0.00021367807   2   -3    3
    1.9327178e-05   2    1000022    1000022
    5.9079817e-07   2   -1    1
    1.4531638e-07   2   -2    2
    5.1093839e-09   2   -11    11

DECAY 35  101.10808
    0.61435535   2   -5    5
    0.25641542   2   -15    15
    0.02887508   2   -1000024    1000037
    0.02887508   2   -1000037    1000024
    0.023657505   2    1000025    1000035
    0.014768056   2    1000022    1000025
    0.014504563   2    1000022    1000023
    0.0050781545   2    1000023    1000035
    0.0048041756   2   -2000015    1000015
    0.0048041756   2   -1000015    2000015
    0.0011274831   2   -1000015    1000015
    0.00094045774   2   -13    13
    0.00085082859   2   -1000024    1000024
    0.00040160495   2   -3    3
    0.00018018394   2    1000022    1000022
    0.00011839585   2    1000025    1000025
    0.00010704175   2    1000023    1000023
    6.8200387e-05   2    1000022    1000035
    4.9166047e-05   2   -6    6
    1.3877928e-05   2   -1000005    1000005
    2.6543673e-06   2    21    21
    1.1630209e-06   2    25    25
    1.1104927e-06   2   -1    1
    2.4554835e-08   2    22    23
    2.1122165e-08   2   -11    11
    1.8397177e-08   2   -1000011    1000011
    1.709119e-08   2   -1000013    1000013
    1.6447237e-08   2    23    23
    1.12628e-08   2   -2000013    2000013
    1.0748057e-08   2   -2000011    2000011
    8.9627021e-09   2    1000023    1000025
    5.9207868e-09   2   -2000013    1000013
    5.9207868e-09   2   -1000013    2000013
    5.0945015e-09   2    22    22
    4.9683072e-09   2   -24    24
    1.2556294e-09   2   -4    4
    1.3880305e-13   2   -2000011    1000011
    1.3880305e-13   2   -1000011    2000011
    6.4689188e-15   2   -2    2

DECAY 36  95.871234
    0.60886621   2   -5    5
    0.2541429   2   -15    15
    0.030332973   2   -1000024    1000037
    0.030332973   2   -1000037    1000024
    0.025065693   2    1000023    1000035
    0.01599917   2    1000022    1000023
    0.014900501   2    1000022    1000025
    0.0058313465   2   -2000015    1000015
    0.0058313465   2   -1000015    2000015
    0.0053089121   2    1000025    1000035
    0.0013571613   2   -1000024    1000024
    0.00093212208   2   -13    13
    0.00039800631   2   -3    3
    0.00018977384   2    1000022    1000022
    0.00017684753   2    1000023    1000023
    0.0001718332   2    1000025    1000025
    8.7789308e-05   2   -6    6
    6.3148611e-05   2    1000022    1000035
    9.811978e-06   2    21    21
    1.1005382e-06   2   -1    1
    1.9269486e-07   2    1000023    1000025
    7.2954817e-08   2    22    23
    5.1171009e-08   2    22    22
    2.8239504e-08   2    23    25
    2.093485e-08   2   -11    11
    6.1457426e-09   2   -2000013    1000013
    6.1457426e-09   2   -1000013    2000013
    1.8037716e-09   2   -4    4
    2.0075971e-13   2    23    35
    1.4374935e-13   2   -2000011    1000011
    1.4374935e-13   2   -1000011    2000011
    9.2924097e-15   2   -2    2
    1.4194133e-35   2    25    25

DECAY 37  84.540756
    0.59028045   2   -5    6
    0.25069516   2   -15    16
    0.035508242   2    1000022    1000024
    0.034849746   2    1000023    1000037
    0.034629656   2    1000024    1000035
    0.034290571   2    1000025    1000037
    0.013230139   2   -1000015    1000016
    0.0038266798   2   -1000005    1000006
    0.00088629689   2   -13    14
    0.00087494814   2   -5    4
    0.0004398237   2   -3    4
    0.00015489959   2    1000023    1000024
    0.00015338207   2    1000022    1000037
    0.00015039796   2    1000024    1000025
    2.0600177e-05   2   -3    2
    6.2480328e-06   2   -5    2
    1.2213174e-06   2   -1    2
    1.2165134e-06   2   -3    6
    8.6540613e-08   2   -1000011    1000012
    8.4283183e-08   2   -1000013    1000014
    5.7273149e-08   2   -1    4
    3.202684e-08   2    24    25
    2.5927288e-08   2   -1    6
    2.0730576e-08   2   -11    12
    1.5610985e-08   2   -2000013    1000014
    3.6550555e-13   2   -2000011    1000012
    4.6188952e-14   2    24    35

DECAY 6  2.43
    1   2    5    24

DECAY 15 -1
