# SUSY Les Houches Accord 2 - MSSM spectrum + Decays
# SPheno v4.0.5be
# W. Porod, Comput. Phys. Commun. 153 (2003) 275-315, hep-ph/0301101;
# W. Porod, F.~Staub, Comput. Phys. Commun. 183 (2012) 2458
#                     arXiv:1104.1573 [hep-ph] 
# in case of problems send email to porod@physik.uni-wuerzburg.de
# Created: 07.09.2021,  21:06
Block SPINFO         # Program information
     1   SPheno      # spectrum calculator
     2   v4.0.5be    # version number
#
Block SPhenoINFO     # SPheno specific information
    1      2         # using 2-loop RGEs
    2      2         # using pole masses for boundary conditions at mZ
Block MODSEL  # Model selection
    1    0    # general MSSM
Block MINPAR  # Input parameters
    3    1.64625478E+01  # tanb at m_Z    
    4    1.00000000E+00  # Sign(mu)
Block EXTPAR  # non-universal input parameters
    0    2.60805639E+03  # scale for input parameters
    1   -2.02114622E+02  # M_1
    2    1.69932108E+03  # M_2
    3    1.66235167E+03  # M_3
   11    3.44437672E+03  # A_t
   12   -6.07591708E+02  # A_b
   13   -3.80523921E+02  # A_tau
   23    2.47330575E+02  # mu
   25    1.57379669E+01  # tan(beta)
   26    3.21169356E+03  # m_A, pole mass
   31    1.00000000E+04  # M_L11
   32    1.00000000E+04  # M_L22
   33    1.00000000E+04  # M_L33
   34    1.00000000E+04  # M_E11
   35    1.00000000E+04  # M_E22
   36    1.00000000E+04  # M_E33
   41    1.00000000E+04  # M_Q11
   42    1.00000000E+04  # M_Q22
   43    2.20263836E+03  # M_Q33
   44    1.00000000E+04  # M_U11
   45    1.00000000E+04  # M_U22
   46    3.05481151E+03  # M_U33
   47    1.00000000E+04  # M_D11
   48    1.00000000E+04  # M_D22
   49    2.01714209E+03  # M_D33
Block SMINPUTS  # SM parameters
         1     1.27908970E+02  # alpha_em^-1(MZ)^MSbar
         2     1.16637870E-05  # G_mu [GeV^-2]
         3     1.18400000E-01  # alpha_s(MZ)^MSbar
         4     9.11876000E+01  # m_Z(pole)
         5     4.18000000E+00  # m_b(m_b), MSbar
         6     1.73200000E+02  # m_t(pole)
         7     1.77700000E+00  # m_tau(pole)
         8     0.00000000E+00  # m_nu_3
        11     5.10998930E-04  # m_e(pole)
        12     0.00000000E+00  # m_nu_1
        13     1.05658372E-01  # m_muon(pole)
        14     0.00000000E+00  # m_nu_2
        21     5.00000000E-03  # m_d(2 GeV), MSbar
        22     2.50000000E-03  # m_u(2 GeV), MSbar
        23     9.50000000E-02  # m_s(2 GeV), MSbar
        24     1.27000000E+00  # m_c(m_c), MSbar
Block gauge Q=  2.60805639E+03  # (SUSY scale)
   1    3.55362975E-01  # g'(Q)^DRbar
   2    6.65198874E-01  # g(Q)^DRbar
   3    1.21977796E+00  # g3(Q)^DRbar
Block Yu Q=  2.60805639E+03  # (SUSY scale)
  1  1     8.40128065E-06   # Y_u(Q)^DRbar
  2  2     4.26785057E-03   # Y_c(Q)^DRbar
  3  3     1.01494218E+00   # Y_t(Q)^DRbar
Block Yd Q=  2.60805639E+03  # (SUSY scale)
  1  1     2.65689486E-04   # Y_d(Q)^DRbar
  2  2     5.04810023E-03   # Y_s(Q)^DRbar
  3  3     2.63480715E-01   # Y_b(Q)^DRbar
Block Ye Q=  2.60805639E+03  # (SUSY scale)
  1  1     4.63647581E-05   # Y_e(Q)^DRbar
  2  2     9.58676149E-03   # Y_mu(Q)^DRbar
  3  3     1.61233557E-01   # Y_tau(Q)^DRbar
Block Au Q=  2.60805639E+03  # (SUSY scale)
  1  1     0.00000000E+00   # A_u(Q)^DRbar
  2  2     0.00000000E+00   # A_c(Q)^DRbar
  3  3     3.44437674E+03   # A_t(Q)^DRbar
Block Ad Q=  2.60805639E+03  # (SUSY scale)
  1  1     0.00000000E+00   # A_d(Q)^DRbar
  2  2     0.00000000E+00   # A_s(Q)^DRbar
  3  3    -6.07591707E+02   # A_b(Q)^DRbar
Block Ae Q=  2.60805639E+03  # (SUSY scale)
  1  1     0.00000000E+00   # A_e(Q)^DRbar
  2  2     0.00000000E+00   # A_mu(Q)^DRbar
  3  3    -3.80523920E+02   # A_tau(Q)^DRbar
Block MSOFT Q=  2.60805639E+03  # soft SUSY breaking masses at Q
   1   -2.02114622E+02  # M_1
   2    1.69932108E+03  # M_2
   3    1.66235167E+03  # M_3
  21    1.01320662E+07  # M^2_(H,d)
  22    8.21643706E+04  # M^2_(H,u)
  31    1.00000000E+04  # M_(L,11)
  32    1.00000000E+04  # M_(L,22)
  33    1.00000000E+04  # M_(L,33)
  34    1.00000000E+04  # M_(E,11)
  35    1.00000000E+04  # M_(E,22)
  36    1.00000000E+04  # M_(E,33)
  41    1.00000000E+04  # M_(Q,11)
  42    1.00000000E+04  # M_(Q,22)
  43    2.20263836E+03  # M_(Q,33)
  44    1.00000000E+04  # M_(U,11)
  45    1.00000000E+04  # M_(U,22)
  46    3.05481151E+03  # M_(U,33)
  47    1.00000000E+04  # M_(D,11)
  48    1.00000000E+04  # M_(D,22)
  49    2.01714209E+03  # M_(D,33)
Block MASS  # Mass spectrum
#   PDG code      mass          particle
         6     1.73200000E+02  # m_t(pole)
        23     9.11876000E+01  # m_Z(pole)
        24     8.04299946E+01  # W+
        15     1.77700000E+00  # m_tau(pole)
        25     1.23648307E+02  # h0
        35     3.21144515E+03  # H0
        36     3.21169356E+03  # A0
        37     3.21326509E+03  # H+
   1000001     1.01157916E+04  # ~d_L
   2000001     1.00927222E+04  # ~d_R
   1000002     1.01154306E+04  # ~u_L
   2000002     1.00960255E+04  # ~u_R
   1000003     1.01157940E+04  # ~s_L
   2000003     1.00927250E+04  # ~s_R
   1000004     1.01154330E+04  # ~c_L
   2000004     1.00960275E+04  # ~c_R
   1000005     2.08489034E+03  # ~b_1
   2000005     2.24970092E+03  # ~b_2
   1000006     2.24245999E+03  # ~t_1
   2000006     3.03325731E+03  # ~t_2
   1000011     1.00194693E+04  # ~e_L-
   2000011     1.00087664E+04  # ~e_R-
   1000012     1.00187095E+04  # ~nu_eL
   1000013     1.00194764E+04  # ~mu_L-
   2000013     1.00087801E+04  # ~mu_R-
   1000014     1.00187166E+04  # ~nu_muL
   1000015     1.00126458E+04  # ~tau_1-
   2000015     1.00214811E+04  # ~tau_2-
   1000016     1.00207028E+04  # ~nu_tauL
   1000021     2.00704424E+03  # ~g
   1000022     1.92963417E+02  # ~chi_10
   1000023     2.53268667E+02  # ~chi_20
   1000025     2.68320798E+02  # ~chi_30
   1000035     1.80323320E+03  # ~chi_40
   1000024     2.52357225E+02  # ~chi_1+
   1000037     1.80319840E+03  # ~chi_2+
# Higgs mixing
Block alpha # Effective Higgs mixing angle
          -6.08088309E-02   # alpha
Block Hmix Q=  2.60805639E+03  # Higgs mixing parameters
   1    2.47330575E+02  # mu
   2    1.57379669E+01  # tan[beta](Q)
   3    2.43388060E+02  # v(Q)
   4    1.03149755E+07  # m^2_A(Q)
Block stopmix # stop mixing matrix
   1  1    -9.94324274E-01   # Re[R_st(1,1)]
   1  2     1.06391912E-01   # Re[R_st(1,2)]
   2  1    -1.06391912E-01   # Re[R_st(2,1)]
   2  2    -9.94324274E-01   # Re[R_st(2,2)]
Block sbotmix # sbottom mixing matrix
   1  1     1.45757683E-02   # Re[R_sb(1,1)]
   1  2     9.99893768E-01   # Re[R_sb(1,2)]
   2  1    -9.99893768E-01   # Re[R_sb(2,1)]
   2  2     1.45757683E-02   # Re[R_sb(2,2)]
Block staumix # stau mixing matrix
   1  1     4.31789374E-02   # Re[R_sta(1,1)]
   1  2     9.99067355E-01   # Re[R_sta(1,2)]
   2  1    -9.99067355E-01   # Re[R_sta(2,1)]
   2  2     4.31789374E-02   # Re[R_sta(2,2)]
Block Nmix # neutralino mixing matrix
   1  1     8.98867742E-01   # Re[N(1,1)]
   1  2     9.66025415E-03   # Re[N(1,2)]
   1  3     3.52768909E-01   # Re[N(1,3)]
   1  4     2.59802923E-01   # Re[N(1,4)]
   2  1    -7.22685585E-02   # Re[N(2,1)]
   2  2    -3.89076844E-02   # Re[N(2,2)]
   2  3     7.04428190E-01   # Re[N(2,3)]
   2  4    -7.05013739E-01   # Re[N(2,4)]
   3  1    -4.32218563E-01   # Re[N(3,1)]
   3  2     2.41158357E-02   # Re[N(3,2)]
   3  3     6.15833698E-01   # Re[N(3,3)]
   3  4     6.58296587E-01   # Re[N(3,4)]
   4  1     1.07295605E-03   # Re[N(4,1)]
   4  2    -9.98905050E-01   # Re[N(4,2)]
   4  3    -9.15851620E-03   # Re[N(4,3)]
   4  4     4.58658075E-02   # Re[N(4,4)]
Block Umix # chargino mixing matrix
   1  1    -1.29310161E-02   # Re[U(1,1)]
   1  2     9.99916391E-01   # Re[U(1,2)]
   2  1     9.99916391E-01   # Re[U(2,1)]
   2  2     1.29310161E-02   # Re[U(2,2)]
Block Vmix # chargino mixing matrix
   1  1    -6.48282199E-02   # Re[V(1,1)]
   1  2     9.97896438E-01   # Re[V(1,2)]
   2  1     9.97896438E-01   # Re[V(2,1)]
   2  2     6.48282199E-02   # Re[V(2,2)]
DECAY        23     2.49520000E+00   # Z
DECAY        24     2.08500000E+00   # W
DECAY   2000011     5.02463561E+01   # ~e^-_R
#    BR                NDA      ID1      ID2
     8.08070318E-01    2     1000022        11   # BR(~e^-_R -> chi^0_1 e^-)
     5.22063406E-03    2     1000023        11   # BR(~e^-_R -> chi^0_2 e^-)
     1.86707960E-01    2     1000025        11   # BR(~e^-_R -> chi^0_3 e^-)
DECAY   1000011     1.36456645E+02   # ~e^-_L
#    BR                NDA      ID1      ID2
     7.74933122E-02    2     1000022        11   # BR(~e^-_L -> chi^0_1 e^-)
     1.93941311E-03    2     1000023        11   # BR(~e^-_L -> chi^0_2 e^-)
     1.37995518E-02    2     1000025        11   # BR(~e^-_L -> chi^0_3 e^-)
     3.01580680E-01    2     1000035        11   # BR(~e^-_L -> chi^0_4 e^-)
     1.07943702E-04    2    -1000024        12   # BR(~e^-_L -> chi^-_1 nu_e)
     6.05079099E-01    2    -1000037        12   # BR(~e^-_L -> chi^-_2 nu_e)
#    BR                NDA      ID1      ID2       ID3
DECAY   2000013     5.02829778E+01   # ~mu^-_R
#    BR                NDA      ID1      ID2
     8.07528151E-01    2     1000022        13   # BR(~mu^-_R -> chi^0_1 mu^-)
     5.39720037E-03    2     1000023        13   # BR(~mu^-_R -> chi^0_2 mu^-)
     1.86710065E-01    2     1000025        13   # BR(~mu^-_R -> chi^0_3 mu^-)
     3.63420285E-04    2    -1000024        14   # BR(~mu^-_R -> chi^-_1 nu_mu)
DECAY   1000013     1.36475049E+02   # ~mu^-_L
#    BR                NDA      ID1      ID2
     7.74996100E-02    2     1000022        13   # BR(~mu^-_L -> chi^0_1 mu^-)
     2.00567588E-03    2     1000023        13   # BR(~mu^-_L -> chi^0_2 mu^-)
     1.38485343E-02    2     1000025        13   # BR(~mu^-_L -> chi^0_3 mu^-)
     3.01540264E-01    2     1000035        13   # BR(~mu^-_L -> chi^0_4 mu^-)
     1.07929222E-04    2    -1000024        14   # BR(~mu^-_L -> chi^-_1 nu_mu)
     6.04997987E-01    2    -1000037        14   # BR(~mu^-_L -> chi^-_2 nu_mu)
#    BR                NDA      ID1      ID2       ID3
DECAY   1000015     6.07625630E+01   # ~tau^-_1
#    BR                NDA      ID1      ID2
     6.81709069E-01    2     1000022        15   # BR(~tau^-_1 -> chi^0_1 tau^-)
     4.65584594E-02    2     1000023        15   # BR(~tau^-_1 -> chi^0_2 tau^-)
     1.83135891E-01    2     1000025        15   # BR(~tau^-_1 -> chi^0_3 tau^-)
     1.08550181E-03    2     1000035        15   # BR(~tau^-_1 -> chi^0_4 tau^-)
     8.53334581E-02    2    -1000024        16   # BR(~tau^-_1 -> chi^-_1 nu_tau)
     2.17762115E-03    2    -1000037        16   # BR(~tau^-_1 -> chi^-_2 nu_tau)
DECAY   2000015     1.41510251E+02   # ~tau^-_2
#    BR                NDA      ID1      ID2
     7.81628216E-02    2     1000022        15   # BR(~tau^-_2 -> chi^0_1 tau^-)
     2.00195847E-02    2     1000023        15   # BR(~tau^-_2 -> chi^0_2 tau^-)
     2.87241708E-02    2     1000025        15   # BR(~tau^-_2 -> chi^0_3 tau^-)
     2.90416529E-01    2     1000035        15   # BR(~tau^-_2 -> chi^0_4 tau^-)
     5.82673145E-01    2    -1000037        16   # BR(~tau^-_2 -> chi^-_2 nu_tau)
#    BR                NDA      ID1      ID2       ID3
DECAY   1000012     1.36460372E+02   # ~nu_e
#    BR                NDA      ID1      ID2
     7.14935953E-02    2     1000022        12   # BR(~nu_e -> chi^0_1 nu_e)
     2.09855198E-02    2     1000025        12   # BR(~nu_e -> chi^0_3 nu_e)
     3.02239444E-01    2     1000035        12   # BR(~nu_e -> chi^0_4 nu_e)
     2.71278777E-03    2     1000024        11   # BR(~nu_e -> chi^+_1 e^-)
     6.02568624E-01    2     1000037        11   # BR(~nu_e -> chi^+_2 e^-)
#    BR                NDA      ID1      ID2       ID3
DECAY   1000014     1.36478775E+02   # ~nu_mu
#    BR                NDA      ID1      ID2
     7.14840058E-02    2     1000022        14   # BR(~nu_mu -> chi^0_1 nu_mu)
     2.09827050E-02    2     1000025        14   # BR(~nu_mu -> chi^0_3 nu_mu)
     3.02198933E-01    2     1000035        14   # BR(~nu_mu -> chi^0_4 nu_mu)
     2.84644860E-03    2     1000024        13   # BR(~nu_mu -> chi^+_1 mu^-)
     6.02487879E-01    2     1000037        13   # BR(~nu_mu -> chi^+_2 mu^-)
#    BR                NDA      ID1      ID2       ID3
DECAY   1000016     1.41666692E+02   # ~nu_tau
#    BR                NDA      ID1      ID2
     6.88798926E-02    2     1000022        16   # BR(~nu_tau -> chi^0_1 nu_tau)
     2.02183251E-02    2     1000025        16   # BR(~nu_tau -> chi^0_3 nu_tau)
     2.91197677E-01    2     1000035        16   # BR(~nu_tau -> chi^0_4 nu_tau)
     3.91432729E-02    2     1000024        15   # BR(~nu_tau -> chi^+_1 tau^-)
     5.80560805E-01    2     1000037        15   # BR(~nu_tau -> chi^+_2 tau^-)
#    BR                NDA      ID1      ID2       ID3
DECAY   2000001     7.40519872E+02   # ~d_R
#    BR                NDA      ID1      ID2
     6.14338573E-03    2     1000022         1   # BR(~d_R -> chi^0_1 d)
     1.41947748E-03    2     1000025         1   # BR(~d_R -> chi^0_3 d)
     9.92397410E-01    2     1000021         1   # BR(~d_R -> ~g d)
DECAY   1000001     8.63483353E+02   # ~d_L
#    BR                NDA      ID1      ID2
     1.16561280E-03    2     1000022         1   # BR(~d_L -> chi^0_1 d)
     5.26132444E-04    2     1000025         1   # BR(~d_L -> chi^0_3 d)
     4.82519619E-02    2     1000035         1   # BR(~d_L -> chi^0_4 d)
     9.66626966E-02    2    -1000037         2   # BR(~d_L -> chi^-_2 u)
     8.53341448E-01    2     1000021         1   # BR(~d_L -> ~g d)
DECAY   2000003     7.40530302E+02   # ~s_R
#    BR                NDA      ID1      ID2
     6.14415764E-03    2     1000022         3   # BR(~s_R -> chi^0_1 s)
     1.42206754E-03    2     1000025         3   # BR(~s_R -> chi^0_3 s)
     9.92383751E-01    2     1000021         3   # BR(~s_R -> ~g s)
DECAY   1000003     8.63492358E+02   # ~s_L
#    BR                NDA      ID1      ID2
     1.16633740E-03    2     1000022         3   # BR(~s_L -> chi^0_1 s)
     5.28370211E-04    2     1000025         3   # BR(~s_L -> chi^0_3 s)
     4.82514721E-02    2     1000035         3   # BR(~s_L -> chi^0_4 s)
     9.66617314E-02    2    -1000037         4   # BR(~s_L -> chi^-_2 c)
     8.53332784E-01    2     1000021         3   # BR(~s_L -> ~g s)
DECAY   1000005     7.58142037E+00   # ~b_1
#    BR                NDA      ID1      ID2
     1.71533238E-01    2     1000022         5   # BR(~b_1 -> chi^0_1 b)
     1.83735325E-01    2     1000023         5   # BR(~b_1 -> chi^0_2 b)
     1.64106886E-01    2     1000025         5   # BR(~b_1 -> chi^0_3 b)
     3.64035690E-01    2    -1000024         6   # BR(~b_1 -> chi^-_1 t)
     1.16569379E-01    2     1000021         5   # BR(~b_1 -> ~g b)
DECAY   2000005     5.86880783E+01   # ~b_2
#    BR                NDA      ID1      ID2
     9.80173136E-03    2     1000022         5   # BR(~b_2 -> chi^0_1 b)
     2.57188748E-02    2     1000023         5   # BR(~b_2 -> chi^0_2 b)
     2.16128658E-02    2     1000025         5   # BR(~b_2 -> chi^0_3 b)
     2.15283261E-02    2     1000035         5   # BR(~b_2 -> chi^0_4 b)
     7.53181813E-01    2    -1000024         6   # BR(~b_2 -> chi^-_1 t)
     4.21482506E-02    2    -1000037         6   # BR(~b_2 -> chi^-_2 t)
     1.25946621E-01    2     1000021         5   # BR(~b_2 -> ~g b)
DECAY   2000002     7.57696883E+02   # ~u_R
#    BR                NDA      ID1      ID2
     2.40243227E-02    2     1000022         2   # BR(~u_R -> chi^0_1 u)
     1.55213304E-04    2     1000023         2   # BR(~u_R -> chi^0_2 u)
     5.55098455E-03    2     1000025         2   # BR(~u_R -> chi^0_3 u)
     9.70269447E-01    2     1000021         2   # BR(~u_R -> ~g u)
DECAY   1000002     8.63471948E+02   # ~u_L
#    BR                NDA      ID1      ID2
     1.48427338E-03    2     1000022         2   # BR(~u_L -> chi^0_1 u)
     1.38059122E-04    2     1000023         2   # BR(~u_L -> chi^0_2 u)
     1.43824223E-04    2     1000025         2   # BR(~u_L -> chi^0_3 u)
     4.82137488E-02    2     1000035         2   # BR(~u_L -> chi^0_4 u)
     4.32885660E-04    2     1000024         1   # BR(~u_L -> chi^+_1 d)
     9.62699350E-02    2     1000037         1   # BR(~u_L -> chi^+_2 d)
     8.53317274E-01    2     1000021         2   # BR(~u_L -> ~g u)
DECAY   2000004     7.57704331E+02   # ~c_R
#    BR                NDA      ID1      ID2
     2.40244169E-02    2     1000022         4   # BR(~c_R -> chi^0_1 c)
     1.57608952E-04    2     1000023         4   # BR(~c_R -> chi^0_2 c)
     5.55301869E-03    2     1000025         4   # BR(~c_R -> chi^0_3 c)
     9.70260093E-01    2     1000021         4   # BR(~c_R -> ~g c)
DECAY   1000004     8.63480923E+02   # ~c_L
#    BR                NDA      ID1      ID2
     1.48454435E-03    2     1000022         4   # BR(~c_L -> chi^0_1 c)
     1.40164790E-04    2     1000023         4   # BR(~c_L -> chi^0_2 c)
     1.45660003E-04    2     1000025         4   # BR(~c_L -> chi^0_3 c)
     4.82132691E-02    2     1000035         4   # BR(~c_L -> chi^0_4 c)
     4.38795400E-04    2     1000024         3   # BR(~c_L -> chi^+_1 s)
     9.62689613E-02    2     1000037         3   # BR(~c_L -> chi^+_2 s)
     8.53308605E-01    2     1000021         4   # BR(~c_L -> ~g c)
DECAY   1000006     5.53020104E+01   # ~t_1
#    BR                NDA      ID1      ID2
     6.97230695E-02    2     1000022         6   # BR(~t_1 -> chi^0_1 t)
     3.99116696E-01    2     1000023         6   # BR(~t_1 -> chi^0_2 t)
     3.34932650E-01    2     1000025         6   # BR(~t_1 -> chi^0_3 t)
     2.18752437E-02    2     1000035         6   # BR(~t_1 -> chi^0_4 t)
     5.72876936E-02    2     1000024         5   # BR(~t_1 -> chi^+_1 b)
     4.48288691E-02    2     1000037         5   # BR(~t_1 -> chi^+_2 b)
     1.07121513E-04    2     1000021         4   # BR(~t_1 -> ~g c)
     7.04673339E-02    2     1000021         6   # BR(~t_1 -> ~g t)
#    BR                NDA      ID1      ID2       ID3
     1.61047074E-03    3     1000022        24         5   # BR(~t_1 -> chi^0_1 W^+ b)
DECAY   2000006     2.50511519E+02   # ~t_2
#    BR                NDA      ID1      ID2
     3.51304368E-02    2     1000022         6   # BR(~t_2 -> chi^0_1 t)
     1.20792160E-01    2     1000023         6   # BR(~t_2 -> chi^0_2 t)
     1.13348663E-01    2     1000025         6   # BR(~t_2 -> chi^0_3 t)
     2.43311276E-01    2     1000024         5   # BR(~t_2 -> chi^+_1 b)
     3.04283644E-01    2     1000021         6   # BR(~t_2 -> ~g t)
     7.68648074E-02    2     2000005        24   # BR(~t_2 -> ~b_2 W^+)
     3.87418476E-02    2     1000006        23   # BR(~t_2 -> ~t_1 Z)
     6.74941618E-02    2     1000006        25   # BR(~t_2 -> ~t_1 h^0)
DECAY   1000024     8.24840717E-04   # chi^+_1
#    BR                NDA      ID1      ID2       ID3
     3.33629476E-01    3     1000022        -1         2   # BR(chi^+_1 -> chi^0_1 d_bar u)
     3.33091318E-01    3     1000022        -3         4   # BR(chi^+_1 -> chi^0_1 s_bar c)
     1.11209285E-01    3     1000022       -11        12   # BR(chi^+_1 -> chi^0_1 e^+ nu_e)
     1.11208345E-01    3     1000022       -13        14   # BR(chi^+_1 -> chi^0_1 mu^+ nu_mu)
     1.10861576E-01    3     1000022       -15        16   # BR(chi^+_1 -> chi^0_1 tau^+ nu_tau)
DECAY   1000037     1.68456695E+01   # chi^+_2
#    BR                NDA      ID1      ID2
     3.91770095E-02    2     1000022        24   # BR(chi^+_2 -> chi^0_1 W^+)
     2.44371988E-01    2     1000023        24   # BR(chi^+_2 -> chi^0_2 W^+)
     2.04327502E-01    2     1000025        24   # BR(chi^+_2 -> chi^0_3 W^+)
     2.42609244E-01    2     1000024        23   # BR(chi^+_2 -> chi^+_1 Z)
     2.39824577E-01    2     1000024        25   # BR(chi^+_2 -> chi^+_1 h^0)
#    BR                NDA      ID1      ID2       ID3
     1.22158109E-02    3     1000024         6        -6   # BR(chi^+_2 -> chi^+_1 t t_bar)
     1.33610746E-03    3     1000022        -5         6   # BR(chi^+_2 -> chi^0_1 b_bar t)
     9.07544928E-03    3     1000023        -5         6   # BR(chi^+_2 -> chi^0_2 b_bar t)
     7.00042891E-03    3     1000025        -5         6   # BR(chi^+_2 -> chi^0_3 b_bar t)
DECAY   1000022     0.00000000E+00   # chi^0_1
DECAY   1000023     5.91367680E-04   # chi^0_2
#    BR                NDA      ID1      ID2
     4.26288987E-03    2     1000022        22   # BR(chi^0_2 -> chi^0_1 photon)
#    BR                NDA      ID1      ID2       ID3
     1.19011597E-01    3     1000022         2        -2   # BR(chi^0_2 -> chi^0_1 u u_bar)
     1.18437796E-01    3     1000022         4        -4   # BR(chi^0_2 -> chi^0_1 c c_bar)
     1.52595891E-01    3     1000022         1        -1   # BR(chi^0_2 -> chi^0_1 d d_bar)
     1.52592424E-01    3     1000022         3        -3   # BR(chi^0_2 -> chi^0_1 s s_bar)
     1.46089426E-01    3     1000022         5        -5   # BR(chi^0_2 -> chi^0_1 b b_bar)
     3.44357030E-02    3     1000022        11       -11   # BR(chi^0_2 -> chi^0_1 e^- e^+)
     3.44344210E-02    3     1000022        13       -13   # BR(chi^0_2 -> chi^0_1 mu^- mu^+)
     3.40754812E-02    3     1000022        15       -15   # BR(chi^0_2 -> chi^0_1 tau^- tau^+)
     2.04064369E-01    3     1000022        12       -12   # BR(chi^0_2 -> chi^0_1 nu_e nu_bar_e)
DECAY   1000025     4.05489444E-05   # chi^0_3
#    BR                NDA      ID1      ID2
     5.30976980E-03    2     1000022        22   # BR(chi^0_3 -> chi^0_1 photon)
     1.12222219E-02    2     1000023        22   # BR(chi^0_3 -> chi^0_2 photon)
#    BR                NDA      ID1      ID2       ID3
     9.21149060E-02    3     1000022         2        -2   # BR(chi^0_3 -> chi^0_1 u u_bar)
     9.19296906E-02    3     1000022         4        -4   # BR(chi^0_3 -> chi^0_1 c c_bar)
     1.18084177E-01    3     1000022         1        -1   # BR(chi^0_3 -> chi^0_1 d d_bar)
     1.18083188E-01    3     1000022         3        -3   # BR(chi^0_3 -> chi^0_1 s s_bar)
     1.16323245E-01    3     1000022         5        -5   # BR(chi^0_3 -> chi^0_1 b b_bar)
     2.66280693E-02    3     1000022        11       -11   # BR(chi^0_3 -> chi^0_1 e^- e^+)
     2.66278159E-02    3     1000022        13       -13   # BR(chi^0_3 -> chi^0_1 mu^- mu^+)
     2.65471784E-02    3     1000022        15       -15   # BR(chi^0_3 -> chi^0_1 tau^- tau^+)
     1.57949391E-01    3     1000022        12       -12   # BR(chi^0_3 -> chi^0_1 nu_e nu_bar_e)
     5.97055131E-03    3     1000023         2        -2   # BR(chi^0_3 -> chi^0_2 u u_bar)
     5.43230318E-03    3     1000023         4        -4   # BR(chi^0_3 -> chi^0_2 c c_bar)
     7.65545334E-03    3     1000023         1        -1   # BR(chi^0_3 -> chi^0_2 d d_bar)
     7.65193910E-03    3     1000023         3        -3   # BR(chi^0_3 -> chi^0_2 s s_bar)
     2.93521767E-03    3     1000023         5        -5   # BR(chi^0_3 -> chi^0_2 b b_bar)
     1.72763089E-03    3     1000023        11       -11   # BR(chi^0_3 -> chi^0_2 e^- e^+)
     1.72638023E-03    3     1000023        13       -13   # BR(chi^0_3 -> chi^0_2 mu^- mu^+)
     1.41063637E-03    3     1000023        15       -15   # BR(chi^0_3 -> chi^0_2 tau^- tau^+)
     1.02375416E-02    3     1000023        12       -12   # BR(chi^0_3 -> chi^0_2 nu_e nu_bar_e)
     2.78659649E-02    3     1000024         1        -2   # BR(chi^0_3 -> chi^+_1 d u_bar)
     2.78659649E-02    3    -1000024        -1         2   # BR(chi^0_3 -> chi^-_1 d_bar u)
     2.70219672E-02    3     1000024         3        -4   # BR(chi^0_3 -> chi^+_1 s c_bar)
     2.70219672E-02    3    -1000024        -3         4   # BR(chi^0_3 -> chi^-_1 s_bar c)
     9.28867062E-03    3     1000024        11       -12   # BR(chi^0_3 -> chi^+_1 e^- nu_bar_e)
     9.28867062E-03    3    -1000024       -11        12   # BR(chi^0_3 -> chi^-_1 e^+ nu_e)
     9.28729079E-03    3     1000024        13       -14   # BR(chi^0_3 -> chi^+_1 mu^- nu_bar_mu)
     9.28729079E-03    3    -1000024       -13        14   # BR(chi^0_3 -> chi^-_1 mu^+ nu_mu)
     8.75245309E-03    3     1000024        15       -16   # BR(chi^0_3 -> chi^+_1 tau^- nu_bar_tau)
     8.75245309E-03    3    -1000024       -15        16   # BR(chi^0_3 -> chi^-_1 tau^+ nu_tau)
DECAY   1000035     1.77139123E+01   # chi^0_4
#    BR                NDA      ID1      ID2
     2.31365925E-01    2     1000024       -24   # BR(chi^0_4 -> chi^+_1 W^-)
     2.31365925E-01    2    -1000024        24   # BR(chi^0_4 -> chi^-_1 W^+)
     2.49999509E-02    2     1000022        23   # BR(chi^0_4 -> chi^0_1 Z)
     7.12295763E-02    2     1000023        23   # BR(chi^0_4 -> chi^0_2 Z)
     1.35521052E-01    2     1000025        23   # BR(chi^0_4 -> chi^0_3 Z)
     1.81263888E-02    2     1000022        25   # BR(chi^0_4 -> chi^0_1 h^0)
     1.57644752E-01    2     1000023        25   # BR(chi^0_4 -> chi^0_2 h^0)
     1.05791332E-01    2     1000025        25   # BR(chi^0_4 -> chi^0_3 h^0)
#    BR                NDA      ID1      ID2       ID3
     6.98895619E-04    3     1000022         6        -6   # BR(chi^0_4 -> chi^0_1 t t_bar)
     4.68751756E-03    3     1000023         6        -6   # BR(chi^0_4 -> chi^0_2 t t_bar)
     3.67820667E-03    3     1000025         6        -6   # BR(chi^0_4 -> chi^0_3 t t_bar)
     7.41228243E-03    3     1000024         5        -6   # BR(chi^0_4 -> chi^+_1 b t_bar)
     7.41228243E-03    3    -1000024        -5         6   # BR(chi^0_4 -> chi^-_1 b_bar t)
DECAY   1000021     1.78277629E-01   # ~g
#    BR                NDA      ID1      ID2
     2.56138386E-04    2     1000022        21   # BR(~g -> chi^0_1 g)
     4.07824075E-03    2     1000023        21   # BR(~g -> chi^0_2 g)
     4.69356760E-03    2     1000025        21   # BR(~g -> chi^0_3 g)
#    BR                NDA      ID1      ID2       ID3
     4.13009085E-02    3     1000022         6        -6   # BR(~g -> chi^0_1 t t_bar)
     2.52109111E-02    3     1000022         5        -5   # BR(~g -> chi^0_1 b b_bar)
     1.98057110E-01    3     1000023         6        -6   # BR(~g -> chi^0_2 t t_bar)
     3.89000205E-02    3     1000023         5        -5   # BR(~g -> chi^0_2 b b_bar)
     1.63082570E-01    3     1000025         6        -6   # BR(~g -> chi^0_3 t t_bar)
     3.32810184E-02    3     1000025         5        -5   # BR(~g -> chi^0_3 b b_bar)
     2.45492362E-01    3     1000024         5        -6   # BR(~g -> chi^+_1 b t_bar)
     2.45492362E-01    3    -1000024        -5         6   # BR(~g -> chi^-_1 b_bar t)
DECAY        25     3.21785137E-03   # Gamma(h0)
     2.70415403E-03   2        22        22   # BR(h0 -> photon photon)
     1.59683673E-03   2        22        23   # BR(h0 -> photon Z)
     2.80996045E-02   2        23        23   # BR(h0 -> Z Z)
     2.38494403E-01   2       -24        24   # BR(h0 -> W W)
     8.48443885E-02   2        21        21   # BR(h0 -> gluon gluon)
     4.96382698E-09   2       -11        11   # BR(h0 -> Electron electron)
     2.20799179E-04   2       -13        13   # BR(h0 -> Muon muon)
     6.36626525E-02   2       -15        15   # BR(h0 -> Tau tau)
     1.41254748E-07   2        -2         2   # BR(h0 -> Up up)
     2.74154568E-02   2        -4         4   # BR(h0 -> Charm charm)
     5.75636254E-07   2        -1         1   # BR(h0 -> Down down)
     2.08193544E-04   2        -3         3   # BR(h0 -> Strange strange)
     5.52752790E-01   2        -5         5   # BR(h0 -> Bottom bottom)
DECAY        35     3.30241268E+01   # Gamma(HH)
     5.08241838E-08   2        22        22   # BR(HH -> photon photon)
     5.97295501E-08   2        22        23   # BR(HH -> photon Z)
     3.71142180E-06   2        23        23   # BR(HH -> Z Z)
     1.02568706E-06   2       -24        24   # BR(HH -> W W)
     9.13014966E-07   2        21        21   # BR(HH -> gluon gluon)
     3.34639153E-09   2       -11        11   # BR(HH -> Electron electron)
     1.49000004E-04   2       -13        13   # BR(HH -> Muon muon)
     4.30334590E-02   2       -15        15   # BR(HH -> Tau tau)
     7.37672639E-13   2        -2         2   # BR(HH -> Up up)
     1.43106375E-07   2        -4         4   # BR(HH -> Charm charm)
     1.04648319E-02   2        -6         6   # BR(HH -> Top top)
     2.43463205E-07   2        -1         1   # BR(HH -> Down down)
     8.80607563E-05   2        -3         3   # BR(HH -> Strange strange)
     2.21623315E-01   2        -5         5   # BR(HH -> Bottom bottom)
     3.51629869E-03   2  -1000024   1000024   # BR(HH -> Chargino1 chargino1)
     2.02760659E-01   2  -1000024   1000037   # BR(HH -> Chargino1 chargino2)
     2.02760659E-01   2  -1000037   1000024   # BR(HH -> Chargino2 chargino1)
     2.37545411E-02   2   1000022   1000022   # BR(HH -> neutralino1 neutralino1)
     3.81912966E-02   2   1000022   1000023   # BR(HH -> neutralino1 neutralino2)
     1.68931225E-02   2   1000022   1000025   # BR(HH -> neutralino1 neutralino3)
     2.99497555E-02   2   1000022   1000035   # BR(HH -> neutralino1 neutralino4)
     3.03473961E-06   2   1000023   1000023   # BR(HH -> neutralino2 neutralino2)
     1.13578723E-02   2   1000023   1000025   # BR(HH -> neutralino2 neutralino3)
     7.75590095E-02   2   1000023   1000035   # BR(HH -> neutralino2 neutralino4)
     2.19954020E-02   2   1000025   1000025   # BR(HH -> neutralino3 neutralino3)
     9.58708175E-02   2   1000025   1000035   # BR(HH -> neutralino3 neutralino4)
     2.27136773E-05   2        25        25   # BR(HH -> h0 h0)
DECAY        36     3.27313768E+01   # Gamma(A0)
     1.32818307E-07   2        22        22   # BR(A0 -> photon photon)
     1.61890805E-07   2        22        23   # BR(A0 -> photon Z)
     1.51710231E-05   2        21        21   # BR(A0 -> gluon gluon)
     3.26971696E-09   2       -11        11   # BR(A0 -> Electron electron)
     1.45586116E-04   2       -13        13   # BR(A0 -> Muon muon)
     4.20475343E-02   2       -15        15   # BR(A0 -> Tau tau)
     7.03499717E-13   2        -2         2   # BR(A0 -> Up up)
     1.36470788E-07   2        -4         4   # BR(A0 -> Charm charm)
     1.00976191E-02   2        -6         6   # BR(A0 -> Top top)
     2.37883195E-07   2        -1         1   # BR(A0 -> Down down)
     8.60422236E-05   2        -3         3   # BR(A0 -> Strange strange)
     2.16544277E-01   2        -5         5   # BR(A0 -> Bottom bottom)
     3.81804487E-03   2  -1000024   1000024   # BR(A0 -> Chargino1 chargino1)
     2.04426091E-01   2  -1000024   1000037   # BR(A0 -> Chargino1 chargino2)
     2.04426091E-01   2  -1000037   1000024   # BR(A0 -> Chargino2 chargino1)
     2.02842172E-02   2   1000022   1000022   # BR(A0 -> neutralino1 neutralino1)
     4.81933712E-02   2   1000022   1000023   # BR(A0 -> neutralino1 neutralino2)
     1.28928915E-02   2   1000022   1000025   # BR(A0 -> neutralino1 neutralino3)
     2.07600572E-02   2   1000022   1000035   # BR(A0 -> neutralino1 neutralino4)
     4.00088774E-06   2   1000023   1000023   # BR(A0 -> neutralino2 neutralino2)
     1.43242294E-02   2   1000023   1000025   # BR(A0 -> neutralino2 neutralino3)
     1.25660515E-01   2   1000023   1000035   # BR(A0 -> neutralino2 neutralino4)
     1.75691895E-02   2   1000025   1000025   # BR(A0 -> neutralino3 neutralino3)
     5.86979849E-02   2   1000025   1000035   # BR(A0 -> neutralino3 neutralino4)
     6.41356964E-06   2        23        25   # BR(A0 -> Z h0)
     4.98005027E-40   2        25        25   # BR(A0 -> h0 h0)
DECAY        37     3.51336036E+01   # Gamma(Hp)
     4.09900665E-09   2       -11        12   # BR(Hp -> Electron nu_e)
     1.75245337E-04   2       -13        14   # BR(Hp -> Muon nu_mu)
     4.95693508E-02   2       -15        16   # BR(Hp -> Tau nu_tau)
     2.59624180E-07   2        -1         2   # BR(Hp -> Down up)
     4.38573889E-06   2        -3         2   # BR(Hp -> Strange up)
     2.70771087E-06   2        -5         2   # BR(Hp -> Bottom up)
     2.00102214E-08   2        -1         4   # BR(Hp -> Down charm)
     9.37320321E-05   2        -3         4   # BR(Hp -> Strange charm)
     3.79176677E-04   2        -5         4   # BR(Hp -> Bottom charm)
     8.62428530E-07   2        -1         6   # BR(Hp -> Down top)
     1.89425522E-05   2        -3         6   # BR(Hp -> Strange top)
     2.68886485E-01   2        -5         6   # BR(Hp -> Bottom top)
     9.06225239E-02   2   1000022   1000024   # BR(Hp -> neutralino1 chargino1)
     4.75494835E-02   2   1000022   1000037   # BR(Hp -> neutralino1 chargino2)
     1.56759142E-03   2   1000023   1000024   # BR(Hp -> neutralino2 chargino1)
     1.90908535E-01   2   1000023   1000037   # BR(Hp -> neutralino2 chargino2)
     1.42437210E-02   2   1000024   1000025   # BR(Hp -> chargino1 neutralino3)
     1.44903575E-01   2   1000025   1000037   # BR(Hp -> neutralino3 chargino2)
     1.91067412E-01   2   1000024   1000035   # BR(Hp -> chargino1 neutralino4)
     5.98710363E-06   2        24        25   # BR(Hp -> W h0)
     7.73577673E-13   2        24        35   # BR(Hp -> W HH)
     3.71410713E-13   2        24        36   # BR(Hp -> W A0)
DECAY         6     2.43000000E+00   # top
#    BR                NDA      ID1      ID2
     1.00000000E+00    2           5        24   # BR(t -> b W)
Block HiggsBoundsInputHiggsCouplingsFermions
# ScalarNormEffCoupSq PseudoSNormEffCoupSq NP IP1 IP2 IP2
    9.18427951E-01    0.00000000E+00        3  25   5   5  # h0-b-b eff. coupling^2, normalised to SM
    2.47765174E+02    0.00000000E+00        3  35   5   5  # H0-b-b eff. coupling^2, normalised to SM
    0.00000000E+00    2.47683602E+02        3  36   5   5  # A0-b-b eff. coupling^2, normalised to SM
#
    1.00032934E+00    0.00000000E+00        3  25   6   6  # h0-t-t eff. coupling^2, normalised to SM
    3.70806926E-03    0.00000000E+00        3  35   6   6  # H0-t-t eff. coupling^2, normalised to SM
    0.00000000E+00    4.03740898E-03        3  36   6   6  # A0-t-t eff. coupling^2, normalised to SM
#
    9.18427951E-01    0.00000000E+00        3  25  15  15  # h0-tau-tau eff. coupling^2, normalised to SM
    2.47765174E+02    0.00000000E+00        3  35  15  15  # H0-tau-tau eff. coupling^2, normalised to SM
    0.00000000E+00    2.47683602E+02        3  36  15  15  # A0-tau-tau eff. coupling^2, normalised to SM
#
Block HiggsBoundsInputHiggsCouplingsBosons
    9.99992996E-01        3  25  24  24  # h0-W-W eff. coupling^2, normalised to SM
    7.00379470E-06        3  35  24  24  # H0-W-W eff. coupling^2, normalised to SM
    0.00000000E+00        3  36  24  24  # A0-W-W eff. coupling^2, normalised to SM
#
    9.99992996E-01        3  25  23  23  # h0-Z-Z eff. coupling^2, normalised to SM
    7.00379470E-06        3  35  23  23  # H0-Z-Z eff. coupling^2, normalised to SM
    0.00000000E+00        3  36  23  23  # A0-Z-Z eff. coupling^2, normalised to SM
#
    1.26515034E+00        3  25  21  21  # h0-g-g eff. coupling^2, normalised to SM
    1.24531051E-03        3  35  21  21  # H0-g-g eff. coupling^2, normalised to SM
    9.90010250E-02        3  36  21  21  # A0-g-g eff. coupling^2, normalised to SM
#
    0.00000000E+00        3  25  25  23  # h0-h0-Z eff. coupling^2, normalised to SM
    0.00000000E+00        3  35  25  23  # H0-h0-Z eff. coupling^2, normalised to SM
    7.00379470E-06        3  36  25  23  # A0-h0-Z eff. coupling^2, normalised to SM
    0.00000000E+00        3  35  35  23  # H0-H0-Z eff. coupling^2, normalised to SM
    9.99992996E-01        3  36  35  23  # A0-H0-Z eff. coupling^2, normalised to SM
    0.00000000E+00        3  36  36  23  # A0-A0-Z eff. coupling^2, normalised to SM
#
    0.00000000E+00        4  25  21  21  23  # h0-g-g-Z eff. coupling^2, normalised to SM
    0.00000000E+00        4  35  21  21  23  # H0-g-g-Z eff. coupling^2, normalised to SM
    0.00000000E+00        4  36  21  21  23  # A0-g-g-Z eff. coupling^2, normalised to SM
Block SPhenoLowEnergy  # low energy observables
    1    3.34982974E-04   # BR(b -> s gamma)
    2    1.58801101E-06   # BR(b -> s mu+ mu-)
    3    3.52352743E-05   # BR(b -> s nu nu)
    4    2.44089258E-15   # BR(Bd -> e+ e-)
    5    1.04272192E-10   # BR(Bd -> mu+ mu-)
    6    2.18302203E-08   # BR(Bd -> tau+ tau-)
    7    8.19877553E-14   # BR(Bs -> e+ e-)
    8    3.50251541E-09   # BR(Bs -> mu+ mu-)
    9    7.42980366E-07   # BR(Bs -> tau+ tau-)
   10    9.66487768E-05   # BR(B_u -> tau nu)
   11    9.98344863E-01   # BR(B_u -> tau nu)/BR(B_u -> tau nu)_SM
   12    5.42478951E-01   # |Delta(M_Bd)| [ps^-1] 
   13    1.93825170E+01   # |Delta(M_Bs)| [ps^-1] 
   14    0.00000000E+00   # neutron EDM according to the chiral quark model
   15    0.00000000E+00   # neutron EDM according to the relativistic quark-parton model
   16    2.15940401E-03   # epsilon_K
   17    2.28167944E-15   # Delta(M_K)
   18    2.47926443E-11   # BR(K^0 -> pi^0 nu nu)
   19    8.28864588E-11   # BR(K^+ -> pi^+ nu nu)
   20    1.69186086E-16   # Delta(g-2)_electron/2
   21    7.23324307E-12   # Delta(g-2)_muon/2
   22    2.04670858E-09   # Delta(g-2)_tau/2
   23    0.00000000E+00   # electric dipole moment of the electron
   24    0.00000000E+00   # electric dipole moment of the muon
   25    0.00000000E+00   # electric dipole moment of the tau
   26    0.00000000E+00   # Br(mu -> e gamma)
   27    0.00000000E+00   # Br(tau -> e gamma)
   28    0.00000000E+00   # Br(tau -> mu gamma)
   29    0.00000000E+00   # Br(mu -> 3 e)
   30    0.00000000E+00   # Br(tau -> 3 e)
   31    0.00000000E+00   # Br(tau -> 3 mu)
   39    4.52577010E-05   # Delta(rho_parameter)
   40    0.00000000E+00   # BR(Z -> e mu)
   41    0.00000000E+00   # BR(Z -> e tau)
   42    0.00000000E+00   # BR(Z -> mu tau)
Block FWCOEF Q=  1.60000000E+02  # Wilson coefficients at scale Q
#    id        order  M        value         comment
     0305 4422   00   0    -1.88819110E-01   # C7
     0305 4422   00   2    -2.05116494E-01   # C7
     0305 4322   00   2    -1.33521177E-04   # C7'
     0305 6421   00   0    -9.52278348E-02   # C8
     0305 6421   00   2    -1.09071705E-01   # C8
     0305 6321   00   2    -1.79713981E-04   # C8'
 03051111 4133   00   0     1.61133617E+00   # C9 e+e-
 03051111 4133   00   2     1.61210358E+00   # C9 e+e-
 03051111 4233   00   2     7.86017000E-05   # C9' e+e-
 03051111 4137   00   0    -4.43402827E+00   # C10 e+e-
 03051111 4137   00   2    -4.43067501E+00   # C10 e+e-
 03051111 4237   00   2    -5.91849087E-04   # C10' e+e-
 03051313 4133   00   0     1.61133617E+00   # C9 mu+mu-
 03051313 4133   00   2     1.61210356E+00   # C9 mu+mu-
 03051313 4233   00   2     7.86016886E-05   # C9' mu+mu-
 03051313 4137   00   0    -4.43402827E+00   # C10 mu+mu-
 03051313 4137   00   2    -4.43067503E+00   # C10 mu+mu-
 03051313 4237   00   2    -5.91849094E-04   # C10' mu+mu-
 03051212 4137   00   0     1.50535012E+00   # C11 nu_1 nu_1
 03051212 4137   00   2     1.50462376E+00   # C11 nu_1 nu_1
 03051212 4237   00   2     1.28421813E-04   # C11' nu_1 nu_1
 03051414 4137   00   0     1.50535012E+00   # C11 nu_2 nu_2
 03051414 4137   00   2     1.50462376E+00   # C11 nu_2 nu_2
 03051414 4237   00   2     1.28421814E-04   # C11' nu_2 nu_2
 03051616 4137   00   0     1.50535012E+00   # C11 nu_3 nu_3
 03051616 4137   00   2     1.50462376E+00   # C11 nu_3 nu_3
 03051616 4237   00   2     1.28422222E-04   # C11' nu_3 nu_3
Block IMFWCOEF Q=  1.60000000E+02  # Im(Wilson coefficients) at scale Q
#    id        order  M        value         comment
     0305 4422   00   0     3.85816213E-07   # C7
     0305 4422   00   2     1.41110059E-05   # C7
     0305 4322   00   2    -3.05515143E-07   # C7'
     0305 6421   00   0     3.30477102E-07   # C8
     0305 6421   00   2    -1.61935087E-05   # C8
     0305 6321   00   2    -5.14223524E-07   # C8'
 03051111 4133   00   2     2.83400001E-07   # C9 e+e-
 03051111 4233   00   2     1.51144990E-06   # C9' e+e-
 03051111 4137   00   2     2.28685906E-06   # C10 e+e-
 03051111 4237   00   2    -1.13853827E-05   # C10' e+e-
 03051313 4133   00   2     2.83399599E-07   # C9 mu+mu-
 03051313 4233   00   2     1.51144982E-06   # C9' mu+mu-
 03051313 4137   00   2     2.28685955E-06   # C10 mu+mu-
 03051313 4237   00   2    -1.13853830E-05   # C10' mu+mu-
 03051212 4137   00   2    -4.73781712E-07   # C11 nu_1 nu_1
 03051212 4237   00   2     2.47044838E-06   # C11' nu_1 nu_1
 03051414 4137   00   2    -4.73781696E-07   # C11 nu_2 nu_2
 03051414 4237   00   2     2.47044838E-06   # C11' nu_2 nu_2
 03051616 4137   00   2    -4.73777207E-07   # C11 nu_3 nu_3
 03051616 4237   00   2     2.47044837E-06   # C11' nu_3 nu_3
