BLOCK DCINFO
   1   SDECAY/HDECAY
   2   1.3b /3.4

BLOCK SPINFO
   1   SOFTSUSY
   2   3.4.0

BLOCK MODSEL
   1   0

BLOCK SMINPUTS
   1    127.90897
   2    1.1663787e-05
   3    0.1184
   4    91.1876
   5    4.18
   6    173.2
   7    1.777

BLOCK MINPAR
   3    14.33

BLOCK EXTPAR
   0   -1
   1   -2390.26
   2   -3108.88
   3    3297.11
   11    4939.93
   12    2560.4
   13    2524.17
   23   -213.39
   26    2813.02
   31    545.96
   32    545.96
   33    3300.53
   34    1853.15
   35    1853.15
   36    1447.51
   41    2580.09
   42    2580.09
   43    3143
   44    2820.31
   45    2820.31
   46    3291.85
   47    984.22
   48    984.22
   49    2485.97

BLOCK MASS
   24    80.403494
   25    127.12039
   35    2813.0642
   36    2813.0199
   37    2814.491
   5    4.8187603
   1000001    2733.6961
   2000001    1189.2035
   1000002    2732.682
   2000002    2942.6775
   1000003    2733.6961
   2000003    1189.2035
   1000004    2732.682
   2000004    2942.6775
   1000005    2613.4164
   2000005    3229.2479
   1000006    3155.7769
   2000006    3365.6847
   1000011    621.55961
   2000011    1870.3359
   1000012    616.33024
   1000013    621.55961
   2000013    1870.3359
   1000014    616.33024
   1000015    1465.627
   2000015    3322.9407
   1000016    3321.6873
   1000021    3385.0214
   1000022   -221.97903
   1000023    225.02147
   1000025   -2350.5641
   1000035   -3099.5042
   1000024    223.6906
   1000037    3099.655

BLOCK NMIX
   1   1   -0.015693945
   1   2    0.020582287
   1   3    0.7093728
   1   4   -0.70435808
   2   1    0.011288477
   2   2   -0.015566228
   2   3    0.70481696
   2   4    0.70912856
   3   1    0.99981157
   3   2    0.0022605175
   3   3    0.0031707359
   3   4   -0.019017639
   4   1   -0.0017619465
   4   2    0.99966442
   4   3   -0.0036375611
   4   4    0.025587334

BLOCK UMIX
   1   1    0.0051402248
   1   2    0.99998679
   2   1   -0.99998679
   2   2    0.0051402248

BLOCK VMIX
   1   1   -0.036165269
   1   2   -0.99934582
   2   1    0.99934582
   2   2   -0.036165269

BLOCK STOPMIX
   1   1    0.80719181
   1   2   -0.59028924
   2   1    0.59028924
   2   2    0.80719181

BLOCK SBOTMIX
   1   1   -0.0035231107
   1   2    0.99999379
   2   1   -0.99999379
   2   2   -0.0035231107

BLOCK STAUMIX
   1   1   -0.0011060516
   1   2    0.99999939
   2   1   -0.99999939
   2   2   -0.0011060516

BLOCK ALPHA
      -0.073335691

BLOCK HMIX Q=  3215.664
   1   -217.00626
   2    13.652764
   3    242.52285
   4    7908281.1

BLOCK GAUGE Q=  3215.664
   1    0.36562132
   2    0.63794117
   3    1.0078221

BLOCK AU Q=  3215.664
   1   1    0
   2   2    0
   3   3    4939.93

BLOCK AD Q=  3215.664
   1   1    0
   2   2    0
   3   3    2560.4

BLOCK AE Q=  3215.664
   1   1    0
   2   2    0
   3   3    2524.17

BLOCK YU Q=  3215.664
   1   1    0
   2   2    0
   3   3    0.83685374

BLOCK YD Q=  3215.664
   1   1    0
   2   2    0
   3   3    0.18690167

BLOCK YE Q=  3215.664
   1   1    0
   2   2    0
   3   3    0.14046548

BLOCK MSOFT Q=  3215.664
   1   -2390.26
   2   -3108.88
   3    3297.11
   21    7711902.5
   22    157938.26
   31    545.96
   32    545.96
   33    3300.53
   34    1853.15
   35    1853.15
   36    1447.51
   41    2580.09
   42    2580.09
   43    3143
   44    2820.31
   45    2820.31
   46    3291.85
   47    984.21997
   48    984.21997
   49    2485.97

BLOCK HIGGSBOUNDSINPUTHIGGSCOUPLINGSFERMIONS
       0, 186.39795,3,36,15,15

BLOCK HIGGSBOUNDSINPUTHIGGSCOUPLINGSBOSONS
       0,4,36,21,21,23

DECAY 6  1.4326796
    1   2    5    24

DECAY 1000021  150.99202
    0.16465319   2    2000001   -1
    0.16465319   2   -2000001    1
    0.16465319   2    2000003   -3
    0.16465319   2   -2000003    3
    0.035087505   2    1000005   -5
    0.035087505   2   -1000005    5
    0.025993603   2    1000002   -2
    0.025993603   2   -1000002    2
    0.025993537   2    1000004   -4
    0.025993537   2   -1000004    4
    0.025921439   2    1000001   -1
    0.025921439   2   -1000001    1
    0.025921439   2    1000003   -3
    0.025921439   2   -1000003    3
    0.012786571   2    2000002   -2
    0.012786571   2   -2000002    2
    0.012786494   2    2000004   -4
    0.012786494   2   -2000004    4
    0.0043805421   2    1000006   -6
    0.0043805421   2   -1000006    6
    0.0018224881   2    2000005   -5
    0.0018224881   2   -2000005    5

DECAY 1000006  62.368437
    0.3570435   2    1000023    6
    0.34905137   2    1000022    6
    0.28417581   2    1000024    5
    0.0093452022   2    1000025    6
    0.00030758369   2    1000037    5
    7.6531492e-05   2    1000005    24

DECAY 2000006  83.159764
    0.35889668   2    1000024    5
    0.2732674   2    1000023    6
    0.27168538   2    1000022    6
    0.043392329   2    1000006    23
    0.026431119   2    2000005    24
    0.016781425   2    1000025    6
    0.0053075567   2    1000006    25
    0.0029808381   2    1000037    5
    0.0011808864   2    1000035    6
    7.638072e-05   2    1000005    24

DECAY 1000005  3.6204594
    0.48991627   2   -1000024    6
    0.24908082   2    1000022    5
    0.24544177   2    1000023    5
    0.015561135   2    1000025    5

DECAY 2000005  46.671101
    0.94795637   2   -1000024    6
    0.024105141   2    1000022    5
    0.023754604   2    1000023    5
    0.0022065724   2    1000025    5
    0.0017356203   2    1000035    5
    0.0001266583   2    1000005    25
    0.00011503388   2    1000005    23

DECAY 1000002  0.061904733
    0.46048658   2    1000025    2
    0.45453502   2    1000024    1
    0.053737591   2    1000022    2
    0.031240817   2    1000023    2

DECAY 2000002  0.91701831
    0.99725428   2    1000025    2
    0.0018097015   2    1000022    2
    0.00093601718   2    1000023    2

DECAY 1000001  0.037243011
    0.73330916   2    1000025    1
    0.16068575   2    1000022    1
    0.090737135   2    1000023    1
    0.015267954   2   -1000024    2

DECAY 2000001  0.00027784633
    0.59859868   2    1000022    1
    0.30908957   2    1000023    1
    0.036707341   3    1    24   -1000024
    0.013459958   3    1    23    1000023
    0.012409018   3    1    25    1000022
    0.00526766   3    1    23    1000022
    0.004918906   3    1    25    1000023
    0.004100828   3    1   -24    1000024
    0.0034127857   3    1   -14    1000014
    0.0034088267   3    1   -12    1000012
    0.0033358007   3    1   -11    1000011
    0.0032804104   3    1   -13    1000013
    0.00050664696   3    1    14   -1000014
    0.00050265195   3    1    11   -1000011
    0.00050114032   3    1    12   -1000012
    0.00049977266   3    1    13   -1000013

DECAY 1000004  0.061845463
    0.46165372   2    1000024    3
    0.45203674   2    1000025    4
    0.054579714   2    1000022    4
    0.031729828   2    1000023    4

DECAY 2000004  0.91353273
    0.99718672   2    1000025    4
    0.001854243   2    1000022    4
    0.00095903819   2    1000023    4

DECAY 1000003  0.036865196
    0.72660995   2    1000025    3
    0.16472323   2    1000022    3
    0.093015392   2    1000023    3
    0.015651423   2   -1000024    4

DECAY 2000003  0.00027019262
    0.59679312   2    1000022    3
    0.30815158   2    1000023    3
    0.037813764   3    3    24   -1000024
    0.013861222   3    3    23    1000023
    0.012760526   3    3    25    1000022
    0.0054216876   3    3    23    1000022
    0.0050582432   3    3    25    1000023
    0.0042169915   3    3   -24    1000024
    0.0035527247   3    3   -12    1000012
    0.0035094592   3    3   -14    1000014
    0.0034302935   3    3   -11    1000011
    0.0033643405   3    3   -13    1000013
    0.00052099868   3    3    14   -1000014
    0.0005168905   3    3    11   -1000011
    0.00051533605   3    3    12   -1000012
    0.00051281933   3    3    13   -1000013

DECAY 1000011  0.0005151307
    0.49923622   2    1000022    11
    0.30517648   2    1000023    11
    0.1955873   2   -1000024    12

DECAY 2000011  0.0062247632
    0.38261532   2    1000022    11
    0.19779998   2    1000023    11
    0.095393187   3    11    24   -1000024
    0.039688256   3    11    23    1000023
    0.037508254   3    11    25    1000022
    0.034296887   3    11   -12    1000012
    0.033924182   3    11   -11    1000011
    0.03384707   3    11   -14    1000014
    0.03346794   3    11   -13    1000013
    0.023337434   3    11   -24    1000024
    0.015781644   3    11    23    1000022
    0.015274155   3    11    25    1000023
    0.010620002   3    11    11   -1000011
    0.010580483   3    11    14   -1000014
    0.010523934   3    11    13   -1000013
    0.010435578   3    11    12   -1000012
    0.0044234614   3    11    3   -2000003
    0.0044218549   3    11    1   -2000001
    0.0019579861   3    11   -3    2000003
    0.0019462588   3    11   -1    2000001
    0.0014229296   3    11    15   -1000015
    0.00073320058   3    11   -15    1000015

DECAY 1000013  0.00051513067
    0.49923621   2    1000022    13
    0.30517648   2    1000023    13
    0.19558731   2   -1000024    14

DECAY 2000013  0.0062244717
    0.38263324   2    1000022    13
    0.19780924   2    1000023    13
    0.095397654   3    13    24   -1000024
    0.03987487   3    13    23    1000023
    0.037510011   3    13    25    1000022
    0.034298493   3    13   -12    1000012
    0.033925771   3    13   -11    1000011
    0.033848656   3    13   -14    1000014
    0.033469507   3    13   -13    1000013
    0.023338527   3    13   -24    1000024
    0.015800538   3    13    23    1000022
    0.015274871   3    13    25    1000023
    0.01053246   3    13    13   -1000013
    0.010524427   3    13    11   -1000011
    0.010490207   3    13    14   -1000014
    0.010436066   3    13    12   -1000012
    0.0044236686   3    13    3   -2000003
    0.0043822193   3    13    1   -2000001
    0.0019469925   3    13   -1    2000001
    0.0019275531   3    13   -3    2000003
    0.0014217913   3    13    15   -1000015
    0.00073323492   3    13   -15    1000015

DECAY 1000015  1.1004322
    0.4987322   2   -1000024    16
    0.25286711   2    1000022    15
    0.24840069   2    1000023    15

DECAY 2000015  3.1028579
    0.35814575   2    1000025    15
    0.21016293   2    1000022    15
    0.20731431   2    1000023    15
    0.14624934   2   -1000037    16
    0.073023983   2    1000035    15
    0.0024632274   2    1000015    25
    0.0024344335   2    1000015    23
    0.00020602123   2   -1000024    16

DECAY 1000012  0.0074836153
    0.65749329   2    1000024    11
    0.22089713   2    1000022    12
    0.12160958   2    1000023    12

DECAY 1000014  0.0074836149
    0.65749327   2    1000024    13
    0.22089714   2    1000022    14
    0.12160959   2    1000023    14

DECAY 1000016  3.1249894
    0.42459129   2    1000024    15
    0.34938239   2    1000025    16
    0.14350783   2    1000037    15
    0.072040304   2    1000035    16
    0.0046771599   2   -1000015   -24
    0.0037306934   2    1000022    16
    0.0020703335   2    1000023    16

DECAY 1000024  9.6725508e-12
    0.5999949   3    1000022    2   -1
    0.20000255   3    1000022   -11    12
    0.20000255   3    1000022   -13    14

DECAY 1000037  79.177088
    0.14600523   2    1000012   -11
    0.14600523   2    1000014   -13
    0.14598755   2   -1000011    12
    0.14598755   2   -1000013    14
    0.080514091   2    1000024    25
    0.079778461   2    1000024    23
    0.077717637   2    1000023    24
    0.076684703   2    1000022    24
    0.023949658   2    1000002   -1
    0.023949646   2    1000004   -3
    0.023858594   2   -1000001    2
    0.023858397   2   -1000003    4
    0.0014045281   2    1000022    37
    0.0014008911   2    1000024    36
    0.001398806   2    1000024    35
    0.0013531284   2    1000023    37
    0.00014576299   2    1000025    24
    1.4403934e-07   2   -1000005    6
    6.342625e-11   2   -1000015    16

DECAY 1000022 -1


DECAY 1000023  2.624959e-10
    0.17112322   2    1000022    22
    0.15016228   3    1000022   -1    1
    0.15016228   3    1000022   -3    3
    0.11563068   3    1000022   -2    2
    0.069073603   3    1000022   -12    12
    0.069073603   3    1000022   -14    14
    0.069071946   3    1000022   -16    16
    0.034539939   3    1000022   -11    11
    0.034539939   3    1000022   -13    13
    0.0062975134   3    1000024   -2    1
    0.0062975134   3   -1000024   -1    2
    0.0020992017   3    1000024   -12    11
    0.0020992017   3   -1000024    12   -11
    0.0020992017   3    1000024   -14    13
    0.0020992017   3   -1000024    14   -13

DECAY 1000025  29.538011
    0.079033813   2    1000015   -15
    0.079033813   2   -1000015    15
    0.050324596   2    1000024   -24
    0.050324596   2   -1000024    24
    0.046112399   2    1000011   -11
    0.046112399   2   -1000011    11
    0.046112399   2    1000013   -13
    0.046112399   2   -1000013    13
    0.045504896   2    1000012   -12
    0.045504896   2   -1000012    12
    0.045504896   2    1000014   -14
    0.045504896   2   -1000014    14
    0.039069983   2    2000001   -1
    0.039069983   2   -2000001    1
    0.039069983   2    2000003   -3
    0.039069983   2   -2000003    3
    0.035168439   2    1000022    25
    0.034151821   2    1000023    23
    0.028473269   2    2000011   -11
    0.028473269   2   -2000011    11
    0.028473269   2    2000013   -13
    0.028473269   2   -2000013    13
    0.018110473   2    1000023    25
    0.017210259   2    1000022    23

DECAY 1000035  79.166885
    0.077248109   2    1000024   -24
    0.077248109   2   -1000024    24
    0.073202112   2    1000012   -12
    0.073202112   2   -1000012    12
    0.073202112   2    1000014   -14
    0.073202112   2   -1000014    14
    0.072804664   2    1000011   -11
    0.072804664   2   -1000011    11
    0.072804664   2    1000013   -13
    0.072804664   2   -1000013    13
    0.051333992   2    1000022    25
    0.051320745   2    1000023    23
    0.029020972   2    1000023    25
    0.028571306   2    1000022    23
    0.011967424   2    1000002   -2
    0.011967424   2   -1000002    2
    0.011967326   2    1000004   -4
    0.011967326   2   -1000004    4
    0.011922663   2    1000001   -1
    0.011922663   2   -1000001    1
    0.011922663   2    1000003   -3
    0.011922663   2   -1000003    3
    0.0013706684   2    1000024   -37
    0.0013706684   2   -1000024    37
    0.001233618   2    1000022    35
    0.0011993106   2    1000023    36
    0.00019442762   2    1000022    36
    0.00017924157   2    1000023    35
    0.00011800485   2    1000025    25
    2.1509552e-06   2    1000025    23
    1.9463932e-07   2    1000015   -15
    1.9463932e-07   2   -1000015    15
    1.3069707e-07   2    2000011   -11
    1.3069707e-07   2   -2000011    11
    1.3069707e-07   2    2000013   -13
    1.3069707e-07   2   -2000013    13
    9.0165067e-08   2    1000005   -5
    9.0165067e-08   2   -1000005    5
    7.6739236e-08   2    2000001   -1
    7.6739236e-08   2   -2000001    1
    7.6739236e-08   2    2000003   -3
    7.6739236e-08   2   -2000003    3
    4.4007977e-09   2    2000002   -2
    4.4007977e-09   2   -2000002    2
    4.4005907e-09   2    2000004   -4
    4.4005907e-09   2   -2000004    4

DECAY 25  0.0042993684
    0.55878724   2    5   -5
    0.24506661   2    24   -24
    0.077932383   2    21    21
    0.061574432   2   -15    15
    0.031636867   2    23    23
    0.020446367   2    4   -4
    0.0023521273   2    22    22
    0.0017489032   2    22    23
    0.00023713444   2    3   -3
    0.00021793407   2   -13    13

DECAY 35  8.0496114
    0.74762032   2    5   -5
    0.13425002   2   -15    15
    0.076607322   2    6   -6
    0.027099729   2    1000023    1000025
    0.0078329889   2    1000022    1000025
    0.0036352398   2    1000024   -1000024
    0.0010314474   2    1000022    1000022
    0.0007587562   2    1000023    1000023
    0.00046881877   2   -13    13
    0.00031052966   2    3   -3
    0.00016038372   2    25    25
    8.6913057e-05   2    1000022    1000023
    4.3376395e-05   2    24   -24
    2.1636263e-05   2    23    23
    1.9814831e-05   2    21    21
    1.9180048e-05   2    1000012   -1000012
    1.9180048e-05   2    1000014   -1000014
    5.8942765e-06   2    1000011   -1000011
    5.8942765e-06   2    1000013   -1000013
    7.8072199e-07   2    4   -4
    7.5238409e-07   2    2000001   -2000001
    7.5238409e-07   2    2000003   -2000003
    2.2745468e-07   2    22    22
    4.0149522e-08   2    23    22

DECAY 36  8.055527
    0.74719835   2    5   -5
    0.1341539   2   -15    15
    0.076853766   2    6   -6
    0.027353453   2    1000022    1000025
    0.0075942216   2    1000023    1000025
    0.0038855139   2    1000024   -1000024
    0.0014153369   2    1000022    1000022
    0.00057892042   2    1000023    1000023
    0.00046848243   2   -13    13
    0.00031042439   2    3   -3
    0.00013373396   2    21    21
    4.388241e-05   2    23    25
    8.7116107e-06   2    1000022    1000023
    7.8262502e-07   2    4   -4
    3.9111788e-07   2    22    22
    1.3771774e-07   2    23    22

DECAY 37  8.020333
    0.82675195   2    6   -5
    0.13481304   2   -15    16
    0.035881684   2    1000024    1000025
    0.001264406   2    4   -5
    0.00047078425   2   -13    14
    0.00031641301   2    1000024    1000023
    0.00030767133   2    4   -3
    7.5295784e-05   2    1000024    1000022
    4.4175752e-05   2    24    25
    2.3169093e-05   2   -1000011    1000012
    2.3169093e-05   2   -1000013    1000014
    1.5592997e-05   2    2   -3
    1.2644031e-05   2    2   -5
    1.1300088e-12   2    24    36

DECAY 5 -1


DECAY 15 -1


DECAY 23  2.4952


DECAY 24  2.085
