BLOCK SPINFO
   1   SPheno
   2   v4.0.5be

BLOCK SPHENOINFO
   1   2
   2   2

BLOCK MODSEL
   1   0

BLOCK MINPAR
   3    24.065023
   4    1

BLOCK EXTPAR
   0    1369.0885
   1    99.170427
   2   -1914.1026
   3    3000
   11   -2201.7106
   12   -845.78715
   13    886.33437
   23    564.5802
   25    23.279656
   26    3208.2264
   31    1591.0195
   32    1591.0195
   33    719.40091
   34    610.38246
   35    610.38246
   36    263.56576
   41    5000
   42    5000
   43    1165.5767
   44    5000
   45    5000
   46    1703.3516
   47    5000
   48    5000
   49    1966.5144

BLOCK SMINPUTS
   1    127.90897
   2    1.1663787e-05
   3    0.1184
   4    91.1876
   5    4.18
   6    173.2
   7    1.777
   8    0
   11    0.00051099893
   12    0
   13    0.10565837
   14    0
   21    0.005
   22    0.0025
   23    0.095
   24    1.27

BLOCK GAUGE Q=  1369.0885
   1    0.35536298
   2    0.66519887
   3    1.219778

BLOCK YU Q=  1369.0885
   1   1    8.3921041e-06
   2   2    0.0042631889
   3   3    1.0138336

BLOCK YD Q=  1369.0885
   1   1    0.00039257953
   2   2    0.0074590112
   3   3    0.38931588

BLOCK YE Q=  1369.0885
   1   1    6.8508e-05
   2   2    0.014165281
   3   3    0.23823673

BLOCK AU Q=  1369.0885
   1   1    0
   2   2    0
   3   3   -2201.7106

BLOCK AD Q=  1369.0885
   1   1    0
   2   2    0
   3   3   -845.78719

BLOCK AE Q=  1369.0885
   1   1    0
   2   2    0
   3   3    886.33437

BLOCK MSOFT Q=  1369.0885
   1    99.170427
   2   -1914.1026
   3    3000
   21    9944402.5
   22   -284967.26
   31    1591.0195
   32    1591.0195
   33    719.40091
   34    610.38246
   35    610.38246
   36    263.56576
   41    5000
   42    5000
   43    1165.5767
   44    5000
   45    5000
   46    1703.3516
   47    5000
   48    5000
   49    1966.5144

BLOCK MASS
   6    173.2
   23    91.1876
   24    80.429995
   15    1.777
   25    120.39024
   35    3207.9686
   36    3208.2264
   37    3209.159
   1000001    5018.6734
   2000001    5012.2293
   1000002    5018.2236
   2000002    5014.0366
   1000003    5018.6759
   2000003    5012.2318
   1000004    5018.2256
   2000004    5014.0376
   1000005    1135.2437
   2000005    1984.6905
   1000006    1112.7258
   2000006    1684.515
   1000011    1603.4096
   2000011    610.21903
   1000012    1601.036
   1000013    1603.4101
   2000013    610.22795
   1000014    1601.036
   1000015    269.28751
   2000015    737.26786
   1000016    731.71852
   1000021    3179.4349
   1000022    97.875291
   1000023   -573.7838
   1000025    577.53602
   1000035   -1952.9646
   1000024    573.91328
   1000037    1953.1399

BLOCK ALPHA
      -0.041603076

BLOCK HMIX Q=  1369.0885
   1    564.5802
   2    23.279656
   3    244.1224
   4    10292716

BLOCK STOPMIX
   1   1    0.979935
   1   2    0.19931732
   2   1   -0.19931732
   2   2    0.979935

BLOCK SBOTMIX
   1   1    0.99993206
   1   2    0.011656574
   2   1   -0.011656574
   2   2    0.99993206

BLOCK STAUMIX
   1   1    0.044786529
   1   2    0.99899658
   2   1   -0.99899658
   2   2    0.044786529

BLOCK NMIX
   1   1   -0.99668253
   1   2   -0.00083280412
   1   3   -0.079587193
   1   4    0.017003661
   2   1    0.044323026
   2   2    0.038456267
   2   3   -0.70620953
   2   4   -0.70556693
   3   1    0.068253159
   3   2   -0.023135087
   3   3   -0.7034321
   3   4    0.70709939
   4   1    0.00095646071
   4   2   -0.99899209
   4   3   -0.010828853
   4   4   -0.043550331

BLOCK UMIX
   1   1   -0.015350107
   1   2    0.99988218
   2   1   -0.99988218
   2   2   -0.015350107

BLOCK VMIX
   1   1    0.06169095
   1   2    0.9980953
   2   1    0.9980953
   2   2   -0.06169095

BLOCK HIGGSBOUNDSINPUTHIGGSCOUPLINGSFERMIONS
       0, 541.94236,3,36,15,15

BLOCK HIGGSBOUNDSINPUTHIGGSCOUPLINGSBOSONS
       0,4,36,21,21,23

BLOCK SPHENOLOWENERGY
   1    0.00029879134
   2    1.5929773e-06
   3    3.5227435e-05
   4    2.4314119e-15
   5    1.0386709e-10
   6    2.1741431e-08
   7    8.1790872e-14
   8    3.4941013e-09
   9    7.4106552e-07
   10    9.6531984e-05
   11    0.99713844
   12    0.54265453
   13    19.388018
   14    0
   15    0
   16    0.0021598001
   17    2.2816837e-15
   18    2.4794442e-11
   19    8.2886313e-11
   20   -3.0401055e-15
   21   -1.2998115e-10
   22   -1.584029e-09
   23    0
   24    0
   25    0
   26    0
   27    0
   28    0
   29    0
   30    0
   31    0
   39    6.3626591e-05
   40    0
   41    0
   42    0

BLOCK FWCOEF Q=  160
   305   4422   0   0   -0.18881911
   305   4422   0   2   -0.16100364
   305   4322   0   2    4.9218109e-05
   305   6421   0   0   -0.095227835
   305   6421   0   2   -0.087821511
   305   6321   0   2   -9.2877087e-05
   3051111   4133   0   0    1.5886574
   3051111   4133   0   2    1.5900869
   3051111   4233   0   2    8.2408555e-05
   3051111   4137   0   0   -4.4113495
   3051111   4137   0   2   -4.40724
   3051111   4237   0   2   -0.00064399821
   3051313   4133   0   0    1.5886574
   3051313   4133   0   2    1.5900861
   3051313   4233   0   2    8.240833e-05
   3051313   4137   0   0   -4.4113495
   3051313   4137   0   2   -4.4072407
   3051313   4237   0   2   -0.00064399861
   3051212   4137   0   0    1.5053501
   3051212   4137   0   2    1.5044568
   3051212   4237   0   2    0.00014044603
   3051414   4137   0   0    1.5053501
   3051414   4137   0   2    1.5044568
   3051414   4237   0   2    0.00014044604
   3051616   4137   0   0    1.5053501
   3051616   4137   0   2    1.5044569
   3051616   4237   0   2    0.00014044695

BLOCK IMFWCOEF Q=  160
   305   4422   0   0    3.8585374e-07
   305   4422   0   2   -8.0025445e-06
   305   4322   0   2    2.8337324e-06
   305   6421   0   0    3.3050924e-07
   305   6421   0   2   -8.5238499e-06
   305   6321   0   2    9.0561397e-07
   3051111   4133   0   2   -1.1920174e-06
   3051111   4233   0   2    1.6922424e-06
   3051111   4137   0   2    1.0696373e-05
   3051111   4237   0   2   -1.3228565e-05
   3051313   4133   0   2   -1.1920096e-06
   3051313   4233   0   2    1.692239e-06
   3051313   4137   0   2    1.0696382e-05
   3051313   4237   0   2   -1.3228573e-05
   3051212   4137   0   2   -2.2776749e-06
   3051212   4237   0   2    2.8849752e-06
   3051414   4137   0   2   -2.277675e-06
   3051414   4237   0   2    2.8849752e-06
   3051616   4137   0   2   -2.2864316e-06
   3051616   4237   0   2    2.8849588e-06

DECAY 23  2.4952


DECAY 24  2.085


DECAY 2000011  2.8913555
    0.99991835   2    1000022    11

DECAY 1000011  2.0163228
    0.98800148   2    1000022    11
    0.010273772   2    1000023    11
    0.001253885   2   -1000024    12
    0.00047085582   2    1000025    11

DECAY 2000013  2.8914785
    0.99989674   2    1000022    13

DECAY 1000013  2.0215242
    0.98547966   2    1000022    13
    0.011447508   2    1000023    13
    0.0016560966   2    1000025    13
    0.0012506595   2   -1000024    14
    0.00016607915   2    2000013    25

DECAY 1000015  1.0137944
    1   2    1000022    15

DECAY 2000015  1.3640425
    0.65615438   2    1000022    15
    0.12820397   2    1000015    25
    0.12135781   2    1000015    23
    0.048457956   2    1000023    15
    0.045825506   2    1000025    15

DECAY 1000012  2.0375791
    0.97013693   2    1000022    12
    0.019994128   2    1000024    11
    0.0092951967   2    1000025    12
    0.00057374234   2    1000023    12

DECAY 1000014  2.0424335
    0.96783109   2    1000022    14
    0.022323425   2    1000024    13
    0.0092731035   2    1000025    14
    0.00057237864   2    1000023    14

DECAY 1000016  1.3327963
    0.6587147   2    1000022    16
    0.24518081   2    1000015    24
    0.094806175   2    1000024    15
    0.0012200546   2    1000025    16

DECAY 2000001  144.09483
    0.9805981   2    1000021    1
    0.019276446   2    1000022    1

DECAY 1000001  190.39856
    0.74564717   2    1000021    1
    0.16703365   2   -1000037    2
    0.083401971   2    1000035    1
    0.0036176397   2    1000022    1
    0.00014071882   2    1000025    1
    0.00010560093   2    1000023    1

DECAY 2000003  144.10586
    0.98052479   2    1000021    3
    0.019275222   2    1000022    3
    0.00010662201   2    1000025    3

DECAY 1000003  190.40602
    0.74561931   2    1000021    3
    0.16702727   2   -1000037    4
    0.083398778   2    1000035    3
    0.0036176838   2    1000022    3
    0.00015473152   2    1000025    3
    0.00011972907   2    1000023    3

DECAY 1000005  13.734273
    0.85001153   2   -1000024    6
    0.069086993   2    1000023    5
    0.067870254   2    1000025    5
    0.013031223   2    1000022    5

DECAY 2000005  11.586627
    0.4272884   2   -1000024    6
    0.21638489   2    1000023    5
    0.21503582   2    1000025    5
    0.097161138   2    1000022    5
    0.019043986   2    1000006   -24
    0.015714754   2    1000005    25
    0.0093222769   2    1000005    23

DECAY 2000002  152.67407
    0.92672773   2    1000021    2
    0.072799243   2    1000022    2
    0.00033265096   2    1000025    2
    0.00014033092   2    1000023    2

DECAY 1000002  190.38855
    0.74544035   2    1000021    2
    0.16642036   2    1000037    1
    0.083336695   2    1000035    2
    0.0036860443   2    1000022    2
    0.00086018001   2    1000024    1
    0.00024275215   2    1000023    2

DECAY 2000004  152.67763
    0.92670632   2    1000021    4
    0.072797548   2    1000022    4
    0.00033842951   2    1000025    4
    0.00014608147   2    1000023    4

DECAY 1000004  190.39589
    0.7454124   2    1000021    4
    0.16641406   2    1000037    3
    0.083333519   2    1000035    4
    0.0036859059   2    1000022    4
    0.00088848024   2    1000024    3
    0.00024736822   2    1000023    4

DECAY 1000006  12.441323
    0.41182259   2    1000023    6
    0.39930061   2    1000025    6
    0.1638216   2    1000024    5
    0.022562814   2    1000022    6
    0.0020228108   2    1000022    4
    0.00039185353   3    1000022    24    5

DECAY 2000006  101.90937
    0.2584406   2    1000024    5
    0.1992993   2    1000005    24
    0.1368281   2    1000006    25
    0.13481423   2    1000025    6
    0.13210911   2    1000023    6
    0.10471411   2    1000006    23
    0.033794543   2    1000022    6

DECAY 1000024  0.58536342
    0.65914074   2    1000022    24
    0.3371644   2   -1000015    16
    0.003682754   3    1000022   -5    6

DECAY 1000037  54.915851
    0.21292327   2    1000006   -5
    0.19487591   2   -1000005    6
    0.11525145   2    1000016   -15
    0.1149098   2   -2000015    16
    0.073194395   2    1000024    25
    0.070930313   2    1000023    24
    0.070726164   2    1000024    23
    0.070508287   2    1000025    24
    0.016782982   2    1000014   -13
    0.016782972   2    1000012   -11
    0.016639006   2   -1000011    12
    0.016638956   2   -1000013    14
    0.0034214901   3    1000024    6   -6
    0.0029488234   3    1000023   -5    6
    0.0026029458   3    1000025   -5    6
    0.00035174713   2    2000006   -5
    0.00026445834   2    1000022    24
    0.00023254957   2   -1000015    16

DECAY 1000022 -1


DECAY 1000023  0.68016975
    0.41211914   2    1000022    23
    0.29300585   2    1000022    25
    0.14728187   2    1000015   -15
    0.14728187   2   -1000015    15
    0.00027882223   3    1000022    6   -6

DECAY 1000025  0.55821336
    0.42410184   2    1000022    25
    0.2128984   2    1000022    23
    0.18132185   2    1000015   -15
    0.18132185   2   -1000015    15
    0.00032304548   3    1000022    6   -6

DECAY 1000035  58.623212
    0.10422883   2    1000006   -6
    0.10422883   2   -1000006    6
    0.096220785   2    1000005   -5
    0.096220785   2   -1000005    5
    0.066922794   2    1000024   -24
    0.066922794   2   -1000024    24
    0.059884824   2    1000025    25
    0.054122906   2    1000016   -16
    0.054122906   2   -1000016    16
    0.053663022   2    2000015   -15
    0.053663022   2   -2000015    15
    0.050663435   2    1000023    25
    0.048690548   2    1000025    23
    0.017643899   2    1000023    23
    0.0078764923   2    1000014   -14
    0.0078764923   2   -1000014    14
    0.0078764899   2    1000012   -12
    0.0078764899   2   -1000012    12
    0.0077650843   2    1000011   -11
    0.0077650843   2   -1000011    11
    0.0077650595   2    1000013   -13
    0.0077650595   2   -1000013    13
    0.0030908173   3    1000024    5   -6
    0.0030908173   3   -1000024   -5    6
    0.0016911482   3    1000025    6   -6
    0.0015361158   3    1000023    6   -6
    0.00016321894   2    2000006   -6
    0.00016321894   2   -2000006    6
    0.00014928346   2    1000022    25
    0.00011022236   2    1000022    23
    0.00010868464   2    1000015   -15
    0.00010868464   2   -1000015    15

DECAY 1000021  238.92706
    0.14991868   2    1000005   -5
    0.14991868   2   -1000005    5
    0.14418574   2    1000006   -6
    0.14418574   2   -1000006    6
    0.10754842   2    2000006   -6
    0.10754842   2   -2000006    6
    0.073372303   2    2000005   -5
    0.073372303   2   -2000005    5
    0.024891827   2    1000006   -4
    0.024891827   2   -1000006    4

DECAY 25  0.0033634355
    0.64035036   2   -5    5
    0.15839963   2   -24    24
    0.075092289   2    21    21
    0.073107157   2   -15    15
    0.031657818   2   -4    4
    0.017475659   2    23    23
    0.0023088313   2    22    22
    0.0011134174   2    22    23
    0.00025362784   2   -13    13
    0.00024038478   2   -3    3
    6.6464003e-07   2   -1    1
    1.6315542e-07   2   -2    2
    5.7019002e-09   2   -11    11

DECAY 35  39.416698
    0.42578584   2   -5    5
    0.11328687   2   -1000024    1000037
    0.11328687   2   -1000037    1000024
    0.084559066   2   -15    15
    0.071328891   2    1000025    1000035
    0.048797013   2    1000022    1000023
    0.041475324   2    1000023    1000035
    0.038678858   2    1000022    1000025
    0.019600618   2   -2000006    1000006
    0.019600618   2   -1000006    2000006
    0.0056278749   2   -1000006    1000006
    0.0048661393   2   -6    6
    0.003533954   2   -2000015    1000015
    0.003533954   2   -1000015    2000015
    0.0022855477   2   -1000024    1000024
    0.0011447271   2    1000022    1000022
    0.00088925768   2    1000025    1000025
    0.00072498378   2    1000022    1000035
    0.00033678547   2    1000023    1000025
    0.00030570562   2   -13    13
    0.00018109962   2   -3    3
    8.2467294e-05   2    1000023    1000023
    3.8077526e-05   2   -2000015    2000015
    3.4543684e-05   2   -1000015    1000015
    8.5710012e-06   2   -1000005    1000005
    1.8294819e-06   2    21    21
    8.5237571e-07   2    25    25
    8.4754335e-07   2    23    23
    5.006736e-07   2   -1    1
    2.3455256e-07   2   -24    24
    2.1932603e-07   2   -1000011    1000011
    2.1844808e-07   2   -1000013    1000013
    8.6848602e-08   2   -4    4
    6.0111931e-08   2    22    23
    4.5221916e-08   2   -2000011    2000011
    4.5113205e-08   2   -2000013    2000013
    6.8658453e-09   2   -11    11
    6.1779191e-09   2   -2000013    1000013
    6.1779191e-09   2   -1000013    2000013
    1.1681208e-09   2    22    22
    4.4775864e-13   2   -2    2
    1.4450241e-13   2   -2000011    1000011
    1.4450241e-13   2   -1000011    2000011

DECAY 36  38.692456
    0.41790812   2   -5    5
    0.11532082   2   -1000024    1000037
    0.11532082   2   -1000037    1000024
    0.082994212   2   -15    15
    0.073239645   2    1000023    1000035
    0.04772631   2    1000022    1000025
    0.041689871   2    1000025    1000035
    0.041207106   2    1000022    1000023
    0.023339839   2   -2000006    1000006
    0.023339839   2   -1000006    2000006
    0.0041330849   2   -6    6
    0.003636703   2   -2000015    1000015
    0.003636703   2   -1000015    2000015
    0.0025462157   2   -1000024    1000024
    0.0012247836   2    1000025    1000025
    0.0012131053   2    1000022    1000022
    0.00072391791   2    1000022    1000035
    0.00030005118   2   -13    13
    0.00022380844   2    1000023    1000025
    0.00017774893   2   -3    3
    8.1182266e-05   2    1000023    1000023
    1.3985613e-05   2    21    21
    1.4778638e-06   2    23    25
    4.9140892e-07   2   -1    1
    7.5064615e-08   2   -4    4
    6.3737168e-08   2    22    23
    1.129708e-08   2    22    22
    6.7388478e-09   2   -11    11
    6.2820055e-09   2   -2000013    1000013
    6.2820055e-09   2   -1000013    2000013
    3.8702932e-13   2   -2    2
    1.4693675e-13   2   -2000011    1000011
    1.4693675e-13   2   -1000011    2000011
    2.0075945e-38   2    25    25

DECAY 37  40.398241
    0.4502272   2   -5    6
    0.11114489   2    1000023    1000037
    0.11079849   2    1000024    1000035
    0.10960418   2    1000025    1000037
    0.092001858   2   -15    16
    0.087747933   2    1000022    1000024
    0.022757698   2   -1000005    2000006
    0.0069442775   2   -1000015    1000016
    0.0044544914   2   -2000005    1000006
    0.0014027357   2    1000022    1000037
    0.0010736754   2   -1000005    1000006
    0.00065978014   2   -5    4
    0.00063766477   2    1000023    1000024
    0.00032525939   2   -13    14
    0.00016467021   2   -3    4
    2.5359315e-05   2   -2000015    1000016
    7.8887084e-06   2   -3    6
    7.7154862e-06   2   -3    2
    6.8668042e-06   2    1000024    1000025
    4.7115103e-06   2   -5    2
    1.4174712e-06   2    24    25
    4.5667509e-07   2   -1    2
    3.5061676e-07   2   -1    6
    1.8407076e-07   2   -2000011    1000012
    1.8391246e-07   2   -2000013    1000014
    2.4545333e-08   2   -1    4
    1.1902449e-08   2   -1000013    1000014
    7.6078509e-09   2   -11    12
    2.783979e-13   2   -1000011    1000012
    8.0545757e-14   2    24    35

DECAY 6  2.43
    1   2    5    24

DECAY 15 -1
