BLOCK SPINFO
   1   SPheno
   2   v4.0.5be

BLOCK SPHENOINFO
   1   2
   2   2

BLOCK MODSEL
   1   0

BLOCK MINPAR
   3    17.173803
   4   -1

BLOCK EXTPAR
   0    1251.4011
   1   -70.000495
   2   -490.4798
   3    3000
   11   -3441.5766
   12    708.35835
   13   -964.7002
   23   -109.95443
   25    16.580581
   26    2520.8831
   31    1679.9578
   32    1679.9578
   33    720.34011
   34    1059.3823
   35    1059.3823
   36    681.04319
   41    5000
   42    5000
   43    1661.7617
   44    5000
   45    5000
   46    1112.679
   47    5000
   48    5000
   49    1119.3735

BLOCK SMINPUTS
   1    127.90897
   2    1.1663787e-05
   3    0.1184
   4    91.1876
   5    4.18
   6    173.2
   7    1.777
   8    0
   11    0.00051099893
   12    0
   13    0.10565837
   14    0
   21    0.005
   22    0.0025
   23    0.095
   24    1.27

BLOCK GAUGE Q=  1251.4011
   1    0.35536298
   2    0.66519887
   3    1.219778

BLOCK YU Q=  1251.4011
   1   1    8.3996073e-06
   2   2    0.0042670005
   3   3    1.01474

BLOCK YD Q=  1251.4011
   1   1    0.0002798588
   2   2    0.0053173172
   3   3    0.27753224

BLOCK YE Q=  1251.4011
   1   1    4.8837407e-05
   2   2    0.010098027
   3   3    0.1698322

BLOCK AU Q=  1251.4011
   1   1    0
   2   2    0
   3   3   -3441.5765

BLOCK AD Q=  1251.4011
   1   1    0
   2   2    0
   3   3    708.35835

BLOCK AE Q=  1251.4011
   1   1    0
   2   2    0
   3   3   -964.7002

BLOCK MSOFT Q=  1251.4011
   1   -70.000495
   2   -490.4798
   3    3000
   21    6312879.4
   22    31053.653
   31    1679.9578
   32    1679.9578
   33    720.34011
   34    1059.3823
   35    1059.3823
   36    681.04319
   41    5000
   42    5000
   43    1661.7617
   44    5000
   45    5000
   46    1112.679
   47    5000
   48    5000
   49    1119.3735

BLOCK MASS
   6    173.2
   23    91.1876
   24    80.429995
   15    1.777
   25    123.8229
   35    2520.4354
   36    2520.8831
   37    2521.972
   1000001    5020.1958
   2000001    5009.703
   1000002    5019.7598
   2000002    5011.3403
   1000003    5020.1971
   2000003    5009.7046
   1000004    5019.7612
   2000004    5011.3413
   1000005    1074.6124
   2000005    1611.6042
   1000006    943.79254
   2000006    1659.2678
   1000011    1684.1599
   2000011    1060.5191
   1000012    1681.9407
   1000013    1684.159
   2000013    1060.5172
   1000014    1681.9398
   1000015    681.7891
   2000015    726.65023
   1000016    721.9578
   1000021    3174.3722
   1000022   -54.531363
   1000023    121.59117
   1000025   -124.86093
   1000035   -534.04923
   1000024    108.81573
   1000037    534.24469

BLOCK ALPHA
      -0.05837596

BLOCK HMIX Q=  1251.4011
   1   -109.95443
   2    16.580581
   3    244.15471
   4    6354851.5

BLOCK STOPMIX
   1   1    0.27461502
   1   2    0.96155426
   2   1   -0.96155426
   2   2    0.27461502

BLOCK SBOTMIX
   1   1   -0.0041872786
   1   2    0.99999123
   2   1   -0.99999123
   2   2   -0.0041872786

BLOCK STAUMIX
   1   1   -0.025530423
   1   2    0.99967405
   2   1   -0.99967405
   2   2   -0.025530423

BLOCK NMIX
   1   1    0.83309703
   1   2   -0.048852936
   1   3   -0.48711029
   1   4    0.25746126
   2   1   -0.1597617
   2   2    0.085768116
   2   3   -0.66484577
   2   4   -0.72463793
   3   1    0.52931178
   3   2    0.13250784
   3   3    0.5647336
   3   4   -0.61914996
   4   1    0.015955573
   4   2   -0.98625498
   4   3    0.042185669
   4   4   -0.15895564

BLOCK UMIX
   1   1   -0.059488059
   1   2   -0.99822902
   2   1   -0.99822902
   2   2    0.059488059

BLOCK VMIX
   1   1    0.22501728
   1   2    0.97435477
   2   1    0.97435477
   2   2   -0.22501728

BLOCK HIGGSBOUNDSINPUTHIGGSCOUPLINGSFERMIONS
       0, 274.91566,3,36,15,15

BLOCK HIGGSBOUNDSINPUTHIGGSCOUPLINGSBOSONS
       0,4,36,21,21,23

BLOCK SPHENOLOWENERGY
   1    0.00035913451
   2    1.5854492e-06
   3    3.5205048e-05
   4    2.1691753e-15
   5    9.2664776e-11
   6    1.9404214e-08
   7    7.3126771e-14
   8    3.1239757e-09
   9    6.628113e-07
   10    9.6533531e-05
   11    0.99715441
   12    0.54344787
   13    19.416584
   14    0
   15    0
   16    0.0021637365
   17    2.2817238e-15
   18    2.4785218e-11
   19    8.2860512e-11
   20    3.1092279e-15
   21    1.3292898e-10
   22    9.6522436e-08
   23    0
   24    0
   25    0
   26    0
   27    0
   28    0
   29    0
   30    0
   31    0
   39    5.5782616e-05
   40    0
   41    0
   42    0

BLOCK FWCOEF Q=  160
   305   4422   0   0   -0.18881911
   305   4422   0   2   -0.23276607
   305   4322   0   2   -0.00036896867
   305   6421   0   0   -0.095227835
   305   6421   0   2   -0.1234516
   305   6321   0   2   -0.00029132939
   3051111   4133   0   0    1.5853577
   3051111   4133   0   2    1.5865272
   3051111   4233   0   2    3.7855454e-05
   3051111   4137   0   0   -4.4080498
   3051111   4137   0   2   -4.4016874
   3051111   4237   0   2   -0.00029672014
   3051313   4133   0   0    1.5853577
   3051313   4133   0   2    1.5865266
   3051313   4233   0   2    3.7855401e-05
   3051313   4137   0   0   -4.4080498
   3051313   4137   0   2   -4.401688
   3051313   4237   0   2   -0.00029672021
   3051212   4137   0   0    1.5053501
   3051212   4137   0   2    1.5039753
   3051212   4237   0   2    6.4749766e-05
   3051414   4137   0   0    1.5053501
   3051414   4137   0   2    1.5039753
   3051414   4237   0   2    6.474977e-05
   3051616   4137   0   0    1.5053501
   3051616   4137   0   2    1.5039765
   3051616   4237   0   2    6.4748902e-05

BLOCK IMFWCOEF Q=  160
   305   4422   0   0    3.8581199e-07
   305   4422   0   2    8.9437536e-06
   305   4322   0   2   -3.7344923e-06
   305   6421   0   0    3.3047349e-07
   305   6421   0   2    7.447053e-06
   305   6321   0   2   -1.514901e-06
   3051111   4133   0   2   -3.0356369e-06
   3051111   4233   0   2    8.3991438e-07
   3051111   4137   0   2    2.7239707e-05
   3051111   4237   0   2   -6.5896146e-06
   3051313   4133   0   2   -3.0356358e-06
   3051313   4233   0   2    8.3991377e-07
   3051313   4137   0   2    2.7239717e-05
   3051313   4237   0   2   -6.5896162e-06
   3051212   4137   0   2   -5.6796927e-06
   3051212   4237   0   2    1.4380352e-06
   3051414   4137   0   2   -5.6796926e-06
   3051414   4237   0   2    1.4380352e-06
   3051616   4137   0   2   -5.6585814e-06
   3051616   4237   0   2    1.4379997e-06

DECAY 23  2.4952


DECAY 24  2.085


DECAY 2000011  5.2639342
    0.69888246   2    1000022    11
    0.27581083   2    1000025    11
    0.025163117   2    1000023    11
    0.00014358091   2    1000035    11

DECAY 1000011  20.160241
    0.59273556   2   -1000037    12
    0.28436794   2    1000035    11
    0.062716151   2    1000025    11
    0.057599524   2    1000022    11
    0.0025807547   2   -1000024    12

DECAY 2000013  5.2681297
    0.69842116   2    1000022    13
    0.27571703   2    1000025    13
    0.025318726   2    1000023    13
    0.00039841144   2   -1000024    14
    0.0001438688   2    1000035    13

DECAY 1000013  20.163616
    0.59263588   2   -1000037    14
    0.28432034   2    1000035    13
    0.062759099   2    1000025    13
    0.057629959   2    1000022    13
    0.0025803213   2   -1000024    14

DECAY 1000015  4.071472
    0.60204327   2    1000022    15
    0.24750235   2    1000025    15
    0.091959381   2   -1000024    16
    0.058430358   2    1000023    15

DECAY 2000015  3.4216068
    0.39330948   2   -1000037    16
    0.19002349   2    1000025    15
    0.18898025   2    1000035    15
    0.16991887   2    1000022    15
    0.052756494   2    1000023    15
    0.0050113861   2   -1000024    16

DECAY 1000012  20.211899
    0.56220431   2    1000037    11
    0.29305846   2    1000035    12
    0.089164067   2    1000022    12
    0.036781148   2    1000024    11
    0.010612978   2    1000023    12
    0.0081790307   2    1000025    12

DECAY 1000014  20.215264
    0.56211078   2    1000037    13
    0.29300944   2    1000035    14
    0.089149172   2    1000022    14
    0.036941742   2    1000024    13
    0.010611205   2    1000023    14
    0.0081776643   2    1000025    14

DECAY 1000016  3.5030211
    0.35268458   2    1000037    15
    0.21877577   2    1000022    16
    0.2001304   2    1000024    15
    0.18405825   2    1000035    16
    0.025076127   2    1000023    16
    0.019274832   2    1000025    16

DECAY 2000001  144.43748
    0.98064655   2    1000021    1
    0.013436393   2    1000022    1
    0.0054184968   2    1000025    1
    0.0004936834   2    1000023    1

DECAY 1000001  208.24639
    0.68541484   2    1000021    1
    0.20670158   2   -1000037    2
    0.10147003   2    1000035    1
    0.0041255584   2    1000022    1
    0.0013826325   2    1000023    1
    0.00075028757   2   -1000024    2
    0.00015507337   2    1000025    1

DECAY 2000003  144.44327
    0.98060845   2    1000021    3
    0.013440475   2    1000022    3
    0.0054244776   2    1000025    3
    0.00050225276   2    1000023    3

DECAY 1000003  208.25118
    0.68539976   2    1000021    3
    0.20669732   2   -1000037    4
    0.10146775   2    1000035    3
    0.0041286727   2    1000022    3
    0.0013885707   2    1000023    3
    0.00075855045   2   -1000024    4
    0.00015937715   2    1000025    3

DECAY 1000005  3.7294431
    0.40855686   2   -1000024    6
    0.2168837   2    1000022    5
    0.19345298   2    1000023    5
    0.18023129   2    1000025    5
    0.00054232429   2   -1000037    6
    0.00033109356   2    1000035    5

DECAY 2000005  110.95969
    0.53634027   2    1000006   -24
    0.27349353   2   -1000024    6
    0.11509026   2   -1000037    6
    0.049595893   2    1000035    5
    0.010583534   2    1000023    5
    0.0076746952   2    1000022    5
    0.007132554   2    1000025    5

DECAY 2000002  152.99769
    0.92689401   2    1000021    2
    0.050755056   2    1000022    2
    0.020467969   2    1000025    2
    0.0018647681   2    1000023    2

DECAY 1000002  208.24455
    0.68520274   2    1000021    2
    0.19691646   2    1000037    1
    0.10029923   2    1000035    2
    0.010734144   2    1000024    1
    0.0054490916   2    1000025    2
    0.0010501532   2    1000022    2
    0.00034817422   2    1000023    2

DECAY 2000004  153.00136
    0.92687208   2    1000021    4
    0.05075463   2    1000022    4
    0.020472013   2    1000025    4
    0.0018709489   2    1000023    4

DECAY 1000004  208.24928
    0.6851876   2    1000021    4
    0.1969121   2    1000037    3
    0.10029717   2    1000035    4
    0.010747363   2    1000024    3
    0.0054523153   2    1000025    4
    0.0010507079   2    1000022    4
    0.00035274683   2    1000023    4

DECAY 1000006  34.779215
    0.43797596   2    1000024    5
    0.2439461   2    1000023    6
    0.20767933   2    1000025    6
    0.05539507   2    1000022    6
    0.039411668   2    1000037    5
    0.015589596   2    1000035    6

DECAY 2000006  122.82482
    0.28463526   2    1000006    25
    0.26599025   2    1000006    23
    0.15029469   2    1000023    6
    0.10111108   2    1000025    6
    0.067898934   2    1000037    5
    0.064874663   2    1000024    5
    0.036697335   2    1000035    6
    0.028419884   2    1000022    6

DECAY 1000024  0.00039663034
    0.33363112   3    1000022   -1    2
    0.33290421   3    1000022   -3    4
    0.11123646   3    1000022   -11    12
    0.11123538   3    1000022   -13    14
    0.11099282   3    1000022   -15    16

DECAY 1000037  4.6091481
    0.26174763   2    1000023    24
    0.25009626   2    1000024    23
    0.24568113   2    1000025    24
    0.22171839   2    1000024    25
    0.018485447   2    1000022    24
    0.0010969449   3    1000023   -5    6
    0.00088871402   3    1000025   -5    6
    0.00015838502   3    1000024    6   -6

DECAY 1000022 -1


DECAY 1000023  0.00083381578
    0.20430779   3    1000022    12   -12
    0.1525737   3    1000022    1   -1
    0.15257125   3    1000022    3   -3
    0.14764599   3    1000022    5   -5
    0.11899834   3    1000022    2   -2
    0.11854414   3    1000022    4   -4
    0.034360113   3    1000022    11   -11
    0.034359203   3    1000022    13   -13
    0.034077245   3    1000022    15   -15
    0.0016145862   2    1000022    22
    0.0001621074   3    1000024    1   -2
    0.0001621074   3   -1000024   -1    2
    0.00015442686   3    1000024    3   -4
    0.00015442686   3   -1000024   -3    4

DECAY 1000025  6.4220734e-05
    0.18661237   3    1000022    12   -12
    0.13887474   3    1000022    1   -1
    0.1388731   3    1000022    3   -3
    0.13646436   3    1000022    5   -5
    0.10835493   3    1000022    2   -2
    0.10804434   3    1000022    4   -4
    0.030305011   3    1000022    11   -11
    0.030304861   3    1000022    13   -13
    0.028687324   3    1000022    15   -15
    0.014820786   3    1000024    1   -2
    0.014820786   3   -1000024   -1    2
    0.014376023   3    1000024    3   -4
    0.014376023   3   -1000024   -3    4
    0.005953676   2    1000022    22
    0.0049400512   3    1000024    11   -12
    0.0049400512   3   -1000024   -11    12
    0.0049393363   3    1000024    13   -14
    0.0049393363   3   -1000024   -13    14
    0.0046639554   3    1000024    15   -16
    0.0046639554   3   -1000024   -15    16

DECAY 1000035  5.1105991
    0.24350981   2    1000024   -24
    0.24350981   2   -1000024    24
    0.18434806   2    1000023    23
    0.13490842   2    1000025    25
    0.12676838   2    1000023    25
    0.049618235   2    1000025    23
    0.010420733   2    1000022    25
    0.0041408199   2    1000022    23
    0.0013220198   3    1000024    5   -6
    0.0013220198   3   -1000024   -5    6

DECAY 1000021  252.02177
    0.14614039   2    1000005   -5
    0.14614039   2   -1000005    5
    0.14505916   2    1000006   -6
    0.14505916   2   -1000006    6
    0.10590923   2    2000006   -6
    0.10590923   2   -2000006    6
    0.1026991   2    2000005   -5
    0.1026991   2   -2000005    5

DECAY 25  0.0060054599
    0.37941996   2    1000022    1000022
    0.36747951   2   -5    5
    0.13021824   2   -24    24
    0.044459662   2    21    21
    0.042265763   2   -15    15
    0.018114631   2   -4    4
    0.01539657   2    23    23
    0.0014858608   2    22    22
    0.0008747779   2    22    23
    0.00014648308   2   -13    13
    0.00013806057   2   -3    3
    3.8172343e-07   2   -1    1
    9.3351141e-08   2   -2    2
    3.2931116e-09   2   -11    11

DECAY 35  42.149253
    0.21235034   2   -1000024    1000037
    0.21235034   2   -1000037    1000024
    0.19990699   2   -5    5
    0.11391895   2    1000023    1000035
    0.060850663   2    1000025    1000035
    0.046720649   2    1000022    1000035
    0.036326783   2   -15    15
    0.027522037   2    1000022    1000022
    0.026527307   2   -1000024    1000024
    0.017257059   2    1000022    1000023
    0.0095080483   2    1000023    1000025
    0.0085711898   2    1000022    1000025
    0.0081993416   2   -6    6
    0.0072595062   2    1000023    1000023
    0.0037602354   2   -1000006    1000006
    0.0030218526   2    1000025    1000025
    0.0021657001   2   -2000015    1000015
    0.0021657001   2   -1000015    2000015
    0.00089925862   2   -1000037    1000037
    0.00048086513   2    1000035    1000035
    0.00012507482   2   -13    13
    7.6499114e-05   2   -3    3
    1.1573811e-05   2   -2000015    2000015
    9.135792e-06   2    25    25
    5.1002029e-06   2   -1000015    1000015
    3.83731e-06   2    23    23
    1.4665126e-06   2   -24    24
    1.012621e-06   2    21    21
    2.9931664e-07   2   -1000011    1000011
    2.9878054e-07   2   -1000013    1000013
    2.114983e-07   2   -1    1
    1.8154398e-07   2    22    23
    1.0432839e-07   2   -4    4
    5.17623e-08   2    22    22
    3.9633061e-08   2   -1000005    1000005
    2.8092559e-09   2   -11    11
    5.3782515e-13   2   -2    2

DECAY 36  41.564786
    0.21355496   2   -1000024    1000037
    0.21355496   2   -1000037    1000024
    0.19415411   2   -5    5
    0.087101605   2    1000023    1000035
    0.083464985   2    1000025    1000035
    0.052819844   2    1000022    1000035
    0.03528227   2   -15    15
    0.03171879   2    1000022    1000022
    0.028817233   2   -1000024    1000024
    0.011802329   2    1000022    1000025
    0.011767612   2    1000022    1000023
    0.009516589   2    1000023    1000025
    0.0080281437   2   -6    6
    0.0057495479   2    1000023    1000023
    0.0039891454   2    1000025    1000025
    0.00266901   2   -1000037    1000037
    0.0022040248   2   -2000015    1000015
    0.0022040248   2   -1000015    2000015
    0.0013852395   2    1000035    1000035
    0.00012147833   2   -13    13
    7.4297785e-05   2   -3    3
    1.3514182e-05   2    21    21
    5.6962398e-06   2    23    25
    2.0541253e-07   2   -1    1
    1.6776636e-07   2    22    23
    1.2506145e-07   2    22    22
    9.9769446e-08   2   -4    4
    2.728487e-09   2   -11    11
    5.1434851e-13   2   -2    2
    1.1221191e-38   2    25    25

DECAY 37  41.705273
    0.21765911   2    1000024    1000035
    0.20402449   2   -5    6
    0.19877436   2    1000023    1000037
    0.15273824   2    1000025    1000037
    0.10300271   2    1000022    1000037
    0.046021031   2    1000022    1000024
    0.035667879   2   -15    16
    0.034975071   2    1000024    1000025
    0.0043886492   2   -1000015    1000016
    0.0011658351   2    1000023    1000024
    0.0010597319   2   -1000005    1000006
    0.00029062558   2   -5    4
    0.00012609873   2   -13    14
    6.9908032e-05   2   -3    4
    1.219367e-05   2   -2000015    1000016
    1.1791358e-05   2   -3    6
    5.68948e-06   2    24    25
    3.2628529e-06   2   -3    2
    2.0753657e-06   2   -5    2
    5.3608865e-07   2   -1    6
    4.9614103e-07   2    1000035    1000037
    1.9369725e-07   2   -1    2
    1.3941315e-08   2   -1    4
    2.9494623e-09   2   -11    12
    2.7956711e-13   2    24    35
    4.9962166e-14   2    24    36

DECAY 6  2.43
    1   2    5    24

DECAY 15 -1
