BLOCK SPINFO
   1   SPheno
   2   v4.0.5be

BLOCK SPHENOINFO
   1   2
   2   2

BLOCK MODSEL
   1   0

BLOCK MINPAR
   3    58.92368
   4    1

BLOCK EXTPAR
   0    1348.1235
   1    124.82005
   2   -513.46155
   3    3000
   11   -2176.0248
   12   -1915.8867
   13   -248.98523
   23    1035.61
   25    58.219722
   26    1227.8525
   31    1432.3587
   32    1432.3587
   33    301.20511
   34    1096.0217
   35    1096.0217
   36    736.06536
   41    5000
   42    5000
   43    1474.1319
   44    5000
   45    5000
   46    1320.2403
   47    5000
   48    5000
   49    1573.6556

BLOCK SMINPUTS
   1    127.90897
   2    1.1663787e-05
   3    0.1184
   4    91.1876
   5    4.18
   6    173.2
   7    1.777
   8    0
   11    0.00051099893
   12    0
   13    0.10565837
   14    0
   21    0.005
   22    0.0025
   23    0.095
   24    1.27

BLOCK GAUGE Q=  1348.1235
   1    0.35536298
   2    0.66519887
   3    1.219778

BLOCK YU Q=  1348.1235
   1   1    8.3856088e-06
   2   2    0.0042598893
   3   3    1.0130489

BLOCK YD Q=  1348.1235
   1   1    0.00098103607
   2   2    0.018639685
   3   3    0.97288037

BLOCK YE Q=  1348.1235
   1   1    0.00017119797
   2   2    0.03539831
   3   3    0.59534134

BLOCK AU Q=  1348.1235
   1   1    0
   2   2    0
   3   3   -2176.0247

BLOCK AD Q=  1348.1235
   1   1    0
   2   2    0
   3   3   -1915.8868

BLOCK AE Q=  1348.1235
   1   1    0
   2   2    0
   3   3   -248.98523

BLOCK MSOFT Q=  1348.1235
   1    124.82005
   2   -513.46155
   3    3000
   21    471546.13
   22   -1055592.3
   31    1432.3587
   32    1432.3587
   33    301.20511
   34    1096.0217
   35    1096.0217
   36    736.06536
   41    5000
   42    5000
   43    1474.1319
   44    5000
   45    5000
   46    1320.2403
   47    5000
   48    5000
   49    1573.6556

BLOCK MASS
   6    173.2
   23    91.1876
   24    80.429995
   15    1.777
   25    120.82675
   35    1227.4556
   36    1227.8525
   37    1231.9704
   1000001    5022.0086
   2000001    5011.6257
   1000002    5021.5536
   2000002    5012.9756
   1000003    5022.0215
   2000003    5011.6342
   1000004    5021.5611
   2000004    5012.9765
   1000005    1427.1434
   2000005    1567.0103
   1000006    1214.9091
   2000006    1495.9448
   1000011    1436.1869
   2000011    1098.2984
   1000012    1433.5982
   1000013    1436.1829
   2000013    1098.2518
   1000014    1433.5785
   1000015    276.18424
   2000015    743.17473
   1000016    298.115
   1000021    3175.5568
   1000022    124.41414
   1000023   -539.34403
   1000025    1038.721
   1000035   -1043.0915
   1000024    539.5428
   1000037    1044.2625

BLOCK ALPHA
      -0.017049748

BLOCK HMIX Q=  1348.1235
   1    1035.61
   2    58.219722
   3    244.13226
   4    1507621.6

BLOCK STOPMIX
   1   1    0.44931695
   1   2    0.89337242
   2   1   -0.89337242
   2   2    0.44931695

BLOCK SBOTMIX
   1   1    0.95920834
   1   2    0.28270014
   2   1   -0.28270014
   2   2    0.95920834

BLOCK STAUMIX
   1   1    0.97999101
   1   2    0.19904176
   2   1   -0.19904176
   2   2    0.97999101

BLOCK NMIX
   1   1   -0.9990186
   1   2   -0.00094886638
   1   3   -0.043852683
   1   4    0.0061553138
   2   1   -0.0032113883
   2   2   -0.9935158
   2   3    0.10175993
   2   4    0.050605989
   3   1    0.035348725
   3   2   -0.036328577
   3   3   -0.70524371
   3   4    0.70715063
   4   1   -0.026495295
   4   2    0.10772974
   4   3    0.70025222
   4   4    0.70522276

BLOCK UMIX
   1   1   -0.98955202
   1   2    0.14417624
   2   1   -0.14417624
   2   2   -0.98955202

BLOCK VMIX
   1   1    0.99739824
   1   2    0.072088563
   2   1    0.072088563
   2   2   -0.99739824

BLOCK HIGGSBOUNDSINPUTHIGGSCOUPLINGSFERMIONS
       0, 3389.536,3,36,15,15

BLOCK HIGGSBOUNDSINPUTHIGGSCOUPLINGSBOSONS
       0,4,36,21,21,23

BLOCK SPHENOLOWENERGY
   1    0.00028897808
   2    1.5937943e-06
   3    3.5203205e-05
   4    5.5189669e-15
   5    2.3570341e-10
   6    4.5889323e-08
   7    1.8196053e-13
   8    7.7714448e-09
   9    1.5385567e-06
   10    8.9740414e-05
   11    0.92698411
   12    0.5420986
   13    19.325363
   14    0
   15    0
   16    0.0021577137
   17    2.281676e-15
   18    2.4775388e-11
   19    8.284109e-11
   20   -1.1763547e-14
   21   -5.0291198e-10
   22    1.790934e-07
   23    0
   24    0
   25    0
   26    0
   27    0
   28    0
   29    0
   30    0
   31    0
   39    0.00032410798
   40    0
   41    0
   42    0

BLOCK FWCOEF Q=  160
   305   4422   0   0   -0.18881911
   305   4422   0   2   -0.1459455
   305   4322   0   2   -0.00010372302
   305   6421   0   0   -0.095227835
   305   6421   0   2   -0.090058361
   305   6321   0   2   -0.00043214995
   3051111   4133   0   0    1.5890963
   3051111   4133   0   2    1.5897517
   3051111   4233   0   2    0.0001386406
   3051111   4137   0   0   -4.4117884
   3051111   4137   0   2   -4.4052714
   3051111   4237   0   2   -0.0010802467
   3051313   4133   0   0    1.5890963
   3051313   4133   0   2    1.5897452
   3051313   4233   0   2    0.0001386083
   3051313   4137   0   0   -4.4117884
   3051313   4137   0   2   -4.4052778
   3051313   4237   0   2   -0.0010802268
   3051212   4137   0   0    1.5053501
   3051212   4137   0   2    1.5039427
   3051212   4237   0   2    0.00023556994
   3051414   4137   0   0    1.5053501
   3051414   4137   0   2    1.5039427
   3051414   4237   0   2    0.00023557625
   3051616   4137   0   0    1.5053501
   3051616   4137   0   2    1.5039441
   3051616   4237   0   2    0.00023735256

BLOCK IMFWCOEF Q=  160
   305   4422   0   0    3.8590982e-07
   305   4422   0   2   -2.2681262e-05
   305   4322   0   2    6.7472602e-06
   305   6421   0   0    3.3055728e-07
   305   6421   0   2   -2.0131881e-05
   305   6321   0   2    2.6442009e-06
   3051111   4133   0   2   -1.3194891e-06
   3051111   4233   0   2    7.9836401e-06
   3051111   4137   0   2    1.2530258e-05
   3051111   4237   0   2   -6.2425885e-05
   3051313   4133   0   2   -1.3194655e-06
   3051313   4233   0   2    7.983582e-06
   3051313   4137   0   2    1.2530327e-05
   3051313   4237   0   2   -6.2426049e-05
   3051212   4137   0   2   -2.4719663e-06
   3051212   4237   0   2    1.3613663e-05
   3051414   4137   0   2   -2.4719656e-06
   3051414   4237   0   2    1.3613663e-05
   3051616   4137   0   2   -2.4541401e-06
   3051616   4237   0   2    1.361361e-05

DECAY 23  2.4952


DECAY 24  2.085


DECAY 2000011  5.3674238
    0.99997265   2    1000022    11

DECAY 1000011  15.603001
    0.5852813   2   -1000024    12
    0.29608108   2    1000023    11
    0.11407606   2    1000022    11
    0.0037414922   2   -1000037    12
    0.00079201861   2    1000035    11

DECAY 2000013  5.3682528
    0.99978301   2    1000022    13

DECAY 1000013  15.614845
    0.58483464   2   -1000024    14
    0.29587234   2    1000023    13
    0.11399357   2    1000022    13
    0.0037385966   2   -1000037    14
    0.0010426013   2    1000035    13
    0.00028742452   2    1000025    13
    0.00023082214   2    2000013    25

DECAY 1000015  0.2596709
    1   2    1000022    15

DECAY 2000015  16.342609
    0.37713973   2    1000016   -24
    0.22074292   2    1000015    25
    0.20739511   2    1000022    15
    0.19400917   2    1000015    23
    0.00044512275   2   -1000024    16
    0.00026795682   2    1000023    15

DECAY 1000012  15.627651
    0.59188784   2    1000024    11
    0.29270234   2    1000023    12
    0.112879   2    1000022    12
    0.0013283768   2    1000035    12
    0.00092469279   2    1000037    11
    0.00027773887   2    1000025    12

DECAY 1000014  15.635568
    0.59161019   2    1000024    13
    0.29254744   2    1000023    14
    0.11282024   2    1000022    14
    0.0014169459   2    1000037    13
    0.0013276036   2    1000035    14
    0.00027757751   2    1000025    14

DECAY 1000016  0.25399568
    0.9999665   2    1000022    16

DECAY 2000001  144.49475
    0.98066208   2    1000021    1
    0.019301908   2    1000022    1

DECAY 1000001  208.19766
    0.68580076   2    1000021    1
    0.20315527   2   -1000024    2
    0.10227695   2    1000023    1
    0.0040404535   2   -1000037    2
    0.0033202622   2    1000022    1
    0.0012293525   2    1000035    1
    0.00017694508   2    1000025    1

DECAY 2000003  144.55895
    0.98023267   2    1000021    3
    0.019293828   2    1000022    3
    0.00021471585   2   -1000037    4
    0.00013131844   2    1000025    3
    0.00011998064   2    1000035    3

DECAY 1000003  208.23258
    0.68569223   2    1000021    3
    0.20312175   2   -1000024    4
    0.10226175   2    1000023    3
    0.0040477598   2   -1000037    4
    0.0033200331   2    1000022    3
    0.0013037961   2    1000035    3
    0.00025267952   2    1000025    3

DECAY 1000005  30.356918
    0.29351107   2   -1000024    6
    0.19985143   2    1000006   -24
    0.16169919   2    1000023    5
    0.14496418   2   -1000037    6
    0.094993281   2    1000025    5
    0.090038991   2    1000035    5
    0.014941845   2    1000022    5

DECAY 2000005  23.390635
    0.42938602   2   -1000037    6
    0.20197327   2    1000025    5
    0.20140426   2    1000035    5
    0.10564467   2    1000006   -24
    0.029403585   2    1000022    5
    0.01813558   2    1000005    25
    0.0088871704   2    1000005    23
    0.002905282   2   -1000024    6
    0.002260164   2    1000023    5

DECAY 2000002  153.02033
    0.92694286   2    1000021    2
    0.072925663   2    1000022    2

DECAY 1000002  208.19085
    0.68559547   2    1000021    2
    0.20637689   2    1000024    1
    0.10250633   2    1000023    2
    0.0033916636   2    1000022    2
    0.0010314329   2    1000035    2
    0.0010104642   2    1000037    1

DECAY 2000004  153.02369
    0.9269228   2    1000021    4
    0.072924069   2    1000022    4

DECAY 1000004  208.22506
    0.68548631   2    1000021    4
    0.2063467   2    1000024    3
    0.10248966   2    1000023    4
    0.0033911113   2    1000022    4
    0.0011592847   2    1000037    3
    0.0010352138   2    1000035    4

DECAY 1000006  5.5549887
    0.37876085   2    1000022    6
    0.30342197   2    1000037    5
    0.16350494   2    1000024    5
    0.07584552   2    1000023    6
    0.069164096   2    1000023    4
    0.0057855762   2    1000025    6
    0.0034001471   2    1000022    4
    0.00011690232   3    1000022    24    5

DECAY 2000006  40.145783
    0.22853161   2    1000024    5
    0.17816344   2    1000037    5
    0.15237603   2    1000006    23
    0.11907509   2    1000025    6
    0.10838873   2    1000023    6
    0.10419969   2    1000035    6
    0.090339943   2    1000006    25
    0.018925454   2    1000022    6

DECAY 1000024  2.4392514
    0.52538749   2   -1000015    16
    0.47409724   2    1000016   -15
    0.0005108967   2    1000022    24

DECAY 1000037  10.547002
    0.29045445   2    1000016   -15
    0.19266214   2    1000023    24
    0.18039809   2    1000024    25
    0.1781247   2    1000024    23
    0.085329346   2   -2000015    16
    0.068053489   2    1000022    24
    0.0018514096   3    1000023   -5    6
    0.0015194657   3    1000022   -5    6
    0.00086555297   3    1000024    6   -6
    0.00046141667   2   -1000015    16
    0.00018520787   3    1000024    5   -5

DECAY 1000022 -1


DECAY 1000023  2.4458135
    0.26941873   2    1000015   -15
    0.26941873   2   -1000015    15
    0.23024324   2    1000016   -16
    0.23024324   2   -1000016    16
    0.00043884225   2    1000022    23
    0.00023300103   2    1000022    25

DECAY 1000025  12.139192
    0.15647038   2    1000023    25
    0.1549206   2    1000024   -24
    0.1549206   2   -1000024    24
    0.14771992   2    1000023    23
    0.12667563   2    1000015   -15
    0.12667563   2   -1000015    15
    0.036552555   2    2000015   -15
    0.036552555   2   -2000015    15
    0.033242825   2    1000022    25
    0.021355115   2    1000022    23
    0.0015392931   3    1000024    5   -6
    0.0015392931   3   -1000024   -5    6
    0.00048338559   2    1000016   -16
    0.00048338559   2   -1000016    16
    0.00040951157   3    1000022    6   -6
    0.00019250963   3    1000023    6   -6
    0.00012488628   3    1000022    5   -5

DECAY 1000035  10.746933
    0.18411104   2    1000024   -24
    0.18411104   2   -1000024    24
    0.16099863   2    1000023    25
    0.1389669   2    1000015   -15
    0.1389669   2   -1000015    15
    0.042790151   2    2000015   -15
    0.042790151   2   -2000015    15
    0.042504612   2    1000022    23
    0.03525095   2    1000022    25
    0.018638666   2    1000023    23
    0.0026760349   2    1000016   -16
    0.0026760349   2   -1000016    16
    0.0022450574   3    1000024    5   -6
    0.0022450574   3   -1000024   -5    6
    0.00051822212   3    1000022    6   -6
    0.00021109392   3    1000023    6   -6
    0.00014382334   3    1000022    5   -5

DECAY 1000021  245.98817
    0.12835367   2    2000006   -6
    0.12835367   2   -2000006    6
    0.12483695   2    1000006   -6
    0.12483695   2   -1000006    6
    0.12145721   2    1000005   -5
    0.12145721   2   -1000005    5
    0.10954695   2    2000005   -5
    0.10954695   2   -2000005    5
    0.015701235   2    1000006   -4
    0.015701235   2   -1000006    4

DECAY 25  0.0034447383
    0.63715446   2   -5    5
    0.16268172   2   -24    24
    0.073737933   2    21    21
    0.073317683   2   -15    15
    0.031009177   2   -4    4
    0.018104873   2    23    23
    0.0023598755   2    22    22
    0.0011445117   2    22    23
    0.00025110248   2   -13    13
    0.00023784116   2   -3    3
    6.5760421e-07   2   -1    1
    1.5981118e-07   2   -2    2
    5.6451158e-09   2   -11    11

DECAY 35  32.176377
    0.81708943   2   -5    5
    0.17112208   2   -15    15
    0.0020021163   2    1000022    1000035
    0.0019625115   2   -2000015    1000015
    0.0019625115   2   -1000015    2000015
    0.0011028407   2   -1000024    1000024
    0.0010540019   2    1000022    1000023
    0.00080447968   2   -13    13
    0.00077314887   2   -1000015    1000015
    0.00054783258   2    1000023    1000023
    0.00050758437   2   -3    3
    0.00045739575   2    1000022    1000025
    0.00039745504   2   -6    6
    0.0001479781   2    1000022    1000022
    6.155962e-05   2    21    21
    4.7811793e-06   2    25    25
    1.4032978e-06   2   -1    1
    1.1267995e-07   2    22    23
    8.8491641e-08   2   -24    24
    8.4457749e-08   2    23    23
    1.8073148e-08   2   -11    11
    1.3819287e-08   2    22    22
    1.0771203e-08   2   -4    4
    5.5540183e-14   2   -2    2

DECAY 36  30.851737
    0.81360499   2   -5    5
    0.17044125   2   -15    15
    0.0035929366   2   -1000024    1000024
    0.0025292146   2   -2000015    1000015
    0.0025292146   2   -1000015    2000015
    0.0022460072   2    1000022    1000025
    0.0017841646   2    1000023    1000023
    0.00088173112   2    1000022    1000023
    0.00080113322   2   -13    13
    0.0005054377   2   -3    3
    0.00042966925   2    1000022    1000035
    0.00041534949   2   -6    6
    0.00016252189   2    1000022    1000022
    7.4105754e-05   2    21    21
    1.3973625e-06   2   -1    1
    5.5712614e-07   2    22    23
    1.7183076e-07   2    22    22
    1.21133e-07   2    23    25
    1.7997965e-08   2   -11    11
    1.0445526e-08   2   -4    4
    5.3894494e-14   2   -2    2
    6.166463e-35   2    25    25

DECAY 37  42.973941
    0.79178907   2   -5    6
    0.19905289   2   -15    16
    0.0032504644   2   -2000015    1000016
    0.0018792792   2    1000022    1000037
    0.0014302009   2    1000022    1000024
    0.0012003665   2   -5    4
    0.00070372547   2   -13    14
    0.00035109289   2   -3    4
    0.00031591693   2   -1000015    1000016
    1.6264566e-05   2   -3    2
    8.5718707e-06   2   -5    2
    9.9440855e-07   2   -3    6
    9.7369113e-07   2   -1    2
    8.8202634e-08   2    24    25
    4.5190344e-08   2   -1    4
    2.2798565e-08   2   -1    6
    1.6460212e-08   2   -11    12
    9.8224791e-09   2    1000023    1000024
    5.9231763e-11   2    24    35
    3.7396836e-11   2    24    36

DECAY 6  2.43
    1   2    5    24

DECAY 15 -1
