BLOCK SPINFO
   1   SPheno
   2   v4.0.5be

BLOCK SPHENOINFO
   1   2
   2   2

BLOCK MODSEL
   1   0

BLOCK MINPAR
   3    24.393996
   4    1

BLOCK EXTPAR
   0    1673.5579
   1    483.3576
   2   -1446.8082
   3    3000
   11   -3680.1498
   12   -805.46056
   13   -454.59971
   23    1903.1636
   25    23.530685
   26    4346.1559
   31    1888.3506
   32    1888.3506
   33    1723.7946
   34    1995.8666
   35    1995.8666
   36    1566.1008
   41    5000
   42    5000
   43    1596.2942
   44    5000
   45    5000
   46    1767.0551
   47    5000
   48    5000
   49    797.38927

BLOCK SMINPUTS
   1    127.90897
   2    1.1663787e-05
   3    0.1184
   4    91.1876
   5    4.18
   6    173.2
   7    1.777
   8    0
   11    0.00051099893
   12    0
   13    0.10565837
   14    0
   21    0.005
   22    0.0025
   23    0.095
   24    1.27

BLOCK GAUGE Q=  1673.5579
   1    0.35536298
   2    0.66519887
   3    1.219778

BLOCK YU Q=  1673.5579
   1   1    8.39194e-06
   2   2    0.0042631055
   3   3    1.0138138

BLOCK YD Q=  1673.5579
   1   1    0.00039680506
   2   2    0.0075392961
   3   3    0.39350628

BLOCK YE Q=  1673.5579
   1   1    6.9245384e-05
   2   2    0.014317749
   3   3    0.24080099

BLOCK AU Q=  1673.5579
   1   1    0
   2   2    0
   3   3   -3680.1502

BLOCK AD Q=  1673.5579
   1   1    0
   2   2    0
   3   3   -805.46011

BLOCK AE Q=  1673.5579
   1   1    0
   2   2    0
   3   3   -454.59971

BLOCK MSOFT Q=  1673.5579
   1    483.3576
   2   -1446.8082
   3    3000
   21    15235874
   22   -3542162.6
   31    1888.3506
   32    1888.3506
   33    1723.7946
   34    1995.8666
   35    1995.8666
   36    1566.1008
   41    5000
   42    5000
   43    1596.2942
   44    5000
   45    5000
   46    1767.0551
   47    5000
   48    5000
   49    797.38927

BLOCK MASS
   6    173.2
   23    91.1876
   24    80.429995
   15    1.777
   25    123.45877
   35    4345.1985
   36    4346.1559
   37    4346.4073
   1000001    5033.5087
   2000001    5024.3299
   1000002    5033.064
   2000002    5027.2572
   1000003    5033.5136
   2000003    5024.3284
   1000004    5033.0655
   2000004    5027.2578
   1000005    808.88315
   2000005    1627.073
   1000006    1517.817
   2000006    1845.2792
   1000011    1899.6573
   2000011    1994.8379
   1000012    1897.6338
   1000013    1899.6463
   2000013    1994.8574
   1000014    1897.6376
   1000015    1563.5926
   2000015    1740.2613
   1000016    1735.0984
   1000021    3201.3691
   1000022    484.03733
   1000023   -1495.4408
   1000025    1900.6605
   1000035   -1906.9317
   1000024    1495.4585
   1000037    1907.2076

BLOCK ALPHA
      -0.041014823

BLOCK HMIX Q=  1673.5579
   1    1903.1636
   2    23.530685
   3    243.89368
   4    18889071

BLOCK STOPMIX
   1   1    0.83258942
   1   2    0.55389065
   2   1   -0.55389065
   2   2    0.83258942

BLOCK SBOTMIX
   1   1    0.042042456
   1   2    0.99911582
   2   1   -0.99911582
   2   2    0.042042456

BLOCK STAUMIX
   1   1    0.13281781
   1   2    0.99114047
   2   1   -0.99114047
   2   2    0.13281781

BLOCK NMIX
   1   1   -0.99964958
   1   2   -0.00038463796
   1   3   -0.025349187
   1   4    0.0076147082
   2   1   -0.0015462852
   2   2   -0.99237603
   2   3    0.098345273
   2   4    0.074267311
   3   1    0.0233098
   3   2   -0.017144475
   3   3   -0.70657407
   3   4    0.70704724
   4   1   -0.012448907
   4   2    0.12204809
   4   3    0.70031329
   4   4    0.70321446

BLOCK UMIX
   1   1   -0.98991789
   1   2    0.14164239
   2   1   -0.14164239
   2   2   -0.98991789

BLOCK VMIX
   1   1    0.99420136
   1   2    0.10753446
   2   1    0.10753446
   2   2   -0.99420136

BLOCK HIGGSBOUNDSINPUTHIGGSCOUPLINGSFERMIONS
       0, 553.69316,3,36,15,15

BLOCK HIGGSBOUNDSINPUTHIGGSCOUPLINGSBOSONS
       0,4,36,21,21,23

BLOCK SPHENOLOWENERGY
   1    0.00030354096
   2    1.5925947e-06
   3    3.5246102e-05
   4    2.0847635e-15
   5    8.905864e-11
   6    1.8638549e-08
   7    7.0016419e-14
   8    2.9910964e-09
   9    6.3427596e-07
   10    9.6679134e-05
   11    0.99865844
   12    0.54199273
   13    19.365058
   14    0
   15    0
   16    0.0021573015
   17    2.2816581e-15
   18    2.4807688e-11
   19    8.2915928e-11
   20   -1.7949913e-15
   21   -7.6741357e-11
   22   -2.1619874e-08
   23    0
   24    0
   25    0
   26    0
   27    0
   28    0
   29    0
   30    0
   31    0
   39    5.7978184e-05
   40    0
   41    0
   42    0

BLOCK FWCOEF Q=  160
   305   4422   0   0   -0.18881911
   305   4422   0   2   -0.16846744
   305   4322   0   2    0.00010259156
   305   6421   0   0   -0.095227835
   305   6421   0   2   -0.085844049
   305   6321   0   2   -1.7803453e-05
   3051111   4133   0   0    1.5958035
   3051111   4133   0   2    1.5961572
   3051111   4233   0   2    8.6815624e-05
   3051111   4137   0   0   -4.4184956
   3051111   4137   0   2   -4.4162012
   3051111   4237   0   2   -0.00067113511
   3051313   4133   0   0    1.5958035
   3051313   4133   0   2    1.5961564
   3051313   4233   0   2    8.6815559e-05
   3051313   4137   0   0   -4.4184956
   3051313   4137   0   2   -4.4162019
   3051313   4237   0   2   -0.00067113526
   3051212   4137   0   0    1.5053501
   3051212   4137   0   2    1.5048556
   3051212   4237   0   2    0.00014613317
   3051414   4137   0   0    1.5053501
   3051414   4137   0   2    1.5048556
   3051414   4237   0   2    0.00014613317
   3051616   4137   0   0    1.5053501
   3051616   4137   0   2    1.5048556
   3051616   4237   0   2    0.00014613373

BLOCK IMFWCOEF Q=  160
   305   4422   0   0    3.8588988e-07
   305   4422   0   2   -1.9678907e-06
   305   4322   0   2    2.9991332e-06
   305   6421   0   0    3.305402e-07
   305   6421   0   2   -1.6631235e-05
   305   6321   0   2    1.2651611e-06
   3051111   4133   0   2   -2.0282291e-06
   3051111   4233   0   2    1.6908585e-06
   3051111   4137   0   2    1.702963e-05
   3051111   4237   0   2   -1.3074127e-05
   3051313   4133   0   2   -2.0282269e-06
   3051313   4233   0   2    1.6908576e-06
   3051313   4137   0   2    1.7029641e-05
   3051313   4237   0   2   -1.307413e-05
   3051212   4137   0   2   -3.6116409e-06
   3051212   4237   0   2    2.8467742e-06
   3051414   4137   0   2   -3.6116409e-06
   3051414   4237   0   2    2.8467742e-06
   3051616   4137   0   2   -3.6117357e-06
   3051616   4237   0   2    2.8467727e-06

DECAY 23  2.4952


DECAY 24  2.085


DECAY 1000011  5.6506307
    0.41938041   2   -1000024    12
    0.3695195   2    1000022    11
    0.21110009   2    1000023    11

DECAY 2000011  8.8716398
    0.99999296   2    1000022    11

DECAY 1000013  5.6504737
    0.41937379   2   -1000024    14
    0.36952783   2    1000022    13
    0.21109837   2    1000023    13

DECAY 2000013  8.8719224
    0.99997384   2    1000022    13

DECAY 1000015  6.3501552
    0.99921621   2    1000022    15
    0.00052353815   2   -1000024    16
    0.00026025589   2    1000023    15

DECAY 2000015  3.7419227
    0.52093231   2    1000022    15
    0.26588175   2   -1000024    16
    0.13413781   2    1000023    15
    0.041739774   2    1000015    25
    0.037308358   2    1000015    23

DECAY 1000012  5.6297421
    0.42119027   2    1000024    11
    0.36932016   2    1000022    12
    0.20948957   2    1000023    12

DECAY 1000014  5.6298269
    0.42119486   2    1000024    13
    0.36931555   2    1000022    14
    0.20948959   2    1000023    14

DECAY 1000016  3.6342246
    0.50892634   2    1000022    16
    0.27562429   2    1000024    15
    0.1366409   2    1000023    16
    0.078808479   2    1000015    24

DECAY 2000001  142.68773
    0.98070782   2    1000021    1
    0.019281905   2    1000022    1

DECAY 1000001  196.70718
    0.71624101   2    1000021    1
    0.18349142   2   -1000024    2
    0.092151179   2    1000023    1
    0.0034881877   2    1000022    1
    0.0033147984   2   -1000037    2
    0.0012758209   2    1000035    1

DECAY 2000003  142.6959
    0.9806506   2    1000021    3
    0.01928082   2    1000022    3

DECAY 1000003  196.71329
    0.71622141   2    1000021    3
    0.18348599   2   -1000024    4
    0.09214867   2    1000023    3
    0.0034881011   2    1000022    3
    0.0033214817   2   -1000037    4
    0.0012861736   2    1000035    3

DECAY 1000005  0.18743415
    1   2    1000022    5

DECAY 2000005  5.4131532
    0.48123276   2    1000005    25
    0.25369456   2    1000006   -24
    0.19961278   2    1000005    23
    0.034310254   2    1000022    5
    0.031149651   2    1000023    5

DECAY 2000002  151.25702
    0.92715977   2    1000021    2
    0.072802024   2    1000022    2

DECAY 1000002  196.69477
    0.71605104   2    1000021    2
    0.18507183   2    1000024    1
    0.09224803   2    1000023    2
    0.0035183665   2    1000022    2
    0.001910479   2    1000037    1
    0.0011862778   2    1000035    2

DECAY 2000004  151.25969
    0.92714342   2    1000021    4
    0.072800736   2    1000022    4

DECAY 1000004  196.70038
    0.71603104   2    1000021    4
    0.18506712   2    1000024    3
    0.09224548   2    1000023    4
    0.0035182672   2    1000022    4
    0.0019311477   2    1000037    3
    0.0011895688   2    1000035    4

DECAY 1000006  2.1086813
    0.49677057   2    1000005    24
    0.48330611   2    1000022    6
    0.01466943   2    1000022    4
    0.0030178099   2    1000024    5
    0.0017549227   3    1000022    24    5
    0.0004811523   2    1000023    4

DECAY 2000006  33.575198
    0.40539925   2    1000006    23
    0.3448565   2    2000005    24
    0.10272262   2    1000006    25
    0.071188792   2    1000022    6
    0.036025701   2    1000005    24
    0.027068654   2    1000024    5
    0.012738494   2    1000023    6

DECAY 1000024  0.16863215
    0.93987118   2   -1000005    6
    0.053760246   2    1000022    24
    0.0034927863   3    1000022   -5    6
    0.001471063   3    1000022   -15    16
    0.00070026491   3    1000022   -13    14
    0.00070021829   3    1000022   -11    12

DECAY 1000037  20.868435
    0.28732368   2   -1000005    6
    0.18026993   2    1000006   -5
    0.14417128   2   -2000005    6
    0.11042406   2    1000023    24
    0.1028757   2    1000024    25
    0.093515606   2    1000024    23
    0.063796967   2    1000022    24
    0.0073550616   2    2000006   -5
    0.0048925458   2   -1000015    16
    0.0021240898   3    1000022   -5    6
    0.0016822673   2    1000016   -15
    0.0010609494   3    1000023   -5    6
    0.00039837414   2   -2000015    16
    0.00010739844   3    1000024    6   -6

DECAY 1000022 -1


DECAY 1000023  0.16505291
    0.46007956   2    1000005   -5
    0.46007956   2   -1000005    5
    0.046676172   2    1000022    23
    0.025727457   2    1000022    25
    0.0026528197   3    1000022    12   -12
    0.0014004183   3    1000022    15   -15
    0.0012940541   3    1000022    6   -6
    0.00069837973   3    1000022    13   -13
    0.00069832086   3    1000022    11   -11
    0.00068119696   3    1000022    5   -5

DECAY 1000025  26.371554
    0.18853325   2    1000006   -6
    0.18853325   2   -1000006    6
    0.11108033   2    1000005   -5
    0.11108033   2   -1000005    5
    0.098065484   2    1000023    25
    0.078118691   2    1000023    23
    0.073126767   2    1000024   -24
    0.073126767   2   -1000024    24
    0.03563649   2    1000022    25
    0.011901557   2    2000005   -5
    0.011901557   2   -2000005    5
    0.011412548   2    1000022    23
    0.0021333582   2    1000015   -15
    0.0021333582   2   -1000015    15
    0.00095739283   3    1000022    6   -6
    0.00055504617   3    1000024    5   -6
    0.00055504617   3   -1000024   -5    6
    0.00055234772   2    2000015   -15
    0.00055234772   2   -2000015    15

DECAY 1000035  25.924854
    0.21715055   2    1000006   -6
    0.21715055   2   -1000006    6
    0.1100937   2    1000005   -5
    0.1100937   2   -1000005    5
    0.082077984   2    1000023    25
    0.078419073   2    1000024   -24
    0.078419073   2   -1000024    24
    0.039944656   2    1000022    23
    0.030744106   2    1000022    25
    0.013010224   2    2000005   -5
    0.013010224   2   -2000005    5
    0.0020324152   2    1000015   -15
    0.0020324152   2   -1000015    15
    0.0015395039   2    1000023    23
    0.00097069953   3    1000022    6   -6
    0.0008720321   3    1000024    5   -6
    0.0008720321   3   -1000024   -5    6
    0.00068972598   2    2000015   -15
    0.00068972598   2   -2000015    15

DECAY 1000021  243.71919
    0.17033544   2    1000005   -5
    0.17033544   2   -1000005    5
    0.10697428   2    2000005   -5
    0.10697428   2   -2000005    5
    0.10161924   2    1000006   -6
    0.10161924   2   -1000006    6
    0.099143665   2    2000006   -6
    0.099143665   2   -2000006    6
    0.021064062   2    1000006   -4
    0.021064062   2   -1000006    4
    0.00027126379   3    1000024    5   -6
    0.00027126379   3   -1000024   -5    6
    0.00025426346   3    1000025    6   -6
    0.00024358525   3    1000037    5   -6
    0.00024358525   3   -1000037   -5    6
    0.00022418679   3    1000035    6   -6

DECAY 25  0.0036750645
    0.59644594   2   -5    5
    0.20458422   2   -24    24
    0.072853162   2    21    21
    0.068399303   2   -15    15
    0.029514287   2   -4    4
    0.024012117   2    23    23
    0.0023552388   2    22    22
    0.0013739491   2    22    23
    0.00023722801   2   -13    13
    0.00022377757   2   -3    3
    6.1872165e-07   2   -1    1
    1.5209867e-07   2   -2    2
    5.3331688e-09   2   -11    11

DECAY 35  67.283609
    0.18772637   2   -5    5
    0.17057299   2   -1000006    1000006
    0.1213636   2   -2000006    2000006
    0.11039603   2   -1000024    1000037
    0.11039603   2   -1000037    1000024
    0.074110703   2    1000023    1000025
    0.068407284   2   -15    15
    0.034277765   2    1000023    1000035
    0.028337022   2   -2000006    1000006
    0.028337022   2   -1000006    2000006
    0.027860315   2    1000022    1000035
    0.019029713   2    1000022    1000025
    0.0041947702   2   -1000024    1000024
    0.0031856774   2   -6    6
    0.0025182112   2   -2000005    1000005
    0.0025182112   2   -1000005    2000005
    0.002091578   2    1000023    1000023
    0.0013996524   2    1000025    1000035
    0.0012800558   2    1000022    1000023
    0.00061500952   2   -1000037    1000037
    0.00046422849   2    1000035    1000035
    0.00023872646   2   -13    13
    0.00017093171   2   -2000015    1000015
    0.00017093171   2   -1000015    2000015
    0.00012766844   2   -3    3
    8.1277591e-05   2    1000022    1000022
    3.0381639e-05   2    25    25
    2.3546333e-05   2    1000025    1000025
    2.1684528e-05   2   -1000005    1000005
    1.9864189e-05   2   -1000015    1000015
    1.4901708e-05   2   -2000015    2000015
    1.133985e-05   2   -2000005    2000005
    4.4332498e-06   2    21    21
    3.5295052e-07   2   -1    1
    3.3414241e-07   2    23    23
    9.0603497e-08   2    22    23
    8.0376687e-08   2   -4    4
    7.6209476e-08   2   -1000011    1000011
    7.4090827e-08   2   -1000013    1000013
    7.3687178e-08   2    22    22
    6.4232365e-08   2   -24    24
    4.0478144e-08   2   -2000013    2000013
    3.9382918e-08   2   -2000011    2000011
    1.9804779e-08   2   -2000013    1000013
    1.9804779e-08   2   -1000013    2000013
    5.3610626e-09   2   -11    11
    4.6349173e-13   2   -2000011    1000011
    4.6349173e-13   2   -1000011    2000011
    4.1443138e-13   2   -2    2

DECAY 36  66.727262
    0.18070166   2   -5    5
    0.17790559   2   -2000006    1000006
    0.17790559   2   -1000006    2000006
    0.10932135   2   -1000024    1000037
    0.10932135   2   -1000037    1000024
    0.071499287   2    1000023    1000035
    0.065877493   2   -15    15
    0.036334817   2    1000023    1000025
    0.028948304   2    1000022    1000025
    0.01858343   2    1000022    1000035
    0.0066983832   2   -1000024    1000024
    0.0033381693   2    1000023    1000023
    0.0025559222   2   -2000005    1000005
    0.0025559222   2   -1000005    2000005
    0.0021913777   2   -1000037    1000037
    0.0021816408   2   -6    6
    0.0017491537   2    1000035    1000035
    0.0010205302   2    1000022    1000023
    0.00035878675   2    1000025    1000035
    0.0002299   2   -13    13
    0.00018992711   2   -2000015    1000015
    0.00018992711   2   -1000015    2000015
    0.00012295213   2   -3    3
    0.00012112531   2    1000025    1000025
    9.0465224e-05   2    1000022    1000022
    5.6682968e-06   2    21    21
    7.8115248e-07   2    23    25
    3.3991132e-07   2   -1    1
    5.6025843e-08   2    22    23
    5.5333497e-08   2   -4    4
    1.9780208e-08   2   -2000013    1000013
    1.9780208e-08   2   -1000013    2000013
    8.0434934e-09   2    22    22
    5.1628381e-09   2   -11    11
    4.6266081e-13   2   -2000011    1000011
    4.6266081e-13   2   -1000011    2000011
    2.8531805e-13   2   -2    2
    4.4102582e-37   2    25    25

DECAY 37  64.221775
    0.27735035   2   -5    6
    0.16102997   2   -2000005    2000006
    0.11863026   2    1000023    1000037
    0.11728448   2    1000024    1000035
    0.11630433   2    1000024    1000025
    0.080539584   2   -15    16
    0.068816721   2   -2000005    1000006
    0.048529128   2    1000022    1000037
    0.0045817256   2   -1000005    2000006
    0.0023996848   2    1000022    1000024
    0.0019677571   2   -1000005    1000006
    0.0012915237   2    1000025    1000037
    0.00040522213   2   -5    4
    0.00038950274   2   -1000015    1000016
    0.00028473608   2   -13    14
    0.0001253661   2   -3    4
    4.6431133e-05   2    1000035    1000037
    6.3401163e-06   2   -3    6
    5.9547299e-06   2   -2000015    1000016
    5.8934009e-06   2   -3    2
    2.8937031e-06   2   -5    2
    8.120085e-07   2    24    25
    3.4758058e-07   2   -1    2
    3.1424842e-07   2   -1000011    1000012
    3.1108419e-07   2   -1000013    1000014
    2.8221229e-07   2   -1    6
    4.3760409e-08   2   -2000013    1000014
    1.8869331e-08   2   -1    4
    6.6600065e-09   2   -11    12
    6.5489727e-09   2    1000023    1000024
    1.0237573e-12   2   -2000011    1000012
    5.472169e-14   2    24    35

DECAY 6  2.43
    1   2    5    24

DECAY 15 -1
