BLOCK SPINFO
   1   SPheno
   2   v4.0.5be

BLOCK SPHENOINFO
   1   2
   2   2

BLOCK MODSEL
   1   0

BLOCK MINPAR
   3    53.150872
   4    1

BLOCK EXTPAR
   0    2505.302
   1   -571.00145
   2    2545.1589
   3    3323.7322
   11   -6184.6604
   12    2210.935
   13    1114.7976
   23    2507.8229
   25    51.981527
   26    3133.0942
   31    4918.0544
   32    4918.0544
   33    2025.0164
   34    1565.3879
   35    1565.3879
   36    1006.7029
   41    3950.1864
   42    3950.1864
   43    1288.2728
   44    398.6781
   45    398.6781
   46    4344.256
   47    976.82222
   48    976.82222
   49    2007.7658

BLOCK SMINPUTS
   1    127.90897
   2    1.1663787e-05
   3    0.1184
   4    91.1876
   5    4.18
   6    173.2
   7    1.777
   8    0
   11    0.00051099893
   12    0
   13    0.10565837
   14    0
   21    0.005
   22    0.0025
   23    0.095
   24    1.27

BLOCK GAUGE Q=  2505.302
   1    0.35536298
   2    0.66519887
   3    1.219778

BLOCK YU Q=  2505.302
   1   1    8.3859235e-06
   2   2    0.0042600491
   3   3    1.0130869

BLOCK YD Q=  2505.302
   1   1    0.00087595172
   2   2    0.016643083
   3   3    0.86866963

BLOCK YE Q=  2505.302
   1   1    0.00015285998
   2   2    0.031606596
   3   3    0.53157095

BLOCK AU Q=  2505.302
   1   1    0
   2   2    0
   3   3   -6184.6609

BLOCK AD Q=  2505.302
   1   1    0
   2   2    0
   3   3    2210.9345

BLOCK AE Q=  2505.302
   1   1    0
   2   2    0
   3   3    1114.7976

BLOCK MSOFT Q=  2505.302
   1   -571.00145
   2    2545.1589
   3    3323.7322
   21    3552985.1
   22   -6515169.3
   31    4918.0544
   32    4918.0544
   33    2025.0164
   34    1565.3879
   35    1565.3879
   36    1006.7029
   41    3950.1864
   42    3950.1864
   43    1288.2728
   44    398.6781
   45    398.6781
   46    4344.256
   47    976.82222
   48    976.82222
   49    2007.7658

BLOCK MASS
   6    173.2
   23    91.1876
   24    80.429995
   15    1.777
   25    125.54068
   35    3132.182
   36    3133.0942
   37    3133.4464
   1000001    4030.0527
   2000001    1085.0809
   1000002    4029.3697
   2000002    589.49146
   1000003    4030.0508
   2000003    1085.0839
   1000004    4029.3677
   2000004    589.49402
   1000005    1450.4453
   2000005    2095.6228
   1000006    1445.2207
   2000006    4342.9615
   1000011    4929.708
   2000011    1556.2166
   1000012    4928.6646
   1000013    4929.6885
   2000013    1556.2988
   1000014    4928.6553
   1000015    963.66952
   2000015    2046.5161
   1000016    2038.5036
   1000021    3437.0862
   1000022   -561.48269
   1000023    2464.356
   1000025   -2494.521
   1000035    2609.3112
   1000024    2464.9139
   1000037    2609.6271

BLOCK ALPHA
      -0.018851181

BLOCK HMIX Q=  2505.302
   1    2507.8229
   2    51.981527
   3    243.47836
   4    9816279.3

BLOCK STOPMIX
   1   1    0.99860134
   1   2    0.052871197
   2   1   -0.052871197
   2   2    0.99860134

BLOCK SBOTMIX
   1   1    0.99599977
   1   2    0.089355796
   2   1   -0.089355796
   2   2    0.99599977

BLOCK STAUMIX
   1   1    0.078619408
   1   2    0.9969047
   2   1   -0.9969047
   2   2    0.078619408

BLOCK NMIX
   1   1    0.99982879
   1   2    7.2587354e-05
   1   3    0.018146658
   1   4    0.0036180613
   2   1   -0.0090101559
   2   2   -0.48889581
   2   3    0.62060534
   2   4   -0.61298346
   3   1    0.015388013
   3   2   -0.010843278
   3   3   -0.7067983
   3   4   -0.70716462
   4   1    0.0049419586
   4   2   -0.87227479
   4   3   -0.33905144
   4   4    0.35235833

BLOCK UMIX
   1   1   -0.44403261
   1   2    0.89601063
   2   1    0.89601063
   2   2    0.44403261

BLOCK VMIX
   1   1   -0.46334994
   1   2    0.88617539
   2   1    0.88617539
   2   2    0.46334994

BLOCK HIGGSBOUNDSINPUTHIGGSCOUPLINGSFERMIONS
       0, 2702.0791,3,36,15,15

BLOCK HIGGSBOUNDSINPUTHIGGSCOUPLINGSBOSONS
       0,4,36,21,21,23

BLOCK SPHENOLOWENERGY
   1    0.00030367589
   2    1.5943178e-06
   3    3.5280876e-05
   4    1.5036881e-15
   5    6.4235529e-11
   6    1.3429908e-08
   7    5.0154647e-14
   8    2.1425955e-09
   9    4.5395248e-07
   10    9.6005924e-05
   11    0.99170444
   12    0.54151286
   13    19.344161
   14    0
   15    0
   16    0.00215603
   17    2.2816468e-15
   18    2.4816494e-11
   19    8.2945125e-11
   20    1.1612215e-15
   21    4.9646988e-11
   22    5.1273811e-09
   23    0
   24    0
   25    0
   26    0
   27    0
   28    0
   29    0
   30    0
   31    0
   39    6.9768398e-05
   40    0
   41    0
   42    0

BLOCK FWCOEF Q=  160
   305   4422   0   0   -0.18881911
   305   4422   0   2   -0.16757361
   305   4322   0   2    0.00022308945
   305   6421   0   0   -0.095227835
   305   6421   0   2   -0.089369749
   305   6321   0   2   -4.2503943e-05
   3051111   4133   0   0    1.6110608
   3051111   4133   0   2    1.6115288
   3051111   4233   0   2    0.00077852311
   3051111   4137   0   0   -4.4337529
   3051111   4137   0   2   -4.4350904
   3051111   4237   0   2   -0.0058973072
   3051313   4133   0   0    1.6110608
   3051313   4133   0   2    1.6115282
   3051313   4233   0   2    0.00077852089
   3051313   4137   0   0   -4.4337529
   3051313   4137   0   2   -4.435091
   3051313   4237   0   2   -0.0058973094
   3051212   4137   0   0    1.5053501
   3051212   4137   0   2    1.5056428
   3051212   4237   0   2    0.0012797168
   3051414   4137   0   0    1.5053501
   3051414   4137   0   2    1.5056428
   3051414   4237   0   2    0.001279717
   3051616   4137   0   0    1.5053501
   3051616   4137   0   2    1.5056423
   3051616   4237   0   2    0.0012797613

BLOCK IMFWCOEF Q=  160
   305   4422   0   0    3.8593117e-07
   305   4422   0   2    5.1825417e-05
   305   4322   0   2    6.1086392e-06
   305   6421   0   0    3.3057557e-07
   305   6421   0   2   -3.9507004e-05
   305   6321   0   2    1.999519e-06
   3051111   4133   0   2    1.0254852e-06
   3051111   4233   0   2    1.5033924e-05
   3051111   4137   0   2   -2.9972477e-06
   3051111   4237   0   2   -0.00011388264
   3051313   4133   0   2    1.0254804e-06
   3051313   4233   0   2    1.5033898e-05
   3051313   4137   0   2   -2.9972451e-06
   3051313   4237   0   2   -0.00011388269
   3051212   4137   0   2    6.9366273e-07
   3051212   4237   0   2    2.4712552e-05
   3051414   4137   0   2    6.9366268e-07
   3051414   4237   0   2    2.4712552e-05
   3051616   4137   0   2    6.8415318e-07
   3051616   4237   0   2    2.4712556e-05

DECAY 23  2.4952


DECAY 24  2.085


DECAY 2000011  5.9140917
    1   2    1000022    11

DECAY 1000011  40.373624
    0.44706484   2   -1000037    12
    0.21060553   2    1000035    11
    0.14941548   2    1000022    11
    0.11920509   2   -1000024    12
    0.07370699   2    1000023    11

DECAY 2000013  5.9145984
    1   2    1000022    13

DECAY 1000013  40.438846
    0.44633928   2   -1000037    14
    0.21040838   2    1000035    13
    0.14917466   2    1000022    13
    0.11901173   2   -1000024    14
    0.074112084   2    1000023    13
    0.00067189475   2    1000025    13
    0.00028190196   2    2000013    25

DECAY 1000015  2.1062137
    1   2    1000022    15

DECAY 2000015  16.963664
    0.49179615   2    1000015    23
    0.37682725   2    1000015    25
    0.1313766   2    1000022    15

DECAY 1000012  40.3775
    0.43702548   2    1000037    11
    0.21303496   2    1000035    12
    0.14928668   2    1000022    12
    0.12972604   2    1000024    11
    0.070818799   2    1000023    12
    0.00010803668   2    1000025    12

DECAY 1000014  40.431547
    0.43668718   2    1000037    13
    0.21274915   2    1000035    14
    0.14908683   2    1000022    14
    0.13064506   2    1000024    13
    0.070723817   2    1000023    14
    0.00010789177   2    1000025    14

DECAY 1000016  18.70888
    0.8831817   2    1000015    24
    0.1168183   2    1000022    16

DECAY 2000001  0.32469845
    1   2    1000022    1

DECAY 1000001  42.741396
    0.55315693   2    1000021    1
    0.22470352   2   -1000037    2
    0.1067304   2    1000035    1
    0.064112335   2   -1000024    2
    0.03862749   2    1000023    1
    0.012639649   2    1000022    1

DECAY 2000003  0.32470135
    1   2    1000022    3

DECAY 1000003  42.754333
    0.55298645   2    1000021    3
    0.22463858   2   -1000037    4
    0.10671836   2    1000035    3
    0.064102143   2   -1000024    4
    0.038693555   2    1000023    3
    0.01263598   2    1000022    3
    0.0001278831   2    1000025    3

DECAY 1000005  0.16923401
    1   2    1000022    5

DECAY 2000005  22.202907
    0.48639036   2    1000005    25
    0.31618298   2    1000006   -24
    0.15305754   2    1000005    23
    0.044369122   2    1000022    5

DECAY 2000002  0.011325411
    1   2    1000022    2

DECAY 1000002  42.720121
    0.55233798   2    1000021    2
    0.21976226   2    1000037    1
    0.10628336   2    1000035    2
    0.069807059   2    1000024    1
    0.039134703   2    1000023    2
    0.012664266   2    1000022    2

DECAY 2000004  0.011312523
    1   2    1000022    4

DECAY 1000004  42.729017
    0.55221798   2    1000021    4
    0.21975121   2    1000037    3
    0.10626299   2    1000035    4
    0.069954582   2    1000024    3
    0.039130872   2    1000023    4
    0.01266162   2    1000022    4

DECAY 1000006  0.22545958
    0.66149552   2    1000022    6
    0.3140728   2    1000022    4
    0.024384592   3    1000022    24    5

DECAY 2000006  378.04594
    0.28630002   2    1000005    24
    0.21196326   2    1000006    25
    0.14422988   2    1000006    23
    0.12148947   2    1000021    6
    0.081557026   2    1000024    5
    0.052557457   2    1000025    6
    0.038999882   2    1000023    6
    0.024672319   2    1000022    6
    0.023360351   2    1000037    5
    0.013387869   2    1000035    6
    0.0014824788   2    2000005    24

DECAY 1000024  65.758113
    0.50763773   2   -1000005    6
    0.35317935   2    1000006   -5
    0.066375461   2   -1000015    16
    0.039169118   2   -2000005    6
    0.018070433   2    1000022    24
    0.012037761   2    1000016   -15
    0.0023771264   2   -2000015    16
    0.00086678075   3    1000022   -5    6
    0.00016168432   2   -2000003    4
    0.00010814371   2   -2000013    14

DECAY 1000037  42.039043
    0.41339127   2    1000006   -5
    0.37950554   2   -1000005    6
    0.039960169   2   -2000005    6
    0.037739996   2    1000016   -15
    0.034363808   2   -2000015    16
    0.026872189   2    1000025    24
    0.023859235   2    1000023    24
    0.016355243   2   -1000015    16
    0.013812489   2    1000024    23
    0.0086039383   2    1000022    24
    0.0049732878   2    1000024    25
    0.00043077547   3    1000022   -5    6

DECAY 1000022 -1


DECAY 1000023  67.439134
    0.2435259   2    1000006   -6
    0.2435259   2   -1000006    6
    0.17055239   2    1000005   -5
    0.17055239   2   -1000005    5
    0.03155562   2    1000015   -15
    0.03155562   2   -1000015    15
    0.022448583   2    2000005   -5
    0.022448583   2   -2000005    5
    0.012607553   2    1000022    25
    0.012160615   2    1000006   -4
    0.012160615   2   -1000006    4
    0.01171501   2    1000022    23
    0.0052966168   2    2000015   -15
    0.0052966168   2   -2000015    15
    0.001878817   2    1000016   -16
    0.001878817   2   -1000016    16
    0.00051106829   3    1000022    6   -6

DECAY 1000025  71.168111
    0.24115167   2    1000006   -6
    0.24115167   2   -1000006    6
    0.17245921   2    1000005   -5
    0.17245921   2   -1000005    5
    0.035511644   2    1000015   -15
    0.035511644   2   -1000015    15
    0.034154349   2    2000005   -5
    0.034154349   2   -2000005    5
    0.01501072   2    1000022    25
    0.0067060055   2    1000022    23
    0.005276654   2    2000015   -15
    0.005276654   2   -2000015    15
    0.00066677983   3    1000022    6   -6

DECAY 1000035  43.147082
    0.19944893   2    1000005   -5
    0.19944893   2   -1000005    5
    0.19529224   2    1000006   -6
    0.19529224   2   -1000006    6
    0.029288123   2    1000025    23
    0.02490108   2    2000005   -5
    0.02490108   2   -2000005    5
    0.018697692   2    2000015   -15
    0.018697692   2   -2000015    15
    0.015468668   2    1000016   -16
    0.015468668   2   -1000016    16
    0.012698229   2    1000024   -24
    0.012698229   2   -1000024    24
    0.009826343   2    1000015   -15
    0.009826343   2   -1000015    15
    0.0070551325   2    1000022    25
    0.0067147142   2    1000022    23
    0.0037734638   2    1000023    25
    0.00030951267   3    1000022    6   -6

DECAY 1000021  567.04764
    0.084508311   2    2000002   -2
    0.084508311   2   -2000002    2
    0.084508266   2    2000004   -4
    0.084508266   2   -2000004    4
    0.072717795   2    2000001   -1
    0.072717795   2   -2000001    1
    0.072717705   2    2000003   -3
    0.072717705   2   -2000003    3
    0.060570286   2    1000005   -5
    0.060570286   2   -1000005    5
    0.059927142   2    1000006   -6
    0.059927142   2   -1000006    6
    0.035432532   2    2000005   -5
    0.035432532   2   -2000005    5
    0.029588502   2    1000006   -4
    0.029588502   2   -1000006    4

DECAY 25  0.0039519473
    0.56578286   2   -5    5
    0.23734801   2   -24    24
    0.07063128   2    21    21
    0.064979684   2   -15    15
    0.029039578   2    23    23
    0.027882863   2   -4    4
    0.0023551212   2    22    22
    0.0015429625   2    22    23
    0.0002253374   2   -13    13
    0.0002115716   2   -3    3
    5.8497221e-07   2   -1    1
    1.4368611e-07   2   -2    2
    5.0658284e-09   2   -11    11

DECAY 35  60.18359
    0.59421487   2   -5    5
    0.38378055   2   -15    15
    0.0047598579   2   -2000015    1000015
    0.0047598579   2   -1000015    2000015
    0.0040446048   2   -1000005    1000005
    0.0036480567   2   -1000006    1000006
    0.0025856459   2    1000022    1000023
    0.0011480489   2   -13    13
    0.00036104094   2   -1000015    1000015
    0.00028689904   2   -3    3
    0.00019791153   2   -6    6
    0.0001501233   2    1000022    1000025
    3.2250047e-05   2    1000022    1000022
    2.5807242e-05   2    21    21
    2.8794098e-06   2    25    25
    7.9349554e-07   2   -1    1
    2.3604671e-07   2   -1000002    1000002
    2.3596919e-07   2   -1000004    1000004
    1.5096055e-07   2    23    23
    6.3908149e-08   2    22    23
    4.3085546e-08   2   -24    24
    2.7715e-08   2    22    22
    2.5784101e-08   2   -11    11
    8.5250655e-09   2   -1000001    1000001
    8.4750832e-09   2   -1000003    1000003
    1.3050966e-09   2   -4    4
    3.9074933e-10   2   -1000011    1000011
    3.8717524e-10   2   -1000013    1000013
    6.7459688e-15   2   -2    2

DECAY 36  56.227739
    0.59848265   2   -5    5
    0.38641096   2   -15    15
    0.0052324887   2   -2000015    1000015
    0.0052324887   2   -1000015    2000015
    0.0027957884   2    1000022    1000025
    0.0011558941   2   -13    13
    0.00028883944   2   -3    3
    0.00028479618   2    1000022    1000023
    5.7569587e-05   2   -6    6
    3.919737e-05   2    1000022    1000022
    1.8206198e-05   2    21    21
    7.9886318e-07   2   -1    1
    2.7147358e-07   2    23    25
    2.5960447e-08   2   -11    11
    1.5687982e-08   2    22    22
    3.0077186e-09   2    22    23
    1.4623133e-10   2   -4    4
    7.5301158e-16   2   -2    2
    3.0176167e-36   2    25    25

DECAY 37  76.204065
    0.75105658   2   -5    6
    0.23230585   2   -15    16
    0.0079065363   2   -1000015    1000016
    0.0042990167   2   -1000005    1000006
    0.0022620864   2    1000022    1000024
    0.0011130895   2   -5    4
    0.00082128407   2   -13    14
    0.00021548225   2   -3    4
    1.0097374e-05   2   -3    2
    7.9486076e-06   2   -5    2
    1.1332457e-06   2   -3    6
    5.9744468e-07   2   -1    2
    2.0049084e-07   2    24    25
    3.7327806e-08   2   -1    6
    2.8255753e-08   2   -1    4
    1.920992e-08   2   -11    12
    1.5855723e-08   2   -1000005    1000004
    6.3863923e-11   2   -1000003    1000006
    3.9801821e-11   2   -2000005    1000004
    8.4208712e-12   2   -1000003    1000004
    5.7736136e-14   2    24    35
    8.1076834e-15   2   -1000001    1000006
    1.2470121e-15   2   -1000001    1000004
    5.9388427e-16   2   -1000005    1000002
    2.36589e-18   2   -1000003    1000002
    1.4907986e-18   2   -2000005    1000002
    1.2246511e-19   2   -1000001    1000002

DECAY 6  2.43
    1   2    5    24

DECAY 15 -1
