Define dm_incohMix_B_s0 0.0e12
Define dm_incohMix_B0 0.0e12
Alias phiR phi
Alias my_0_1_0_phi phi
Alias my_1_1_0_anti-D0 anti-D0
Alias my_1_1_0_omega omega
Alias my_2_1_0_anti-D0 anti-D0
Alias my_2_2_0_omega omega
Alias my_3_1_0_anti-D0 anti-D0
Alias my_3_1_0_rho0 rho0
Alias my_4_1_0_anti-D0 anti-D0
Alias my_4_2_0_a_1- a_1-
Alias my_4_3_0_rho0 rho0
Alias my_5_1_0_anti-D0 anti-D0
Alias my_5_1_0_D_s+ D_s+
Alias my_5_2_0_phiR phiR
Alias my_6_1_0_anti-D0 anti-D0
Alias my_6_2_0_K*0 K*0
Alias my_6_2_0_omega omega
Alias my_7_1_0_phi phi
Alias my_8_1_0_phi phi
Alias my_8_1_0_rho0 rho0
Alias my_9_1_0_a_1+ a_1+
Alias my_9_1_0_anti-D0 anti-D0
Alias my_9_2_0_rho0 rho0
Alias my_10_1_0_anti-D0 anti-D0
Alias my_10_2_0_K*0 K*0
Alias my_10_2_0_rho0 rho0
Alias my_11_1_0_D_s- D_s-
Alias my_11_2_0_phiR phiR
Alias my_12_1_0_phi phi
Alias my_12_1_0_K_0*0 K_0*0
Alias my_13_1_0_D- D-
Alias my_13_2_0_phiR phiR
Alias my_14_1_0_anti-D0 anti-D0
Alias my_14_1_0_omega omega
Alias my_15_1_0_phi phi
Alias my_15_1_0_f_0 f_0
Alias my_16_1_0_anti-D0 anti-D0
Alias my_16_2_0_phi phi
Alias my_17_1_0_anti-D0 anti-D0
Alias my_17_2_0_rho0 rho0
Alias my_18_1_0_omega omega
Alias my_19_1_0_omega omega
Alias my_19_1_0_rho0 rho0
Alias my_20_1_0_eta_c eta_c
Alias my_20_2_0_phi phi
Alias my_21_1_0_anti-D0 anti-D0
Alias my_21_1_0_rho0 rho0
Alias my_22_1_0_anti-D0 anti-D0
Alias my_22_2_0_K_1+ K_1+
Alias my_22_3_0_omega omega
Alias my_23_1_0_phi phi
Alias my_23_1_1_phi phi
Alias my_24_1_0_anti-D0 anti-D0
Alias my_24_2_0_omega omega
Alias my_25_1_0_anti-D_0*0 anti-D_0*0
Alias my_25_2_0_D- D-
Alias my_25_3_0_phiR phiR
Alias my_26_1_0_anti-D0 anti-D0
Alias my_26_2_0_omega omega
Alias my_27_1_0_omega omega
Alias my_27_1_0_K*0 K*0
Alias my_28_1_0_anti-D0 anti-D0
Alias my_28_1_0_omega omega
Alias my_29_1_0_anti-D0 anti-D0
Alias my_29_2_0_K_1+ K_1+
Alias my_29_3_0_rho0 rho0
Alias my_30_1_0_rho0 rho0
Alias my_31_1_0_rho0 rho0
Alias my_31_1_1_rho0 rho0
Alias my_32_1_0_anti-D0 anti-D0
Alias my_32_1_0_D_s+ D_s+
Alias my_32_2_0_phiR phiR
Alias my_33_1_0_omega omega
Alias my_33_1_0_f_0 f_0
Alias my_34_1_0_anti-D0 anti-D0
Alias my_34_2_0_a_1- a_1-
Alias my_34_3_0_rho0 rho0
Alias my_35_1_0_eta_c eta_c
Alias my_35_2_0_phi phi
Alias my_35_2_1_phi phi
Alias my_36_1_0_anti-D0 anti-D0
Alias my_36_2_0_rho0 rho0
Alias my_36_2_1_rho0 rho0
Alias my_37_1_0_J/psi J/psi
Alias my_37_2_0_omega omega
Alias my_38_1_0_phi phi
Alias my_38_1_0_f_0 f_0
Alias my_39_1_0_rho0 rho0
Alias my_39_1_0_D_s+ D_s+
Alias my_39_2_0_phiR phiR
Alias my_40_1_0_eta_c eta_c
Alias my_40_2_0_rho0 rho0
Alias my_40_2_1_rho0 rho0
Alias my_41_1_0_anti-D_2*0 anti-D_2*0
Alias my_41_2_0_D- D-
Alias my_41_3_0_phiR phiR
Alias my_42_1_0_rho0 rho0
Alias my_42_1_0_K_0*0 K_0*0
Alias my_43_1_0_rho0 rho0
Alias my_43_1_0_K*0 K*0
Alias my_44_1_0_a_1+ a_1+
Alias my_44_1_0_omega omega
Alias my_44_2_0_rho0 rho0
Alias my_45_1_0_anti-D0 anti-D0
Alias my_45_1_0_rho0 rho0
Alias my_46_1_0_phi phi
Alias my_47_1_0_phi phi
Alias my_48_1_0_phi phi
Alias my_48_1_0_rho0 rho0
Alias my_49_1_0_a_1+ a_1+
Alias my_49_1_0_anti-D0 anti-D0
Alias my_49_2_0_rho0 rho0
Alias my_50_1_0_J/psi J/psi
Alias my_50_2_0_phi phi
Alias my_51_1_0_phi phi
Alias my_51_1_0_K_2*+ K_2*+
Alias my_51_2_0_K*0 K*0
Alias my_52_1_0_phi phi
Alias my_52_1_0_K_1+ K_1+
Alias my_53_1_0_J/psi J/psi
Alias my_53_2_0_phi phi
Alias my_54_1_0_anti-D0 anti-D0
Alias my_54_2_0_eta eta
Alias my_55_1_0_phi phi
Alias my_55_1_0_K_1+ K_1+
Alias my_55_2_0_rho0 rho0
Alias my_56_1_0_phi phi
Alias my_56_1_0_K'_1+ K'_1+
Alias my_56_2_0_K*0 K*0
Alias my_57_1_0_anti-D0 anti-D0
Alias my_57_2_0_K*0 K*0
Alias my_57_2_0_omega omega
Alias my_58_1_0_rho0 rho0
Alias my_58_1_0_f_0 f_0
Alias my_59_1_0_phi phi
Alias my_59_1_0_rho0 rho0
Alias my_60_1_0_J/psi J/psi
Alias my_60_2_0_omega omega
Alias my_60_2_0_f_2 f_2
Alias my_61_1_0_omega omega
Alias my_61_1_0_K_2*+ K_2*+
Alias my_61_2_0_K*0 K*0
Alias my_62_1_0_eta_c eta_c
Alias my_62_2_0_eta eta
Alias my_63_1_0_phi phi
Alias my_63_1_0_a_1+ a_1+
Alias my_63_2_0_rho0 rho0
Alias my_64_1_0_rho0 rho0
Alias my_64_1_0_b_1+ b_1+
Alias my_64_2_0_omega omega
Alias my_65_1_0_K*0 K*0
Alias my_65_1_0_b_1+ b_1+
Alias my_65_2_0_omega omega
Alias my_66_1_0_anti-D0 anti-D0
Alias my_66_2_0_K*0 K*0
Alias my_66_2_0_rho0 rho0
Alias my_67_1_0_eta' eta'
Alias my_67_2_0_eta eta
Alias cc_my_1_1_0_anti-D0 D0
Alias cc_my_2_1_0_anti-D0 D0
Alias cc_my_3_1_0_anti-D0 D0
Alias cc_my_4_1_0_anti-D0 D0
Alias cc_my_4_2_0_a_1- a_1+
Alias cc_my_5_1_0_anti-D0 D0
Alias cc_my_5_1_0_D_s+ D_s-
Alias cc_my_6_1_0_anti-D0 D0
Alias cc_my_6_2_0_K*0 anti-K*0
Alias cc_my_9_1_0_a_1+ a_1-
Alias cc_my_9_1_0_anti-D0 D0
Alias cc_my_10_1_0_anti-D0 D0
Alias cc_my_10_2_0_K*0 anti-K*0
Alias cc_my_11_1_0_D_s- D_s+
Alias cc_my_12_1_0_K_0*0 anti-K_0*0
Alias cc_my_13_1_0_D- D+
Alias cc_my_14_1_0_anti-D0 D0
Alias cc_my_16_1_0_anti-D0 D0
Alias cc_my_17_1_0_anti-D0 D0
Alias cc_my_21_1_0_anti-D0 D0
Alias cc_my_22_1_0_anti-D0 D0
Alias cc_my_22_2_0_K_1+ K_1-
Alias cc_my_24_1_0_anti-D0 D0
Alias cc_my_25_1_0_anti-D_0*0 D_0*0
Alias cc_my_25_2_0_D- D+
Alias cc_my_26_1_0_anti-D0 D0
Alias cc_my_27_1_0_K*0 anti-K*0
Alias cc_my_28_1_0_anti-D0 D0
Alias cc_my_29_1_0_anti-D0 D0
Alias cc_my_29_2_0_K_1+ K_1-
Alias cc_my_32_1_0_anti-D0 D0
Alias cc_my_32_1_0_D_s+ D_s-
Alias cc_my_34_1_0_anti-D0 D0
Alias cc_my_34_2_0_a_1- a_1+
Alias cc_my_36_1_0_anti-D0 D0
Alias cc_my_39_1_0_D_s+ D_s-
Alias cc_my_41_1_0_anti-D_2*0 D_2*0
Alias cc_my_41_2_0_D- D+
Alias cc_my_42_1_0_K_0*0 anti-K_0*0
Alias cc_my_43_1_0_K*0 anti-K*0
Alias cc_my_44_1_0_a_1+ a_1-
Alias cc_my_45_1_0_anti-D0 D0
Alias cc_my_49_1_0_a_1+ a_1-
Alias cc_my_49_1_0_anti-D0 D0
Alias cc_my_51_1_0_K_2*+ K_2*-
Alias cc_my_51_2_0_K*0 anti-K*0
Alias cc_my_52_1_0_K_1+ K_1-
Alias cc_my_54_1_0_anti-D0 D0
Alias cc_my_55_1_0_K_1+ K_1-
Alias cc_my_56_1_0_K'_1+ K'_1-
Alias cc_my_56_2_0_K*0 anti-K*0
Alias cc_my_57_1_0_anti-D0 D0
Alias cc_my_57_2_0_K*0 anti-K*0
Alias cc_my_61_1_0_K_2*+ K_2*-
Alias cc_my_61_2_0_K*0 anti-K*0
Alias cc_my_63_1_0_a_1+ a_1-
Alias cc_my_64_1_0_b_1+ b_1-
Alias cc_my_65_1_0_K*0 anti-K*0
Alias cc_my_65_1_0_b_1+ b_1-
Alias cc_my_66_1_0_anti-D0 D0
Alias cc_my_66_2_0_K*0 anti-K*0
ChargeConj my_1_1_0_anti-D0 cc_my_1_1_0_anti-D0
ChargeConj my_2_1_0_anti-D0 cc_my_2_1_0_anti-D0
ChargeConj my_3_1_0_anti-D0 cc_my_3_1_0_anti-D0
ChargeConj my_4_1_0_anti-D0 cc_my_4_1_0_anti-D0
ChargeConj my_4_2_0_a_1- cc_my_4_2_0_a_1-
ChargeConj my_5_1_0_anti-D0 cc_my_5_1_0_anti-D0
ChargeConj my_5_1_0_D_s+ cc_my_5_1_0_D_s+
ChargeConj my_6_1_0_anti-D0 cc_my_6_1_0_anti-D0
ChargeConj my_6_2_0_K*0 cc_my_6_2_0_K*0
ChargeConj my_9_1_0_a_1+ cc_my_9_1_0_a_1+
ChargeConj my_9_1_0_anti-D0 cc_my_9_1_0_anti-D0
ChargeConj my_10_1_0_anti-D0 cc_my_10_1_0_anti-D0
ChargeConj my_10_2_0_K*0 cc_my_10_2_0_K*0
ChargeConj my_11_1_0_D_s- cc_my_11_1_0_D_s-
ChargeConj my_12_1_0_K_0*0 cc_my_12_1_0_K_0*0
ChargeConj my_13_1_0_D- cc_my_13_1_0_D-
ChargeConj my_14_1_0_anti-D0 cc_my_14_1_0_anti-D0
ChargeConj my_16_1_0_anti-D0 cc_my_16_1_0_anti-D0
ChargeConj my_17_1_0_anti-D0 cc_my_17_1_0_anti-D0
ChargeConj my_21_1_0_anti-D0 cc_my_21_1_0_anti-D0
ChargeConj my_22_1_0_anti-D0 cc_my_22_1_0_anti-D0
ChargeConj my_22_2_0_K_1+ cc_my_22_2_0_K_1+
ChargeConj my_24_1_0_anti-D0 cc_my_24_1_0_anti-D0
ChargeConj my_25_1_0_anti-D_0*0 cc_my_25_1_0_anti-D_0*0
ChargeConj my_25_2_0_D- cc_my_25_2_0_D-
ChargeConj my_26_1_0_anti-D0 cc_my_26_1_0_anti-D0
ChargeConj my_27_1_0_K*0 cc_my_27_1_0_K*0
ChargeConj my_28_1_0_anti-D0 cc_my_28_1_0_anti-D0
ChargeConj my_29_1_0_anti-D0 cc_my_29_1_0_anti-D0
ChargeConj my_29_2_0_K_1+ cc_my_29_2_0_K_1+
ChargeConj my_32_1_0_anti-D0 cc_my_32_1_0_anti-D0
ChargeConj my_32_1_0_D_s+ cc_my_32_1_0_D_s+
ChargeConj my_34_1_0_anti-D0 cc_my_34_1_0_anti-D0
ChargeConj my_34_2_0_a_1- cc_my_34_2_0_a_1-
ChargeConj my_36_1_0_anti-D0 cc_my_36_1_0_anti-D0
ChargeConj my_39_1_0_D_s+ cc_my_39_1_0_D_s+
ChargeConj my_41_1_0_anti-D_2*0 cc_my_41_1_0_anti-D_2*0
ChargeConj my_41_2_0_D- cc_my_41_2_0_D-
ChargeConj my_42_1_0_K_0*0 cc_my_42_1_0_K_0*0
ChargeConj my_43_1_0_K*0 cc_my_43_1_0_K*0
ChargeConj my_44_1_0_a_1+ cc_my_44_1_0_a_1+
ChargeConj my_45_1_0_anti-D0 cc_my_45_1_0_anti-D0
ChargeConj my_49_1_0_a_1+ cc_my_49_1_0_a_1+
ChargeConj my_49_1_0_anti-D0 cc_my_49_1_0_anti-D0
ChargeConj my_51_1_0_K_2*+ cc_my_51_1_0_K_2*+
ChargeConj my_51_2_0_K*0 cc_my_51_2_0_K*0
ChargeConj my_52_1_0_K_1+ cc_my_52_1_0_K_1+
ChargeConj my_54_1_0_anti-D0 cc_my_54_1_0_anti-D0
ChargeConj my_55_1_0_K_1+ cc_my_55_1_0_K_1+
ChargeConj my_56_1_0_K'_1+ cc_my_56_1_0_K'_1+
ChargeConj my_56_2_0_K*0 cc_my_56_2_0_K*0
ChargeConj my_57_1_0_anti-D0 cc_my_57_1_0_anti-D0
ChargeConj my_57_2_0_K*0 cc_my_57_2_0_K*0
ChargeConj my_61_1_0_K_2*+ cc_my_61_1_0_K_2*+
ChargeConj my_61_2_0_K*0 cc_my_61_2_0_K*0
ChargeConj my_63_1_0_a_1+ cc_my_63_1_0_a_1+
ChargeConj my_64_1_0_b_1+ cc_my_64_1_0_b_1+
ChargeConj my_65_1_0_K*0 cc_my_65_1_0_K*0
ChargeConj my_65_1_0_b_1+ cc_my_65_1_0_b_1+
ChargeConj my_66_1_0_anti-D0 cc_my_66_1_0_anti-D0
ChargeConj my_66_2_0_K*0 cc_my_66_2_0_K*0
Decay B+
0.3126876451  K+ my_0_1_0_phi mu+ mu-  PHSP;
0.1178085982  my_1_1_0_anti-D0 my_1_1_0_omega pi+  PHSP;
0.0646170378  my_2_1_0_anti-D0 pi+  PHSP;
0.0630228111  my_3_1_0_anti-D0 my_3_1_0_rho0 pi+  PHSP;
0.0445650559  my_4_1_0_anti-D0 pi+  PHSP;
0.0356248557  my_5_1_0_anti-D0 my_5_1_0_D_s+  PHSP;
0.0249037464  my_6_1_0_anti-D0 pi+  PHSP;
0.0231971923  my_7_1_0_phi K+ pi+ pi-  PHSP;
0.0231728585  my_8_1_0_phi K+ my_8_1_0_rho0  PHSP;
0.0217226125  my_9_1_0_a_1+ my_9_1_0_anti-D0  SVS;
0.0186803253  my_10_1_0_anti-D0 pi+  PHSP;
0.0180413651  my_11_1_0_D_s- pi+ K+  PHSP;
0.0154655681  my_12_1_0_phi my_12_1_0_K_0*0 pi+  PHSP;
0.0134470995  my_13_1_0_D- pi+ pi+  PHSP;
0.0121685843  my_14_1_0_anti-D0 my_14_1_0_omega pi+  PHSP;
0.0115985962  my_15_1_0_phi K+ my_15_1_0_f_0  PHSP;
0.0109752227  my_16_1_0_anti-D0 pi+  PHSP;
0.0094626550  my_17_1_0_anti-D0 pi+  PHSP;
0.0072743809  K- K+ K+ my_18_1_0_omega  PHSP;
0.0072667500  my_19_1_0_omega my_19_1_0_rho0 pi+  PHSP;
0.0071484421  my_20_1_0_eta_c K+  PHSP;
0.0065096980  my_21_1_0_anti-D0 my_21_1_0_rho0 pi+  PHSP;
0.0059855782  my_22_1_0_anti-D0 pi+  PHSP;
0.0056571132  my_23_1_0_phi my_23_1_1_phi K+  PHSP;
0.0054414348  my_24_1_0_anti-D0 pi+  PHSP;
0.0050986971  my_25_1_0_anti-D_0*0 pi+  PHSP;
0.0050109209  my_26_1_0_anti-D0 K+  PHSP;
0.0048425553  my_27_1_0_omega my_27_1_0_K*0 pi+  PHSP;
0.0043395319  my_28_1_0_anti-D0 my_28_1_0_omega pi+  PHSP;
0.0039782934  my_29_1_0_anti-D0 pi+  PHSP;
0.0037988433  K- K+ K+ my_30_1_0_rho0  PHSP;
0.0037948584  my_31_1_0_rho0 my_31_1_1_rho0 pi+  PHSP;
0.0036797319  my_32_1_0_anti-D0 my_32_1_0_D_s+  PHSP;
0.0036371904  my_33_1_0_omega my_33_1_0_f_0 pi+  PHSP;
0.0034559302  my_34_1_0_anti-D0 K+  PHSP;
0.0032591720  my_35_1_0_eta_c K+  PHSP;
0.0032289726  my_36_1_0_anti-D0 pi+  PHSP;
0.0031453754  my_37_1_0_J/psi K+  SVS;
0.0028973293  my_38_1_0_phi K+ my_38_1_0_f_0  PHSP;
0.0027999130  my_39_1_0_rho0 my_39_1_0_D_s+  SVS;
0.0027017699  my_40_1_0_eta_c K+  PHSP;
0.0026064239  my_41_1_0_anti-D_2*0 pi+  STS;
0.0025326889  my_42_1_0_rho0 my_42_1_0_K_0*0 pi+  PHSP;
0.0025288900  my_43_1_0_rho0 my_43_1_0_K*0 pi+  PHSP;
0.0023377135  my_44_1_0_a_1+ my_44_1_0_omega  PHSP;
0.0023214732  my_45_1_0_anti-D0 my_45_1_0_rho0 pi+  PHSP;
0.0023197192  my_46_1_0_phi K+ K- K+  PHSP;
0.0023197192  my_47_1_0_phi pi+ pi- pi+  PHSP;
0.0023172858  my_48_1_0_phi my_48_1_0_rho0 pi+  PHSP;
0.0022437534  my_49_1_0_a_1+ my_49_1_0_anti-D0  SVS;
0.0021343444  my_50_1_0_J/psi K+  SVS;
0.0021338268  my_51_1_0_phi my_51_1_0_K_2*+  PHSP;
0.0020433015  my_52_1_0_phi my_52_1_0_K_1+  PHSP;
0.0020293767  my_53_1_0_J/psi K+  SVS;
0.0020167922  my_54_1_0_anti-D0 pi+  PHSP;
0.0019789621  my_55_1_0_phi my_55_1_0_K_1+  PHSP;
0.0019457387  my_56_1_0_phi my_56_1_0_K'_1+  PHSP;
0.0019312353  my_57_1_0_anti-D0 K+  PHSP;
0.0018994217  my_58_1_0_rho0 my_58_1_0_f_0 pi+  PHSP;
0.0018602936  my_59_1_0_phi K+ my_59_1_0_rho0  PHSP;
0.0017771371  my_60_1_0_J/psi K+  SVS;
0.0017126908  my_61_1_0_omega my_61_1_0_K_2*+  PHSP;
0.0016289481  my_62_1_0_eta_c K+  PHSP;
0.0014909417  my_63_1_0_phi my_63_1_0_a_1+  SVV_HELAMP 1.0 0.0 1.0 0.0 1.0 0.0;
0.0014510246  my_64_1_0_rho0 my_64_1_0_b_1+  SVV_HELAMP 1.0 0.0 1.0 0.0 1.0 0.0;
0.0014504422  my_65_1_0_K*0 my_65_1_0_b_1+  SVV_HELAMP 1.0 0.0 1.0 0.0 1.0 0.0;
0.0014486215  my_66_1_0_anti-D0 K+  PHSP;
0.0014249220  my_67_1_0_eta' K+  PHSP;
Enddecay
Decay my_0_1_0_phi
1.0000 K+ K-  VSS;
Enddecay
Decay my_1_1_0_anti-D0
1.0000 K+ pi-  PHSP;
Enddecay
Decay my_1_1_0_omega
1.0000 mu+ mu-  VLL;
Enddecay
Decay my_2_1_0_anti-D0
1.0000 K+ my_2_2_0_omega pi-  PHSP;
Enddecay
Decay my_2_2_0_omega
1.0000 mu+ mu-  VLL;
Enddecay
Decay my_3_1_0_anti-D0
1.0000 K+ pi-  PHSP;
Enddecay
Decay my_3_1_0_rho0
1.0000 mu+ mu-  VLL;
Enddecay
Decay my_4_1_0_anti-D0
1.0000 my_4_2_0_a_1- K+  SVS;
Enddecay
Decay my_4_2_0_a_1-
1.0000 my_4_3_0_rho0 pi-  VVS_PWAVE 0.9788 0.0 0.0 0.0 0.0212 0.0;
Enddecay
Decay my_4_3_0_rho0
1.0000 mu+ mu-  VLL;
Enddecay
Decay my_5_1_0_anti-D0
1.0000 K+ pi-  PHSP;
Enddecay
Decay my_5_1_0_D_s+
1.0000 my_5_2_0_phiR pi+  SVS;
Enddecay
Decay my_5_2_0_phiR
1.0000 mu+ mu-  VLL;
Enddecay
Decay my_6_1_0_anti-D0
1.0000 my_6_2_0_K*0 my_6_2_0_omega  SVV_HELAMP 1.0 0.0 1.0 0.0 1.0 0.0;
Enddecay
Decay my_6_2_0_K*0
1.0000 K+ pi-  VSS;
Enddecay
Decay my_6_2_0_omega
1.0000 mu+ mu-  VLL;
Enddecay
Decay my_7_1_0_phi
1.0000 mu+ mu-  VLL;
Enddecay
Decay my_8_1_0_phi
1.0000 mu+ mu-  VLL;
Enddecay
Decay my_8_1_0_rho0
1.0000 pi+ pi-  VSS;
Enddecay
Decay my_9_1_0_a_1+
1.0000 my_9_2_0_rho0 pi+  VVS_PWAVE 0.9788 0.0 0.0 0.0 0.0212 0.0;
Enddecay
Decay my_9_1_0_anti-D0
1.0000 K+ pi-  PHSP;
Enddecay
Decay my_9_2_0_rho0
1.0000 mu+ mu-  VLL;
Enddecay
Decay my_10_1_0_anti-D0
1.0000 my_10_2_0_K*0 my_10_2_0_rho0  SVV_HELAMP 1.0 0.0 1.0 0.0 1.0 0.0;
Enddecay
Decay my_10_2_0_K*0
1.0000 K+ pi-  VSS;
Enddecay
Decay my_10_2_0_rho0
1.0000 mu+ mu-  VLL;
Enddecay
Decay my_11_1_0_D_s-
1.0000 my_11_2_0_phiR pi-  SVS;
Enddecay
Decay my_11_2_0_phiR
1.0000 mu+ mu-  VLL;
Enddecay
Decay my_12_1_0_phi
1.0000 mu+ mu-  VLL;
Enddecay
Decay my_12_1_0_K_0*0
1.0000 K+ pi-  PHSP;
Enddecay
Decay my_13_1_0_D-
1.0000 my_13_2_0_phiR pi-  SVS;
Enddecay
Decay my_13_2_0_phiR
1.0000 mu+ mu-  VLL;
Enddecay
Decay my_14_1_0_anti-D0
1.0000 K+ K-  PHSP;
Enddecay
Decay my_14_1_0_omega
1.0000 mu+ mu-  VLL;
Enddecay
Decay my_15_1_0_phi
1.0000 mu+ mu-  VLL;
Enddecay
Decay my_15_1_0_f_0
1.0000 pi+ pi-  PHSP;
Enddecay
Decay my_16_1_0_anti-D0
1.0000 my_16_2_0_phi pi+ pi-  PHSP;
Enddecay
Decay my_16_2_0_phi
1.0000 mu+ mu-  VLL;
Enddecay
Decay my_17_1_0_anti-D0
1.0000 K+ my_17_2_0_rho0 pi-  PHSP;
Enddecay
Decay my_17_2_0_rho0
1.0000 mu+ mu-  VLL;
Enddecay
Decay my_18_1_0_omega
1.0000 mu+ mu-  VLL;
Enddecay
Decay my_19_1_0_omega
1.0000 mu+ mu-  VLL;
Enddecay
Decay my_19_1_0_rho0
1.0000 pi+ pi-  VSS;
Enddecay
Decay my_20_1_0_eta_c
1.0000 my_20_2_0_phi K+ K-  PHSP;
Enddecay
Decay my_20_2_0_phi
1.0000 mu+ mu-  VLL;
Enddecay
Decay my_21_1_0_anti-D0
1.0000 K+ K-  PHSP;
Enddecay
Decay my_21_1_0_rho0
1.0000 mu+ mu-  VLL;
Enddecay
Decay my_22_1_0_anti-D0
1.0000 my_22_2_0_K_1+ pi-  SVS;
Enddecay
Decay my_22_2_0_K_1+
1.0000 my_22_3_0_omega K+  VVS_PWAVE 1.0 0.0 0.0 0.0 0.0 0.0;
Enddecay
Decay my_22_3_0_omega
1.0000 mu+ mu-  VLL;
Enddecay
Decay my_23_1_1_phi
1.0000 mu+ mu-  VLL;
Enddecay
Decay my_23_1_0_phi
1.0000 K+ K-  VSS;
Enddecay
Decay my_24_1_0_anti-D0
1.0000 my_24_2_0_omega pi+ pi-  PHSP;
Enddecay
Decay my_24_2_0_omega
1.0000 mu+ mu-  VLL;
Enddecay
Decay my_25_1_0_anti-D_0*0
1.0000 my_25_2_0_D- pi+  PHSP;
Enddecay
Decay my_25_2_0_D-
1.0000 my_25_3_0_phiR pi-  SVS;
Enddecay
Decay my_25_3_0_phiR
1.0000 mu+ mu-  VLL;
Enddecay
Decay my_26_1_0_anti-D0
1.0000 K+ my_26_2_0_omega pi-  PHSP;
Enddecay
Decay my_26_2_0_omega
1.0000 mu+ mu-  VLL;
Enddecay
Decay my_27_1_0_omega
1.0000 mu+ mu-  VLL;
Enddecay
Decay my_27_1_0_K*0
1.0000 K+ pi-  VSS;
Enddecay
Decay my_28_1_0_anti-D0
1.0000 pi+ pi-  PHSP;
Enddecay
Decay my_28_1_0_omega
1.0000 mu+ mu-  VLL;
Enddecay
Decay my_29_1_0_anti-D0
1.0000 my_29_2_0_K_1+ pi-  SVS;
Enddecay
Decay my_29_2_0_K_1+
1.0000 my_29_3_0_rho0 K+  VVS_PWAVE 1.0 0.0 0.0 0.0 0.0 0.0;
Enddecay
Decay my_29_3_0_rho0
1.0000 mu+ mu-  VLL;
Enddecay
Decay my_30_1_0_rho0
1.0000 mu+ mu-  VLL;
Enddecay
Decay my_31_1_1_rho0
1.0000 pi+ pi-  VSS;
Enddecay
Decay my_31_1_0_rho0
1.0000 mu+ mu-  VLL;
Enddecay
Decay my_32_1_0_anti-D0
1.0000 K+ K-  PHSP;
Enddecay
Decay my_32_1_0_D_s+
1.0000 my_32_2_0_phiR pi+  SVS;
Enddecay
Decay my_32_2_0_phiR
1.0000 mu+ mu-  VLL;
Enddecay
Decay my_33_1_0_omega
1.0000 mu+ mu-  VLL;
Enddecay
Decay my_33_1_0_f_0
1.0000 pi+ pi-  PHSP;
Enddecay
Decay my_34_1_0_anti-D0
1.0000 my_34_2_0_a_1- K+  SVS;
Enddecay
Decay my_34_2_0_a_1-
1.0000 my_34_3_0_rho0 pi-  VVS_PWAVE 0.9788 0.0 0.0 0.0 0.0212 0.0;
Enddecay
Decay my_34_3_0_rho0
1.0000 mu+ mu-  VLL;
Enddecay
Decay my_35_1_0_eta_c
1.0000 my_35_2_0_phi my_35_2_1_phi  SVV_HELAMP 1.0 0.0 0.0 0.0 -1.0 0.0;
Enddecay
Decay my_35_2_1_phi
1.0000 K+ K-  VSS;
Enddecay
Decay my_35_2_0_phi
1.0000 mu+ mu-  VLL;
Enddecay
Decay my_36_1_0_anti-D0
1.0000 my_36_2_0_rho0 my_36_2_1_rho0  PHSP;
Enddecay
Decay my_36_2_1_rho0
1.0000 pi+ pi-  VSS;
Enddecay
Decay my_36_2_0_rho0
1.0000 mu+ mu-  VLL;
Enddecay
Decay my_37_1_0_J/psi
1.0000 my_37_2_0_omega pi+ pi-  PHSP;
Enddecay
Decay my_37_2_0_omega
1.0000 mu+ mu-  VLL;
Enddecay
Decay my_38_1_0_phi
1.0000 mu+ mu-  VLL;
Enddecay
Decay my_38_1_0_f_0
1.0000 K+ K-  PHSP;
Enddecay
Decay my_39_1_0_rho0
1.0000 pi+ pi-  VSS;
Enddecay
Decay my_39_1_0_D_s+
1.0000 my_39_2_0_phiR pi+  SVS;
Enddecay
Decay my_39_2_0_phiR
1.0000 mu+ mu-  VLL;
Enddecay
Decay my_40_1_0_eta_c
1.0000 my_40_2_0_rho0 my_40_2_1_rho0  SVV_HELAMP 1.0 0.0 0.0 0.0 -1.0 0.0;
Enddecay
Decay my_40_2_1_rho0
1.0000 mu+ mu-  VLL;
Enddecay
Decay my_40_2_0_rho0
1.0000 pi+ pi-  VSS;
Enddecay
Decay my_41_1_0_anti-D_2*0
1.0000 my_41_2_0_D- pi+  TSS;
Enddecay
Decay my_41_2_0_D-
1.0000 my_41_3_0_phiR pi-  SVS;
Enddecay
Decay my_41_3_0_phiR
1.0000 mu+ mu-  VLL;
Enddecay
Decay my_42_1_0_rho0
1.0000 mu+ mu-  VLL;
Enddecay
Decay my_42_1_0_K_0*0
1.0000 K+ pi-  PHSP;
Enddecay
Decay my_43_1_0_rho0
1.0000 mu+ mu-  VLL;
Enddecay
Decay my_43_1_0_K*0
1.0000 K+ pi-  VSS;
Enddecay
Decay my_44_1_0_a_1+
1.0000 my_44_2_0_rho0 pi+  VVS_PWAVE 0.9788 0.0 0.0 0.0 0.0212 0.0;
Enddecay
Decay my_44_1_0_omega
1.0000 mu+ mu-  VLL;
Enddecay
Decay my_44_2_0_rho0
1.0000 pi+ pi-  VSS;
Enddecay
Decay my_45_1_0_anti-D0
1.0000 pi+ pi-  PHSP;
Enddecay
Decay my_45_1_0_rho0
1.0000 mu+ mu-  VLL;
Enddecay
Decay my_46_1_0_phi
1.0000 mu+ mu-  VLL;
Enddecay
Decay my_47_1_0_phi
1.0000 mu+ mu-  VLL;
Enddecay
Decay my_48_1_0_phi
1.0000 mu+ mu-  VLL;
Enddecay
Decay my_48_1_0_rho0
1.0000 pi+ pi-  VSS;
Enddecay
Decay my_49_1_0_a_1+
1.0000 my_49_2_0_rho0 pi+  VVS_PWAVE 0.9788 0.0 0.0 0.0 0.0212 0.0;
Enddecay
Decay my_49_1_0_anti-D0
1.0000 K+ K-  PHSP;
Enddecay
Decay my_49_2_0_rho0
1.0000 mu+ mu-  VLL;
Enddecay
Decay my_50_1_0_J/psi
1.0000 my_50_2_0_phi K+ K-  PHSP;
Enddecay
Decay my_50_2_0_phi
1.0000 mu+ mu-  VLL;
Enddecay
Decay my_51_1_0_phi
1.0000 mu+ mu-  VLL;
Enddecay
Decay my_51_1_0_K_2*+
1.0000 my_51_2_0_K*0 pi+  TVS_PWAVE 0.0 0.0 1.0 0.0 0.0 0.0;
Enddecay
Decay my_51_2_0_K*0
1.0000 K+ pi-  VSS;
Enddecay
Decay my_52_1_0_phi
1.0000 mu+ mu-  VLL;
Enddecay
Decay my_52_1_0_K_1+
1.0000 K+ pi+ pi-  PHSP;
Enddecay
Decay my_53_1_0_J/psi
1.0000 my_53_2_0_phi pi+ pi-  PHSP;
Enddecay
Decay my_53_2_0_phi
1.0000 mu+ mu-  VLL;
Enddecay
Decay my_54_1_0_anti-D0
1.0000 K+ my_54_2_0_eta pi-  PHSP;
Enddecay
Decay my_54_2_0_eta
1.0000 mu+ mu-  PHSP;
Enddecay
Decay my_55_1_0_phi
1.0000 mu+ mu-  VLL;
Enddecay
Decay my_55_1_0_K_1+
1.0000 my_55_2_0_rho0 K+  VVS_PWAVE 1.0 0.0 0.0 0.0 0.0 0.0;
Enddecay
Decay my_55_2_0_rho0
1.0000 pi+ pi-  VSS;
Enddecay
Decay my_56_1_0_phi
1.0000 mu+ mu-  VLL;
Enddecay
Decay my_56_1_0_K'_1+
1.0000 my_56_2_0_K*0 pi+  VVS_PWAVE 1.0 0.0 0.0 0.0 0.0 0.0;
Enddecay
Decay my_56_2_0_K*0
1.0000 K+ pi-  VSS;
Enddecay
Decay my_57_1_0_anti-D0
1.0000 my_57_2_0_K*0 my_57_2_0_omega  SVV_HELAMP 1.0 0.0 1.0 0.0 1.0 0.0;
Enddecay
Decay my_57_2_0_K*0
1.0000 K+ pi-  VSS;
Enddecay
Decay my_57_2_0_omega
1.0000 mu+ mu-  VLL;
Enddecay
Decay my_58_1_0_rho0
1.0000 mu+ mu-  VLL;
Enddecay
Decay my_58_1_0_f_0
1.0000 pi+ pi-  PHSP;
Enddecay
Decay my_59_1_0_phi
1.0000 K+ K-  VSS;
Enddecay
Decay my_59_1_0_rho0
1.0000 mu+ mu-  VLL;
Enddecay
Decay my_60_1_0_J/psi
1.0000 my_60_2_0_omega my_60_2_0_f_2  PHSP;
Enddecay
Decay my_60_2_0_omega
1.0000 mu+ mu-  VLL;
Enddecay
Decay my_60_2_0_f_2
1.0000 pi+ pi-  TSS;
Enddecay
Decay my_61_1_0_omega
1.0000 mu+ mu-  VLL;
Enddecay
Decay my_61_1_0_K_2*+
1.0000 my_61_2_0_K*0 pi+  TVS_PWAVE 0.0 0.0 1.0 0.0 0.0 0.0;
Enddecay
Decay my_61_2_0_K*0
1.0000 K+ pi-  VSS;
Enddecay
Decay my_62_1_0_eta_c
1.0000 my_62_2_0_eta pi+ pi-  PHSP;
Enddecay
Decay my_62_2_0_eta
1.0000 mu+ mu-  PHSP;
Enddecay
Decay my_63_1_0_phi
1.0000 mu+ mu-  VLL;
Enddecay
Decay my_63_1_0_a_1+
1.0000 my_63_2_0_rho0 pi+  VVS_PWAVE 0.9788 0.0 0.0 0.0 0.0212 0.0;
Enddecay
Decay my_63_2_0_rho0
1.0000 pi+ pi-  VSS;
Enddecay
Decay my_64_1_0_rho0
1.0000 pi+ pi-  VSS;
Enddecay
Decay my_64_1_0_b_1+
1.0000 my_64_2_0_omega pi+  VVS_PWAVE 1.0 0.0 0.0 0.0 0.0 0.0;
Enddecay
Decay my_64_2_0_omega
1.0000 mu+ mu-  VLL;
Enddecay
Decay my_65_1_0_K*0
1.0000 K+ pi-  VSS;
Enddecay
Decay my_65_1_0_b_1+
1.0000 my_65_2_0_omega pi+  VVS_PWAVE 1.0 0.0 0.0 0.0 0.0 0.0;
Enddecay
Decay my_65_2_0_omega
1.0000 mu+ mu-  VLL;
Enddecay
Decay my_66_1_0_anti-D0
1.0000 my_66_2_0_K*0 my_66_2_0_rho0  SVV_HELAMP 1.0 0.0 1.0 0.0 1.0 0.0;
Enddecay
Decay my_66_2_0_K*0
1.0000 K+ pi-  VSS;
Enddecay
Decay my_66_2_0_rho0
1.0000 mu+ mu-  VLL;
Enddecay
Decay my_67_1_0_eta'
1.0000 pi+ pi- my_67_2_0_eta  ETAPRIME_DALITZ -0.047 -0.069 0.0 0.073;
Enddecay
Decay my_67_2_0_eta
1.0000 mu+ mu-  PHSP;
Enddecay
End
