# SUSY Les Houches Accord 2 - MSSM spectrum + Decays
# SPheno v4.0.5be
# W. Porod, Comput. Phys. Commun. 153 (2003) 275-315, hep-ph/0301101;
# W. Porod, F.~Staub, Comput. Phys. Commun. 183 (2012) 2458
#                     arXiv:1104.1573 [hep-ph] 
# in case of problems send email to porod@physik.uni-wuerzburg.de
# Created: 07.09.2021,  16:37
Block SPINFO         # Program information
     1   SPheno      # spectrum calculator
     2   v4.0.5be    # version number
#
Block SPhenoINFO     # SPheno specific information
    1      2         # using 2-loop RGEs
    2      2         # using pole masses for boundary conditions at mZ
Block MODSEL  # Model selection
    1    0    # general MSSM
Block MINPAR  # Input parameters
    3    5.74845614E+01  # tanb at m_Z    
    4    1.00000000E+00  # Sign(mu)
Block EXTPAR  # non-universal input parameters
    0    3.69525265E+03  # scale for input parameters
    1    2.53600778E+02  # M_1
    2    1.53504490E+03  # M_2
    3    1.38740851E+03  # M_3
   11   -3.93373904E+03  # A_t
   12    1.65235131E+02  # A_b
   13    1.83370568E+03  # A_tau
   23    2.54860721E+02  # mu
   25    5.74705611E+01  # tan(beta)
   26    2.59102721E+03  # m_A, pole mass
   31    1.00000000E+04  # M_L11
   32    1.00000000E+04  # M_L22
   33    1.00000000E+04  # M_L33
   34    1.00000000E+04  # M_E11
   35    1.00000000E+04  # M_E22
   36    1.00000000E+04  # M_E33
   41    1.00000000E+04  # M_Q11
   42    1.00000000E+04  # M_Q22
   43    3.00811388E+03  # M_Q33
   44    1.00000000E+04  # M_U11
   45    1.00000000E+04  # M_U22
   46    4.57684740E+03  # M_U33
   47    1.00000000E+04  # M_D11
   48    1.00000000E+04  # M_D22
   49    3.50242635E+03  # M_D33
Block SMINPUTS  # SM parameters
         1     1.27908970E+02  # alpha_em^-1(MZ)^MSbar
         2     1.16637870E-05  # G_mu [GeV^-2]
         3     1.18400000E-01  # alpha_s(MZ)^MSbar
         4     9.11876000E+01  # m_Z(pole)
         5     4.18000000E+00  # m_b(m_b), MSbar
         6     1.73200000E+02  # m_t(pole)
         7     1.77700000E+00  # m_tau(pole)
         8     0.00000000E+00  # m_nu_3
        11     5.10998930E-04  # m_e(pole)
        12     0.00000000E+00  # m_nu_1
        13     1.05658372E-01  # m_muon(pole)
        14     0.00000000E+00  # m_nu_2
        21     5.00000000E-03  # m_d(2 GeV), MSbar
        22     2.50000000E-03  # m_u(2 GeV), MSbar
        23     9.50000000E-02  # m_s(2 GeV), MSbar
        24     1.27000000E+00  # m_c(m_c), MSbar
Block gauge Q=  3.69525265E+03  # (SUSY scale)
   1    3.55362975E-01  # g'(Q)^DRbar
   2    6.65198874E-01  # g(Q)^DRbar
   3    1.21977796E+00  # g3(Q)^DRbar
Block Yu Q=  3.69525265E+03  # (SUSY scale)
  1  1     8.38564130E-06   # Y_u(Q)^DRbar
  2  2     4.25990578E-03   # Y_c(Q)^DRbar
  3  3     1.01305282E+00   # Y_t(Q)^DRbar
Block Yd Q=  3.69525265E+03  # (SUSY scale)
  1  1     9.68416022E-04   # Y_d(Q)^DRbar
  2  2     1.83999044E-02   # Y_s(Q)^DRbar
  3  3     9.60365236E-01   # Y_b(Q)^DRbar
Block Ye Q=  3.69525265E+03  # (SUSY scale)
  1  1     1.68995677E-04   # Y_e(Q)^DRbar
  2  2     3.49429463E-02   # Y_mu(Q)^DRbar
  3  3     5.87682872E-01   # Y_tau(Q)^DRbar
Block Au Q=  3.69525265E+03  # (SUSY scale)
  1  1     0.00000000E+00   # A_u(Q)^DRbar
  2  2     0.00000000E+00   # A_c(Q)^DRbar
  3  3    -3.93374139E+03   # A_t(Q)^DRbar
Block Ad Q=  3.69525265E+03  # (SUSY scale)
  1  1     0.00000000E+00   # A_d(Q)^DRbar
  2  2     0.00000000E+00   # A_s(Q)^DRbar
  3  3     1.65235027E+02   # A_b(Q)^DRbar
Block Ae Q=  3.69525265E+03  # (SUSY scale)
  1  1     0.00000000E+00   # A_e(Q)^DRbar
  2  2     0.00000000E+00   # A_mu(Q)^DRbar
  3  3     1.83370549E+03   # A_tau(Q)^DRbar
Block MSOFT Q=  3.69525265E+03  # soft SUSY breaking masses at Q
   1    2.53600778E+02  # M_1
   2    1.53504490E+03  # M_2
   3    1.38740851E+03  # M_3
  21    6.66607906E+06  # M^2_(H,d)
  22    1.75016434E+05  # M^2_(H,u)
  31    1.00000000E+04  # M_(L,11)
  32    1.00000000E+04  # M_(L,22)
  33    1.00000000E+04  # M_(L,33)
  34    1.00000000E+04  # M_(E,11)
  35    1.00000000E+04  # M_(E,22)
  36    1.00000000E+04  # M_(E,33)
  41    1.00000000E+04  # M_(Q,11)
  42    1.00000000E+04  # M_(Q,22)
  43    3.00811388E+03  # M_(Q,33)
  44    1.00000000E+04  # M_(U,11)
  45    1.00000000E+04  # M_(U,22)
  46    4.57684740E+03  # M_(U,33)
  47    1.00000000E+04  # M_(D,11)
  48    1.00000000E+04  # M_(D,22)
  49    3.50242635E+03  # M_(D,33)
Block MASS  # Mass spectrum
#   PDG code      mass          particle
         6     1.73200000E+02  # m_t(pole)
        23     9.11876000E+01  # m_Z(pole)
        24     8.04299946E+01  # W+
        15     1.77700000E+00  # m_tau(pole)
        25     1.24373338E+02  # h0
        35     2.58961243E+03  # H0
        36     2.59102721E+03  # A0
        37     2.59377007E+03  # H+
   1000001     1.01207948E+04  # ~d_L
   2000001     1.00965894E+04  # ~d_R
   1000002     1.01204323E+04  # ~u_L
   2000002     1.00997415E+04  # ~u_R
   1000003     1.01208017E+04  # ~s_L
   2000003     1.00966020E+04  # ~s_R
   1000004     1.01204391E+04  # ~c_L
   2000004     1.00997423E+04  # ~c_R
   1000005     3.00388216E+03  # ~b_1
   2000005     3.49470726E+03  # ~b_2
   1000006     3.00186506E+03  # ~t_1
   2000006     4.54880279E+03  # ~t_2
   1000011     1.00204438E+04  # ~e_L-
   2000011     1.00089836E+04  # ~e_R-
   1000012     1.00196778E+04  # ~nu_eL
   1000013     1.00204784E+04  # ~mu_L-
   2000013     1.00090495E+04  # ~mu_R-
   1000014     1.00197118E+04  # ~nu_muL
   1000015     1.00278362E+04  # ~tau_1-
   2000015     1.00308756E+04  # ~tau_2-
   1000016     1.00296103E+04  # ~nu_tauL
   1000021     1.73600230E+03  # ~g
   1000022     2.29619900E+02  # ~chi_10
   1000023     2.71845072E+02  # ~chi_20
   1000025     2.93397445E+02  # ~chi_30
   1000035     1.63548401E+03  # ~chi_40
   1000024     2.67730339E+02  # ~chi_1+
   1000037     1.63544960E+03  # ~chi_2+
# Higgs mixing
Block alpha # Effective Higgs mixing angle
          -1.74601652E-02   # alpha
Block Hmix Q=  3.69525265E+03  # Higgs mixing parameters
   1    2.54860721E+02  # mu
   2    5.74705611E+01  # tan[beta](Q)
   3    2.43003997E+02  # v(Q)
   4    6.71342200E+06  # m^2_A(Q)
Block stopmix # stop mixing matrix
   1  1     9.98858219E-01   # Re[R_st(1,1)]
   1  2     4.77729962E-02   # Re[R_st(1,2)]
   2  1    -4.77729962E-02   # Re[R_st(2,1)]
   2  2     9.98858219E-01   # Re[R_st(2,2)]
Block sbotmix # sbottom mixing matrix
   1  1     9.99953075E-01   # Re[R_sb(1,1)]
   1  2     9.68748781E-03   # Re[R_sb(1,2)]
   2  1    -9.68748781E-03   # Re[R_sb(2,1)]
   2  2     9.99953075E-01   # Re[R_sb(2,2)]
Block staumix # stau mixing matrix
   1  1     4.11340114E-01   # Re[R_sta(1,1)]
   1  2     9.11481931E-01   # Re[R_sta(1,2)]
   2  1    -9.11481931E-01   # Re[R_sta(2,1)]
   2  2     4.11340114E-01   # Re[R_sta(2,2)]
Block Nmix # neutralino mixing matrix
   1  1     7.52337159E-01   # Re[N(1,1)]
   1  2    -2.51412664E-02   # Re[N(1,2)]
   1  3     4.98889949E-01   # Re[N(1,3)]
   1  4    -4.29494510E-01   # Re[N(1,4)]
   2  1     5.83417859E-02   # Re[N(2,1)]
   2  2    -2.97298523E-02   # Re[N(2,2)]
   2  3    -7.00916897E-01   # Re[N(2,3)]
   2  4    -7.10230861E-01   # Re[N(2,4)]
   3  1    -6.56187638E-01   # Re[N(3,1)]
   3  2    -3.40237887E-02   # Re[N(3,2)]
   3  3     5.09649188E-01   # Re[N(3,3)]
   3  4    -5.55443850E-01   # Re[N(3,4)]
   4  1     1.67903390E-03   # Re[N(4,1)]
   4  2    -9.98662323E-01   # Re[N(4,2)]
   4  3    -9.05688075E-03   # Re[N(4,3)]
   4  4     5.08794590E-02   # Re[N(4,4)]
Block Umix # chargino mixing matrix
   1  1    -1.28155414E-02   # Re[U(1,1)]
   1  2     9.99917878E-01   # Re[U(1,2)]
   2  1     9.99917878E-01   # Re[U(2,1)]
   2  2     1.28155414E-02   # Re[U(2,2)]
Block Vmix # chargino mixing matrix
   1  1    -7.19875296E-02   # Re[V(1,1)]
   1  2     9.97405532E-01   # Re[V(1,2)]
   2  1     9.97405532E-01   # Re[V(2,1)]
   2  2     7.19875296E-02   # Re[V(2,2)]
DECAY        23     2.49520000E+00   # Z
DECAY        24     2.08500000E+00   # W
DECAY   2000011     5.02240840E+01   # ~e^-_R
#    BR                NDA      ID1      ID2
     5.66174402E-01    2     1000022        11   # BR(~e^-_R -> chi^0_1 e^-)
     3.40336090E-03    2     1000023        11   # BR(~e^-_R -> chi^0_2 e^-)
     4.30419450E-01    2     1000025        11   # BR(~e^-_R -> chi^0_3 e^-)
DECAY   1000011     1.37940870E+02   # ~e^-_L
#    BR                NDA      ID1      ID2
     4.53419377E-02    2     1000022        11   # BR(~e^-_L -> chi^0_1 e^-)
     4.72073213E-02    2     1000025        11   # BR(~e^-_L -> chi^0_3 e^-)
     3.01579510E-01    2     1000035        11   # BR(~e^-_L -> chi^0_4 e^-)
     1.04877128E-04    2    -1000024        12   # BR(~e^-_L -> chi^-_1 nu_e)
     6.05765674E-01    2    -1000037        12   # BR(~e^-_L -> chi^-_2 nu_e)
#    BR                NDA      ID1      ID2       ID3
DECAY   2000013     5.07099692E+01   # ~mu^-_R
#    BR                NDA      ID1      ID2
     5.61945231E-01    2     1000022        13   # BR(~mu^-_R -> chi^0_1 mu^-)
     5.72274027E-03    2     1000023        13   # BR(~mu^-_R -> chi^0_2 mu^-)
     4.27541347E-01    2     1000025        13   # BR(~mu^-_R -> chi^0_3 mu^-)
     4.78691421E-03    2    -1000024        14   # BR(~mu^-_R -> chi^-_1 nu_mu)
DECAY   1000013     1.38184448E+02   # ~mu^-_L
#    BR                NDA      ID1      ID2
     4.57001211E-02    2     1000022        13   # BR(~mu^-_L -> chi^0_1 mu^-)
     8.64774556E-04    2     1000023        13   # BR(~mu^-_L -> chi^0_2 mu^-)
     4.75810030E-02    2     1000025        13   # BR(~mu^-_L -> chi^0_3 mu^-)
     3.01049206E-01    2     1000035        13   # BR(~mu^-_L -> chi^0_4 mu^-)
     1.04692623E-04    2    -1000024        14   # BR(~mu^-_L -> chi^-_1 nu_mu)
     6.04700203E-01    2    -1000037        14   # BR(~mu^-_L -> chi^-_2 nu_mu)
#    BR                NDA      ID1      ID2       ID3
DECAY   1000015     1.91188601E+02   # ~tau^-_1
#    BR                NDA      ID1      ID2
     2.64970554E-01    2     1000022        15   # BR(~tau^-_1 -> chi^0_1 tau^-)
     1.68313957E-01    2     1000023        15   # BR(~tau^-_1 -> chi^0_2 tau^-)
     1.58497928E-01    2     1000025        15   # BR(~tau^-_1 -> chi^0_3 tau^-)
     3.50193562E-02    2     1000035        15   # BR(~tau^-_1 -> chi^0_4 tau^-)
     3.02855093E-01    2    -1000024        16   # BR(~tau^-_1 -> chi^-_1 nu_tau)
     7.03431108E-02    2    -1000037        16   # BR(~tau^-_1 -> chi^-_2 nu_tau)
DECAY   2000015     2.03654405E+02   # ~tau^-_2
#    BR                NDA      ID1      ID2
     9.01330917E-02    2     1000022        15   # BR(~tau^-_2 -> chi^0_1 tau^-)
     1.74819126E-01    2     1000023        15   # BR(~tau^-_2 -> chi^0_2 tau^-)
     1.65053644E-01    2     1000025        15   # BR(~tau^-_2 -> chi^0_3 tau^-)
     1.71670902E-01    2     1000035        15   # BR(~tau^-_2 -> chi^0_4 tau^-)
     5.35540931E-02    2    -1000024        16   # BR(~tau^-_2 -> chi^-_1 nu_tau)
     3.44769144E-01    2    -1000037        16   # BR(~tau^-_2 -> chi^-_2 nu_tau)
#    BR                NDA      ID1      ID2       ID3
DECAY   1000012     1.37945098E+02   # ~nu_e
#    BR                NDA      ID1      ID2
     5.82455315E-02    2     1000022        12   # BR(~nu_e -> chi^0_1 nu_e)
     1.18387609E-03    2     1000023        12   # BR(~nu_e -> chi^0_2 nu_e)
     3.19758529E-02    2     1000025        12   # BR(~nu_e -> chi^0_3 nu_e)
     3.02629998E-01    2     1000035        12   # BR(~nu_e -> chi^0_4 nu_e)
     3.30887383E-03    2     1000024        11   # BR(~nu_e -> chi^+_1 e^-)
     6.02655868E-01    2     1000037        11   # BR(~nu_e -> chi^+_2 e^-)
#    BR                NDA      ID1      ID2       ID3
DECAY   1000014     1.38188649E+02   # ~nu_mu
#    BR                NDA      ID1      ID2
     5.81430744E-02    2     1000022        14   # BR(~nu_mu -> chi^0_1 nu_mu)
     1.18179359E-03    2     1000023        14   # BR(~nu_mu -> chi^0_2 nu_mu)
     3.19196057E-02    2     1000025        14   # BR(~nu_mu -> chi^0_3 nu_mu)
     3.02097765E-01    2     1000035        14   # BR(~nu_mu -> chi^0_4 nu_mu)
     5.06150126E-03    2     1000024        13   # BR(~nu_mu -> chi^+_1 mu^-)
     6.01596260E-01    2     1000037        13   # BR(~nu_mu -> chi^+_2 mu^-)
#    BR                NDA      ID1      ID2       ID3
DECAY   1000016     2.06909521E+02   # ~nu_tau
#    BR                NDA      ID1      ID2
     3.88704543E-02    2     1000022        16   # BR(~nu_tau -> chi^0_1 nu_tau)
     7.90066443E-04    2     1000023        16   # BR(~nu_tau -> chi^0_2 nu_tau)
     2.13392776E-02    2     1000025        16   # BR(~nu_tau -> chi^0_3 nu_tau)
     2.01983150E-01    2     1000035        16   # BR(~nu_tau -> chi^0_4 nu_tau)
     3.34736470E-01    2     1000024        15   # BR(~nu_tau -> chi^+_1 tau^-)
     4.02280582E-01    2     1000037        15   # BR(~nu_tau -> chi^+_2 tau^-)
#    BR                NDA      ID1      ID2       ID3
DECAY   2000001     7.56162587E+02   # ~d_R
#    BR                NDA      ID1      ID2
     4.21505784E-03    2     1000022         1   # BR(~d_R -> chi^0_1 d)
     3.20444314E-03    2     1000025         1   # BR(~d_R -> chi^0_3 d)
     9.92554771E-01    2     1000021         1   # BR(~d_R -> ~g d)
DECAY   1000001     8.80720094E+02   # ~d_L
#    BR                NDA      ID1      ID2
     1.27926342E-03    2     1000022         1   # BR(~d_L -> chi^0_1 d)
     3.46458616E-04    2     1000025         1   # BR(~d_L -> chi^0_3 d)
     4.78733698E-02    2     1000035         1   # BR(~d_L -> chi^0_4 d)
     9.59304100E-02    2    -1000037         2   # BR(~d_L -> chi^-_2 u)
     8.54472509E-01    2     1000021         1   # BR(~d_L -> ~g d)
DECAY   2000003     7.56299084E+02   # ~s_R
#    BR                NDA      ID1      ID2
     4.23659627E-03    2     1000022         3   # BR(~s_R -> chi^0_1 s)
     3.22712082E-03    2     1000025         3   # BR(~s_R -> chi^0_3 s)
     9.92377023E-01    2     1000021         3   # BR(~s_R -> ~g s)
DECAY   1000003     8.80792296E+02   # ~s_L
#    BR                NDA      ID1      ID2
     1.29834846E-03    2     1000022         3   # BR(~s_L -> chi^0_1 s)
     1.19253688E-04    2     1000023         3   # BR(~s_L -> chi^0_2 s)
     3.66443586E-04    2     1000025         3   # BR(~s_L -> chi^0_3 s)
     4.78694878E-02    2     1000035         3   # BR(~s_L -> chi^0_4 s)
     9.59226392E-02    2    -1000037         4   # BR(~s_L -> chi^-_2 c)
     8.54403117E-01    2     1000021         3   # BR(~s_L -> ~g s)
DECAY   1000005     2.39340933E+02   # ~b_1
#    BR                NDA      ID1      ID2
     5.84866876E-02    2     1000022         5   # BR(~b_1 -> chi^0_1 b)
     1.11287056E-01    2     1000023         5   # BR(~b_1 -> chi^0_2 b)
     5.87076511E-02    2     1000025         5   # BR(~b_1 -> chi^0_3 b)
     2.72873558E-02    2     1000035         5   # BR(~b_1 -> chi^0_4 b)
     2.49153753E-01    2    -1000024         6   # BR(~b_1 -> chi^-_1 t)
     5.56335824E-02    2    -1000037         6   # BR(~b_1 -> chi^-_2 t)
     4.39443915E-01    2     1000021         5   # BR(~b_1 -> ~g b)
DECAY   2000005     2.84973016E+02   # ~b_2
#    BR                NDA      ID1      ID2
     5.89073857E-02    2     1000022         5   # BR(~b_2 -> chi^0_1 b)
     1.09326013E-01    2     1000023         5   # BR(~b_2 -> chi^0_2 b)
     6.08761221E-02    2     1000025         5   # BR(~b_2 -> chi^0_3 b)
     2.21237332E-01    2    -1000024         6   # BR(~b_2 -> chi^-_1 t)
     5.49180905E-01    2     1000021         5   # BR(~b_2 -> ~g b)
     1.65064061E-04    2     1000006       -24   # BR(~b_2 -> ~t_1 W^-)
     1.48047954E-04    2     1000005        25   # BR(~b_2 -> ~b_1 h^0)
DECAY   2000002     7.73320400E+02   # ~u_R
#    BR                NDA      ID1      ID2
     1.64910653E-02    2     1000022         2   # BR(~u_R -> chi^0_1 u)
     1.25370553E-02    2     1000025         2   # BR(~u_R -> chi^0_3 u)
     9.70872672E-01    2     1000021         2   # BR(~u_R -> ~g u)
DECAY   1000002     8.80709461E+02   # ~u_L
#    BR                NDA      ID1      ID2
     5.98439476E-04    2     1000022         2   # BR(~u_L -> chi^0_1 u)
     1.14938333E-03    2     1000025         2   # BR(~u_L -> chi^0_3 u)
     4.78147534E-02    2     1000035         2   # BR(~u_L -> chi^0_4 u)
     5.23701183E-04    2     1000024         1   # BR(~u_L -> chi^+_1 d)
     9.54463222E-02    2     1000037         1   # BR(~u_L -> chi^+_2 d)
     8.54448508E-01    2     1000021         2   # BR(~u_L -> ~g u)
DECAY   2000004     7.73327718E+02   # ~c_R
#    BR                NDA      ID1      ID2
     1.64917773E-02    2     1000022         4   # BR(~c_R -> chi^0_1 c)
     1.01503194E-04    2     1000023         4   # BR(~c_R -> chi^0_2 c)
     1.25383916E-02    2     1000025         4   # BR(~c_R -> chi^0_3 c)
     9.70863531E-01    2     1000021         4   # BR(~c_R -> ~g c)
DECAY   1000004     8.80781621E+02   # ~c_L
#    BR                NDA      ID1      ID2
     5.99155510E-04    2     1000022         4   # BR(~c_L -> chi^0_1 c)
     1.15056692E-03    2     1000025         4   # BR(~c_L -> chi^0_3 c)
     4.78108820E-02    2     1000035         4   # BR(~c_L -> chi^0_4 c)
     6.00714473E-04    2     1000024         3   # BR(~c_L -> chi^+_1 s)
     9.54385860E-02    2     1000037         3   # BR(~c_L -> chi^+_2 s)
     8.54379115E-01    2     1000021         4   # BR(~c_L -> ~g c)
DECAY   1000006     2.87594687E+02   # ~t_1
#    BR                NDA      ID1      ID2
     2.29321616E-04    2     1000022         4   # BR(~t_1 -> chi^0_1 c)
     4.09032279E-02    2     1000022         6   # BR(~t_1 -> chi^0_1 t)
     1.05308903E-01    2     1000023         6   # BR(~t_1 -> chi^0_2 t)
     6.32322598E-02    2     1000025         6   # BR(~t_1 -> chi^0_3 t)
     2.27578337E-02    2     1000035         6   # BR(~t_1 -> chi^0_4 t)
     1.89900699E-01    2     1000024         5   # BR(~t_1 -> chi^+_1 b)
     4.46409973E-02    2     1000037         5   # BR(~t_1 -> chi^+_2 b)
     1.55623658E-01    2     1000021         4   # BR(~t_1 -> ~g c)
     3.62929952E-01    2     1000021         6   # BR(~t_1 -> ~g t)
#    BR                NDA      ID1      ID2       ID3
     1.44659400E-02    3     1000022        24         5   # BR(~t_1 -> chi^0_1 W^+ b)
DECAY   2000006     5.12758342E+02   # ~t_2
#    BR                NDA      ID1      ID2
     4.26467228E-02    2     1000022         6   # BR(~t_2 -> chi^0_1 t)
     9.01880058E-02    2     1000023         6   # BR(~t_2 -> chi^0_2 t)
     6.53044556E-02    2     1000025         6   # BR(~t_2 -> chi^0_3 t)
     7.31422815E-04    2     1000035         6   # BR(~t_2 -> chi^0_4 t)
     1.78093813E-01    2     1000024         5   # BR(~t_2 -> chi^+_1 b)
     1.46240709E-03    2     1000037         5   # BR(~t_2 -> chi^+_2 b)
     5.07424958E-01    2     1000021         6   # BR(~t_2 -> ~g t)
     5.08941587E-02    2     1000005        24   # BR(~t_2 -> ~b_1 W^+)
     2.54400351E-02    2     1000006        23   # BR(~t_2 -> ~t_1 Z)
     3.78121969E-02    2     1000006        25   # BR(~t_2 -> ~t_1 h^0)
DECAY   1000024     4.61960197E-05   # chi^+_1
#    BR                NDA      ID1      ID2       ID3
     3.34290753E-01    3     1000022        -1         2   # BR(chi^+_1 -> chi^0_1 d_bar u)
     3.32609392E-01    3     1000022        -3         4   # BR(chi^+_1 -> chi^0_1 s_bar c)
     1.11430462E-01    3     1000022       -11        12   # BR(chi^+_1 -> chi^0_1 e^+ nu_e)
     1.11429826E-01    3     1000022       -13        14   # BR(chi^+_1 -> chi^0_1 mu^+ nu_mu)
     1.10239567E-01    3     1000022       -15        16   # BR(chi^+_1 -> chi^0_1 tau^+ nu_tau)
DECAY   1000037     1.49231257E+01   # chi^+_2
#    BR                NDA      ID1      ID2
     8.17560435E-02    2     1000022        24   # BR(chi^+_2 -> chi^0_1 W^+)
     2.46646565E-01    2     1000023        24   # BR(chi^+_2 -> chi^0_2 W^+)
     1.61928947E-01    2     1000025        24   # BR(chi^+_2 -> chi^0_3 W^+)
     2.44199595E-01    2     1000024        23   # BR(chi^+_2 -> chi^+_1 Z)
     2.39374655E-01    2     1000024        25   # BR(chi^+_2 -> chi^+_1 h^0)
#    BR                NDA      ID1      ID2       ID3
     1.00669737E-02    3     1000024         6        -6   # BR(chi^+_2 -> chi^+_1 t t_bar)
     2.77581910E-04    3     1000024         5        -5   # BR(chi^+_2 -> chi^+_1 b b_bar)
     2.72475440E-03    3     1000022        -5         6   # BR(chi^+_2 -> chi^0_1 b_bar t)
     7.80994098E-03    3     1000023        -5         6   # BR(chi^+_2 -> chi^0_2 b_bar t)
     5.18249359E-03    3     1000025        -5         6   # BR(chi^+_2 -> chi^0_3 b_bar t)
DECAY   1000022     0.00000000E+00   # chi^0_1
DECAY   1000023     1.96456759E-04   # chi^0_2
#    BR                NDA      ID1      ID2
     1.86594037E-02    2     1000022        22   # BR(chi^0_2 -> chi^0_1 photon)
#    BR                NDA      ID1      ID2       ID3
     1.18364603E-01    3     1000022         2        -2   # BR(chi^0_2 -> chi^0_1 u u_bar)
     1.17065451E-01    3     1000022         4        -4   # BR(chi^0_2 -> chi^0_1 c c_bar)
     1.51766699E-01    3     1000022         1        -1   # BR(chi^0_2 -> chi^0_1 d d_bar)
     1.51758713E-01    3     1000022         3        -3   # BR(chi^0_2 -> chi^0_1 s s_bar)
     1.37439761E-01    3     1000022         5        -5   # BR(chi^0_2 -> chi^0_1 b b_bar)
     3.42492141E-02    3     1000022        11       -11   # BR(chi^0_2 -> chi^0_1 e^- e^+)
     3.42463531E-02    3     1000022        13       -13   # BR(chi^0_2 -> chi^0_1 mu^- mu^+)
     3.34525818E-02    3     1000022        15       -15   # BR(chi^0_2 -> chi^0_1 tau^- tau^+)
     2.02956854E-01    3     1000022        12       -12   # BR(chi^0_2 -> chi^0_1 nu_e nu_bar_e)
DECAY   1000025     2.69935798E-05   # chi^0_3
#    BR                NDA      ID1      ID2
     3.10723645E-03    2     1000022        22   # BR(chi^0_3 -> chi^0_1 photon)
     3.50850130E-02    2     1000023        22   # BR(chi^0_3 -> chi^0_2 photon)
#    BR                NDA      ID1      ID2       ID3
     5.17095284E-03    3     1000022         2        -2   # BR(chi^0_3 -> chi^0_1 u u_bar)
     5.15172556E-03    3     1000022         4        -4   # BR(chi^0_3 -> chi^0_1 c c_bar)
     6.62344572E-03    3     1000022         1        -1   # BR(chi^0_3 -> chi^0_1 d d_bar)
     6.62335160E-03    3     1000022         3        -3   # BR(chi^0_3 -> chi^0_1 s s_bar)
     6.86857220E-03    3     1000022         5        -5   # BR(chi^0_3 -> chi^0_1 b b_bar)
     1.48916096E-03    3     1000022        11       -11   # BR(chi^0_3 -> chi^0_1 e^- e^+)
     1.48915189E-03    3     1000022        13       -13   # BR(chi^0_3 -> chi^0_1 mu^- mu^+)
     1.48634519E-03    3     1000022        15       -15   # BR(chi^0_3 -> chi^0_1 tau^- tau^+)
     8.86597240E-03    3     1000022        12       -12   # BR(chi^0_3 -> chi^0_1 nu_e nu_bar_e)
     3.78677752E-02    3     1000023         2        -2   # BR(chi^0_3 -> chi^0_2 u u_bar)
     3.61785056E-02    3     1000023         4        -4   # BR(chi^0_3 -> chi^0_2 c c_bar)
     4.85541669E-02    3     1000023         1        -1   # BR(chi^0_3 -> chi^0_2 d d_bar)
     4.85434488E-02    3     1000023         3        -3   # BR(chi^0_3 -> chi^0_2 s s_bar)
     3.14978431E-02    3     1000023         5        -5   # BR(chi^0_3 -> chi^0_2 b b_bar)
     1.09573592E-02    3     1000023        11       -11   # BR(chi^0_3 -> chi^0_2 e^- e^+)
     1.09535394E-02    3     1000023        13       -13   # BR(chi^0_3 -> chi^0_2 mu^- mu^+)
     9.93815293E-03    3     1000023        15       -15   # BR(chi^0_3 -> chi^0_2 tau^- tau^+)
     6.49305977E-02    3     1000023        12       -12   # BR(chi^0_3 -> chi^0_2 nu_e nu_bar_e)
     1.03778035E-01    3     1000024         1        -2   # BR(chi^0_3 -> chi^+_1 d u_bar)
     1.03778035E-01    3    -1000024        -1         2   # BR(chi^0_3 -> chi^-_1 d_bar u)
     1.02566790E-01    3     1000024         3        -4   # BR(chi^0_3 -> chi^+_1 s c_bar)
     1.02566790E-01    3    -1000024        -3         4   # BR(chi^0_3 -> chi^-_1 s_bar c)
     3.45925851E-02    3     1000024        11       -12   # BR(chi^0_3 -> chi^+_1 e^- nu_bar_e)
     3.45925851E-02    3    -1000024       -11        12   # BR(chi^0_3 -> chi^-_1 e^+ nu_e)
     3.45923150E-02    3     1000024        13       -14   # BR(chi^0_3 -> chi^+_1 mu^- nu_bar_mu)
     3.45923150E-02    3    -1000024       -13        14   # BR(chi^0_3 -> chi^-_1 mu^+ nu_mu)
     3.37791162E-02    3     1000024        15       -16   # BR(chi^0_3 -> chi^+_1 tau^- nu_bar_tau)
     3.37791162E-02    3    -1000024       -15        16   # BR(chi^0_3 -> chi^-_1 tau^+ nu_tau)
DECAY   1000035     1.60237910E+01   # chi^0_4
#    BR                NDA      ID1      ID2
     2.28789321E-01    2     1000024       -24   # BR(chi^0_4 -> chi^+_1 W^-)
     2.28789321E-01    2    -1000024        24   # BR(chi^0_4 -> chi^-_1 W^+)
     2.63594977E-02    2     1000022        23   # BR(chi^0_4 -> chi^0_1 Z)
     1.54620638E-01    2     1000023        23   # BR(chi^0_4 -> chi^0_2 Z)
     4.72382019E-02    2     1000025        23   # BR(chi^0_4 -> chi^0_3 Z)
     4.90703735E-02    2     1000022        25   # BR(chi^0_4 -> chi^0_1 h^0)
     1.41762828E-01    2     1000023        25   # BR(chi^0_4 -> chi^0_2 h^0)
     1.00710780E-01    2     1000025        25   # BR(chi^0_4 -> chi^0_3 h^0)
#    BR                NDA      ID1      ID2       ID3
     1.42497503E-03    3     1000022         6        -6   # BR(chi^0_4 -> chi^0_1 t t_bar)
     4.05692363E-03    3     1000023         6        -6   # BR(chi^0_4 -> chi^0_2 t t_bar)
     1.30059649E-04    3     1000023         5        -5   # BR(chi^0_4 -> chi^0_2 b b_bar)
     2.69923055E-03    3     1000025         6        -6   # BR(chi^0_4 -> chi^0_3 t t_bar)
     7.08946155E-03    3     1000024         5        -6   # BR(chi^0_4 -> chi^+_1 b t_bar)
     7.08946155E-03    3    -1000024        -5         6   # BR(chi^0_4 -> chi^-_1 b_bar t)
DECAY   1000021     2.32628884E-02   # ~g
#    BR                NDA      ID1      ID2
     1.66411025E-03    2     1000022        21   # BR(~g -> chi^0_1 g)
     5.01513778E-03    2     1000023        21   # BR(~g -> chi^0_2 g)
     2.00629385E-03    2     1000025        21   # BR(~g -> chi^0_3 g)
#    BR                NDA      ID1      ID2       ID3
     3.73541444E-02    3     1000022         6        -6   # BR(~g -> chi^0_1 t t_bar)
     8.12989626E-02    3     1000022         5        -5   # BR(~g -> chi^0_1 b b_bar)
     9.76245345E-02    3     1000023         6        -6   # BR(~g -> chi^0_2 t t_bar)
     1.48756580E-01    3     1000023         5        -5   # BR(~g -> chi^0_2 b b_bar)
     6.17997544E-02    3     1000025         6        -6   # BR(~g -> chi^0_3 t t_bar)
     7.79914482E-02    3     1000025         5        -5   # BR(~g -> chi^0_3 b b_bar)
     2.43071739E-01    3     1000024         5        -6   # BR(~g -> chi^+_1 b t_bar)
     2.43071739E-01    3    -1000024        -5         6   # BR(~g -> chi^-_1 b_bar t)
DECAY        25     3.39486130E-03   # Gamma(h0)
     2.62382709E-03   2        22        22   # BR(h0 -> photon photon)
     1.61700213E-03   2        22        23   # BR(h0 -> photon Z)
     2.92104765E-02   2        23        23   # BR(h0 -> Z Z)
     2.44332586E-01   2       -24        24   # BR(h0 -> W W)
     8.17399031E-02   2        21        21   # BR(h0 -> gluon gluon)
     4.93423961E-09   2       -11        11   # BR(h0 -> Electron electron)
     2.19483472E-04   2       -13        13   # BR(h0 -> Muon muon)
     6.32841112E-02   2       -15        15   # BR(h0 -> Tau tau)
     1.39838325E-07   2        -2         2   # BR(h0 -> Up up)
     2.71400631E-02   2        -4         4   # BR(h0 -> Charm charm)
     5.71610731E-07   2        -1         1   # BR(h0 -> Down down)
     2.06738096E-04   2        -3         3   # BR(h0 -> Strange strange)
     5.49625093E-01   2        -5         5   # BR(h0 -> Bottom bottom)
DECAY        35     1.10195025E+02   # Gamma(HH)
     6.49002654E-09   2        22        22   # BR(HH -> photon photon)
     1.66398208E-08   2        22        23   # BR(HH -> photon Z)
     1.50004480E-07   2        23        23   # BR(HH -> Z Z)
     5.52230973E-08   2       -24        24   # BR(HH -> W W)
     1.40742710E-05   2        21        21   # BR(HH -> gluon gluon)
     1.00830728E-08   2       -11        11   # BR(HH -> Electron electron)
     4.48926514E-04   2       -13        13   # BR(HH -> Muon muon)
     1.29652347E-01   2       -15        15   # BR(HH -> Tau tau)
     1.64800994E-14   2        -2         2   # BR(HH -> Up up)
     3.19695063E-09   2        -4         4   # BR(HH -> Charm charm)
     2.34408261E-04   2        -6         6   # BR(HH -> Top top)
     7.49023884E-07   2        -1         1   # BR(HH -> Down down)
     2.70947226E-04   2        -3         3   # BR(HH -> Strange strange)
     7.26329658E-01   2        -5         5   # BR(HH -> Bottom bottom)
     1.04382942E-03   2  -1000024   1000024   # BR(HH -> Chargino1 chargino1)
     3.83967223E-02   2  -1000024   1000037   # BR(HH -> Chargino1 chargino2)
     3.83967223E-02   2  -1000037   1000024   # BR(HH -> Chargino2 chargino1)
     8.38648834E-03   2   1000022   1000022   # BR(HH -> neutralino1 neutralino1)
     5.91707858E-03   2   1000022   1000023   # BR(HH -> neutralino1 neutralino2)
     8.73901860E-06   2   1000022   1000025   # BR(HH -> neutralino1 neutralino3)
     9.23365368E-03   2   1000022   1000035   # BR(HH -> neutralino1 neutralino4)
     3.61969342E-04   2   1000023   1000023   # BR(HH -> neutralino2 neutralino2)
     7.40764004E-03   2   1000023   1000025   # BR(HH -> neutralino2 neutralino3)
     2.30987726E-02   2   1000023   1000035   # BR(HH -> neutralino2 neutralino4)
     4.57081051E-03   2   1000025   1000025   # BR(HH -> neutralino3 neutralino3)
     6.22561025E-03   2   1000025   1000035   # BR(HH -> neutralino3 neutralino4)
     6.11429178E-07   2        25        25   # BR(HH -> h0 h0)
DECAY        36     1.02839651E+02   # Gamma(A0)
     5.35358408E-08   2        22        22   # BR(A0 -> photon photon)
     5.65723081E-08   2        22        23   # BR(A0 -> photon Z)
     2.08046511E-05   2        21        21   # BR(A0 -> gluon gluon)
     9.96047368E-09   2       -11        11   # BR(A0 -> Electron electron)
     4.43465106E-04   2       -13        13   # BR(A0 -> Muon muon)
     1.28075340E-01   2       -15        15   # BR(A0 -> Tau tau)
     1.55348252E-14   2        -2         2   # BR(A0 -> Up up)
     3.01355178E-09   2        -4         4   # BR(A0 -> Charm charm)
     2.25024805E-04   2        -6         6   # BR(A0 -> Top top)
     7.39859535E-07   2        -1         1   # BR(A0 -> Down down)
     2.67632283E-04   2        -3         3   # BR(A0 -> Strange strange)
     7.17466414E-01   2        -5         5   # BR(A0 -> Bottom bottom)
     1.17876471E-03   2  -1000024   1000024   # BR(A0 -> Chargino1 chargino1)
     4.11798820E-02   2  -1000024   1000037   # BR(A0 -> Chargino1 chargino2)
     4.11798820E-02   2  -1000037   1000024   # BR(A0 -> Chargino2 chargino1)
     9.85212923E-03   2   1000022   1000022   # BR(A0 -> neutralino1 neutralino1)
     5.60355102E-03   2   1000022   1000023   # BR(A0 -> neutralino1 neutralino2)
     7.48525773E-06   2   1000022   1000025   # BR(A0 -> neutralino1 neutralino3)
     1.45221306E-02   2   1000022   1000035   # BR(A0 -> neutralino1 neutralino4)
     3.76579220E-04   2   1000023   1000023   # BR(A0 -> neutralino2 neutralino2)
     7.18600583E-03   2   1000023   1000025   # BR(A0 -> neutralino2 neutralino3)
     1.58594819E-02   2   1000023   1000035   # BR(A0 -> neutralino2 neutralino4)
     5.56461580E-03   2   1000025   1000025   # BR(A0 -> neutralino3 neutralino3)
     1.09897100E-02   2   1000025   1000035   # BR(A0 -> neutralino3 neutralino4)
     2.38817505E-07   2        23        25   # BR(A0 -> Z h0)
     6.05396270E-14   2        23        35   # BR(A0 -> Z HH)
     2.27157327E-39   2        25        25   # BR(A0 -> h0 h0)
DECAY        37     1.30197012E+02   # Gamma(Hp)
     1.08866326E-08   2       -11        12   # BR(Hp -> Electron nu_e)
     4.65437545E-04   2       -13        14   # BR(Hp -> Muon nu_mu)
     1.31652173E-01   2       -15        16   # BR(Hp -> Tau nu_tau)
     7.08084957E-07   2        -1         2   # BR(Hp -> Down up)
     1.19333486E-05   2        -3         2   # BR(Hp -> Strange up)
     7.89565569E-06   2        -5         2   # BR(Hp -> Bottom up)
     3.31568884E-08   2        -1         4   # BR(Hp -> Down charm)
     2.55211350E-04   2        -3         4   # BR(Hp -> Strange charm)
     1.10567416E-03   2        -5         4   # BR(Hp -> Bottom charm)
     1.57702180E-08   2        -1         6   # BR(Hp -> Down top)
     7.20227708E-07   2        -3         6   # BR(Hp -> Strange top)
     7.45246538E-01   2        -5         6   # BR(Hp -> Bottom top)
     9.60842877E-03   2   1000022   1000024   # BR(Hp -> neutralino1 chargino1)
     1.94306974E-02   2   1000022   1000037   # BR(Hp -> neutralino1 chargino2)
     1.46989415E-05   2   1000023   1000024   # BR(Hp -> neutralino2 chargino1)
     3.21922750E-02   2   1000023   1000037   # BR(Hp -> neutralino2 chargino2)
     1.32422558E-02   2   1000024   1000025   # BR(Hp -> chargino1 neutralino3)
     1.40653910E-02   2   1000025   1000037   # BR(Hp -> neutralino3 chargino2)
     3.26997124E-02   2   1000024   1000035   # BR(Hp -> chargino1 neutralino4)
     1.89398218E-07   2        24        25   # BR(Hp -> W h0)
     1.29848630E-11   2        24        35   # BR(Hp -> W HH)
     1.62257503E-12   2        24        36   # BR(Hp -> W A0)
DECAY         6     2.43000000E+00   # top
#    BR                NDA      ID1      ID2
     1.00000000E+00    2           5        24   # BR(t -> b W)
Block HiggsBoundsInputHiggsCouplingsFermions
# ScalarNormEffCoupSq PseudoSNormEffCoupSq NP IP1 IP2 IP2
    1.00710536E+00    0.00000000E+00        3  25   5   5  # h0-b-b eff. coupling^2, normalised to SM
    3.30285829E+03    0.00000000E+00        3  35   5   5  # H0-b-b eff. coupling^2, normalised to SM
    0.00000000E+00    3.30286539E+03        3  36   5   5  # A0-b-b eff. coupling^2, normalised to SM
#
    9.99997849E-01    0.00000000E+00        3  25   6   6  # h0-t-t eff. coupling^2, normalised to SM
    3.04918682E-04    0.00000000E+00        3  35   6   6  # H0-t-t eff. coupling^2, normalised to SM
    0.00000000E+00    3.02767410E-04        3  36   6   6  # A0-t-t eff. coupling^2, normalised to SM
#
    1.00710536E+00    0.00000000E+00        3  25  15  15  # h0-tau-tau eff. coupling^2, normalised to SM
    3.30285829E+03    0.00000000E+00        3  35  15  15  # H0-tau-tau eff. coupling^2, normalised to SM
    0.00000000E+00    3.30286539E+03        3  36  15  15  # A0-tau-tau eff. coupling^2, normalised to SM
#
Block HiggsBoundsInputHiggsCouplingsBosons
    9.99999996E-01        3  25  24  24  # h0-W-W eff. coupling^2, normalised to SM
    3.80788091E-09        3  35  24  24  # H0-W-W eff. coupling^2, normalised to SM
    0.00000000E+00        3  36  24  24  # A0-W-W eff. coupling^2, normalised to SM
#
    9.99999996E-01        3  25  23  23  # h0-Z-Z eff. coupling^2, normalised to SM
    3.80788091E-09        3  35  23  23  # H0-Z-Z eff. coupling^2, normalised to SM
    0.00000000E+00        3  36  23  23  # A0-Z-Z eff. coupling^2, normalised to SM
#
    1.26329041E+00        3  25  21  21  # h0-g-g eff. coupling^2, normalised to SM
    2.06885926E-02        3  35  21  21  # H0-g-g eff. coupling^2, normalised to SM
    1.64871605E-01        3  36  21  21  # A0-g-g eff. coupling^2, normalised to SM
#
    0.00000000E+00        3  25  25  23  # h0-h0-Z eff. coupling^2, normalised to SM
    0.00000000E+00        3  35  25  23  # H0-h0-Z eff. coupling^2, normalised to SM
    3.80788091E-09        3  36  25  23  # A0-h0-Z eff. coupling^2, normalised to SM
    0.00000000E+00        3  35  35  23  # H0-H0-Z eff. coupling^2, normalised to SM
    9.99999996E-01        3  36  35  23  # A0-H0-Z eff. coupling^2, normalised to SM
    0.00000000E+00        3  36  36  23  # A0-A0-Z eff. coupling^2, normalised to SM
#
    0.00000000E+00        4  25  21  21  23  # h0-g-g-Z eff. coupling^2, normalised to SM
    0.00000000E+00        4  35  21  21  23  # H0-g-g-Z eff. coupling^2, normalised to SM
    0.00000000E+00        4  36  21  21  23  # A0-g-g-Z eff. coupling^2, normalised to SM
Block SPhenoLowEnergy  # low energy observables
    1    3.08705460E-04   # BR(b -> s gamma)
    2    1.59247907E-06   # BR(b -> s mu+ mu-)
    3    3.52599182E-05   # BR(b -> s nu nu)
    4    4.08885837E-15   # BR(Bd -> e+ e-)
    5    1.74659137E-10   # BR(Bd -> mu+ mu-)
    6    3.58663110E-08   # BR(Bd -> tau+ tau-)
    7    1.35444037E-13   # BR(Bs -> e+ e-)
    8    5.78578245E-09   # BR(Bs -> mu+ mu-)
    9    1.20516686E-06   # BR(Bs -> tau+ tau-)
   10    9.44030794E-05   # BR(B_u -> tau nu)
   11    9.75147669E-01   # BR(B_u -> tau nu)/BR(B_u -> tau nu)_SM
   12    5.41840996E-01   # |Delta(M_Bd)| [ps^-1] 
   13    1.93398855E+01   # |Delta(M_Bs)| [ps^-1] 
   14    0.00000000E+00   # neutron EDM according to the chiral quark model
   15    0.00000000E+00   # neutron EDM according to the relativistic quark-parton model
   16    2.15703808E-03   # epsilon_K
   17    2.28165855E-15   # Delta(M_K)
   18    2.48021764E-11   # BR(K^0 -> pi^0 nu nu)
   19    8.29110679E-11   # BR(K^+ -> pi^+ nu nu)
   20    5.69835554E-16   # Delta(g-2)_electron/2
   21    2.43624765E-11   # Delta(g-2)_muon/2
   22    6.90822364E-09   # Delta(g-2)_tau/2
   23    0.00000000E+00   # electric dipole moment of the electron
   24    0.00000000E+00   # electric dipole moment of the muon
   25    0.00000000E+00   # electric dipole moment of the tau
   26    0.00000000E+00   # Br(mu -> e gamma)
   27    0.00000000E+00   # Br(tau -> e gamma)
   28    0.00000000E+00   # Br(tau -> mu gamma)
   29    0.00000000E+00   # Br(mu -> 3 e)
   30    0.00000000E+00   # Br(tau -> 3 e)
   31    0.00000000E+00   # Br(tau -> 3 mu)
   39    7.74754288E-05   # Delta(rho_parameter)
   40    0.00000000E+00   # BR(Z -> e mu)
   41    0.00000000E+00   # BR(Z -> e tau)
   42    0.00000000E+00   # BR(Z -> mu tau)
Block FWCOEF Q=  1.60000000E+02  # Wilson coefficients at scale Q
#    id        order  M        value         comment
     0305 4422   00   0    -1.88819110E-01   # C7
     0305 4422   00   2    -1.72189979E-01   # C7
     0305 4322   00   2    -3.13408908E-05   # C7'
     0305 6421   00   0    -9.52278348E-02   # C8
     0305 6421   00   2    -9.76342819E-02   # C8
     0305 6321   00   2    -2.26993230E-04   # C8'
 03051111 4133   00   0     1.62514094E+00   # C9 e+e-
 03051111 4133   00   2     1.62560617E+00   # C9 e+e-
 03051111 4233   00   2     9.39282447E-04   # C9' e+e-
 03051111 4137   00   0    -4.44783305E+00   # C10 e+e-
 03051111 4137   00   2    -4.44715144E+00   # C10 e+e-
 03051111 4237   00   2    -6.96532654E-03   # C10' e+e-
 03051313 4133   00   0     1.62514094E+00   # C9 mu+mu-
 03051313 4133   00   2     1.62560593E+00   # C9 mu+mu-
 03051313 4233   00   2     9.39279841E-04   # C9' mu+mu-
 03051313 4137   00   0    -4.44783305E+00   # C10 mu+mu-
 03051313 4137   00   2    -4.44715168E+00   # C10 mu+mu-
 03051313 4237   00   2    -6.96532616E-03   # C10' mu+mu-
 03051212 4137   00   0     1.50535012E+00   # C11 nu_1 nu_1
 03051212 4137   00   2     1.50520422E+00   # C11 nu_1 nu_1
 03051212 4237   00   2     1.50668915E-03   # C11' nu_1 nu_1
 03051414 4137   00   0     1.50535012E+00   # C11 nu_2 nu_2
 03051414 4137   00   2     1.50520422E+00   # C11 nu_2 nu_2
 03051414 4237   00   2     1.50668959E-03   # C11' nu_2 nu_2
 03051616 4137   00   0     1.50535012E+00   # C11 nu_3 nu_3
 03051616 4137   00   2     1.50520423E+00   # C11 nu_3 nu_3
 03051616 4237   00   2     1.50681446E-03   # C11' nu_3 nu_3
Block IMFWCOEF Q=  1.60000000E+02  # Im(Wilson coefficients) at scale Q
#    id        order  M        value         comment
     0305 4422   00   0     3.85829252E-07   # C7
     0305 4422   00   2     3.60723832E-05   # C7
     0305 4322   00   2     2.42654414E-06   # C7'
     0305 6421   00   0     3.30488271E-07   # C8
     0305 6421   00   2    -5.88320254E-05   # C8
     0305 6321   00   2    -2.42621994E-07   # C8'
 03051111 4133   00   2     8.55383650E-07   # C9 e+e-
 03051111 4233   00   2     1.86280995E-05   # C9' e+e-
 03051111 4137   00   2    -1.78671108E-06   # C10 e+e-
 03051111 4237   00   2    -1.38148341E-04   # C10' e+e-
 03051313 4133   00   2     8.55376174E-07   # C9 mu+mu-
 03051313 4233   00   2     1.86280897E-05   # C9' mu+mu-
 03051313 4137   00   2    -1.78670373E-06   # C10 mu+mu-
 03051313 4237   00   2    -1.38148371E-04   # C10' mu+mu-
 03051212 4137   00   2     4.13918208E-07   # C11 nu_1 nu_1
 03051212 4237   00   2     2.98832535E-05   # C11' nu_1 nu_1
 03051414 4137   00   2     4.13918477E-07   # C11 nu_2 nu_2
 03051414 4237   00   2     2.98832535E-05   # C11' nu_2 nu_2
 03051616 4137   00   2     4.13993242E-07   # C11 nu_3 nu_3
 03051616 4237   00   2     2.98832534E-05   # C11' nu_3 nu_3
