BLOCK SPINFO
   1   SPheno
   2   v4.0.5be

BLOCK SPHENOINFO
   1   2
   2   2

BLOCK MODSEL
   1   0

BLOCK MINPAR
   3    25.983632
   4   -1

BLOCK EXTPAR
   0    1462.5364
   1   -66.587435
   2    475.13346
   3    3000
   11    2672.2126
   12    834.58045
   13   -433.68465
   23   -183.86758
   25    25.120473
   26    3500.5323
   31    1216.3662
   32    1216.3662
   33    500.87601
   34    266.36176
   35    266.36176
   36    626.53336
   41    5000
   42    5000
   43    1198.754
   44    5000
   45    5000
   46    1879.7457
   47    5000
   48    5000
   49    1591.8371

BLOCK SMINPUTS
   1    127.90897
   2    1.1663787e-05
   3    0.1184
   4    91.1876
   5    4.18
   6    173.2
   7    1.777
   8    0
   11    0.00051099893
   12    0
   13    0.10565837
   14    0
   21    0.005
   22    0.0025
   23    0.095
   24    1.27

BLOCK GAUGE Q=  1462.5364
   1    0.35536298
   2    0.66519887
   3    1.219778

BLOCK YU Q=  1462.5364
   1   1    8.3910128e-06
   2   2    0.0042626345
   3   3    1.0137018

BLOCK YD Q=  1462.5364
   1   1    0.00042356731
   2   2    0.008047779
   3   3    0.42004605

BLOCK YE Q=  1462.5364
   1   1    7.3915593e-05
   2   2    0.0152834
   3   3    0.25704165

BLOCK AU Q=  1462.5364
   1   1    0
   2   2    0
   3   3    2672.2126

BLOCK AD Q=  1462.5364
   1   1    0
   2   2    0
   3   3    834.58045

BLOCK AE Q=  1462.5364
   1   1    0
   2   2    0
   3   3   -433.68465

BLOCK MSOFT Q=  1462.5364
   1   -66.587435
   2    475.13346
   3    3000
   21    12182820
   22    33848.334
   31    1216.3662
   32    1216.3662
   33    500.87601
   34    266.36176
   35    266.36176
   36    626.53336
   41    5000
   42    5000
   43    1198.754
   44    5000
   45    5000
   46    1879.7457
   47    5000
   48    5000
   49    1591.8371

BLOCK MASS
   6    173.2
   23    91.1876
   24    80.429995
   15    1.777
   25    123.42073
   35    3499.5182
   36    3500.5323
   37    3500.8025
   1000001    5027.4383
   2000001    5016.7442
   1000002    5026.9867
   2000002    5018.7749
   1000003    5027.4405
   2000003    5016.7476
   1000004    5026.9888
   2000004    5018.7757
   1000005    1173.7928
   2000005    1610.1956
   1000006    1146.3242
   2000006    1865.9755
   1000011    1221.4027
   2000011    261.57051
   1000012    1218.4291
   1000013    1221.4054
   2000013    261.60326
   1000014    1218.4307
   1000015    514.38474
   2000015    629.19039
   1000016    508.17541
   1000021    3186.3119
   1000022   -61.544283
   1000023    181.79548
   1000025   -199.97739
   1000035    516.95174
   1000024    183.20023
   1000037    517.23507

BLOCK ALPHA
      -0.038532524

BLOCK HMIX Q=  1462.5364
   1   -183.86758
   2    25.120473
   3    244.0225
   4    12253726

BLOCK STOPMIX
   1   1   -0.98187047
   1   2    0.18955311
   2   1   -0.18955311
   2   2   -0.98187047

BLOCK SBOTMIX
   1   1   -0.99993311
   1   2    0.011565977
   2   1   -0.011565977
   2   2   -0.99993311

BLOCK STAUMIX
   1   1   -0.99842955
   1   2    0.05602175
   2   1   -0.05602175
   2   2   -0.99842955

BLOCK NMIX
   1   1    0.96390293
   1   2    0.014818839
   1   3   -0.24978913
   1   4    0.090977608
   2   1   -0.11545255
   2   2   -0.16492112
   2   3   -0.70353319
   2   4   -0.68155175
   3   1    0.23955136
   3   2   -0.084544956
   3   3    0.66284609
   3   4   -0.70434533
   4   1    0.013303578
   4   2   -0.9825648
   4   3    0.057284366
   4   4    0.17637443

BLOCK UMIX
   1   1   -0.081694399
   1   2   -0.99665743
   2   1    0.99665743
   2   2   -0.081694399

BLOCK VMIX
   1   1   -0.25080369
   1   2    0.96803797
   2   1    0.96803797
   2   2    0.25080369

BLOCK HIGGSBOUNDSINPUTHIGGSCOUPLINGSFERMIONS
       0, 631.03814,3,36,15,15

BLOCK HIGGSBOUNDSINPUTHIGGSCOUPLINGSBOSONS
       0,4,36,21,21,23

BLOCK SPHENOLOWENERGY
   1    0.00030750083
   2    1.5889191e-06
   3    3.5178315e-05
   4    2.6144704e-15
   5    1.1168713e-10
   6    2.3378729e-08
   7    8.840592e-14
   8    3.7766953e-09
   9    8.0099616e-07
   10    9.6517075e-05
   11    0.99698443
   12    0.54274205
   13    19.391272
   14    0
   15    0
   16    0.0021603449
   17    2.2816893e-15
   18    2.4753805e-11
   19    8.2792114e-11
   20   -9.1420814e-15
   21   -3.9090375e-10
   22   -1.6943609e-07
   23    0
   24    0
   25    0
   26    0
   27    0
   28    0
   29    0
   30    0
   31    0
   39    8.6892444e-05
   40    0
   41    0
   42    0

BLOCK FWCOEF Q=  160
   305   4422   0   0   -0.18881911
   305   4422   0   2   -0.17213367
   305   4322   0   2   -1.0484192e-05
   305   6421   0   0   -0.095227835
   305   6421   0   2   -0.092267702
   305   6321   0   2   -8.9249614e-05
   3051111   4133   0   0    1.5910429
   3051111   4133   0   2    1.5920762
   3051111   4233   0   2    0.00010418903
   3051111   4137   0   0   -4.413735
   3051111   4137   0   2   -4.4047336
   3051111   4237   0   2   -0.00081108577
   3051313   4133   0   0    1.5910429
   3051313   4133   0   2    1.5920751
   3051313   4233   0   2    0.00010418861
   3051313   4137   0   0   -4.413735
   3051313   4137   0   2   -4.4047347
   3051313   4237   0   2   -0.00081108658
   3051212   4137   0   0    1.5053501
   3051212   4137   0   2    1.5034086
   3051212   4237   0   2    0.00017678317
   3051414   4137   0   0    1.5053501
   3051414   4137   0   2    1.5034086
   3051414   4237   0   2    0.00017678318
   3051616   4137   0   0    1.5053501
   3051616   4137   0   2    1.5034099
   3051616   4237   0   2    0.00017678295

BLOCK IMFWCOEF Q=  160
   305   4422   0   0    3.8583699e-07
   305   4422   0   2   -2.2823417e-05
   305   4322   0   2    1.508912e-06
   305   6421   0   0    3.304949e-07
   305   6421   0   2    6.5160049e-07
   305   6321   0   2    6.5251668e-07
   3051111   4133   0   2   -6.0011115e-07
   3051111   4233   0   2    2.0843195e-06
   3051111   4137   0   2    7.0242993e-06
   3051111   4237   0   2   -1.6230013e-05
   3051313   4133   0   2   -6.0012498e-07
   3051313   4233   0   2    2.0843127e-06
   3051313   4137   0   2    7.0243473e-06
   3051313   4237   0   2   -1.6230028e-05
   3051212   4137   0   2   -1.14976e-06
   3051212   4237   0   2    3.5375165e-06
   3051414   4137   0   2   -1.1497588e-06
   3051414   4237   0   2    3.5375165e-06
   3051616   4137   0   2   -1.1269922e-06
   3051616   4237   0   2    3.5374803e-06

DECAY 23  2.4952


DECAY 24  2.085


DECAY 2000011  1.1073657
    0.98401396   2    1000022    11
    0.011758242   2    1000025    11
    0.004227788   2    1000023    11

DECAY 1000011  12.483187
    0.57622642   2   -1000037    12
    0.2761189   2    1000035    11
    0.1202485   2    1000022    11
    0.021144181   2    1000023    11
    0.0054927122   2   -1000024    12
    0.00076927826   2    1000025    11

DECAY 2000013  1.10818
    0.98350674   2    1000022    13
    0.011839656   2    1000025    13
    0.0043706488   2    1000023    13
    0.00028295949   2   -1000024    14

DECAY 1000013  12.488709
    0.57597404   2   -1000037    14
    0.27599887   2    1000035    13
    0.12022378   2    1000022    13
    0.021350081   2    1000023    13
    0.0054902969   2   -1000024    14
    0.00095807718   2    1000025    13

DECAY 1000015  1.2741587
    0.53377415   2    1000022    15
    0.27758887   2    1000023    15
    0.1598136   2    1000025    15
    0.028823371   2   -1000024    16

DECAY 2000015  4.4198153
    0.65728598   2    1000022    15
    0.15152822   2   -1000024    16
    0.103672   2    1000025    15
    0.083426461   2    1000023    15
    0.0020938587   2    1000016   -24
    0.0010051173   2   -1000037    16
    0.00050238329   2    1000035    15
    0.00048598091   2    1000015    23

DECAY 1000012  12.549886
    0.53825149   2    1000037    11
    0.28142455   2    1000035    12
    0.10633831   2    1000022    12
    0.051356999   2    1000024    11
    0.018274157   2    1000025    12
    0.0043544978   2    1000023    12

DECAY 1000014  12.555312
    0.53802197   2    1000037    13
    0.28130359   2    1000035    14
    0.10629249   2    1000022    14
    0.051763045   2    1000024    13
    0.018266285   2    1000025    14
    0.0043526219   2    1000023    14

DECAY 1000016  1.3505683
    0.53097873   2    1000024    15
    0.40217134   2    1000022    16
    0.053425887   2    1000025    16
    0.01342405   2    1000023    16

DECAY 2000001  143.74562
    0.980525   2    1000021    1
    0.018097783   2    1000022    1
    0.0011146194   2    1000025    1
    0.00025909445   2    1000023    1

DECAY 1000001  207.76589
    0.68374813   2    1000021    1
    0.20713554   2   -1000037    2
    0.10114795   2    1000035    1
    0.0026187064   2    1000022    1
    0.0022138783   2    1000023    1
    0.0017179186   2    1000025    1
    0.0014178689   2   -1000024    2

DECAY 2000003  143.75883
    0.98043735   2    1000021    3
    0.01809893   2    1000022    3
    0.0011341552   2    1000025    3
    0.00028120601   2    1000023    3

DECAY 1000003  207.7744
    0.68372122   2    1000021    3
    0.2071277   2   -1000037    4
    0.10114395   2    1000035    3
    0.0026205398   2    1000022    3
    0.0022291383   2    1000023    3
    0.001731465   2    1000025    3
    0.0014259815   2   -1000024    4

DECAY 1000005  35.785274
    0.56970204   2   -1000024    6
    0.22130994   2   -1000037    6
    0.091076205   2    1000035    5
    0.057387547   2    1000023    5
    0.049472492   2    1000025    5
    0.011051772   2    1000022    5

DECAY 2000005  11.856099
    0.44997512   2   -1000024    6
    0.23006562   2    1000023    5
    0.20890002   2    1000025    5
    0.098371113   2    1000022    5
    0.0037790488   2   -1000037    6
    0.003535889   2    1000006   -24
    0.0019396089   2    1000005    25
    0.0018941876   2    1000035    5
    0.0015393916   2    1000005    23

DECAY 2000002  152.35972
    0.92647547   2    1000021    2
    0.068325924   2    1000022    2
    0.0042079123   2    1000025    2
    0.00097794898   2    1000023    2

DECAY 1000002  207.763
    0.68353126   2    1000021    2
    0.19539478   2    1000037    1
    0.10016915   2    1000035    2
    0.013362538   2    1000024    1
    0.0037017289   2    1000022    2
    0.0036542724   2    1000023    2
    0.0001862643   2    1000025    2

DECAY 2000004  152.36336
    0.9264535   2    1000021    4
    0.068324392   2    1000022    4
    0.0042136931   2    1000025    4
    0.00098344506   2    1000023    4

DECAY 1000004  207.77145
    0.68350427   2    1000021    4
    0.19538712   2    1000037    3
    0.1001654   2    1000035    4
    0.013392803   2    1000024    3
    0.0037016516   2    1000022    4
    0.0036581719   2    1000023    4
    0.00019058067   2    1000025    4

DECAY 1000006  34.944256
    0.28773404   2    1000025    6
    0.28079747   2    1000023    6
    0.19204062   2    1000037    5
    0.11466748   2    1000035    6
    0.10499703   2    1000024    5
    0.016968616   2    1000022    6
    0.0012689254   2    1000022    4
    0.00120011   2    1000023    4
    0.00032571209   3    1000022    24    5

DECAY 2000006  150.36651
    0.24133249   2    1000024    5
    0.22812547   2    1000005    24
    0.13746072   2    1000006    25
    0.12713732   2    1000025    6
    0.11977272   2    1000006    23
    0.11640469   2    1000023    6
    0.024609495   2    1000022    6
    0.0034334182   2    1000037    5
    0.0017216598   2    1000035    6

DECAY 1000024  0.10872697
    0.99999835   2    1000022    24

DECAY 1000037  3.9418274
    0.2596957   2    1000023    24
    0.25869686   2    1000025    24
    0.24761172   2    1000024    23
    0.21241642   2    1000024    25
    0.019590118   2    1000022    24
    0.00064907632   2    1000016   -15
    0.00059988173   3    1000023   -5    6
    0.00057419002   3    1000025   -5    6

DECAY 1000022 -1


DECAY 1000023  0.08957247
    0.99996176   2    1000022    23

DECAY 1000025  0.049018961
    0.50875536   2    1000022    25
    0.49076025   2    1000022    23

DECAY 1000035  4.6449364
    0.22579913   2    1000024   -24
    0.22579913   2   -1000024    24
    0.1782963   2    1000025    23
    0.1654139   2    1000025    25
    0.13764666   2    1000023    25
    0.046810992   2    1000023    23
    0.0094437525   2    1000022    25
    0.0091032349   2    1000022    23
    0.0004838714   3    1000024    5   -6
    0.0004838714   3   -1000024   -5    6
    0.00027189873   2    1000016   -16
    0.00027189873   2   -1000016    16

DECAY 1000021  253.72476
    0.14723601   2    1000006   -6
    0.14723601   2   -1000006    6
    0.13884751   2    1000005   -5
    0.13884751   2   -1000005    5
    0.10304447   2    2000005   -5
    0.10304447   2   -2000005    5
    0.07495899   2    2000006   -6
    0.07495899   2   -2000006    6
    0.035810574   2    1000006   -4
    0.035810574   2   -1000006    4

DECAY 25  0.0036847708
    0.59750098   2   -5    5
    0.2032053   2   -24    24
    0.073340868   2    21    21
    0.06843734   2   -15    15
    0.029540772   2   -4    4
    0.02383193   2    23    23
    0.0023178515   2    22    22
    0.0013624352   2    22    23
    0.00023745494   2   -13    13
    0.00022428501   2   -3    3
    6.2012512e-07   2   -1    1
    1.5223566e-07   2   -2    2
    5.3382709e-09   2   -11    11

DECAY 35  77.771212
    0.34955953   2   -5    5
    0.16174989   2   -1000024    1000037
    0.16174989   2   -1000037    1000024
    0.088252737   2    1000023    1000035
    0.073468202   2    1000025    1000035
    0.056242131   2   -15    15
    0.028432054   2    1000022    1000023
    0.025812459   2   -1000024    1000024
    0.012720937   2    1000022    1000025
    0.0076935651   2    1000022    1000035
    0.0067847302   2    1000025    1000025
    0.0055928576   2    1000022    1000022
    0.0042087895   2   -2000005    1000005
    0.0042087895   2   -1000005    2000005
    0.003100118   2   -1000037    1000037
    0.0029275748   2   -6    6
    0.0025213258   2    1000023    1000023
    0.0015827086   2    1000035    1000035
    0.0013391219   2    1000023    1000025
    0.00045053556   2   -2000015    1000015
    0.00045053556   2   -1000015    2000015
    0.00033307072   2   -2000006    1000006
    0.00033307072   2   -1000006    2000006
    0.00020537508   2   -13    13
    0.00013245176   2   -1000006    1000006
    0.00012564018   2   -3    3
    5.9100798e-06   2   -2000015    2000015
    4.5541375e-06   2   -1000015    1000015
    4.0034232e-06   2   -1000005    1000005
    1.9653033e-06   2    25    25
    1.4962262e-06   2   -2000005    2000005
    1.4080388e-06   2    21    21
    4.2142781e-07   2    23    23
    3.473502e-07   2   -1    1
    1.0502389e-07   2   -2000011    2000011
    1.0468866e-07   2   -2000013    2000013
    1.0450984e-07   2   -24    24
    9.3468579e-08   2   -1000011    1000011
    9.3079525e-08   2   -1000013    1000013
    8.9114606e-08   2    22    23
    3.7173008e-08   2   -4    4
    2.6920909e-08   2    22    22
    4.6123977e-09   2   -11    11
    3.8297919e-10   2   -2000013    1000013
    3.8297919e-10   2   -1000013    2000013
    1.9161224e-13   2   -2    2
    8.9579276e-15   2   -2000011    1000011
    8.9579276e-15   2   -1000011    2000011

DECAY 36  75.902328
    0.33708308   2   -5    5
    0.16682134   2   -1000024    1000037
    0.16682134   2   -1000037    1000024
    0.084854064   2    1000025    1000035
    0.080537343   2    1000023    1000035
    0.054235303   2   -15    15
    0.025420911   2    1000022    1000023
    0.025404225   2   -1000024    1000024
    0.015756048   2    1000022    1000025
    0.0089092854   2    1000022    1000035
    0.0083016485   2    1000025    1000025
    0.0060770939   2    1000022    1000022
    0.0043175786   2   -2000005    1000005
    0.0043175786   2   -1000005    2000005
    0.0027040563   2   -6    6
    0.0022510081   2    1000023    1000023
    0.0021625315   2   -1000037    1000037
    0.0011191188   2    1000035    1000035
    0.00085864597   2    1000023    1000025
    0.00046682916   2   -2000015    1000015
    0.00046682916   2   -1000015    2000015
    0.00039269515   2   -2000006    1000006
    0.00039269515   2   -1000006    2000006
    0.00019804964   2   -13    13
    0.00012115577   2   -3    3
    8.3099989e-06   2    21    21
    7.9691341e-07   2    23    25
    3.3495137e-07   2   -1    1
    5.332208e-08   2    22    23
    3.3763044e-08   2   -4    4
    4.4478694e-09   2   -11    11
    4.2088207e-09   2    22    22
    3.9199276e-10   2   -2000013    1000013
    3.9199276e-10   2   -1000013    2000013
    1.7404095e-13   2   -2    2
    1.5519816e-14   2    23    35
    9.1687513e-15   2   -2000011    1000011
    9.1687513e-15   2   -1000011    2000011
    2.2072312e-40   2    25    25

DECAY 37  78.507665
    0.35384995   2   -5    6
    0.1790314   2    1000023    1000037
    0.16633309   2    1000024    1000035
    0.15215892   2    1000025    1000037
    0.060207495   2   -15    16
    0.05713861   2    1000022    1000024
    0.016187231   2    1000022    1000037
    0.0087009893   2   -2000005    1000006
    0.0038332312   2    1000023    1000024
    0.00090244064   2   -2000015    1000016
    0.00052102726   2   -5    4
    0.00041722503   2   -1000005    2000006
    0.00036109727   2    1000024    1000025
    0.00021285495   2   -13    14
    0.00011371842   2   -3    4
    1.4471533e-05   2   -1000005    1000006
    5.3340549e-06   2   -3    2
    3.8190719e-06   2   -3    6
    3.7206717e-06   2   -5    2
    1.0620813e-06   2   -1000015    1000016
    7.7099758e-07   2    24    25
    4.0881939e-07   2   -2000011    1000012
    4.0835336e-07   2   -2000013    1000014
    3.1543528e-07   2   -1    2
    2.1353415e-07   2    1000035    1000037
    1.6741285e-07   2   -1    6
    1.6284098e-08   2   -1    4
    4.9786994e-09   2   -11    12
    7.4457214e-10   2   -1000013    1000014
    6.0577461e-14   2    24    35
    1.7415434e-14   2   -1000011    1000012

DECAY 6  2.43
    1   2    5    24

DECAY 15 -1
