BLOCK SPINFO
   1   SPheno
   2   v4.0.5be

BLOCK SPHENOINFO
   1   2
   2   2

BLOCK MODSEL
   1   0

BLOCK MINPAR
   3    56.470241
   4   -1

BLOCK EXTPAR
   0    1421.1053
   1    111.26984
   2   -303.34542
   3    3000
   11   -4558.7736
   12   -1226.0288
   13    65.341677
   23   -147.60615
   25    56.498645
   26    235.9401
   31    168.35805
   32    168.35805
   33    1819.6485
   34    1291.0611
   35    1291.0611
   36    1686.7149
   41    5000
   42    5000
   43    1759.2789
   44    5000
   45    5000
   46    1328.5271
   47    5000
   48    5000
   49    1061.1373

BLOCK SMINPUTS
   1    127.90897
   2    1.1663787e-05
   3    0.1184
   4    91.1876
   5    4.18
   6    173.2
   7    1.777
   8    0
   11    0.00051099893
   12    0
   13    0.10565837
   14    0
   21    0.005
   22    0.0025
   23    0.095
   24    1.27

BLOCK GAUGE Q=  1421.1053
   1    0.35536298
   2    0.66519887
   3    1.219778

BLOCK YU Q=  1421.1053
   1   1    8.3856853e-06
   2   2    0.0042599281
   3   3    1.0130581

BLOCK YD Q=  1421.1053
   1   1    0.00095204361
   2   2    0.018088829
   3   3    0.94412893

BLOCK YE Q=  1421.1053
   1   1    0.00016613857
   2   2    0.034352187
   3   3    0.57774728

BLOCK AU Q=  1421.1053
   1   1    0
   2   2    0
   3   3   -4558.7737

BLOCK AD Q=  1421.1053
   1   1    0
   2   2    0
   3   3   -1226.0288

BLOCK AE Q=  1421.1053
   1   1    0
   2   2    0
   3   3    65.341677

BLOCK MSOFT Q=  1421.1053
   1    111.26984
   2   -303.34542
   3    3000
   21    83476.312
   22    19600.657
   31    168.35805
   32    168.35805
   33    1819.6485
   34    1291.0611
   35    1291.0611
   36    1686.7149
   41    5000
   42    5000
   43    1759.2789
   44    5000
   45    5000
   46    1328.5271
   47    5000
   48    5000
   49    1061.1373

BLOCK MASS
   6    173.2
   23    91.1876
   24    80.429995
   15    1.777
   25    122.3398
   35    235.95528
   36    235.9401
   37    262.1925
   1000001    5029.0156
   2000001    5018.0927
   1000002    5028.5909
   2000002    5019.9371
   1000003    5029.0234
   2000003    5018.1068
   1000004    5028.5986
   2000004    5019.9379
   1000005    1023.8456
   2000005    1695.335
   1000006    1138.6714
   2000006    1773.5935
   1000011    187.57176
   2000011    1291.6463
   1000012    169.94767
   1000013    187.50651
   2000013    1291.6156
   1000014    169.93046
   1000015    1677.4365
   2000015    1819.1158
   1000016    1816.9742
   1000021    3189.1714
   1000022    97.995624
   1000023   -137.7341
   1000025    173.22638
   1000035   -343.9934
   1000024    139.84927
   1000037    344.56293

BLOCK ALPHA
      -0.026655415

BLOCK HMIX Q=  1421.1053
   1   -147.60615
   2    56.498645
   3    243.99525
   4    55667.732

BLOCK STOPMIX
   1   1    0.36976173
   1   2    0.92912661
   2   1   -0.92912661
   2   2    0.36976173

BLOCK SBOTMIX
   1   1   -0.0084838812
   1   2    0.99996401
   2   1   -0.99996401
   2   2   -0.0084838812

BLOCK STAUMIX
   1   1   -0.030565314
   1   2    0.99953277
   2   1   -0.99953277
   2   2   -0.030565314

BLOCK NMIX
   1   1    0.87633635
   1   2    0.048829362
   1   3   -0.40339009
   1   4   -0.25870202
   2   1    0.11702414
   2   2    0.2863605
   2   3    0.70099152
   2   4   -0.64258377
   3   1    0.46643025
   3   2   -0.10654732
   3   3    0.5744627
   3   4    0.66414087
   4   1    0.027978133
   4   2   -0.95092641
   4   3    0.12601558
   4   4   -0.28120503

BLOCK UMIX
   1   1   -0.18018287
   1   2   -0.98363313
   2   1   -0.98363313
   2   2    0.18018287

BLOCK VMIX
   1   1    0.40280462
   1   2    0.91528599
   2   1    0.91528599
   2   2   -0.40280462

BLOCK HIGGSBOUNDSINPUTHIGGSCOUPLINGSFERMIONS
       0, 3192.0969,3,36,15,15

BLOCK HIGGSBOUNDSINPUTHIGGSCOUPLINGSBOSONS
       0,4,36,21,21,23

BLOCK SPHENOLOWENERGY
   1    0.00061872255
   2    1.6430358e-06
   3    3.5244065e-05
   4    4.5047415e-14
   5    1.9222716e-09
   6    2.817054e-07
   7    1.5035441e-12
   8    6.4163033e-08
   9    9.6359319e-06
   10    2.820656e-05
   11    0.29136296
   12    0.54086711
   13    18.46409
   14    0
   15    0
   16    0.0021636041
   17    2.2820164e-15
   18    2.4811017e-11
   19    8.2920051e-11
   20    1.866925e-14
   21    7.9532479e-10
   22    9.1335676e-08
   23    0
   24    0
   25    0
   26    0
   27    0
   28    0
   29    0
   30    0
   31    0
   39    0.00019438227
   40    0
   41    0
   42    0

BLOCK FWCOEF Q=  160
   305   4422   0   0   -0.18881911
   305   4422   0   2   -0.46360127
   305   4322   0   2   -0.0035865276
   305   6421   0   0   -0.095227835
   305   6421   0   2   -0.30872932
   305   6321   0   2   -0.0029714579
   3051111   4133   0   0    1.5909345
   3051111   4133   0   2    1.5918001
   3051111   4233   0   2   -0.0012253773
   3051111   4137   0   0   -4.4136266
   3051111   4137   0   2   -4.4105058
   3051111   4237   0   2    0.0095768297
   3051313   4133   0   0    1.5909345
   3051313   4133   0   2    1.5917817
   3051313   4233   0   2   -0.0012289194
   3051313   4137   0   0   -4.4136266
   3051313   4137   0   2   -4.4105242
   3051313   4237   0   2    0.0095803641
   3051212   4137   0   0    1.5053501
   3051212   4137   0   2    1.5047261
   3051212   4237   0   2   -0.0020876638
   3051414   4137   0   0    1.5053501
   3051414   4137   0   2    1.5047261
   3051414   4237   0   2   -0.0020868904
   3051616   4137   0   0    1.5053501
   3051616   4137   0   2    1.504721
   3051616   4237   0   2   -0.0018689394

BLOCK IMFWCOEF Q=  160
   305   4422   0   0    3.8575935e-07
   305   4422   0   2    2.6792964e-05
   305   4322   0   2   -1.3402753e-05
   305   6421   0   0    3.3042839e-07
   305   6421   0   2    2.9318053e-05
   305   6321   0   2   -6.0150849e-06
   3051111   4133   0   2   -6.3508839e-06
   3051111   4233   0   2    1.0477696e-05
   3051111   4137   0   2    3.9416966e-05
   3051111   4237   0   2   -8.1707091e-05
   3051313   4133   0   2   -6.3506662e-06
   3051313   4233   0   2    1.0477642e-05
   3051313   4137   0   2    3.9417488e-05
   3051313   4237   0   2   -8.1707333e-05
   3051212   4137   0   2   -7.5135057e-06
   3051212   4237   0   2    1.7810981e-05
   3051414   4137   0   2   -7.5134958e-06
   3051414   4237   0   2    1.7810981e-05
   3051616   4137   0   2   -7.6033315e-06
   3051616   4237   0   2    1.7811097e-05

DECAY 23  2.4952


DECAY 24  2.085


DECAY 1000011  0.14892091
    0.78325855   2    1000022    11
    0.14328132   2    1000023    11
    0.071000501   2   -1000024    12
    0.0024407138   2    1000025    11

DECAY 2000011  6.3797994
    0.77226904   2    1000022    11
    0.21342716   2    1000025    11
    0.013616342   2    1000023    11
    0.00068735158   2    1000035    11

DECAY 1000013  0.14962201
    0.78136635   2    1000022    13
    0.14546761   2    1000023    13
    0.070520179   2   -1000024    14
    0.0026272858   2    1000025    13

DECAY 2000013  6.4388413
    0.76592709   2    1000022    13
    0.2129626   2    1000025    13
    0.015752713   2    1000023    13
    0.0044502847   2   -1000024    14
    0.00074555842   2    1000035    13
    0.00013190704   2   -1000037    14

DECAY 1000015  30.282226
    0.35518141   2   -1000024    16
    0.27470487   2    1000022    15
    0.184935   2    1000023    15
    0.17433759   2    1000025    15
    0.007142382   2   -1000037    16
    0.0036987505   2    1000035    15

DECAY 2000015  36.591471
    0.39705847   2   -1000037    16
    0.18477626   2    1000035    15
    0.18414594   2    1000023    15
    0.11469788   2    1000025    15
    0.10890489   2    1000022    15
    0.010254829   2   -1000024    16

DECAY 1000012  0.088319029
    0.66356306   2    1000022    12
    0.28645946   2    1000024    11
    0.049977484   2    1000023    12

DECAY 1000014  0.0886549
    0.66084884   2    1000022    14
    0.28940665   2    1000024    13
    0.049744512   2    1000023    14

DECAY 1000016  36.648192
    0.38471193   2    1000024    15
    0.34978429   2    1000037    15
    0.1892496   2    1000035    16
    0.038148375   2    1000022    16
    0.02711407   2    1000025    16
    0.01080896   2    1000023    16
    0.00018277093   2    1000015    24

DECAY 2000001  143.54302
    0.98050358   2    1000021    1
    0.014977244   2    1000022    1
    0.004236211   2    1000025    1
    0.00026718858   2    1000023    1

DECAY 1000001  208.39281
    0.68083665   2    1000021    1
    0.20361637   2   -1000037    2
    0.096152963   2    1000035    1
    0.0074776262   2    1000023    1
    0.00688634   2   -1000024    2
    0.0038097253   2    1000025    1
    0.0012203217   2    1000022    1

DECAY 2000003  143.60952
    0.98005971   2    1000021    3
    0.015007235   2    1000022    3
    0.0043089354   2    1000025    3
    0.00037835929   2    1000023    3
    0.0002197349   2   -1000024    4

DECAY 1000003  208.42811
    0.68072519   2    1000021    3
    0.20358361   2   -1000037    4
    0.096139284   2    1000035    3
    0.0075532254   2    1000023    3
    0.0068924622   2   -1000024    4
    0.0038606494   2    1000025    3
    0.0012455855   2    1000022    3

DECAY 1000005  34.289245
    0.46506102   2   -1000024    6
    0.25173647   2    1000023    5
    0.16736639   2    1000025    5
    0.097953264   2    1000022    5
    0.0116788   2   -1000037    6
    0.0062040602   2    1000035    5

DECAY 2000005  166.0228
    0.43687575   2    1000006   -24
    0.17040929   2   -1000024    6
    0.11313259   2   -1000037    6
    0.090713861   2    1000023    5
    0.060394903   2    1000025    5
    0.040547844   2    1000035    5
    0.029528202   2    1000022    5
    0.028209027   2    1000005    35
    0.02816857   2    1000005    36
    0.001583134   2    1000006   -37
    0.00025795959   2    1000005    25
    0.00017886843   2    1000005    23

DECAY 2000002  152.13409
    0.92639586   2    1000021    2
    0.056546313   2    1000022    2
    0.015993084   2    1000025    2
    0.0010076055   2    1000023    2

DECAY 1000002  208.39228
    0.68062618   2    1000021    2
    0.17628842   2    1000037    1
    0.094150958   2    1000035    2
    0.034412797   2    1000024    1
    0.010008217   2    1000023    2
    0.004454964   2    1000022    2

DECAY 2000004  152.13773
    0.92637385   2    1000021    4
    0.056545753   2    1000022    4
    0.015997954   2    1000025    4
    0.0010124906   2    1000023    4

DECAY 1000004  208.4275
    0.68051467   2    1000021    4
    0.17626395   2    1000037    3
    0.094135839   2    1000035    4
    0.03455832   2    1000024    3
    0.010010136   2    1000023    4
    0.0044548008   2    1000022    4

DECAY 1000006  45.148551
    0.34056768   2    1000024    5
    0.17784435   2    1000025    6
    0.17135771   2    1000023    6
    0.15290679   2    1000037    5
    0.082835484   2    1000022    6
    0.073205597   2    1000035    6
    0.00085902418   2    1000023    4
    0.00038771833   2    1000022    4

DECAY 2000006  176.61666
    0.24932986   2    1000006    23
    0.21592086   2    1000024    5
    0.206377   2    1000006    25
    0.10385104   2    1000025    6
    0.09600075   2    1000023    6
    0.051223746   2    1000005    37
    0.036474516   2    1000037    5
    0.028406493   2    1000035    6
    0.010424123   2    1000022    6
    0.00092359496   2    1000006    36
    0.00067946044   2    1000006    35
    0.00038856243   2    1000005    24

DECAY 1000024  3.0673157e-05
    0.34281524   3    1000022   -1    2
    0.34141388   3    1000022   -3    4
    0.11643766   3    1000022   -15    16
    0.099685533   3    1000022   -13    14
    0.099643592   3    1000022   -11    12

DECAY 1000037  5.1987579
    0.151151   2    1000023    24
    0.13997769   2    1000014   -13
    0.13994732   2    1000012   -11
    0.13983382   2   -1000013    14
    0.13975192   2   -1000011    12
    0.10466167   2    1000024    23
    0.072715626   2    1000024    25
    0.068104625   2    1000025    24
    0.041593405   2    1000022    24
    0.0017833473   3    1000024    5   -5
    0.00022103179   3    1000024    15   -15

DECAY 1000022 -1


DECAY 1000023  5.0343248e-05
    0.18759312   3    1000022    12   -12
    0.15702431   3    1000022    1   -1
    0.15701623   3    1000022    3   -3
    0.14845592   3    1000022    5   -5
    0.12247388   3    1000022    2   -2
    0.12093485   3    1000022    4   -4
    0.035193237   3    1000022    15   -15
    0.027636491   3    1000022    13   -13
    0.027568842   3    1000022    11   -11
    0.016103127   2    1000022    22

DECAY 1000025  0.00049650159
    0.13803052   2    1000014   -14
    0.13803052   2   -1000014    14
    0.13660667   2    1000012   -12
    0.13660667   2   -1000012    12
    0.046175769   3    1000023    12   -12
    0.034524302   3    1000023    1   -1
    0.034521666   3    1000023    3   -3
    0.030575848   3    1000023    5   -5
    0.0269266   3    1000023    2   -2
    0.026493621   3    1000023    4   -4
    0.024483718   3    1000024    1   -2
    0.024483718   3   -1000024   -1    2
    0.024317651   3    1000024    3   -4
    0.024317651   3   -1000024   -3    4
    0.015398476   3    1000022    12   -12
    0.013172412   3    1000022    5   -5
    0.011491068   3    1000022    3   -3
    0.011491068   3    1000022    1   -1
    0.0089678917   3    1000022    2   -2
    0.0089435644   3    1000022    4   -4
    0.0084179946   3    1000023    13   -13
    0.0083971144   3    1000023    11   -11
    0.0082619857   3    1000024    13   -14
    0.0082619857   3   -1000024   -13    14
    0.0082618241   3    1000024    11   -12
    0.0082618241   3   -1000024   -11    12
    0.0080586086   3    1000024    15   -16
    0.0080586086   3   -1000024   -15    16
    0.0075808892   3    1000023    15   -15
    0.0050054952   2    1000023    22
    0.002649607   3    1000022    15   -15
    0.0014302034   3    1000022    13   -13
    0.0013710352   3    1000022    11   -11
    0.0004234275   2    1000022    22

DECAY 1000035  6.0382145
    0.13972594   2    1000024   -24
    0.13972594   2   -1000024    24
    0.081103544   2    1000025    23
    0.066844313   2    1000014   -14
    0.066844313   2   -1000014    14
    0.066835572   2    1000012   -12
    0.066835572   2   -1000012    12
    0.054269904   2    1000013   -13
    0.054269904   2   -1000013    13
    0.054231802   2    1000011   -11
    0.054231802   2   -1000011    11
    0.049692505   2    1000023    25
    0.037355517   2    1000025    25
    0.030139006   2    1000022    23
    0.01883564   2    1000022    25
    0.013680823   2    1000023    23
    0.0039034963   2    1000022    35
    0.00083564357   3    1000023    5   -5
    0.0002064426   3    1000025    5   -5
    0.00012314934   2    1000022    36
    0.00010448848   3    1000023    15   -15

DECAY 1000021  246.01814
    0.15435307   2    1000005   -5
    0.15435307   2   -1000005    5
    0.13347177   2    1000006   -6
    0.13347177   2   -1000006    6
    0.10098707   2    2000006   -6
    0.10098707   2   -2000006    6
    0.098737171   2    2000005   -5
    0.098737171   2   -2000005    5
    0.012334863   2    1000006   -4
    0.012334863   2   -1000006    4

DECAY 25  0.0066992359
    0.74833326   2   -5    5
    0.099254888   2   -24    24
    0.086122469   2   -15    15
    0.036348521   2    21    21
    0.016018609   2   -4    4
    0.011388364   2    23    23
    0.0012471505   2    22    22
    0.00067651531   2    22    23
    0.00032620432   2   -13    13
    0.00028314293   2   -3    3
    7.828692e-07   2   -1    1
    8.255181e-08   2   -2    2
    7.3334948e-09   2   -11    11

DECAY 35  13.557392
    0.88140827   2   -5    5
    0.11458924   2   -15    15
    0.0020344497   2    1000022    1000023
    0.00069339363   2    1000022    1000022
    0.00049798196   2   -13    13
    0.00041761833   2    21    21
    0.00033902709   2   -3    3
    1.3167395e-05   2   -24    24
    5.4082337e-06   2    23    23
    9.373938e-07   2   -1    1
    3.7536843e-07   2    22    22
    1.1818744e-07   2    22    23
    1.1193041e-08   2   -11    11
    8.8089039e-09   2   -4    4
    4.5444692e-14   2   -2    2

DECAY 36  13.63784
    0.88187076   2   -5    5
    0.11461884   2   -15    15
    0.0021505952   2    1000022    1000022
    0.00049837034   2   -13    13
    0.00043432839   2    21    21
    0.00033903725   2   -3    3
    8.5087686e-05   2    1000022    1000023
    1.8975414e-06   2    23    25
    9.374217e-07   2   -1    1
    1.0039724e-07   2    22    22
    3.1922028e-08   2    22    23
    1.120176e-08   2   -11    11
    3.2236362e-09   2   -4    4
    1.6658267e-14   2   -2    2

DECAY 37  5.716723
    0.68350286   2   -5    6
    0.29246102   2   -15    16
    0.019046077   2    1000022    1000024
    0.0030669608   2   -5    4
    0.0010340481   2   -13    14
    0.00080204076   2   -3    4
    3.6268663e-05   2   -3    2
    2.1902287e-05   2   -5    2
    2.0325708e-05   2    24    25
    2.7103311e-06   2    24    36
    2.7023354e-06   2    24    35
    2.2260866e-06   2   -1    2
    7.1622514e-07   2   -3    6
    1.0082038e-07   2   -1    4
    2.41865e-08   2   -11    12
    1.606011e-08   2   -1    6

DECAY 6  2.43
    1   2    5    24

DECAY 15 -1
