BLOCK SPINFO
   1   SPheno
   2   v4.0.5be

BLOCK SPHENOINFO
   1   2
   2   2

BLOCK MODSEL
   1   0

BLOCK MINPAR
   3    25.275885
   4   -1

BLOCK EXTPAR
   0    3429.7898
   1   -458.22019
   2   -1319.5152
   3    3966.3175
   11   -4612.9291
   12   -1462.1273
   13   -6538.268
   23   -3135.5285
   25    24.337968
   26    3506.334
   31    482.04259
   32    482.04259
   33    4133.6044
   34    1753.3422
   35    1753.3422
   36    3445.8868
   41    4671.4916
   42    4671.4916
   43    3314.7081
   44    4022.9626
   45    4022.9626
   46    3360.3027
   47    1344.7923
   48    1344.7923
   49    4247.9556

BLOCK SMINPUTS
   1    127.90897
   2    1.1663787e-05
   3    0.1184
   4    91.1876
   5    4.18
   6    173.2
   7    1.777
   8    0
   11    0.00051099893
   12    0
   13    0.10565837
   14    0
   21    0.005
   22    0.0025
   23    0.095
   24    1.27

BLOCK GAUGE Q=  3429.7898
   1    0.35536298
   2    0.66519887
   3    1.219778

BLOCK YU Q=  3429.7898
   1   1    8.3914465e-06
   2   2    0.0042628548
   3   3    1.0137541

BLOCK YD Q=  3429.7898
   1   1    0.00041039437
   2   2    0.0077974931
   3   3    0.40698262

BLOCK YE Q=  3429.7898
   1   1    7.1616819e-05
   2   2    0.014808087
   3   3    0.24904766

BLOCK AU Q=  3429.7898
   1   1    0
   2   2    0
   3   3   -4612.9341

BLOCK AD Q=  3429.7898
   1   1    0
   2   2    0
   3   3   -1462.1265

BLOCK AE Q=  3429.7898
   1   1    0
   2   2    0
   3   3   -6538.2653

BLOCK MSOFT Q=  3429.7898
   1   -458.22019
   2   -1319.5152
   3    3966.3175
   21    2396016
   22   -9651839.7
   31    482.04259
   32    482.04259
   33    4133.6044
   34    1753.3422
   35    1753.3422
   36    3445.8868
   41    4671.4916
   42    4671.4916
   43    3314.7081
   44    4022.9626
   45    4022.9626
   46    3360.3027
   47    1344.7923
   48    1344.7923
   49    4247.9556

BLOCK MASS
   6    173.2
   23    91.1876
   24    80.429995
   15    1.777
   25    123.23511
   35    3506.2455
   36    3506.334
   37    3507.7662
   1000001    4783.2713
   2000001    1534.6668
   1000002    4782.5957
   2000002    4141.522
   1000003    4783.2691
   2000003    1534.666
   1000004    4782.5934
   2000004    4141.5219
   1000005    3428.5058
   2000005    4349.9185
   1000006    3340.8431
   2000006    3521.1047
   1000011    520.62012
   2000011    1759.6274
   1000012    514.26906
   1000013    520.57498
   2000013    1759.6131
   1000014    514.24442
   1000015    3448.4627
   2000015    4140.3031
   1000016    4138.8381
   1000021    4168.476
   1000022   -453.05318
   1000023   -1370.7795
   1000025    3141.0627
   1000035   -3142.8402
   1000024    1370.8085
   1000037    3143.277

BLOCK ALPHA
      -0.039638427

BLOCK HMIX Q=  3429.7898
   1   -3135.5285
   2    24.337968
   3    243.11395
   4    12294378

BLOCK STOPMIX
   1   1    0.71764398
   1   2    0.69641016
   2   1   -0.69641016
   2   2    0.71764398

BLOCK SBOTMIX
   1   1   -0.99968399
   1   2    0.025138126
   2   1   -0.025138126
   2   2   -0.99968399

BLOCK STAUMIX
   1   1   -0.024026509
   1   2    0.99971132
   2   1   -0.99971132
   2   2   -0.024026509

BLOCK NMIX
   1   1    0.99989084
   1   2   -0.00027484396
   1   3   -0.014534594
   1   4    0.0026421576
   2   1    0.00075630786
   2   2    0.99943414
   2   3    0.030592386
   2   4   -0.013961672
   3   1    0.0084043925
   3   2   -0.011767237
   3   3    0.70693771
   3   4    0.70712798
   4   1    0.012128691
   4   2   -0.031509537
   4   3    0.70646439
   4   4   -0.70694279

BLOCK UMIX
   1   1   -0.99905692
   1   2   -0.043419706
   2   1   -0.043419706
   2   2    0.99905692

BLOCK VMIX
   1   1    0.99980086
   1   2    0.019956077
   2   1    0.019956077
   2   2   -0.99980086

BLOCK HIGGSBOUNDSINPUTHIGGSCOUPLINGSFERMIONS
       0, 592.33669,3,36,15,15

BLOCK HIGGSBOUNDSINPUTHIGGSCOUPLINGSBOSONS
       0,4,36,21,21,23

BLOCK SPHENOLOWENERGY
   1    0.00033003383
   2    1.5892286e-06
   3    3.5256171e-05
   4    2.4601285e-15
   5    1.0509423e-10
   6    2.2018692e-08
   7    8.3320569e-14
   8    3.5594631e-09
   9    7.5561075e-07
   10    9.642199e-05
   11    0.99600224
   12    0.54202202
   13    19.364375
   14    0
   15    0
   16    0.0021574693
   17    2.2816601e-15
   18    2.4804504e-11
   19    8.2912214e-11
   20    5.6939987e-15
   21    2.4346409e-10
   22    8.4725172e-09
   23    0
   24    0
   25    0
   26    0
   27    0
   28    0
   29    0
   30    0
   31    0
   39    6.4609702e-05
   40    0
   41    0
   42    0

BLOCK FWCOEF Q=  160
   305   4422   0   0   -0.18881911
   305   4422   0   2   -0.19962757
   305   4322   0   2   -0.00019064427
   305   6421   0   0   -0.095227835
   305   6421   0   2   -0.10502475
   305   6321   0   2   -0.00017714248
   3051111   4133   0   0    1.6211286
   3051111   4133   0   2    1.6211784
   3051111   4233   0   2    8.61716e-05
   3051111   4137   0   0   -4.4438207
   3051111   4137   0   2   -4.4424964
   3051111   4237   0   2   -0.00064354948
   3051313   4133   0   0    1.6211286
   3051313   4133   0   2    1.6211777
   3051313   4233   0   2    8.6171542e-05
   3051313   4137   0   0   -4.4438207
   3051313   4137   0   2   -4.4424971
   3051313   4237   0   2   -0.00064354956
   3051212   4137   0   0    1.5053501
   3051212   4137   0   2    1.5050702
   3051212   4237   0   2    0.00013933873
   3051414   4137   0   0    1.5053501
   3051414   4137   0   2    1.5050702
   3051414   4237   0   2    0.00013933873
   3051616   4137   0   0    1.5053501
   3051616   4137   0   2    1.5050705
   3051616   4237   0   2    0.00013933965

BLOCK IMFWCOEF Q=  160
   305   4422   0   0    3.8576153e-07
   305   4422   0   2    2.8152662e-06
   305   4322   0   2   -1.5990171e-06
   305   6421   0   0    3.3043027e-07
   305   6421   0   2    7.1400484e-06
   305   6321   0   2   -7.9188669e-07
   3051111   4133   0   2   -1.0463331e-06
   3051111   4233   0   2    1.7656823e-06
   3051111   4137   0   2    7.0504371e-06
   3051111   4237   0   2   -1.318564e-05
   3051313   4133   0   2   -1.0463297e-06
   3051313   4233   0   2    1.7656818e-06
   3051313   4137   0   2    7.0504435e-06
   3051313   4237   0   2   -1.3185642e-05
   3051212   4137   0   2   -1.4020998e-06
   3051212   4237   0   2    2.8548882e-06
   3051414   4137   0   2   -1.4021007e-06
   3051414   4237   0   2    2.8548882e-06
   3051616   4137   0   2   -1.3963147e-06
   3051616   4237   0   2    2.8548743e-06

DECAY 23  2.4952


DECAY 24  2.085


DECAY 1000011  0.038479993
    0.99999954   2    1000022    11

DECAY 2000011  7.7064293
    0.99999987   2    1000022    11

DECAY 1000013  0.03843491
    0.99999955   2    1000022    13

DECAY 2000013  7.7173853
    0.99856999   2    1000022    13
    0.0014294751   2    1000013    25

DECAY 1000015  17.022507
    0.98264699   2    1000022    15
    0.0070962124   2   -1000037    16
    0.0036191686   2    1000025    15
    0.0035663985   2    1000035    15
    0.0020487488   2   -1000024    16
    0.0010224838   2    1000023    15

DECAY 2000015  50.005886
    0.57595032   2   -1000024    16
    0.28850851   2    1000023    15
    0.10153018   2    1000022    15
    0.0092408478   2    1000035    15
    0.0092196797   2    1000025    15
    0.0077941836   2    1000015    23
    0.007397204   2    1000015    25
    0.00035907358   2   -1000037    16

DECAY 1000012  0.032411254
    1   2    1000022    12

DECAY 1000014  0.032388164
    1   2    1000022    14

DECAY 1000016  50.067538
    0.5767235   2    1000024    15
    0.28784736   2    1000023    16
    0.10144908   2    1000022    16
    0.018291095   2    1000037    15
    0.015577551   2    1000015    24

DECAY 2000001  0.71380501
    0.99999997   2    1000022    1

DECAY 1000001  75.658263
    0.46799834   2   -1000024    2
    0.28873918   2    1000021    1
    0.23411457   2    1000023    1
    0.0086913679   2    1000022    1
    0.00033871035   2   -1000037    2
    0.00010191114   2    1000035    1

DECAY 2000003  0.7138051
    0.99999967   2    1000022    3

DECAY 1000003  75.661619
    0.46797717   2   -1000024    4
    0.2887245   2    1000021    3
    0.23410411   2    1000023    3
    0.0086909942   2    1000022    3
    0.00034613757   2   -1000037    4
    0.00011419002   2    1000035    3

DECAY 1000005  34.030226
    0.61948938   2   -1000024    6
    0.3130234   2    1000023    5
    0.041777706   2   -1000037    6
    0.013853095   2    1000022    5
    0.0042781472   2    1000025    5
    0.0042212178   2    1000035    5
    0.0033570519   2    1000006   -24

DECAY 2000005  15.466461
    0.21286238   2   -1000037    6
    0.15330818   2    1000022    5
    0.14825168   2    1000021    5
    0.10620494   2    1000025    5
    0.10599169   2    1000035    5
    0.086818432   2    1000005    25
    0.080514198   2    1000006   -24
    0.061211114   2    1000005    23
    0.044829251   2    2000006   -24

DECAY 2000002  9.0270915
    0.99995937   2    1000022    2

DECAY 1000002  75.641626
    0.46870875   2    1000024    1
    0.28824689   2    1000021    2
    0.23424738   2    1000023    2
    0.0086385046   2    1000022    2

DECAY 2000004  9.0276283
    0.99989963   2    1000022    4

DECAY 1000004  75.643803
    0.46869505   2    1000024    3
    0.28823584   2    1000021    4
    0.23424045   2    1000023    4
    0.0086382501   2    1000022    4

DECAY 1000006  20.125815
    0.49036315   2    1000024    5
    0.24418574   2    1000023    6
    0.18282051   2    1000022    6
    0.047939157   2    1000023    4
    0.026346445   2    1000037    5
    0.0032781463   3    1000022    24    5
    0.0021126516   2    1000022    4
    0.0015315872   2    1000025    6
    0.0014226025   2    1000035    6

DECAY 2000006  29.452704
    0.39088828   2    1000024    5
    0.19446623   2    1000023    6
    0.14079997   2    1000022    6
    0.080261994   2    1000006    23
    0.064986536   2    1000025    6
    0.062146692   2    1000035    6
    0.058022433   2    1000037    5
    0.0083158837   2    1000005    24
    0.00011198434   2    1000006    25

DECAY 1000024  17.727702
    0.25119717   2    1000014   -13
    0.25118896   2    1000012   -11
    0.24879202   2   -1000013    14
    0.24877748   2   -1000011    12

DECAY 1000037  23.026889
    0.30402155   2    1000024    25
    0.28127694   2    1000023    24
    0.27704915   2    1000024    23
    0.093638443   2    1000022    24
    0.022407272   3    1000024    6   -6
    0.012656374   3    1000023   -5    6
    0.0055068183   3    1000022   -5    6
    0.0010714389   2   -1000013    14
    0.0010714284   2   -1000011    12
    0.00050809349   2    1000014   -13
    0.00022862466   3    1000024    5   -5
    0.00022664507   2    1000012   -11
    0.00014339713   2   -2000003    4
    0.00014010732   2   -2000013    14

DECAY 1000022 -1


DECAY 1000023  17.727082
    0.12540484   2    1000014   -14
    0.12540484   2   -1000014    14
    0.12540091   2    1000012   -12
    0.12540091   2   -1000012    12
    0.12459066   2    1000013   -13
    0.12459066   2   -1000013    13
    0.1245833   2    1000011   -11
    0.1245833   2   -1000011    11

DECAY 1000025  27.154157
    0.23507981   2    1000024   -24
    0.23507981   2   -1000024    24
    0.20508148   2    1000023    23
    0.19485758   2    1000023    25
    0.05379586   2    1000022    23
    0.042813751   2    1000022    25
    0.011322549   3    1000024    5   -6
    0.011322549   3   -1000024   -5    6
    0.0067223361   3    1000023    6   -6
    0.0028949081   3    1000022    6   -6
    0.00013202137   2    1000013   -13
    0.00013202137   2   -1000013    13

DECAY 1000035  22.554301
    0.27864077   2    1000024   -24
    0.27864077   2   -1000024    24
    0.2742915   2    1000023    25
    0.060347852   2    1000022    25
    0.034396331   2    1000023    23
    0.031048084   2    1000022    23
    0.013063229   3    1000024    5   -6
    0.013063229   3   -1000024   -5    6
    0.0093867855   3    1000023    6   -6
    0.0037836231   3    1000022    6   -6
    0.00041918791   2    1000014   -14
    0.00041918791   2   -1000014    14
    0.0004191857   2    1000012   -12
    0.0004191857   2   -1000012    12
    0.00032523874   2    1000013   -13
    0.00032523874   2   -1000013    13
    0.00018173255   2    1000011   -11
    0.00018173255   2   -1000011    11
    0.00010965881   3    1000023    5   -5

DECAY 1000021  223.57626
    0.20620603   2    2000003   -3
    0.20620603   2   -2000003    3
    0.20620596   2    2000001   -1
    0.20620596   2   -2000001    1
    0.028889791   2    1000005   -5
    0.028889791   2   -1000005    5
    0.028272946   2    2000006   -6
    0.028272946   2   -2000006    6
    0.026662011   2    1000006   -6
    0.026662011   2   -1000006    6
    0.0033516807   2    1000006   -4
    0.0033516807   2   -1000006    4

DECAY 25  0.00365986
    0.59966965   2   -5    5
    0.20050119   2   -24    24
    0.073787152   2    21    21
    0.068832192   2   -15    15
    0.029631137   2   -4    4
    0.023426606   2    23    23
    0.0023371843   2    22    22
    0.001349763   2    22    23
    0.00023870664   2   -13    13
    0.00022564109   2   -3    3
    6.2387624e-07   2   -1    1
    1.5270165e-07   2   -2    2
    5.3664106e-09   2   -11    11

DECAY 35  37.827129
    0.86635951   2   -5    5
    0.124953   2   -15    15
    0.0068489915   2   -6    6
    0.00046626217   2   -13    13
    0.00044352717   2   -3    3
    0.00041787538   2   -1000024    1000024
    0.00022057623   2    1000022    1000023
    0.00020857838   2    1000023    1000023
    3.8346939e-05   2    1000022    1000022
    3.2890817e-05   2    25    25
    3.6840408e-06   2    21    21
    1.8414167e-06   2    23    23
    1.2265214e-06   2   -1    1
    4.5556866e-07   2   -24    24
    3.0487334e-07   2   -1000011    1000011
    3.0067002e-07   2   -1000013    1000013
    1.8916174e-07   2   -2000013    1000013
    1.8916174e-07   2   -1000013    2000013
    7.9145612e-08   2   -4    4
    6.4787505e-08   2    22    23
    4.3882261e-08   2   -1000001    1000001
    4.366068e-08   2   -1000003    1000003
    1.5094715e-08   2    22    22
    1.0471453e-08   2   -11    11
    4.4246586e-12   2   -2000011    1000011
    4.4246586e-12   2   -1000011    2000011
    4.0790381e-13   2   -2    2

DECAY 36  36.417388
    0.8650098   2   -5    5
    0.12475701   2   -15    15
    0.0073426594   2   -6    6
    0.0010730725   2   -1000024    1000024
    0.00053564209   2    1000023    1000023
    0.00046553308   2   -13    13
    0.00044284192   2   -3    3
    0.00030527901   2    1000022    1000023
    4.4020535e-05   2    1000022    1000022
    1.8688564e-05   2    21    21
    3.5334243e-06   2    23    25
    1.2246235e-06   2   -1    1
    1.9529648e-07   2   -2000013    1000013
    1.9529648e-07   2   -1000013    2000013
    1.5268007e-07   2    22    23
    8.4320357e-08   2   -4    4
    5.8488116e-08   2    22    22
    1.0455076e-08   2   -11    11
    4.5679968e-12   2   -2000011    1000011
    4.5679968e-12   2   -1000011    2000011
    4.3458288e-13   2   -2    2
    4.7808096e-35   2    25    25

DECAY 37  34.854846
    0.86864584   2   -5    6
    0.12858062   2   -15    16
    0.0012793103   2   -5    4
    0.0005581448   2    1000022    1000024
    0.00045457832   2   -13    14
    0.00043427542   2   -3    4
    2.0372684e-05   2   -3    2
    9.3499902e-06   2   -3    6
    9.1355946e-06   2   -5    2
    3.6980488e-06   2    24    25
    1.298167e-06   2   -1000011    1000012
    1.291766e-06   2   -1000013    1000014
    1.2052469e-06   2   -1    2
    4.1229818e-07   2   -2000013    1000014
    3.9924297e-07   2   -1    6
    6.0027407e-08   2   -1    4
    1.0632634e-08   2   -11    12
    2.787543e-10   2    1000023    1000024
    9.6438588e-12   2   -2000011    1000012
    3.1769864e-13   2    24    35
    2.3538853e-13   2    24    36

DECAY 6  2.43
    1   2    5    24

DECAY 15 -1
