BLOCK SPINFO
   1   SPheno
   2   v4.0.5be

BLOCK SPHENOINFO
   1   2
   2   2

BLOCK MODSEL
   1   0

BLOCK MINPAR
   3    15.670054
   4    1

BLOCK EXTPAR
   0    1526.5211
   1    1685.1243
   2    1545.6647
   3    3000
   11   -2915.844
   12   -1828.0839
   13   -473.20405
   23    283.63694
   25    15.088421
   26    1811.3307
   31    888.20928
   32    888.20928
   33    306.83109
   34    313.27366
   35    313.27366
   36    960.11514
   41    5000
   42    5000
   43    1485.9259
   44    5000
   45    5000
   46    1633.9425
   47    5000
   48    5000
   49    1300.4901

BLOCK SMINPUTS
   1    127.90897
   2    1.1663787e-05
   3    0.1184
   4    91.1876
   5    4.18
   6    173.2
   7    1.777
   8    0
   11    0.00051099893
   12    0
   13    0.10565837
   14    0
   21    0.005
   22    0.0025
   23    0.095
   24    1.27

BLOCK GAUGE Q=  1526.5211
   1    0.35536298
   2    0.66519887
   3    1.219778

BLOCK YU Q=  1526.5211
   1   1    8.4027662e-06
   2   2    0.0042686052
   3   3    1.0151216

BLOCK YD Q=  1526.5211
   1   1    0.00025476885
   2   2    0.0048406082
   3   3    0.25265087

BLOCK YE Q=  1526.5211
   1   1    4.4459028e-05
   2   2    0.0091927169
   3   3    0.15460637

BLOCK AU Q=  1526.5211
   1   1    0
   2   2    0
   3   3   -2915.844

BLOCK AD Q=  1526.5211
   1   1    0
   2   2    0
   3   3   -1828.0839

BLOCK AE Q=  1526.5211
   1   1    0
   2   2    0
   3   3   -473.20405

BLOCK MSOFT Q=  1526.5211
   1    1685.1243
   2    1545.6647
   3    3000
   21    3164184
   22   -41994.562
   31    888.20928
   32    888.20928
   33    306.83109
   34    313.27366
   35    313.27366
   36    960.11514
   41    5000
   42    5000
   43    1485.9259
   44    5000
   45    5000
   46    1633.9425
   47    5000
   48    5000
   49    1300.4901

BLOCK MASS
   6    173.2
   23    91.1876
   24    80.429995
   15    1.777
   25    122.06787
   35    1811.3617
   36    1811.3307
   37    1813.4265
   1000001    5027.8997
   2000001    5019.5138
   1000002    5027.4603
   2000002    5020.2684
   1000003    5027.9006
   2000003    5019.5147
   1000004    5027.4612
   2000004    5020.2691
   1000005    1312.7479
   2000005    1487.2505
   1000006    1389.8075
   2000006    1676.6832
   1000011    906.55107
   2000011    334.90051
   1000012    902.67092
   1000013    906.54967
   2000013    334.89334
   1000014    902.66931
   1000015    342.50751
   2000015    968.81355
   1000016    333.27637
   1000021    3189.5042
   1000022    284.90352
   1000023   -290.97804
   1000025    1584.3852
   1000035    1676.9407
   1000024    287.68033
   1000037    1584.7835

BLOCK ALPHA
      -0.064167704

BLOCK HMIX Q=  1526.5211
   1    283.63694
   2    15.088421
   3    243.98865
   4    3280919

BLOCK STOPMIX
   1   1    0.82752419
   1   2    0.56143007
   2   1   -0.56143007
   2   2    0.82752419

BLOCK SBOTMIX
   1   1    0.02909385
   1   2    0.99957668
   2   1   -0.99957668
   2   2    0.02909385

BLOCK STAUMIX
   1   1    0.99994752
   1   2    0.010244598
   2   1   -0.010244598
   2   2    0.99994752

BLOCK NMIX
   1   1   -0.024124695
   1   2    0.04624392
   1   3   -0.71025462
   1   4    0.70200988
   2   1   -0.015059377
   2   2    0.028443819
   2   3    0.7037971
   2   4    0.70967162
   3   1    0.022191271
   3   2    0.99831214
   3   3    0.012707029
   3   4   -0.052143544
   4   1   -0.99934917
   4   2    0.020623271
   4   3    0.0068223561
   4   4   -0.028798861

BLOCK UMIX
   1   1   -0.018234407
   1   2    0.99983374
   2   1    0.99983374
   2   2    0.018234407

BLOCK VMIX
   1   1   -0.074824039
   1   2    0.99719675
   2   1    0.99719675
   2   2    0.074824039

BLOCK HIGGSBOUNDSINPUTHIGGSCOUPLINGSFERMIONS
       0, 227.66046,3,36,15,15

BLOCK HIGGSBOUNDSINPUTHIGGSCOUPLINGSBOSONS
       0,4,36,21,21,23

BLOCK SPHENOLOWENERGY
   1    0.00031287491
   2    1.592886e-06
   3    3.5277474e-05
   4    2.6430947e-15
   5    1.1290998e-10
   6    2.3635889e-08
   7    8.9013829e-14
   8    3.8026671e-09
   9    8.0656061e-07
   10    9.6402965e-05
   11    0.99580572
   12    0.5428642
   13    19.394974
   14    0
   15    0
   16    0.0021608319
   17    2.2816945e-15
   18    2.4807064e-11
   19    8.2924596e-11
   20    2.9505389e-15
   21    1.2614362e-10
   22    4.7097686e-08
   23    0
   24    0
   25    0
   26    0
   27    0
   28    0
   29    0
   30    0
   31    0
   39    4.9609805e-05
   40    0
   41    0
   42    0

BLOCK FWCOEF Q=  160
   305   4422   0   0   -0.18881911
   305   4422   0   2   -0.17701532
   305   4322   0   2   -0.00012110318
   305   6421   0   0   -0.095227835
   305   6421   0   2   -0.10108659
   305   6321   0   2   -0.00029019918
   3051111   4133   0   0    1.5924086
   3051111   4133   0   2    1.5942451
   3051111   4233   0   2    3.1038349e-05
   3051111   4137   0   0   -4.4151007
   3051111   4137   0   2   -4.4158567
   3051111   4237   0   2   -0.00024029029
   3051313   4133   0   0    1.5924086
   3051313   4133   0   2    1.5942445
   3051313   4233   0   2    3.1038272e-05
   3051313   4137   0   0   -4.4151007
   3051313   4137   0   2   -4.4158573
   3051313   4237   0   2   -0.00024029034
   3051212   4137   0   0    1.5053501
   3051212   4137   0   2    1.5055218
   3051212   4237   0   2    5.2366823e-05
   3051414   4137   0   0    1.5053501
   3051414   4137   0   2    1.5055218
   3051414   4237   0   2    5.2366832e-05
   3051616   4137   0   0    1.5053501
   3051616   4137   0   2    1.5055208
   3051616   4237   0   2    5.236975e-05

BLOCK IMFWCOEF Q=  160
   305   4422   0   0    3.8583681e-07
   305   4422   0   2    1.0031443e-05
   305   4322   0   2    2.7687731e-06
   305   6421   0   0    3.3049475e-07
   305   6421   0   2   -7.9228605e-07
   305   6321   0   2    9.7656238e-07
   3051111   4133   0   2   -3.5652229e-08
   3051111   4233   0   2    7.852626e-07
   3051111   4137   0   2    4.7325416e-07
   3051111   4237   0   2   -6.0906821e-06
   3051313   4133   0   2   -3.5659524e-08
   3051313   4233   0   2    7.8526198e-07
   3051313   4137   0   2    4.7324702e-07
   3051313   4237   0   2   -6.0906837e-06
   3051212   4137   0   2    2.5068125e-10
   3051212   4237   0   2    1.3273247e-06
   3051414   4137   0   2    2.5055444e-10
   3051414   4237   0   2    1.3273247e-06
   3051616   4137   0   2   -1.778632e-08
   3051616   4237   0   2    1.3273315e-06

DECAY 23  2.4952


DECAY 24  2.085


DECAY 2000011  9.7688968e-05
    0.76530505   2    1000022    11
    0.23468569   2    1000023    11

DECAY 1000011  0.0070877787
    0.50875602   2    1000022    11
    0.30276548   2   -1000024    12
    0.18847811   2    1000023    11

DECAY 2000013  0.00017467857
    0.55108526   2    1000022    13
    0.2275955   2    1000023    13
    0.22131924   2   -1000024    14

DECAY 1000013  0.0083818658
    0.50467922   2    1000022    13
    0.25602055   2   -1000024    14
    0.23185916   2    1000023    13
    0.0074409207   2    2000013    25

DECAY 1000015  0.014339539
    0.55278642   2    1000022    15
    0.43945458   2    1000023    15
    0.0077508445   2   -1000024    16

DECAY 2000015  0.85270384
    0.44829349   2   -1000024    16
    0.22898979   2    1000022    15
    0.22334562   2    1000023    15
    0.050649555   2    1000016   -24
    0.024520754   2    1000015    23
    0.024200792   2    1000015    25

DECAY 1000012  0.051420003
    0.69836513   2    1000024    11
    0.21902667   2    1000022    12
    0.082608197   2    1000023    12

DECAY 1000014  0.052643274
    0.70537498   2    1000024    13
    0.2139366   2    1000022    14
    0.080688421   2    1000023    14

DECAY 1000016  0.011594733
    0.95841736   2    1000024    15
    0.032063034   2    1000022    16
    0.0095196057   2    1000023    16

DECAY 2000001  143.06474
    0.98453694   2    1000021    1
    0.015439407   2    1000035    1

DECAY 1000001  196.14965
    0.72253724   2    1000021    1
    0.18297854   2   -1000037    2
    0.090500388   2    1000025    1
    0.0035143579   2    1000035    1
    0.00028635352   2    1000022    1
    0.00010858903   2    1000023    1

DECAY 2000003  143.06947
    0.98450505   2    1000021    3
    0.015438901   2    1000035    3

DECAY 1000003  196.15389
    0.7225221   2    1000021    3
    0.18297468   2   -1000037    4
    0.090498459   2    1000025    3
    0.0035142834   2    1000035    3
    0.00029231937   2    1000022    3
    0.00011444965   2    1000023    3

DECAY 1000005  2.9675355
    0.49005697   2   -1000024    6
    0.25973097   2    1000022    5
    0.25021206   2    1000023    5

DECAY 2000005  29.584489
    0.92074048   2   -1000024    6
    0.030131448   2    1000022    5
    0.029616749   2    1000023    5
    0.018941596   2    1000006   -24
    0.00035633444   2    1000005    25
    0.00021339516   2    1000005    23

DECAY 2000002  149.78187
    0.94090861   2    1000021    2
    0.059001363   2    1000035    2

DECAY 1000002  196.14205
    0.72233201   2    1000021    2
    0.18199876   2    1000037    1
    0.091936715   2    1000025    2
    0.0022058606   2    1000035    2
    0.0012550355   2    1000024    1
    0.00019724622   2    1000022    2

DECAY 2000004  149.7855
    0.94088592   2    1000021    4
    0.058999951   2    1000035    4

DECAY 1000004  196.14623
    0.72231679   2    1000021    4
    0.18199493   2    1000037    3
    0.091934803   2    1000025    4
    0.0022058184   2    1000035    4
    0.001266841   2    1000024    3
    0.0002017896   2    1000022    4

DECAY 1000006  35.016063
    0.35086674   2    1000023    6
    0.34991666   2    1000022    6
    0.30010375   2    1000024    5

DECAY 2000006  71.309072
    0.29786728   2    1000024    5
    0.22587848   2    1000023    6
    0.21829364   2    1000022    6
    0.12660008   2    1000006    23
    0.10177102   2    2000005    24
    0.027938223   2    1000006    25
    0.001006811   2    1000037    5
    0.00064447878   2    1000005    24

DECAY 1000024  1.5871957e-10
    0.48519794   3    1000022   -1    2
    0.17374222   3    1000022   -3    4
    0.16173958   3    1000022   -11    12
    0.16058517   3    1000022   -13    14
    0.018735087   3    1000022   -15    16

DECAY 1000037  40.797413
    0.15531469   2    1000016   -15
    0.15529725   2   -1000015    16
    0.089457678   2    1000023    24
    0.088383297   2    1000024    23
    0.087532191   2    1000024    25
    0.087417408   2    1000022    24
    0.077597245   2    1000014   -13
    0.077596983   2    1000012   -11
    0.077363986   2   -1000013    14
    0.077363753   2   -1000011    12
    0.01583682   2    1000006   -5
    0.0048618601   3    1000024    6   -6
    0.003019879   3    1000022   -5    6
    0.0027182136   3    1000023   -5    6
    0.00020466602   3    1000024    5   -5

DECAY 1000022 -1


DECAY 1000023  5.9754755e-08
    0.60107883   2    1000022    22
    0.09493435   3    1000022    12   -12
    0.070964925   3    1000022    1   -1
    0.070763039   3    1000022    3   -3
    0.055346293   3    1000022    2   -2
    0.03036633   3    1000022    4   -4
    0.016011995   3    1000022    11   -11
    0.015941846   3    1000022    13   -13
    0.0090838916   3    1000024    1   -2
    0.0090838916   3   -1000024   -1    2
    0.0044329827   3    1000024    3   -4
    0.0044329827   3   -1000024   -3    4
    0.0040529465   3    1000022    15   -15
    0.0030280495   3    1000024    11   -12
    0.0030280495   3   -1000024   -11    12
    0.0030127314   3    1000024    13   -14
    0.0030127314   3   -1000024   -13    14
    0.00071206827   3    1000024    15   -16
    0.00071206827   3   -1000024   -15    16

DECAY 1000025  41.644272
    0.089414318   2    1000024   -24
    0.089414318   2   -1000024    24
    0.077626806   2    1000015   -15
    0.077626806   2   -1000015    15
    0.07442624   2    1000016   -16
    0.07442624   2   -1000016    16
    0.062124935   2    1000023    23
    0.059922737   2    1000022    25
    0.04769176   2    1000023    25
    0.038654089   2    1000013   -13
    0.038654089   2   -1000013    13
    0.038653974   2    1000011   -11
    0.038653974   2   -1000011    11
    0.037168018   2    1000014   -14
    0.037168018   2   -1000014    14
    0.037167891   2    1000012   -12
    0.037167891   2   -1000012    12
    0.022478203   2    1000022    23
    0.0035020691   2    2000005   -5
    0.0035020691   2   -2000005    5
    0.0029165722   2    1000006   -6
    0.0029165722   2   -1000006    6
    0.0027266218   3    1000024    5   -6
    0.0027266218   3   -1000024   -5    6
    0.001557476   3    1000022    6   -6
    0.0014407704   3    1000023    6   -6

DECAY 1000035  33.014956
    0.11748032   2    2000013   -13
    0.11748032   2   -2000013    13
    0.11747991   2    2000011   -11
    0.11747991   2   -2000011    11
    0.056565323   2    2000015   -15
    0.056565323   2   -2000015    15
    0.033003932   2    1000024   -24
    0.033003932   2   -1000024    24
    0.031708376   2    1000016   -16
    0.031708376   2   -1000016    16
    0.028333813   2    1000023    23
    0.027046507   2    1000015   -15
    0.027046507   2   -1000015    15
    0.024975996   2    1000022    25
    0.019874293   2    1000023    25
    0.017338081   2    1000014   -14
    0.017338081   2   -1000014    14
    0.01733803   2    1000012   -12
    0.01733803   2   -1000012    12
    0.014750369   2    1000013   -13
    0.014750369   2   -1000013    13
    0.014750329   2    1000011   -11
    0.014750329   2   -1000011    11
    0.010549186   2    1000022    23
    0.006360189   2    1000005   -5
    0.006360189   2   -1000005    5
    0.0020350088   2    1000006   -6
    0.0020350088   2   -1000006    6
    0.00087689159   3    1000024    5   -6
    0.00087689159   3   -1000024   -5    6
    0.00079461129   3    1000022    6   -6
    0.00076098068   3    1000023    6   -6
    0.00060347237   2    2000005   -5
    0.00060347237   2   -2000005    5

DECAY 1000021  233.64508
    0.13935766   2    1000005   -5
    0.13935766   2   -1000005    5
    0.12375347   2    2000005   -5
    0.12375347   2   -2000005    5
    0.12011441   2    2000006   -6
    0.12011441   2   -2000006    6
    0.11593843   2    1000006   -6
    0.11593843   2   -1000006    6
    0.00038834755   2    1000006   -4
    0.00038834755   2   -1000006    4
    0.00019424011   3    1000025    6   -6
    0.00016727422   3    1000037    5   -6
    0.00016727422   3   -1000037   -5    6
    0.00015213391   3    1000025    5   -5

DECAY 25  0.0035519605
    0.6188283   2   -5    5
    0.18162785   2   -24    24
    0.073631899   2    21    21
    0.070868179   2   -15    15
    0.030282431   2   -4    4
    0.0207252   2    23    23
    0.0023109999   2    22    22
    0.0012461808   2    22    23
    0.00024586891   2   -13    13
    0.00023228588   2   -3    3
    6.4224655e-07   2   -1    1
    1.5606168e-07   2   -2    2
    5.5274458e-09   2   -11    11

DECAY 35  6.5762982
    0.78983817   2   -5    5
    0.1446769   2   -15    15
    0.042792076   2   -6    6
    0.010945036   2   -1000024    1000024
    0.0030348534   2    1000022    1000022
    0.0028340258   2   -2000015    1000015
    0.0028340258   2   -1000015    2000015
    0.0014655639   2    1000023    1000023
    0.00049024262   2   -13    13
    0.00043376038   2    1000022    1000023
    0.00029714623   2   -3    3
    0.00020667797   2    25    25
    4.1927321e-05   2    23    23
    2.5626298e-05   2   -24    24
    1.4289014e-05   2   -1000015    1000015
    1.2485566e-05   2    21    21
    5.5685852e-06   2   -1000011    1000011
    5.5593847e-06   2   -1000013    1000013
    1.7285795e-06   2   -2000011    2000011
    1.7267533e-06   2   -2000013    2000013
    8.2150932e-07   2   -1    1
    5.9710075e-07   2   -4    4
    2.9925879e-07   2    22    22
    2.0084612e-07   2    22    23
    1.7045603e-08   2   -2000013    1000013
    1.7045603e-08   2   -1000013    2000013
    1.1012285e-08   2   -11    11
    3.0782579e-12   2   -2    2
    3.9869914e-13   2   -2000011    1000011
    3.9869914e-13   2   -1000011    2000011

DECAY 36  6.5277406
    0.78754183   2   -5    5
    0.14425834   2   -15    15
    0.042792908   2   -6    6
    0.012998294   2   -1000024    1000024
    0.0043569465   2    1000022    1000022
    0.0028586513   2   -2000015    1000015
    0.0028586513   2   -1000015    2000015
    0.0012661338   2    1000023    1000023
    0.00048881423   2   -13    13
    0.00029627543   2   -3    3
    0.00012678847   2    1000022    1000023
    9.7833269e-05   2    21    21
    5.6136837e-05   2    23    25
    8.1910192e-07   2   -1    1
    6.6585508e-07   2    22    22
    5.7443037e-07   2   -4    4
    2.8293845e-07   2    22    23
    1.7027116e-08   2   -2000013    1000013
    1.7027116e-08   2   -1000013    2000013
    1.09802e-08   2   -11    11
    2.9614675e-12   2   -2    2
    3.9826599e-13   2   -2000011    1000011
    3.9826599e-13   2   -1000011    2000011
    2.7825459e-37   2    25    25

DECAY 37  6.3972464
    0.85078573   2   -5    6
    0.13920107   2   -15    16
    0.0058581457   2   -2000015    1000016
    0.0016927245   2    1000023    1000024
    0.0011977393   2   -5    4
    0.00049212606   2   -13    14
    0.00028316874   2    1000022    1000024
    0.00028084462   2   -3    4
    6.8103991e-05   2   -3    6
    5.7582702e-05   2    24    25
    4.2168105e-05   2   -1000015    1000016
    1.3046757e-05   2   -3    2
    8.5530931e-06   2   -5    2
    7.5049844e-06   2   -2000011    1000012
    7.5021385e-06   2   -2000013    1000014
    3.1048691e-06   2   -1    6
    7.7749976e-07   2   -1    2
    6.4804858e-08   2   -1    4
    3.3565968e-08   2   -1000013    1000014
    1.151088e-08   2   -11    12
    8.5962852e-12   2    24    36
    7.980134e-12   2    24    35
    7.851053e-13   2   -1000011    1000012

DECAY 6  2.43
    1   2    5    24

DECAY 15 -1
