BLOCK SPINFO
   1   SPheno
   2   v4.0.5be

BLOCK SPHENOINFO
   1   2
   2   2

BLOCK MODSEL
   1   0

BLOCK MINPAR
   3    27.464187
   4   -1

BLOCK EXTPAR
   0    1366.612
   1   -146.18068
   2   -453.5585
   3    3000
   11   -2325.9381
   12   -37.633203
   13   -251.12434
   23   -107.67069
   25    26.640366
   26    4503.1867
   31    1045.1906
   32    1045.1906
   33    1963.2068
   34    1218.8162
   35    1218.8162
   36    1793.201
   41    5000
   42    5000
   43    1609.1223
   44    5000
   45    5000
   46    1238.9491
   47    5000
   48    5000
   49    1956.9066

BLOCK SMINPUTS
   1    127.90897
   2    1.1663787e-05
   3    0.1184
   4    91.1876
   5    4.18
   6    173.2
   7    1.777
   8    0
   11    0.00051099893
   12    0
   13    0.10565837
   14    0
   21    0.005
   22    0.0025
   23    0.095
   24    1.27

BLOCK GAUGE Q=  1366.612
   1    0.35536298
   2    0.66519887
   3    1.219778

BLOCK YU Q=  1366.612
   1   1    8.390277e-06
   2   2    0.0042622607
   3   3    1.0136128

BLOCK YD Q=  1366.612
   1   1    0.00044915552
   2   2    0.0085339548
   3   3    0.44542153

BLOCK YE Q=  1366.612
   1   1    7.8380922e-05
   2   2    0.016206689
   3   3    0.27256984

BLOCK AU Q=  1366.612
   1   1    0
   2   2    0
   3   3   -2325.9381

BLOCK AD Q=  1366.612
   1   1    0
   2   2    0
   3   3   -37.633203

BLOCK AE Q=  1366.612
   1   1    0
   2   2    0
   3   3   -251.12434

BLOCK MSOFT Q=  1366.612
   1   -146.18068
   2   -453.5585
   3    3000
   21    20147282
   22    52411.465
   31    1045.1906
   32    1045.1906
   33    1963.2068
   34    1218.8162
   35    1218.8162
   36    1793.201
   41    5000
   42    5000
   43    1609.1223
   44    5000
   45    5000
   46    1238.9491
   47    5000
   48    5000
   49    1956.9066

BLOCK MASS
   6    173.2
   23    91.1876
   24    80.429995
   15    1.777
   25    122.32522
   35    4501.7992
   36    4503.1867
   37    4502.8547
   1000001    5022.5869
   2000001    5011.5946
   1000002    5022.1319
   2000002    5015.6897
   1000003    5022.5903
   2000003    5011.6004
   1000004    5022.1353
   2000004    5015.6907
   1000005    1589.9028
   2000005    1982.4402
   1000006    1150.6341
   2000006    1623.1298
   1000011    1054.6866
   2000011    1211.3396
   1000012    1051.2633
   1000013    1054.7036
   2000013    1211.3689
   1000014    1051.2806
   1000015    1794.1953
   2000015    1972.8141
   1000016    1970.8347
   1000021    3178.6557
   1000022   -88.569781
   1000023    121.12029
   1000025   -165.45358
   1000035   -497.15515
   1000024    108.84742
   1000037    497.35474

BLOCK ALPHA
      -0.036439798

BLOCK HMIX Q=  1366.612
   1   -107.67069
   2    26.640366
   3    244.10712
   4    20278690

BLOCK STOPMIX
   1   1    0.264476
   1   2    0.96439227
   2   1   -0.96439227
   2   2    0.264476

BLOCK SBOTMIX
   1   1   -0.99998955
   1   2    0.004572317
   2   1   -0.004572317
   2   2   -0.99998955

BLOCK STAUMIX
   1   1   -0.0069680564
   1   2    0.99997572
   2   1   -0.99997572
   2   2   -0.0069680564

BLOCK NMIX
   1   1    0.44667996
   1   2   -0.11777685
   1   3   -0.69257771
   1   4    0.55402323
   2   1   -0.11678136
   2   2    0.093765758
   2   3   -0.67166815
   2   4   -0.72555633
   3   1    0.88675185
   3   2    0.096738994
   3   3    0.25928283
   3   4   -0.3702501
   4   1    0.022589452
   4   2   -0.98385881
   4   3    0.044389404
   4   4   -0.17187534

BLOCK UMIX
   1   1   -0.062641245
   1   2   -0.99803611
   2   1   -0.99803611
   2   2    0.062641245

BLOCK VMIX
   1   1    0.24312056
   1   2    0.96999608
   2   1    0.96999608
   2   2   -0.24312056

BLOCK HIGGSBOUNDSINPUTHIGGSCOUPLINGSFERMIONS
       0, 709.70912,3,36,15,15

BLOCK HIGGSBOUNDSINPUTHIGGSCOUPLINGSBOSONS
       0,4,36,21,21,23

BLOCK SPHENOLOWENERGY
   1    0.00035884281
   2    1.5840797e-06
   3    3.5174134e-05
   4    2.1555499e-15
   5    9.2082907e-11
   6    1.9289513e-08
   7    7.2666691e-14
   8    3.1043276e-09
   9    6.5889574e-07
   10    9.6590351e-05
   11    0.99774134
   12    0.54338942
   13    19.414678
   14    0
   15    0
   16    0.0021634565
   17    2.2817209e-15
   18    2.4756769e-11
   19    8.279622e-11
   20    1.0208879e-14
   21    4.3649964e-10
   22    5.618971e-08
   23    0
   24    0
   25    0
   26    0
   27    0
   28    0
   29    0
   30    0
   31    0
   39    7.3561371e-05
   40    0
   41    0
   42    0

BLOCK FWCOEF Q=  160
   305   4422   0   0   -0.18881911
   305   4422   0   2   -0.23411997
   305   4322   0   2   -0.00029192351
   305   6421   0   0   -0.095227835
   305   6421   0   2   -0.1178519
   305   6321   0   2   -0.00016522974
   3051111   4133   0   0    1.5886555
   3051111   4133   0   2    1.5898598
   3051111   4233   0   2    0.000103519
   3051111   4137   0   0   -4.4113476
   3051111   4137   0   2   -4.401955
   3051111   4237   0   2   -0.000808859
   3051313   4133   0   0    1.5886555
   3051313   4133   0   2    1.5898577
   3051313   4233   0   2    0.00010351876
   3051313   4137   0   0   -4.4113476
   3051313   4137   0   2   -4.401957
   3051313   4237   0   2   -0.00080885971
   3051212   4137   0   0    1.5053501
   3051212   4137   0   2    1.50332
   3051212   4237   0   2    0.0001764053
   3051414   4137   0   0    1.5053501
   3051414   4137   0   2    1.50332
   3051414   4237   0   2    0.0001764053
   3051616   4137   0   0    1.5053501
   3051616   4137   0   2    1.503319
   3051616   4237   0   2    0.00017640691

BLOCK IMFWCOEF Q=  160
   305   4422   0   0    3.8581109e-07
   305   4422   0   2    1.4971368e-05
   305   4322   0   2   -4.126211e-06
   305   6421   0   0    3.3047271e-07
   305   6421   0   2    7.9779703e-06
   305   6321   0   2   -1.4743447e-06
   3051111   4133   0   2   -1.9374921e-06
   3051111   4233   0   2    2.0133456e-06
   3051111   4137   0   2    1.5651364e-05
   3051111   4237   0   2   -1.5734353e-05
   3051313   4133   0   2   -1.9375368e-06
   3051313   4233   0   2    2.0133416e-06
   3051313   4137   0   2    1.5651446e-05
   3051313   4237   0   2   -1.5734366e-05
   3051212   4137   0   2   -3.0635845e-06
   3051212   4237   0   2    3.4315429e-06
   3051414   4137   0   2   -3.0635827e-06
   3051414   4237   0   2    3.4315429e-06
   3051616   4137   0   2   -3.0822073e-06
   3051616   4237   0   2    3.4315555e-06

DECAY 23  2.4952


DECAY 24  2.085


DECAY 1000011  9.7887372
    0.57129838   2   -1000037    12
    0.27094777   2    1000035    11
    0.14682751   2    1000025    11
    0.0068286979   2    1000022    11
    0.0036429208   2   -1000024    12
    0.00045472113   2    1000023    11

DECAY 2000011  5.8940688
    0.78199127   2    1000025    11
    0.20384128   2    1000022    11
    0.013803049   2    1000023    11
    0.00036437712   2    1000035    11

DECAY 1000013  9.7944371
    0.57098574   2   -1000037    14
    0.27080005   2    1000035    13
    0.14678081   2    1000025    13
    0.0070908947   2    1000022    13
    0.0036408623   2   -1000024    14
    0.00070164269   2    1000023    13

DECAY 2000013  5.9066645
    0.78041299   2    1000025    13
    0.20392041   2    1000022    13
    0.014247703   2    1000023    13
    0.0010502773   2   -1000024    14
    0.00036507216   2    1000035    13

DECAY 1000015  14.148125
    0.50447151   2    1000025    15
    0.2171084   2    1000022    15
    0.18571712   2   -1000024    16
    0.091926194   2    1000023    15
    0.00044362715   2    1000035    15
    0.000333142   2   -1000037    16

DECAY 2000015  28.246171
    0.53721723   2   -1000037    16
    0.25487141   2    1000035    15
    0.10573764   2    1000025    15
    0.053178936   2    1000022    15
    0.046779323   2    1000023    15
    0.0021845928   2   -1000024    16

DECAY 1000012  9.8619803
    0.53191139   2    1000037    11
    0.28049488   2    1000035    12
    0.063417056   2    1000025    12
    0.058754975   2    1000022    12
    0.054282782   2    1000024    11
    0.011138914   2    1000023    12

DECAY 1000014  9.8676626
    0.53162535   2    1000037    13
    0.28034324   2    1000035    14
    0.063381681   2    1000025    14
    0.058722131   2    1000022    14
    0.054794901   2    1000024    13
    0.011132692   2    1000023    14

DECAY 1000016  28.291764
    0.50620018   2    1000037    15
    0.26664904   2    1000035    16
    0.13794648   2    1000024    15
    0.042962707   2    1000025    16
    0.038789916   2    1000022    16
    0.0074200355   2    1000023    16

DECAY 2000001  144.11905
    0.98062184   2    1000021    1
    0.015232591   2    1000025    1
    0.0038712002   2    1000022    1
    0.00026452051   2    1000023    1

DECAY 1000001  208.2119
    0.68426016   2    1000021    1
    0.2073903   2   -1000037    2
    0.10159737   2    1000035    1
    0.0041313925   2    1000022    1
    0.0013919072   2    1000023    1
    0.00083246852   2   -1000024    2
    0.00039640439   2    1000025    1

DECAY 2000003  144.13413
    0.98052347   2    1000021    3
    0.015234384   2    1000025    3
    0.0038948833   2    1000022    3
    0.0002871308   2    1000023    3

DECAY 1000003  208.22136
    0.68423077   2    1000021    3
    0.20738153   2   -1000037    4
    0.10159289   2    1000035    3
    0.0041479153   2    1000022    3
    0.001407549   2    1000023    3
    0.00084062401   2   -1000024    4
    0.0003987244   2    1000025    3

DECAY 1000005  74.504414
    0.39709956   2   -1000024    6
    0.26312309   2    1000006   -24
    0.17658693   2   -1000037    6
    0.074706257   2    1000035    5
    0.043991859   2    1000022    5
    0.038687145   2    1000023    5
    0.0058051526   2    1000025    5

DECAY 2000005  16.53579
    0.46106185   2   -1000024    6
    0.23827001   2    1000022    5
    0.2132611   2    1000023    5
    0.083679898   2    1000025    5
    0.0019790642   2   -1000037    6
    0.0010352431   2    1000035    5
    0.00023169555   2    1000005    25
    0.00020655754   2    2000006   -24
    0.00013993112   2    1000005    23
    0.00013465319   2    1000006   -24

DECAY 2000002  152.93277
    0.92689564   2    1000021    2
    0.057465955   2    1000025    2
    0.014604078   2    1000022    2
    0.00099768291   2    1000023    2

DECAY 1000002  208.20825
    0.68404449   2    1000021    2
    0.19588564   2    1000037    1
    0.099941655   2    1000035    2
    0.012538973   2    1000024    1
    0.0068694816   2    1000025    2
    0.00056464791   2    1000023    2
    0.00015511168   2    1000022    2

DECAY 2000004  152.93642
    0.92687373   2    1000021    4
    0.057466193   2    1000025    4
    0.01460737   2    1000022    4
    0.0010038937   2    1000023    4

DECAY 1000004  208.21764
    0.68401504   2    1000021    4
    0.19587708   2    1000037    3
    0.099937435   2    1000035    4
    0.012573093   2    1000024    3
    0.006870371   2    1000025    4
    0.0005692078   2    1000023    4
    0.00015777919   2    1000022    4

DECAY 1000006  44.643906
    0.41988042   2    1000024    5
    0.24285967   2    1000023    6
    0.13933804   2    1000022    6
    0.11547586   2    1000025    6
    0.056548337   2    1000037    5
    0.025859067   2    1000035    6

DECAY 2000006  80.760598
    0.22211245   2    1000023    6
    0.1498248   2    1000006    25
    0.14274386   2    1000022    6
    0.14135014   2    1000024    5
    0.13605943   2    1000006    23
    0.10213505   2    1000037    5
    0.056384542   2    1000035    6
    0.049389727   2    1000025    6

DECAY 1000024  9.3157657e-06
    0.33674141   3    1000022   -1    2
    0.33041505   3    1000022   -3    4
    0.11230035   3    1000022   -11    12
    0.11229057   3    1000022   -13    14
    0.10825262   3    1000022   -15    16

DECAY 1000037  4.1799419
    0.26607524   2    1000023    24
    0.25019516   2    1000024    23
    0.21797328   2    1000024    25
    0.14516287   2    1000022    24
    0.11898254   2    1000025    24
    0.00083024023   3    1000023   -5    6
    0.00048405021   3    1000022   -5    6
    0.0002432745   3    1000025   -5    6

DECAY 1000022 -1


DECAY 1000023  6.8966544e-05
    0.20437642   3    1000022    12   -12
    0.15274416   3    1000022    1   -1
    0.15272982   3    1000022    3   -3
    0.12753826   3    1000022    5   -5
    0.11912949   3    1000022    2   -2
    0.11682418   3    1000022    4   -4
    0.034455077   3    1000022    11   -11
    0.034450346   3    1000022    13   -13
    0.033086858   3    1000022    15   -15
    0.015163218   2    1000022    22
    0.0016290425   3    1000024    1   -2
    0.0016290425   3   -1000024   -1    2
    0.0015456192   3    1000024    3   -4
    0.0015456192   3   -1000024   -3    4
    0.00054314795   3    1000024    11   -12
    0.00054314795   3   -1000024   -11    12
    0.00054294833   3    1000024    13   -14
    0.00054294833   3   -1000024   -13    14
    0.00049032849   3    1000024    15   -16
    0.00049032849   3   -1000024   -15    16

DECAY 1000025  0.0012223829
    0.15252577   3    1000024    1   -2
    0.15252577   3   -1000024   -1    2
    0.1522568   3    1000024    3   -4
    0.1522568   3   -1000024   -3    4
    0.050811257   3    1000024    11   -12
    0.050811257   3   -1000024   -11    12
    0.050810952   3    1000024    13   -14
    0.050810952   3   -1000024   -13    14
    0.050678895   3    1000024    15   -16
    0.050678895   3   -1000024   -15    16
    0.015950019   3    1000023    12   -12
    0.011939929   3    1000023    1   -1
    0.011939366   3    1000023    3   -3
    0.01091503   3    1000023    5   -5
    0.0093119201   3    1000023    2   -2
    0.0092200954   3    1000023    4   -4
    0.0026981949   3    1000023    11   -11
    0.0026980162   3    1000023    13   -13
    0.0026421592   3    1000023    15   -15
    0.0019617763   2    1000023    22
    0.0012438228   3    1000022    12   -12
    0.00095515258   3    1000022    1   -1
    0.00095514327   3    1000022    3   -3
    0.00092389283   3    1000022    5   -5
    0.00074399177   3    1000022    2   -2
    0.00074244231   3    1000022    4   -4
    0.00029622902   2    1000022    22
    0.00023701533   3    1000022    11   -11
    0.00023699397   3    1000022    13   -13
    0.00022145254   3    1000022    15   -15

DECAY 1000035  4.7049356
    0.24330734   2    1000024   -24
    0.24330734   2   -1000024    24
    0.18523017   2    1000023    23
    0.13553272   2    1000023    25
    0.073898342   2    1000022    25
    0.063688055   2    1000025    25
    0.034645616   2    1000022    23
    0.018258549   2    1000025    23
    0.0010276005   3    1000024    5   -6
    0.0010276005   3   -1000024   -5    6

DECAY 1000021  211.43526
    0.15713222   2    1000006   -6
    0.15713222   2   -1000006    6
    0.13032574   2    2000006   -6
    0.13032574   2   -2000006    6
    0.12509905   2    1000005   -5
    0.12509905   2   -1000005    5
    0.083068792   2    2000005   -5
    0.083068792   2   -2000005    5
    0.0042523006   2    1000006   -4
    0.0042523006   2   -1000006    4

DECAY 25  0.003551871
    0.61245945   2   -5    5
    0.18691801   2   -24    24
    0.074398463   2    21    21
    0.07029722   2   -15    15
    0.030364141   2   -4    4
    0.021440367   2    23    23
    0.002365334   2    22    22
    0.0012819571   2    22    23
    0.00024394079   2   -13    13
    0.00023031813   2   -3    3
    6.3680685e-07   2   -1    1
    1.5648207e-07   2   -2    2
    5.4840956e-09   2   -11    11

DECAY 35  101.8683
    0.34523972   2   -5    5
    0.16486366   2   -1000024    1000037
    0.16486366   2   -1000037    1000024
    0.086474802   2    1000023    1000035
    0.077945275   2    1000022    1000035
    0.06645566   2   -15    15
    0.0233157   2   -1000024    1000024
    0.020544434   2    1000022    1000022
    0.016652573   2    1000023    1000025
    0.0098434336   2    1000025    1000035
    0.0062267551   2    1000022    1000025
    0.0044964359   2    1000023    1000023
    0.0031795796   2    1000022    1000023
    0.0026400185   2    1000025    1000025
    0.0023129919   2   -6    6
    0.0010613783   2   -1000037    1000037
    0.0010607344   2   -2000006    1000006
    0.0010607344   2   -1000006    2000006
    0.00057137106   2    1000035    1000035
    0.00044225209   2   -1000006    1000006
    0.00023075457   2   -13    13
    0.000221252   2   -2000006    2000006
    0.00013232079   2   -3    3
    5.886206e-05   2   -2000015    1000015
    5.886206e-05   2   -1000015    2000015
    2.0764624e-05   2   -2000005    1000005
    2.0764624e-05   2   -1000005    2000005
    2.1627642e-06   2    25    25
    1.4399315e-06   2    21    21
    3.6583071e-07   2   -1    1
    2.4327739e-07   2    23    23
    6.8754145e-08   2   -1000011    1000011
    6.8495505e-08   2   -1000013    1000013
    6.0442755e-08   2   -1000005    1000005
    4.4975061e-08   2   -24    24
    4.2230233e-08   2   -2000011    2000011
    4.2044132e-08   2   -2000013    2000013
    4.1146755e-08   2   -2000015    2000015
    3.1729799e-08   2    22    23
    3.0936211e-08   2   -4    4
    1.6769716e-08   2   -2000005    2000005
    1.336392e-08   2    22    22
    5.1819792e-09   2   -11    11
    3.453716e-09   2   -1000015    1000015
    7.8063537e-11   2   -2000013    1000013
    7.8063537e-11   2   -1000013    2000013
    1.5945753e-13   2   -2    2
    1.8259189e-15   2   -2000011    1000011
    1.8259189e-15   2   -1000011    2000011

DECAY 36  99.072641
    0.33140197   2   -5    5
    0.16862242   2   -1000024    1000037
    0.16862242   2   -1000037    1000024
    0.089845979   2    1000022    1000035
    0.075673396   2    1000023    1000035
    0.063794008   2   -15    15
    0.024940202   2   -1000024    1000024
    0.023779695   2    1000022    1000022
    0.015269142   2    1000023    1000025
    0.013058725   2    1000025    1000035
    0.0069183746   2    1000022    1000025
    0.0039561662   2    1000023    1000023
    0.0033823448   2    1000025    1000025
    0.0021449209   2    1000022    1000023
    0.0021293013   2   -6    6
    0.0020306699   2   -1000037    1000037
    0.0014203093   2   -2000006    1000006
    0.0014203093   2   -1000006    2000006
    0.0010707568   2    1000035    1000035
    0.00022151226   2   -13    13
    0.00012701672   2   -3    3
    6.0563634e-05   2   -2000015    1000015
    6.0563634e-05   2   -1000015    2000015
    2.1336938e-05   2   -2000005    1000005
    2.1336938e-05   2   -1000005    2000005
    5.4734476e-06   2    21    21
    6.0556515e-07   2    23    25
    3.5116349e-07   2   -1    1
    5.8434056e-08   2    22    23
    4.0520555e-08   2    22    22
    2.8278671e-08   2   -4    4
    4.9744152e-09   2   -11    11
    7.9324305e-11   2   -2000013    1000013
    7.9324305e-11   2   -1000013    2000013
    1.457626e-13   2   -2    2
    5.7031511e-14   2    23    35
    1.8554037e-15   2   -2000011    1000011
    1.8554037e-15   2   -1000011    2000011
    5.8662922e-40   2    25    25

DECAY 37  102.01002
    0.34875331   2   -5    6
    0.17206145   2    1000022    1000037
    0.16659776   2    1000024    1000035
    0.15623668   2    1000023    1000037
    0.066584626   2   -15    16
    0.055975693   2    1000024    1000025
    0.024334272   2    1000025    1000037
    0.0046190979   2    1000022    1000024
    0.0018610363   2    1000023    1000024
    0.0016798188   2   -1000005    1000006
    0.00051439802   2   -5    4
    0.00023540033   2   -13    14
    0.00013405137   2   -2000005    1000006
    0.00012210822   2   -3    4
    0.00011768708   2   -1000015    1000016
    8.0385404e-05   2   -2000005    2000006
    7.6937231e-05   2   -1000005    2000006
    5.7436046e-06   2   -3    2
    3.6733318e-06   2   -5    2
    3.3375745e-06   2   -3    6
    7.4273689e-07   2    1000035    1000037
    5.8815923e-07   2    24    25
    3.3876115e-07   2   -1    2
    2.697173e-07   2   -1000011    1000012
    2.6935493e-07   2   -1000013    1000014
    1.5353121e-07   2   -2000015    1000016
    1.4471803e-07   2   -1    6
    1.7209112e-08   2   -1    4
    5.5060382e-09   2   -11    12
    1.6444876e-10   2   -2000013    1000014
    1.7489566e-14   2    24    35
    3.846636e-15   2   -2000011    1000012

DECAY 6  2.43
    1   2    5    24

DECAY 15 -1
