BLOCK SPINFO
   1   SPheno
   2   v4.0.5be

BLOCK SPHENOINFO
   1   2
   2   2

BLOCK MODSEL
   1   0

BLOCK MINPAR
   3    54.387337
   4    1

BLOCK EXTPAR
   0    1427.4051
   1   -47.957375
   2   -163.46778
   3    3000
   11    3449.4202
   12   -1421.0543
   13    481.38029
   23    165.5691
   25    53.726824
   26    183.62286
   31    1221.4878
   32    1221.4878
   33    672.87606
   34    829.39348
   35    829.39348
   36    532.39721
   41    5000
   42    5000
   43    1892.8989
   44    5000
   45    5000
   46    1187.191
   47    5000
   48    5000
   49    1667.3215

BLOCK SMINPUTS
   1    127.90897
   2    1.1663787e-05
   3    0.1184
   4    91.1876
   5    4.18
   6    173.2
   7    1.777
   8    0
   11    0.00051099893
   12    0
   13    0.10565837
   14    0
   21    0.005
   22    0.0025
   23    0.095
   24    1.27

BLOCK GAUGE Q=  1427.4051
   1    0.35536298
   2    0.66519887
   3    1.219778

BLOCK YU Q=  1427.4051
   1   1    8.3858243e-06
   2   2    0.0042599987
   3   3    1.0130749

BLOCK YD Q=  1427.4051
   1   1    0.00090535139
   2   2    0.017201676
   3   3    0.89782488

BLOCK YE Q=  1427.4051
   1   1    0.00015799044
   2   2    0.032667412
   3   3    0.54941212

BLOCK AU Q=  1427.4051
   1   1    0
   2   2    0
   3   3    3449.4205

BLOCK AD Q=  1427.4051
   1   1    0
   2   2    0
   3   3   -1421.0544

BLOCK AE Q=  1427.4051
   1   1    0
   2   2    0
   3   3    481.38031

BLOCK MSOFT Q=  1427.4051
   1   -47.957375
   2   -163.46778
   3    3000
   21    38753.34
   22    26464.407
   31    1221.4878
   32    1221.4878
   33    672.87606
   34    829.39348
   35    829.39348
   36    532.39721
   41    5000
   42    5000
   43    1892.8989
   44    5000
   45    5000
   46    1187.191
   47    5000
   48    5000
   49    1667.3215

BLOCK MASS
   6    173.2
   23    91.1876
   24    80.429995
   15    1.777
   25    127.02791
   35    183.79543
   36    183.62286
   37    211.46519
   1000001    5027.7937
   2000001    5016.8821
   1000002    5027.3504
   2000002    5018.1935
   1000003    5027.8006
   2000003    5016.8945
   1000004    5027.3573
   2000004    5018.1943
   1000005    1669.8886
   2000005    1864.621
   1000006    1072.3246
   2000006    1900.0641
   1000011    1224.1068
   2000011    832.152
   1000012    1221.1759
   1000013    1224.0917
   2000013    832.11332
   1000014    1221.1605
   1000015    523.3619
   2000015    670.84431
   1000016    664.907
   1000021    3186.8296
   1000022   -44.600093
   1000023   -126.42648
   1000025    183.44566
   1000035   -235.84436
   1000024    126.52128
   1000037    238.25998

BLOCK ALPHA
      -0.037155401

BLOCK HMIX Q=  1427.4051
   1    165.5691
   2    53.726824
   3    244.01337
   4    33717.357

BLOCK STOPMIX
   1   1   -0.22023613
   1   2    0.97544659
   2   1   -0.97544659
   2   2   -0.22023613

BLOCK SBOTMIX
   1   1    0.032612954
   1   2    0.99946806
   2   1   -0.99946806
   2   2    0.032612954

BLOCK STAUMIX
   1   1    0.086034763
   1   2    0.99629214
   2   1   -0.99629214
   2   2    0.086034763

BLOCK NMIX
   1   1   -0.95293389
   1   2    0.040497634
   1   3   -0.29157053
   1   4   -0.072550508
   2   1    0.23519327
   2   2    0.66336596
   2   3   -0.57158137
   2   4   -0.42181095
   3   1    0.14095781
   3   2   -0.16413838
   3   3   -0.66203634
   3   4    0.7175635
   4   1    0.12935236
   4   2   -0.72894728
   4   3   -0.38728447
   4   4   -0.54946753

BLOCK UMIX
   1   1   -0.55611122
   1   2    0.83110788
   2   1   -0.83110788
   2   2   -0.55611122

BLOCK VMIX
   1   1    0.79283591
   1   2    0.60943517
   2   1    0.60943517
   2   2   -0.79283591

BLOCK HIGGSBOUNDSINPUTHIGGSCOUPLINGSFERMIONS
       0, 2886.5716,3,36,15,15

BLOCK HIGGSBOUNDSINPUTHIGGSCOUPLINGSBOSONS
       0,4,36,21,21,23

BLOCK SPHENOLOWENERGY
   1    0.00059845582
   2    1.6327178e-06
   3    3.5189374e-05
   4    5.180719e-15
   5    2.2095839e-10
   6    2.574996e-08
   7    1.954435e-13
   8    8.3364967e-09
   9    1.0187692e-06
   10    0.00011474177
   11    1.1852385
   12    0.54237209
   13    18.701028
   14    0
   15    0
   16    0.0021651395
   17    2.28215e-15
   18    2.474915e-11
   19    8.278385e-11
   20   -1.5632848e-14
   21   -6.6833818e-10
   22   -4.4035116e-07
   23    0
   24    0
   25    0
   26    0
   27    0
   28    0
   29    0
   30    0
   31    0
   39    0.00010188652
   40    0
   41    0
   42    0

BLOCK FWCOEF Q=  160
   305   4422   0   0   -0.18881911
   305   4422   0   2   -0.44673491
   305   4322   0   2   -0.0036904676
   305   6421   0   0   -0.095227835
   305   6421   0   2   -0.29929954
   305   6321   0   2   -0.003035404
   3051111   4133   0   0    1.5909903
   3051111   4133   0   2    1.5921821
   3051111   4233   0   2   -0.0015577882
   3051111   4137   0   0   -4.4136824
   3051111   4137   0   2   -4.4052441
   3051111   4237   0   2    0.012172121
   3051313   4133   0   0    1.5909903
   3051313   4133   0   2    1.5921751
   3051313   4233   0   2   -0.0015631897
   3051313   4137   0   0   -4.4136824
   3051313   4137   0   2   -4.405251
   3051313   4237   0   2    0.012177527
   3051212   4137   0   0    1.5053501
   3051212   4137   0   2    1.5035336
   3051212   4237   0   2   -0.0026533737
   3051414   4137   0   0    1.5053501
   3051414   4137   0   2    1.5035336
   3051414   4237   0   2   -0.0026521931
   3051616   4137   0   0    1.5053501
   3051616   4137   0   2    1.5035361
   3051616   4237   0   2   -0.0023194901

BLOCK IMFWCOEF Q=  160
   305   4422   0   0    3.857722e-07
   305   4422   0   2   -1.7335862e-05
   305   4322   0   2   -7.6775369e-06
   305   6421   0   0    3.304394e-07
   305   6421   0   2   -1.105244e-05
   305   6321   0   2   -3.0295851e-06
   3051111   4133   0   2    1.6781284e-07
   3051111   4233   0   2    7.4330266e-06
   3051111   4137   0   2    5.4186077e-06
   3051111   4237   0   2   -5.7917977e-05
   3051313   4133   0   2    1.6775568e-07
   3051313   4233   0   2    7.4329641e-06
   3051313   4137   0   2    5.4186134e-06
   3051313   4237   0   2   -5.7918149e-05
   3051212   4137   0   2   -7.7080188e-07
   3051212   4237   0   2    1.2625089e-05
   3051414   4137   0   2   -7.7080091e-07
   3051414   4237   0   2    1.2625089e-05
   3051616   4137   0   2   -7.3377075e-07
   3051616   4237   0   2    1.2625059e-05

DECAY 23  2.4952


DECAY 24  2.085


DECAY 2000011  4.1302581
    0.91402246   2    1000022    11
    0.053443677   2    1000023    11
    0.018206992   2    1000025    11
    0.014326784   2    1000035    11

DECAY 1000011  16.830236
    0.40938442   2   -1000037    12
    0.19506688   2    1000023    11
    0.19380127   2   -1000024    12
    0.12922888   2    1000035    11
    0.070104308   2    1000022    11
    0.0024142473   2    1000025    11

DECAY 2000013  4.1625663
    0.90724373   2    1000022    13
    0.054350079   2    1000023    13
    0.019748993   2    1000025    13
    0.014753511   2    1000035    13
    0.0027975597   2   -1000024    14
    0.0011061226   2   -1000037    14

DECAY 1000013  16.855141
    0.40877367   2   -1000037    14
    0.19526882   2    1000023    13
    0.19351241   2   -1000024    14
    0.12925085   2    1000035    13
    0.070130616   2    1000022    13
    0.003056464   2    1000025    13

DECAY 1000015  7.7540479
    0.34497805   2    1000022    15
    0.28204428   2   -1000024    16
    0.15148008   2    1000023    15
    0.13465812   2    1000025    15
    0.055665898   2   -1000037    16
    0.031173578   2    1000035    15

DECAY 2000015  11.638083
    0.29163361   2   -1000037    16
    0.23637488   2    1000023    15
    0.13858626   2    1000025    15
    0.13644904   2    1000035    15
    0.11564052   2   -1000024    16
    0.07785666   2    1000022    15
    0.0018704221   2    1000015    23
    0.0015885949   2    1000015    25

DECAY 1000012  16.914794
    0.39096446   2    1000024    11
    0.21841858   2    1000037    11
    0.18756764   2    1000035    12
    0.095721303   2    1000022    12
    0.08992253   2    1000023    12
    0.01740549   2    1000025    12

DECAY 1000014  16.939506
    0.39142425   2    1000024    13
    0.21853402   2    1000037    13
    0.18729127   2    1000035    14
    0.095580445   2    1000022    14
    0.089790162   2    1000023    14
    0.017379858   2    1000025    14

DECAY 1000016  11.844651
    0.50535389   2    1000024    15
    0.21816299   2    1000037    15
    0.12025679   2    1000035    16
    0.073956814   2    1000022    16
    0.066369878   2    1000023    16
    0.012091237   2    1000025    16
    0.003808396   2    1000015    24

DECAY 2000001  143.69868
    0.9805141   2    1000021    1
    0.017697063   2    1000022    1
    0.0010770008   2    1000023    1
    0.00038649069   2    1000025    1
    0.00032477596   2    1000035    1

DECAY 1000001  208.9037
    0.67990447   2    1000021    1
    0.14568892   2   -1000037    2
    0.065439142   2   -1000024    2
    0.059639764   2    1000035    1
    0.04086455   2    1000023    1
    0.004679432   2    1000022    1
    0.0037837245   2    1000025    1

DECAY 2000003  143.75875
    0.98011339   2    1000021    3
    0.017707124   2    1000022    3
    0.0011434001   2    1000023    3
    0.00047588214   2    1000025    3
    0.0003552338   2    1000035    3
    0.0001417211   2   -1000024    4

DECAY 1000003  208.93577
    0.67980355   2    1000021    3
    0.14567221   2   -1000037    4
    0.065432386   2   -1000024    4
    0.059651796   2    1000035    3
    0.040904421   2    1000023    3
    0.0046907272   2    1000022    3
    0.0038449024   2    1000025    3

DECAY 1000005  54.134036
    0.34083036   2   -1000024    6
    0.20933938   2    1000025    5
    0.16590211   2    1000023    5
    0.13316657   2   -1000037    6
    0.066608651   2    1000035    5
    0.060296409   2    1000022    5
    0.02326115   2    1000006   -37
    0.00059535779   2    1000006   -24

DECAY 2000005  154.95391
    0.40665085   2    1000006   -24
    0.22531189   2   -1000037    6
    0.11528657   2   -1000024    6
    0.085846126   2    1000025    5
    0.080687105   2    1000023    5
    0.059001525   2    1000035    5
    0.017671707   2    1000022    5
    0.0036714246   2    1000005    36
    0.0036090461   2    1000005    35
    0.0019877771   2    1000006   -37
    0.00019511849   2    1000005    25

DECAY 2000002  152.23774
    0.92641334   2    1000021    2
    0.066835003   2    1000022    2
    0.0040667298   2    1000023    2
    0.0014586927   2    1000025    2
    0.0012262389   2    1000035    2

DECAY 1000002  208.90161
    0.6796903   2    1000021    2
    0.1329988   2    1000024    1
    0.078330898   2    1000037    1
    0.052618002   2    1000023    2
    0.052552004   2    1000035    2
    0.0020422426   2    1000025    2
    0.0017677525   2    1000022    2

DECAY 2000004  152.24138
    0.92639137   2    1000021    4
    0.066833471   2    1000022    4
    0.0040687448   2    1000023    4
    0.0014647729   2    1000025    4
    0.0012297832   2    1000035    4

DECAY 1000004  208.9336
    0.67958934   2    1000021    4
    0.13307608   2    1000024    3
    0.078362483   2    1000037    3
    0.05261156   2    1000023    4
    0.052546613   2    1000035    4
    0.0020463973   2    1000025    4
    0.0017675296   2    1000022    4

DECAY 1000006  43.118183
    0.26137586   2    1000024    5
    0.25711863   2    1000025    6
    0.22099715   2    1000037    5
    0.10977848   2    1000023    6
    0.098457067   2    1000035    6
    0.052018821   2    1000022    6
    0.00024265474   2    1000023    4

DECAY 2000006  161.16328
    0.21713117   2    1000006    25
    0.20738647   2    1000006    23
    0.15649881   2    1000024    5
    0.12825752   2    1000037    5
    0.11203101   2    1000025    6
    0.11022176   2    1000035    6
    0.0556898   2    1000023    6
    0.0084633537   2    1000005    37
    0.0015567497   2    1000006    35
    0.0013123263   2    1000022    6
    0.0011669907   2    1000006    36
    0.00028404333   2    1000005    24

DECAY 1000024  0.011780297
    0.99988039   2    1000022    24
    0.00011829474   3    1000022   -15    16

DECAY 1000037  0.70009067
    0.80339804   2    1000023    24
    0.11463258   2    1000024    23
    0.080815976   2    1000022    24
    0.00052248016   3    1000024    5   -5
    0.00016927548   3    1000025   -1    2
    0.00016891803   3    1000025   -3    4

DECAY 1000022 -1


DECAY 1000023  0.00025820649
    0.21027146   3    1000022    5   -5
    0.18476359   3    1000022    12   -12
    0.14044674   3    1000022    3   -3
    0.14042106   3    1000022    1   -1
    0.10952039   3    1000022    2   -2
    0.1093305   3    1000022    4   -4
    0.041371826   3    1000022    15   -15
    0.030880455   3    1000022    13   -13
    0.030845587   3    1000022    11   -11
    0.0021483925   2    1000022    22

DECAY 1000025  0.13984727
    0.81271738   2    1000022    23
    0.17316053   2    1000022    25
    0.0013180269   3    1000023    12   -12
    0.0011018719   3    1000024    1   -2
    0.0011018719   3   -1000024   -1    2
    0.0010997322   3    1000024    3   -4
    0.0010997322   3   -1000024   -3    4
    0.00098314372   3    1000023    1   -1
    0.00098312358   3    1000023    3   -3
    0.00095607265   3    1000023    5   -5
    0.00084785778   3    1000022    5   -5
    0.00076687339   3    1000023    2   -2
    0.00076259539   3    1000023    4   -4
    0.00037510073   3    1000024    15   -16
    0.00037510073   3   -1000024   -15    16
    0.00036776146   3    1000024    13   -14
    0.00036776146   3   -1000024   -13    14
    0.00036774089   3    1000024    11   -12
    0.00036774089   3   -1000024   -11    12
    0.00023201925   3    1000023    15   -15
    0.0002218865   3    1000023    13   -13
    0.00022187683   3    1000023    11   -11
    0.00012706103   3    1000022    15   -15

DECAY 1000035  1.2104651
    0.48081412   2    1000024   -24
    0.48081412   2   -1000024    24
    0.019076748   2    1000022    23
    0.018534825   2    1000022    25
    0.00017297376   2    1000023    23

DECAY 1000021  205.00365
    0.19025191   2    1000006   -6
    0.19025191   2   -1000006    6
    0.1210441   2    1000005   -5
    0.1210441   2   -1000005    5
    0.099533098   2    2000005   -5
    0.099533098   2   -2000005    5
    0.08822226   2    2000006   -6
    0.08822226   2   -2000006    6
    0.00082924743   2    1000006   -4
    0.00082924743   2   -1000006    4

DECAY 25  0.012647586
    0.74175203   2   -5    5
    0.093492177   2   -15    15
    0.086411909   2   -24    24
    0.035675831   2    1000022    1000022
    0.021028516   2    21    21
    0.01087782   2    23    23
    0.0087965518   2   -4    4
    0.0007746507   2    22    22
    0.00054905018   2    22    23
    0.00033029181   2   -13    13
    0.00031026369   2   -3    3
    8.5785674e-07   2   -1    1
    4.5328702e-08   2   -2    2
    7.4252948e-09   2   -11    11

DECAY 35  8.2914267
    0.86727397   2   -5    5
    0.12621919   2   -15    15
    0.0032027971   2    1000022    1000022
    0.001844195   2    1000022    1000023
    0.00057836431   2    21    21
    0.00045074823   2   -13    13
    0.00039669674   2   -3    3
    2.8629063e-05   2   -24    24
    4.0060184e-06   2    23    23
    1.0968422e-06   2   -1    1
    1.9159968e-07   2    22    22
    6.8863247e-08   2    22    23
    2.8274722e-08   2   -4    4
    1.0132144e-08   2   -11    11
    1.4567676e-13   2   -2    2

DECAY 36  8.4556363
    0.86228234   2   -5    5
    0.12542129   2   -15    15
    0.0068408445   2    1000022    1000023
    0.0040084938   2    1000022    1000022
    0.00060304079   2    21    21
    0.00044768052   2   -13    13
    0.00039404009   2   -3    3
    1.0894964e-06   2   -1    1
    7.6932056e-07   2    22    22
    3.7403225e-07   2    22    23
    2.0563142e-08   2    23    25
    1.0063176e-08   2   -11    11
    5.795299e-09   2   -4    4
    3.122822e-14   2   -2    2

DECAY 37  2.2459608
    0.55688621   2   -15    16
    0.37919434   2   -5    6
    0.055314279   2    1000022    1000024
    0.0050099888   2   -5    4
    0.0019690673   2   -13    14
    0.0014971934   2   -3    4
    6.7433254e-05   2   -3    2
    3.5779063e-05   2   -5    2
    8.8680857e-06   2    24    36
    8.5971331e-06   2    24    35
    4.1554428e-06   2   -1    2
    3.3403253e-06   2    24    25
    5.0389184e-07   2   -3    6
    1.8763471e-07   2   -1    4
    4.6056712e-08   2   -11    12
    1.2498253e-08   2   -1    6

DECAY 6  2.43
    1   2    5    24

DECAY 15 -1
