BLOCK DCINFO
   1   SDECAY/HDECAY
   2   1.3b /3.4

BLOCK SPINFO
   1   SOFTSUSY
   2   3.4.0

BLOCK MODSEL
   1   0

BLOCK SMINPUTS
   1    127.90897
   2    1.1663787e-05
   3    0.1184
   4    91.1876
   5    4.18
   6    173.2
   7    1.777

BLOCK MINPAR
   3    35.62

BLOCK EXTPAR
   0   -1
   1   -45.68
   2    2017.22
   3    3587.32
   11   -3573.87
   12   -139.72
   13    1477.33
   23    384.43
   26    952.96
   31    762.78
   32    762.78
   33    1593.17
   34    226.06
   35    226.06
   36    186.9
   41    1985.17
   42    1985.17
   43    3368.99
   44    3810.4
   45    3810.4
   46    3585.49
   47    1357.95
   48    1357.95
   49    1846.62

BLOCK MASS
   24    80.378598
   25    125.36994
   35    952.98611
   36    952.96
   37    956.49376
   5    4.8187603
   1000001    2166.7982
   2000001    1550.9692
   1000002    2165.4401
   2000002    3917.6826
   1000003    2166.7982
   2000003    1550.9692
   1000004    2165.4401
   2000004    3917.6826
   1000005    1994.9082
   2000005    3464.6892
   1000006    3438.0783
   2000006    3655.6921
   1000011    801.33131
   2000011    293.60001
   1000012    797.16313
   1000013    801.33131
   2000013    293.60001
   1000014    797.16313
   1000015    216.33559
   2000015    1611.2045
   1000016    1608.8923
   1000021    3668.9575
   1000022   -44.25867
   1000023    401.97985
   1000025   -405.48247
   1000035    2020.5811
   1000024    401.25512
   1000037    2020.7489

BLOCK NMIX
   1   1    0.99396438
   1   2    0.00023949535
   1   3    0.10934647
   1   4    0.008837835
   2   1    0.071243675
   2   2    0.034895016
   2   3   -0.70467245
   2   4    0.70508398
   3   1   -0.083416997
   3   2    0.022218219
   3   3    0.70099868
   3   4    0.70791864
   4   1   -0.00087146794
   4   2    0.99914395
   4   3    0.0089961274
   4   4   -0.040369283

BLOCK UMIX
   1   1   -0.012742795
   1   2    0.99991881
   2   1   -0.99991881
   2   2   -0.012742795

BLOCK VMIX
   1   1   -0.05715624
   1   2    0.99836525
   2   1   -0.99836525
   2   2   -0.05715624

BLOCK STOPMIX
   1   1    0.93317721
   1   2    0.35941661
   2   1   -0.35941661
   2   2    0.93317721

BLOCK SBOTMIX
   1   1    0.0039637493
   1   2    0.99999214
   2   1   -0.99999214
   2   2    0.0039637493

BLOCK STAUMIX
   1   1    0.0087162852
   1   2    0.99996201
   2   1   -0.99996201
   2   2    0.0087162852

BLOCK ALPHA
      -0.029674483

BLOCK HMIX Q=  3476.57
   1    392.53431
   2    34.561817
   3    242.20926
   4    1365176.1

BLOCK GAUGE Q=  3476.57
   1    0.36609265
   2    0.6388112
   3    1.0048376

BLOCK AU Q=  3476.57
   1   1    0
   2   2    0
   3   3   -3573.87

BLOCK AD Q=  3476.57
   1   1    0
   2   2    0
   3   3   -139.71999

BLOCK AE Q=  3476.57
   1   1    0
   2   2    0
   3   3    1477.33

BLOCK YU Q=  3476.57
   1   1    0
   2   2    0
   3   3    0.81195026

BLOCK YD Q=  3476.57
   1   1    0
   2   2    0
   3   3    0.45551749

BLOCK YE Q=  3476.57
   1   1    0
   2   2    0
   3   3    0.36337254

BLOCK MSOFT Q=  3476.57
   1   -45.68
   2    2017.22
   3    3587.32
   21    807151.7
   22    69637.271
   31    762.78
   32    762.78
   33    1593.17
   34    226.06
   35    226.06
   36    186.90002
   41    1985.17
   42    1985.17
   43    3368.99
   44    3810.4
   45    3810.4
   46    3585.49
   47    1357.95
   48    1357.95
   49    1846.62

BLOCK HIGGSBOUNDSINPUTHIGGSCOUPLINGSFERMIONS
       0, 1194.5192,3,36,15,15

BLOCK HIGGSBOUNDSINPUTHIGGSCOUPLINGSBOSONS
       0,4,36,21,21,23

DECAY 6  1.437701
    1   2    5    24

DECAY 1000021  251.73995
    0.094772895   2    2000001   -1
    0.094772895   2   -2000001    1
    0.094772895   2    2000003   -3
    0.094772895   2   -2000003    3
    0.069532583   2    1000005   -5
    0.069532583   2   -1000005    5
    0.059664664   2    1000002   -2
    0.059664664   2   -1000002    2
    0.059664645   2    1000004   -4
    0.059664645   2   -1000004    4
    0.059584655   2    1000001   -1
    0.059584655   2   -1000001    1
    0.059584655   2    1000003   -3
    0.059584655   2   -1000003    3
    0.0017208365   2    2000005   -5
    0.0017208365   2   -2000005    5
    0.00070217149   2    1000006   -6
    0.00070217149   2   -1000006    6

DECAY 1000006  79.636699
    0.28701037   2    1000025    6
    0.269617   2    1000023    6
    0.23938637   2    1000024    5
    0.12314754   2    1000037    5
    0.062090537   2    1000035    6
    0.017439147   2    1000022    6
    0.0012739323   2    1000005    24
    3.5098594e-05   2    1000005    37

DECAY 2000006  104.86131
    0.39223249   2    1000024    5
    0.22363526   2    1000023    6
    0.21340465   2    1000025    6
    0.072306404   2    1000022    6
    0.029744216   2    2000005    24
    0.024844571   2    1000037    5
    0.019601043   2    1000006    23
    0.012480544   2    1000035    6
    0.01135333   2    1000006    25
    0.00020493328   2    1000005    24
    0.0001925632   2    1000005    37

DECAY 1000005  16.216613
    0.45969518   2   -1000024    6
    0.23243775   2    1000023    5
    0.22960927   2    1000025    5
    0.078257801   2    1000022    5

DECAY 2000005  76.880344
    0.57042016   2   -1000024    6
    0.16030608   2   -1000037    6
    0.08999147   2    1000023    5
    0.089254366   2    1000025    5
    0.07956262   2    1000035    5
    0.008709586   2    1000022    5
    0.00081813289   2    1000005    23
    0.00081002262   2    1000005    25
    6.392647e-05   2    1000005    36
    6.3641412e-05   2    1000005    35

DECAY 1000002  0.8582899
    0.37111003   2    1000022    2
    0.36170644   2    1000037    1
    0.18147292   2    1000035    2
    0.062744341   2    1000024    1
    0.022587711   2    1000023    2
    0.00037856234   2    1000025    2

DECAY 2000002  13.217199
    0.66078066   2    1000022    2
    0.33132272   2    1000021    2
    0.0045651789   2    1000025    2
    0.0033311591   2    1000023    2
    2.7657948e-07   2    1000035    2

DECAY 1000001  0.81084346
    0.3910809   2    1000022    1
    0.39069066   2   -1000037    2
    0.19553223   2    1000035    1
    0.014785218   2    1000025    1
    0.0046075179   2    1000023    1
    0.0033034661   2   -1000024    2

DECAY 2000001  0.93492136
    0.9894866   2    1000022    1
    0.0060726899   2    1000025    1
    0.0044407144   2    1000023    1

DECAY 1000004  0.82965175
    0.382616   2    1000022    4
    0.35240313   2    1000037    3
    0.17680202   2    1000035    4
    0.064551293   2    1000024    3
    0.0232381   2    1000023    4
    0.00038945615   2    1000025    4

DECAY 2000004  12.452429
    0.73648769   2    1000022    4
    0.25472865   2    1000021    4
    0.0050779565   2    1000025    4
    0.0037053929   2    1000023    4
    3.0508477e-07   2    1000035    4

DECAY 1000003  0.78214294
    0.4040684   2    1000022    3
    0.38155343   2   -1000037    4
    0.19097875   2    1000035    3
    0.015243227   2    1000025    3
    0.0047503265   2    1000023    3
    0.0034058658   2   -1000024    4

DECAY 2000003  0.91604451
    0.98951022   2    1000022    3
    0.0060590009   2    1000025    3
    0.004430778   2    1000023    3

DECAY 1000011  1.0621159
    0.98849712   2    1000022    11
    0.0098348193   2    1000023    11
    0.0011097022   2    1000025    11
    0.00055836007   2   -1000024    12

DECAY 2000011  1.4773192
    1   2    1000022    11

DECAY 1000013  1.0621159
    0.98849712   2    1000022    13
    0.009834819   2    1000023    13
    0.0011097021   2    1000025    13
    0.00055836009   2   -1000024    14

DECAY 2000013  1.4773188
    1   2    1000022    13

DECAY 1000015  1.0536071
    1   2    1000022    15

DECAY 2000015  8.282472
    0.26151522   2    1000022    15
    0.22712949   2    1000023    15
    0.22124679   2    1000025    15
    0.13335282   2    1000015    35
    0.13335119   2    1000015    36
    0.011660631   2    1000015    25
    0.011659656   2    1000015    23
    8.4203773e-05   2   -1000024    16

DECAY 1000012  1.0631831
    0.98065474   2    1000022    12
    0.011085576   2    1000024    11
    0.0082000947   2    1000025    12
    5.9589947e-05   2    1000023    12

DECAY 1000014  1.0631831
    0.98065474   2    1000022    14
    0.011085575   2    1000024    13
    0.0082000947   2    1000025    14
    5.9589947e-05   2    1000023    14

DECAY 1000016  8.2796887
    0.45332456   2    1000024    15
    0.2653701   2   -1000015   -37
    0.25533712   2    1000022    16
    0.022551928   2   -1000015   -24
    0.0033918892   2    1000025    16
    2.4412323e-05   2    1000023    16

DECAY 1000024  0.49843989
    0.53206289   2   -1000015    16
    0.46793711   2    1000022    24

DECAY 1000037  50.7877
    0.11477629   2    1000012   -11
    0.11477629   2    1000014   -13
    0.11468924   2   -1000011    12
    0.11468924   2   -1000013    14
    0.081469745   2    1000024    25
    0.079719405   2    1000024    23
    0.077245767   2    1000023    24
    0.077126722   2    1000025    24
    0.04565927   2    1000024    36
    0.045564985   2    1000024    35
    0.045325391   2    1000023    37
    0.044746885   2    1000025    37
    0.021574334   2    1000016   -15
    0.02142809   2   -2000015    16
    0.001053683   2    1000022    37
    0.00015431436   2    1000022    24
    3.3985491e-07   2   -1000015    16

DECAY 1000022 -1


DECAY 1000023  0.49486883
    0.27292862   2    1000022    23
    0.27192797   2    1000015   -15
    0.27192797   2   -1000015    15
    0.17364454   2    1000022    25
    0.002392725   2    2000011   -11
    0.002392725   2   -2000011    11
    0.002392725   2    2000013   -13
    0.002392725   2   -2000013    13

DECAY 1000025  0.5155042
    0.26770924   2    1000015   -15
    0.26770924   2   -1000015    15
    0.24602378   2    1000022    25
    0.2053474   2    1000022    23
    0.0033025822   2    2000011   -11
    0.0033025822   2   -2000011    11
    0.0033025822   2    2000013   -13
    0.0033025822   2   -2000013    13

DECAY 1000035  50.797282
    0.077618839   2    1000024   -24
    0.077618839   2   -1000024    24
    0.058280968   2    1000023    25
    0.057516031   2    1000012   -12
    0.057516031   2   -1000012    12
    0.057516031   2    1000014   -14
    0.057516031   2   -1000014    14
    0.057179476   2    1000011   -11
    0.057179476   2   -1000011    11
    0.057179476   2    1000013   -13
    0.057179476   2   -1000013    13
    0.056495941   2    1000025    23
    0.045434953   2    1000024   -37
    0.045434953   2   -1000024    37
    0.032682449   2    1000023    35
    0.032499097   2    1000025    36
    0.022902498   2    1000025    25
    0.022894591   2    1000023    23
    0.012683359   2    1000023    36
    0.01248881   2    1000025    35
    0.010805914   2    1000016   -16
    0.010805914   2   -1000016    16
    0.010677395   2    2000015   -15
    0.010677395   2   -2000015    15
    0.00054916461   2    1000022    36
    0.00050846463   2    1000022    35
    9.4457812e-05   2    1000022    23
    6.3153884e-05   2    1000022    25
    2.3945276e-07   2    1000015   -15
    2.3945276e-07   2   -1000015    15
    7.7181908e-08   2    2000011   -11
    7.7181908e-08   2   -2000011    11
    7.7181908e-08   2    2000013   -13
    7.7181908e-08   2   -2000013    13
    4.6453977e-09   2    2000001   -1
    4.6453977e-09   2   -2000001    1
    4.6453977e-09   2    2000003   -3
    4.6453977e-09   2   -2000003    3
    3.8891946e-09   2    1000005   -5
    3.8891946e-09   2   -1000005    5

DECAY 25  0.0043253667
    0.60965467   2    5   -5
    0.20259576   2    24   -24
    0.074273533   2    21    21
    0.06306352   2   -15    15
    0.025397165   2    23    23
    0.020098149   2    4   -4
    0.0021866414   2    22    22
    0.0014918867   2    22    23
    0.00077276505   2    1000022    1000022
    0.00024287294   2    3   -3
    0.00022303281   2   -13    13

DECAY 35  17.77647
    0.82723543   2    5   -5
    0.12609006   2   -15    15
    0.021124578   2    1000022    1000023
    0.020468389   2    1000022    1000025
    0.001977925   2    6   -6
    0.0015262222   2    1000022    1000022
    0.00043071343   2   -13    13
    0.00030310276   2    3   -3
    0.00027923032   2    1000023    1000025
    0.00022968   2    1000024   -1000024
    0.00015358477   2    1000025    1000025
    9.1537041e-05   2    21    21
    4.3916847e-05   2    1000015   -1000015
    3.1135455e-05   2    25    25
    8.4320077e-06   2    24   -24
    4.1589866e-06   2    23    23
    7.1988e-07   2    2000011   -2000011
    7.1988e-07   2    2000013   -2000013
    3.5243906e-07   2    1000023    1000023
    5.6647188e-08   2    22    22
    3.3369653e-08   2    23    22
    2.2836484e-08   2    4   -4

DECAY 36  17.791823
    0.82658171   2    5   -5
    0.12598522   2   -15    15
    0.021572553   2    1000022    1000023
    0.019971357   2    1000022    1000025
    0.0020915329   2    6   -6
    0.001523695   2    1000022    1000022
    0.00080978045   2    1000024   -1000024
    0.00049416341   2    1000025    1000025
    0.00043034969   2   -13    13
    0.00030286663   2    3   -3
    0.00013947144   2    21    21
    8.7521059e-05   2    1000023    1000025
    8.251698e-06   2    23    25
    1.3734595e-06   2    1000023    1000023
    8.1310222e-08   2    22    22
    5.3840266e-08   2    23    22
    2.1877566e-08   2    4   -4

DECAY 37  16.616948
    0.81511354   2    6   -5
    0.13539303   2   -15    16
    0.046953902   2    1000024    1000022
    0.0013974645   2    4   -5
    0.00046248555   2   -13    14
    0.00031897295   2    4   -3
    0.000314922   2    1000024    1000023
    1.6204369e-05   2    2   -3
    1.39745e-05   2    2   -5
    8.9972382e-06   2    24    25
    6.5059824e-06   2    1000024    1000025
    4.3456976e-11   2    24    36

DECAY 5 -1


DECAY 15 -1


DECAY 23  2.4952


DECAY 24  2.085
