BLOCK SPINFO
   1   SPheno
   2   v4.0.5be

BLOCK SPHENOINFO
   1   2
   2   2

BLOCK MODSEL
   1   0

BLOCK MINPAR
   3    50.255397
   4   -1

BLOCK EXTPAR
   0    2534.3554
   1    1467.373
   2    4333.7842
   3    4250.2157
   11    5552.5738
   12   -3704.9671
   13   -2908.8072
   23   -298.61707
   25    49.893474
   26    2446.2388
   31    2757.6862
   32    2757.6862
   33    4677.7798
   34    1765.5388
   35    1765.5388
   36    1607.2905
   41    2259.5909
   42    2259.5909
   43    3540.1139
   44    3742.8349
   45    3742.8349
   46    1817.1524
   47    2847.0326
   48    2847.0326
   49    764.88325

BLOCK SMINPUTS
   1    127.90897
   2    1.1663787e-05
   3    0.1184
   4    91.1876
   5    4.18
   6    173.2
   7    1.777
   8    0
   11    0.00051099893
   12    0
   13    0.10565837
   14    0
   21    0.005
   22    0.0025
   23    0.095
   24    1.27

BLOCK GAUGE Q=  2534.3554
   1    0.35536298
   2    0.66519887
   3    1.219778

BLOCK YU Q=  2534.3554
   1   1    8.386056e-06
   2   2    0.0042601165
   3   3    1.0131029

BLOCK YD Q=  2534.3554
   1   1    0.00084077879
   2   2    0.015974797
   3   3    0.8337891

BLOCK YE Q=  2534.3554
   1   1    0.00014672205
   2   2    0.030337466
   3   3    0.51022627

BLOCK AU Q=  2534.3554
   1   1    0
   2   2    0
   3   3    5552.5739

BLOCK AD Q=  2534.3554
   1   1    0
   2   2    0
   3   3   -3704.967

BLOCK AE Q=  2534.3554
   1   1    0
   2   2    0
   3   3   -2908.8072

BLOCK MSOFT Q=  2534.3554
   1    1467.373
   2    4333.7842
   3    4250.2157
   21    6074244.7
   22    4714.3483
   31    2757.6862
   32    2757.6862
   33    4677.7798
   34    1765.5388
   35    1765.5388
   36    1607.2905
   41    2259.5909
   42    2259.5909
   43    3540.1139
   44    3742.8349
   45    3742.8349
   46    1817.1524
   47    2847.0326
   48    2847.0326
   49    764.88325

BLOCK MASS
   6    173.2
   23    91.1876
   24    80.429995
   15    1.777
   25    125.84718
   35    2445.3697
   36    2446.2388
   37    2446.3221
   1000001    2354.267
   2000001    2930.0167
   1000002    2352.8938
   2000002    3830.0021
   1000003    2354.2601
   2000003    2930.0052
   1000004    2352.887
   2000004    3830.0017
   1000005    754.50144
   2000005    3558.8815
   1000006    1798.5884
   2000006    3571.1101
   1000011    2774.988
   2000011    1770.0299
   1000012    2773.4556
   1000013    2774.9609
   2000013    1769.9609
   1000014    2773.4282
   1000015    1608.9241
   2000015    4685.2777
   1000016    4684.2007
   1000021    4206.7662
   1000022    294.62406
   1000023   -296.9291
   1000025    1456.5861
   1000035    4282.7405
   1000024    295.90469
   1000037    4282.8004

BLOCK ALPHA
      -0.019972994

BLOCK HMIX Q=  2534.3554
   1   -298.61707
   2    49.893474
   3    243.40174
   4    5984084.1

BLOCK STOPMIX
   1   1   -0.086577003
   1   2    0.99624516
   2   1   -0.99624516
   2   2   -0.086577003

BLOCK SBOTMIX
   1   1   -0.0023350352
   1   2    0.99999727
   2   1   -0.99999727
   2   2   -0.0023350352

BLOCK STAUMIX
   1   1   -0.0010750458
   1   2    0.99999942
   2   1   -0.99999942
   2   2   -0.0010750458

BLOCK NMIX
   1   1   -0.026700761
   1   2    0.013194772
   1   3    0.7084084
   1   4    0.70517409
   2   1   -0.01849473
   2   2    0.012037974
   2   3   -0.70577787
   2   4    0.70808942
   3   1   -0.99947233
   3   2   -0.00085610973
   3   3   -0.0058647266
   3   4   -0.031936446
   4   1    0.00028075334
   4   2   -0.99984011
   4   3    0.00085630977
   4   4    0.01785877

BLOCK UMIX
   1   1   -0.0012107919
   1   2   -0.99999927
   2   1    0.99999927
   2   2   -0.0012107919

BLOCK VMIX
   1   1   -0.025251115
   1   2    0.99968114
   2   1    0.99968114
   2   2    0.025251115

BLOCK HIGGSBOUNDSINPUTHIGGSCOUPLINGSFERMIONS
       0, 2489.3587,3,36,15,15

BLOCK HIGGSBOUNDSINPUTHIGGSCOUPLINGSBOSONS
       0,4,36,21,21,23

BLOCK SPHENOLOWENERGY
   1    0.00031405111
   2    1.5911424e-06
   3    3.5250102e-05
   4    4.3197209e-15
   5    1.8451981e-10
   6    3.7832756e-08
   7    1.4835685e-13
   8    6.337321e-09
   9    1.3162006e-06
   10    9.4844051e-05
   11    0.97970273
   12    0.54209099
   13    19.364798
   14    0
   15    0
   16    0.0021579244
   17    2.2816672e-15
   18    2.4800617e-11
   19    8.2900348e-11
   20   -1.5424038e-15
   21   -6.5939609e-11
   22   -7.0712926e-09
   23    0
   24    0
   25    0
   26    0
   27    0
   28    0
   29    0
   30    0
   31    0
   39    7.0190914e-05
   40    0
   41    0
   42    0

BLOCK FWCOEF Q=  160
   305   4422   0   0   -0.18881911
   305   4422   0   2   -0.17956797
   305   4322   0   2    0.00029200113
   305   6421   0   0   -0.095227835
   305   6421   0   2   -0.098202627
   305   6321   0   2   -4.7390578e-06
   3051111   4133   0   0    1.6113795
   3051111   4133   0   2    1.6120348
   3051111   4233   0   2    0.00026114169
   3051111   4137   0   0   -4.4340716
   3051111   4137   0   2   -4.432237
   3051111   4237   0   2   -0.0019746051
   3051313   4133   0   0    1.6113795
   3051313   4133   0   2    1.6120332
   3051313   4233   0   2    0.00026113911
   3051313   4137   0   0   -4.4340716
   3051313   4137   0   2   -4.4322386
   3051313   4237   0   2   -0.0019746061
   3051212   4137   0   0    1.5053501
   3051212   4137   0   2    1.5049522
   3051212   4237   0   2    0.00042845818
   3051414   4137   0   0    1.5053501
   3051414   4137   0   2    1.5049522
   3051414   4237   0   2    0.0004284585
   3051616   4137   0   0    1.5053501
   3051616   4137   0   2    1.5049523
   3051616   4237   0   2    0.00042855087

BLOCK IMFWCOEF Q=  160
   305   4422   0   0    3.858511e-07
   305   4422   0   2   -8.9948899e-06
   305   4322   0   2    8.3319493e-06
   305   6421   0   0    3.3050698e-07
   305   6421   0   2    2.0269776e-06
   305   6321   0   2    3.9427876e-06
   3051111   4133   0   2   -1.1502841e-06
   3051111   4233   0   2    6.2089758e-06
   3051111   4137   0   2    9.3568699e-06
   3051111   4237   0   2   -4.6964114e-05
   3051313   4133   0   2   -1.1502716e-06
   3051313   4233   0   2    6.2089571e-06
   3051313   4137   0   2    9.3568831e-06
   3051313   4237   0   2   -4.6964161e-05
   3051212   4137   0   2   -2.027567e-06
   3051212   4237   0   2    1.0190473e-05
   3051414   4137   0   2   -2.0275672e-06
   3051414   4237   0   2    1.0190473e-05
   3051616   4137   0   2   -2.0250203e-06
   3051616   4237   0   2    1.0190472e-05

DECAY 23  2.4952


DECAY 24  2.085


DECAY 2000011  0.93467115
    0.99051118   2    1000025    11
    0.0064134946   2    1000022    11
    0.003074556   2    1000023    11

DECAY 1000011  1.83366
    0.99994252   2    1000025    11

DECAY 2000013  0.99557447
    0.92957719   2    1000025    13
    0.030757821   2   -1000024    14
    0.021464198   2    1000022    13
    0.018200787   2    1000023    13

DECAY 1000013  1.8834476
    0.97348632   2    1000025    13
    0.0132419   2    1000022    13
    0.013161339   2    1000023    13

DECAY 1000015  15.8283
    0.49143872   2   -1000024    16
    0.24714011   2    1000022    15
    0.24481977   2    1000023    15
    0.016601394   2    1000025    15

DECAY 2000015  35.241951
    0.34278704   2    1000022    15
    0.34025266   2    1000023    15
    0.13659733   2    1000025    15
    0.065682504   2    1000015    35
    0.065639321   2    1000015    36
    0.031640882   2   -1000037    16
    0.015814873   2    1000035    15
    0.00079899156   2    1000015    25
    0.00078622332   2    1000015    23

DECAY 1000012  1.8492409
    0.983807   2    1000025    12
    0.0082283203   2    1000024    11
    0.004865625   2    1000022    12
    0.0030990525   2    1000023    12

DECAY 1000014  1.8988264
    0.9580922   2    1000025    14
    0.034151189   2    1000024    13
    0.0047385163   2    1000022    14
    0.0030180934   2    1000023    14

DECAY 1000016  35.242221
    0.68363761   2    1000024    15
    0.1356544   2    1000025    16
    0.13120787   2    1000015    37
    0.031465059   2    1000037    15
    0.015747018   2    1000035    16
    0.0015716312   2    1000015    24
    0.00043762052   2    1000022    16
    0.00027879792   2    1000023    16

DECAY 1000001  0.12949963
    0.95633074   2    1000025    1
    0.025103825   2    1000022    1
    0.018338148   2    1000023    1
    0.00022728725   2   -1000024    2

DECAY 2000001  0.92798122
    0.99809083   2    1000025    1
    0.0012532786   2    1000022    1
    0.00061230396   2    1000023    1

DECAY 1000003  0.14186687
    0.87295444   2    1000025    3
    0.063770033   2    1000022    3
    0.057268281   2    1000023    3
    0.0060072474   2   -1000024    4

DECAY 2000003  0.95706563
    0.96775105   2    1000025    3
    0.015227277   2   -1000024    4
    0.0088371801   2    1000022    3
    0.008156598   2    1000023    3

DECAY 1000005  13.863257
    0.460865   2   -1000024    6
    0.27138041   2    1000022    5
    0.26775459   2    1000023    5

DECAY 2000005  235.49779
    0.40157648   2    1000006   -24
    0.30267442   2   -1000024    6
    0.10346859   2    1000022    5
    0.10269155   2    1000023    5
    0.043743506   2    1000005    35
    0.043688185   2    1000005    36
    0.0014522075   2    1000025    5
    0.00039647363   2    1000005    25
    0.00030858761   2    1000005    23

DECAY 1000002  0.14030017
    0.89803247   2    1000025    2
    0.091406774   2    1000024    1
    0.0054661171   2    1000023    2
    0.005094642   2    1000022    2

DECAY 2000002  6.2601423
    0.9985757   2    1000025    2
    0.00096256289   2    1000022    2
    0.00046173927   2    1000023    2

DECAY 1000004  0.152659
    0.82531951   2    1000025    4
    0.15959386   2    1000024    3
    0.0077244213   2    1000023    4
    0.0073622116   2    1000022    4

DECAY 2000004  6.2628712
    0.99814047   2    1000025    4
    0.0010706074   2    1000022    4
    0.00057089177   2    1000023    4
    0.00021803257   2    1000024    3

DECAY 1000006  69.106121
    0.50002211   2    1000024    5
    0.24787788   2    1000023    6
    0.24584916   2    1000022    6
    0.00624669   2    1000025    6

DECAY 2000006  253.20869
    0.25196473   2    1000006    25
    0.19397427   2    1000024    5
    0.18840673   2    1000006    23
    0.14186472   2    1000023    6
    0.14082111   2    1000022    6
    0.080942581   2    1000005    37
    0.0014493892   2    1000025    6
    0.00057645246   2    1000005    24

DECAY 1000024  2.6707372e-12
    0.60396493   3    1000022   -1    2
    0.2013408   3    1000022   -11    12
    0.19469427   3    1000022   -13    14

DECAY 1000037  200.51108
    0.13739565   2    1000004   -3
    0.13739497   2    1000002   -1
    0.13734433   2   -1000003    4
    0.13734368   2   -1000001    2
    0.046636364   2    1000024    25
    0.042091453   2    1000023    24
    0.041955783   2    1000024    23
    0.041738839   2    1000022    24
    0.031676868   2    1000014   -13
    0.031675963   2    1000012   -11
    0.031646436   2   -1000013    14
    0.03164554   2   -1000011    12
    0.025874206   2   -2000005    6
    0.025805156   2    2000006   -5
    0.0214384   2    37    1000022
    0.021361826   2    1000024    35
    0.021348193   2    1000024    36
    0.020933147   2    37    1000023
    0.0051740399   3    1000024    6   -6
    0.0031917045   3    1000023   -5    6
    0.0031238339   3    1000022   -5    6
    0.0029829968   2    1000006   -5
    0.00014849359   2    1000025    24

DECAY 1000022 -1


DECAY 1000023  2.1566006e-09
    0.92597928   2    1000022    22
    0.02107858   3    1000022    12   -12
    0.015761305   3    1000022    1   -1
    0.015453769   3    1000022    3   -3
    0.012292904   3    1000022    2   -2
    0.0035570696   3    1000022    11   -11
    0.0034484109   3    1000022    13   -13
    0.00073605059   3    1000024    1   -2
    0.00073605059   3   -1000024   -1    2
    0.00024538674   3    1000024    11   -12
    0.00024538674   3   -1000024   -11    12
    0.00023290239   3    1000024    13   -14
    0.00023290239   3   -1000024   -13    14

DECAY 1000025  5.5528198
    0.17587559   2    1000024   -24
    0.17587559   2   -1000024    24
    0.11992392   2    1000023    23
    0.11760634   2    1000005   -5
    0.11760634   2   -1000005    5
    0.11676533   2    1000023    25
    0.10657642   2    1000022    25
    0.056630128   2    1000022    23
    0.004040929   3    1000024    5   -6
    0.004040929   3   -1000024   -5    6
    0.0022105714   3    1000023    6   -6
    0.0021408026   3    1000022    6   -6
    0.00016423186   3    1000022    15   -15
    0.00016307548   3    1000024    15   -16
    0.00016307548   3   -1000024   -15    16
    0.00016174238   3    1000023    15   -15

DECAY 1000035  201.84148
    0.068257271   2    1000004   -4
    0.068257271   2   -1000004    4
    0.068256957   2    1000002   -2
    0.068256957   2   -1000002    2
    0.068202054   2    1000003   -3
    0.068202054   2   -1000003    3
    0.068201709   2    1000001   -1
    0.068201709   2   -1000001    1
    0.041687547   2    1000024   -24
    0.041687547   2   -1000024    24
    0.027628412   2    1000023    25
    0.025263308   2    1000022    25
    0.022915338   2    1000023    23
    0.021205378   2    37   -1000024
    0.021205378   2   -37    1000024
    0.018758956   2    1000022    23
    0.01574291   2    1000014   -14
    0.01574291   2   -1000014    14
    0.01574246   2    1000012   -12
    0.01574246   2   -1000012    12
    0.015708351   2    1000013   -13
    0.015708351   2   -1000013    13
    0.015707906   2    1000011   -11
    0.015707906   2   -1000011    11
    0.013413656   2    2000005   -5
    0.013413656   2   -2000005    5
    0.013217643   2    1000022    35
    0.012260643   2    2000006   -6
    0.012260643   2   -2000006    6
    0.012129004   2    1000023    35
    0.0086770328   2    1000023    36
    0.0080849457   2    1000022    36
    0.0031224076   3    1000024    5   -6
    0.0031224076   3   -1000024   -5    6
    0.002587622   3    1000023    6   -6
    0.002546149   3    1000022    6   -6
    0.0014737325   2    1000006   -6
    0.0014737325   2   -1000006    6
    0.0001264127   2    1000025    25

DECAY 1000021  528.56113
    0.11033645   2    1000005   -5
    0.11033645   2   -1000005    5
    0.079953501   2    1000006   -6
    0.079953501   2   -1000006    6
    0.055621913   2    1000004   -4
    0.055621913   2   -1000004    4
    0.055621628   2    1000002   -2
    0.055621628   2   -1000002    2
    0.055562812   2    1000003   -3
    0.055562812   2   -1000003    3
    0.055562517   2    1000001   -1
    0.055562517   2   -1000001    1
    0.031228   2    2000003   -3
    0.031228   2   -2000003    3
    0.031227536   2    2000001   -1
    0.031227536   2   -2000001    1
    0.009520296   2    2000005   -5
    0.009520296   2   -2000005    5
    0.0084476067   2    2000006   -6
    0.0084476067   2   -2000006    6
    0.0034484438   2    2000002   -2
    0.0034484438   2   -2000002    2
    0.0034484337   2    2000004   -4
    0.0034484337   2   -2000004    4

DECAY 25  0.0040037152
    0.56047859   2   -5    5
    0.24186511   2   -24    24
    0.071482818   2    21    21
    0.064489558   2   -15    15
    0.029769569   2    23    23
    0.027577082   2   -4    4
    0.002338411   2    22    22
    0.0015641324   2    22    23
    0.00022364711   2   -13    13
    0.00021034783   2   -3    3
    5.8158874e-07   2   -1    1
    1.4210881e-07   2   -2    2
    5.027825e-09   2   -11    11

DECAY 35  96.293709
    0.86360207   2   -5    5
    0.12383529   2   -15    15
    0.0066430445   2    1000023    1000025
    0.0045011107   2    1000022    1000025
    0.00042364889   2   -6    6
    0.00042349301   2   -13    13
    0.00028982068   2   -3    3
    0.00013136648   2   -1000024    1000024
    7.4170417e-05   2    1000022    1000022
    4.3606669e-05   2    1000023    1000023
    1.6526265e-05   2    21    21
    1.2921902e-05   2   -1000005    1000005
    9.3665834e-07   2    1000022    1000023
    8.6885984e-07   2    25    25
    8.0109104e-07   2   -1    1
    2.0380442e-07   2    23    23
    8.1233195e-08   2   -24    24
    1.4090075e-08   2    22    22
    9.8176225e-09   2    22    23
    9.5120064e-09   2   -11    11
    6.0812318e-09   2   -4    4
    3.1354479e-14   2   -2    2

DECAY 36  88.855169
    0.86274861   2   -5    5
    0.12371353   2   -15    15
    0.0072625845   2    1000022    1000025
    0.0048283063   2    1000023    1000025
    0.00042365796   2   -6    6
    0.00042307522   2   -13    13
    0.00028952529   2   -3    3
    0.00015085807   2   -1000024    1000024
    7.8938209e-05   2    1000022    1000022
    5.4495525e-05   2    1000023    1000023
    2.3227239e-05   2    21    21
    2.0240419e-06   2    1000022    1000023
    8.0027491e-07   2   -1    1
    3.188001e-07   2    23    25
    1.6285148e-08   2    22    22
    1.1743631e-08   2    22    23
    9.502642e-09   2   -11    11
    5.9509574e-09   2   -4    4
    3.0683971e-14   2   -2    2
    2.5150113e-41   2    25    25

DECAY 37  97.280436
    0.85985658   2   -5    6
    0.12701312   2   -15    16
    0.01111669   2    1000024    1000025
    0.001276077   2   -5    4
    0.00044903689   2   -13    14
    0.00026301796   2   -3    4
    1.2289831e-05   2   -3    2
    9.1125082e-06   2   -5    2
    1.8769788e-06   2    1000023    1000024
    9.5746752e-07   2   -3    6
    7.2965673e-07   2   -1    2
    2.9149266e-07   2    24    25
    1.4998001e-07   2    1000022    1000024
    3.4234628e-08   2   -1    4
    2.6155275e-08   2   -1    6
    1.050302e-08   2   -11    12

DECAY 6  2.43
    1   2    5    24

DECAY 15 -1
