BLOCK SPINFO
   1   SPheno
   2   v4.0.5be

BLOCK SPHENOINFO
   1   2
   2   2

BLOCK MODSEL
   1   0

BLOCK MINPAR
   3    48.996264
   4   -1

BLOCK EXTPAR
   0    1549.7699
   1   -1074.6552
   2   -1325.5638
   3    3000
   11    3341.838
   12    26.393762
   13   -1755.0396
   23   -217.33833
   25    48.800239
   26    4016.1595
   31    256.45765
   32    256.45765
   33    955.18854
   34    420.75663
   35    420.75663
   36    1578.6726
   41    5000
   42    5000
   43    1299.6054
   44    5000
   45    5000
   46    1919.2115
   47    5000
   48    5000
   49    1359.5265

BLOCK SMINPUTS
   1    127.90897
   2    1.1663787e-05
   3    0.1184
   4    91.1876
   5    4.18
   6    173.2
   7    1.777
   8    0
   11    0.00051099893
   12    0
   13    0.10565837
   14    0
   21    0.005
   22    0.0025
   23    0.095
   24    1.27

BLOCK GAUGE Q=  1549.7699
   1    0.35536298
   2    0.66519887
   3    1.219778

BLOCK YU Q=  1549.7699
   1   1    8.3861323e-06
   2   2    0.0042601552
   3   3    1.0131121

BLOCK YD Q=  1549.7699
   1   1    0.00082236365
   2   2    0.015624909
   3   3    0.81552705

BLOCK YE Q=  1549.7699
   1   1    0.00014350847
   2   2    0.029673
   3   3    0.49905105

BLOCK AU Q=  1549.7699
   1   1    0
   2   2    0
   3   3    3341.838

BLOCK AD Q=  1549.7699
   1   1    0
   2   2    0
   3   3    26.393763

BLOCK AE Q=  1549.7699
   1   1    0
   2   2    0
   3   3   -1755.0396

BLOCK MSOFT Q=  1549.7699
   1   -1074.6552
   2   -1325.5638
   3    3000
   21    16118326
   22    10583.947
   31    256.45765
   32    256.45765
   33    955.18854
   34    420.75663
   35    420.75663
   36    1578.6726
   41    5000
   42    5000
   43    1299.6054
   44    5000
   45    5000
   46    1919.2115
   47    5000
   48    5000
   49    1359.5265

BLOCK MASS
   6    173.2
   23    91.1876
   24    80.429995
   15    1.777
   25    124.37356
   35    4010.8481
   36    4016.1595
   37    4012.2656
   1000001    5029.2798
   2000001    5019.9628
   1000002    5028.8401
   2000002    5022.785
   1000003    5029.2873
   2000003    5019.9758
   1000004    5028.8473
   2000004    5022.7857
   1000005    1307.2127
   2000005    1400.9003
   1000006    1261.4761
   2000006    1903.9495
   1000011    310.61286
   2000011    417.13535
   1000012    299.90931
   1000013    310.70254
   2000013    417.32471
   1000014    300.02818
   1000015    985.61643
   2000015    1588.2858
   1000016    982.09195
   1000021    3192.3654
   1000022   -212.54981
   1000023    219.81301
   1000025   -1070.6301
   1000035   -1367.5164
   1000024    215.85409
   1000037    1367.6696

BLOCK ALPHA
      -0.020440009

BLOCK HMIX Q=  1549.7699
   1   -217.33833
   2    48.800239
   3    243.95968
   4    16129537

BLOCK STOPMIX
   1   1   -0.96728991
   1   2    0.25367347
   2   1   -0.25367347
   2   2   -0.96728991

BLOCK SBOTMIX
   1   1   -0.9921297
   1   2    0.12521447
   2   1   -0.12521447
   2   2   -0.9921297

BLOCK STAUMIX
   1   1   -0.99994883
   1   2    0.01011645
   2   1   -0.01011645
   2   2   -0.99994883

BLOCK NMIX
   1   1   -0.037027924
   1   2    0.05044266
   1   3    0.71254841
   1   4   -0.69882704
   2   1    0.023923591
   2   2   -0.035676263
   2   3    0.70147143
   2   4    0.71140193
   3   1    0.99898435
   3   2    0.012034792
   3   3    0.0095091165
   3   4   -0.042367484
   4   1   -0.009319759
   4   2    0.99801699
   4   3   -0.011053317
   4   4    0.061262225

BLOCK UMIX
   1   1   -0.015580578
   1   2   -0.99987861
   2   1   -0.99987861
   2   2    0.015580578

BLOCK VMIX
   1   1    0.086401696
   1   2    0.99626038
   2   1    0.99626038
   2   2   -0.086401696

BLOCK HIGGSBOUNDSINPUTHIGGSCOUPLINGSFERMIONS
       0, 2381.4633,3,36,15,15

BLOCK HIGGSBOUNDSINPUTHIGGSCOUPLINGSBOSONS
       0,4,36,21,21,23

BLOCK SPHENOLOWENERGY
   1    0.00028028409
   2    1.5982723e-06
   3    3.5245371e-05
   4    3.5523938e-15
   5    1.5175034e-10
   6    3.1531248e-08
   7    1.2195226e-13
   8    5.2096589e-09
   9    1.0965525e-06
   10    9.612507e-05
   11    0.99293517
   12    0.54247233
   13    19.384774
   14    0
   15    0
   16    0.0021591723
   17    2.281678e-15
   18    2.4786141e-11
   19    8.287434e-11
   20    2.1713014e-14
   21    9.2945521e-10
   22    1.4481954e-07
   23    0
   24    0
   25    0
   26    0
   27    0
   28    0
   29    0
   30    0
   31    0
   39    0.00011160116
   40    0
   41    0
   42    0

BLOCK FWCOEF Q=  160
   305   4422   0   0   -0.18881911
   305   4422   0   2   -0.13746137
   305   4322   0   2    0.00022968127
   305   6421   0   0   -0.095227835
   305   6421   0   2   -0.075687453
   305   6321   0   2    2.1393188e-05
   3051111   4133   0   0    1.5937676
   3051111   4133   0   2    1.5953687
   3051111   4233   0   2    0.00041060141
   3051111   4137   0   0   -4.4164597
   3051111   4137   0   2   -4.4141754
   3051111   4237   0   2   -0.0031845419
   3051313   4133   0   0    1.5937676
   3051313   4133   0   2    1.5953599
   3051313   4233   0   2    0.00041059706
   3051313   4137   0   0   -4.4164597
   3051313   4137   0   2   -4.4141842
   3051313   4237   0   2   -0.0031845542
   3051212   4137   0   0    1.5053501
   3051212   4137   0   2    1.5048612
   3051212   4237   0   2    0.00069375655
   3051414   4137   0   0    1.5053501
   3051414   4137   0   2    1.5048612
   3051414   4237   0   2    0.0006937566
   3051616   4137   0   0    1.5053501
   3051616   4137   0   2    1.5048629
   3051616   4237   0   2    0.00069376967

BLOCK IMFWCOEF Q=  160
   305   4422   0   0    3.8585575e-07
   305   4422   0   2    2.3634503e-05
   305   4322   0   2    5.4856194e-06
   305   6421   0   0    3.3051097e-07
   305   6421   0   2    2.3284989e-05
   305   6321   0   2    2.1948994e-06
   3051111   4133   0   2    1.8896889e-07
   3051111   4233   0   2    7.9788199e-06
   3051111   4137   0   2   -1.9428047e-06
   3051111   4237   0   2   -6.1891535e-05
   3051313   4133   0   2    1.8886962e-07
   3051313   4233   0   2    7.9787488e-06
   3051313   4137   0   2   -1.94292e-06
   3051313   4237   0   2   -6.1891763e-05
   3051212   4137   0   2    5.5170053e-07
   3051212   4237   0   2    1.3483143e-05
   3051414   4137   0   2    5.5165729e-07
   3051414   4237   0   2    1.3483143e-05
   3051616   4137   0   2    5.8050562e-07
   3051616   4237   0   2    1.3483124e-05

DECAY 23  2.4952


DECAY 24  2.085


DECAY 1000011  0.00071977411
    0.50494462   2    1000022    11
    0.24815173   2    1000023    11
    0.2465624   2   -1000024    12
    0.00017649369   3    1000012    1   -2
    0.00016475142   3    1000012    3   -4

DECAY 2000011  0.0022012332
    0.71560947   2    1000022    11
    0.28434891   2    1000023    11

DECAY 1000013  0.0021712324
    0.52825138   2    1000022    13
    0.38978863   2    1000023    13
    0.081848409   2   -1000024    14

DECAY 2000013  0.010038743
    0.39059095   2   -1000024    14
    0.35999275   2    1000022    13
    0.2494163   2    1000023    13

DECAY 1000015  4.4355167
    0.51004606   2    1000022    15
    0.48900224   2    1000023    15
    0.0009517016   2   -1000024    16

DECAY 2000015  17.665346
    0.42884612   2   -1000024    16
    0.2183444   2    1000022    15
    0.21140649   2    1000023    15
    0.13422631   2    1000025    15
    0.0036185321   2    1000016   -24
    0.0017699013   2    1000015    23
    0.0017479391   2    1000015    25

DECAY 1000012  0.006855247
    0.66790992   2    1000024    11
    0.23524307   2    1000022    12
    0.096847007   2    1000023    12

DECAY 1000014  0.008087258
    0.71791869   2    1000024    13
    0.19980431   2    1000022    14
    0.082276996   2    1000023    14

DECAY 1000016  4.4922563
    0.99365015   2    1000024    15
    0.0043111219   2    1000022    16
    0.002038725   2    1000023    16

DECAY 2000001  143.11107
    0.98215348   2    1000021    1
    0.017806199   2    1000025    1

DECAY 1000001  199.12902
    0.71072858   2    1000021    1
    0.19061884   2   -1000037    2
    0.095274317   2    1000035    1
    0.0027871768   2    1000025    1
    0.00036052244   2    1000022    1
    0.00017679142   2    1000023    1

DECAY 2000003  143.16088
    0.98182123   2    1000021    3
    0.017800071   2    1000025    3
    0.00016964047   2   -1000024    4
    0.00011290656   2    1000022    3

DECAY 1000003  199.15598
    0.71063625   2    1000021    3
    0.19059346   2   -1000037    4
    0.095261614   2    1000035    3
    0.0027868142   2    1000025    3
    0.0004223552   2    1000022    3
    0.00023672293   2    1000023    3

DECAY 1000005  40.266417
    0.59158495   2   -1000024    6
    0.21013832   2    1000022    5
    0.1978533   2    1000023    5
    0.00042343726   2    1000025    5

DECAY 2000005  35.249621
    0.49350489   2   -1000024    6
    0.25121327   2    1000022    5
    0.24854905   2    1000023    5
    0.0038470825   2    1000025    5
    0.0028671039   2    1000006   -24

DECAY 2000002  151.07314
    0.93233454   2    1000021    2
    0.067516168   2    1000025    2
    0.00010143348   2    1000022    2

DECAY 1000002  199.12524
    0.71051223   2    1000021    2
    0.18922352   2    1000037    1
    0.094633573   2    1000035    2
    0.0036545246   2    1000025    2
    0.0016538888   2    1000024    1
    0.00021296605   2    1000022    2
    0.00010929198   2    1000023    2

DECAY 2000004  151.07676
    0.93231227   2    1000021    4
    0.067514558   2    1000025    4
    0.00010727349   2    1000022    4

DECAY 1000004  199.15211
    0.71041984   2    1000021    4
    0.18919838   2    1000037    3
    0.09462098   2    1000035    4
    0.0036540539   2    1000025    4
    0.0017754896   2    1000024    3
    0.00021737564   2    1000022    4
    0.00011387502   2    1000023    4

DECAY 1000006  41.511495
    0.40939245   2    1000024    5
    0.29560371   2    1000023    6
    0.28856719   2    1000022    6
    0.0058979811   3    1000022    24    5
    0.00011012956   2    1000022    4
    0.00010560439   3   -1000011    12    5
    0.00010557721   3   -1000013    14    5

DECAY 2000006  166.70628
    0.25616447   2    1000005    24
    0.21430428   2    1000024    5
    0.14983089   2    1000006    25
    0.14505946   2    1000006    23
    0.11008122   2    1000023    6
    0.10569667   2    1000022    6
    0.011316657   2    1000025    6
    0.0034020784   2    1000037    5
    0.0026347472   2    2000005    24
    0.0015095253   2    1000035    6

DECAY 1000024  1.2214651e-09
    0.44760562   3    1000022   -1    2
    0.21907169   3    1000022   -3    4
    0.14934429   3    1000022   -11    12
    0.14860619   3    1000022   -13    14
    0.035372211   3    1000022   -15    16

DECAY 1000037  37.335852
    0.14501053   2    1000012   -11
    0.14499896   2    1000014   -13
    0.14499559   2   -1000011    12
    0.14498648   2   -1000013    14
    0.083780586   2    1000023    24
    0.082555804   2    1000024    23
    0.081138877   2    1000022    24
    0.07951693   2    1000024    25
    0.037545026   2    1000016   -15
    0.037228706   2   -1000015    16
    0.009308339   2    1000006   -5
    0.0033116857   3    1000024    6   -6
    0.0024717945   3    1000023   -5    6
    0.0024454831   3    1000022   -5    6
    0.00068619252   2    1000025    24

DECAY 1000022 -1


DECAY 1000023  1.0288914e-07
    0.46792774   2    1000022    22
    0.13225392   3    1000022    12   -12
    0.098828369   3    1000022    1   -1
    0.098631779   3    1000022    3   -3
    0.077077337   3    1000022    2   -2
    0.050967253   3    1000022    4   -4
    0.022296303   3    1000022    11   -11
    0.022241457   3    1000022    13   -13
    0.0089266793   3    1000022    15   -15
    0.0043418103   3    1000024    1   -2
    0.0043418103   3   -1000024   -1    2
    0.0026458794   3    1000024    3   -4
    0.0026458794   3   -1000024   -3    4
    0.0014481502   3    1000024    11   -12
    0.0014481502   3   -1000024   -11    12
    0.0014431208   3    1000024    13   -14
    0.0014431208   3   -1000024   -13    14
    0.0005456206   3    1000024    15   -16
    0.0005456206   3   -1000024   -15    16

DECAY 1000025  15.38941
    0.12548872   2    2000011   -11
    0.12548872   2   -2000011    11
    0.12544801   2    2000013   -13
    0.12544801   2   -2000013    13
    0.048134045   2    1000024   -24
    0.048134045   2   -1000024    24
    0.038242675   2    1000011   -11
    0.038242675   2   -1000011    11
    0.038238644   2    1000013   -13
    0.038238644   2   -1000013    13
    0.035379955   2    1000012   -12
    0.035379955   2   -1000012    12
    0.035375178   2    1000014   -14
    0.035375178   2   -1000014    14
    0.032611017   2    1000023    23
    0.028072666   2    1000022    25
    0.027157093   2    1000023    25
    0.012649126   2    1000022    23
    0.0010605844   2    1000015   -15
    0.0010605844   2   -1000015    15
    0.0010473727   2    1000016   -16
    0.0010473727   2   -1000016    16
    0.00096665948   3    1000024    5   -6
    0.00096665948   3   -1000024   -5    6
    0.00035248647   3    1000023    6   -6
    0.0003481469   3    1000022    6   -6

DECAY 1000035  38.051008
    0.081288566   2    1000024   -24
    0.081288566   2   -1000024    24
    0.072098042   2    1000012   -12
    0.072098042   2   -1000012    12
    0.072092266   2    1000014   -14
    0.072092266   2   -1000014    14
    0.07015567   2    1000011   -11
    0.07015567   2   -1000011    11
    0.070151313   2    1000013   -13
    0.070151313   2   -1000013    13
    0.055952799   2    1000023    23
    0.05131457   2    1000022    25
    0.049535116   2    1000023    25
    0.026043266   2    1000022    23
    0.018658513   2    1000016   -16
    0.018658513   2   -1000016    16
    0.01800928   2    1000015   -15
    0.01800928   2   -1000015    15
    0.0027443447   3    1000024    5   -6
    0.0027443447   3   -1000024   -5    6
    0.0017291718   2    1000005   -5
    0.0017291718   2   -1000005    5
    0.0013881189   3    1000023    6   -6
    0.0013527383   3    1000022    6   -6
    0.00049179472   2    1000025    25

DECAY 1000021  265.0616
    0.13473397   2    1000006   -6
    0.13473397   2   -1000006    6
    0.1235813   2    1000005   -5
    0.1235813   2   -1000005    5
    0.11611449   2    2000005   -5
    0.11611449   2   -2000005    5
    0.06755908   2    2000006   -6
    0.06755908   2   -2000006    6
    0.057577106   2    1000006   -4
    0.057577106   2   -1000006    4
    0.00023556862   3    1000035    5   -5
    0.00019440566   3    1000037    5   -6
    0.00019440566   3   -1000037   -5    6
    0.00014347625   3    1000035    6   -6

DECAY 25  0.0037964837
    0.58295248   2   -5    5
    0.21849024   2   -24    24
    0.072357357   2    21    21
    0.067017167   2   -15    15
    0.028833384   2   -4    4
    0.026121085   2    23    23
    0.0023321483   2    22    22
    0.0014443197   2    22    23
    0.00023216986   2   -13    13
    0.00021888388   2   -3    3
    6.0519119e-07   2   -1    1
    1.4858724e-07   2   -2    2
    5.21946e-09   2   -11    11

DECAY 35  214.52501
    0.68749216   2   -5    5
    0.097640164   2   -15    15
    0.059783302   2   -1000024    1000037
    0.059783302   2   -1000037    1000024
    0.032393007   2    1000023    1000035
    0.028266626   2    1000022    1000035
    0.0094516949   2    1000023    1000025
    0.0083824111   2    1000022    1000025
    0.0066079724   2   -2000015    1000015
    0.0066079724   2   -1000015    2000015
    0.0011560019   2   -1000024    1000024
    0.00039340423   2   -6    6
    0.00036574849   2    1000022    1000022
    0.00036504376   2   -13    13
    0.00034556404   2   -2000006    1000006
    0.00034556404   2   -1000006    2000006
    0.00018963365   2   -3    3
    0.00018231194   2    1000023    1000023
    0.0001455074   2   -1000006    1000006
    4.0340381e-05   2   -2000006    2000006
    2.1188211e-05   2    1000022    1000023
    1.3017222e-05   2   -1000037    1000037
    7.1516022e-06   2    1000025    1000035
    6.6673664e-06   2    1000035    1000035
    4.8968452e-06   2    21    21
    3.2845936e-06   2   -1000015    1000015
    1.9169336e-06   2   -2000015    2000015
    1.6807321e-06   2    1000025    1000025
    5.2425147e-07   2   -1    1
    5.0196997e-07   2   -2000005    2000005
    4.9246169e-07   2   -2000005    1000005
    4.9246169e-07   2   -1000005    2000005
    1.6831224e-07   2    25    25
    5.0985051e-08   2    23    23
    3.909021e-08   2   -1000005    1000005
    1.2922032e-08   2   -1000011    1000011
    1.2708059e-08   2   -1000013    1000013
    1.0735096e-08   2   -24    24
    8.2429984e-09   2   -2000011    2000011
    8.1979798e-09   2   -11    11
    8.175255e-09   2   -2000013    2000013
    4.702402e-09   2   -4    4
    3.7593263e-09   2    22    23
    9.9691237e-10   2    22    22
    1.9789107e-10   2   -2000013    1000013
    1.9789107e-10   2   -1000013    2000013
    2.4237676e-14   2   -2    2
    4.6306013e-15   2   -2000011    1000011
    4.6306013e-15   2   -1000011    2000011

DECAY 36  195.53886
    0.66895792   2   -5    5
    0.095001204   2   -15    15
    0.065688634   2   -1000024    1000037
    0.065688634   2   -1000037    1000024
    0.036438497   2    1000022    1000035
    0.030212313   2    1000023    1000035
    0.010611297   2    1000022    1000025
    0.0089780291   2    1000023    1000025
    0.0072494185   2   -2000015    1000015
    0.0072494185   2   -1000015    2000015
    0.0013041866   2   -1000024    1000024
    0.00048663901   2   -2000006    1000006
    0.00048663901   2   -1000006    2000006
    0.0004403446   2    1000022    1000022
    0.00037272288   2   -6    6
    0.00035519345   2   -13    13
    0.0001866179   2    1000023    1000023
    0.00018447846   2   -3    3
    4.0103484e-05   2   -1000037    1000037
    2.0502709e-05   2    1000035    1000035
    1.827669e-05   2    1000025    1000035
    1.4497242e-05   2    1000022    1000023
    8.7660933e-06   2    21    21
    3.7572624e-06   2    1000025    1000025
    6.0425991e-07   2   -2000005    1000005
    6.0425991e-07   2   -1000005    2000005
    5.1000175e-07   2   -1    1
    1.1874965e-07   2    23    25
    3.1429651e-08   2    22    23
    2.4684423e-08   2    22    22
    7.9766809e-09   2   -11    11
    4.4054056e-09   2   -4    4
    2.0935542e-10   2   -2000013    1000013
    2.0935542e-10   2   -1000013    2000013
    2.3759796e-11   2    23    35
    2.2707249e-14   2   -2    2
    4.896845e-15   2   -2000011    1000011
    4.896845e-15   2   -1000011    2000011
    4.6572328e-40   2    25    25

DECAY 37  211.59214
    0.69057611   2   -5    6
    0.091035634   2   -15    16
    0.06205075   2    1000022    1000037
    0.060195132   2    1000024    1000035
    0.060144973   2    1000023    1000037
    0.019958635   2    1000024    1000025
    0.013411549   2   -2000015    1000016
    0.0010241413   2   -5    4
    0.00060953386   2   -1000005    2000006
    0.00032184337   2   -13    14
    0.00026290558   2   -2000005    2000006
    0.00017503097   2   -3    4
    0.00012169792   2    1000023    1000024
    4.0841944e-05   2   -1000005    1000006
    2.4912971e-05   2    1000025    1000037
    2.0287791e-05   2    1000022    1000024
    8.2244426e-06   2   -3    2
    7.7089202e-06   2   -2000005    1000006
    7.3134245e-06   2   -5    2
    1.3299899e-06   2   -1000015    1000016
    6.9217448e-07   2   -3    6
    4.8554097e-07   2   -1    2
    1.0945833e-07   2    24    25
    5.1437114e-08   2   -1000011    1000012
    5.1127952e-08   2   -1000013    1000014
    2.2928763e-08   2   -1    4
    1.9786683e-08   2   -1    6
    7.5279499e-09   2   -11    12
    1.6800845e-09   2    1000035    1000037
    4.8280156e-10   2   -2000013    1000014
    3.681671e-14   2    24    35
    1.1299087e-14   2   -2000011    1000012

DECAY 6  2.43
    1   2    5    24

DECAY 15 -1
