# SUSY Les Houches Accord 2 - MSSM spectrum + Decays
# SPheno v4.0.5be
# W. Porod, Comput. Phys. Commun. 153 (2003) 275-315, hep-ph/0301101;
# W. Porod, F.~Staub, Comput. Phys. Commun. 183 (2012) 2458
#                     arXiv:1104.1573 [hep-ph] 
# in case of problems send email to porod@physik.uni-wuerzburg.de
# Created: 07.09.2021,  20:12
Block SPINFO         # Program information
     1   SPheno      # spectrum calculator
     2   v4.0.5be    # version number
#
Block SPhenoINFO     # SPheno specific information
    1      2         # using 2-loop RGEs
    2      2         # using pole masses for boundary conditions at mZ
Block MODSEL  # Model selection
    1    0    # general MSSM
Block MINPAR  # Input parameters
    3    3.55567995E+00  # tanb at m_Z    
    4    1.00000000E+00  # Sign(mu)
Block EXTPAR  # non-universal input parameters
    0    3.91711558E+03  # scale for input parameters
    1    1.86308183E+02  # M_1
    2    2.59090804E+02  # M_2
    3    1.92180903E+03  # M_3
   11    2.93892205E+03  # A_t
   12   -1.28120472E+03  # A_b
   13   -6.65224901E+02  # A_tau
   23    2.23633161E+02  # mu
   25    3.36024386E+00  # tan(beta)
   26    2.00622722E+03  # m_A, pole mass
   31    1.00000000E+04  # M_L11
   32    1.00000000E+04  # M_L22
   33    1.00000000E+04  # M_L33
   34    1.00000000E+04  # M_E11
   35    1.00000000E+04  # M_E22
   36    1.00000000E+04  # M_E33
   41    1.00000000E+04  # M_Q11
   42    1.00000000E+04  # M_Q22
   43    4.29405727E+03  # M_Q33
   44    1.00000000E+04  # M_U11
   45    1.00000000E+04  # M_U22
   46    3.55700234E+03  # M_U33
   47    1.00000000E+04  # M_D11
   48    1.00000000E+04  # M_D22
   49    4.29105695E+03  # M_D33
Block SMINPUTS  # SM parameters
         1     1.27908970E+02  # alpha_em^-1(MZ)^MSbar
         2     1.16637870E-05  # G_mu [GeV^-2]
         3     1.18400000E-01  # alpha_s(MZ)^MSbar
         4     9.11876000E+01  # m_Z(pole)
         5     4.18000000E+00  # m_b(m_b), MSbar
         6     1.73200000E+02  # m_t(pole)
         7     1.77700000E+00  # m_tau(pole)
         8     0.00000000E+00  # m_nu_3
        11     5.10998930E-04  # m_e(pole)
        12     0.00000000E+00  # m_nu_1
        13     1.05658372E-01  # m_muon(pole)
        14     0.00000000E+00  # m_nu_2
        21     5.00000000E-03  # m_d(2 GeV), MSbar
        22     2.50000000E-03  # m_u(2 GeV), MSbar
        23     9.50000000E-02  # m_s(2 GeV), MSbar
        24     1.27000000E+00  # m_c(m_c), MSbar
Block gauge Q=  3.91711558E+03  # (SUSY scale)
   1    3.55362975E-01  # g'(Q)^DRbar
   2    6.65198874E-01  # g(Q)^DRbar
   3    1.21977796E+00  # g3(Q)^DRbar
Block Yu Q=  3.91711558E+03  # (SUSY scale)
  1  1     8.74777447E-06   # Y_u(Q)^DRbar
  2  2     4.44386943E-03   # Y_c(Q)^DRbar
  3  3     1.05680142E+00   # Y_t(Q)^DRbar
Block Yd Q=  3.91711558E+03  # (SUSY scale)
  1  1     5.90675043E-05   # Y_d(Q)^DRbar
  2  2     1.12228258E-03   # Y_s(Q)^DRbar
  3  3     5.85764552E-02   # Y_b(Q)^DRbar
Block Ye Q=  3.91711558E+03  # (SUSY scale)
  1  1     1.03077114E-05   # Y_e(Q)^DRbar
  2  2     2.13130781E-03   # Y_mu(Q)^DRbar
  3  3     3.58450911E-02   # Y_tau(Q)^DRbar
Block Au Q=  3.91711558E+03  # (SUSY scale)
  1  1     0.00000000E+00   # A_u(Q)^DRbar
  2  2     0.00000000E+00   # A_c(Q)^DRbar
  3  3     2.93892190E+03   # A_t(Q)^DRbar
Block Ad Q=  3.91711558E+03  # (SUSY scale)
  1  1     0.00000000E+00   # A_d(Q)^DRbar
  2  2     0.00000000E+00   # A_s(Q)^DRbar
  3  3    -1.28120468E+03   # A_b(Q)^DRbar
Block Ae Q=  3.91711558E+03  # (SUSY scale)
  1  1     0.00000000E+00   # A_e(Q)^DRbar
  2  2     0.00000000E+00   # A_mu(Q)^DRbar
  3  3    -6.65224893E+02   # A_tau(Q)^DRbar
Block MSOFT Q=  3.91711558E+03  # soft SUSY breaking masses at Q
   1    1.86308183E+02  # M_1
   2    2.59090804E+02  # M_2
   3    1.92180903E+03  # M_3
  21    3.65871610E+06  # M^2_(H,d)
  22    6.64356214E+05  # M^2_(H,u)
  31    1.00000000E+04  # M_(L,11)
  32    1.00000000E+04  # M_(L,22)
  33    1.00000000E+04  # M_(L,33)
  34    1.00000000E+04  # M_(E,11)
  35    1.00000000E+04  # M_(E,22)
  36    1.00000000E+04  # M_(E,33)
  41    1.00000000E+04  # M_(Q,11)
  42    1.00000000E+04  # M_(Q,22)
  43    4.29405727E+03  # M_(Q,33)
  44    1.00000000E+04  # M_(U,11)
  45    1.00000000E+04  # M_(U,22)
  46    3.55700234E+03  # M_(U,33)
  47    1.00000000E+04  # M_(D,11)
  48    1.00000000E+04  # M_(D,22)
  49    4.29105695E+03  # M_(D,33)
Block MASS  # Mass spectrum
#   PDG code      mass          particle
         6     1.73200000E+02  # m_t(pole)
        23     9.11876000E+01  # m_Z(pole)
        24     8.04299946E+01  # W+
        15     1.77700000E+00  # m_tau(pole)
        25     1.16629883E+02  # h0
        35     2.00642948E+03  # H0
        36     2.00622722E+03  # A0
        37     2.01122710E+03  # H+
   1000001     1.01185279E+04  # ~d_L
   2000001     1.00931669E+04  # ~d_R
   1000002     1.01182120E+04  # ~u_L
   2000002     1.00963531E+04  # ~u_R
   1000003     1.01185282E+04  # ~s_L
   2000003     1.00931670E+04  # ~s_R
   1000004     1.01182124E+04  # ~c_L
   2000004     1.00963538E+04  # ~c_R
   1000005     4.32307792E+03  # ~b_1
   2000005     4.35082244E+03  # ~b_2
   1000006     3.54544730E+03  # ~t_1
   2000006     4.32774574E+03  # ~t_2
   1000011     1.00215304E+04  # ~e_L-
   2000011     1.00089602E+04  # ~e_R-
   1000012     1.00208070E+04  # ~nu_eL
   1000013     1.00215305E+04  # ~mu_L-
   2000013     1.00089604E+04  # ~mu_R-
   1000014     1.00208071E+04  # ~nu_muL
   1000015     1.00090130E+04  # ~tau_1-
   2000015     1.00215595E+04  # ~tau_2-
   1000016     1.00208347E+04  # ~nu_tauL
   1000021     2.34043785E+03  # ~g
   1000022     1.57298243E+02  # ~chi_10
   1000023     2.17831736E+02  # ~chi_20
   1000025     2.45795074E+02  # ~chi_30
   1000035     3.42777248E+02  # ~chi_40
   1000024     1.93027830E+02  # ~chi_1+
   1000037     3.40119630E+02  # ~chi_2+
# Higgs mixing
Block alpha # Effective Higgs mixing angle
          -2.75558474E-01   # alpha
Block Hmix Q=  3.91711558E+03  # Higgs mixing parameters
   1    2.23633161E+02  # mu
   2    3.36024386E+00  # tan[beta](Q)
   3    2.42979403E+02  # v(Q)
   4    4.02494766E+06  # m^2_A(Q)
Block stopmix # stop mixing matrix
   1  1    -6.07817096E-02   # Re[R_st(1,1)]
   1  2     9.98151083E-01   # Re[R_st(1,2)]
   2  1    -9.98151083E-01   # Re[R_st(2,1)]
   2  2    -6.07817096E-02   # Re[R_st(2,2)]
Block sbotmix # sbottom mixing matrix
   1  1     9.99830992E-01   # Re[R_sb(1,1)]
   1  2     1.83844353E-02   # Re[R_sb(1,2)]
   2  1    -1.83844353E-02   # Re[R_sb(2,1)]
   2  2     9.99830992E-01   # Re[R_sb(2,2)]
Block staumix # stau mixing matrix
   1  1     9.95912467E-03   # Re[R_sta(1,1)]
   1  2     9.99950407E-01   # Re[R_sta(1,2)]
   2  1    -9.99950407E-01   # Re[R_sta(2,1)]
   2  2     9.95912467E-03   # Re[R_sta(2,2)]
Block Nmix # neutralino mixing matrix
   1  1     7.40487663E-01   # Re[N(1,1)]
   1  2    -3.07273799E-01   # Re[N(1,2)]
   1  3     4.68607047E-01   # Re[N(1,3)]
   1  4    -3.71036749E-01   # Re[N(1,4)]
   2  1    -6.50156327E-01   # Re[N(2,1)]
   2  2    -5.49135647E-01   # Re[N(2,2)]
   2  3     3.82024740E-01   # Re[N(2,3)]
   2  4    -3.60283068E-01   # Re[N(2,4)]
   3  1     5.05335282E-02   # Re[N(3,1)]
   3  2    -7.38903330E-02   # Re[N(3,2)]
   3  3    -6.93969873E-01   # Re[N(3,3)]
   3  4    -7.14417523E-01   # Re[N(3,4)]
   4  1    -1.62545788E-01   # Re[N(4,1)]
   4  2     7.73675043E-01   # Re[N(4,2)]
   4  3     3.90986380E-01   # Re[N(4,3)]
   4  4    -4.71312470E-01   # Re[N(4,4)]
Block Umix # chargino mixing matrix
   1  1    -5.38543698E-01   # Re[U(1,1)]
   1  2     8.42597582E-01   # Re[U(1,2)]
   2  1     8.42597582E-01   # Re[U(2,1)]
   2  2     5.38543698E-01   # Re[U(2,2)]
Block Vmix # chargino mixing matrix
   1  1    -6.54268290E-01   # Re[V(1,1)]
   1  2     7.56262524E-01   # Re[V(1,2)]
   2  1     7.56262524E-01   # Re[V(2,1)]
   2  2     6.54268290E-01   # Re[V(2,2)]
DECAY        23     2.49520000E+00   # Z
DECAY        24     2.08500000E+00   # W
DECAY   2000011     5.02543455E+01   # ~e^-_R
#    BR                NDA      ID1      ID2
     5.48454919E-01    2     1000022        11   # BR(~e^-_R -> chi^0_1 e^-)
     4.22614031E-01    2     1000023        11   # BR(~e^-_R -> chi^0_2 e^-)
     2.55243760E-03    2     1000025        11   # BR(~e^-_R -> chi^0_3 e^-)
     2.63786124E-02    2     1000035        11   # BR(~e^-_R -> chi^0_4 e^-)
DECAY   1000011     1.44673055E+02   # ~e^-_L
#    BR                NDA      ID1      ID2
     2.37659585E-03    2     1000022        11   # BR(~e^-_L -> chi^0_1 e^-)
     2.44795490E-01    2     1000023        11   # BR(~e^-_L -> chi^0_2 e^-)
     6.69678965E-04    2     1000025        11   # BR(~e^-_L -> chi^0_3 e^-)
     1.43497256E-01    2     1000035        11   # BR(~e^-_L -> chi^0_4 e^-)
     1.76725469E-01    2    -1000024        12   # BR(~e^-_L -> chi^-_1 nu_e)
     4.31935510E-01    2    -1000037        12   # BR(~e^-_L -> chi^-_2 nu_e)
#    BR                NDA      ID1      ID2       ID3
DECAY   2000013     5.02561534E+01   # ~mu^-_R
#    BR                NDA      ID1      ID2
     5.48439150E-01    2     1000022        13   # BR(~mu^-_R -> chi^0_1 mu^-)
     4.22601462E-01    2     1000023        13   # BR(~mu^-_R -> chi^0_2 mu^-)
     2.56100303E-03    2     1000025        13   # BR(~mu^-_R -> chi^0_3 mu^-)
     2.63804092E-02    2     1000035        13   # BR(~mu^-_R -> chi^0_4 mu^-)
DECAY   1000013     1.44673961E+02   # ~mu^-_L
#    BR                NDA      ID1      ID2
     2.37795494E-03    2     1000022        13   # BR(~mu^-_L -> chi^0_1 mu^-)
     2.44794872E-01    2     1000023        13   # BR(~mu^-_L -> chi^0_2 mu^-)
     6.72685851E-04    2     1000025        13   # BR(~mu^-_L -> chi^0_3 mu^-)
     1.43497314E-01    2     1000035        13   # BR(~mu^-_L -> chi^0_4 mu^-)
     1.76724364E-01    2    -1000024        14   # BR(~mu^-_L -> chi^-_1 nu_mu)
     4.31932810E-01    2    -1000037        14   # BR(~mu^-_L -> chi^-_2 nu_mu)
#    BR                NDA      ID1      ID2       ID3
DECAY   1000015     5.07751347E+01   # ~tau^-_1
#    BR                NDA      ID1      ID2
     5.44318417E-01    2     1000022        15   # BR(~tau^-_1 -> chi^0_1 tau^-)
     4.19145638E-01    2     1000023        15   # BR(~tau^-_1 -> chi^0_2 tau^-)
     4.85790604E-03    2     1000025        15   # BR(~tau^-_1 -> chi^0_3 tau^-)
     2.64726248E-02    2     1000035        15   # BR(~tau^-_1 -> chi^0_4 tau^-)
     4.46878632E-03    2    -1000024        16   # BR(~tau^-_1 -> chi^-_1 nu_tau)
     7.36627382E-04    2    -1000037        16   # BR(~tau^-_1 -> chi^-_2 nu_tau)
DECAY   2000015     1.44919899E+02   # ~tau^-_2
#    BR                NDA      ID1      ID2
     2.62709893E-03    2     1000022        15   # BR(~tau^-_2 -> chi^0_1 tau^-)
     2.44591534E-01    2     1000023        15   # BR(~tau^-_2 -> chi^0_2 tau^-)
     1.55114822E-03    2     1000025        15   # BR(~tau^-_2 -> chi^0_3 tau^-)
     1.43664765E-01    2     1000035        15   # BR(~tau^-_2 -> chi^0_4 tau^-)
     1.76111333E-01    2    -1000024        16   # BR(~tau^-_2 -> chi^-_1 nu_tau)
     4.31454121E-01    2    -1000037        16   # BR(~tau^-_2 -> chi^-_2 nu_tau)
#    BR                NDA      ID1      ID2       ID3
DECAY   1000012     1.44674664E+02   # ~nu_e
#    BR                NDA      ID1      ID2
     1.50533798E-01    2     1000022        12   # BR(~nu_e -> chi^0_1 nu_e)
     1.24045969E-02    2     1000023        12   # BR(~nu_e -> chi^0_2 nu_e)
     3.09924406E-03    2     1000025        12   # BR(~nu_e -> chi^0_3 nu_e)
     2.25220886E-01    2     1000035        12   # BR(~nu_e -> chi^0_4 nu_e)
     2.60815120E-01    2     1000024        11   # BR(~nu_e -> chi^+_1 e^-)
     3.47926355E-01    2     1000037        11   # BR(~nu_e -> chi^+_2 e^-)
#    BR                NDA      ID1      ID2       ID3
DECAY   1000014     1.44675570E+02   # ~nu_mu
#    BR                NDA      ID1      ID2
     1.50532857E-01    2     1000022        14   # BR(~nu_mu -> chi^0_1 nu_mu)
     1.24045193E-02    2     1000023        14   # BR(~nu_mu -> chi^0_2 nu_mu)
     3.09922468E-03    2     1000025        14   # BR(~nu_mu -> chi^0_3 nu_mu)
     2.25219478E-01    2     1000035        14   # BR(~nu_mu -> chi^0_4 nu_mu)
     2.60817929E-01    2     1000024        13   # BR(~nu_mu -> chi^+_1 mu^-)
     3.47925992E-01    2     1000037        13   # BR(~nu_mu -> chi^+_2 mu^-)
#    BR                NDA      ID1      ID2       ID3
DECAY   1000016     1.44930914E+02   # ~nu_tau
#    BR                NDA      ID1      ID2
     1.50268058E-01    2     1000022        16   # BR(~nu_tau -> chi^0_1 nu_tau)
     1.23826988E-02    2     1000023        16   # BR(~nu_tau -> chi^0_2 nu_tau)
     3.09377291E-03    2     1000025        16   # BR(~nu_tau -> chi^0_3 nu_tau)
     2.24823301E-01    2     1000035        16   # BR(~nu_tau -> chi^0_4 nu_tau)
     2.61608299E-01    2     1000024        15   # BR(~nu_tau -> chi^+_1 tau^-)
     3.47823871E-01    2     1000037        15   # BR(~nu_tau -> chi^+_2 tau^-)
#    BR                NDA      ID1      ID2       ID3
DECAY   2000001     7.18945945E+02   # ~d_R
#    BR                NDA      ID1      ID2
     4.29554120E-03    2     1000022         1   # BR(~d_R -> chi^0_1 d)
     3.30997059E-03    2     1000023         1   # BR(~d_R -> chi^0_2 d)
     2.06605830E-04    2     1000035         1   # BR(~d_R -> chi^0_4 d)
     9.92167890E-01    2     1000021         1   # BR(~d_R -> ~g d)
DECAY   1000001     8.50297802E+02   # ~d_L
#    BR                NDA      ID1      ID2
     1.00956840E-02    2     1000022         1   # BR(~d_L -> chi^0_1 d)
     9.82753152E-03    2     1000023         1   # BR(~d_L -> chi^0_2 d)
     3.59443980E-04    2     1000025         1   # BR(~d_L -> chi^0_3 d)
     3.36645018E-02    2     1000035         1   # BR(~d_L -> chi^0_4 d)
     3.03602382E-02    2    -1000024         2   # BR(~d_L -> chi^-_1 u)
     7.42058086E-02    2    -1000037         2   # BR(~d_L -> chi^-_2 u)
     8.41486792E-01    2     1000021         1   # BR(~d_L -> ~g d)
DECAY   2000003     7.18946457E+02   # ~s_R
#    BR                NDA      ID1      ID2
     4.29561515E-03    2     1000022         3   # BR(~s_R -> chi^0_1 s)
     3.31001944E-03    2     1000023         3   # BR(~s_R -> chi^0_2 s)
     2.06659198E-04    2     1000035         3   # BR(~s_R -> chi^0_4 s)
     9.92167195E-01    2     1000021         3   # BR(~s_R -> ~g s)
DECAY   1000003     8.50302054E+02   # ~s_L
#    BR                NDA      ID1      ID2
     1.00956990E-02    2     1000022         3   # BR(~s_L -> chi^0_1 s)
     9.82752598E-03    2     1000023         3   # BR(~s_L -> chi^0_2 s)
     3.59585244E-04    2     1000025         3   # BR(~s_L -> chi^0_3 s)
     3.36643799E-02    2     1000035         3   # BR(~s_L -> chi^0_4 s)
     3.03627550E-02    2    -1000024         4   # BR(~s_L -> chi^-_1 c)
     7.42074408E-02    2    -1000037         4   # BR(~s_L -> chi^-_2 c)
     8.41482614E-01    2     1000021         3   # BR(~s_L -> ~g s)
DECAY   1000005     3.30046963E+02   # ~b_1
#    BR                NDA      ID1      ID2
     1.13682006E-02    2     1000022         5   # BR(~b_1 -> chi^0_1 b)
     1.09195718E-02    2     1000023         5   # BR(~b_1 -> chi^0_2 b)
     8.02976250E-04    2     1000025         5   # BR(~b_1 -> chi^0_3 b)
     3.67099334E-02    2     1000035         5   # BR(~b_1 -> chi^0_4 b)
     1.98019638E-01    2    -1000024         6   # BR(~b_1 -> chi^-_1 t)
     2.04259145E-01    2    -1000037         6   # BR(~b_1 -> chi^-_2 t)
     5.16681404E-01    2     1000021         5   # BR(~b_1 -> ~g b)
     2.12391299E-02    2     1000006       -24   # BR(~b_1 -> ~t_1 W^-)
DECAY   2000005     1.76480770E+02   # ~b_2
#    BR                NDA      ID1      ID2
     7.73690905E-03    2     1000022         5   # BR(~b_2 -> chi^0_1 b)
     6.00018716E-03    2     1000023         5   # BR(~b_2 -> chi^0_2 b)
     8.75056544E-04    2     1000025         5   # BR(~b_2 -> chi^0_3 b)
     8.01641283E-04    2     1000035         5   # BR(~b_2 -> chi^0_4 b)
     9.97783888E-04    2    -1000024         6   # BR(~b_2 -> chi^-_1 t)
     9.26869946E-04    2    -1000037         6   # BR(~b_2 -> chi^-_2 t)
     9.82646745E-01    2     1000021         5   # BR(~b_2 -> ~g b)
DECAY   2000002     7.36122006E+02   # ~u_R
#    BR                NDA      ID1      ID2
     1.67865522E-02    2     1000022         2   # BR(~u_R -> chi^0_1 u)
     1.29350430E-02    2     1000023         2   # BR(~u_R -> chi^0_2 u)
     8.07395638E-04    2     1000035         2   # BR(~u_R -> chi^0_4 u)
     9.69392886E-01    2     1000021         2   # BR(~u_R -> ~g u)
DECAY   1000002     8.50287296E+02   # ~u_L
#    BR                NDA      ID1      ID2
     1.61084048E-03    2     1000022         2   # BR(~u_L -> chi^0_1 u)
     2.31348129E-02    2     1000023         2   # BR(~u_L -> chi^0_2 u)
     2.20295767E-04    2     1000025         2   # BR(~u_L -> chi^0_3 u)
     2.89828737E-02    2     1000035         2   # BR(~u_L -> chi^0_4 u)
     4.48091614E-02    2     1000024         1   # BR(~u_L -> chi^+_1 d)
     5.97770380E-02    2     1000037         1   # BR(~u_L -> chi^+_2 d)
     8.41464978E-01    2     1000021         2   # BR(~u_L -> ~g u)
DECAY   2000004     7.36129960E+02   # ~c_R
#    BR                NDA      ID1      ID2
     1.67871118E-02    2     1000022         4   # BR(~c_R -> chi^0_1 c)
     1.29356036E-02    2     1000023         4   # BR(~c_R -> chi^0_2 c)
     8.08581729E-04    2     1000035         4   # BR(~c_R -> chi^0_4 c)
     9.69382453E-01    2     1000021         4   # BR(~c_R -> ~g c)
DECAY   1000004     8.50291527E+02   # ~c_L
#    BR                NDA      ID1      ID2
     1.61147548E-03    2     1000022         4   # BR(~c_L -> chi^0_1 c)
     2.31353026E-02    2     1000023         4   # BR(~c_L -> chi^0_2 c)
     2.22677659E-04    2     1000025         4   # BR(~c_L -> chi^0_3 c)
     2.89837689E-02    2     1000035         4   # BR(~c_L -> chi^0_4 c)
     4.48091509E-02    2     1000024         3   # BR(~c_L -> chi^+_1 s)
     5.97768292E-02    2     1000037         3   # BR(~c_L -> chi^+_2 s)
     8.41460795E-01    2     1000021         4   # BR(~c_L -> ~g c)
DECAY   1000006     2.49721948E+02   # ~t_1
#    BR                NDA      ID1      ID2
     5.56111412E-02    2     1000022         6   # BR(~t_1 -> chi^0_1 t)
     5.28011388E-02    2     1000023         6   # BR(~t_1 -> chi^0_2 t)
     1.57643916E-01    2     1000025         6   # BR(~t_1 -> chi^0_3 t)
     7.63538252E-02    2     1000035         6   # BR(~t_1 -> chi^0_4 t)
     1.67034134E-01    2     1000024         5   # BR(~t_1 -> chi^+_1 b)
     1.44032990E-01    2     1000037         5   # BR(~t_1 -> chi^+_2 b)
     3.46517941E-01    2     1000021         6   # BR(~t_1 -> ~g t)
#    BR                NDA      ID1      ID2       ID3
DECAY   2000006     3.33897738E+02   # ~t_2
#    BR                NDA      ID1      ID2
     4.51787630E-02    2     1000022         6   # BR(~t_2 -> chi^0_1 t)
     6.29048109E-02    2     1000023         6   # BR(~t_2 -> chi^0_2 t)
     1.46778741E-01    2     1000025         6   # BR(~t_2 -> chi^0_3 t)
     8.83006488E-02    2     1000035         6   # BR(~t_2 -> chi^0_4 t)
     6.05361144E-02    2     1000024         5   # BR(~t_2 -> chi^+_1 b)
     5.41695310E-02    2     1000037         5   # BR(~t_2 -> chi^+_2 b)
     5.12670204E-01    2     1000021         6   # BR(~t_2 -> ~g t)
     1.05888208E-02    2     1000006        23   # BR(~t_2 -> ~t_1 Z)
     1.88723659E-02    2     1000006        25   # BR(~t_2 -> ~t_1 h^0)
DECAY   1000024     5.01010046E-05   # chi^+_1
#    BR                NDA      ID1      ID2       ID3
     3.34436441E-01    3     1000022        -1         2   # BR(chi^+_1 -> chi^0_1 d_bar u)
     3.32488861E-01    3     1000022        -3         4   # BR(chi^+_1 -> chi^0_1 s_bar c)
     1.11478529E-01    3     1000022       -11        12   # BR(chi^+_1 -> chi^0_1 e^+ nu_e)
     1.11477867E-01    3     1000022       -13        14   # BR(chi^+_1 -> chi^0_1 mu^+ nu_mu)
     1.10118302E-01    3     1000022       -15        16   # BR(chi^+_1 -> chi^0_1 tau^+ nu_tau)
DECAY   1000037     1.68679011E+00   # chi^+_2
#    BR                NDA      ID1      ID2
     5.95861628E-02    2     1000022        24   # BR(chi^+_2 -> chi^0_1 W^+)
     2.40089689E-01    2     1000023        24   # BR(chi^+_2 -> chi^0_2 W^+)
     3.89987531E-01    2     1000025        24   # BR(chi^+_2 -> chi^0_3 W^+)
     2.81567986E-01    2     1000024        23   # BR(chi^+_2 -> chi^+_1 Z)
     2.87685766E-02    2     1000024        25   # BR(chi^+_2 -> chi^+_1 h^0)
#    BR                NDA      ID1      ID2       ID3
DECAY   1000022     0.00000000E+00   # chi^0_1
DECAY   1000023     3.34434737E-05   # chi^0_2
#    BR                NDA      ID1      ID2
     2.22362516E-03    2     1000022        22   # BR(chi^0_2 -> chi^0_1 photon)
#    BR                NDA      ID1      ID2       ID3
     2.20656967E-02    3     1000022         2        -2   # BR(chi^0_2 -> chi^0_1 u u_bar)
     2.19976829E-02    3     1000022         4        -4   # BR(chi^0_2 -> chi^0_1 c c_bar)
     2.83058245E-02    3     1000022         1        -1   # BR(chi^0_2 -> chi^0_1 d d_bar)
     2.83054167E-02    3     1000022         3        -3   # BR(chi^0_2 -> chi^0_1 s s_bar)
     2.77214474E-02    3     1000022         5        -5   # BR(chi^0_2 -> chi^0_1 b b_bar)
     6.37724330E-03    3     1000022        11       -11   # BR(chi^0_2 -> chi^0_1 e^- e^+)
     6.37720264E-03    3     1000022        13       -13   # BR(chi^0_2 -> chi^0_1 mu^- mu^+)
     6.36564170E-03    3     1000022        15       -15   # BR(chi^0_2 -> chi^0_1 tau^- tau^+)
     3.78251431E-02    3     1000022        12       -12   # BR(chi^0_2 -> chi^0_1 nu_e nu_bar_e)
     1.36356916E-01    3     1000024         1        -2   # BR(chi^0_2 -> chi^+_1 d u_bar)
     1.36356916E-01    3    -1000024        -1         2   # BR(chi^0_2 -> chi^-_1 d_bar u)
     1.34646171E-01    3     1000024         3        -4   # BR(chi^0_2 -> chi^+_1 s c_bar)
     1.34646171E-01    3    -1000024        -3         4   # BR(chi^0_2 -> chi^-_1 s_bar c)
     4.54520796E-02    3     1000024        11       -12   # BR(chi^0_2 -> chi^+_1 e^- nu_bar_e)
     4.54520796E-02    3    -1000024       -11        12   # BR(chi^0_2 -> chi^-_1 e^+ nu_e)
     4.54517219E-02    3     1000024        13       -14   # BR(chi^0_2 -> chi^+_1 mu^- nu_bar_mu)
     4.54517219E-02    3    -1000024       -13        14   # BR(chi^0_2 -> chi^-_1 mu^+ nu_mu)
     4.43106497E-02    3     1000024        15       -16   # BR(chi^0_2 -> chi^+_1 tau^- nu_bar_tau)
     4.43106497E-02    3    -1000024       -15        16   # BR(chi^0_2 -> chi^-_1 tau^+ nu_tau)
DECAY   1000025     3.81538148E-02   # chi^0_3
#    BR                NDA      ID1      ID2
     9.40654865E-04    2     1000022        22   # BR(chi^0_3 -> chi^0_1 photon)
#    BR                NDA      ID1      ID2       ID3
     1.10417112E-01    3     1000022         2        -2   # BR(chi^0_3 -> chi^0_1 u u_bar)
     1.10269281E-01    3     1000022         4        -4   # BR(chi^0_3 -> chi^0_1 c c_bar)
     1.41576380E-01    3     1000022         1        -1   # BR(chi^0_3 -> chi^0_1 d d_bar)
     1.41575562E-01    3     1000022         3        -3   # BR(chi^0_3 -> chi^0_1 s s_bar)
     1.39948701E-01    3     1000022         5        -5   # BR(chi^0_3 -> chi^0_1 b b_bar)
     3.19497823E-02    3     1000022        11       -11   # BR(chi^0_3 -> chi^0_1 e^- e^+)
     3.19494583E-02    3     1000022        13       -13   # BR(chi^0_3 -> chi^0_1 mu^- mu^+)
     3.18560170E-02    3     1000022        15       -15   # BR(chi^0_3 -> chi^0_1 tau^- tau^+)
     1.89329399E-01    3     1000022        12       -12   # BR(chi^0_3 -> chi^0_1 nu_e nu_bar_e)
     1.16371032E-02    3     1000024         1        -2   # BR(chi^0_3 -> chi^+_1 d u_bar)
     1.16371032E-02    3    -1000024        -1         2   # BR(chi^0_3 -> chi^-_1 d_bar u)
     1.16117255E-02    3     1000024         3        -4   # BR(chi^0_3 -> chi^+_1 s c_bar)
     1.16117255E-02    3    -1000024        -3         4   # BR(chi^0_3 -> chi^-_1 s_bar c)
     3.87904457E-03    3     1000024        11       -12   # BR(chi^0_3 -> chi^+_1 e^- nu_bar_e)
     3.87904457E-03    3    -1000024       -11        12   # BR(chi^0_3 -> chi^-_1 e^+ nu_e)
     3.87900245E-03    3     1000024        13       -14   # BR(chi^0_3 -> chi^+_1 mu^- nu_bar_mu)
     3.87900245E-03    3    -1000024       -13        14   # BR(chi^0_3 -> chi^-_1 mu^+ nu_mu)
     3.86278662E-03    3     1000024        15       -16   # BR(chi^0_3 -> chi^+_1 tau^- nu_bar_tau)
     3.86278662E-03    3    -1000024       -15        16   # BR(chi^0_3 -> chi^-_1 tau^+ nu_tau)
DECAY   1000035     1.65430712E+00   # chi^0_4
#    BR                NDA      ID1      ID2
     3.30407518E-01    2     1000024       -24   # BR(chi^0_4 -> chi^+_1 W^-)
     3.30407518E-01    2    -1000024        24   # BR(chi^0_4 -> chi^-_1 W^+)
     3.48377969E-04    2     1000022        23   # BR(chi^0_4 -> chi^0_1 Z)
     9.94264560E-04    2     1000023        23   # BR(chi^0_4 -> chi^0_2 Z)
     3.19072263E-01    2     1000025        23   # BR(chi^0_4 -> chi^0_3 Z)
     3.00270182E-04    2     1000022        25   # BR(chi^0_4 -> chi^0_1 h^0)
     1.84298188E-02    2     1000023        25   # BR(chi^0_4 -> chi^0_2 h^0)
#    BR                NDA      ID1      ID2       ID3
DECAY   1000021     4.86580272E-02   # ~g
#    BR                NDA      ID1      ID2
     1.17949840E-03    2     1000022        21   # BR(~g -> chi^0_1 g)
     1.56308560E-03    2     1000023        21   # BR(~g -> chi^0_2 g)
     5.27126364E-03    2     1000025        21   # BR(~g -> chi^0_3 g)
     2.31237624E-03    2     1000035        21   # BR(~g -> chi^0_4 g)
#    BR                NDA      ID1      ID2       ID3
     1.67830967E-04    3     1000022         2        -2   # BR(~g -> chi^0_1 u u_bar)
     1.67848695E-04    3     1000022         4        -4   # BR(~g -> chi^0_1 c c_bar)
     5.49283935E-02    3     1000022         6        -6   # BR(~g -> chi^0_1 t t_bar)
     1.41767471E-04    3     1000022         1        -1   # BR(~g -> chi^0_1 d d_bar)
     1.41769261E-04    3     1000022         3        -3   # BR(~g -> chi^0_1 s s_bar)
     5.37705211E-03    3     1000022         5        -5   # BR(~g -> chi^0_1 b b_bar)
     3.56167259E-04    3     1000023         2        -2   # BR(~g -> chi^0_2 u u_bar)
     3.56183429E-04    3     1000023         4        -4   # BR(~g -> chi^0_2 c c_bar)
     7.20753592E-02    3     1000023         6        -6   # BR(~g -> chi^0_2 t t_bar)
     1.30863979E-04    3     1000023         1        -1   # BR(~g -> chi^0_2 d d_bar)
     1.30865127E-04    3     1000023         3        -3   # BR(~g -> chi^0_2 s s_bar)
     4.93525064E-03    3     1000023         5        -5   # BR(~g -> chi^0_2 b b_bar)
     2.08911179E-01    3     1000025         6        -6   # BR(~g -> chi^0_3 t t_bar)
     5.26476983E-04    3     1000025         5        -5   # BR(~g -> chi^0_3 b b_bar)
     2.96556384E-04    3     1000035         2        -2   # BR(~g -> chi^0_4 u u_bar)
     2.96581630E-04    3     1000035         4        -4   # BR(~g -> chi^0_4 c c_bar)
     1.22083994E-01    3     1000035         6        -6   # BR(~g -> chi^0_4 t t_bar)
     3.37977642E-04    3     1000035         1        -1   # BR(~g -> chi^0_4 d d_bar)
     3.37978709E-04    3     1000035         3        -3   # BR(~g -> chi^0_4 s s_bar)
     1.27487020E-02    3     1000035         5        -5   # BR(~g -> chi^0_4 b b_bar)
     3.87555080E-04    3     1000024         1        -2   # BR(~g -> chi^+_1 d u_bar)
     3.87555080E-04    3    -1000024        -1         2   # BR(~g -> chi^-_1 d_bar u)
     3.87594175E-04    3     1000024         3        -4   # BR(~g -> chi^+_1 s c_bar)
     3.87594175E-04    3    -1000024        -3         4   # BR(~g -> chi^-_1 s_bar c)
     1.19695245E-01    3     1000024         5        -6   # BR(~g -> chi^+_1 b t_bar)
     1.19695245E-01    3    -1000024        -5         6   # BR(~g -> chi^-_1 b_bar t)
     6.69226933E-04    3     1000037         1        -2   # BR(~g -> chi^+_2 d u_bar)
     6.69226933E-04    3    -1000037        -1         2   # BR(~g -> chi^-_2 d_bar u)
     6.69252323E-04    3     1000037         3        -4   # BR(~g -> chi^+_2 s c_bar)
     6.69252323E-04    3    -1000037        -3         4   # BR(~g -> chi^-_2 s_bar c)
     1.30796727E-01    3     1000037         5        -6   # BR(~g -> chi^+_2 b t_bar)
     1.30796727E-01    3    -1000037        -5         6   # BR(~g -> chi^-_2 b_bar t)
DECAY        25     2.79956295E-03   # Gamma(h0)
     2.59201510E-03   2        22        22   # BR(h0 -> photon photon)
     9.26116450E-04   2        22        23   # BR(h0 -> photon Z)
     1.23376792E-02   2        23        23   # BR(h0 -> Z Z)
     1.19986195E-01   2       -24        24   # BR(h0 -> W W)
     8.20907372E-02   2        21        21   # BR(h0 -> gluon gluon)
     5.96090274E-09   2       -11        11   # BR(h0 -> Electron electron)
     2.65146046E-04   2       -13        13   # BR(h0 -> Muon muon)
     7.64371654E-02   2       -15        15   # BR(h0 -> Tau tau)
     1.70285219E-07   2        -2         2   # BR(h0 -> Up up)
     3.30423347E-02   2        -4         4   # BR(h0 -> Charm charm)
     6.98618809E-07   2        -1         1   # BR(h0 -> Down down)
     2.52673386E-04   2        -3         3   # BR(h0 -> Strange strange)
     6.72069063E-01   2        -5         5   # BR(h0 -> Bottom bottom)
DECAY        35     3.15634913E+01   # Gamma(HH)
     8.80728881E-07   2        22        22   # BR(HH -> photon photon)
     7.74404044E-07   2        22        23   # BR(HH -> photon Z)
     1.19797890E-04   2        23        23   # BR(HH -> Z Z)
     6.32188551E-05   2       -24        24   # BR(HH -> W W)
     8.67161365E-05   2        21        21   # BR(HH -> gluon gluon)
     1.18457297E-10   2       -11        11   # BR(HH -> Electron electron)
     5.27362791E-06   2       -13        13   # BR(HH -> Muon muon)
     1.52299092E-03   2       -15        15   # BR(HH -> Tau tau)
     1.22306162E-11   2        -2         2   # BR(HH -> Up up)
     2.37236749E-06   2        -4         4   # BR(HH -> Charm charm)
     1.72458241E-01   2        -6         6   # BR(HH -> Top top)
     9.15131661E-09   2        -1         1   # BR(HH -> Down down)
     3.31004569E-06   2        -3         3   # BR(HH -> Strange strange)
     8.65903199E-03   2        -5         5   # BR(HH -> Bottom bottom)
     9.36204989E-02   2  -1000024   1000024   # BR(HH -> Chargino1 chargino1)
     1.89162555E-01   2  -1000024   1000037   # BR(HH -> Chargino1 chargino2)
     1.89162555E-01   2  -1000037   1000024   # BR(HH -> Chargino2 chargino1)
     2.46059478E-02   2  -1000037   1000037   # BR(HH -> Chargino2 chargino2)
     4.19885323E-02   2   1000022   1000022   # BR(HH -> neutralino1 neutralino1)
     8.68844590E-03   2   1000022   1000023   # BR(HH -> neutralino1 neutralino2)
     8.65485862E-02   2   1000022   1000025   # BR(HH -> neutralino1 neutralino3)
     5.90265006E-03   2   1000022   1000035   # BR(HH -> neutralino1 neutralino4)
     2.06613659E-04   2   1000023   1000023   # BR(HH -> neutralino2 neutralino2)
     1.09436377E-03   2   1000023   1000025   # BR(HH -> neutralino2 neutralino3)
     5.03230056E-03   2   1000023   1000035   # BR(HH -> neutralino2 neutralino4)
     4.35943250E-03   2   1000025   1000025   # BR(HH -> neutralino3 neutralino3)
     1.45723232E-01   2   1000025   1000035   # BR(HH -> neutralino3 neutralino4)
     2.03099933E-02   2   1000035   1000035   # BR(HH -> neutralino4 neutralino4)
     6.71675612E-04   2        25        25   # BR(HH -> h0 h0)
DECAY        36     3.13507620E+01   # Gamma(A0)
     6.54745977E-07   2        22        22   # BR(A0 -> photon photon)
     5.47993919E-07   2        22        23   # BR(A0 -> photon Z)
     1.17615622E-04   2        21        21   # BR(A0 -> gluon gluon)
     1.14652868E-10   2       -11        11   # BR(A0 -> Electron electron)
     5.10423667E-06   2       -13        13   # BR(A0 -> Muon muon)
     1.47407659E-03   2       -15        15   # BR(A0 -> Tau tau)
     1.14978626E-11   2        -2         2   # BR(A0 -> Up up)
     2.23007762E-06   2        -4         4   # BR(A0 -> Charm charm)
     1.67297707E-01   2        -6         6   # BR(A0 -> Top top)
     8.85747991E-09   2        -1         1   # BR(A0 -> Down down)
     3.20377048E-06   2        -3         3   # BR(A0 -> Strange strange)
     8.38186816E-03   2        -5         5   # BR(A0 -> Bottom bottom)
     2.20365607E-01   2  -1000024   1000024   # BR(A0 -> Chargino1 chargino1)
     6.70799436E-02   2  -1000024   1000037   # BR(A0 -> Chargino1 chargino2)
     6.70799436E-02   2  -1000037   1000024   # BR(A0 -> Chargino2 chargino1)
     1.46111237E-01   2  -1000037   1000037   # BR(A0 -> Chargino2 chargino2)
     1.07702666E-01   2   1000022   1000022   # BR(A0 -> neutralino1 neutralino1)
     2.61542737E-02   2   1000022   1000023   # BR(A0 -> neutralino1 neutralino2)
     1.86761792E-02   2   1000022   1000025   # BR(A0 -> neutralino1 neutralino3)
     6.62751535E-03   2   1000022   1000035   # BR(A0 -> neutralino1 neutralino4)
     6.55195201E-04   2   1000023   1000023   # BR(A0 -> neutralino2 neutralino2)
     2.20770383E-05   2   1000023   1000025   # BR(A0 -> neutralino2 neutralino3)
     1.53436654E-02   2   1000023   1000035   # BR(A0 -> neutralino2 neutralino4)
     1.39265171E-03   2   1000025   1000025   # BR(A0 -> neutralino3 neutralino3)
     4.94745974E-02   2   1000025   1000035   # BR(A0 -> neutralino3 neutralino4)
     9.58684308E-02   2   1000035   1000035   # BR(A0 -> neutralino4 neutralino4)
     1.63000004E-04   2        23        25   # BR(A0 -> Z h0)
     3.65167602E-37   2        25        25   # BR(A0 -> h0 h0)
DECAY        37     3.26898052E+01   # Gamma(Hp)
     1.28633703E-10   2       -11        12   # BR(Hp -> Electron nu_e)
     5.49949253E-06   2       -13        14   # BR(Hp -> Muon nu_mu)
     1.55556788E-03   2       -15        16   # BR(Hp -> Tau nu_tau)
     8.64058459E-09   2        -1         2   # BR(Hp -> Down up)
     1.44938224E-07   2        -3         2   # BR(Hp -> Strange up)
     9.26935380E-08   2        -5         2   # BR(Hp -> Bottom up)
     1.20016233E-07   2        -1         4   # BR(Hp -> Down charm)
     5.67814710E-06   2        -3         4   # BR(Hp -> Strange charm)
     1.29843736E-05   2        -5         4   # BR(Hp -> Bottom charm)
     1.29793290E-05   2        -1         6   # BR(Hp -> Down top)
     2.82996917E-04   2        -3         6   # BR(Hp -> Strange top)
     2.09088720E-01   2        -5         6   # BR(Hp -> Bottom top)
     3.12709726E-02   2   1000022   1000024   # BR(Hp -> neutralino1 chargino1)
     1.02151959E-01   2   1000022   1000037   # BR(Hp -> neutralino1 chargino2)
     7.08397544E-02   2   1000023   1000024   # BR(Hp -> neutralino2 chargino1)
     1.71529118E-01   2   1000023   1000037   # BR(Hp -> neutralino2 chargino2)
     8.42487564E-02   2   1000024   1000025   # BR(Hp -> chargino1 neutralino3)
     1.47126808E-01   2   1000025   1000037   # BR(Hp -> neutralino3 chargino2)
     1.79164492E-01   2   1000024   1000035   # BR(Hp -> chargino1 neutralino4)
     2.54562044E-03   2   1000035   1000037   # BR(Hp -> neutralino4 chargino2)
     1.57727035E-04   2        24        25   # BR(Hp -> W h0)
     1.05737801E-10   2        24        35   # BR(Hp -> W HH)
     1.29990098E-10   2        24        36   # BR(Hp -> W A0)
DECAY         6     2.43000000E+00   # top
#    BR                NDA      ID1      ID2
     1.00000000E+00    2           5        24   # BR(t -> b W)
Block HiggsBoundsInputHiggsCouplingsFermions
# ScalarNormEffCoupSq PseudoSNormEffCoupSq NP IP1 IP2 IP2
    9.09919327E-01    0.00000000E+00        3  25   5   5  # h0-b-b eff. coupling^2, normalised to SM
    1.13813195E+01    0.00000000E+00        3  35   5   5  # H0-b-b eff. coupling^2, normalised to SM
    0.00000000E+00    1.12912388E+01        3  36   5   5  # A0-b-b eff. coupling^2, normalised to SM
#
    1.00797793E+00    0.00000000E+00        3  25   6   6  # h0-t-t eff. coupling^2, normalised to SM
    8.05863150E-02    0.00000000E+00        3  35   6   6  # H0-t-t eff. coupling^2, normalised to SM
    0.00000000E+00    8.85642415E-02        3  36   6   6  # A0-t-t eff. coupling^2, normalised to SM
#
    9.09919327E-01    0.00000000E+00        3  25  15  15  # h0-tau-tau eff. coupling^2, normalised to SM
    1.13813195E+01    0.00000000E+00        3  35  15  15  # H0-tau-tau eff. coupling^2, normalised to SM
    0.00000000E+00    1.12912388E+01        3  36  15  15  # A0-tau-tau eff. coupling^2, normalised to SM
#
Block HiggsBoundsInputHiggsCouplingsBosons
    9.99812522E-01        3  25  24  24  # h0-W-W eff. coupling^2, normalised to SM
    1.87478046E-04        3  35  24  24  # H0-W-W eff. coupling^2, normalised to SM
    0.00000000E+00        3  36  24  24  # A0-W-W eff. coupling^2, normalised to SM
#
    9.99812522E-01        3  25  23  23  # h0-Z-Z eff. coupling^2, normalised to SM
    1.87478046E-04        3  35  23  23  # H0-Z-Z eff. coupling^2, normalised to SM
    0.00000000E+00        3  36  23  23  # A0-Z-Z eff. coupling^2, normalised to SM
#
    1.28279832E+00        3  25  21  21  # h0-g-g eff. coupling^2, normalised to SM
    7.61098363E-02        3  35  21  21  # H0-g-g eff. coupling^2, normalised to SM
    3.04502934E-01        3  36  21  21  # A0-g-g eff. coupling^2, normalised to SM
#
    0.00000000E+00        3  25  25  23  # h0-h0-Z eff. coupling^2, normalised to SM
    0.00000000E+00        3  35  25  23  # H0-h0-Z eff. coupling^2, normalised to SM
    1.87478046E-04        3  36  25  23  # A0-h0-Z eff. coupling^2, normalised to SM
    0.00000000E+00        3  35  35  23  # H0-H0-Z eff. coupling^2, normalised to SM
    9.99812522E-01        3  36  35  23  # A0-H0-Z eff. coupling^2, normalised to SM
    0.00000000E+00        3  36  36  23  # A0-A0-Z eff. coupling^2, normalised to SM
#
    0.00000000E+00        4  25  21  21  23  # h0-g-g-Z eff. coupling^2, normalised to SM
    0.00000000E+00        4  35  21  21  23  # H0-g-g-Z eff. coupling^2, normalised to SM
    0.00000000E+00        4  36  21  21  23  # A0-g-g-Z eff. coupling^2, normalised to SM
Block SPhenoLowEnergy  # low energy observables
    1    3.33254385E-04   # BR(b -> s gamma)
    2    1.59056135E-06   # BR(b -> s mu+ mu-)
    3    3.52886705E-05   # BR(b -> s nu nu)
    4    2.54065675E-15   # BR(Bd -> e+ e-)
    5    1.08533973E-10   # BR(Bd -> mu+ mu-)
    6    2.27205466E-08   # BR(Bd -> tau+ tau-)
    7    8.55923686E-14   # BR(Bs -> e+ e-)
    8    3.65650327E-09   # BR(Bs -> mu+ mu-)
    9    7.75576647E-07   # BR(Bs -> tau+ tau-)
   10    9.67895042E-05   # BR(B_u -> tau nu)
   11    9.99798523E-01   # BR(B_u -> tau nu)/BR(B_u -> tau nu)_SM
   12    5.44011007E-01   # |Delta(M_Bd)| [ps^-1] 
   13    1.94378785E+01   # |Delta(M_Bs)| [ps^-1] 
   14    0.00000000E+00   # neutron EDM according to the chiral quark model
   15    0.00000000E+00   # neutron EDM according to the relativistic quark-parton model
   16    2.16561780E-03   # epsilon_K
   17    2.28174418E-15   # Delta(M_K)
   18    2.48240982E-11   # BR(K^0 -> pi^0 nu nu)
   19    8.29625250E-11   # BR(K^+ -> pi^+ nu nu)
   20    1.92459262E-18   # Delta(g-2)_electron/2
   21    8.22823406E-14   # Delta(g-2)_muon/2
   22    2.32987855E-11   # Delta(g-2)_tau/2
   23    0.00000000E+00   # electric dipole moment of the electron
   24    0.00000000E+00   # electric dipole moment of the muon
   25    0.00000000E+00   # electric dipole moment of the tau
   26    0.00000000E+00   # Br(mu -> e gamma)
   27    0.00000000E+00   # Br(tau -> e gamma)
   28    0.00000000E+00   # Br(tau -> mu gamma)
   29    0.00000000E+00   # Br(mu -> 3 e)
   30    0.00000000E+00   # Br(tau -> 3 e)
   31    0.00000000E+00   # Br(tau -> 3 mu)
   39   -6.70139140E-04   # Delta(rho_parameter)
   40    0.00000000E+00   # BR(Z -> e mu)
   41    0.00000000E+00   # BR(Z -> e tau)
   42    0.00000000E+00   # BR(Z -> mu tau)
Block FWCOEF Q=  1.60000000E+02  # Wilson coefficients at scale Q
#    id        order  M        value         comment
     0305 4422   00   0    -1.88819110E-01   # C7
     0305 4422   00   2    -2.01969498E-01   # C7
     0305 4322   00   2    -2.55681387E-04   # C7'
     0305 6421   00   0    -9.52278348E-02   # C8
     0305 6421   00   2    -1.11636845E-01   # C8
     0305 6321   00   2    -3.20681195E-04   # C8'
 03051111 4133   00   0     1.62554380E+00   # C9 e+e-
 03051111 4133   00   2     1.62614158E+00   # C9 e+e-
 03051111 4233   00   2     3.02175462E-06   # C9' e+e-
 03051111 4137   00   0    -4.44823591E+00   # C10 e+e-
 03051111 4137   00   2    -4.45011592E+00   # C10 e+e-
 03051111 4237   00   2    -2.17256571E-05   # C10' e+e-
 03051313 4133   00   0     1.62554380E+00   # C9 mu+mu-
 03051313 4133   00   2     1.62614158E+00   # C9 mu+mu-
 03051313 4233   00   2     3.02175453E-06   # C9' mu+mu-
 03051313 4137   00   0    -4.44823591E+00   # C10 mu+mu-
 03051313 4137   00   2    -4.45011592E+00   # C10 mu+mu-
 03051313 4237   00   2    -2.17256570E-05   # C10' mu+mu-
 03051212 4137   00   0     1.50535012E+00   # C11 nu_1 nu_1
 03051212 4137   00   2     1.50575845E+00   # C11 nu_1 nu_1
 03051212 4237   00   2     4.69833261E-06   # C11' nu_1 nu_1
 03051414 4137   00   0     1.50535012E+00   # C11 nu_2 nu_2
 03051414 4137   00   2     1.50575845E+00   # C11 nu_2 nu_2
 03051414 4237   00   2     4.69833263E-06   # C11' nu_2 nu_2
 03051616 4137   00   0     1.50535012E+00   # C11 nu_3 nu_3
 03051616 4137   00   2     1.50575845E+00   # C11 nu_3 nu_3
 03051616 4237   00   2     4.69833751E-06   # C11' nu_3 nu_3
Block IMFWCOEF Q=  1.60000000E+02  # Im(Wilson coefficients) at scale Q
#    id        order  M        value         comment
     0305 4422   00   0     3.85821869E-07   # C7
     0305 4422   00   2     1.04418001E-06   # C7
     0305 4322   00   2    -4.84473583E-08   # C7'
     0305 6421   00   0     3.30481946E-07   # C8
     0305 6421   00   2    -1.22068462E-06   # C8
     0305 6321   00   2    -5.76262390E-08   # C8'
 03051111 4133   00   2     9.34691941E-07   # C9 e+e-
 03051111 4233   00   2     6.49641726E-08   # C9' e+e-
 03051111 4137   00   2     2.17466065E-07   # C10 e+e-
 03051111 4237   00   2    -4.69582591E-07   # C10' e+e-
 03051313 4133   00   2     9.34691908E-07   # C9 mu+mu-
 03051313 4233   00   2     6.49641724E-08   # C9' mu+mu-
 03051313 4137   00   2     2.17466098E-07   # C10 mu+mu-
 03051313 4237   00   2    -4.69582592E-07   # C10' mu+mu-
 03051212 4137   00   2    -1.67849949E-08   # C11 nu_1 nu_1
 03051212 4237   00   2     1.01553624E-07   # C11' nu_1 nu_1
 03051414 4137   00   2    -1.67849931E-08   # C11 nu_2 nu_2
 03051414 4237   00   2     1.01553624E-07   # C11' nu_2 nu_2
 03051616 4137   00   2    -1.67845053E-08   # C11 nu_3 nu_3
 03051616 4237   00   2     1.01553624E-07   # C11' nu_3 nu_3
