# SUSY Les Houches Accord 2 - MSSM spectrum + Decays
# SPheno v4.0.5be
# W. Porod, Comput. Phys. Commun. 153 (2003) 275-315, hep-ph/0301101;
# W. Porod, F.~Staub, Comput. Phys. Commun. 183 (2012) 2458
#                     arXiv:1104.1573 [hep-ph] 
# in case of problems send email to porod@physik.uni-wuerzburg.de
# Created: 12.05.2022,  20:16
Block SPINFO         # Program information
     1   SPheno      # spectrum calculator
     2   v4.0.5be    # version number
#
Block SPhenoINFO     # SPheno specific information
    1      2         # using 2-loop RGEs
    2      2         # using pole masses for boundary conditions at mZ
Block MODSEL  # Model selection
    1    0    # general MSSM
Block MINPAR  # Input parameters
    3    2.74781427E+01  # tanb at m_Z    
    4    1.00000000E+00  # Sign(mu)
Block EXTPAR  # non-universal input parameters
    0    4.75796465E+03  # scale for input parameters
    1   -4.92412097E+01  # M_1
    2    7.75859550E+02  # M_2
    3    4.18659986E+03  # M_3
   11   -4.89769752E+03  # A_t
   12   -8.08344236E+02  # A_b
   13    1.60679141E+01  # A_tau
   23    8.84633156E+02  # mu
   25    2.63564079E+01  # tan(beta)
   26    3.92844096E+03  # m_A, pole mass
   31    1.00000000E+04  # M_L11
   32    1.00000000E+04  # M_L22
   33    1.00000000E+04  # M_L33
   34    1.00000000E+04  # M_E11
   35    1.00000000E+04  # M_E22
   36    1.00000000E+04  # M_E33
   41    1.00000000E+04  # M_Q11
   42    1.00000000E+04  # M_Q22
   43    4.88490994E+03  # M_Q33
   44    1.00000000E+04  # M_U11
   45    1.00000000E+04  # M_U22
   46    4.49481346E+03  # M_U33
   47    1.00000000E+04  # M_D11
   48    1.00000000E+04  # M_D22
   49    2.83455664E+03  # M_D33
Block SMINPUTS  # SM parameters
         1     1.27908970E+02  # alpha_em^-1(MZ)^MSbar
         2     1.16637870E-05  # G_mu [GeV^-2]
         3     1.18400000E-01  # alpha_s(MZ)^MSbar
         4     9.11876000E+01  # m_Z(pole)
         5     4.18000000E+00  # m_b(m_b), MSbar
         6     1.73200000E+02  # m_t(pole)
         7     1.77700000E+00  # m_tau(pole)
         8     0.00000000E+00  # m_nu_3
        11     5.10998930E-04  # m_e(pole)
        12     0.00000000E+00  # m_nu_1
        13     1.05658372E-01  # m_muon(pole)
        14     0.00000000E+00  # m_nu_2
        21     5.00000000E-03  # m_d(2 GeV), MSbar
        22     2.50000000E-03  # m_u(2 GeV), MSbar
        23     9.50000000E-02  # m_s(2 GeV), MSbar
        24     1.27000000E+00  # m_c(m_c), MSbar
Block gauge Q=  4.75796465E+03  # (SUSY scale)
   1    3.55362975E-01  # g'(Q)^DRbar
   2    6.65198874E-01  # g(Q)^DRbar
   3    1.21977796E+00  # g3(Q)^DRbar
Block Yu Q=  4.75796465E+03  # (SUSY scale)
  1  1     8.39040484E-06   # Y_u(Q)^DRbar
  2  2     4.26232566E-03   # Y_c(Q)^DRbar
  3  3     1.01362830E+00   # Y_t(Q)^DRbar
Block Yd Q=  4.75796465E+03  # (SUSY scale)
  1  1     4.44374760E-04   # Y_d(Q)^DRbar
  2  2     8.44312044E-03   # Y_s(Q)^DRbar
  3  3     4.40680515E-01   # Y_b(Q)^DRbar
Block Ye Q=  4.75796465E+03  # (SUSY scale)
  1  1     7.75466452E-05   # Y_e(Q)^DRbar
  2  2     1.60341868E-02   # Y_mu(Q)^DRbar
  3  3     2.69668644E-01   # Y_tau(Q)^DRbar
Block Au Q=  4.75796465E+03  # (SUSY scale)
  1  1     0.00000000E+00   # A_u(Q)^DRbar
  2  2     0.00000000E+00   # A_c(Q)^DRbar
  3  3    -4.89770093E+03   # A_t(Q)^DRbar
Block Ad Q=  4.75796465E+03  # (SUSY scale)
  1  1     0.00000000E+00   # A_d(Q)^DRbar
  2  2     0.00000000E+00   # A_s(Q)^DRbar
  3  3    -8.08343748E+02   # A_b(Q)^DRbar
Block Ae Q=  4.75796465E+03  # (SUSY scale)
  1  1     0.00000000E+00   # A_e(Q)^DRbar
  2  2     0.00000000E+00   # A_mu(Q)^DRbar
  3  3     1.60679106E+01   # A_tau(Q)^DRbar
Block MSOFT Q=  4.75796465E+03  # soft SUSY breaking masses at Q
   1   -4.92412097E+01  # M_1
   2    7.75859550E+02  # M_2
   3    4.18659986E+03  # M_3
  21    1.46865894E+07  # M^2_(H,d)
  22   -2.58399105E+05  # M^2_(H,u)
  31    1.00000000E+04  # M_(L,11)
  32    1.00000000E+04  # M_(L,22)
  33    1.00000000E+04  # M_(L,33)
  34    1.00000000E+04  # M_(E,11)
  35    1.00000000E+04  # M_(E,22)
  36    1.00000000E+04  # M_(E,33)
  41    1.00000000E+04  # M_(Q,11)
  42    1.00000000E+04  # M_(Q,22)
  43    4.88490994E+03  # M_(Q,33)
  44    1.00000000E+04  # M_(U,11)
  45    1.00000000E+04  # M_(U,22)
  46    4.49481346E+03  # M_(U,33)
  47    1.00000000E+04  # M_(D,11)
  48    1.00000000E+04  # M_(D,22)
  49    2.83455664E+03  # M_(D,33)
Block MASS  # Mass spectrum
#   PDG code      mass          particle
         6     1.73200000E+02  # m_t(pole)
        23     9.11876000E+01  # m_Z(pole)
        24     8.04299946E+01  # W+
        15     1.77700000E+00  # m_tau(pole)
        25     1.25586755E+02  # h0
        35     3.92777340E+03  # H0
        36     3.92844096E+03  # A0
        37     3.92891538E+03  # H+
   1000001     1.01124986E+04  # ~d_L
   2000001     1.00879943E+04  # ~d_R
   1000002     1.01121389E+04  # ~u_L
   2000002     1.00903160E+04  # ~u_R
   1000003     1.01124985E+04  # ~s_L
   2000003     1.00879937E+04  # ~s_R
   1000004     1.01121387E+04  # ~c_L
   2000004     1.00903160E+04  # ~c_R
   1000005     3.02677903E+03  # ~b_1
   2000005     4.97484930E+03  # ~b_2
   1000006     4.53847611E+03  # ~t_1
   2000006     4.98806804E+03  # ~t_2
   1000011     1.00208335E+04  # ~e_L-
   2000011     1.00097409E+04  # ~e_R-
   1000012     1.00200687E+04  # ~nu_eL
   1000013     1.00208334E+04  # ~mu_L-
   2000013     1.00097366E+04  # ~mu_R-
   1000014     1.00200671E+04  # ~nu_muL
   1000015     1.00085280E+04  # ~tau_1-
   2000015     1.00207694E+04  # ~tau_2-
   1000016     1.00196320E+04  # ~nu_tauL
   1000021     4.71209291E+03  # ~g
   1000022     4.95664842E+01  # ~chi_10
   1000023     8.01192397E+02  # ~chi_20
   1000025     8.91958009E+02  # ~chi_30
   1000035     9.30033542E+02  # ~chi_40
   1000024     8.01428028E+02  # ~chi_1+
   1000037     9.30441632E+02  # ~chi_2+
# Higgs mixing
Block alpha # Effective Higgs mixing angle
          -3.64340104E-02   # alpha
Block Hmix Q=  4.75796465E+03  # Higgs mixing parameters
   1    8.84633156E+02  # mu
   2    2.63564079E+01  # tan[beta](Q)
   3    2.42766649E+02  # v(Q)
   4    1.54326484E+07  # m^2_A(Q)
Block stopmix # stop mixing matrix
   1  1     1.68687809E-01   # Re[R_st(1,1)]
   1  2     9.85669530E-01   # Re[R_st(1,2)]
   2  1    -9.85669530E-01   # Re[R_st(2,1)]
   2  2     1.68687809E-01   # Re[R_st(2,2)]
Block sbotmix # sbottom mixing matrix
   1  1     3.31837316E-03   # Re[R_sb(1,1)]
   1  2     9.99994494E-01   # Re[R_sb(1,2)]
   2  1    -9.99994494E-01   # Re[R_sb(2,1)]
   2  2     3.31837316E-03   # Re[R_sb(2,2)]
Block staumix # stau mixing matrix
   1  1     1.74816718E-01   # Re[R_sta(1,1)]
   1  2     9.84600993E-01   # Re[R_sta(1,2)]
   2  1    -9.84600993E-01   # Re[R_sta(2,1)]
   2  2     1.74816718E-01   # Re[R_sta(2,2)]
Block Nmix # neutralino mixing matrix
   1  1     9.98754819E-01   # Re[N(1,1)]
   1  2    -5.96903201E-05   # Re[N(1,2)]
   1  3     4.98811923E-02   # Re[N(1,3)]
   1  4     8.21721842E-04   # Re[N(1,4)]
   2  1     1.91508704E-02   # Re[N(2,1)]
   2  2     8.52358018E-01   # Re[N(2,2)]
   2  3    -3.88195594E-01   # Re[N(2,3)]
   2  4     3.49890318E-01   # Re[N(2,4)]
   3  1    -3.57957097E-02   # Re[N(3,1)]
   3  2     3.15129446E-02   # Re[N(3,2)]
   3  3     7.05108555E-01   # Re[N(3,3)]
   3  4     7.07493835E-01   # Re[N(3,4)]
   4  1    -2.89952317E-02   # Re[N(4,1)]
   4  2     5.22008372E-01   # Re[N(4,2)]
   4  3     5.91301930E-01   # Re[N(4,3)]
   4  4    -6.14026517E-01   # Re[N(4,4)]
Block Umix # chargino mixing matrix
   1  1    -8.26280560E-01   # Re[U(1,1)]
   1  2     5.63258764E-01   # Re[U(1,2)]
   2  1     5.63258764E-01   # Re[U(2,1)]
   2  2     8.26280560E-01   # Re[U(2,2)]
Block Vmix # chargino mixing matrix
   1  1    -8.60060493E-01   # Re[V(1,1)]
   1  2     5.10192069E-01   # Re[V(1,2)]
   2  1     5.10192069E-01   # Re[V(2,1)]
   2  2     8.60060493E-01   # Re[V(2,2)]
DECAY        23     2.49520000E+00   # Z
DECAY        24     2.08500000E+00   # W
DECAY   2000011     5.02908518E+01   # ~e^-_R
#    BR                NDA      ID1      ID2
     9.97550330E-01    2     1000022        11   # BR(~e^-_R -> chi^0_1 e^-)
     3.62107078E-04    2     1000023        11   # BR(~e^-_R -> chi^0_2 e^-)
     1.26118798E-03    2     1000025        11   # BR(~e^-_R -> chi^0_3 e^-)
     8.26351654E-04    2     1000035        11   # BR(~e^-_R -> chi^0_4 e^-)
DECAY   1000011     1.43047072E+02   # ~e^-_L
#    BR                NDA      ID1      ID2
     8.77543646E-02    2     1000022        11   # BR(~e^-_L -> chi^0_1 e^-)
     2.26498567E-01    2     1000023        11   # BR(~e^-_L -> chi^0_2 e^-)
     7.77507416E-02    2     1000035        11   # BR(~e^-_L -> chi^0_4 e^-)
     4.15661305E-01    2    -1000024        12   # BR(~e^-_L -> chi^-_1 nu_e)
     1.92288429E-01    2    -1000037        12   # BR(~e^-_L -> chi^-_2 nu_e)
#    BR                NDA      ID1      ID2       ID3
DECAY   2000013     5.03916047E+01   # ~mu^-_R
#    BR                NDA      ID1      ID2
     9.95557929E-01    2     1000022        13   # BR(~mu^-_R -> chi^0_1 mu^-)
     5.12529806E-04    2     1000023        13   # BR(~mu^-_R -> chi^0_2 mu^-)
     1.75579403E-03    2     1000025        13   # BR(~mu^-_R -> chi^0_3 mu^-)
     1.17381419E-03    2     1000035        13   # BR(~mu^-_R -> chi^0_4 mu^-)
     3.18213419E-04    2    -1000024        14   # BR(~mu^-_R -> chi^-_1 nu_mu)
     6.81719945E-04    2    -1000037        14   # BR(~mu^-_R -> chi^-_2 nu_mu)
DECAY   1000013     1.43097515E+02   # ~mu^-_L
#    BR                NDA      ID1      ID2
     8.77243205E-02    2     1000022        13   # BR(~mu^-_L -> chi^0_1 mu^-)
     2.26471996E-01    2     1000023        13   # BR(~mu^-_L -> chi^0_2 mu^-)
     2.21837996E-04    2     1000025        13   # BR(~mu^-_L -> chi^0_3 mu^-)
     7.78464257E-02    2     1000035        13   # BR(~mu^-_L -> chi^0_4 mu^-)
     4.15514776E-01    2    -1000024        14   # BR(~mu^-_L -> chi^-_1 nu_mu)
     1.92220643E-01    2    -1000037        14   # BR(~mu^-_L -> chi^-_2 nu_mu)
#    BR                NDA      ID1      ID2       ID3
DECAY   1000015     8.12218196E+01   # ~tau^-_1
#    BR                NDA      ID1      ID2
     6.06723644E-01    2     1000022        15   # BR(~tau^-_1 -> chi^0_1 tau^-)
     7.34618227E-02    2     1000023        15   # BR(~tau^-_1 -> chi^0_2 tau^-)
     8.42292424E-02    2     1000025        15   # BR(~tau^-_1 -> chi^0_3 tau^-)
     3.24982920E-02    2     1000035        15   # BR(~tau^-_1 -> chi^0_4 tau^-)
     1.46029574E-01    2    -1000024        16   # BR(~tau^-_1 -> chi^-_1 nu_tau)
     5.70574252E-02    2    -1000037        16   # BR(~tau^-_1 -> chi^-_2 nu_tau)
DECAY   2000015     1.54876904E+02   # ~tau^-_2
#    BR                NDA      ID1      ID2
     8.72209794E-02    2     1000022        15   # BR(~tau^-_2 -> chi^0_1 tau^-)
     1.98590286E-01    2     1000023        15   # BR(~tau^-_2 -> chi^0_2 tau^-)
     4.78344467E-02    2     1000025        15   # BR(~tau^-_2 -> chi^0_3 tau^-)
     1.19352796E-01    2     1000035        15   # BR(~tau^-_2 -> chi^0_4 tau^-)
     3.36550473E-01    2    -1000024        16   # BR(~tau^-_2 -> chi^-_1 nu_tau)
     2.10451019E-01    2    -1000037        16   # BR(~tau^-_2 -> chi^-_2 nu_tau)
#    BR                NDA      ID1      ID2       ID3
DECAY   1000012     1.43051525E+02   # ~nu_e
#    BR                NDA      ID1      ID2
     8.77842088E-02    2     1000022        12   # BR(~nu_e -> chi^0_1 nu_e)
     2.15856792E-01    2     1000023        12   # BR(~nu_e -> chi^0_2 nu_e)
     7.78010996E-04    2     1000025        12   # BR(~nu_e -> chi^0_3 nu_e)
     8.75427354E-02    2     1000035        12   # BR(~nu_e -> chi^0_4 nu_e)
     4.50292804E-01    2     1000024        11   # BR(~nu_e -> chi^+_1 e^-)
     1.57745449E-01    2     1000037        11   # BR(~nu_e -> chi^+_2 e^-)
#    BR                NDA      ID1      ID2       ID3
DECAY   1000014     1.43101942E+02   # ~nu_mu
#    BR                NDA      ID1      ID2
     8.77532669E-02    2     1000022        14   # BR(~nu_mu -> chi^0_1 nu_mu)
     2.15780706E-01    2     1000023        14   # BR(~nu_mu -> chi^0_2 nu_mu)
     7.77736761E-04    2     1000025        14   # BR(~nu_mu -> chi^0_3 nu_mu)
     8.75118781E-02    2     1000035        14   # BR(~nu_mu -> chi^0_4 nu_mu)
     4.50246231E-01    2     1000024        13   # BR(~nu_mu -> chi^+_1 mu^-)
     1.57930181E-01    2     1000037        13   # BR(~nu_mu -> chi^+_2 mu^-)
#    BR                NDA      ID1      ID2       ID3
DECAY   1000016     1.57312342E+02   # ~nu_tau
#    BR                NDA      ID1      ID2
     7.98228380E-02    2     1000022        16   # BR(~nu_tau -> chi^0_1 nu_tau)
     1.96279976E-01    2     1000023        16   # BR(~nu_tau -> chi^0_2 nu_tau)
     7.07450239E-04    2     1000025        16   # BR(~nu_tau -> chi^0_3 nu_tau)
     7.96031442E-02    2     1000035        16   # BR(~nu_tau -> chi^0_4 nu_tau)
     4.38309566E-01    2     1000024        15   # BR(~nu_tau -> chi^+_1 tau^-)
     2.05277025E-01    2     1000037        15   # BR(~nu_tau -> chi^+_2 tau^-)
#    BR                NDA      ID1      ID2       ID3
DECAY   2000001     4.92349292E+02   # ~d_R
#    BR                NDA      ID1      ID2
     1.14101226E-02    2     1000022         1   # BR(~d_R -> chi^0_1 d)
     9.88561693E-01    2     1000021         1   # BR(~d_R -> ~g d)
DECAY   1000001     6.22313533E+02   # ~d_L
#    BR                NDA      ID1      ID2
     2.26380819E-03    2     1000022         1   # BR(~d_L -> chi^0_1 d)
     5.09031927E-02    2     1000023         1   # BR(~d_L -> chi^0_2 d)
     1.01108595E-04    2     1000025         1   # BR(~d_L -> chi^0_3 d)
     1.95424494E-02    2     1000035         1   # BR(~d_L -> chi^0_4 d)
     9.64416991E-02    2    -1000024         2   # BR(~d_L -> chi^-_1 u)
     4.46183814E-02    2    -1000037         2   # BR(~d_L -> chi^-_2 u)
     7.86129361E-01    2     1000021         1   # BR(~d_L -> ~g d)
DECAY   2000003     4.92377320E+02   # ~s_R
#    BR                NDA      ID1      ID2
     1.14095444E-02    2     1000022         3   # BR(~s_R -> chi^0_1 s)
     9.88505294E-01    2     1000021         3   # BR(~s_R -> ~g s)
DECAY   1000003     6.22331200E+02   # ~s_L
#    BR                NDA      ID1      ID2
     2.26380107E-03    2     1000022         3   # BR(~s_L -> chi^0_1 s)
     5.09051640E-02    2     1000023         3   # BR(~s_L -> chi^0_2 s)
     1.12354538E-04    2     1000025         3   # BR(~s_L -> chi^0_3 s)
     1.95497974E-02    2     1000035         3   # BR(~s_L -> chi^0_4 s)
     9.64404492E-02    2    -1000024         4   # BR(~s_L -> chi^-_1 c)
     4.46214062E-02    2    -1000037         4   # BR(~s_L -> chi^-_2 c)
     7.86107028E-01    2     1000021         3   # BR(~s_L -> ~g s)
DECAY   1000005     2.11195392E+01   # ~b_1
#    BR                NDA      ID1      ID2
     8.12499413E-02    2     1000022         5   # BR(~b_1 -> chi^0_1 b)
     7.32970927E-02    2     1000023         5   # BR(~b_1 -> chi^0_2 b)
     2.29524944E-01    2     1000025         5   # BR(~b_1 -> chi^0_3 b)
     1.57802420E-01    2     1000035         5   # BR(~b_1 -> chi^0_4 b)
     1.52909009E-01    2    -1000024         6   # BR(~b_1 -> chi^-_1 t)
     3.05216592E-01    2    -1000037         6   # BR(~b_1 -> chi^-_2 t)
DECAY   2000005     1.90833476E+02   # ~b_2
#    BR                NDA      ID1      ID2
     3.86284481E-03    2     1000022         5   # BR(~b_2 -> chi^0_1 b)
     9.26219503E-02    2     1000023         5   # BR(~b_2 -> chi^0_2 b)
     4.70865893E-02    2     1000025         5   # BR(~b_2 -> chi^0_3 b)
     6.27263170E-02    2     1000035         5   # BR(~b_2 -> chi^0_4 b)
     2.75869993E-01    2    -1000024         6   # BR(~b_2 -> chi^-_1 t)
     4.38436555E-01    2    -1000037         6   # BR(~b_2 -> chi^-_2 t)
     2.17589557E-02    2     1000021         5   # BR(~b_2 -> ~g b)
     5.59686268E-02    2     1000006       -24   # BR(~b_2 -> ~t_1 W^-)
     6.01760711E-04    2     1000005        23   # BR(~b_2 -> ~b_1 Z)
     1.06640793E-03    2     1000005        25   # BR(~b_2 -> ~b_1 h^0)
DECAY   2000002     5.09486142E+02   # ~u_R
#    BR                NDA      ID1      ID2
     4.41154978E-02    2     1000022         2   # BR(~u_R -> chi^0_1 u)
     9.55776143E-01    2     1000021         2   # BR(~u_R -> ~g u)
DECAY   1000002     6.22296120E+02   # ~u_L
#    BR                NDA      ID1      ID2
     2.26075380E-03    2     1000022         2   # BR(~u_L -> chi^0_1 u)
     5.17239520E-02    2     1000023         2   # BR(~u_L -> chi^0_2 u)
     1.87841422E-02    2     1000035         2   # BR(~u_L -> chi^0_4 u)
     1.04487461E-01    2     1000024         1   # BR(~u_L -> chi^+_1 d)
     3.66068188E-02    2     1000037         1   # BR(~u_L -> chi^+_2 d)
     7.86092373E-01    2     1000021         2   # BR(~u_L -> ~g u)
DECAY   2000004     5.09493289E+02   # ~c_R
#    BR                NDA      ID1      ID2
     4.41148773E-02    2     1000022         4   # BR(~c_R -> chi^0_1 c)
     9.55762675E-01    2     1000021         4   # BR(~c_R -> ~g c)
DECAY   1000004     6.22313743E+02   # ~c_L
#    BR                NDA      ID1      ID2
     2.26068966E-03    2     1000022         4   # BR(~c_L -> chi^0_1 c)
     5.17231857E-02    2     1000023         4   # BR(~c_L -> chi^0_2 c)
     1.87857966E-02    2     1000035         4   # BR(~c_L -> chi^0_4 c)
     1.04491693E-01    2     1000024         3   # BR(~c_L -> chi^+_1 s)
     3.66212130E-02    2     1000037         3   # BR(~c_L -> chi^+_2 s)
     7.86070031E-01    2     1000021         4   # BR(~c_L -> ~g c)
DECAY   1000006     1.80375993E+02   # ~t_1
#    BR                NDA      ID1      ID2
     5.43518130E-02    2     1000022         6   # BR(~t_1 -> chi^0_1 t)
     2.53224239E-04    2     1000023         4   # BR(~t_1 -> chi^0_2 c)
     8.26841756E-02    2     1000023         6   # BR(~t_1 -> chi^0_2 t)
     2.38507748E-01    2     1000025         6   # BR(~t_1 -> chi^0_3 t)
     1.53428465E-01    2     1000035         6   # BR(~t_1 -> chi^0_4 t)
     1.73493548E-01    2     1000024         5   # BR(~t_1 -> chi^+_1 b)
     2.97213711E-01    2     1000037         5   # BR(~t_1 -> chi^+_2 b)
#    BR                NDA      ID1      ID2       ID3
DECAY   2000006     1.93006733E+02   # ~t_2
#    BR                NDA      ID1      ID2
     5.15088432E-03    2     1000022         6   # BR(~t_2 -> chi^0_1 t)
     1.13782022E-01    2     1000023         6   # BR(~t_2 -> chi^0_2 t)
     2.45430774E-01    2     1000025         6   # BR(~t_2 -> chi^0_3 t)
     2.40239855E-01    2     1000035         6   # BR(~t_2 -> chi^0_4 t)
     1.40046881E-01    2     1000024         5   # BR(~t_2 -> chi^+_1 b)
     1.72841847E-01    2     1000037         5   # BR(~t_2 -> chi^+_2 b)
     1.44381735E-02    2     1000021         6   # BR(~t_2 -> ~g t)
     1.17722386E-03    2     1000005        24   # BR(~t_2 -> ~b_1 W^+)
     2.89623821E-02    2     1000006        23   # BR(~t_2 -> ~t_1 Z)
     3.79299573E-02    2     1000006        25   # BR(~t_2 -> ~t_1 h^0)
DECAY   1000024     1.39010491E-01   # chi^+_1
#    BR                NDA      ID1      ID2
     9.87882622E-01    2     1000022        24   # BR(chi^+_1 -> chi^0_1 W^+)
#    BR                NDA      ID1      ID2       ID3
     1.21170320E-02    3     1000022        -5         6   # BR(chi^+_1 -> chi^0_1 b_bar t)
DECAY   1000037     1.37284504E+00   # chi^+_2
#    BR                NDA      ID1      ID2
     3.35517284E-01    2     1000022        24   # BR(chi^+_2 -> chi^0_1 W^+)
     3.79705512E-01    2     1000023        24   # BR(chi^+_2 -> chi^0_2 W^+)
     2.50190119E-01    2     1000024        23   # BR(chi^+_2 -> chi^+_1 Z)
     2.91561377E-02    2     1000024        25   # BR(chi^+_2 -> chi^+_1 h^0)
#    BR                NDA      ID1      ID2       ID3
     5.20856939E-03    3     1000022        -5         6   # BR(chi^+_2 -> chi^0_1 b_bar t)
DECAY   1000022     0.00000000E+00   # chi^0_1
DECAY   1000023     1.39417208E-01   # chi^0_2
#    BR                NDA      ID1      ID2
     4.81132344E-01    2     1000022        23   # BR(chi^0_2 -> chi^0_1 Z)
     5.15096587E-01    2     1000022        25   # BR(chi^0_2 -> chi^0_1 h^0)
#    BR                NDA      ID1      ID2       ID3
     3.75983871E-03    3     1000022         6        -6   # BR(chi^0_2 -> chi^0_1 t t_bar)
DECAY   1000025     1.91161947E+00   # chi^0_3
#    BR                NDA      ID1      ID2
     3.07567066E-01    2     1000024       -24   # BR(chi^0_3 -> chi^+_1 W^-)
     3.07567066E-01    2    -1000024        24   # BR(chi^0_3 -> chi^-_1 W^+)
     1.50179009E-01    2     1000022        23   # BR(chi^0_3 -> chi^0_1 Z)
     1.45169843E-01    2     1000022        25   # BR(chi^0_3 -> chi^0_1 h^0)
     3.13668557E-04    2     1000023        22   # BR(chi^0_3 -> chi^0_2 photon)
#    BR                NDA      ID1      ID2       ID3
     1.97579183E-03    3     1000022         6        -6   # BR(chi^0_3 -> chi^0_1 t t_bar)
     1.03639960E-02    3     1000023         2        -2   # BR(chi^0_3 -> chi^0_2 u u_bar)
     1.03524739E-02    3     1000023         4        -4   # BR(chi^0_3 -> chi^0_2 c c_bar)
     1.32887009E-02    3     1000023         1        -1   # BR(chi^0_3 -> chi^0_2 d d_bar)
     1.32886367E-02    3     1000023         3        -3   # BR(chi^0_3 -> chi^0_2 s s_bar)
     1.31643329E-02    3     1000023         5        -5   # BR(chi^0_3 -> chi^0_2 b b_bar)
     2.99888413E-03    3     1000023        11       -11   # BR(chi^0_3 -> chi^0_2 e^- e^+)
     2.99885797E-03    3     1000023        13       -13   # BR(chi^0_3 -> chi^0_2 mu^- mu^+)
     2.99143144E-03    3     1000023        15       -15   # BR(chi^0_3 -> chi^0_2 tau^- tau^+)
     1.77708406E-02    3     1000023        12       -12   # BR(chi^0_3 -> chi^0_2 nu_e nu_bar_e)
DECAY   1000035     1.35696610E+00   # chi^0_4
#    BR                NDA      ID1      ID2
     2.98602335E-01    2     1000024       -24   # BR(chi^0_4 -> chi^+_1 W^-)
     2.98602335E-01    2    -1000024        24   # BR(chi^0_4 -> chi^-_1 W^+)
     1.80463834E-01    2     1000022        23   # BR(chi^0_4 -> chi^0_1 Z)
     1.05237318E-03    2     1000023        23   # BR(chi^0_4 -> chi^0_2 Z)
     1.84482500E-01    2     1000022        25   # BR(chi^0_4 -> chi^0_1 h^0)
     3.43895358E-02    2     1000023        25   # BR(chi^0_4 -> chi^0_2 h^0)
#    BR                NDA      ID1      ID2       ID3
     2.22206844E-03    3     1000022         6        -6   # BR(chi^0_4 -> chi^0_1 t t_bar)
DECAY   1000021     4.88866988E+01   # ~g
#    BR                NDA      ID1      ID2
     3.51769096E-04    2     1000006        -6   # BR(~g -> ~t_1 t_bar)
     3.51769096E-04    2    -1000006         6   # BR(~g -> ~t^*_1 t)
     4.92194618E-01    2     1000005        -5   # BR(~g -> ~b_1 b_bar)
     4.92194618E-01    2    -1000005         5   # BR(~g -> ~b^*_1 b)
#    BR                NDA      ID1      ID2       ID3
     7.86732704E-04    3     1000023         6        -6   # BR(~g -> chi^0_2 t t_bar)
     7.76023313E-04    3     1000023         5        -5   # BR(~g -> chi^0_2 b b_bar)
     1.87446945E-03    3     1000025         6        -6   # BR(~g -> chi^0_3 t t_bar)
     3.42930509E-04    3     1000025         5        -5   # BR(~g -> chi^0_3 b b_bar)
     2.00966303E-03    3     1000035         6        -6   # BR(~g -> chi^0_4 t t_bar)
     4.91155061E-04    3     1000035         5        -5   # BR(~g -> chi^0_4 b b_bar)
     1.55368608E-03    3     1000024         5        -6   # BR(~g -> chi^+_1 b t_bar)
     1.55368608E-03    3    -1000024        -5         6   # BR(~g -> chi^-_1 b_bar t)
     2.50390175E-03    3     1000037         5        -6   # BR(~g -> chi^+_2 b t_bar)
     2.50390175E-03    3    -1000037        -5         6   # BR(~g -> chi^-_2 b_bar t)
DECAY        25     3.72074007E-03   # Gamma(h0)
     2.49398748E-03   2        22        22   # BR(h0 -> photon photon)
     1.64571931E-03   2        22        23   # BR(h0 -> photon Z)
     3.10204617E-02   2        23        23   # BR(h0 -> Z Z)
     2.53309934E-01   2       -24        24   # BR(h0 -> W W)
     7.67036048E-02   2        21        21   # BR(h0 -> gluon gluon)
     4.89591905E-09   2       -11        11   # BR(h0 -> Electron electron)
     2.17779549E-04   2       -13        13   # BR(h0 -> Muon muon)
     6.27944955E-02   2       -15        15   # BR(h0 -> Tau tau)
     1.39104281E-07   2        -2         2   # BR(h0 -> Up up)
     2.69965007E-02   2        -4         4   # BR(h0 -> Charm charm)
     5.66206857E-07   2        -1         1   # BR(h0 -> Down down)
     2.04783853E-04   2        -3         3   # BR(h0 -> Strange strange)
     5.44599016E-01   2        -5         5   # BR(h0 -> Bottom bottom)
     1.30069344E-05   2   1000022   1000022   # BR(h0 -> neutralino1 neutralino1)
DECAY        35     7.66965350E+01   # Gamma(HH)
     2.74699004E-08   2        22        22   # BR(HH -> photon photon)
     7.84671911E-08   2        22        23   # BR(HH -> photon Z)
     4.12754100E-07   2        23        23   # BR(HH -> Z Z)
     8.90556947E-08   2       -24        24   # BR(HH -> W W)
     1.80044116E-06   2        21        21   # BR(HH -> gluon gluon)
     5.58464669E-09   2       -11        11   # BR(HH -> Electron electron)
     2.48675630E-04   2       -13        13   # BR(HH -> Muon muon)
     7.18235951E-02   2       -15        15   # BR(HH -> Tau tau)
     1.64455068E-13   2        -2         2   # BR(HH -> Up up)
     3.19050023E-08   2        -4         4   # BR(HH -> Charm charm)
     2.24967408E-03   2        -6         6   # BR(HH -> Top top)
     3.87162059E-07   2        -1         1   # BR(HH -> Down down)
     1.40047193E-04   2        -3         3   # BR(HH -> Strange strange)
     3.49505406E-01   2        -5         5   # BR(HH -> Bottom bottom)
     4.96734066E-02   2  -1000024   1000024   # BR(HH -> Chargino1 chargino1)
     1.34358419E-01   2  -1000024   1000037   # BR(HH -> Chargino1 chargino2)
     1.34358419E-01   2  -1000037   1000024   # BR(HH -> Chargino2 chargino1)
     2.97298817E-02   2  -1000037   1000037   # BR(HH -> Chargino2 chargino2)
     2.83556127E-04   2   1000022   1000022   # BR(HH -> neutralino1 neutralino1)
     8.01018436E-03   2   1000022   1000023   # BR(HH -> neutralino1 neutralino2)
     2.82677784E-02   2   1000022   1000025   # BR(HH -> neutralino1 neutralino3)
     1.78968301E-02   2   1000022   1000035   # BR(HH -> neutralino1 neutralino4)
     2.38208202E-02   2   1000023   1000023   # BR(HH -> neutralino2 neutralino2)
     7.96422269E-02   2   1000023   1000025   # BR(HH -> neutralino2 neutralino3)
     2.91652175E-02   2   1000023   1000035   # BR(HH -> neutralino2 neutralino4)
     4.23837440E-04   2   1000025   1000025   # BR(HH -> neutralino3 neutralino3)
     2.11946822E-02   2   1000025   1000035   # BR(HH -> neutralino3 neutralino4)
     1.92025512E-02   2   1000035   1000035   # BR(HH -> neutralino4 neutralino4)
     1.95757986E-06   2        25        25   # BR(HH -> h0 h0)
DECAY        36     7.51908879E+01   # Gamma(A0)
     6.81595706E-08   2        22        22   # BR(A0 -> photon photon)
     1.18106319E-07   2        22        23   # BR(A0 -> photon Z)
     7.50780568E-06   2        21        21   # BR(A0 -> gluon gluon)
     5.43298083E-09   2       -11        11   # BR(A0 -> Electron electron)
     2.41922518E-04   2       -13        13   # BR(A0 -> Muon muon)
     6.98731974E-02   2       -15        15   # BR(A0 -> Tau tau)
     1.49189053E-13   2        -2         2   # BR(A0 -> Up up)
     2.89423617E-08   2        -4         4   # BR(A0 -> Charm charm)
     2.05123172E-03   2        -6         6   # BR(A0 -> Top top)
     3.76639269E-07   2        -1         1   # BR(A0 -> Down down)
     1.36240891E-04   2        -3         3   # BR(A0 -> Strange strange)
     3.40007922E-01   2        -5         5   # BR(A0 -> Bottom bottom)
     6.70731617E-02   2  -1000024   1000024   # BR(A0 -> Chargino1 chargino1)
     1.21020320E-01   2  -1000024   1000037   # BR(A0 -> Chargino1 chargino2)
     1.21020320E-01   2  -1000037   1000024   # BR(A0 -> Chargino2 chargino1)
     4.60481413E-02   2  -1000037   1000037   # BR(A0 -> Chargino2 chargino2)
     2.88651937E-04   2   1000022   1000022   # BR(A0 -> neutralino1 neutralino1)
     8.92475321E-03   2   1000022   1000023   # BR(A0 -> neutralino1 neutralino2)
     2.51912778E-02   2   1000022   1000025   # BR(A0 -> neutralino1 neutralino3)
     2.11559683E-02   2   1000022   1000035   # BR(A0 -> neutralino1 neutralino4)
     3.22764962E-02   2   1000023   1000023   # BR(A0 -> neutralino2 neutralino2)
     5.76465834E-02   2   1000023   1000025   # BR(A0 -> neutralino2 neutralino3)
     4.23456677E-02   2   1000023   1000035   # BR(A0 -> neutralino2 neutralino4)
     4.69449973E-04   2   1000025   1000025   # BR(A0 -> neutralino3 neutralino3)
     1.52108075E-02   2   1000025   1000035   # BR(A0 -> neutralino3 neutralino4)
     2.90089098E-02   2   1000035   1000035   # BR(A0 -> neutralino4 neutralino4)
     8.70795064E-07   2        23        25   # BR(A0 -> Z h0)
     7.44449620E-38   2        25        25   # BR(A0 -> h0 h0)
DECAY        37     8.01911312E+01   # Gamma(Hp)
     6.11760947E-09   2       -11        12   # BR(Hp -> Electron nu_e)
     2.61546912E-04   2       -13        14   # BR(Hp -> Muon nu_mu)
     7.39803609E-02   2       -15        16   # BR(Hp -> Tau nu_tau)
     3.71200880E-07   2        -1         2   # BR(Hp -> Down up)
     6.28517442E-06   2        -3         2   # BR(Hp -> Strange up)
     3.93987419E-06   2        -5         2   # BR(Hp -> Bottom up)
     1.88698562E-08   2        -1         4   # BR(Hp -> Down charm)
     1.33819027E-04   2        -3         4   # BR(Hp -> Strange charm)
     5.51723480E-04   2        -5         4   # BR(Hp -> Bottom charm)
     1.62635228E-07   2        -1         6   # BR(Hp -> Down top)
     3.74522643E-06   2        -3         6   # BR(Hp -> Strange top)
     3.74375193E-01   2        -5         6   # BR(Hp -> Bottom top)
     1.58992312E-02   2   1000022   1000024   # BR(Hp -> neutralino1 chargino1)
     3.68135802E-02   2   1000022   1000037   # BR(Hp -> neutralino1 chargino2)
     9.33531415E-06   2   1000023   1000024   # BR(Hp -> neutralino2 chargino1)
     1.72601994E-01   2   1000023   1000037   # BR(Hp -> neutralino2 chargino2)
     1.37329638E-01   2   1000024   1000025   # BR(Hp -> chargino1 neutralino3)
     2.79219485E-02   2   1000025   1000037   # BR(Hp -> neutralino3 chargino2)
     1.59847222E-01   2   1000024   1000035   # BR(Hp -> chargino1 neutralino4)
     2.59060960E-04   2   1000035   1000037   # BR(Hp -> neutralino4 chargino2)
     8.17089535E-07   2        24        25   # BR(Hp -> W h0)
     3.29761416E-14   2        24        35   # BR(Hp -> W HH)
DECAY         6     2.43000000E+00   # top
#    BR                NDA      ID1      ID2
     1.00000000E+00    2           5        24   # BR(t -> b W)
Block HiggsBoundsInputHiggsCouplingsFermions
# ScalarNormEffCoupSq PseudoSNormEffCoupSq NP IP1 IP2 IP2
    9.23036685E-01    0.00000000E+00        3  25   5   5  # h0-b-b eff. coupling^2, normalised to SM
    6.94737201E+02    0.00000000E+00        3  35   5   5  # H0-b-b eff. coupling^2, normalised to SM
    0.00000000E+00    6.94660237E+02        3  36   5   5  # A0-b-b eff. coupling^2, normalised to SM
#
    1.00011079E+00    0.00000000E+00        3  25   6   6  # h0-t-t eff. coupling^2, normalised to SM
    1.32875992E-03    0.00000000E+00        3  35   6   6  # H0-t-t eff. coupling^2, normalised to SM
    0.00000000E+00    1.43955267E-03        3  36   6   6  # A0-t-t eff. coupling^2, normalised to SM
#
    9.23036685E-01    0.00000000E+00        3  25  15  15  # h0-tau-tau eff. coupling^2, normalised to SM
    6.94737201E+02    0.00000000E+00        3  35  15  15  # H0-tau-tau eff. coupling^2, normalised to SM
    0.00000000E+00    6.94660237E+02        3  36  15  15  # A0-tau-tau eff. coupling^2, normalised to SM
#
Block HiggsBoundsInputHiggsCouplingsBosons
    9.99997782E-01        3  25  24  24  # h0-W-W eff. coupling^2, normalised to SM
    2.21782360E-06        3  35  24  24  # H0-W-W eff. coupling^2, normalised to SM
    0.00000000E+00        3  36  24  24  # A0-W-W eff. coupling^2, normalised to SM
#
    9.99997782E-01        3  25  23  23  # h0-Z-Z eff. coupling^2, normalised to SM
    2.21782360E-06        3  35  23  23  # H0-Z-Z eff. coupling^2, normalised to SM
    0.00000000E+00        3  36  23  23  # A0-Z-Z eff. coupling^2, normalised to SM
#
    1.27175947E+00        3  25  21  21  # h0-g-g eff. coupling^2, normalised to SM
    1.49898486E-03        3  35  21  21  # H0-g-g eff. coupling^2, normalised to SM
    9.71542515E-02        3  36  21  21  # A0-g-g eff. coupling^2, normalised to SM
#
    0.00000000E+00        3  25  25  23  # h0-h0-Z eff. coupling^2, normalised to SM
    0.00000000E+00        3  35  25  23  # H0-h0-Z eff. coupling^2, normalised to SM
    2.21782360E-06        3  36  25  23  # A0-h0-Z eff. coupling^2, normalised to SM
    0.00000000E+00        3  35  35  23  # H0-H0-Z eff. coupling^2, normalised to SM
    9.99997782E-01        3  36  35  23  # A0-H0-Z eff. coupling^2, normalised to SM
    0.00000000E+00        3  36  36  23  # A0-A0-Z eff. coupling^2, normalised to SM
#
    0.00000000E+00        4  25  21  21  23  # h0-g-g-Z eff. coupling^2, normalised to SM
    0.00000000E+00        4  35  21  21  23  # H0-g-g-Z eff. coupling^2, normalised to SM
    0.00000000E+00        4  36  21  21  23  # A0-g-g-Z eff. coupling^2, normalised to SM
Block SPhenoLowEnergy  # low energy observables
    1    3.19783488E-04   # BR(b -> s gamma)
    2    1.59058512E-06   # BR(b -> s mu+ mu-)
    3    3.52586905E-05   # BR(b -> s nu nu)
    4    2.67364616E-15   # BR(Bd -> e+ e-)
    5    1.14214927E-10   # BR(Bd -> mu+ mu-)
    6    2.38979537E-08   # BR(Bd -> tau+ tau-)
    7    8.97402641E-14   # BR(Bs -> e+ e-)
    8    3.83369478E-09   # BR(Bs -> mu+ mu-)
    9    8.12777885E-07   # BR(Bs -> tau+ tau-)
   10    9.65314289E-05   # BR(B_u -> tau nu)
   11    9.97132704E-01   # BR(B_u -> tau nu)/BR(B_u -> tau nu)_SM
   12    5.41833710E-01   # |Delta(M_Bd)| [ps^-1] 
   13    1.93584092E+01   # |Delta(M_Bs)| [ps^-1] 
   14    0.00000000E+00   # neutron EDM according to the chiral quark model
   15    0.00000000E+00   # neutron EDM according to the relativistic quark-parton model
   16    2.15670326E-03   # epsilon_K
   17    2.28165214E-15   # Delta(M_K)
   18    2.48031821E-11   # BR(K^0 -> pi^0 nu nu)
   19    8.29127409E-11   # BR(K^+ -> pi^+ nu nu)
   20    1.95394185E-16   # Delta(g-2)_electron/2
   21    8.35374137E-12   # Delta(g-2)_muon/2
   22    2.36519487E-09   # Delta(g-2)_tau/2
   23    0.00000000E+00   # electric dipole moment of the electron
   24    0.00000000E+00   # electric dipole moment of the muon
   25    0.00000000E+00   # electric dipole moment of the tau
   26    0.00000000E+00   # Br(mu -> e gamma)
   27    0.00000000E+00   # Br(tau -> e gamma)
   28    0.00000000E+00   # Br(tau -> mu gamma)
   29    0.00000000E+00   # Br(mu -> 3 e)
   30    0.00000000E+00   # Br(tau -> 3 e)
   31    0.00000000E+00   # Br(tau -> 3 mu)
   39    5.51012133E-05   # Delta(rho_parameter)
   40    0.00000000E+00   # BR(Z -> e mu)
   41    0.00000000E+00   # BR(Z -> e tau)
   42    0.00000000E+00   # BR(Z -> mu tau)
Block FWCOEF Q=  1.60000000E+02  # Wilson coefficients at scale Q
#    id        order  M        value         comment
     0305 4422   00   0    -1.88819110E-01   # C7
     0305 4422   00   2    -1.87466526E-01   # C7
     0305 4322   00   2    -3.43632079E-05   # C7'
     0305 6421   00   0    -9.52278348E-02   # C8
     0305 6421   00   2    -9.86218126E-02   # C8
     0305 6321   00   2    -9.99845945E-05   # C8'
 03051111 4133   00   0     1.63262130E+00   # C9 e+e-
 03051111 4133   00   2     1.63279742E+00   # C9 e+e-
 03051111 4233   00   2     1.74887458E-04   # C9' e+e-
 03051111 4137   00   0    -4.45531341E+00   # C10 e+e-
 03051111 4137   00   2    -4.45428555E+00   # C10 e+e-
 03051111 4237   00   2    -1.28304406E-03   # C10' e+e-
 03051313 4133   00   0     1.63262130E+00   # C9 mu+mu-
 03051313 4133   00   2     1.63279736E+00   # C9 mu+mu-
 03051313 4233   00   2     1.74887414E-04   # C9' mu+mu-
 03051313 4137   00   0    -4.45531341E+00   # C10 mu+mu-
 03051313 4137   00   2    -4.45428562E+00   # C10 mu+mu-
 03051313 4237   00   2    -1.28304409E-03   # C10' mu+mu-
 03051212 4137   00   0     1.50535012E+00   # C11 nu_1 nu_1
 03051212 4137   00   2     1.50512956E+00   # C11 nu_1 nu_1
 03051212 4237   00   2     2.77072063E-04   # C11' nu_1 nu_1
 03051414 4137   00   0     1.50535012E+00   # C11 nu_2 nu_2
 03051414 4137   00   2     1.50512956E+00   # C11 nu_2 nu_2
 03051414 4237   00   2     2.77072068E-04   # C11' nu_2 nu_2
 03051616 4137   00   0     1.50535012E+00   # C11 nu_3 nu_3
 03051616 4137   00   2     1.50512956E+00   # C11 nu_3 nu_3
 03051616 4237   00   2     2.77073630E-04   # C11' nu_3 nu_3
Block IMFWCOEF Q=  1.60000000E+02  # Im(Wilson coefficients) at scale Q
#    id        order  M        value         comment
     0305 4422   00   0     3.85835537E-07   # C7
     0305 4422   00   2     6.03409400E-06   # C7
     0305 4322   00   2     9.45009345E-07   # C7'
     0305 6421   00   0     3.30493654E-07   # C8
     0305 6421   00   2    -4.57217711E-06   # C8
     0305 6321   00   2     2.59101112E-07   # C8'
 03051111 4133   00   2     2.75169113E-07   # C9 e+e-
 03051111 4233   00   2     3.35052235E-06   # C9' e+e-
 03051111 4137   00   2     7.38846457E-07   # C10 e+e-
 03051111 4237   00   2    -2.45820388E-05   # C10' e+e-
 03051313 4133   00   2     2.75167507E-07   # C9 mu+mu-
 03051313 4233   00   2     3.35052202E-06   # C9' mu+mu-
 03051313 4137   00   2     7.38848056E-07   # C10 mu+mu-
 03051313 4237   00   2    -2.45820398E-05   # C10' mu+mu-
 03051212 4137   00   2    -1.34483170E-07   # C11 nu_1 nu_1
 03051212 4237   00   2     5.30846754E-06   # C11' nu_1 nu_1
 03051414 4137   00   2    -1.34483091E-07   # C11 nu_2 nu_2
 03051414 4237   00   2     5.30846754E-06   # C11' nu_2 nu_2
 03051616 4137   00   2    -1.34460923E-07   # C11 nu_3 nu_3
 03051616 4237   00   2     5.30846753E-06   # C11' nu_3 nu_3
