BLOCK SPINFO
   1   SPheno
   2   v4.0.5be

BLOCK SPHENOINFO
   1   2
   2   2

BLOCK MODSEL
   1   0

BLOCK MINPAR
   3    30.669533
   4    1

BLOCK EXTPAR
   0    1214.7793
   1   -1446.1965
   2   -1395.5856
   3    3000
   11    4362.3335
   12    1644.3428
   13   -226.23134
   23    517.33188
   25    29.629293
   26    1212.4203
   31    1510.9676
   32    1510.9676
   33    865.99203
   34    1471.7834
   35    1471.7834
   36    560.02508
   41    5000
   42    5000
   43    1721.7634
   44    5000
   45    5000
   46    1095.4971
   47    5000
   48    5000
   49    1200.2857

BLOCK SMINPUTS
   1    127.90897
   2    1.1663787e-05
   3    0.1184
   4    91.1876
   5    4.18
   6    173.2
   7    1.777
   8    0
   11    0.00051099893
   12    0
   13    0.10565837
   14    0
   21    0.005
   22    0.0025
   23    0.095
   24    1.27

BLOCK GAUGE Q=  1214.7793
   1    0.35536298
   2    0.66519887
   3    1.219778

BLOCK YU Q=  1214.7793
   1   1    8.3891461e-06
   2   2    0.0042616862
   3   3    1.0134762

BLOCK YD Q=  1214.7793
   1   1    0.00049948137
   2   2    0.0094901461
   3   3    0.49532901

BLOCK YE Q=  1214.7793
   1   1    8.7163152e-05
   2   2    0.018022575
   3   3    0.30311007

BLOCK AU Q=  1214.7793
   1   1    0
   2   2    0
   3   3    4362.3336

BLOCK AD Q=  1214.7793
   1   1    0
   2   2    0
   3   3    1644.3427

BLOCK AE Q=  1214.7793
   1   1    0
   2   2    0
   3   3   -226.23134

BLOCK MSOFT Q=  1214.7793
   1   -1446.1965
   2   -1395.5856
   3    3000
   21    1190558.3
   22   -208896.71
   31    1510.9676
   32    1510.9676
   33    865.99203
   34    1471.7834
   35    1471.7834
   36    560.02508
   41    5000
   42    5000
   43    1721.7634
   44    5000
   45    5000
   46    1095.4971
   47    5000
   48    5000
   49    1200.2857

BLOCK MASS
   6    173.2
   23    91.1876
   24    80.429995
   15    1.777
   25    120.88859
   35    1212.3404
   36    1212.4203
   37    1215.6091
   1000001    5018.6389
   2000001    5010.4358
   1000002    5018.2244
   2000002    5011.3214
   1000003    5018.6421
   2000003    5010.4397
   1000004    5018.2271
   2000004    5011.3224
   1000005    1164.7628
   2000005    1653.7843
   1000006    856.15951
   2000006    1723.6144
   1000011    1521.5599
   2000011    1477.5295
   1000012    1519.1914
   1000013    1521.561
   2000013    1477.5125
   1000014    1519.1861
   1000015    565.87651
   2000015    880.98632
   1000016    876.1055
   1000021    3175.5964
   1000022   -519.61344
   1000023    527.84351
   1000025   -1440.4124
   1000035   -1446.1999
   1000024    523.40958
   1000037    1443.0379

BLOCK ALPHA
      -0.032717861

BLOCK HMIX Q=  1214.7793
   1    517.33188
   2    29.629293
   3    244.18882
   4    1469963

BLOCK STOPMIX
   1   1   -0.315513
   1   2    0.94892126
   2   1   -0.94892126
   2   2   -0.315513

BLOCK SBOTMIX
   1   1    0.018103963
   1   2    0.99983611
   2   1   -0.99983611
   2   2    0.018103963

BLOCK STAUMIX
   1   1    0.060562488
   1   2    0.99816441
   2   1   -0.99816441
   2   2    0.060562488

BLOCK NMIX
   1   1   -0.033742376
   1   2    0.059300285
   1   3   -0.70896096
   1   4   -0.70193966
   2   1    0.016835681
   2   2   -0.029860997
   2   3   -0.70482963
   2   4    0.70854786
   3   1    0.14485812
   3   2    0.98761419
   3   3    0.01910003
   3   4    0.057179801
   4   1   -0.9887336
   4   2    0.14216192
   4   3    0.014991434
   4   4    0.044397152

BLOCK UMIX
   1   1   -0.030008969
   1   2    0.99954963
   2   1   -0.99954963
   2   2   -0.030008969

BLOCK VMIX
   1   1    0.089498494
   1   2    0.99598696
   2   1    0.99598696
   2   2   -0.089498494

BLOCK HIGGSBOUNDSINPUTHIGGSCOUPLINGSFERMIONS
       0, 877.89503,3,36,15,15

BLOCK HIGGSBOUNDSINPUTHIGGSCOUPLINGSBOSONS
       0,4,36,21,21,23

BLOCK SPHENOLOWENERGY
   1    0.00039625428
   2    1.5898624e-06
   3    3.527685e-05
   4    2.8554589e-15
   5    1.2198117e-10
   6    2.5494271e-08
   7    9.5322939e-14
   8    4.0721637e-09
   9    8.6216942e-07
   10    9.1750406e-05
   11    0.94774657
   12    0.54428115
   13    19.427463
   14    0
   15    0
   16    0.0021713462
   17    2.2818051e-15
   18    2.4804738e-11
   19    8.2920203e-11
   20   -4.4744482e-15
   21   -1.912961e-10
   22   -7.9669049e-08
   23    0
   24    0
   25    0
   26    0
   27    0
   28    0
   29    0
   30    0
   31    0
   39    7.3232066e-05
   40    0
   41    0
   42    0

BLOCK FWCOEF Q=  160
   305   4422   0   0   -0.18881911
   305   4422   0   2   -0.27022911
   305   4322   0   2   -0.00084700175
   305   6421   0   0   -0.095227835
   305   6421   0   2   -0.15440511
   305   6321   0   2   -0.00075463499
   3051111   4133   0   0    1.5845099
   3051111   4133   0   2    1.5865073
   3051111   4233   0   2    5.9427429e-05
   3051111   4137   0   0   -4.4072021
   3051111   4137   0   2   -4.4079052
   3051111   4237   0   2   -0.00046579031
   3051313   4133   0   0    1.5845099
   3051313   4133   0   2    1.5865053
   3051313   4233   0   2    5.942484e-05
   3051313   4137   0   0   -4.4072021
   3051313   4137   0   2   -4.4079073
   3051313   4237   0   2   -0.00046578881
   3051212   4137   0   0    1.5053501
   3051212   4137   0   2    1.5055103
   3051212   4237   0   2    0.00010168592
   3051414   4137   0   0    1.5053501
   3051414   4137   0   2    1.5055103
   3051414   4237   0   2    0.00010168642
   3051616   4137   0   0    1.5053501
   3051616   4137   0   2    1.5055098
   3051616   4237   0   2    0.00010182924

BLOCK IMFWCOEF Q=  160
   305   4422   0   0    3.8570711e-07
   305   4422   0   2   -1.0024969e-05
   305   4322   0   2   -6.3452918e-06
   305   6421   0   0    3.3038365e-07
   305   6421   0   2   -1.3036188e-05
   305   6321   0   2   -2.8939512e-06
   3051111   4133   0   2    1.1086808e-08
   3051111   4233   0   2    2.5969637e-06
   3051111   4137   0   2    6.2809202e-07
   3051111   4237   0   2   -2.0431218e-05
   3051313   4133   0   2    1.1061114e-08
   3051313   4233   0   2    2.596959e-06
   3051313   4137   0   2    6.2807095e-07
   3051313   4237   0   2   -2.0431233e-05
   3051212   4137   0   2   -3.3940785e-08
   3051212   4237   0   2    4.4602911e-06
   3051414   4137   0   2   -3.3940909e-08
   3051414   4237   0   2    4.4602911e-06
   3051616   4137   0   2   -4.282418e-08
   3051616   4237   0   2    4.4602959e-06

DECAY 23  2.4952


DECAY 24  2.085


DECAY 2000011  0.021253661
    0.60118242   2    1000035    11
    0.30541656   2    1000022    11
    0.075352375   2    1000023    11
    0.018040616   2    1000025    11

DECAY 1000011  0.24702164
    0.5477131   2   -1000037    12
    0.33144602   2    1000025    11
    0.037957595   2   -1000024    12
    0.037705475   2    1000035    11
    0.036042586   2    1000022    11
    0.0091352202   2    1000023    11

DECAY 2000013  0.035828944
    0.35624082   2    1000035    13
    0.28400759   2    1000022    13
    0.20360849   2   -1000024    14
    0.14545057   2    1000023    13
    0.010692013   2    1000025    13

DECAY 1000013  0.25466351
    0.53129214   2   -1000037    14
    0.32150907   2    1000025    13
    0.050101663   2    1000022    13
    0.036818617   2   -1000024    14
    0.036574967   2    1000035    13
    0.023703539   2    1000023    13

DECAY 1000015  0.043212381
    0.50121209   2   -1000024    16
    0.30049982   2    1000022    15
    0.19828809   2    1000023    15

DECAY 2000015  0.97453863
    0.34876006   2    1000022    15
    0.3417593   2    1000023    15
    0.15531201   2    1000015    25
    0.15414992   2    1000015    23

DECAY 1000012  0.3318909
    0.3818774   2    1000037    11
    0.25068489   2    1000024    11
    0.17035658   2    1000025    12
    0.093930764   2    1000022    12
    0.079634223   2    1000035    12
    0.02351614   2    1000023    12

DECAY 1000014  0.33948261
    0.37328728   2    1000037    13
    0.26752452   2    1000024    13
    0.1665257   2    1000025    14
    0.091829738   2    1000022    14
    0.077842626   2    1000035    14
    0.022990134   2    1000023    14

DECAY 1000016  0.99811473
    0.68946085   2    1000024    15
    0.29846498   2    1000015    24
    0.0097073797   2    1000022    16
    0.0023667988   2    1000023    16

DECAY 2000001  143.92315
    0.98366294   2    1000021    1
    0.015966469   2    1000035    1
    0.00034321507   2    1000025    1

DECAY 1000001  198.81131
    0.71638926   2    1000021    1
    0.1868235   2   -1000037    2
    0.086549363   2    1000025    1
    0.0094608336   2    1000035    1
    0.00046386235   2    1000022    1
    0.00019578563   2   -1000024    2
    0.00011738693   2    1000023    1

DECAY 2000003  143.94107
    0.98354327   2    1000021    3
    0.01596451   2    1000035    3
    0.00034319165   2    1000025    3

DECAY 1000003  198.82224
    0.71635158   2    1000021    3
    0.18681346   2   -1000037    4
    0.086544695   2    1000025    3
    0.0094603307   2    1000035    3
    0.00048602106   2    1000022    3
    0.0002046216   2   -1000024    4
    0.00013929439   2    1000023    3

DECAY 1000005  6.9572033
    0.47922897   2   -1000024    6
    0.26449125   2    1000022    5
    0.25584004   2    1000023    5
    0.0004397391   2    1000006   -24

DECAY 2000005  152.23159
    0.77585165   2    1000006   -24
    0.17317357   2   -1000024    6
    0.021728529   2    1000022    5
    0.021335389   2    1000023    5
    0.0036497877   2   -1000037    6
    0.0025810842   2    1000025    5
    0.0010082121   2    1000005    25
    0.00040135061   2    1000005    23
    0.00027042373   2    1000035    5

DECAY 2000002  151.07129
    0.93773007   2    1000021    2
    0.060858638   2    1000035    2
    0.0013082158   2    1000025    2

DECAY 1000002  198.80211
    0.71620521   2    1000021    2
    0.18548184   2    1000037    1
    0.096076843   2    1000025    2
    0.0017414991   2    1000024    1
    0.00030880748   2    1000022    2
    0.0001073885   2    1000035    2

DECAY 2000004  151.07487
    0.93770812   2    1000021    4
    0.060857208   2    1000035    4
    0.0013082202   2    1000025    4

DECAY 1000004  198.81291
    0.71616742   2    1000021    4
    0.18547192   2    1000037    3
    0.096071683   2    1000025    4
    0.0017854952   2    1000024    3
    0.00031319294   2    1000022    4
    0.00010739829   2    1000035    4

DECAY 1000006  13.498258
    0.48553649   2    1000024    5
    0.26238294   2    1000022    6
    0.25207269   2    1000023    6

DECAY 2000006  155.79348
    0.42052782   2    1000006    23
    0.34416269   2    1000006    25
    0.086027997   2    1000023    6
    0.083948275   2    1000022    6
    0.052409106   2    1000024    5
    0.008503099   2    1000037    5
    0.0030792264   2    1000025    6
    0.0010247455   2    1000005    24
    0.00031704791   2    1000035    6

DECAY 1000024  2.6296656e-09
    0.42251649   3    1000022   -1    2
    0.24651675   3    1000022   -3    4
    0.14084303   3    1000022   -11    12
    0.14030099   3    1000022   -13    14
    0.04982274   3    1000022   -15    16

DECAY 1000037  17.278065
    0.17096263   2    1000023    24
    0.17021966   2    1000022    24
    0.17018947   2    1000024    23
    0.16805277   2    1000024    25
    0.14542099   2    1000016   -15
    0.14422551   2   -2000015    16
    0.015857203   2    1000006   -5
    0.004982196   3    1000022   -5    6
    0.004527938   3    1000024    6   -6
    0.0044225203   3    1000023   -5    6
    0.0005786905   2   -1000015    16
    0.00048510212   3    1000024    5   -5

DECAY 1000022 -1


DECAY 1000023  2.2363642e-07
    0.52315634   2    1000022    22
    0.11687505   3    1000022    12   -12
    0.087393618   3    1000022    1   -1
    0.087258291   3    1000022    3   -3
    0.068159244   3    1000022    2   -2
    0.049488171   3    1000022    4   -4
    0.019722088   3    1000022    11   -11
    0.019674198   3    1000022    13   -13
    0.01044788   3    1000022    15   -15
    0.0035671742   3    1000024    1   -2
    0.0035671742   3   -1000024   -1    2
    0.0024038351   3    1000024    3   -4
    0.0024038351   3   -1000024   -3    4
    0.0011890686   3    1000024    11   -12
    0.0011890686   3   -1000024   -11    12
    0.0011857099   3    1000024    13   -14
    0.0011857099   3   -1000024   -13    14
    0.00056677007   3    1000024    15   -16
    0.00056677007   3   -1000024   -15    16

DECAY 1000025  19.323122
    0.17820056   2    1000024   -24
    0.17820056   2   -1000024    24
    0.11501932   2    1000023    25
    0.10061553   2    1000023    23
    0.097902508   2    1000022    25
    0.072731967   2    2000015   -15
    0.072731967   2   -2000015    15
    0.053955744   2    1000016   -16
    0.053955744   2   -1000016    16
    0.024773235   2    1000022    23
    0.016039286   2    1000006   -6
    0.016039286   2   -1000006    6
    0.0051713092   3    1000024    5   -6
    0.0051713092   3   -1000024   -5    6
    0.0031414502   2    1000015   -15
    0.0031414502   2   -1000015    15
    0.0012964065   3    1000023    6   -6
    0.0011184151   3    1000022    6   -6
    0.00020529228   3    1000022    5   -5
    0.00018299696   3    1000023    5   -5
    0.00015978678   2    1000005   -5
    0.00015978678   2   -1000005    5

DECAY 1000035  15.374334
    0.16504194   2    1000015   -15
    0.16504194   2   -1000015    15
    0.11850165   2    1000006   -6
    0.11850165   2   -1000006    6
    0.078636936   2    1000023    25
    0.077855614   2    1000023    23
    0.066905288   2    1000022    25
    0.037277367   2    1000016   -16
    0.037277367   2   -1000016    16
    0.033910706   2    1000024   -24
    0.033910706   2   -1000024    24
    0.0188529   2    1000022    23
    0.012582604   2    2000015   -15
    0.012582604   2   -2000015    15
    0.0094853679   2    1000005   -5
    0.0094853679   2   -1000005    5
    0.0010400435   3    1000023    6   -6
    0.00099549181   3    1000024    5   -6
    0.00099549181   3   -1000024   -5    6
    0.00090252785   3    1000022    6   -6

DECAY 1000021  250.89494
    0.17230307   2    1000006   -6
    0.17230307   2   -1000006    6
    0.14029734   2    1000005   -5
    0.14029734   2   -1000005    5
    0.099507286   2    2000005   -5
    0.099507286   2   -2000005    5
    0.084313933   2    2000006   -6
    0.084313933   2   -2000006    6
    0.003511961   2    1000006   -4
    0.003511961   2   -1000006    4

DECAY 25  0.0034470084
    0.64196983   2   -5    5
    0.1637359   2   -24    24
    0.072127476   2   -15    15
    0.068838161   2    21    21
    0.031109232   2   -4    4
    0.018244754   2    23    23
    0.0023443614   2    22    22
    0.0011422579   2    22    23
    0.00025022384   2   -13    13
    0.00023698402   2   -3    3
    6.5523508e-07   2   -1    1
    1.6032726e-07   2   -2    2
    5.6253665e-09   2   -11    11

DECAY 35  11.058427
    0.80190402   2   -5    5
    0.19272717   2   -15    15
    0.0023377379   2   -6    6
    0.0011431632   2   -1000024    1000024
    0.00069183082   2   -13    13
    0.00046570125   2   -3    3
    0.0004478986   2    1000022    1000022
    0.00014551809   2    1000022    1000023
    8.7655857e-05   2    1000023    1000023
    2.1395367e-05   2    21    21
    2.1148736e-05   2   -1000015    1000015
    4.2343685e-06   2    25    25
    1.2876226e-06   2   -1    1
    5.9672101e-07   2   -24    24
    5.6050019e-07   2    23    23
    5.3093133e-08   2   -4    4
    1.554246e-08   2   -11    11
    1.1951796e-08   2    22    23
    7.0592648e-09   2    22    22
    2.7382448e-13   2   -2    2

DECAY 36  10.849875
    0.79839799   2   -5    5
    0.19184185   2   -15    15
    0.0040361428   2   -1000024    1000024
    0.0026380511   2   -6    6
    0.0014135746   2    1000022    1000022
    0.00068862893   2   -13    13
    0.00046353273   2   -3    3
    0.00038433111   2    1000023    1000023
    7.2865026e-05   2    21    21
    6.0470399e-05   2    1000022    1000023
    1.2816271e-06   2   -1    1
    7.8731277e-07   2    23    25
    2.1326811e-07   2    22    22
    2.0969549e-07   2    22    23
    5.338477e-08   2   -4    4
    1.5470537e-08   2   -11    11
    2.7544061e-13   2   -2    2
    7.8468829e-41   2    25    25

DECAY 37  10.656176
    0.78254803   2   -5    6
    0.21458556   2   -15    16
    0.0011802349   2   -5    4
    0.00075863928   2   -13    14
    0.00042976598   2   -3    4
    0.00042668596   2    1000023    1000024
    3.2437186e-05   2    1000022    1000024
    1.9902675e-05   2   -3    2
    8.42811e-06   2   -5    2
    7.8940602e-06   2   -3    6
    1.1928734e-06   2   -1    2
    8.1132544e-07   2    24    25
    3.3417985e-07   2   -1    6
    5.8250365e-08   2   -1    4
    1.7744652e-08   2   -11    12
    4.7539648e-11   2    24    35
    4.2012083e-11   2    24    36

DECAY 6  2.43
    1   2    5    24

DECAY 15 -1
