# SUSY Les Houches Accord 2 - MSSM spectrum + Decays
# SPheno v4.0.5be
# W. Porod, Comput. Phys. Commun. 153 (2003) 275-315, hep-ph/0301101;
# W. Porod, F.~Staub, Comput. Phys. Commun. 183 (2012) 2458
#                     arXiv:1104.1573 [hep-ph] 
# in case of problems send email to porod@physik.uni-wuerzburg.de
# Created: 07.09.2021,  15:14
Block SPINFO         # Program information
     1   SPheno      # spectrum calculator
     2   v4.0.5be    # version number
#
Block SPhenoINFO     # SPheno specific information
    1      2         # using 2-loop RGEs
    2      2         # using pole masses for boundary conditions at mZ
Block MODSEL  # Model selection
    1    0    # general MSSM
Block MINPAR  # Input parameters
    3    4.29195326E+01  # tanb at m_Z    
    4   -1.00000000E+00  # Sign(mu)
Block EXTPAR  # non-universal input parameters
    0    4.00808199E+03  # scale for input parameters
    1    2.23157895E+02  # M_1
    2    6.92862476E+02  # M_2
    3    3.37392723E+03  # M_3
   11    3.87778605E+03  # A_t
   12   -7.59484085E+02  # A_b
   13    3.86944562E+02  # A_tau
   23   -2.45825020E+02  # mu
   25    4.19509349E+01  # tan(beta)
   26    8.74548125E+02  # m_A, pole mass
   31    1.00000000E+04  # M_L11
   32    1.00000000E+04  # M_L22
   33    1.00000000E+04  # M_L33
   34    1.00000000E+04  # M_E11
   35    1.00000000E+04  # M_E22
   36    1.00000000E+04  # M_E33
   41    1.00000000E+04  # M_Q11
   42    1.00000000E+04  # M_Q22
   43    3.80933151E+03  # M_Q33
   44    1.00000000E+04  # M_U11
   45    1.00000000E+04  # M_U22
   46    4.11149171E+03  # M_U33
   47    1.00000000E+04  # M_D11
   48    1.00000000E+04  # M_D22
   49    3.04490595E+03  # M_D33
Block SMINPUTS  # SM parameters
         1     1.27908970E+02  # alpha_em^-1(MZ)^MSbar
         2     1.16637870E-05  # G_mu [GeV^-2]
         3     1.18400000E-01  # alpha_s(MZ)^MSbar
         4     9.11876000E+01  # m_Z(pole)
         5     4.18000000E+00  # m_b(m_b), MSbar
         6     1.73200000E+02  # m_t(pole)
         7     1.77700000E+00  # m_tau(pole)
         8     0.00000000E+00  # m_nu_3
        11     5.10998930E-04  # m_e(pole)
        12     0.00000000E+00  # m_nu_1
        13     1.05658372E-01  # m_muon(pole)
        14     0.00000000E+00  # m_nu_2
        21     5.00000000E-03  # m_d(2 GeV), MSbar
        22     2.50000000E-03  # m_u(2 GeV), MSbar
        23     9.50000000E-02  # m_s(2 GeV), MSbar
        24     1.27000000E+00  # m_c(m_c), MSbar
Block gauge Q=  4.00808199E+03  # (SUSY scale)
   1    3.55362975E-01  # g'(Q)^DRbar
   2    6.65198874E-01  # g(Q)^DRbar
   3    1.21977796E+00  # g3(Q)^DRbar
Block Yu Q=  4.00808199E+03  # (SUSY scale)
  1  1     8.38675388E-06   # Y_u(Q)^DRbar
  2  2     4.26047097E-03   # Y_c(Q)^DRbar
  3  3     1.01318723E+00   # Y_t(Q)^DRbar
Block Yd Q=  4.00808199E+03  # (SUSY scale)
  1  1     7.06994100E-04   # Y_d(Q)^DRbar
  2  2     1.34328879E-02   # Y_s(Q)^DRbar
  3  3     7.01116607E-01   # Y_b(Q)^DRbar
Block Ye Q=  4.00808199E+03  # (SUSY scale)
  1  1     1.23375640E-04   # Y_e(Q)^DRbar
  2  2     2.55101695E-02   # Y_mu(Q)^DRbar
  3  3     4.29039084E-01   # Y_tau(Q)^DRbar
Block Au Q=  4.00808199E+03  # (SUSY scale)
  1  1     0.00000000E+00   # A_u(Q)^DRbar
  2  2     0.00000000E+00   # A_c(Q)^DRbar
  3  3     3.87778524E+03   # A_t(Q)^DRbar
Block Ad Q=  4.00808199E+03  # (SUSY scale)
  1  1     0.00000000E+00   # A_d(Q)^DRbar
  2  2     0.00000000E+00   # A_s(Q)^DRbar
  3  3    -7.59483872E+02   # A_b(Q)^DRbar
Block Ae Q=  4.00808199E+03  # (SUSY scale)
  1  1     0.00000000E+00   # A_e(Q)^DRbar
  2  2     0.00000000E+00   # A_mu(Q)^DRbar
  3  3     3.86944560E+02   # A_tau(Q)^DRbar
Block MSOFT Q=  4.00808199E+03  # soft SUSY breaking masses at Q
   1    2.23157895E+02  # M_1
   2    6.92862476E+02  # M_2
   3    3.37392723E+03  # M_3
  21    6.99322257E+05  # M^2_(H,d)
  22    2.94946502E+05  # M^2_(H,u)
  31    1.00000000E+04  # M_(L,11)
  32    1.00000000E+04  # M_(L,22)
  33    1.00000000E+04  # M_(L,33)
  34    1.00000000E+04  # M_(E,11)
  35    1.00000000E+04  # M_(E,22)
  36    1.00000000E+04  # M_(E,33)
  41    1.00000000E+04  # M_(Q,11)
  42    1.00000000E+04  # M_(Q,22)
  43    3.80933151E+03  # M_(Q,33)
  44    1.00000000E+04  # M_(U,11)
  45    1.00000000E+04  # M_(U,22)
  46    4.11149171E+03  # M_(U,33)
  47    1.00000000E+04  # M_(D,11)
  48    1.00000000E+04  # M_(D,22)
  49    3.04490595E+03  # M_(D,33)
Block MASS  # Mass spectrum
#   PDG code      mass          particle
         6     1.73200000E+02  # m_t(pole)
        23     9.11876000E+01  # m_Z(pole)
        24     8.04299946E+01  # W+
        15     1.77700000E+00  # m_tau(pole)
        25     1.25105320E+02  # h0
        35     8.74547658E+02  # H0
        36     8.74548125E+02  # A0
        37     8.83862225E+02  # H+
   1000001     1.01081161E+04  # ~d_L
   2000001     1.00832822E+04  # ~d_R
   1000002     1.01077508E+04  # ~u_L
   2000002     1.00865033E+04  # ~u_R
   1000003     1.01081191E+04  # ~s_L
   2000003     1.00832874E+04  # ~s_R
   1000004     1.01077538E+04  # ~c_L
   2000004     1.00865039E+04  # ~c_R
   1000005     3.16595318E+03  # ~b_1
   2000005     3.88629925E+03  # ~b_2
   1000006     3.87360961E+03  # ~t_1
   2000006     4.14722257E+03  # ~t_2
   1000011     1.00213396E+04  # ~e_L-
   2000011     1.00088779E+04  # ~e_R-
   1000012     1.00205698E+04  # ~nu_eL
   1000013     1.00213534E+04  # ~mu_L-
   2000013     1.00089043E+04  # ~mu_R-
   1000014     1.00205834E+04  # ~nu_muL
   1000015     1.00163734E+04  # ~tau_1-
   2000015     1.00253343E+04  # ~tau_2-
   1000016     1.00244613E+04  # ~nu_tauL
   1000021     3.85641130E+03  # ~g
   1000022     2.08125944E+02  # ~chi_10
   1000023     2.68740851E+02  # ~chi_20
   1000025     2.75623075E+02  # ~chi_30
   1000035     7.58156085E+02  # ~chi_40
   1000024     2.60691490E+02  # ~chi_1+
   1000037     7.58279679E+02  # ~chi_2+
# Higgs mixing
Block alpha # Effective Higgs mixing angle
          -2.39284869E-02   # alpha
Block Hmix Q=  4.00808199E+03  # Higgs mixing parameters
   1   -2.45825020E+02  # mu
   2    4.19509349E+01  # tan[beta](Q)
   3    2.42936405E+02  # v(Q)
   4    7.64834423E+05  # m^2_A(Q)
Block stopmix # stop mixing matrix
   1  1    -9.75496459E-01   # Re[R_st(1,1)]
   1  2     2.20015133E-01   # Re[R_st(1,2)]
   2  1    -2.20015133E-01   # Re[R_st(2,1)]
   2  2    -9.75496459E-01   # Re[R_st(2,2)]
Block sbotmix # sbottom mixing matrix
   1  1    -3.82550092E-03   # Re[R_sb(1,1)]
   1  2     9.99992683E-01   # Re[R_sb(1,2)]
   2  1    -9.99992683E-01   # Re[R_sb(2,1)]
   2  2    -3.82550092E-03   # Re[R_sb(2,2)]
Block staumix # stau mixing matrix
   1  1    -1.05202943E-01   # Re[R_sta(1,1)]
   1  2     9.94450773E-01   # Re[R_sta(1,2)]
   2  1    -9.94450773E-01   # Re[R_sta(2,1)]
   2  2    -1.05202943E-01   # Re[R_sta(2,2)]
Block Nmix # neutralino mixing matrix
   1  1    -8.51744274E-01   # Re[N(1,1)]
   1  2     4.59101982E-02   # Re[N(1,2)]
   1  3     4.11221715E-01   # Re[N(1,3)]
   1  4     3.21435291E-01   # Re[N(1,4)]
   2  1     6.53666049E-02   # Re[N(2,1)]
   2  2    -5.77308444E-02   # Re[N(2,2)]
   2  3     6.97668447E-01   # Re[N(2,3)]
   2  4    -7.11092887E-01   # Re[N(2,4)]
   3  1    -5.19768201E-01   # Re[N(3,1)]
   3  2    -1.01572506E-01   # Re[N(3,2)]
   3  3    -5.85391775E-01   # Re[N(3,3)]
   3  4    -6.13873369E-01   # Re[N(3,4)]
   4  1    -9.99580857E-03   # Re[N(4,1)]
   4  2     9.92089930E-01   # Re[N(4,2)]
   4  3    -3.83654650E-02   # Re[N(4,3)]
   4  4    -1.19103928E-01   # Re[N(4,4)]
Block Umix # chargino mixing matrix
   1  1    -5.43387846E-02   # Re[U(1,1)]
   1  2    -9.98522557E-01   # Re[U(1,2)]
   2  1     9.98522557E-01   # Re[U(2,1)]
   2  2    -5.43387846E-02   # Re[U(2,2)]
Block Vmix # chargino mixing matrix
   1  1    -1.68520764E-01   # Re[V(1,1)]
   1  2     9.85698104E-01   # Re[V(1,2)]
   2  1     9.85698104E-01   # Re[V(2,1)]
   2  2     1.68520764E-01   # Re[V(2,2)]
DECAY        23     2.49520000E+00   # Z
DECAY        24     2.08500000E+00   # W
DECAY   2000011     5.02384511E+01   # ~e^-_R
#    BR                NDA      ID1      ID2
     7.25598608E-01    2     1000022        11   # BR(~e^-_R -> chi^0_1 e^-)
     4.27112283E-03    2     1000023        11   # BR(~e^-_R -> chi^0_2 e^-)
     2.70031333E-01    2     1000025        11   # BR(~e^-_R -> chi^0_3 e^-)
DECAY   1000011     1.43405044E+02   # ~e^-_L
#    BR                NDA      ID1      ID2
     5.14361288E-02    2     1000022        11   # BR(~e^-_L -> chi^0_1 e^-)
     1.59824399E-04    2     1000023        11   # BR(~e^-_L -> chi^0_2 e^-)
     4.41716258E-02    2     1000025        11   # BR(~e^-_L -> chi^0_3 e^-)
     2.96069080E-01    2     1000035        11   # BR(~e^-_L -> chi^0_4 e^-)
     1.81395441E-03    2    -1000024        12   # BR(~e^-_L -> chi^-_1 nu_e)
     6.06349387E-01    2    -1000037        12   # BR(~e^-_L -> chi^-_2 nu_e)
#    BR                NDA      ID1      ID2       ID3
DECAY   2000013     5.04973818E+01   # ~mu^-_R
#    BR                NDA      ID1      ID2
     7.22313498E-01    2     1000022        13   # BR(~mu^-_R -> chi^0_1 mu^-)
     5.49643079E-03    2     1000023        13   # BR(~mu^-_R -> chi^0_2 mu^-)
     2.69525420E-01    2     1000025        13   # BR(~mu^-_R -> chi^0_3 mu^-)
     1.02103165E-04    2     1000035        13   # BR(~mu^-_R -> chi^0_4 mu^-)
     2.55505836E-03    2    -1000024        14   # BR(~mu^-_R -> chi^-_1 nu_mu)
DECAY   1000013     1.43534806E+02   # ~mu^-_L
#    BR                NDA      ID1      ID2
     5.15424156E-02    2     1000022        13   # BR(~mu^-_L -> chi^0_1 mu^-)
     5.99008076E-04    2     1000023        13   # BR(~mu^-_L -> chi^0_2 mu^-)
     4.44410377E-02    2     1000025        13   # BR(~mu^-_L -> chi^0_3 mu^-)
     2.95803150E-01    2     1000035        13   # BR(~mu^-_L -> chi^0_4 mu^-)
     1.81231702E-03    2    -1000024        14   # BR(~mu^-_L -> chi^-_1 nu_mu)
     6.05802072E-01    2    -1000037        14   # BR(~mu^-_L -> chi^-_2 nu_mu)
#    BR                NDA      ID1      ID2       ID3
DECAY   1000015     1.24170782E+02   # ~tau^-_1
#    BR                NDA      ID1      ID2
     3.55055727E-01    2     1000022        15   # BR(~tau^-_1 -> chi^0_1 tau^-)
     1.40916230E-01    2     1000023        15   # BR(~tau^-_1 -> chi^0_2 tau^-)
     2.02788309E-01    2     1000025        15   # BR(~tau^-_1 -> chi^0_3 tau^-)
     1.68842460E-03    2     1000035        15   # BR(~tau^-_1 -> chi^0_4 tau^-)
     2.96092395E-01    2    -1000024        16   # BR(~tau^-_1 -> chi^-_1 nu_tau)
     3.45891481E-03    2    -1000037        16   # BR(~tau^-_1 -> chi^-_2 nu_tau)
DECAY   2000015     1.79490070E+02   # ~tau^-_2
#    BR                NDA      ID1      ID2
     6.78096295E-02    2     1000022        15   # BR(~tau^-_2 -> chi^0_1 tau^-)
     1.02583830E-01    2     1000023        15   # BR(~tau^-_2 -> chi^0_2 tau^-)
     1.10570204E-01    2     1000025        15   # BR(~tau^-_2 -> chi^0_3 tau^-)
     2.36096649E-01    2     1000035        15   # BR(~tau^-_2 -> chi^0_4 tau^-)
     4.82847309E-01    2    -1000037        16   # BR(~tau^-_2 -> chi^-_2 nu_tau)
#    BR                NDA      ID1      ID2       ID3
DECAY   1000012     1.43409559E+02   # ~nu_e
#    BR                NDA      ID1      ID2
     7.71073986E-02    2     1000022        12   # BR(~nu_e -> chi^0_1 nu_e)
     2.63628928E-03    2     1000023        12   # BR(~nu_e -> chi^0_2 nu_e)
     9.52293693E-03    2     1000025        12   # BR(~nu_e -> chi^0_3 nu_e)
     3.02479382E-01    2     1000035        12   # BR(~nu_e -> chi^0_4 nu_e)
     1.74448310E-02    2     1000024        11   # BR(~nu_e -> chi^+_1 e^-)
     5.90809162E-01    2     1000037        11   # BR(~nu_e -> chi^+_2 e^-)
#    BR                NDA      ID1      ID2       ID3
DECAY   1000014     1.43539308E+02   # ~nu_mu
#    BR                NDA      ID1      ID2
     7.70378039E-02    2     1000022        14   # BR(~nu_mu -> chi^0_1 nu_mu)
     2.63390985E-03    2     1000023        14   # BR(~nu_mu -> chi^0_2 nu_mu)
     9.51434184E-03    2     1000025        14   # BR(~nu_mu -> chi^0_3 nu_mu)
     3.02206383E-01    2     1000035        14   # BR(~nu_mu -> chi^0_4 nu_mu)
     1.83289949E-02    2     1000024        13   # BR(~nu_mu -> chi^+_1 mu^-)
     5.90278567E-01    2     1000037        13   # BR(~nu_mu -> chi^+_2 mu^-)
#    BR                NDA      ID1      ID2       ID3
DECAY   1000016     1.80125730E+02   # ~nu_tau
#    BR                NDA      ID1      ID2
     6.14139900E-02    2     1000022        16   # BR(~nu_tau -> chi^0_1 nu_tau)
     2.09973516E-03    2     1000023        16   # BR(~nu_tau -> chi^0_2 nu_tau)
     7.58476955E-03    2     1000025        16   # BR(~nu_tau -> chi^0_3 nu_tau)
     2.40918767E-01    2     1000035        16   # BR(~nu_tau -> chi^0_4 nu_tau)
     2.16821111E-01    2     1000024        15   # BR(~nu_tau -> chi^+_1 tau^-)
     4.71161628E-01    2     1000037        15   # BR(~nu_tau -> chi^+_2 tau^-)
#    BR                NDA      ID1      ID2       ID3
DECAY   2000001     5.85721140E+02   # ~d_R
#    BR                NDA      ID1      ID2
     6.96663611E-03    2     1000022         1   # BR(~d_R -> chi^0_1 d)
     2.59270432E-03    2     1000025         1   # BR(~d_R -> chi^0_3 d)
     9.90398448E-01    2     1000021         1   # BR(~d_R -> ~g d)
DECAY   1000001     7.15897724E+02   # ~d_L
#    BR                NDA      ID1      ID2
     2.42414680E-03    2     1000022         1   # BR(~d_L -> chi^0_1 d)
     2.98718552E-04    2     1000023         1   # BR(~d_L -> chi^0_2 d)
     6.06989632E-02    2     1000035         1   # BR(~d_L -> chi^0_4 d)
     3.66517177E-04    2    -1000024         2   # BR(~d_L -> chi^-_1 u)
     1.22536743E-01    2    -1000037         2   # BR(~d_L -> chi^-_2 u)
     8.13669819E-01    2     1000021         1   # BR(~d_L -> ~g d)
DECAY   2000003     5.85793742E+02   # ~s_R
#    BR                NDA      ID1      ID2
     6.97618805E-03    2     1000022         3   # BR(~s_R -> chi^0_1 s)
     2.61346836E-03    2     1000025         3   # BR(~s_R -> chi^0_3 s)
     9.90276561E-01    2     1000021         3   # BR(~s_R -> ~g s)
DECAY   1000003     7.15937835E+02   # ~s_L
#    BR                NDA      ID1      ID2
     2.43255168E-03    2     1000022         3   # BR(~s_L -> chi^0_1 s)
     3.23268197E-04    2     1000023         3   # BR(~s_L -> chi^0_2 s)
     6.06956540E-02    2     1000035         3   # BR(~s_L -> chi^0_4 s)
     3.71443201E-04    2    -1000024         4   # BR(~s_L -> chi^-_1 c)
     1.22530059E-01    2    -1000037         4   # BR(~s_L -> chi^-_2 c)
     8.13624638E-01    2     1000021         3   # BR(~s_L -> ~g s)
DECAY   1000005     6.26311401E+01   # ~b_1
#    BR                NDA      ID1      ID2
     1.03702957E-01    2     1000022         5   # BR(~b_1 -> chi^0_1 b)
     2.37114449E-01    2     1000023         5   # BR(~b_1 -> chi^0_2 b)
     1.74077751E-01    2     1000025         5   # BR(~b_1 -> chi^0_3 b)
     5.65593087E-04    2     1000035         5   # BR(~b_1 -> chi^0_4 b)
     4.83417912E-01    2    -1000024         6   # BR(~b_1 -> chi^-_1 t)
     1.12133771E-03    2    -1000037         6   # BR(~b_1 -> chi^-_2 t)
DECAY   2000005     1.64119949E+02   # ~b_2
#    BR                NDA      ID1      ID2
     4.27403358E-02    2     1000022         5   # BR(~b_2 -> chi^0_1 b)
     1.12210279E-01    2     1000023         5   # BR(~b_2 -> chi^0_2 b)
     7.86892253E-02    2     1000025         5   # BR(~b_2 -> chi^0_3 b)
     9.56162502E-02    2     1000035         5   # BR(~b_2 -> chi^0_4 b)
     4.64104323E-01    2    -1000024         6   # BR(~b_2 -> chi^-_1 t)
     2.06007551E-01    2    -1000037         6   # BR(~b_2 -> chi^-_2 t)
     4.34637414E-04    2     1000021         5   # BR(~b_2 -> ~g b)
     1.31281301E-04    2     1000005        25   # BR(~b_2 -> ~b_1 h^0)
DECAY   2000002     6.02911336E+02   # ~u_R
#    BR                NDA      ID1      ID2
     2.70805645E-02    2     1000022         2   # BR(~u_R -> chi^0_1 u)
     1.59405843E-04    2     1000023         2   # BR(~u_R -> chi^0_2 u)
     1.00781253E-02    2     1000025         2   # BR(~u_R -> chi^0_3 u)
     9.62678214E-01    2     1000021         2   # BR(~u_R -> ~g u)
DECAY   1000002     7.15882062E+02   # ~u_L
#    BR                NDA      ID1      ID2
     6.94568050E-04    2     1000022         2   # BR(~u_L -> chi^0_1 u)
     1.31834826E-04    2     1000023         2   # BR(~u_L -> chi^0_2 u)
     2.33858451E-03    2     1000025         2   # BR(~u_L -> chi^0_3 u)
     6.02639935E-02    2     1000035         2   # BR(~u_L -> chi^0_4 u)
     3.52526931E-03    2     1000024         1   # BR(~u_L -> chi^+_1 d)
     1.19407572E-01    2     1000037         1   # BR(~u_L -> chi^+_2 d)
     8.13638178E-01    2     1000021         2   # BR(~u_L -> ~g u)
DECAY   2000004     6.02918637E+02   # ~c_R
#    BR                NDA      ID1      ID2
     2.70808593E-02    2     1000022         4   # BR(~c_R -> chi^0_1 c)
     1.62454020E-04    2     1000023         4   # BR(~c_R -> chi^0_2 c)
     1.00802789E-02    2     1000025         4   # BR(~c_R -> chi^0_3 c)
     9.62666601E-01    2     1000021         4   # BR(~c_R -> ~g c)
DECAY   1000004     7.15922141E+02   # ~c_L
#    BR                NDA      ID1      ID2
     6.95055887E-04    2     1000022         4   # BR(~c_L -> chi^0_1 c)
     1.34401576E-04    2     1000023         4   # BR(~c_L -> chi^0_2 c)
     2.34037160E-03    2     1000025         4   # BR(~c_L -> chi^0_3 c)
     6.02607100E-02    2     1000035         4   # BR(~c_L -> chi^0_4 c)
     3.57539980E-03    2     1000024         3   # BR(~c_L -> chi^+_1 s)
     1.19401070E-01    2     1000037         3   # BR(~c_L -> chi^+_2 s)
     8.13592991E-01    2     1000021         4   # BR(~c_L -> ~g c)
DECAY   1000006     1.66696631E+02   # ~t_1
#    BR                NDA      ID1      ID2
     3.64933780E-02    2     1000022         6   # BR(~t_1 -> chi^0_1 t)
     2.31317672E-01    2     1000023         6   # BR(~t_1 -> chi^0_2 t)
     1.90859232E-01    2     1000025         6   # BR(~t_1 -> chi^0_3 t)
     1.05327597E-01    2     1000035         6   # BR(~t_1 -> chi^0_4 t)
     2.19230473E-01    2     1000024         5   # BR(~t_1 -> chi^+_1 b)
     1.96642705E-01    2     1000037         5   # BR(~t_1 -> chi^+_2 b)
     1.18541397E-04    2     1000005        24   # BR(~t_1 -> ~b_1 W^+)
#    BR                NDA      ID1      ID2       ID3
     1.99613339E-02    3     1000022        24         5   # BR(~t_1 -> chi^0_1 W^+ b)
DECAY   2000006     1.91809261E+02   # ~t_2
#    BR                NDA      ID1      ID2
     9.19966038E-02    2     1000022         6   # BR(~t_2 -> chi^0_1 t)
     2.25972037E-01    2     1000023         6   # BR(~t_2 -> chi^0_2 t)
     1.67487947E-01    2     1000025         6   # BR(~t_2 -> chi^0_3 t)
     3.05451259E-04    2     1000035         6   # BR(~t_2 -> chi^0_4 t)
     4.35948509E-01    2     1000024         5   # BR(~t_2 -> chi^+_1 b)
     2.28113795E-04    2     1000037         5   # BR(~t_2 -> chi^+_2 b)
     3.09521155E-02    2     1000021         6   # BR(~t_2 -> ~g t)
     1.90842356E-02    2     2000005        24   # BR(~t_2 -> ~b_2 W^+)
     1.01446515E-02    2     1000006        23   # BR(~t_2 -> ~t_1 Z)
     1.78674448E-02    2     1000006        25   # BR(~t_2 -> ~t_1 h^0)
DECAY   1000024     1.61328907E-04   # chi^+_1
#    BR                NDA      ID1      ID2       ID3
     3.33777412E-01    3     1000022        -1         2   # BR(chi^+_1 -> chi^0_1 d_bar u)
     3.32989202E-01    3     1000022        -3         4   # BR(chi^+_1 -> chi^0_1 s_bar c)
     1.11259334E-01    3     1000022       -11        12   # BR(chi^+_1 -> chi^0_1 e^+ nu_e)
     1.11258994E-01    3     1000022       -13        14   # BR(chi^+_1 -> chi^0_1 mu^+ nu_mu)
     1.10715057E-01    3     1000022       -15        16   # BR(chi^+_1 -> chi^0_1 tau^+ nu_tau)
DECAY   1000037     6.12089849E+00   # chi^+_2
#    BR                NDA      ID1      ID2
     3.60722464E-02    2     1000022        24   # BR(chi^+_2 -> chi^0_1 W^+)
     2.60706178E-01    2     1000023        24   # BR(chi^+_2 -> chi^0_2 W^+)
     2.15953378E-01    2     1000025        24   # BR(chi^+_2 -> chi^0_3 W^+)
     2.47810548E-01    2     1000024        23   # BR(chi^+_2 -> chi^+_1 Z)
     2.34079091E-01    2     1000024        25   # BR(chi^+_2 -> chi^+_1 h^0)
#    BR                NDA      ID1      ID2       ID3
     7.75202503E-04    3     1000024         6        -6   # BR(chi^+_2 -> chi^+_1 t t_bar)
     1.60738281E-04    3     1000024         5        -5   # BR(chi^+_2 -> chi^+_1 b b_bar)
     3.72734973E-04    3     1000022        -5         6   # BR(chi^+_2 -> chi^0_1 b_bar t)
     2.32780948E-03    3     1000023        -5         6   # BR(chi^+_2 -> chi^0_2 b_bar t)
     1.70418630E-03    3     1000025        -5         6   # BR(chi^+_2 -> chi^0_3 b_bar t)
DECAY   1000022     0.00000000E+00   # chi^0_1
DECAY   1000023     8.94670990E-04   # chi^0_2
#    BR                NDA      ID1      ID2
     6.84458056E-03    2     1000022        22   # BR(chi^0_2 -> chi^0_1 photon)
#    BR                NDA      ID1      ID2       ID3
     1.18622301E-01    3     1000022         2        -2   # BR(chi^0_2 -> chi^0_1 u u_bar)
     1.18066844E-01    3     1000022         4        -4   # BR(chi^0_2 -> chi^0_1 c c_bar)
     1.52096848E-01    3     1000022         1        -1   # BR(chi^0_2 -> chi^0_1 d d_bar)
     1.52093498E-01    3     1000022         3        -3   # BR(chi^0_2 -> chi^0_1 s s_bar)
     1.45960251E-01    3     1000022         5        -5   # BR(chi^0_2 -> chi^0_1 b b_bar)
     3.43237509E-02    3     1000022        11       -11   # BR(chi^0_2 -> chi^0_1 e^- e^+)
     3.43225370E-02    3     1000022        13       -13   # BR(chi^0_2 -> chi^0_1 mu^- mu^+)
     3.39824274E-02    3     1000022        15       -15   # BR(chi^0_2 -> chi^0_1 tau^- tau^+)
     2.03399564E-01    3     1000022        12       -12   # BR(chi^0_2 -> chi^0_1 nu_e nu_bar_e)
DECAY   1000025     1.42021372E-05   # chi^0_3
#    BR                NDA      ID1      ID2
     6.77860562E-03    2     1000022        22   # BR(chi^0_3 -> chi^0_1 photon)
     2.88996590E-03    2     1000023        22   # BR(chi^0_3 -> chi^0_2 photon)
#    BR                NDA      ID1      ID2       ID3
     1.05569104E-01    3     1000022         2        -2   # BR(chi^0_3 -> chi^0_1 u u_bar)
     1.05217225E-01    3     1000022         4        -4   # BR(chi^0_3 -> chi^0_1 c c_bar)
     1.35320804E-01    3     1000022         1        -1   # BR(chi^0_3 -> chi^0_1 d d_bar)
     1.35318709E-01    3     1000022         3        -3   # BR(chi^0_3 -> chi^0_1 s s_bar)
     1.32593368E-01    3     1000022         5        -5   # BR(chi^0_3 -> chi^0_1 b b_bar)
     3.05006566E-02    3     1000022        11       -11   # BR(chi^0_3 -> chi^0_1 e^- e^+)
     3.04998047E-02    3     1000022        13       -13   # BR(chi^0_3 -> chi^0_1 mu^- mu^+)
     3.02605200E-02    3     1000022        15       -15   # BR(chi^0_3 -> chi^0_1 tau^- tau^+)
     1.80998333E-01    3     1000022        12       -12   # BR(chi^0_3 -> chi^0_1 nu_e nu_bar_e)
     3.09971004E-04    3     1000023         2        -2   # BR(chi^0_3 -> chi^0_2 u u_bar)
     1.95219695E-04    3     1000023         4        -4   # BR(chi^0_3 -> chi^0_2 c c_bar)
     3.97444852E-04    3     1000023         1        -1   # BR(chi^0_3 -> chi^0_2 d d_bar)
     3.96564108E-04    3     1000023         3        -3   # BR(chi^0_3 -> chi^0_2 s s_bar)
     5.31496509E-04    3     1000023        12       -12   # BR(chi^0_3 -> chi^0_2 nu_e nu_bar_e)
     1.73302566E-02    3     1000024         1        -2   # BR(chi^0_3 -> chi^+_1 d u_bar)
     1.73302566E-02    3    -1000024        -1         2   # BR(chi^0_3 -> chi^-_1 d_bar u)
     1.67274537E-02    3     1000024         3        -4   # BR(chi^0_3 -> chi^+_1 s c_bar)
     1.67274537E-02    3    -1000024        -3         4   # BR(chi^0_3 -> chi^-_1 s_bar c)
     5.77673128E-03    3     1000024        11       -12   # BR(chi^0_3 -> chi^+_1 e^- nu_bar_e)
     5.77673128E-03    3    -1000024       -11        12   # BR(chi^0_3 -> chi^-_1 e^+ nu_e)
     5.77534139E-03    3     1000024        13       -14   # BR(chi^0_3 -> chi^+_1 mu^- nu_bar_mu)
     5.77534139E-03    3    -1000024       -13        14   # BR(chi^0_3 -> chi^-_1 mu^+ nu_mu)
     5.39598190E-03    3     1000024        15       -16   # BR(chi^0_3 -> chi^+_1 tau^- nu_bar_tau)
     5.39598190E-03    3    -1000024       -15        16   # BR(chi^0_3 -> chi^-_1 tau^+ nu_tau)
DECAY   1000035     7.16245856E+00   # chi^0_4
#    BR                NDA      ID1      ID2
     2.17600796E-01    2     1000024       -24   # BR(chi^0_4 -> chi^+_1 W^-)
     2.17600796E-01    2    -1000024        24   # BR(chi^0_4 -> chi^-_1 W^+)
     8.50913523E-03    2     1000022        23   # BR(chi^0_4 -> chi^0_1 Z)
     1.78474310E-01    2     1000023        23   # BR(chi^0_4 -> chi^0_2 Z)
     3.60994052E-02    2     1000025        23   # BR(chi^0_4 -> chi^0_3 Z)
     2.10147286E-02    2     1000022        25   # BR(chi^0_4 -> chi^0_1 h^0)
     1.80469883E-01    2     1000023        25   # BR(chi^0_4 -> chi^0_2 h^0)
     1.36033036E-01    2     1000025        25   # BR(chi^0_4 -> chi^0_3 h^0)
#    BR                NDA      ID1      ID2       ID3
     2.00363898E-04    3     1000023         6        -6   # BR(chi^0_4 -> chi^0_2 t t_bar)
     1.39687348E-04    3     1000025         6        -6   # BR(chi^0_4 -> chi^0_3 t t_bar)
     1.81281937E-03    3     1000024         5        -6   # BR(chi^0_4 -> chi^+_1 b t_bar)
     1.81281937E-03    3    -1000024        -5         6   # BR(chi^0_4 -> chi^-_1 b_bar t)
DECAY   1000021     1.39577968E+01   # ~g
#    BR                NDA      ID1      ID2
     4.34662170E-01    2     1000005        -5   # BR(~g -> ~b_1 b_bar)
     4.34662170E-01    2    -1000005         5   # BR(~g -> ~b^*_1 b)
     1.75011700E-04    2     1000023        21   # BR(~g -> chi^0_2 g)
     1.42395550E-04    2     1000025        21   # BR(~g -> chi^0_3 g)
#    BR                NDA      ID1      ID2       ID3
     4.13999294E-03    3     1000022         6        -6   # BR(~g -> chi^0_1 t t_bar)
     1.93771964E-03    3     1000022         5        -5   # BR(~g -> chi^0_1 b b_bar)
     2.00143004E-02    3     1000023         6        -6   # BR(~g -> chi^0_2 t t_bar)
     5.04507712E-03    3     1000023         5        -5   # BR(~g -> chi^0_2 b b_bar)
     1.63180328E-02    3     1000025         6        -6   # BR(~g -> chi^0_3 t t_bar)
     3.53523734E-03    3     1000025         5        -5   # BR(~g -> chi^0_3 b b_bar)
     5.25492298E-03    3     1000035         6        -6   # BR(~g -> chi^0_4 t t_bar)
     4.52014206E-03    3     1000035         5        -5   # BR(~g -> chi^0_4 b b_bar)
     2.48032238E-02    3     1000024         5        -6   # BR(~g -> chi^+_1 b t_bar)
     2.48032238E-02    3    -1000024        -5         6   # BR(~g -> chi^-_1 b_bar t)
     9.80763499E-03    3     1000037         5        -6   # BR(~g -> chi^+_2 b t_bar)
     9.80763499E-03    3    -1000037        -5         6   # BR(~g -> chi^-_2 b_bar t)
DECAY        25     3.68169489E-03   # Gamma(h0)
     2.47528310E-03   2        22        22   # BR(h0 -> photon photon)
     1.59062376E-03   2        22        23   # BR(h0 -> photon Z)
     2.95291872E-02   2        23        23   # BR(h0 -> Z Z)
     2.43425612E-01   2       -24        24   # BR(h0 -> W W)
     7.64880199E-02   2        21        21   # BR(h0 -> gluon gluon)
     4.97672727E-09   2       -11        11   # BR(h0 -> Electron electron)
     2.21373783E-04   2       -13        13   # BR(h0 -> Muon muon)
     6.38295637E-02   2       -15        15   # BR(h0 -> Tau tau)
     1.34089533E-07   2        -2         2   # BR(h0 -> Up up)
     2.60239727E-02   2        -4         4   # BR(h0 -> Charm charm)
     5.76157190E-07   2        -1         1   # BR(h0 -> Down down)
     2.08383271E-04   2        -3         3   # BR(h0 -> Strange strange)
     5.56207266E-01   2        -5         5   # BR(h0 -> Bottom bottom)
DECAY        35     2.36675163E+01   # Gamma(HH)
     9.91709673E-08   2        22        22   # BR(HH -> photon photon)
     7.49693872E-08   2        22        23   # BR(HH -> photon Z)
     2.22353205E-06   2        23        23   # BR(HH -> Z Z)
     3.42992282E-06   2       -24        24   # BR(HH -> W W)
     7.34803150E-05   2        21        21   # BR(HH -> gluon gluon)
     9.45619220E-09   2       -11        11   # BR(HH -> Electron electron)
     4.20874806E-04   2       -13        13   # BR(HH -> Muon muon)
     1.21528293E-01   2       -15        15   # BR(HH -> Tau tau)
     6.55420372E-14   2        -2         2   # BR(HH -> Up up)
     1.27095327E-08   2        -4         4   # BR(HH -> Charm charm)
     7.92408845E-04   2        -6         6   # BR(HH -> Top top)
     8.22376589E-07   2        -1         1   # BR(HH -> Down down)
     2.97458699E-04   2        -3         3   # BR(HH -> Strange strange)
     8.38784068E-01   2        -5         5   # BR(HH -> Bottom bottom)
     5.85315375E-03   2  -1000024   1000024   # BR(HH -> Chargino1 chargino1)
     1.16604784E-02   2   1000022   1000022   # BR(HH -> neutralino1 neutralino1)
     1.00730174E-02   2   1000022   1000023   # BR(HH -> neutralino1 neutralino2)
     2.13361593E-03   2   1000022   1000025   # BR(HH -> neutralino1 neutralino3)
     7.23343685E-04   2   1000023   1000023   # BR(HH -> neutralino2 neutralino2)
     5.25480627E-03   2   1000023   1000025   # BR(HH -> neutralino2 neutralino3)
     2.38194794E-03   2   1000025   1000025   # BR(HH -> neutralino3 neutralino3)
     1.63808923E-05   2        25        25   # BR(HH -> h0 h0)
DECAY        36     2.32121206E+01   # Gamma(A0)
     9.97723628E-08   2        22        22   # BR(A0 -> photon photon)
     2.03917739E-07   2        22        23   # BR(A0 -> photon Z)
     1.01927579E-04   2        21        21   # BR(A0 -> gluon gluon)
     9.41708235E-09   2       -11        11   # BR(A0 -> Electron electron)
     4.19134138E-04   2       -13        13   # BR(A0 -> Muon muon)
     1.21027760E-01   2       -15        15   # BR(A0 -> Tau tau)
     6.27202191E-14   2        -2         2   # BR(A0 -> Up up)
     1.21509157E-08   2        -4         4   # BR(A0 -> Charm charm)
     9.09947896E-04   2        -6         6   # BR(A0 -> Top top)
     8.18975189E-07   2        -1         1   # BR(A0 -> Down down)
     2.96228306E-04   2        -3         3   # BR(A0 -> Strange strange)
     8.35342196E-01   2        -5         5   # BR(A0 -> Bottom bottom)
     8.36274939E-03   2  -1000024   1000024   # BR(A0 -> Chargino1 chargino1)
     1.40070112E-02   2   1000022   1000022   # BR(A0 -> neutralino1 neutralino1)
     8.52821233E-03   2   1000022   1000023   # BR(A0 -> neutralino1 neutralino2)
     2.67824696E-03   2   1000022   1000025   # BR(A0 -> neutralino1 neutralino3)
     1.21396534E-03   2   1000023   1000023   # BR(A0 -> neutralino2 neutralino2)
     3.68319710E-03   2   1000023   1000025   # BR(A0 -> neutralino2 neutralino3)
     3.42483700E-03   2   1000025   1000025   # BR(A0 -> neutralino3 neutralino3)
     3.44210080E-06   2        23        25   # BR(A0 -> Z h0)
     6.53220357E-37   2        25        25   # BR(A0 -> h0 h0)
DECAY        37     2.46208720E+01   # Gamma(Hp)
     1.09358306E-08   2       -11        12   # BR(Hp -> Electron nu_e)
     4.67540903E-04   2       -13        14   # BR(Hp -> Muon nu_mu)
     1.32246181E-01   2       -15        16   # BR(Hp -> Tau nu_tau)
     8.22758887E-07   2        -1         2   # BR(Hp -> Down up)
     1.36737801E-05   2        -3         2   # BR(Hp -> Strange up)
     9.31719341E-06   2        -5         2   # BR(Hp -> Bottom up)
     3.83579179E-08   2        -1         4   # BR(Hp -> Down charm)
     2.96529743E-04   2        -3         4   # BR(Hp -> Strange charm)
     1.30473552E-03   2        -5         4   # BR(Hp -> Bottom charm)
     5.38124030E-08   2        -1         6   # BR(Hp -> Down top)
     1.57560561E-06   2        -3         6   # BR(Hp -> Strange top)
     8.32425628E-01   2        -5         6   # BR(Hp -> Bottom top)
     1.73541213E-02   2   1000022   1000024   # BR(Hp -> neutralino1 chargino1)
     7.43274459E-04   2   1000023   1000024   # BR(Hp -> neutralino2 chargino1)
     1.51331064E-02   2   1000024   1000025   # BR(Hp -> chargino1 neutralino3)
     3.38272375E-06   2        24        25   # BR(Hp -> W h0)
     3.84726298E-09   2        24        35   # BR(Hp -> W HH)
     3.84630117E-09   2        24        36   # BR(Hp -> W A0)
DECAY         6     2.43000000E+00   # top
#    BR                NDA      ID1      ID2
     1.00000000E+00    2           5        24   # BR(t -> b W)
Block HiggsBoundsInputHiggsCouplingsFermions
# ScalarNormEffCoupSq PseudoSNormEffCoupSq NP IP1 IP2 IP2
    1.00803956E+00    0.00000000E+00        3  25   5   5  # h0-b-b eff. coupling^2, normalised to SM
    1.75987290E+03    0.00000000E+00        3  35   5   5  # H0-b-b eff. coupling^2, normalised to SM
    0.00000000E+00    1.75988094E+03        3  36   5   5  # A0-b-b eff. coupling^2, normalised to SM
#
    9.99995432E-01    0.00000000E+00        3  25   6   6  # h0-t-t eff. coupling^2, normalised to SM
    5.72788499E-04    0.00000000E+00        3  35   6   6  # H0-t-t eff. coupling^2, normalised to SM
    0.00000000E+00    5.68220257E-04        3  36   6   6  # A0-t-t eff. coupling^2, normalised to SM
#
    1.00803956E+00    0.00000000E+00        3  25  15  15  # h0-tau-tau eff. coupling^2, normalised to SM
    1.75987290E+03    0.00000000E+00        3  35  15  15  # H0-tau-tau eff. coupling^2, normalised to SM
    0.00000000E+00    1.75988094E+03        3  36  15  15  # A0-tau-tau eff. coupling^2, normalised to SM
#
Block HiggsBoundsInputHiggsCouplingsBosons
    9.99999991E-01        3  25  24  24  # h0-W-W eff. coupling^2, normalised to SM
    9.14496236E-09        3  35  24  24  # H0-W-W eff. coupling^2, normalised to SM
    0.00000000E+00        3  36  24  24  # A0-W-W eff. coupling^2, normalised to SM
#
    9.99999991E-01        3  25  23  23  # h0-Z-Z eff. coupling^2, normalised to SM
    9.14496236E-09        3  35  23  23  # H0-Z-Z eff. coupling^2, normalised to SM
    0.00000000E+00        3  36  23  23  # A0-Z-Z eff. coupling^2, normalised to SM
#
    1.26456539E+00        3  25  21  21  # h0-g-g eff. coupling^2, normalised to SM
    2.71977558E-02        3  35  21  21  # H0-g-g eff. coupling^2, normalised to SM
    1.66965683E-01        3  36  21  21  # A0-g-g eff. coupling^2, normalised to SM
#
    0.00000000E+00        3  25  25  23  # h0-h0-Z eff. coupling^2, normalised to SM
    0.00000000E+00        3  35  25  23  # H0-h0-Z eff. coupling^2, normalised to SM
    9.14496236E-09        3  36  25  23  # A0-h0-Z eff. coupling^2, normalised to SM
    0.00000000E+00        3  35  35  23  # H0-H0-Z eff. coupling^2, normalised to SM
    9.99999991E-01        3  36  35  23  # A0-H0-Z eff. coupling^2, normalised to SM
    0.00000000E+00        3  36  36  23  # A0-A0-Z eff. coupling^2, normalised to SM
#
    0.00000000E+00        4  25  21  21  23  # h0-g-g-Z eff. coupling^2, normalised to SM
    0.00000000E+00        4  35  21  21  23  # H0-g-g-Z eff. coupling^2, normalised to SM
    0.00000000E+00        4  36  21  21  23  # A0-g-g-Z eff. coupling^2, normalised to SM
Block SPhenoLowEnergy  # low energy observables
    1    3.57897789E-04   # BR(b -> s gamma)
    2    1.58702591E-06   # BR(b -> s mu+ mu-)
    3    3.52463731E-05   # BR(b -> s nu nu)
    4    4.38562273E-15   # BR(Bd -> e+ e-)
    5    1.87334812E-10   # BR(Bd -> mu+ mu-)
    6    3.84074807E-08   # BR(Bd -> tau+ tau-)
    7    1.53266783E-13   # BR(Bs -> e+ e-)
    8    6.54703392E-09   # BR(Bs -> mu+ mu-)
    9    1.35836193E-06   # BR(Bs -> tau+ tau-)
   10    8.44062444E-05   # BR(B_u -> tau nu)
   11    8.71884190E-01   # BR(B_u -> tau nu)/BR(B_u -> tau nu)_SM
   12    5.41831499E-01   # |Delta(M_Bd)| [ps^-1] 
   13    1.93105108E+01   # |Delta(M_Bs)| [ps^-1] 
   14    0.00000000E+00   # neutron EDM according to the chiral quark model
   15    0.00000000E+00   # neutron EDM according to the relativistic quark-parton model
   16    2.15720625E-03   # epsilon_K
   17    2.28167336E-15   # Delta(M_K)
   18    2.47954868E-11   # BR(K^0 -> pi^0 nu nu)
   19    8.28940575E-11   # BR(K^+ -> pi^+ nu nu)
   20   -4.00008741E-16   # Delta(g-2)_electron/2
   21   -1.71017631E-11   # Delta(g-2)_muon/2
   22   -4.84797179E-09   # Delta(g-2)_tau/2
   23    0.00000000E+00   # electric dipole moment of the electron
   24    0.00000000E+00   # electric dipole moment of the muon
   25    0.00000000E+00   # electric dipole moment of the tau
   26    0.00000000E+00   # Br(mu -> e gamma)
   27    0.00000000E+00   # Br(tau -> e gamma)
   28    0.00000000E+00   # Br(tau -> mu gamma)
   29    0.00000000E+00   # Br(mu -> 3 e)
   30    0.00000000E+00   # Br(tau -> 3 e)
   31    0.00000000E+00   # Br(tau -> 3 mu)
   39    7.39940988E-05   # Delta(rho_parameter)
   40    0.00000000E+00   # BR(Z -> e mu)
   41    0.00000000E+00   # BR(Z -> e tau)
   42    0.00000000E+00   # BR(Z -> mu tau)
Block FWCOEF Q=  1.60000000E+02  # Wilson coefficients at scale Q
#    id        order  M        value         comment
     0305 4422   00   0    -1.88819110E-01   # C7
     0305 4422   00   2    -2.25764139E-01   # C7
     0305 4322   00   2    -8.22146337E-04   # C7'
     0305 6421   00   0    -9.52278348E-02   # C8
     0305 6421   00   2    -1.40759709E-01   # C8
     0305 6321   00   2    -9.51995427E-04   # C8'
 03051111 4133   00   0     1.62723296E+00   # C9 e+e-
 03051111 4133   00   2     1.62747265E+00   # C9 e+e-
 03051111 4233   00   2     1.70558949E-04   # C9' e+e-
 03051111 4137   00   0    -4.44992507E+00   # C10 e+e-
 03051111 4137   00   2    -4.44768107E+00   # C10 e+e-
 03051111 4237   00   2    -1.25954058E-03   # C10' e+e-
 03051313 4133   00   0     1.62723296E+00   # C9 mu+mu-
 03051313 4133   00   2     1.62747252E+00   # C9 mu+mu-
 03051313 4233   00   2     1.70531210E-04   # C9' mu+mu-
 03051313 4137   00   0    -4.44992507E+00   # C10 mu+mu-
 03051313 4137   00   2    -4.44768121E+00   # C10 mu+mu-
 03051313 4237   00   2    -1.25951338E-03   # C10' mu+mu-
 03051212 4137   00   0     1.50535012E+00   # C11 nu_1 nu_1
 03051212 4137   00   2     1.50486647E+00   # C11 nu_1 nu_1
 03051212 4237   00   2     2.72325879E-04   # C11' nu_1 nu_1
 03051414 4137   00   0     1.50535012E+00   # C11 nu_2 nu_2
 03051414 4137   00   2     1.50486647E+00   # C11 nu_2 nu_2
 03051414 4237   00   2     2.72331849E-04   # C11' nu_2 nu_2
 03051616 4137   00   0     1.50535012E+00   # C11 nu_3 nu_3
 03051616 4137   00   2     1.50486647E+00   # C11 nu_3 nu_3
 03051616 4237   00   2     2.74014106E-04   # C11' nu_3 nu_3
Block IMFWCOEF Q=  1.60000000E+02  # Im(Wilson coefficients) at scale Q
#    id        order  M        value         comment
     0305 4422   00   0     3.85827025E-07   # C7
     0305 4422   00   2    -1.21908496E-05   # C7
     0305 4322   00   2     3.50444242E-07   # C7'
     0305 6421   00   0     3.30486363E-07   # C8
     0305 6421   00   2     8.41261328E-06   # C8
     0305 6321   00   2     3.75292766E-07   # C8'
 03051111 4133   00   2     4.44854567E-07   # C9 e+e-
 03051111 4233   00   2     8.20093126E-06   # C9' e+e-
 03051111 4137   00   2     6.58073814E-07   # C10 e+e-
 03051111 4237   00   2    -6.06347400E-05   # C10' e+e-
 03051313 4133   00   2     4.44850754E-07   # C9 mu+mu-
 03051313 4233   00   2     8.20092883E-06   # C9' mu+mu-
 03051313 4137   00   2     6.58077979E-07   # C10 mu+mu-
 03051313 4237   00   2    -6.06347473E-05   # C10' mu+mu-
 03051212 4137   00   2    -1.14963178E-07   # C11 nu_1 nu_1
 03051212 4237   00   2     1.31098943E-05   # C11' nu_1 nu_1
 03051414 4137   00   2    -1.14962984E-07   # C11 nu_2 nu_2
 03051414 4237   00   2     1.31098943E-05   # C11' nu_2 nu_2
 03051616 4137   00   2    -1.14909068E-07   # C11 nu_3 nu_3
 03051616 4237   00   2     1.31098942E-05   # C11' nu_3 nu_3
