BLOCK SPINFO
   1   SPheno
   2   v4.0.5be

BLOCK SPHENOINFO
   1   2
   2   2

BLOCK MODSEL
   1   0

BLOCK MINPAR
   3    15.964543
   4    1

BLOCK EXTPAR
   0    3340.8212
   1   -794.84468
   2    4758.9862
   3    4336.8594
   11   -3768.2704
   12    1658.7656
   13    4081.7449
   23    995.27668
   25    15.245636
   26    996.93917
   31    4597.1042
   32    4597.1042
   33    2877.4188
   34    1883.7018
   35    1883.7018
   36    4330.0803
   41    501.19989
   42    501.19989
   43    3368.7412
   44    1648.9518
   45    1648.9518
   46    3137.8843
   47    2038.3124
   48    2038.3124
   49    1582.0838

BLOCK SMINPUTS
   1    127.90897
   2    1.1663787e-05
   3    0.1184
   4    91.1876
   5    4.18
   6    173.2
   7    1.777
   8    0
   11    0.00051099893
   12    0
   13    0.10565837
   14    0
   21    0.005
   22    0.0025
   23    0.095
   24    1.27

BLOCK GAUGE Q=  3340.8212
   1    0.35536298
   2    0.66519887
   3    1.219778

BLOCK YU Q=  3340.8212
   1   1    8.4023892e-06
   2   2    0.0042684137
   3   3    1.0150761

BLOCK YD Q=  3340.8212
   1   1    0.00025741188
   2   2    0.0048908258
   3   3    0.25527193

BLOCK YE Q=  3340.8212
   1   1    4.4920256e-05
   2   2    0.0092880842
   3   3    0.1562103

BLOCK AU Q=  3340.8212
   1   1    0
   2   2    0
   3   3   -3768.2738

BLOCK AD Q=  3340.8212
   1   1    0
   2   2    0
   3   3    1658.7647

BLOCK AE Q=  3340.8212
   1   1    0
   2   2    0
   3   3    4081.7435

BLOCK MSOFT Q=  3340.8212
   1   -794.84468
   2    4758.9862
   3    4336.8594
   21   -42867.279
   22   -780866.34
   31    4597.1042
   32    4597.1042
   33    2877.4188
   34    1883.7018
   35    1883.7018
   36    4330.0803
   41    501.19989
   42    501.19989
   43    3368.7412
   44    1648.9518
   45    1648.9518
   46    3137.8843
   47    2038.3124
   48    2038.3124
   49    1582.0838

BLOCK MASS
   6    173.2
   23    91.1876
   24    80.429995
   15    1.777
   25    121.28096
   35    997.00176
   36    996.93917
   37    1000.1947
   1000001    809.14525
   2000001    2187.9415
   1000002    805.15166
   2000002    1803.9693
   1000003    809.14448
   2000003    2187.9408
   1000004    805.1512
   2000004    1803.9689
   1000005    1738.7655
   2000005    3489.1587
   1000006    3178.1135
   2000006    3511.8589
   1000011    4621.0237
   2000011    1890.4459
   1000012    4619.9274
   1000013    4621.0214
   2000013    1890.4409
   1000014    4619.925
   1000015    2902.4361
   2000015    4332.5566
   1000016    2900.8935
   1000021    4323.7275
   1000022   -780.69099
   1000023    1013.6237
   1000025   -1018.1466
   1000035    4712.6977
   1000024    1013.4134
   1000037    4712.762

BLOCK ALPHA
      -0.063945109

BLOCK HMIX Q=  3340.8212
   1    995.27668
   2    15.245636
   3    243.14739
   4    993887.71

BLOCK STOPMIX
   1   1    0.26032052
   1   2    0.96552225
   2   1   -0.96552225
   2   2    0.26032052

BLOCK SBOTMIX
   1   1    0.0032935075
   1   2    0.99999458
   2   1   -0.99999458
   2   2    0.0032935075

BLOCK STAUMIX
   1   1    0.99999818
   1   2    0.0019079924
   2   1   -0.0019079924
   2   2    0.99999818

BLOCK NMIX
   1   1   -0.99188955
   1   2   -0.0010064853
   1   3   -0.10194479
   1   4   -0.075903683
   2   1   -0.018564291
   2   2   -0.016231904
   2   3    0.70701442
   2   4   -0.70676906
   3   1    0.12573967
   3   2   -0.0090794092
   3   3   -0.69979473
   3   4   -0.70313188
   4   1    0.00015804157
   4   2   -0.99982652
   4   3   -0.0050207327
   4   4    0.017935737

BLOCK UMIX
   1   1   -0.0071023083
   1   2    0.99997478
   2   1    0.99997478
   2   2    0.0071023083

BLOCK VMIX
   1   1   -0.025394196
   1   2    0.99967752
   2   1    0.99967752
   2   2    0.025394196

BLOCK HIGGSBOUNDSINPUTHIGGSCOUPLINGSFERMIONS
       0, 232.42942,3,36,15,15

BLOCK HIGGSBOUNDSINPUTHIGGSCOUPLINGSBOSONS
       0,4,36,21,21,23

BLOCK SPHENOLOWENERGY
   1    0.00035168221
   2    1.5888105e-06
   3    3.5278454e-05
   4    2.5906018e-15
   5    1.1066752e-10
   6    2.3164779e-08
   7    8.7181886e-14
   8    3.7244061e-09
   9    7.8990317e-07
   10    9.5352977e-05
   11    0.98495974
   12    0.54216403
   13    19.365047
   14    0
   15    0
   16    0.0021581299
   17    2.2816685e-15
   18    2.4815982e-11
   19    8.294641e-11
   20    3.3806381e-16
   21    1.4453256e-11
   22    4.4799527e-09
   23    0
   24    0
   25    0
   26    0
   27    0
   28    0
   29    0
   30    0
   31    0
   39    3.2743248e-05
   40    0
   41    0
   42    0

BLOCK FWCOEF Q=  160
   305   4422   0   0   -0.18881911
   305   4422   0   2   -0.21934422
   305   4322   0   2   -0.00054059624
   305   6421   0   0   -0.095227835
   305   6421   0   2   -0.1351649
   305   6321   0   2   -0.00074932077
   3051111   4133   0   0    1.620009
   3051111   4133   0   2    1.6206094
   3051111   4233   0   2    1.0260189e-05
   3051111   4137   0   0   -4.4427011
   3051111   4137   0   2   -4.4435814
   3051111   4237   0   2   -7.6456579e-05
   3051313   4133   0   0    1.620009
   3051313   4133   0   2    1.6206093
   3051313   4233   0   2    1.0259818e-05
   3051313   4137   0   0   -4.4427011
   3051313   4137   0   2   -4.4435814
   3051313   4237   0   2   -7.645624e-05
   3051212   4137   0   0    1.5053501
   3051212   4137   0   2    1.505541
   3051212   4237   0   2    1.65574e-05
   3051414   4137   0   0    1.5053501
   3051414   4137   0   2    1.505541
   3051414   4237   0   2    1.6557478e-05
   3051616   4137   0   0    1.5053501
   3051616   4137   0   2    1.5055409
   3051616   4237   0   2    1.6579412e-05

BLOCK IMFWCOEF Q=  160
   305   4422   0   0    3.8583615e-07
   305   4422   0   2    3.8161228e-06
   305   4322   0   2    2.9256904e-06
   305   6421   0   0    3.3049418e-07
   305   6421   0   2   -7.8252235e-08
   305   6321   0   2    1.4250645e-06
   3051111   4133   0   2    9.3902136e-07
   3051111   4233   0   2    7.887376e-07
   3051111   4137   0   2   -5.9623474e-06
   3051111   4237   0   2   -5.8925077e-06
   3051313   4133   0   2    9.3902077e-07
   3051313   4233   0   2    7.8873741e-07
   3051313   4137   0   2   -5.9623479e-06
   3051313   4237   0   2   -5.8925081e-06
   3051212   4137   0   2    1.2947688e-06
   3051212   4237   0   2    1.2760934e-06
   3051414   4137   0   2    1.2947688e-06
   3051414   4237   0   2    1.2760934e-06
   3051616   4137   0   2    1.2931816e-06
   3051616   4237   0   2    1.2760931e-06

DECAY 23  2.4952


DECAY 24  2.085


DECAY 2000011  6.5069671
    0.98811204   2    1000022    11
    0.011632544   2    1000025    11
    0.00025540653   2    1000023    11

DECAY 1000011  5.4867074
    0.98603878   2    1000022    11
    0.011325544   2    1000025    11
    0.0022967989   2    1000023    11
    0.00033888014   2   -1000024    12

DECAY 2000013  6.5102304
    0.98761531   2    1000022    13
    0.011749838   2    1000025    13
    0.00038177295   2    1000023    13
    0.00025307597   2   -1000024    14

DECAY 1000013  5.4940433
    0.98473583   2    1000022    13
    0.011950293   2    1000025    13
    0.0029475034   2    1000023    13
    0.00033842745   2   -1000024    14

DECAY 1000015  4.2258761
    0.73642244   2    1000022    15
    0.13322684   2    1000025    15
    0.13008496   2    1000023    15
    0.00026575905   2   -1000024    16

DECAY 2000015  25.689542
    0.78119531   2    1000022    15
    0.073146198   2   -1000024    16
    0.047800074   2    1000025    15
    0.036826452   2    1000023    15
    0.029199601   2    1000016   -37
    0.014618067   2    1000015    36
    0.014609028   2    1000015    35
    0.0013102386   2    1000016   -24
    0.00065249097   2    1000015    23
    0.00064253454   2    1000015    25

DECAY 1000012  5.49926
    0.97608296   2    1000022    12
    0.019462276   2    1000025    12
    0.0043211839   2    1000024    11
    0.00013358485   2    1000023    12

DECAY 1000014  5.5064415
    0.97480938   2    1000022    14
    0.019436881   2    1000025    14
    0.0056201061   2    1000024    13
    0.00013341055   2    1000023    14

DECAY 1000016  4.2283902
    0.7267308   2    1000022    16
    0.25967807   2    1000024    15
    0.013498332   2    1000025    16

DECAY 1000001  0.00052441816
    1   2    1000022    1

DECAY 2000001  0.92736224
    0.98693325   2    1000022    1
    0.012783589   2    1000025    1
    0.00028096157   2    1000023    1

DECAY 1000003  0.00052434873
    1   2    1000022    3

DECAY 2000003  0.92873583
    0.98548147   2    1000022    3
    0.013101234   2    1000025    3
    0.00069161899   2   -1000024    4
    0.00062532323   2    1000023    3

DECAY 1000005  2.5324796
    0.36877736   2   -1000024    6
    0.24644714   2    1000022    5
    0.19400196   2    1000023    5
    0.19077354   2    1000025    5

DECAY 2000005  73.360569
    0.81187809   2   -1000024    6
    0.11893022   2    1000006   -24
    0.025863734   2    1000023    5
    0.025482112   2    1000025    5
    0.0063664796   2    1000022    5
    0.0045455342   2    1000005    36
    0.0045376184   2    1000005    35
    0.001492876   2    1000005    25
    0.00090333931   2    1000005    23

DECAY 1000002  0.00040038733
    1   2    1000022    2

DECAY 2000002  2.6481443
    0.98858494   2    1000022    2
    0.011169567   2    1000025    2
    0.0002454939   2    1000023    2

DECAY 1000004  0.00039952336
    1   2    1000022    4

DECAY 2000004  2.6487589
    0.98835591   2    1000022    4
    0.011221557   2    1000025    4
    0.00030348158   2    1000023    4
    0.00011556058   2    1000024    3

DECAY 1000006  106.83852
    0.46460354   2    1000024    5
    0.24208833   2    1000025    6
    0.2398689   2    1000023    6
    0.052619234   2    1000022    6
    0.00073550188   2    1000005    37

DECAY 2000006  79.887275
    0.38097061   2    1000023    6
    0.36827389   2    1000025    6
    0.089863966   2    1000024    5
    0.06752629   2    1000006    25
    0.061524106   2    1000006    23
    0.02288226   2    1000022    6
    0.0073598598   2    1000005    37
    0.0015990175   2    1000005    24

DECAY 1000024  0.44567199
    0.99352694   2    1000022    24
    0.0028547842   2    1000004   -3
    0.0026338796   2    1000002   -1
    0.00042138543   3    1000022   -5    6
    0.00036386398   2   -1000003    4
    0.00019902788   2   -1000001    2

DECAY 1000037  357.90657
    0.16376474   2    1000004   -3
    0.16376473   2    1000002   -1
    0.16376416   2   -1000001    2
    0.16376416   2   -1000003    4
    0.034849191   2   -2000005    6
    0.032707169   2    2000006   -5
    0.030364576   2    1000024    25
    0.029983101   2    1000024    23
    0.029910854   2    1000023    24
    0.029521416   2    1000025    24
    0.027162571   2    37    1000025
    0.024790677   2    1000024    35
    0.024761973   2    1000024    36
    0.024761124   2    37    1000023
    0.022344257   2    1000016   -15
    0.022328351   2   -1000015    16
    0.0035635331   3    1000024    6   -6
    0.0025662911   2    1000006   -5
    0.0021125745   3    1000023   -5    6
    0.0018528187   3    1000025   -5    6
    0.00053807839   2    37    1000022
    0.00044541383   2    1000022    24

DECAY 1000022 -1


DECAY 1000023  0.83267498
    0.54218914   2    1000022    23
    0.45520916   2    1000022    25
    0.00046470391   2    1000004   -4
    0.00046470391   2   -1000004    4
    0.00041782096   2    1000002   -2
    0.00041782096   2   -1000002    2
    0.0002339842   2    1000003   -3
    0.0002339842   2   -1000003    3
    0.00017687705   2    1000001   -1
    0.00017687705   2   -1000001    1

DECAY 1000025  0.30226302
    0.95329411   2    1000022    25
    0.03196505   2    1000022    23
    0.0031486115   2    1000003   -3
    0.0031486115   2   -1000003    3
    0.0029899145   2    1000001   -1
    0.0029899145   2   -1000001    1
    0.00067661725   2    1000004   -4
    0.00067661725   2   -1000004    4
    0.00055307857   2    1000002   -2
    0.00055307857   2   -1000002    2

DECAY 1000035  361.66722
    0.0810493   2    1000002   -2
    0.0810493   2   -1000002    2
    0.081049293   2    1000004   -4
    0.081049293   2   -1000004    4
    0.081009969   2    1000003   -3
    0.081009969   2   -1000003    3
    0.08100996   2    1000001   -1
    0.08100996   2   -1000001    1
    0.029751537   2    1000024   -24
    0.029751537   2   -1000024    24
    0.02449017   2    37   -1000024
    0.02449017   2   -37    1000024
    0.022706227   2    1000023    25
    0.022190817   2    1000025    23
    0.02055054   2    1000025    35
    0.017559228   2    2000005   -5
    0.017559228   2   -2000005    5
    0.017351248   2    1000025    25
    0.0161904   2    1000023    35
    0.015882479   2    2000006   -6
    0.015882479   2   -2000006    6
    0.011060622   2    1000016   -16
    0.011060622   2   -1000016    16
    0.011042412   2    1000015   -15
    0.011042412   2   -1000015    15
    0.0083721168   2    1000023    36
    0.0071184041   2    1000023    23
    0.0062928228   2    1000025    36
    0.0020911299   3    1000024    5   -6
    0.0020911299   3   -1000024   -5    6
    0.0017448571   3    1000023    6   -6
    0.0015298127   3    1000025    6   -6
    0.0012526103   2    1000006   -6
    0.0012526103   2   -1000006    6
    0.00038093636   2    1000022    35
    0.00031793172   2    1000022    23
    0.00023541019   2    1000022    25
    0.00015101139   2    1000022    36

DECAY 1000021  939.39298
    0.063477273   2    1000004   -4
    0.063477273   2   -1000004    4
    0.063477268   2    1000002   -2
    0.063477268   2   -1000002    2
    0.063431932   2    1000003   -3
    0.063431932   2   -1000003    3
    0.063431923   2    1000001   -1
    0.063431923   2   -1000001    1
    0.047867803   2    1000005   -5
    0.047867803   2   -1000005    5
    0.046467765   2    2000004   -4
    0.046467765   2   -2000004    4
    0.046467759   2    2000002   -2
    0.046467759   2   -2000002    2
    0.03769986   2    2000003   -3
    0.03769986   2   -2000003    3
    0.037699845   2    2000001   -1
    0.037699845   2   -2000001    1
    0.01303035   2    1000006   -6
    0.01303035   2   -1000006    6
    0.0086524557   2    2000006   -6
    0.0086524557   2   -2000006    6
    0.0082870176   2    2000005   -5
    0.0082870176   2   -2000005    5

DECAY 25  0.0035494448
    0.63556473   2   -5    5
    0.16631379   2   -24    24
    0.072750554   2   -15    15
    0.072615063   2    21    21
    0.030164207   2   -4    4
    0.018678528   2    23    23
    0.0022678134   2    22    22
    0.0011544508   2    22    23
    0.00025223761   2   -13    13
    0.00023780559   2   -3    3
    6.5750422e-07   2   -1    1
    1.5545594e-07   2   -2    2
    5.6706333e-09   2   -11    11

DECAY 35  3.9303844
    0.82045815   2   -5    5
    0.14230614   2   -15    15
    0.0355698   2   -6    6
    0.00060647852   2    25    25
    0.00048484075   2   -13    13
    0.0002834655   2   -3    3
    0.00013712902   2   -24    24
    0.00010181915   2    23    23
    4.3298726e-05   2    21    21
    3.7473481e-06   2   -1000002    1000002
    3.7293902e-06   2   -1000004    1000004
    7.835852e-07   2   -1    1
    4.6545229e-07   2   -4    4
    1.0269094e-07   2    22    22
    3.3808555e-08   2    22    23
    1.0892933e-08   2   -11    11
    2.3995839e-12   2   -2    2

DECAY 36  3.8683561
    0.81860823   2   -5    5
    0.14197785   2   -15    15
    0.038308556   2   -6    6
    0.00048371644   2   -13    13
    0.00028281548   2   -3    3
    0.00018632727   2    21    21
    0.00015082961   2    23    25
    7.8178826e-07   2   -1    1
    4.3595644e-07   2   -4    4
    3.4113821e-07   2    22    22
    1.0362991e-07   2    22    23
    1.0867678e-08   2   -11    11
    2.2477196e-12   2   -2    2
    1.1231092e-34   2    25    25

DECAY 37  3.5917236
    0.8557874   2   -5    6
    0.14193431   2   -15    16
    0.0012498605   2   -5    4
    0.00050179128   2   -13    14
    0.00027009126   2   -3    4
    0.00016508469   2    24    25
    6.6240827e-05   2   -3    6
    1.2447605e-05   2   -3    2
    8.9253129e-06   2   -5    2
    3.0210284e-06   2   -1    6
    7.4767168e-07   2   -1    2
    6.3588756e-08   2   -1    4
    1.173695e-08   2   -11    12
    1.3811629e-10   2    24    36
    1.2534784e-10   2    24    35

DECAY 6  2.43
    1   2    5    24

DECAY 15 -1
