BLOCK SPINFO
   1   SPheno
   2   v4.0.5be

BLOCK SPHENOINFO
   1   2
   2   2

BLOCK MODSEL
   1   0

BLOCK MINPAR
   3    61.274297
   4    1

BLOCK EXTPAR
   0    1406.0876
   1   -59.898956
   2    213.35997
   3    3000
   11    2963.2413
   12   -1278.9665
   13   -917.97067
   23    1256.9997
   25    59.730398
   26    4175.62
   31    445.90996
   32    445.90996
   33    1963.6608
   34    1672.2711
   35    1672.2711
   36    1664.8863
   41    5000
   42    5000
   43    1359.5135
   44    5000
   45    5000
   46    1549.584
   47    5000
   48    5000
   49    932.24487

BLOCK SMINPUTS
   1    127.90897
   2    1.1663787e-05
   3    0.1184
   4    91.1876
   5    4.18
   6    173.2
   7    1.777
   8    0
   11    0.00051099893
   12    0
   13    0.10565837
   14    0
   21    0.005
   22    0.0025
   23    0.095
   24    1.27

BLOCK GAUGE Q=  1406.0876
   1    0.35536298
   2    0.66519887
   3    1.219778

BLOCK YU Q=  1406.0876
   1   1    8.3855471e-06
   2   2    0.0042598579
   3   3    1.0130414

BLOCK YD Q=  1406.0876
   1   1    0.0010064844
   2   2    0.019123204
   3   3    0.99811716

BLOCK YE Q=  1406.0876
   1   1    0.00017563889
   2   2    0.036316552
   3   3    0.61078467

BLOCK AU Q=  1406.0876
   1   1    0
   2   2    0
   3   3    2963.2414

BLOCK AD Q=  1406.0876
   1   1    0
   2   2    0
   3   3   -1278.9664

BLOCK AE Q=  1406.0876
   1   1    0
   2   2    0
   3   3   -917.97068

BLOCK MSOFT Q=  1406.0876
   1   -59.898956
   2    213.35997
   3    3000
   21    15823347
   22   -1513534.3
   31    445.90996
   32    445.90996
   33    1963.6608
   34    1672.2711
   35    1672.2711
   36    1664.8863
   41    5000
   42    5000
   43    1359.5135
   44    5000
   45    5000
   46    1549.584
   47    5000
   48    5000
   49    932.24487

BLOCK MASS
   6    173.2
   23    91.1876
   24    80.429995
   15    1.777
   25    123.75217
   35    4172.6066
   36    4175.62
   37    4173.9325
   1000001    5024.908
   2000001    5013.7682
   1000002    5024.46
   2000002    5017.3832
   1000003    5024.9264
   2000003    5013.7797
   1000004    5024.4704
   2000004    5017.3841
   1000005    909.64521
   2000005    1346.3683
   1000006    1245.8933
   2000006    1586.8793
   1000011    460.05879
   2000011    1668.6334
   1000012    452.82987
   1000013    460.2271
   2000013    1668.7202
   1000014    453.04338
   1000015    1679.3174
   2000015    1981.8832
   1000016    1975.531
   1000021    3182.1231
   1000022   -60.123791
   1000023    229.4175
   1000025   -1261.83
   1000035    1264.1809
   1000024    229.62096
   1000037    1265.1783

BLOCK ALPHA
      -0.016346797

BLOCK HMIX Q=  1406.0876
   1    1256.9997
   2    59.730398
   3    244.06825
   4    17435802

BLOCK STOPMIX
   1   1   -0.85894372
   1   2    0.51206999
   2   1   -0.51206999
   2   2   -0.85894372

BLOCK SBOTMIX
   1   1    0.096243384
   1   2    0.99535783
   2   1   -0.99535783
   2   2    0.096243384

BLOCK STAUMIX
   1   1    0.12406171
   1   2    0.99227451
   2   1   -0.99227451
   2   2    0.12406171

BLOCK NMIX
   1   1    0.99937334
   1   2    0.00048799282
   1   3    0.035369214
   1   4    0.0013051183
   2   1   -0.0017959061
   2   2   -0.99781179
   2   3    0.064960741
   2   4   -0.012186395
   3   1   -0.025915992
   3   2    0.037351694
   3   3    0.7056614
   3   4    0.70708925
   4   1    0.024042855
   4   2   -0.054554965
   4   3   -0.70467802
   4   4    0.70701809

BLOCK UMIX
   1   1   -0.99578283
   1   2    0.091741797
   2   1    0.091741797
   2   2    0.99578283

BLOCK VMIX
   1   1   -0.99985105
   1   2    0.017259035
   2   1    0.017259035
   2   2    0.99985105

BLOCK HIGGSBOUNDSINPUTHIGGSCOUPLINGSFERMIONS
       0, 3567.7205,3,36,15,15

BLOCK HIGGSBOUNDSINPUTHIGGSCOUPLINGSBOSONS
       0,4,36,21,21,23

BLOCK SPHENOLOWENERGY
   1    0.00036356275
   2    1.5853562e-06
   3    3.5208915e-05
   4    6.7968413e-15
   5    2.903536e-10
   6    6.074099e-08
   7    2.2986634e-13
   8    9.8198899e-09
   9    2.081451e-06
   10    9.4193757e-05
   11    0.97298545
   12    0.5446497
   13    19.447759
   14    0
   15    0
   16    0.0021826898
   17    2.2819184e-15
   18    2.4772411e-11
   19    8.2837822e-11
   20    4.2175005e-14
   21    1.8057512e-09
   22    8.5959548e-08
   23    0
   24    0
   25    0
   26    0
   27    0
   28    0
   29    0
   30    0
   31    0
   39    0.00011512333
   40    0
   41    0
   42    0

BLOCK FWCOEF Q=  160
   305   4422   0   0   -0.18881911
   305   4422   0   2   -0.23762956
   305   4322   0   2   -0.0002975201
   305   6421   0   0   -0.095227835
   305   6421   0   2   -0.12633673
   305   6321   0   2   -0.00022865718
   3051111   4133   0   0    1.5906786
   3051111   4133   0   2    1.5911312
   3051111   4233   0   2    0.000453967
   3051111   4137   0   0   -4.4133707
   3051111   4137   0   2   -4.407349
   3051111   4237   0   2   -0.003540539
   3051313   4133   0   0    1.5906786
   3051313   4133   0   2    1.5911183
   3051313   4233   0   2    0.0004539635
   3051313   4137   0   0   -4.4133707
   3051313   4137   0   2   -4.4073616
   3051313   4237   0   2   -0.0035405508
   3051212   4137   0   0    1.5053501
   3051212   4137   0   2    1.5040885
   3051212   4237   0   2    0.0007718197
   3051414   4137   0   0    1.5053501
   3051414   4137   0   2    1.5040885
   3051414   4237   0   2    0.00077181978
   3051616   4137   0   0    1.5053501
   3051616   4137   0   2    1.5040822
   3051616   4237   0   2    0.00077185342

BLOCK IMFWCOEF Q=  160
   305   4422   0   0    3.8543796e-07
   305   4422   0   2    3.851319e-05
   305   4322   0   2   -4.0618858e-06
   305   6421   0   0    3.301531e-07
   305   6421   0   2   -1.6480585e-05
   305   6321   0   2   -2.4176558e-06
   3051111   4133   0   2   -1.4480297e-06
   3051111   4233   0   2    8.9459808e-06
   3051111   4137   0   2    7.0546438e-06
   3051111   4237   0   2   -6.9780017e-05
   3051313   4133   0   2   -1.4505525e-06
   3051313   4233   0   2    8.9459292e-06
   3051313   4137   0   2    7.0573034e-06
   3051313   4237   0   2   -6.9780237e-05
   3051212   4137   0   2   -5.925952e-07
   3051212   4237   0   2    1.5211742e-05
   3051414   4137   0   2   -5.9249521e-07
   3051414   4237   0   2    1.5211742e-05
   3051616   4137   0   2   -7.0365205e-07
   3051616   4237   0   2    1.5211881e-05

DECAY 23  2.4952


DECAY 24  2.085


DECAY 1000011  3.9631792
    0.57132238   2   -1000024    12
    0.28771618   2    1000023    11
    0.14096144   2    1000022    11

DECAY 2000011  8.3539778
    0.99976794   2    1000022    11
    0.00012357913   2    1000025    11
    0.00010530525   2    1000035    11

DECAY 1000013  3.9663347
    0.57135383   2   -1000024    14
    0.28773801   2    1000023    13
    0.14090815   2    1000022    13

DECAY 2000013  8.3821916
    0.99646143   2    1000022    13
    0.001359379   2    1000013    25
    0.00093632774   2   -1000037    14
    0.00060025537   2    1000025    13
    0.00057597496   2    1000035    13

DECAY 1000015  13.807009
    0.60613027   2    1000022    15
    0.16067571   2   -1000037    16
    0.084062405   2    1000025    15
    0.082640804   2    1000035    15
    0.044232135   2   -1000024    16
    0.022258681   2    1000023    15

DECAY 2000015  34.039378
    0.47681334   2   -1000024    16
    0.24160815   2    1000023    15
    0.077224868   2    1000025    15
    0.0770605   2    1000035    15
    0.075404822   2    1000022    15
    0.022906231   2    1000015    23
    0.021460295   2    1000015    25
    0.0075217878   2   -1000037    16

DECAY 1000012  3.8408102
    0.57258706   2    1000024    11
    0.28492792   2    1000023    12
    0.14248502   2    1000022    12

DECAY 1000014  3.8448356
    0.57264307   2    1000024    13
    0.28494916   2    1000023    14
    0.14240777   2    1000022    14

DECAY 1000016  34.534615
    0.49337142   2    1000024    15
    0.24350088   2    1000023    16
    0.14653535   2    1000037    15
    0.071503956   2    1000022    16
    0.044458258   2    1000015    24
    0.00039882778   2    1000035    16
    0.00023130941   2    1000025    16

DECAY 2000001  143.93569
    0.98056011   2    1000021    1
    0.019417279   2    1000022    1

DECAY 1000001  209.0161
    0.68079725   2    1000021    1
    0.20897539   2   -1000024    2
    0.10484746   2    1000023    1
    0.0033319353   2    1000022    1
    0.001562536   2   -1000037    2
    0.00032161425   2    1000035    1
    0.00016381253   2    1000025    1

DECAY 2000003  144.00074
    0.9801254   2    1000021    3
    0.019408867   2    1000022    3
    0.00022020838   2   -1000037    4
    0.00012212076   2    1000025    3
    0.00012015587   2    1000035    3

DECAY 1000003  209.05188
    0.68068991   2    1000021    3
    0.20894036   2   -1000024    4
    0.10483064   2    1000023    3
    0.0033315953   2    1000022    3
    0.0015699183   2   -1000037    4
    0.00039755035   2    1000035    3
    0.0002400232   2    1000025    3

DECAY 1000005  1.0922086
    0.50530509   2    1000022    5
    0.31942621   2   -1000024    6
    0.1752687   2    1000023    5

DECAY 2000005  24.236344
    0.42473094   2   -1000024    6
    0.24727836   2    1000005    25
    0.22547625   2    1000023    5
    0.047099718   2    1000005    23
    0.031936778   2    1000006   -24
    0.0082589028   2    1000025    5
    0.0078308533   2    1000035    5
    0.0073882069   2    1000022    5

DECAY 2000002  152.7137
    0.92666183   2    1000021    2
    0.073257492   2    1000022    2

DECAY 1000002  209.0103
    0.68059289   2    1000021    2
    0.2106733   2    1000024    1
    0.10497544   2    1000023    2
    0.0033684751   2    1000022    2
    0.00023463916   2    1000035    2

DECAY 2000004  152.71691
    0.92664257   2    1000021    4
    0.073255954   2    1000022    4

DECAY 1000004  209.04506
    0.6804846   2    1000021    4
    0.21064016   2    1000024    3
    0.10495818   2    1000023    4
    0.0033679214   2    1000022    4
    0.00023841535   2    1000035    4
    0.00020739324   2    1000037    3
    0.000103329   2    1000025    4

DECAY 1000006  14.537269
    0.51279052   2    1000024    5
    0.23990413   2    1000023    6
    0.12867196   2    1000023    4
    0.057526851   2    1000005    24
    0.056376311   2    1000022    6
    0.0043860986   2    1000022    4
    0.0003319812   3    1000022    24    5

DECAY 2000006  47.165684
    0.28112466   2    1000006    23
    0.27531506   2    2000005    24
    0.094189288   2    1000006    25
    0.088428472   2    1000037    5
    0.08252206   2    1000024    5
    0.055044576   2    1000022    6
    0.04141937   2    1000005    24
    0.039390657   2    1000023    6
    0.022229444   2    1000025    6
    0.020336416   2    1000035    6

DECAY 1000024  3.3347312e-05
    0.73259309   2    1000022    24
    0.13366314   3    1000022   -11    12
    0.13341264   3    1000022   -13    14
    0.00032637747   3    1000022   -15    16

DECAY 1000037  17.869209
    0.48206876   2   -1000005    6
    0.15281566   2    1000024    25
    0.15121776   2    1000023    24
    0.15035349   2    1000024    23
    0.047739678   2    1000022    24
    0.0045957344   3    1000024    6   -6
    0.0034375866   3    1000023   -5    6
    0.0019751287   2   -1000011    12
    0.0019746882   2   -1000013    14
    0.0015318611   2    1000006   -5
    0.0012900905   3    1000022   -5    6
    0.00077045544   2    1000014   -13
    0.00010916355   3    1000024    5   -5

DECAY 1000022 -1


DECAY 1000023  4.4289972e-05
    0.45647904   2    1000022    23
    0.34286721   2    1000022    25
    0.10329431   3    1000022    12   -12
    0.048427028   3    1000022    11   -11
    0.048349938   3    1000022    13   -13
    0.00044393131   3    1000022    5   -5
    0.00013298214   3    1000022    15   -15

DECAY 1000025  18.660809
    0.22999388   2    1000005   -5
    0.22999388   2   -1000005    5
    0.14508039   2    1000024   -24
    0.14508039   2   -1000024    24
    0.098788322   2    1000023    23
    0.095094077   2    1000023    25
    0.022008876   2    1000022    25
    0.021046441   2    1000022    23
    0.0040322544   3    1000024    5   -6
    0.0040322544   3   -1000024   -5    6
    0.0014943699   3    1000023    6   -6
    0.00064283378   3    1000022    6   -6
    0.00052713815   3    1000023    5   -5
    0.00039378641   2    1000013   -13
    0.00039378641   2   -1000013    13
    0.00029605657   2    1000012   -12
    0.00029605657   2   -1000012    12
    0.00029597402   2    1000014   -14
    0.00029597402   2   -1000014    14

DECAY 1000035  17.943148
    0.2403915   2    1000005   -5
    0.2403915   2   -1000005    5
    0.15094146   2    1000024   -24
    0.15094146   2   -1000024    24
    0.10522907   2    1000023    25
    0.048124282   2    1000023    23
    0.025452639   2    1000022    23
    0.024481359   2    1000022    25
    0.0038216866   3    1000024    5   -6
    0.0038216866   3   -1000024   -5    6
    0.0015049387   3    1000023    6   -6
    0.00061519077   3    1000022    6   -6
    0.00055905778   3    1000023    5   -5
    0.00054828074   2    1000013   -13
    0.00054828074   2   -1000013    13
    0.00053520407   2    1000012   -12
    0.00053520407   2   -1000012    12
    0.00053505547   2    1000014   -14
    0.00053505547   2   -1000014    14
    0.00020304859   2    1000011   -11
    0.00020304859   2   -1000011    11

DECAY 1000021  290.69752
    0.1365377   2    1000005   -5
    0.1365377   2   -1000005    5
    0.12906868   2    1000006   -6
    0.12906868   2   -1000006    6
    0.10926264   2    2000005   -5
    0.10926264   2   -2000005    5
    0.079627316   2    2000006   -6
    0.079627316   2   -2000006    6
    0.042606145   2    1000006   -4
    0.042606145   2   -1000006    4
    0.0018335093   3    1000037    5   -6
    0.0018335093   3   -1000037   -5    6
    0.00077864966   3    1000035    6   -6
    0.00072650395   3    1000025    6   -6
    0.0002313569   3    1000025    5   -5
    0.00022828809   3    1000035    5   -5

DECAY 25  0.0037202743
    0.59267643   2   -5    5
    0.20861006   2   -24    24
    0.072282028   2    21    21
    0.068215379   2   -15    15
    0.029381743   2   -4    4
    0.024630192   2    23    23
    0.0023477703   2    22    22
    0.0013956598   2    22    23
    0.00023668598   2   -13    13
    0.00022295091   2   -3    3
    6.1643847e-07   2   -1    1
    3.296666e-07   2    1000022    1000022
    1.5141539e-07   2   -2    2
    5.321006e-09   2   -11    11

DECAY 35  148.95656
    0.34144447   2   -5    5
    0.22150245   2   -15    15
    0.093304012   2   -1000024    1000037
    0.093304012   2   -1000037    1000024
    0.049211199   2    1000023    1000025
    0.044495446   2   -1000006    1000006
    0.042807737   2    1000023    1000035
    0.036411188   2   -2000006    2000006
    0.013672123   2    1000022    1000025
    0.012974686   2    1000022    1000035
    0.010134029   2   -2000005    1000005
    0.010134029   2   -1000005    2000005
    0.0093940196   2   -2000006    1000006
    0.0093940196   2   -1000006    2000006
    0.0022481121   2   -2000015    1000015
    0.0022481121   2   -1000015    2000015
    0.0019367371   2   -1000024    1000024
    0.00096397533   2    1000023    1000023
    0.00086671496   2   -13    13
    0.00064585822   2    1000025    1000035
    0.00054748712   2    1000022    1000023
    0.00049342669   2   -1000005    1000005
    0.00040934071   2   -2000005    2000005
    0.00034234524   2   -3    3
    0.00030583057   2   -6    6
    0.00025497871   2    1000035    1000035
    0.00017645918   2   -1000015    1000015
    0.00015720908   2    1000025    1000025
    0.00010055131   2   -2000015    2000015
    7.7044506e-05   2    1000022    1000022
    2.8074407e-05   2   -1000037    1000037
    8.9346904e-06   2    25    25
    4.2006032e-06   2    21    21
    9.4652368e-07   2   -1    1
    5.7313498e-08   2    23    23
    1.9463964e-08   2   -11    11
    1.3299661e-08   2    22    23
    1.1531546e-08   2   -24    24
    1.1270835e-08   2   -1000011    1000011
    1.0943473e-08   2   -1000013    1000013
    7.5383401e-09   2    22    22
    7.4336712e-09   2   -2000013    1000013
    7.4336712e-09   2   -1000013    2000013
    4.462211e-09   2   -2000011    2000011
    4.4228919e-09   2   -2000013    2000013
    2.8068568e-09   2   -4    4
    1.7388106e-13   2   -2000011    1000011
    1.7388106e-13   2   -1000011    2000011
    1.4478187e-14   2   -2    2

DECAY 36  142.56385
    0.32899518   2   -5    5
    0.21348977   2   -15    15
    0.097545701   2   -1000024    1000037
    0.097545701   2   -1000037    1000024
    0.052476877   2   -2000006    1000006
    0.052476877   2   -1000006    2000006
    0.051179319   2    1000023    1000035
    0.045031551   2    1000023    1000025
    0.014221555   2    1000022    1000035
    0.013646781   2    1000022    1000025
    0.011060367   2   -2000005    1000005
    0.011060367   2   -1000005    2000005
    0.0025059419   2   -2000015    1000015
    0.0025059419   2   -1000015    2000015
    0.0020709964   2   -1000024    1000024
    0.0010308479   2    1000023    1000023
    0.00083539503   2   -13    13
    0.00057371041   2    1000022    1000023
    0.00044866742   2    1000035    1000035
    0.00042552245   2    1000025    1000035
    0.00032989742   2   -3    3
    0.00024242443   2    1000025    1000025
    0.00014891966   2   -6    6
    8.0459009e-05   2    1000022    1000022
    6.6139089e-05   2   -1000037    1000037
    3.9348024e-06   2    21    21
    9.1210158e-07   2   -1    1
    1.3262874e-07   2    23    25
    4.2088418e-08   2    22    23
    2.6396434e-08   2    22    22
    1.8760497e-08   2   -11    11
    7.7267116e-09   2   -2000013    1000013
    7.7267116e-09   2   -1000013    2000013
    2.300803e-09   2   -4    4
    1.9147542e-12   2    23    35
    1.8072847e-13   2   -2000011    1000011
    1.8072847e-13   2   -1000011    2000011
    1.1866324e-14   2   -2    2
    3.707981e-36   2    25    25

DECAY 37  138.29809
    0.34095834   2   -5    6
    0.22661115   2   -15    16
    0.1020733   2    1000023    1000037
    0.10072939   2    1000024    1000035
    0.10064377   2    1000024    1000025
    0.0521204   2   -2000005    2000006
    0.028461642   2    1000022    1000037
    0.024352304   2   -1000005    1000006
    0.014236993   2   -2000005    1000006
    0.005108836   2   -1000015    1000016
    0.0012210718   2   -1000005    2000006
    0.00117944   2    1000022    1000024
    0.00080115105   2   -13    14
    0.00050548949   2   -5    4
    0.00037628965   2    1000025    1000037
    0.00034182539   2   -3    4
    0.00020210891   2    1000035    1000037
    5.4583706e-05   2   -2000015    1000016
    1.6068893e-05   2   -3    2
    3.6097161e-06   2   -5    2
    9.4923678e-07   2   -1    2
    9.4763328e-07   2   -3    6
    1.3659722e-07   2    24    25
    4.7657662e-08   2   -1000011    1000012
    4.7161249e-08   2   -1000013    1000014
    4.4675426e-08   2   -1    4
    2.0089548e-08   2   -1    6
    1.8739007e-08   2   -11    12
    1.6101988e-08   2   -2000013    1000014
    5.350466e-09   2    1000023    1000024
    3.7664369e-13   2   -2000011    1000012
    4.0344382e-14   2    24    35

DECAY 6  2.43
    1   2    5    24

DECAY 15 -1
