BLOCK SPINFO
   1   SPheno
   2   v4.0.5be

BLOCK SPHENOINFO
   1   2
   2   2

BLOCK MODSEL
   1   0

BLOCK MINPAR
   3    55.196867
   4   -1

BLOCK EXTPAR
   0    1447.8501
   1   -45.138149
   2    574.74828
   3    3000
   11    3032.9323
   12    1953.454
   13   -425.58258
   23   -138.38396
   25    55.32167
   26    2839.2433
   31    1943.8527
   32    1943.8527
   33    1435.5972
   34    405.86601
   35    405.86601
   36    475.82648
   41    5000
   42    5000
   43    1503.9863
   44    5000
   45    5000
   46    1509.5761
   47    5000
   48    5000
   49    1155.5167

BLOCK SMINPUTS
   1    127.90897
   2    1.1663787e-05
   3    0.1184
   4    91.1876
   5    4.18
   6    173.2
   7    1.777
   8    0
   11    0.00051099893
   12    0
   13    0.10565837
   14    0
   21    0.005
   22    0.0025
   23    0.095
   24    1.27

BLOCK GAUGE Q=  1447.8501
   1    0.35536298
   2    0.66519887
   3    1.219778

BLOCK YU Q=  1447.8501
   1   1    8.3857418e-06
   2   2    0.0042599568
   3   3    1.013065

BLOCK YD Q=  1447.8501
   1   1    0.00093221699
   2   2    0.017712123
   3   3    0.92446714

BLOCK YE Q=  1447.8501
   1   1    0.00016267868
   2   2    0.033636792
   3   3    0.56571551

BLOCK AU Q=  1447.8501
   1   1    0
   2   2    0
   3   3    3032.9324

BLOCK AD Q=  1447.8501
   1   1    0
   2   2    0
   3   3    1953.4542

BLOCK AE Q=  1447.8501
   1   1    0
   2   2    0
   3   3   -425.58257

BLOCK MSOFT Q=  1447.8501
   1   -45.138149
   2    574.74828
   3    3000
   21    8287656.6
   22    47530.429
   31    1943.8527
   32    1943.8527
   33    1435.5972
   34    405.86601
   35    405.86601
   36    475.82648
   41    5000
   42    5000
   43    1503.9863
   44    5000
   45    5000
   46    1509.5761
   47    5000
   48    5000
   49    1155.5167

BLOCK MASS
   6    173.2
   23    91.1876
   24    80.429995
   15    1.777
   25    125.01215
   35    2835.4464
   36    2839.2433
   37    2836.4009
   1000001    5027.6416
   2000001    5017.2129
   1000002    5027.1919
   2000002    5018.5402
   1000003    5027.6495
   2000003    5017.2275
   1000004    5027.1998
   2000004    5018.541
   1000005    1147.7997
   2000005    1474.8597
   1000006    1303.0632
   2000006    1608.7247
   1000011    1948.2066
   2000011    410.35326
   1000012    1946.2086
   1000013    1948.1996
   2000013    410.35669
   1000014    1946.2017
   1000015    478.4012
   2000015    1438.024
   1000016    1435.4956
   1000021    3185.4972
   1000022   -40.345273
   1000023    142.88033
   1000025   -157.60904
   1000035    620.57514
   1000024    142.12075
   1000037    620.77871

BLOCK ALPHA
      -0.018162308

BLOCK HMIX Q=  1447.8501
   1   -138.38396
   2    55.32167
   3    244.01697
   4    8061302.3

BLOCK STOPMIX
   1   1   -0.67598637
   1   2    0.73691412
   2   1   -0.73691412
   2   2   -0.67598637

BLOCK SBOTMIX
   1   1   -0.027204271
   1   2    0.99962989
   2   1   -0.99962989
   2   2   -0.027204271

BLOCK STAUMIX
   1   1   -0.007014703
   1   2    0.9999754
   2   1   -0.9999754
   2   2   -0.007014703

BLOCK NMIX
   1   1    0.94591053
   1   2    0.012521227
   1   3   -0.31075867
   1   4    0.092333796
   2   1   -0.15981659
   2   2   -0.11660437
   2   3   -0.69619229
   2   4   -0.69005679
   3   1    0.28218162
   3   2   -0.075574762
   3   3    0.64646806
   3   4   -0.70479857
   4   1    0.0092438719
   4   2   -0.99021972
   4   3    0.028712127
   4   4    0.136217

BLOCK UMIX
   1   1   -0.040753369
   1   2   -0.99916924
   2   1    0.99916924
   2   2   -0.040753369

BLOCK VMIX
   1   1   -0.19304889
   1   2    0.98118914
   2   1    0.98118914
   2   2    0.19304889

BLOCK HIGGSBOUNDSINPUTHIGGSCOUPLINGSFERMIONS
       0, 3060.4872,3,36,15,15

BLOCK HIGGSBOUNDSINPUTHIGGSCOUPLINGSBOSONS
       0,4,36,21,21,23

BLOCK SPHENOLOWENERGY
   1    0.00028195386
   2    1.5942851e-06
   3    3.517151e-05
   4    4.3331955e-15
   5    1.8509608e-10
   6    3.7998926e-08
   7    1.4863574e-13
   8    6.349259e-09
   9    1.320387e-06
   10    9.5058027e-05
   11    0.98191302
   12    0.5427948
   13    19.392045
   14    0
   15    0
   16    0.0021604928
   17    2.2816929e-15
   18    2.4751942e-11
   19    8.2786423e-11
   20   -1.1286878e-14
   21   -4.8277056e-10
   22   -2.0291053e-07
   23    0
   24    0
   25    0
   26    0
   27    0
   28    0
   29    0
   30    0
   31    0
   39    9.2959031e-05
   40    0
   41    0
   42    0

BLOCK FWCOEF Q=  160
   305   4422   0   0   -0.18881911
   305   4422   0   2   -0.13887818
   305   4322   0   2    0.00013974089
   305   6421   0   0   -0.095227835
   305   6421   0   2   -0.079177225
   305   6321   0   2   -6.072134e-05
   3051111   4133   0   0    1.5915612
   3051111   4133   0   2    1.5927584
   3051111   4233   0   2    0.00040079528
   3051111   4137   0   0   -4.4142533
   3051111   4137   0   2   -4.4047159
   3051111   4237   0   2   -0.0031177464
   3051313   4133   0   0    1.5915612
   3051313   4133   0   2    1.5927549
   3051313   4233   0   2    0.00040078782
   3051313   4137   0   0   -4.4142533
   3051313   4137   0   2   -4.4047193
   3051313   4237   0   2   -0.0031177572
   3051212   4137   0   0    1.5053501
   3051212   4137   0   2    1.5032829
   3051212   4237   0   2    0.0006795141
   3051414   4137   0   0    1.5053501
   3051414   4137   0   2    1.5032829
   3051414   4237   0   2    0.00067951438
   3051616   4137   0   0    1.5053501
   3051616   4137   0   2    1.503285
   3051616   4237   0   2    0.00067959246

BLOCK IMFWCOEF Q=  160
   305   4422   0   0    3.8584677e-07
   305   4422   0   2   -4.2211777e-05
   305   4322   0   2    4.8742413e-06
   305   6421   0   0    3.3050327e-07
   305   6421   0   2    3.251176e-06
   305   6321   0   2    2.0167564e-06
   3051111   4133   0   2   -6.2868834e-07
   3051111   4233   0   2    8.5792671e-06
   3051111   4137   0   2    8.576244e-06
   3051111   4237   0   2   -6.6765623e-05
   3051313   4133   0   2   -6.2867923e-07
   3051313   4233   0   2    8.5791586e-06
   3051313   4137   0   2    8.57633e-06
   3051313   4237   0   2   -6.6765841e-05
   3051212   4137   0   2   -1.6557979e-06
   3051212   4237   0   2    1.4551684e-05
   3051414   4137   0   2   -1.6557966e-06
   3051414   4237   0   2    1.4551684e-05
   3051616   4137   0   2   -1.6465687e-06
   3051616   4237   0   2    1.4551672e-05

DECAY 23  2.4952


DECAY 24  2.085


DECAY 2000011  1.9693436
    0.91876394   2    1000022    11
    0.060585473   2    1000025    11
    0.020650505   2    1000023    11

DECAY 1000011  23.261939
    0.59416275   2   -1000037    12
    0.28892312   2    1000035    11
    0.098769127   2    1000022    11
    0.014877584   2    1000023    11
    0.0020559407   2    1000025    11
    0.0012114754   2   -1000024    12

DECAY 2000013  1.983631
    0.91259727   2    1000022    13
    0.061559874   2    1000025    13
    0.02224242   2    1000023    13
    0.003600435   2   -1000024    14

DECAY 1000013  23.305302
    0.59305415   2   -1000037    14
    0.28838525   2    1000035    13
    0.098766532   2    1000022    13
    0.015752105   2    1000023    13
    0.0028282317   2    1000025    13
    0.0012092169   2   -1000024    14

DECAY 1000015  7.3783497
    0.34281258   2   -1000024    16
    0.32750954   2    1000022    15
    0.17280798   2    1000023    15
    0.15686991   2    1000025    15

DECAY 2000015  23.476667
    0.35653378   2   -1000037    16
    0.19601603   2    1000023    15
    0.17359569   2    1000035    15
    0.16123903   2    1000025    15
    0.10909518   2    1000022    15
    0.001466193   2    1000015    23
    0.0014140877   2    1000015    25
    0.00064001252   2   -1000024    16

DECAY 1000012  23.306283
    0.5710293   2    1000037    11
    0.29374569   2    1000035    12
    0.089185473   2    1000022    12
    0.02710445   2    1000024    11
    0.018580525   2    1000025    12
    0.00035455797   2    1000023    12

DECAY 1000014  23.349497
    0.56997199   2    1000037    13
    0.29320056   2    1000035    14
    0.089020102   2    1000022    14
    0.02890738   2    1000024    13
    0.018546071   2    1000025    14
    0.00035390051   2    1000023    14

DECAY 1000016  23.51902
    0.40006675   2    1000024    15
    0.34228549   2    1000037    15
    0.17590126   2    1000035    16
    0.065139941   2    1000022    16
    0.013430901   2    1000025    16
    0.0029188542   2    1000015    24
    0.00025680273   2    1000023    16

DECAY 2000001  143.89279
    0.98053857   2    1000021    1
    0.017415297   2    1000022    1
    0.0015472338   2    1000025    1
    0.00049668335   2    1000023    1

DECAY 1000001  207.27146
    0.68595189   2    1000021    1
    0.20672448   2   -1000037    2
    0.10185878   2    1000035    1
    0.0025952834   2    1000022    1
    0.0016871157   2    1000025    1
    0.00082838181   2    1000023    1
    0.00035407126   2   -1000024    2

DECAY 2000003  143.95667
    0.98011403   2    1000021    3
    0.017428566   2    1000022    3
    0.001637026   2    1000025    3
    0.00060143014   2    1000023    3
    0.00021681244   2   -1000024    4

DECAY 1000003  207.30545
    0.68584342   2    1000021    3
    0.20669125   2   -1000037    4
    0.10184237   2    1000035    3
    0.0026094374   2    1000022    3
    0.0017497994   2    1000025    3
    0.00090129141   2    1000023    3
    0.00036242796   2   -1000024    4

DECAY 1000005  37.560033
    0.47927328   2   -1000024    6
    0.24480015   2    1000023    5
    0.20828672   2    1000025    5
    0.067481164   2    1000022    5
    0.00010018438   2   -1000037    6

DECAY 2000005  73.990826
    0.37351468   2   -1000024    6
    0.16166851   2    1000023    5
    0.14109507   2    1000025    5
    0.13210706   2   -1000037    6
    0.098033156   2    1000006   -24
    0.058762438   2    1000035    5
    0.033383225   2    1000022    5
    0.00084447507   2    1000005    25
    0.00059137586   2    1000005    23

DECAY 2000002  152.43431
    0.92650139   2    1000021    2
    0.065774969   2    1000022    2
    0.0058427462   2    1000025    2
    0.0018748048   2    1000023    2

DECAY 1000002  207.26815
    0.6857369   2    1000021    2
    0.19933564   2    1000037    1
    0.10117573   2    1000035    2
    0.0079449108   2    1000024    1
    0.0034955786   2    1000022    2
    0.0022429021   2    1000023    2

DECAY 2000004  152.43795
    0.92647943   2    1000021    4
    0.065773501   2    1000022    4
    0.0058484927   2    1000025    4
    0.0018804139   2    1000023    4

DECAY 1000004  207.30207
    0.68562838   2    1000021    4
    0.19930359   2    1000037    3
    0.1011595   2    1000035    4
    0.0080940724   2    1000024    3
    0.0034950861   2    1000022    4
    0.0022466975   2    1000023    4

DECAY 1000006  53.979838
    0.37801545   2    1000024    5
    0.22442306   2    1000023    6
    0.20370412   2    1000025    6
    0.098473315   2    1000037    5
    0.052841079   2    1000035    6
    0.040818732   2    1000022    6
    0.00077763559   2    1000022    4
    0.00048869739   2    1000023    4
    0.00039158582   3    1000022    24    5

DECAY 2000006  87.582991
    0.3782446   2    1000024    5
    0.20201598   2    1000025    6
    0.17315997   2    1000023    6
    0.14171688   2    1000006    23
    0.036340786   2    2000005    24
    0.032388712   2    1000037    5
    0.019743242   2    1000035    6
    0.013254792   2    1000022    6
    0.0016685294   2    1000006    25
    0.0014665181   2    1000005    24

DECAY 1000024  0.066737645
    0.99999499   2    1000022    24

DECAY 1000037  5.1332675
    0.25858408   2    1000023    24
    0.24940521   2    1000024    23
    0.24555792   2    1000025    24
    0.22817047   2    1000024    25
    0.014420451   2    1000022    24
    0.0016221292   3    1000023   -5    6
    0.001561633   3    1000025   -5    6
    0.00046246109   3    1000024    6   -6
    0.00010724327   3    1000022   -5    6

DECAY 1000022 -1


DECAY 1000023  0.046731903
    0.99997053   2    1000022    23

DECAY 1000025  0.019485325
    0.99943576   2    1000022    23

DECAY 1000035  5.7333881
    0.23252641   2    1000024   -24
    0.23252641   2   -1000024    24
    0.15769249   2    1000025    23
    0.15100372   2    1000025    25
    0.1419182   2    1000023    25
    0.067988567   2    1000023    23
    0.0067189429   2    1000022    25
    0.0065171125   2    1000022    23
    0.0013724528   3    1000024    5   -6
    0.0013724528   3   -1000024   -5    6
    0.00011684558   3    1000023    6   -6

DECAY 1000021  262.65428
    0.14038244   2    1000006   -6
    0.14038244   2   -1000006    6
    0.13593549   2    1000005   -5
    0.13593549   2   -1000005    5
    0.11076956   2    2000005   -5
    0.11076956   2   -2000005    5
    0.084949379   2    2000006   -6
    0.084949379   2   -2000006    6
    0.027867203   2    1000006   -4
    0.027867203   2   -1000006    4

DECAY 25  0.0050466113
    0.44200389   2   -5    5
    0.229801   2    1000022    1000022
    0.17585763   2   -24    24
    0.05527161   2    21    21
    0.050691768   2   -15    15
    0.021788034   2   -4    4
    0.021293438   2    23    23
    0.0017988263   2    22    22
    0.001151668   2    22    23
    0.00017580636   2   -13    13
    0.00016575878   2   -3    3
    4.5830556e-07   2   -1    1
    1.1227893e-07   2   -2    2
    3.9523216e-09   2   -11    11

DECAY 35  157.52949
    0.67181266   2   -5    5
    0.10235826   2   -15    15
    0.064164076   2   -1000024    1000037
    0.064164076   2   -1000037    1000024
    0.032696073   2    1000023    1000035
    0.027584162   2    1000025    1000035
    0.0095959803   2    1000022    1000023
    0.006090448   2   -1000024    1000024
    0.0058644885   2    1000022    1000035
    0.0041074518   2    1000022    1000025
    0.003481748   2    1000022    1000022
    0.0031230947   2    1000025    1000025
    0.001475401   2    1000023    1000025
    0.0008676673   2   -2000015    1000015
    0.0008676673   2   -1000015    2000015
    0.0003598982   2   -13    13
    0.0003395766   2   -6    6
    0.00025083696   2   -1000037    1000037
    0.00022540736   2   -3    3
    0.00017150747   2   -1000005    1000005
    0.00015853882   2   -1000006    1000006
    0.00012743472   2    1000035    1000035
    0.00010516996   2    1000023    1000023
    6.7802632e-06   2    21    21
    6.2316634e-07   2   -1    1
    4.2791111e-07   2   -1000015    1000015
    3.3279358e-07   2    25    25
    6.7368866e-08   2    23    23
    5.8826289e-08   2    22    23
    3.0822178e-08   2    22    22
    2.1924734e-08   2   -24    24
    1.2271919e-08   2   -1000011    1000011
    1.204679e-08   2   -1000013    1000013
    8.0832639e-09   2   -11    11
    3.7147567e-09   2   -4    4
    7.1407672e-11   2   -2000013    1000013
    7.1407672e-11   2   -1000013    2000013
    1.9145804e-14   2   -2    2
    1.6702331e-15   2   -2000011    1000011
    1.6702331e-15   2   -1000011    2000011

DECAY 36  149.18983
    0.66090362   2   -5    5
    0.10068911   2   -15    15
    0.067898414   2   -1000024    1000037
    0.067898414   2   -1000037    1000024
    0.033577654   2    1000023    1000035
    0.030015356   2    1000025    1000035
    0.0094507159   2    1000022    1000023
    0.0063989471   2   -1000024    1000024
    0.0063817018   2    1000022    1000035
    0.0048001533   2    1000022    1000025
    0.0037678024   2    1000022    1000022
    0.0036180634   2    1000025    1000025
    0.0013998508   2    1000023    1000025
    0.00091628787   2   -2000015    1000015
    0.00091628787   2   -1000015    2000015
    0.0003540325   2   -13    13
    0.00032738766   2   -6    6
    0.00022810124   2   -1000037    1000037
    0.00022170456   2   -3    3
    0.00011661658   2    1000035    1000035
    0.0001045017   2    1000023    1000023
    1.4527781e-05   2    21    21
    6.1292807e-07   2   -1    1
    1.1172427e-07   2    23    25
    9.0082398e-09   2    22    23
    7.9514879e-09   2   -11    11
    3.507808e-09   2   -4    4
    3.4952153e-10   2    22    22
    7.5244195e-11   2   -2000013    1000013
    7.5244195e-11   2   -1000013    2000013
    5.807547e-12   2    23    35
    1.8079871e-14   2   -2    2
    1.7599694e-15   2   -2000011    1000011
    1.7599694e-15   2   -1000011    2000011
    2.4591263e-40   2    25    25

DECAY 37  172.16067
    0.65231534   2   -5    6
    0.10038243   2   -15    16
    0.06089391   2    1000023    1000037
    0.05957952   2    1000024    1000035
    0.050920366   2    1000025    1000037
    0.040504817   2   -1000005    1000006
    0.019453365   2    1000022    1000024
    0.010930989   2    1000022    1000037
    0.0018153304   2    1000023    1000024
    0.0015900788   2   -1000015    1000016
    0.00096737696   2   -5    4
    0.00035488776   2   -13    14
    0.00019543919   2   -3    4
    7.8799298e-05   2    1000024    1000025
    9.1479463e-06   2   -3    2
    6.9080703e-06   2   -5    2
    5.9467695e-07   2   -3    6
    5.4222717e-07   2   -1    2
    9.6592242e-08   2    24    25
    2.543428e-08   2   -1    4
    1.4021801e-08   2   -1    6
    9.3202738e-09   2    1000035    1000037
    8.3008616e-09   2   -11    12
    1.2953122e-10   2   -1000013    1000014
    3.0296912e-15   2   -1000011    1000012

DECAY 6  2.43
    1   2    5    24

DECAY 15 -1
