BLOCK SPINFO
   1   SPheno
   2   v4.0.5be

BLOCK SPHENOINFO
   1   2
   2   2

BLOCK MODSEL
   1   0

BLOCK MINPAR
   3    35.140766
   4    1

BLOCK EXTPAR
   0    1722.4179
   1   -484.76291
   2    463.95008
   3    3000
   11   -5378.2884
   12    1257.091
   13   -1607.8145
   23    938.1423
   25    34.186673
   26    3981.7534
   31    1814.1051
   32    1814.1051
   33    1463.6095
   34    478.76022
   35    478.76022
   36    1923.3182
   41    5000
   42    5000
   43    1641.7384
   44    5000
   45    5000
   46    1971.1614
   47    5000
   48    5000
   49    545.68816

BLOCK SMINPUTS
   1    127.90897
   2    1.1663787e-05
   3    0.1184
   4    91.1876
   5    4.18
   6    173.2
   7    1.777
   8    0
   11    0.00051099893
   12    0
   13    0.10565837
   14    0
   21    0.005
   22    0.0025
   23    0.095
   24    1.27

BLOCK GAUGE Q=  1722.4179
   1    0.35536298
   2    0.66519887
   3    1.219778

BLOCK YU Q=  1722.4179
   1   1    8.3879583e-06
   2   2    0.0042610828
   3   3    1.0133327

BLOCK YD Q=  1722.4179
   1   1    0.00057622667
   2   2    0.010948307
   3   3    0.57143629

BLOCK YE Q=  1722.4179
   1   1    0.00010055577
   2   2    0.020791744
   3   3    0.34968292

BLOCK AU Q=  1722.4179
   1   1    0
   2   2    0
   3   3   -5378.2885

BLOCK AD Q=  1722.4179
   1   1    0
   2   2    0
   3   3    1257.0909

BLOCK AE Q=  1722.4179
   1   1    0
   2   2    0
   3   3   -1607.8145

BLOCK MSOFT Q=  1722.4179
   1   -484.76291
   2    463.95008
   3    3000
   21    14974609
   22   -816268.2
   31    1814.1051
   32    1814.1051
   33    1463.6095
   34    478.76022
   35    478.76022
   36    1923.3182
   41    5000
   42    5000
   43    1641.7384
   44    5000
   45    5000
   46    1971.1614
   47    5000
   48    5000
   49    545.68816

BLOCK MASS
   6    173.2
   23    91.1876
   24    80.429995
   15    1.777
   25    120.82899
   35    3980.721
   36    3981.7534
   37    3980.9648
   1000001    5040.4358
   2000001    5029.5235
   1000002    5039.999
   2000002    5031.2449
   1000003    5040.4396
   2000003    5029.5255
   1000004    5040.0012
   2000004    5031.2454
   1000005    592.79027
   2000005    1638.3721
   1000006    1503.0253
   2000006    1973.8346
   1000011    1818.7934
   2000011    482.35781
   1000012    1816.7403
   1000013    1818.7961
   2000013    482.40411
   1000014    1816.7419
   1000015    1468.7846
   2000015    1925.9783
   1000016    1467.1994
   1000021    3212.4548
   1000022   -481.31237
   1000023    490.21513
   1000025   -949.01355
   1000035    952.39746
   1000024    490.41794
   1000037    954.55776

BLOCK ALPHA
      -0.028518008

BLOCK HMIX Q=  1722.4179
   1    938.1423
   2    34.186673
   3    243.82247
   4    15854360

BLOCK STOPMIX
   1   1    0.86583485
   1   2    0.5003299
   2   1   -0.5003299
   2   2    0.86583485

BLOCK SBOTMIX
   1   1    0.027431369
   1   2    0.99962369
   2   1   -0.99962369
   2   2    0.027431369

BLOCK STAUMIX
   1   1    0.99922838
   1   2    0.039276565
   2   1   -0.039276565
   2   2    0.99922838

BLOCK NMIX
   1   1   -0.99764135
   1   2   -0.0022552348
   1   3   -0.061725043
   1   4   -0.029944521
   2   1    0.0030521072
   2   2    0.99131409
   2   3   -0.1157779
   2   4    0.06230995
   3   1    0.064820418
   3   2   -0.037920091
   3   3   -0.7033796
   3   4   -0.70683627
   4   1   -0.02237721
   4   2    0.12591008
   4   3    0.69860048
   4   4   -0.70399097

BLOCK UMIX
   1   1   -0.98660405
   1   2    0.16313322
   2   1    0.16313322
   2   2    0.98660405

BLOCK VMIX
   1   1   -0.99613482
   1   2    0.087837412
   2   1    0.087837412
   2   2    0.99613482

BLOCK HIGGSBOUNDSINPUTHIGGSCOUPLINGSFERMIONS
       0, 1168.7286,3,36,15,15

BLOCK HIGGSBOUNDSINPUTHIGGSCOUPLINGSBOSONS
       0,4,36,21,21,23

BLOCK SPHENOLOWENERGY
   1    0.00027572257
   2    1.6015162e-06
   3    3.5292638e-05
   4    2.2653391e-15
   5    9.677204e-11
   6    2.0219633e-08
   7    7.5850266e-14
   8    3.2402992e-09
   9    6.8603196e-07
   10    9.6527706e-05
   11    0.99709425
   12    0.54196085
   13    19.362287
   14    0
   15    0
   16    0.0021571586
   17    2.2816569e-15
   18    2.4830044e-11
   19    8.2972443e-11
   20    3.1533779e-15
   21    1.3477543e-10
   22    5.8481953e-08
   23    0
   24    0
   25    0
   26    0
   27    0
   28    0
   29    0
   30    0
   31    0
   39    0.00010433218
   40    0
   41    0
   42    0

BLOCK FWCOEF Q=  160
   305   4422   0   0   -0.18881911
   305   4422   0   2   -0.13327678
   305   4322   0   2    0.00036293814
   305   6421   0   0   -0.095227835
   305   6421   0   2   -0.066986667
   305   6321   0   2    8.4623437e-05
   3051111   4133   0   0    1.5970773
   3051111   4133   0   2    1.5982145
   3051111   4233   0   2    0.00027380212
   3051111   4137   0   0   -4.4197694
   3051111   4137   0   2   -4.4220026
   3051111   4237   0   2   -0.0021155858
   3051313   4133   0   0    1.5970773
   3051313   4133   0   2    1.5982128
   3051313   4233   0   2    0.00027380142
   3051313   4137   0   0   -4.4197694
   3051313   4137   0   2   -4.4220043
   3051313   4237   0   2   -0.0021155872
   3051212   4137   0   0    1.5053501
   3051212   4137   0   2    1.505861
   3051212   4237   0   2    0.00046052521
   3051414   4137   0   0    1.5053501
   3051414   4137   0   2    1.505861
   3051414   4237   0   2    0.00046052522
   3051616   4137   0   0    1.5053501
   3051616   4137   0   2    1.5058618
   3051616   4237   0   2    0.00046052875

BLOCK IMFWCOEF Q=  160
   305   4422   0   0    3.8590733e-07
   305   4422   0   2    3.9912958e-05
   305   4322   0   2    7.8686154e-06
   305   6421   0   0    3.3055515e-07
   305   6421   0   2   -1.8397129e-05
   305   6321   0   2    3.3515233e-06
   3051111   4133   0   2   -2.171463e-06
   3051111   4233   0   2    5.2272729e-06
   3051111   4137   0   2    2.4714204e-05
   3051111   4237   0   2   -4.0392441e-05
   3051313   4133   0   2   -2.1715366e-06
   3051313   4233   0   2    5.2272615e-06
   3051313   4137   0   2    2.4714248e-05
   3051313   4237   0   2   -4.0392467e-05
   3051212   4137   0   2   -4.9422998e-06
   3051212   4237   0   2    8.7927235e-06
   3051414   4137   0   2   -4.9422976e-06
   3051414   4237   0   2    8.7927235e-06
   3051616   4137   0   2   -4.9273662e-06
   3051616   4237   0   2    8.7927188e-06

DECAY 23  2.4952


DECAY 24  2.085


DECAY 2000011  4.5227364e-05
    1   2    1000022    11

DECAY 1000011  22.450579
    0.59691204   2   -1000024    12
    0.30234368   2    1000023    11
    0.088339372   2    1000022    11
    0.0099635565   2   -1000037    12
    0.002439294   2    1000035    11

DECAY 2000013  4.9056842e-05
    1   2    1000022    13

DECAY 1000013  22.460898
    0.59663897   2   -1000024    14
    0.30221329   2    1000023    13
    0.088301281   2    1000022    13
    0.0099590165   2   -1000037    14
    0.002617333   2    1000035    13
    0.00018452468   2    1000025    13

DECAY 1000015  17.871518
    0.55890394   2   -1000024    16
    0.28517003   2    1000023    15
    0.084122695   2    1000022    15
    0.033696446   2    1000035    15
    0.033195542   2    1000025    15
    0.0049113454   2   -1000037    16

DECAY 2000015  14.896516
    0.56774301   2    1000022    15
    0.17827469   2   -1000037    16
    0.09178831   2    1000025    15
    0.089641788   2    1000035    15
    0.035475076   2    1000016   -24
    0.017302528   2    1000015    23
    0.016459646   2    1000015    25
    0.0021930662   2   -1000024    16
    0.0011218795   2    1000023    15

DECAY 1000012  22.48817
    0.60658224   2    1000024    11
    0.29941437   2    1000023    12
    0.086584139   2    1000022    12
    0.0035541543   2    1000035    12
    0.0028755819   2    1000037    11
    0.00098951039   2    1000025    12

DECAY 1000014  22.496522
    0.60637339   2    1000024    13
    0.29930355   2    1000023    14
    0.08655209   2    1000022    14
    0.0035528424   2    1000035    14
    0.0032289814   2    1000037    13
    0.00098914513   2    1000025    14

DECAY 1000016  17.868407
    0.57003838   2    1000024    15
    0.27937233   2    1000023    16
    0.081061986   2    1000022    16
    0.066583842   2    1000037    15
    0.0022999629   2    1000035    16
    0.00064349952   2    1000025    16

DECAY 2000001  141.90688
    0.9805779   2    1000021    1
    0.019334952   2    1000022    1

DECAY 1000001  206.196
    0.68034859   2    1000021    1
    0.2055157   2   -1000024    2
    0.10362924   2    1000023    1
    0.0053233097   2   -1000037    2
    0.0032500153   2    1000022    1
    0.0016881689   2    1000035    1
    0.00024498079   2    1000025    1

DECAY 2000003  141.92935
    0.98042411   2    1000021    3
    0.019332213   2    1000022    3
    0.00011619878   2    1000025    3

DECAY 1000003  206.2093
    0.68030662   2    1000021    3
    0.20550263   2   -1000024    4
    0.1036234   2    1000023    3
    0.0053311599   2   -1000037    4
    0.0032500252   2    1000022    3
    0.001714448   2    1000035    3
    0.00027172332   2    1000025    3

DECAY 1000005  0.047277367
    0.84505194   2    1000022    5
    0.15494806   2    1000023    5

DECAY 2000005  43.384491
    0.33622156   2   -1000037    6
    0.25860516   2   -1000024    6
    0.13676168   2    1000023    5
    0.10671953   2    1000006   -24
    0.054265756   2    1000035    5
    0.05405957   2    1000025    5
    0.031829986   2    1000005    25
    0.016785634   2    1000005    23
    0.0047511214   2    1000022    5

DECAY 2000002  150.35784
    0.92665373   2    1000021    2
    0.073018776   2    1000022    2
    0.00029203058   2    1000025    2

DECAY 1000002  206.19218
    0.68014089   2    1000021    2
    0.20949055   2    1000024    1
    0.10384933   2    1000023    2
    0.003419072   2    1000022    2
    0.0015433413   2    1000037    1
    0.0014871864   2    1000035    2

DECAY 2000004  150.36121
    0.9266329   2    1000021    4
    0.07301715   2    1000022    4
    0.00029763182   2    1000025    4

DECAY 1000004  206.20522
    0.68009866   2    1000021    4
    0.2094789   2    1000024    3
    0.10384282   2    1000023    4
    0.003418864   2    1000022    4
    0.0015958449   2    1000037    3
    0.0014911785   2    1000035    4

DECAY 1000006  29.523392
    0.31419067   2    1000024    5
    0.15939579   2    1000037    5
    0.14748509   2    1000023    6
    0.14218955   2    1000025    6
    0.12663631   2    1000035    6
    0.058354855   2    1000023    4
    0.026213228   2    1000005    24
    0.023493532   2    1000022    6
    0.0019364063   2    1000022    4
    0.00010455711   3    1000022    24    5

DECAY 2000006  139.25932
    0.25855699   2    2000005    24
    0.24666315   2    1000006    23
    0.14842169   2    1000037    5
    0.10907651   2    1000006    25
    0.097344879   2    1000035    6
    0.087422968   2    1000025    6
    0.022692669   2    1000022    6
    0.016607194   2    1000024    5
    0.0079188315   2    1000023    6
    0.0052951122   2    1000005    24

DECAY 1000024  5.8987736e-08
    0.99966176   2   -2000013    14
    0.00012123733   3    1000022   -1    2
    0.00011026418   3    1000022   -3    4

DECAY 1000037  9.547181
    0.34409944   2   -1000005    6
    0.20126147   2    1000023    24
    0.1983524   2    1000024    23
    0.19186176   2    1000024    25
    0.061456181   2    1000022    24
    0.0016694197   3    1000023   -5    6
    0.00054630106   3    1000022   -5    6
    0.00050747253   3    1000024    6   -6
    0.00023202947   2   -2000013    14

DECAY 1000022 -1


DECAY 1000023  1.016732e-07
    0.38567127   2    2000013   -13
    0.38567127   2   -2000013    13
    0.11411041   2    2000011   -11
    0.11411041   2   -2000011    11
    0.00032492207   2    1000022    22

DECAY 1000025  11.484147
    0.17683986   2    1000024   -24
    0.17683986   2   -1000024    24
    0.16514597   2    1000023    23
    0.14757183   2    1000005   -5
    0.14757183   2   -1000005    5
    0.1370182   2    1000023    25
    0.038490892   2    1000022    25
    0.0053883547   2    1000022    23
    0.001419935   3    1000024    5   -6
    0.001419935   3   -1000024   -5    6
    0.00057631918   2    2000013   -13
    0.00057631918   2   -2000013    13
    0.00047982413   2    2000011   -11
    0.00047982413   2   -2000011    11

DECAY 1000035  10.164765
    0.19018053   2    1000024   -24
    0.19018053   2   -1000024    24
    0.1660764   2    1000023    25
    0.1658251   2    1000005   -5
    0.1658251   2   -1000005    5
    0.051571736   2    1000022    23
    0.050067725   2    1000022    25
    0.016527342   2    1000023    23
    0.0015520537   3    1000024    5   -6
    0.0015520537   3   -1000024   -5    6
    0.00017377912   2    2000013   -13
    0.00017377912   2   -2000013    13
    0.00011085119   3    1000023    6   -6

DECAY 1000021  253.33738
    0.17508291   2    1000005   -5
    0.17508291   2   -1000005    5
    0.10275929   2    2000005   -5
    0.10275929   2   -2000005    5
    0.10064214   2    1000006   -6
    0.10064214   2   -1000006    6
    0.08310003   2    2000006   -6
    0.08310003   2   -2000006    6
    0.037955201   2    1000006   -4
    0.037955201   2   -1000006    4
    0.00016972702   3    1000025    5   -5
    0.00016486718   3    1000035    5   -5
    0.00014111744   3    1000037    5   -6
    0.00014111744   3   -1000037   -5    6

DECAY 25  0.0033763598
    0.63371695   2   -5    5
    0.16601932   2   -24    24
    0.073542627   2    21    21
    0.072804505   2   -15    15
    0.031430195   2   -4    4
    0.018477146   2    23    23
    0.0023544401   2    22    22
    0.0011625394   2    22    23
    0.00025247489   2   -13    13
    0.0002389688   2   -3    3
    6.6072482e-07   2   -1    1
    1.6198025e-07   2   -2    2
    5.6759745e-09   2   -11    11

DECAY 35  103.03771
    0.3694905   2   -5    5
    0.13304119   2   -1000024    1000037
    0.13304119   2   -1000037    1000024
    0.10323405   2   -15    15
    0.07257903   2    1000022    1000025
    0.055543854   2    1000022    1000035
    0.020846218   2   -1000006    1000006
    0.018473029   2    1000023    1000025
    0.017991984   2    1000023    1000035
    0.016560195   2   -2000005    1000005
    0.016560195   2   -1000005    2000005
    0.0071387119   2   -1000024    1000024
    0.0051963174   2   -2000006    1000006
    0.0051963174   2   -1000006    2000006
    0.0038997357   2   -2000015    1000015
    0.0038997357   2   -1000015    2000015
    0.0035455449   2    1000022    1000022
    0.0029627598   2    1000025    1000035
    0.002772481   2   -2000006    2000006
    0.0022346991   2    1000022    1000023
    0.001739629   2    1000035    1000035
    0.0012369662   2   -1000037    1000037
    0.001120606   2   -6    6
    0.00061639647   2    1000025    1000025
    0.00034715081   2   -13    13
    0.00031354664   2    1000023    1000023
    0.0001775801   2   -3    3
    8.1322648e-05   2   -1000005    1000005
    7.1313258e-05   2    25    25
    4.137357e-05   2   -2000005    2000005
    3.1915253e-05   2   -1000015    1000015
    1.1929614e-05   2   -2000015    2000015
    9.4706394e-07   2    21    21
    4.9091696e-07   2   -1    1
    4.5016041e-07   2    23    23
    9.5617786e-08   2   -24    24
    8.0197713e-08   2    22    22
    6.0290839e-08   2    22    23
    3.3371586e-08   2   -1000011    1000011
    3.3052795e-08   2   -1000013    1000013
    2.3935172e-08   2   -4    4
    2.1829269e-08   2   -2000011    2000011
    2.1736355e-08   2   -2000013    2000013
    7.7960178e-09   2   -11    11
    5.8602082e-09   2   -2000013    1000013
    5.8602082e-09   2   -1000013    2000013
    1.3707157e-13   2   -2000011    1000011
    1.3707157e-13   2   -1000011    2000011
    1.2339627e-13   2   -2    2

DECAY 36  100.39677
    0.35381259   2   -5    5
    0.13575543   2   -1000024    1000037
    0.13575543   2   -1000037    1000024
    0.098868581   2   -15    15
    0.072064336   2    1000022    1000035
    0.058966142   2    1000022    1000025
    0.02066958   2   -2000006    1000006
    0.02066958   2   -1000006    2000006
    0.019130505   2    1000023    1000025
    0.018366148   2    1000023    1000035
    0.017058962   2   -2000005    1000005
    0.017058962   2   -1000005    2000005
    0.0081997155   2   -1000024    1000024
    0.0040746476   2    1000022    1000022
    0.0040294831   2   -2000015    1000015
    0.0040294831   2   -1000015    2000015
    0.0025880127   2    1000035    1000035
    0.002281817   2    1000025    1000035
    0.002167275   2    1000022    1000023
    0.0020572671   2   -1000037    1000037
    0.00083395671   2   -6    6
    0.00072735318   2    1000025    1000025
    0.00033246819   2   -13    13
    0.0003233384   2    1000023    1000023
    0.0001700628   2   -3    3
    7.2630625e-06   2    21    21
    9.6986757e-07   2    23    25
    4.701389e-07   2   -1    1
    9.2352984e-08   2    22    23
    5.022951e-08   2    22    22
    1.8482483e-08   2   -4    4
    7.4664681e-09   2   -11    11
    5.9919107e-09   2   -2000013    1000013
    5.9919107e-09   2   -1000013    2000013
    1.4015139e-13   2   -2000011    1000011
    1.4015139e-13   2   -1000011    2000011
    9.5290561e-14   2   -2    2
    1.2839637e-14   2    23    35
    1.6186379e-37   2    25    25

DECAY 37  112.17472
    0.4376366   2   -5    6
    0.12738673   2    1000022    1000037
    0.12420443   2    1000024    1000035
    0.12172444   2    1000024    1000025
    0.087641767   2   -15    16
    0.033170705   2    1000023    1000037
    0.029610445   2   -1000005    1000006
    0.014754464   2   -2000005    2000006
    0.0072052007   2   -2000015    1000016
    0.0054850082   2   -2000005    1000006
    0.004002864   2    1000023    1000024
    0.0030578722   2   -1000005    2000006
    0.0027001821   2    1000025    1000037
    0.00064766217   2   -5    4
    0.00030984484   2   -13    14
    0.00028089787   2    1000035    1000037
    0.00014934951   2   -3    4
    1.6518608e-05   2   -1000015    1000016
    7.0166098e-06   2   -3    2
    4.6249756e-06   2   -5    2
    1.7912879e-06   2   -3    6
    8.6782311e-07   2    24    25
    4.1410507e-07   2   -1    2
    7.8865673e-08   2   -2000011    1000012
    7.8745509e-08   2   -2000013    1000014
    7.195409e-08   2   -1    6
    3.4124277e-08   2    1000022    1000024
    2.0055685e-08   2   -1    4
    1.0642068e-08   2   -1000013    1000014
    7.2473031e-09   2   -11    12
    2.4891703e-13   2   -1000011    1000012

DECAY 6  2.43
    1   2    5    24

DECAY 15 -1
