BLOCK SPINFO
   1   SPheno
   2   v4.0.5be

BLOCK SPHENOINFO
   1   2
   2   2

BLOCK MODSEL
   1   0

BLOCK MINPAR
   3    33.074426
   4   -1

BLOCK EXTPAR
   0    1110.3669
   1    385.59778
   2    386.97269
   3    3000
   11   -2546.7317
   12   -1189.8256
   13    1394.4306
   23   -788.65215
   25    32.325166
   26    408.40961
   31    398.31593
   32    398.31593
   33    1324.6946
   34    1314.3536
   35    1314.3536
   36    1199.5036
   41    5000
   42    5000
   43    1458.1084
   44    5000
   45    5000
   46    1040.0705
   47    5000
   48    5000
   49    889.29921

BLOCK SMINPUTS
   1    127.90897
   2    1.1663787e-05
   3    0.1184
   4    91.1876
   5    4.18
   6    173.2
   7    1.777
   8    0
   11    0.00051099893
   12    0
   13    0.10565837
   14    0
   21    0.005
   22    0.0025
   23    0.095
   24    1.27

BLOCK GAUGE Q=  1110.3669
   1    0.35536298
   2    0.66519887
   3    1.219778

BLOCK YU Q=  1110.3669
   1   1    8.3883832e-06
   2   2    0.0042612986
   3   3    1.0133841

BLOCK YD Q=  1110.3669
   1   1    0.000544878
   2   2    0.010352682
   3   3    0.54034824

BLOCK YE Q=  1110.3669
   1   1    9.5085196e-05
   2   2    0.019660603
   3   3    0.330659

BLOCK AU Q=  1110.3669
   1   1    0
   2   2    0
   3   3   -2546.7318

BLOCK AD Q=  1110.3669
   1   1    0
   2   2    0
   3   3   -1189.8262

BLOCK AE Q=  1110.3669
   1   1    0
   2   2    0
   3   3    1394.4306

BLOCK MSOFT Q=  1110.3669
   1    385.59778
   2    386.97269
   3    3000
   21   -452439.37
   22   -616216.45
   31    398.31593
   32    398.31593
   33    1324.6946
   34    1314.3536
   35    1314.3536
   36    1199.5036
   41    5000
   42    5000
   43    1458.1084
   44    5000
   45    5000
   46    1040.0705
   47    5000
   48    5000
   49    889.29921

BLOCK MASS
   6    173.2
   23    91.1876
   24    80.429995
   15    1.777
   25    122.66487
   35    408.35133
   36    408.40961
   37    419.03386
   1000001    5012.8391
   2000001    5002.1365
   1000002    5012.3968
   2000002    5003.7884
   1000003    5012.8447
   2000003    5002.143
   1000004    5012.4012
   2000004    5003.7896
   1000005    763.80285
   2000005    1380.5735
   1000006    866.30927
   2000006    1423.1806
   1000011    407.83698
   2000011    1315.8381
   1000012    399.77252
   1000013    407.82995
   2000013    1315.8323
   1000014    399.77398
   1000015    1194.7014
   2000015    1328.87
   1000016    1323.6031
   1000021    3162.7555
   1000022    383.81238
   1000023    405.75375
   1000025   -792.92811
   1000035    798.39136
   1000024    405.62438
   1000037    799.58109

BLOCK ALPHA
      -0.034935579

BLOCK HMIX Q=  1110.3669
   1   -788.65215
   2    32.325166
   3    244.28614
   4    166798.41

BLOCK STOPMIX
   1   1    0.2898643
   1   2    0.95706776
   2   1   -0.95706776
   2   2    0.2898643

BLOCK SBOTMIX
   1   1   -0.046791757
   1   2    0.99890467
   2   1   -0.99890467
   2   2   -0.046791757

BLOCK STAUMIX
   1   1   -0.14242415
   1   2    0.98980572
   2   1   -0.98980572
   2   2   -0.14242415

BLOCK NMIX
   1   1    0.98810795
   1   2   -0.11895866
   1   3   -0.088276371
   1   4   -0.041216551
   2   1    0.13151966
   2   2    0.98211482
   2   3    0.12113003
   2   4    0.058996435
   3   1    0.027617067
   3   2   -0.048052848
   3   3    0.70431794
   3   4   -0.70771778
   4   1   -0.074716555
   4   2    0.13780509
   4   3   -0.69388114
   4   4   -0.70282015

BLOCK UMIX
   1   1   -0.98266305
   1   2   -0.18540045
   2   1    0.18540045
   2   2   -0.98266305

BLOCK VMIX
   1   1   -0.99591167
   1   2    0.090332391
   2   1    0.090332391
   2   2    0.99591167

BLOCK HIGGSBOUNDSINPUTHIGGSCOUPLINGSFERMIONS
       0, 1044.9164,3,36,15,15

BLOCK HIGGSBOUNDSINPUTHIGGSCOUPLINGSBOSONS
       0,4,36,21,21,23

BLOCK SPHENOLOWENERGY
   1    0.00048251173
   2    1.5999845e-06
   3    3.5232794e-05
   4    1.665357e-15
   5    7.1041628e-11
   6    8.9850126e-09
   7    5.6505956e-14
   8    2.4106208e-09
   9    3.1482091e-07
   10    5.2884001e-05
   11    0.54627148
   12    0.54372757
   13    19.263799
   14    0
   15    0
   16    0.0021712596
   17    2.2818393e-15
   18    2.4777985e-11
   19    8.2853731e-11
   20   -2.6402479e-14
   21   -1.1287998e-09
   22   -1.0768682e-07
   23    0
   24    0
   25    0
   26    0
   27    0
   28    0
   29    0
   30    0
   31    0
   39    9.9259093e-05
   40    0
   41    0
   42    0

BLOCK FWCOEF Q=  160
   305   4422   0   0   -0.18881911
   305   4422   0   2   -0.34792782
   305   4322   0   2   -0.0022753876
   305   6421   0   0   -0.095227835
   305   6421   0   2   -0.22827654
   305   6321   0   2   -0.0021295989
   3051111   4133   0   0    1.5813473
   3051111   4133   0   2    1.5826931
   3051111   4233   0   2   -0.00024508195
   3051111   4137   0   0   -4.4040394
   3051111   4137   0   2   -4.4002116
   3051111   4237   0   2    0.0019459304
   3051313   4133   0   0    1.5813473
   3051313   4133   0   2    1.5826872
   3051313   4233   0   2   -0.00024518668
   3051313   4137   0   0   -4.4040394
   3051313   4137   0   2   -4.4002175
   3051313   4237   0   2    0.0019460335
   3051212   4137   0   0    1.5053501
   3051212   4137   0   2    1.5045491
   3051212   4237   0   2   -0.00042512414
   3051414   4137   0   0    1.5053501
   3051414   4137   0   2    1.5045491
   3051414   4237   0   2   -0.00042510131
   3051616   4137   0   0    1.5053501
   3051616   4137   0   2    1.5045479
   3051616   4237   0   2   -0.00041866699

BLOCK IMFWCOEF Q=  160
   305   4422   0   0    3.8570725e-07
   305   4422   0   2   -2.1790976e-05
   305   4322   0   2   -6.069898e-06
   305   6421   0   0    3.3038377e-07
   305   6421   0   2    4.5993957e-06
   305   6321   0   2   -2.3020219e-06
   3051111   4133   0   2   -1.6724106e-06
   3051111   4233   0   2    2.569123e-06
   3051111   4137   0   2    8.8037577e-06
   3051111   4237   0   2   -2.0310696e-05
   3051313   4133   0   2   -1.6725172e-06
   3051313   4233   0   2    2.569117e-06
   3051313   4137   0   2    8.8037039e-06
   3051313   4237   0   2   -2.0310721e-05
   3051212   4137   0   2   -1.3284072e-06
   3051212   4237   0   2    4.4370021e-06
   3051414   4137   0   2   -1.3284074e-06
   3051414   4237   0   2    4.4370021e-06
   3051616   4137   0   2   -1.3486269e-06
   3051616   4237   0   2    4.4370116e-06

DECAY 23  2.4952


DECAY 24  2.085


DECAY 1000011  0.0045368441
    0.86500991   2    1000022    11
    0.089476463   2   -1000024    12
    0.045500568   2    1000023    11

DECAY 2000011  5.5140017
    0.97997282   2    1000022    11
    0.016983814   2    1000023    11
    0.0026723956   2    1000035    11
    0.00037094212   2    1000025    11

DECAY 1000013  0.0045305492
    0.8657292   2    1000022    13
    0.089035305   2   -1000024    14
    0.045222487   2    1000023    13

DECAY 2000013  5.5239358
    0.97821693   2    1000022    13
    0.016975107   2    1000023    13
    0.0030193448   2    1000035    13
    0.00073871022   2    1000025    13
    0.00070371292   2   -1000037    14
    0.00029357657   2    1000013    25

DECAY 1000015  6.8427536
    0.68634702   2    1000022    15
    0.09786796   2   -1000037    16
    0.064292582   2   -1000024    16
    0.057107567   2    1000025    15
    0.051753079   2    1000035    15
    0.042631786   2    1000023    15

DECAY 2000015  16.543086
    0.53537406   2   -1000024    16
    0.31134554   2    1000023    15
    0.053175033   2    1000022    15
    0.039196837   2    1000035    15
    0.037352315   2    1000025    15
    0.018433021   2   -1000037    16
    0.0026629037   2    1000015    23
    0.002460292   2    1000015    25

DECAY 1000012  0.0045080171
    1   2    1000022    12

DECAY 1000014  0.0045088077
    1   2    1000022    14

DECAY 1000016  16.931364
    0.56526567   2    1000024    15
    0.23485556   2    1000023    16
    0.1207686   2    1000022    16
    0.068424681   2    1000037    15
    0.0057294647   2    1000015    24
    0.0043981384   2    1000035    16
    0.00055789575   2    1000025    16

DECAY 2000001  145.00454
    0.98097178   2    1000021    1
    0.018583001   2    1000022    1
    0.00032876614   2    1000023    1
    0.00010220004   2    1000035    1

DECAY 1000001  209.30498
    0.6849376   2    1000021    1
    0.20092814   2   -1000024    2
    0.095622142   2    1000023    1
    0.0090613495   2    1000022    1
    0.0068829401   2   -1000037    2
    0.002286595   2    1000035    1
    0.00028123717   2    1000025    1

DECAY 2000003  145.02545
    0.98083503   2    1000021    3
    0.018580913   2    1000022    3
    0.00032978087   2    1000023    3
    0.00013571875   2    1000035    3

DECAY 1000003  209.3175
    0.68489943   2    1000021    3
    0.20091638   2   -1000024    4
    0.095617276   2    1000023    3
    0.0090612111   2    1000022    3
    0.0068907294   2   -1000037    4
    0.0023097439   2    1000035    3
    0.00030523083   2    1000025    3

DECAY 1000005  0.43058941
    0.61417097   2    1000022    5
    0.24383437   2   -1000024    6
    0.14199466   2    1000023    5

DECAY 2000005  70.740931
    0.45466069   2    1000006   -24
    0.17602513   2   -1000037    6
    0.13067399   2   -1000024    6
    0.066331104   2    1000023    5
    0.050024402   2    1000006   -37
    0.02551296   2    1000025    5
    0.025485483   2    1000035    5
    0.022359725   2    1000005    36
    0.022269604   2    1000005    35
    0.011067931   2    1000005    25
    0.0089119325   2    1000005    23
    0.0066770537   2    1000022    5

DECAY 2000002  153.45772
    0.92805693   2    1000021    2
    0.070261186   2    1000022    2
    0.0012430347   2    1000023    2
    0.0003860704   2    1000035    2

DECAY 1000002  209.30012
    0.68473319   2    1000021    2
    0.20636874   2    1000024    1
    0.10518722   2    1000023    2
    0.0016339607   2    1000037    1
    0.0015520177   2    1000035    2
    0.00033843769   2    1000022    2
    0.00018643402   2    1000025    2

DECAY 2000004  153.46122
    0.92803618   2    1000021    4
    0.070259605   2    1000022    4
    0.0012430476   2    1000023    4
    0.00039159603   2    1000035    4

DECAY 1000004  209.31243
    0.68469481   2    1000021    4
    0.20635853   2    1000024    3
    0.10518114   2    1000023    4
    0.0016805564   2    1000037    3
    0.0015560013   2    1000035    4
    0.00033843275   2    1000022    4
    0.00019053695   2    1000025    4

DECAY 1000006  2.5980047
    0.39259352   2    1000022    6
    0.32001049   2    1000024    5
    0.14368643   2    1000023    6
    0.13671208   2    1000037    5
    0.0068888545   2    1000023    4

DECAY 2000006  79.294964
    0.2447497   2    1000006    25
    0.22736658   2    1000006    23
    0.11407243   2    1000024    5
    0.096984723   2    1000035    6
    0.088352102   2    1000025    6
    0.063378277   2    1000037    5
    0.055185375   2    1000023    6
    0.042210904   2    1000005    37
    0.028650601   2    1000006    36
    0.020318765   2    1000006    35
    0.017468586   2    1000005    24
    0.0012619558   2    1000022    6

DECAY 1000024  0.0029053348
    0.50013118   2    1000012   -11
    0.4997187   2    1000014   -13

DECAY 1000037  4.8653819
    0.33054203   2    1000023    24
    0.28497603   2    1000024    23
    0.27518246   2    1000024    25
    0.058861396   2    1000022    24
    0.013609779   2   -1000013    14
    0.013609449   2   -1000011    12
    0.0090745678   3    1000024    5   -5
    0.0036643279   2    1000014   -13
    0.0033267643   3    1000023   -5    6
    0.003320362   2    1000012   -11
    0.0019432949   3    1000022   -5    6
    0.0011047655   3    1000024    15   -15
    0.00039045702   3    1000023   -15    16
    0.00026161878   3    1000022   -15    16
    0.00010916156   3    1000024    6   -6

DECAY 1000022 -1


DECAY 1000023  0.0025431283
    0.25003948   2    1000012   -12
    0.25003948   2   -1000012    12
    0.24991858   2    1000014   -14
    0.24991858   2   -1000014    14

DECAY 1000025  6.889876
    0.22109647   2    1000024   -24
    0.22109647   2   -1000024    24
    0.17949499   2    1000023    25
    0.1710953   2    1000023    23
    0.097930727   2    1000022    23
    0.090744371   2    1000022    25
    0.0040488792   2    1000022    35
    0.0025169733   2    1000005   -5
    0.0025169733   2   -1000005    5
    0.0020480317   3    1000024    5   -6
    0.0020480317   3   -1000024   -5    6
    0.0016327651   3    1000023    5   -5
    0.00055572597   2    1000012   -12
    0.00055572597   2   -1000012    12
    0.00055572321   2    1000014   -14
    0.00055572321   2   -1000014    14
    0.00027073936   2    1000013   -13
    0.00027073936   2   -1000013    13
    0.00020435708   3    1000023    15   -15
    0.00016884333   3    1000024    15   -16
    0.00016884333   3   -1000024   -15    16
    0.0001519078   2    1000011   -11
    0.0001519078   2   -1000011    11

DECAY 1000035  4.9535224
    0.28663576   2    1000024   -24
    0.28663576   2   -1000024    24
    0.2073394   2    1000023    25
    0.10482587   2    1000022    25
    0.027632767   2    1000023    23
    0.017560804   2    1000022    23
    0.017166117   2    1000022    35
    0.0062897487   2    1000012   -12
    0.0062897487   2   -1000012    12
    0.006289718   2    1000014   -14
    0.006289718   2   -1000014    14
    0.0047138657   2    1000005   -5
    0.0047138657   2   -1000005    5
    0.0031943   3    1000023    5   -5
    0.0027255352   3    1000024    5   -6
    0.0027255352   3   -1000024   -5    6
    0.0020199835   2    1000013   -13
    0.0020199835   2   -1000013    13
    0.001856568   2    1000011   -11
    0.001856568   2   -1000011    11
    0.00039938927   3    1000023    15   -15
    0.0003223873   3    1000024    15   -16
    0.0003223873   3   -1000024   -15    16

DECAY 1000021  284.64133
    0.14586403   2    1000005   -5
    0.14586403   2   -1000005    5
    0.13141333   2    1000006   -6
    0.13141333   2   -1000006    6
    0.11231624   2    2000006   -6
    0.11231624   2   -2000006    6
    0.10771752   2    2000005   -5
    0.10771752   2   -2000005    5
    0.0010718124   2    1000006   -4
    0.0010718124   2   -1000006    4
    0.0010067256   3    1000025    6   -6
    0.00089652748   3    1000035    6   -6
    0.00033925188   3    1000025    5   -5
    0.00031380103   3    1000035    5   -5
    0.00022585949   3    1000037    5   -6
    0.00022585949   3   -1000037   -5    6

DECAY 25  0.0044582534
    0.66757971   2   -5    5
    0.1546193   2   -24    24
    0.074490014   2   -15    15
    0.057761274   2    21    21
    0.024249268   2   -4    4
    0.017858127   2    23    23
    0.0018881055   2    22    22
    0.0010492799   2    22    23
    0.00025558737   2   -13    13
    0.00024851286   2   -3    3
    6.8712157e-07   2   -1    1
    1.2496814e-07   2   -2    2
    5.7459181e-09   2   -11    11

DECAY 35  8.6663622
    0.89684489   2   -5    5
    0.10110016   2   -15    15
    0.00067639648   2   -6    6
    0.00047460613   2    25    25
    0.00032398505   2   -13    13
    0.00030798006   2   -3    3
    0.00020293336   2    21    21
    4.6583885e-05   2   -24    24
    2.1448928e-05   2    23    23
    8.5158587e-07   2   -1    1
    1.0328786e-07   2    22    22
    3.4803684e-08   2   -4    4
    1.4405897e-08   2    22    23
    7.2809546e-09   2   -11    11
    1.7953857e-13   2   -2    2

DECAY 36  8.5841118
    0.89622998   2   -5    5
    0.10101633   2   -15    15
    0.0018697692   2   -6    6
    0.00032372132   2   -13    13
    0.0003076835   2   -3    3
    0.00021592338   2    21    21
    3.5405252e-05   2    23    25
    8.5076582e-07   2   -1    1
    1.8102969e-07   2    22    22
    1.2298957e-07   2    22    23
    2.5198545e-08   2   -4    4
    7.2750263e-09   2   -11    11
    1.3033471e-13   2   -2    2
    9.4553062e-40   2    25    25

DECAY 37  5.6995448
    0.8363341   2   -5    6
    0.16083237   2   -15    16
    0.001741535   2   -5    4
    0.00056861985   2   -13    14
    0.00042444816   2   -3    4
    6.194596e-05   2    24    25
    1.9348563e-05   2   -3    2
    1.2436582e-05   2   -5    2
    3.7328857e-06   2   -3    6
    1.1782243e-06   2   -1    2
    1.5181603e-07   2   -1    6
    5.5560666e-08   2   -1    4
    3.2312437e-08   2    24    35
    3.1444421e-08   2    24    36
    1.3300079e-08   2   -11    12

DECAY 6  2.43
    1   2    5    24

DECAY 15 -1
