BLOCK SPINFO
   1   SPheno
   2   v4.0.5be

BLOCK SPHENOINFO
   1   2
   2   2

BLOCK MODSEL
   1   0

BLOCK MINPAR
   3    9.842292
   4    1

BLOCK EXTPAR
   0    1557.0541
   1   -102.40673
   2   -949.40352
   3    3000
   11   -3420.5244
   12   -1855.9627
   13   -54.83218
   23    190.73087
   25    9.4594463
   26    3022.434
   31    562.12651
   32    562.12651
   33    402.46712
   34    1158.3897
   35    1158.3897
   36    363.03375
   41    5000
   42    5000
   43    1968.6418
   44    5000
   45    5000
   46    1286.5599
   47    5000
   48    5000
   49    1580.996

BLOCK SMINPUTS
   1    127.90897
   2    1.1663787e-05
   3    0.1184
   4    91.1876
   5    4.18
   6    173.2
   7    1.777
   8    0
   11    0.00051099893
   12    0
   13    0.10565837
   14    0
   21    0.005
   22    0.0025
   23    0.095
   24    1.27

BLOCK GAUGE Q=  1557.0541
   1    0.35536298
   2    0.66519887
   3    1.219778

BLOCK YU Q=  1557.0541
   1   1    8.4310919e-06
   2   2    0.0042829947
   3   3    1.0185436

BLOCK YD Q=  1557.0541
   1   1    0.00016026171
   2   2    0.0030449726
   3   3    0.1589294

BLOCK YE Q=  1557.0541
   1   1    2.7966841e-05
   2   2    0.0057826558
   3   3    0.097254757

BLOCK AU Q=  1557.0541
   1   1    0
   2   2    0
   3   3   -3420.5245

BLOCK AD Q=  1557.0541
   1   1    0
   2   2    0
   3   3   -1855.9627

BLOCK AE Q=  1557.0541
   1   1    0
   2   2    0
   3   3   -54.832181

BLOCK MSOFT Q=  1557.0541
   1   -102.40673
   2   -949.40352
   3    3000
   21    8972869.6
   22    90052.252
   31    562.12651
   32    562.12651
   33    402.46712
   34    1158.3897
   35    1158.3897
   36    363.03375
   41    5000
   42    5000
   43    1968.6418
   44    5000
   45    5000
   46    1286.5599
   47    5000
   48    5000
   49    1580.996

BLOCK MASS
   6    173.2
   23    91.1876
   24    80.429995
   15    1.777
   25    122.95039
   35    3022.1738
   36    3022.434
   37    3023.4288
   1000001    5030.8819
   2000001    5020.8891
   1000002    5030.4521
   2000002    5022.869
   1000003    5030.8824
   2000003    5020.8895
   1000004    5030.4527
   2000004    5022.8697
   1000005    1610.5332
   2000005    1970.4513
   1000006    1212.1962
   2000006    2000.0206
   1000011    581.62996
   2000011    1158.3083
   1000012    575.92427
   1000013    581.62973
   2000013    1158.3079
   1000014    575.92427
   1000015    360.26036
   2000015    427.8947
   1000016    420.00297
   1000021    3194.7203
   1000022   -97.562262
   1000023   -198.40617
   1000025    199.59393
   1000035   -991.71803
   1000024    192.90123
   1000037    991.88362

BLOCK ALPHA
      -0.101496

BLOCK HMIX Q=  1557.0541
   1    190.73087
   2    9.4594463
   3    243.95766
   4    9135107

BLOCK STOPMIX
   1   1    0.20024511
   1   2    0.97974583
   2   1   -0.97974583
   2   2    0.20024511

BLOCK SBOTMIX
   1   1    0.0067283118
   1   2    0.99997737
   2   1   -0.99997737
   2   2    0.0067283118

BLOCK STAUMIX
   1   1    0.061970266
   1   2    0.998078
   2   1   -0.998078
   2   2    0.061970266

BLOCK NMIX
   1   1   -0.9515119
   1   2    0.0078627871
   1   3   -0.2829218
   1   4   -0.12049287
   2   1    0.28521621
   2   2    0.061995995
   2   3   -0.66454165
   2   4   -0.68788997
   3   1   -0.11514911
   3   2    0.052381163
   3   3    0.69158333
   3   4   -0.71113247
   4   1    0.0041830128
   4   2   -0.9966699
   4   3   -0.0072215837
   4   4   -0.081113897

BLOCK UMIX
   1   1   -0.010280085
   1   2    0.99994716
   2   1   -0.99994716
   2   2   -0.010280085

BLOCK VMIX
   1   1    0.11479682
   1   2    0.99338899
   2   1    0.99338899
   2   2   -0.11479682

BLOCK HIGGSBOUNDSINPUTHIGGSCOUPLINGSFERMIONS
       0, 89.481123,3,36,15,15

BLOCK HIGGSBOUNDSINPUTHIGGSCOUPLINGSBOSONS
       0,4,36,21,21,23

BLOCK SPHENOLOWENERGY
   1    0.00031269323
   2    1.5896502e-06
   3    3.5213076e-05
   4    2.6140203e-15
   5    1.1166799e-10
   6    2.3377295e-08
   7    8.8043333e-14
   8    3.7612087e-09
   9    7.9780929e-07
   10    9.6749037e-05
   11    0.99938051
   12    0.54313
   13    19.406227
   14    0
   15    0
   16    0.002161959
   17    2.2817055e-15
   18    2.4790859e-11
   19    8.2872256e-11
   20   -3.2577631e-15
   21   -1.3928146e-10
   22   -1.2877452e-07
   23    0
   24    0
   25    0
   26    0
   27    0
   28    0
   29    0
   30    0
   31    0
   39   -1.9441397e-05
   40    0
   41    0
   42    0

BLOCK FWCOEF Q=  160
   305   4422   0   0   -0.18881911
   305   4422   0   2   -0.17856041
   305   4322   0   2   -1.4067199e-05
   305   6421   0   0   -0.095227835
   305   6421   0   2   -0.095287588
   305   6321   0   2   -0.00011565217
   3051111   4133   0   0    1.5930615
   3051111   4133   0   2    1.5939652
   3051111   4233   0   2    1.4113146e-05
   3051111   4137   0   0   -4.4157536
   3051111   4137   0   2   -4.4101713
   3051111   4237   0   2   -0.00010904026
   3051313   4133   0   0    1.5930615
   3051313   4133   0   2    1.5939648
   3051313   4233   0   2    1.4113141e-05
   3051313   4137   0   0   -4.4157536
   3051313   4137   0   2   -4.4101717
   3051313   4237   0   2   -0.00010904027
   3051212   4137   0   0    1.5053501
   3051212   4137   0   2    1.5041456
   3051212   4237   0   2    2.3744174e-05
   3051414   4137   0   0    1.5053501
   3051414   4137   0   2    1.5041456
   3051414   4237   0   2    2.3744174e-05
   3051616   4137   0   0    1.5053501
   3051616   4137   0   2    1.5041454
   3051616   4237   0   2    2.3743713e-05

BLOCK IMFWCOEF Q=  160
   305   4422   0   0    3.8582982e-07
   305   4422   0   2   -3.6152415e-06
   305   4322   0   2    1.9076163e-06
   305   6421   0   0    3.3048876e-07
   305   6421   0   2   -3.6931538e-06
   305   6321   0   2    7.6788432e-07
   3051111   4133   0   2   -3.3992922e-06
   3051111   4233   0   2    2.9312427e-07
   3051111   4137   0   2    2.524478e-05
   3051111   4237   0   2   -2.2670431e-06
   3051313   4133   0   2   -3.3992882e-06
   3051313   4233   0   2    2.9312421e-07
   3051313   4137   0   2    2.5244789e-05
   3051313   4237   0   2   -2.2670433e-06
   3051212   4137   0   2   -5.2738136e-06
   3051212   4237   0   2    4.9370352e-07
   3051414   4137   0   2   -5.2738138e-06
   3051414   4237   0   2    4.9370352e-07
   3051616   4137   0   2   -5.2781362e-06
   3051616   4237   0   2    4.9369414e-07

DECAY 23  2.4952


DECAY 24  2.085


DECAY 1000011  0.69805514
    0.86756091   2    1000022    11
    0.13158693   2    1000023    11
    0.000613999   2   -1000024    12
    0.00023815025   2    1000025    11

DECAY 2000011  5.7135915
    0.90920926   2    1000022    11
    0.078073209   2    1000023    11
    0.012716262   2    1000025    11

DECAY 1000013  0.69836097
    0.86722317   2    1000022    13
    0.13171885   2    1000023    13
    0.00061372974   2   -1000024    14
    0.00044423736   2    1000025    13

DECAY 2000013  5.7150543
    0.90898676   2    1000022    13
    0.07810943   2    1000023    13
    0.012773773   2    1000025    13
    0.0001274419   2   -1000024    14

DECAY 1000015  1.5582524
    0.90657242   2    1000022    15
    0.054683657   2    1000023    15
    0.022239987   2   -1000024    16
    0.016503939   2    1000025    15

DECAY 2000015  0.53139565
    0.80629597   2    1000022    15
    0.14464895   2    1000023    15
    0.049038927   2    1000025    15

DECAY 1000012  0.73140999
    0.87120393   2    1000022    12
    0.072001454   2    1000024    11
    0.034808636   2    1000025    12
    0.021985984   2    1000023    12

DECAY 1000014  0.73171305
    0.8708431   2    1000022    14
    0.072385801   2    1000024    13
    0.034794219   2    1000025    14
    0.021976878   2    1000023    14

DECAY 1000016  0.54424195
    0.81000275   2    1000022    16
    0.14683425   2    1000024    15
    0.026408866   2    1000025    16
    0.016741887   2    1000023    16

DECAY 2000001  143.17221
    0.98044046   2    1000021    1
    0.017712683   2    1000022    1
    0.0015877315   2    1000023    1
    0.00025878892   2    1000025    1

DECAY 1000001  203.48906
    0.69493506   2    1000021    1
    0.20102639   2   -1000037    2
    0.10000744   2    1000035    1
    0.00341827   2    1000022    1
    0.00057627904   2    1000025    1

DECAY 2000003  143.17409
    0.98042785   2    1000021    3
    0.017712967   2    1000022    3
    0.0015905511   2    1000023    3
    0.0002618613   2    1000025    3

DECAY 1000003  203.49187
    0.69492572   2    1000021    3
    0.20102375   2   -1000037    4
    0.10000607   2    1000035    3
    0.0034185867   2    1000022    3
    0.00057843964   2    1000025    3

DECAY 1000005  2.4454026
    0.35858757   2    1000022    5
    0.31389463   2   -1000024    6
    0.17007194   2    1000023    5
    0.15721599   2    1000025    5
    0.0001612719   2    1000006   -24

DECAY 2000005  104.16171
    0.47259641   2    1000006   -24
    0.37191926   2   -1000024    6
    0.096838909   2   -1000037    6
    0.046184271   2    1000035    5
    0.004917493   2    1000025    5
    0.004145652   2    1000023    5
    0.0033065336   2    1000022    5

DECAY 2000002  151.78375
    0.92617171   2    1000021    2
    0.066857364   2    1000022    2
    0.0059929499   2    1000023    2
    0.00097678078   2    1000025    2

DECAY 1000002  203.48515
    0.69472859   2    1000021    2
    0.19838229   2    1000037    1
    0.099700936   2    1000035    2
    0.0028595055   2    1000024    1
    0.0028386124   2    1000022    2
    0.0013798487   2    1000023    2
    0.00011021504   2    1000025    2

DECAY 2000004  151.78741
    0.92614944   2    1000021    4
    0.066855926   2    1000022    4
    0.0059984936   2    1000023    4
    0.00098284853   2    1000025    4

DECAY 1000004  203.4879
    0.69471919   2    1000021    4
    0.19837963   2    1000037    3
    0.099699622   2    1000035    4
    0.0028640014   2    1000024    3
    0.0028387044   2    1000022    4
    0.0013840891   2    1000023    4
    0.00011476258   2    1000025    4

DECAY 1000006  46.239025
    0.47244853   2    1000024    5
    0.23785641   2    1000025    6
    0.23451107   2    1000023    6
    0.050851455   2    1000022    6
    0.0034704488   2    1000037    5
    0.0008615057   2    1000035    6

DECAY 2000006  116.02321
    0.27581448   2    1000006    25
    0.22378484   2    1000006    23
    0.18012825   2    1000025    6
    0.16116789   2    1000023    6
    0.075924118   2    1000037    5
    0.036844595   2    1000035    6
    0.03407769   2    1000024    5
    0.01217523   2    1000022    6

DECAY 1000024  0.097091294
    0.99999907   2    1000022    24

DECAY 1000037  21.213367
    0.13679383   2    1000016   -15
    0.13581813   2   -2000015    16
    0.091842366   2    1000025    24
    0.091535668   2    1000023    24
    0.091186337   2    1000024    23
    0.090596105   2    1000024    25
    0.089235482   2    1000014   -13
    0.089235479   2    1000012   -11
    0.088595524   2   -1000013    14
    0.08859545   2   -1000011    12
    0.0019096323   3    1000023   -5    6
    0.001550372   3    1000025   -5    6
    0.0013435963   3    1000024    6   -6
    0.0011397912   2    1000022    24
    0.00056703356   2   -1000015    16

DECAY 1000022 -1


DECAY 1000023  0.012403413
    0.99988496   2    1000022    23

DECAY 1000025  0.094835182
    0.99997223   2    1000022    23

DECAY 1000035  22.229497
    0.08854716   2    1000024   -24
    0.08854716   2   -1000024    24
    0.077862965   2    1000025    25
    0.065975684   2    1000016   -16
    0.065975684   2   -1000016    16
    0.064070999   2    2000015   -15
    0.064070999   2   -2000015    15
    0.052354256   2    1000025    23
    0.051309502   2    1000023    25
    0.043030538   2    1000012   -12
    0.043030538   2   -1000012    12
    0.043030537   2    1000014   -14
    0.043030537   2   -1000014    14
    0.041786511   2    1000013   -13
    0.041786511   2   -1000013    13
    0.041786478   2    1000011   -11
    0.041786478   2   -1000011    11
    0.034711059   2    1000023    23
    0.0022288613   3    1000024    5   -6
    0.0022288613   3   -1000024   -5    6
    0.00087057485   2    1000022    23
    0.00060767575   3    1000025    6   -6
    0.00051662812   3    1000023    6   -6
    0.00028301112   2    1000022    25
    0.00026909609   2    1000015   -15
    0.00026909609   2   -1000015    15

DECAY 1000021  191.89742
    0.17140678   2    1000006   -6
    0.17140678   2   -1000006    6
    0.13706244   2    1000005   -5
    0.13706244   2   -1000005    5
    0.096830741   2    2000006   -6
    0.096830741   2   -2000006    6
    0.094588961   2    2000005   -5
    0.094588961   2   -2000005    5

DECAY 25  0.0036235878
    0.60418986   2   -5    5
    0.19630533   2   -24    24
    0.073438424   2    21    21
    0.069294442   2   -15    15
    0.029851822   2   -4    4
    0.02280441   2    23    23
    0.0023244138   2    22    22
    0.0013231947   2    22    23
    0.00024037786   2   -13    13
    0.00022694199   2   -3    3
    6.2747148e-07   2   -1    1
    1.5383978e-07   2   -2    2
    5.4039881e-09   2   -11    11

DECAY 35  38.033828
    0.25448447   2   -1000024    1000037
    0.25448447   2   -1000037    1000024
    0.13353959   2    1000023    1000035
    0.10356417   2    1000025    1000035
    0.083531687   2   -5    5
    0.040259257   2    1000022    1000023
    0.031517333   2   -6    6
    0.026396063   2    1000022    1000025
    0.020421289   2    1000022    1000035
    0.014929385   2   -15    15
    0.014759553   2    1000022    1000022
    0.0093394016   2   -1000024    1000024
    0.0060722801   2    1000023    1000025
    0.0031334716   2    1000025    1000025
    0.0025752946   2    1000023    1000023
    0.00054706069   2   -1000006    1000006
    0.00017716675   2   -1000037    1000037
    8.8081253e-05   2    1000035    1000035
    5.2223795e-05   2   -13    13
    4.6635025e-05   2    25    25
    3.1863223e-05   2   -3    3
    8.406048e-06   2    23    23
    4.3153105e-06   2    21    21
    2.513677e-06   2   -24    24
    2.2006947e-06   2   -1000011    1000011
    2.1996155e-06   2   -1000013    1000013
    1.8060348e-06   2   -1000015    1000015
    1.4069211e-06   2   -2000015    2000015
    1.0374503e-06   2   -2000015    1000015
    1.0374503e-06   2   -1000015    2000015
    9.8465815e-07   2   -2000011    2000011
    9.8409909e-07   2   -2000013    2000013
    4.2911055e-07   2   -4    4
    8.8091057e-08   2   -1    1
    3.4959223e-08   2    22    23
    2.1578917e-09   2    22    22
    1.1729156e-09   2   -11    11
    9.085232e-10   2   -2000013    1000013
    9.085232e-10   2   -1000013    2000013
    2.2120427e-12   2   -2    2
    2.1250455e-14   2   -2000011    1000011
    2.1250455e-14   2   -1000011    2000011

DECAY 36  37.815586
    0.25623077   2   -1000024    1000037
    0.25623077   2   -1000037    1000024
    0.1437496   2    1000025    1000035
    0.096263389   2    1000023    1000035
    0.081026196   2   -5    5
    0.042557489   2    1000022    1000025
    0.029865684   2   -6    6
    0.026326905   2    1000022    1000023
    0.01916782   2    1000022    1000035
    0.014481423   2   -15    15
    0.01248462   2    1000022    1000022
    0.009166399   2   -1000024    1000024
    0.0057171698   2    1000023    1000025
    0.0048855056   2    1000025    1000025
    0.0017301271   2    1000023    1000023
    5.0657072e-05   2   -13    13
    3.0907162e-05   2   -3    3
    1.8123086e-05   2    21    21
    1.3822732e-05   2    23    25
    1.0299299e-06   2   -2000015    1000015
    1.0299299e-06   2   -1000015    2000015
    4.0165346e-07   2   -4    4
    8.5448319e-08   2   -1    1
    4.0103023e-08   2    22    23
    2.1158517e-08   2   -1000037    1000037
    1.058318e-08   2    1000035    1000035
    4.4499072e-09   2    22    22
    1.1377185e-09   2   -11    11
    9.0625449e-10   2   -2000013    1000013
    9.0625449e-10   2   -1000013    2000013
    2.0705781e-12   2   -2    2
    2.1197387e-14   2   -2000011    1000011
    2.1197387e-14   2   -1000011    2000011
    1.3861061e-37   2    25    25

DECAY 37  38.0251
    0.2556216   2    1000024    1000035
    0.24676104   2    1000025    1000037
    0.23079847   2    1000023    1000037
    0.11538232   2   -5    6
    0.082392335   2    1000022    1000024
    0.039648205   2    1000022    1000037
    0.015403418   2   -15    16
    0.01356205   2    1000023    1000024
    0.00012307649   2   -5    4
    6.6054709e-05   2    1000024    1000025
    6.5315969e-05   2   -1000005    1000006
    5.445658e-05   2   -13    14
    4.6045793e-05   2   -3    6
    2.9499787e-05   2   -3    4
    1.376864e-05   2    24    25
    8.6393953e-06   2   -1000011    1000012
    8.6378825e-06   2   -1000013    1000014
    7.5537505e-06   2   -2000015    1000016
    3.0458024e-06   2   -1000015    1000016
    2.109896e-06   2   -1    6
    1.3625221e-06   2   -3    2
    8.7888859e-07   2   -5    2
    8.0711306e-08   2   -1    2
    2.3052958e-08   2   -1    4
    1.8496695e-09   2   -2000013    1000014
    1.2737451e-09   2   -11    12
    3.6398108e-10   2    1000035    1000037
    1.1146535e-13   2    24    35
    4.3264055e-14   2   -2000011    1000012

DECAY 6  2.43
    1   2    5    24

DECAY 15 -1
