BLOCK SPINFO
   1   SPheno
   2   v4.0.5be

BLOCK SPHENOINFO
   1   2
   2   2

BLOCK MODSEL
   1   0

BLOCK MINPAR
   3    40.25366
   4   -1

BLOCK EXTPAR
   0    1642.632
   1   -493.94374
   2   -1141.6441
   3    3000
   11   -4438.7613
   12    1525.2729
   13   -31.882623
   23   -1954.9052
   25    40.450952
   26    2448.8182
   31    815.68196
   32    815.68196
   33    1994.6152
   34    1269.3369
   35    1269.3369
   36    1278.4875
   41    5000
   42    5000
   43    1467.1853
   44    5000
   45    5000
   46    1930.0589
   47    5000
   48    5000
   49    1364.4438

BLOCK SMINPUTS
   1    127.90897
   2    1.1663787e-05
   3    0.1184
   4    91.1876
   5    4.18
   6    173.2
   7    1.777
   8    0
   11    0.00051099893
   12    0
   13    0.10565837
   14    0
   21    0.005
   22    0.0025
   23    0.095
   24    1.27

BLOCK GAUGE Q=  1642.632
   1    0.35536298
   2    0.66519887
   3    1.219778

BLOCK YU Q=  1642.632
   1   1    8.3869338e-06
   2   2    0.0042605624
   3   3    1.013209

BLOCK YD Q=  1642.632
   1   1    0.00068172969
   2   2    0.012952864
   3   3    0.67606223

BLOCK YE Q=  1642.632
   1   1    0.00011896682
   2   2    0.024598564
   3   3    0.41370739

BLOCK AU Q=  1642.632
   1   1    0
   2   2    0
   3   3   -4438.7612

BLOCK AD Q=  1642.632
   1   1    0
   2   2    0
   3   3    1525.2727

BLOCK AE Q=  1642.632
   1   1    0
   2   2    0
   3   3   -31.882624

BLOCK MSOFT Q=  1642.632
   1   -493.94374
   2   -1141.6441
   3    3000
   21    2366615.1
   22   -3766094.9
   31    815.68196
   32    815.68196
   33    1994.6152
   34    1269.3369
   35    1269.3369
   36    1278.4875
   41    5000
   42    5000
   43    1467.1853
   44    5000
   45    5000
   46    1930.0589
   47    5000
   48    5000
   49    1364.4438

BLOCK MASS
   6    173.2
   23    91.1876
   24    80.429995
   15    1.777
   25    122.93233
   35    2447.4554
   36    2448.8182
   37    2449.6792
   1000001    5034.5734
   2000001    5024.9245
   1000002    5034.1288
   2000002    5026.4211
   1000003    5034.5924
   2000003    5024.914
   1000004    5034.1319
   2000004    5026.4217
   1000005    1309.3036
   2000005    1527.5935
   1000006    1395.2757
   2000006    1933.8399
   1000011    832.55447
   2000011    1271.5715
   1000012    828.45747
   1000013    832.49888
   2000013    1271.5682
   1000014    828.44667
   1000015    1275.1995
   2000015    2000.7258
   1000016    1996.6706
   1000021    3200.1268
   1000022   -493.22824
   1000023   -1180.1963
   1000025    1925.3936
   1000035   -1930.0982
   1000024    1180.3293
   1000037    1929.9637

BLOCK ALPHA
      -0.024899513

BLOCK HMIX Q=  1642.632
   1   -1954.9052
   2    40.450952
   3    243.8954
   4    5996710.8

BLOCK STOPMIX
   1   1    0.93609186
   1   2    0.35175565
   2   1   -0.35175565
   2   2    0.93609186

BLOCK SBOTMIX
   1   1   -0.53001921
   1   2    0.84798564
   2   1   -0.84798564
   2   2   -0.53001921

BLOCK STAUMIX
   1   1   -0.05880941
   1   2    0.99826923
   2   1   -0.99826923
   2   2   -0.05880941

BLOCK NMIX
   1   1    0.99967291
   1   2   -0.00071920039
   1   3   -0.024672365
   1   4    0.006695158
   2   1    0.0025537512
   2   2    0.99719512
   2   3    0.063813615
   2   4   -0.0390282
   3   1    0.012694506
   3   2   -0.017584492
   3   3    0.70675509
   3   4    0.70712579
   4   1    0.022054384
   4   2   -0.072747287
   4   3    0.70414227
   4   4   -0.70597811

BLOCK UMIX
   1   1   -0.99582532
   1   2   -0.091279379
   2   1   -0.091279379
   2   2    0.99582532

BLOCK VMIX
   1   1    0.99842421
   1   2    0.056116767
   2   1    0.056116767
   2   2   -0.99842421

BLOCK HIGGSBOUNDSINPUTHIGGSCOUPLINGSFERMIONS
       0, 1636.2795,3,36,15,15

BLOCK HIGGSBOUNDSINPUTHIGGSCOUPLINGSBOSONS
       0,4,36,21,21,23

BLOCK SPHENOLOWENERGY
   1    0.0003664775
   2    1.5873535e-06
   3    3.5252623e-05
   4    1.2726197e-15
   5    5.4326556e-11
   6    9.1440195e-09
   7    4.3868519e-14
   8    1.8728524e-09
   9    3.2595646e-07
   10    9.3125777e-05
   11    0.96195363
   12    0.54312272
   13    19.317446
   14    0
   15    0
   16    0.0021707383
   17    2.281797e-15
   18    2.4814031e-11
   19    8.2930623e-11
   20    8.8253553e-15
   21    3.7733569e-10
   22    4.5835825e-08
   23    0
   24    0
   25    0
   26    0
   27    0
   28    0
   29    0
   30    0
   31    0
   39    7.8745035e-05
   40    0
   41    0
   42    0

BLOCK FWCOEF Q=  160
   305   4422   0   0   -0.18881911
   305   4422   0   2   -0.23965854
   305   4322   0   2   -0.00047495738
   305   6421   0   0   -0.095227835
   305   6421   0   2   -0.13191486
   305   6321   0   2   -0.00035191836
   3051111   4133   0   0    1.5955748
   3051111   4133   0   2    1.595922
   3051111   4233   0   2    0.00024445322
   3051111   4137   0   0   -4.4182669
   3051111   4137   0   2   -4.4166305
   3051111   4237   0   2   -0.0018935279
   3051313   4133   0   0    1.5955748
   3051313   4133   0   2    1.5959184
   3051313   4233   0   2    0.00024445198
   3051313   4137   0   0   -4.4182669
   3051313   4137   0   2   -4.4166341
   3051313   4237   0   2   -0.0018935291
   3051212   4137   0   0    1.5053501
   3051212   4137   0   2    1.5050052
   3051212   4237   0   2    0.00041232929
   3051414   4137   0   0    1.5053501
   3051414   4137   0   2    1.5050052
   3051414   4237   0   2    0.00041232944
   3051616   4137   0   0    1.5053501
   3051616   4137   0   2    1.5050059
   3051616   4237   0   2    0.00041237131

BLOCK IMFWCOEF Q=  160
   305   4422   0   0    3.8547769e-07
   305   4422   0   2    6.9884313e-06
   305   4322   0   2   -5.4167719e-06
   305   6421   0   0    3.3018714e-07
   305   6421   0   2    3.4671185e-05
   305   6321   0   2   -2.3659298e-06
   3051111   4133   0   2   -2.7464918e-06
   3051111   4233   0   2    5.3541848e-06
   3051111   4137   0   2    2.082754e-05
   3051111   4237   0   2   -4.1481517e-05
   3051313   4133   0   2   -2.7464632e-06
   3051313   4233   0   2    5.354175e-06
   3051313   4137   0   2    2.0827591e-05
   3051313   4237   0   2   -4.148155e-05
   3051212   4137   0   2   -4.318702e-06
   3051212   4237   0   2    9.0329237e-06
   3051414   4137   0   2   -4.3187034e-06
   3051414   4237   0   2    9.0329237e-06
   3051616   4137   0   2   -4.3071091e-06
   3051616   4237   0   2    9.0329308e-06

DECAY 23  2.4952


DECAY 24  2.085


DECAY 1000011  0.43906764
    1   2    1000022    11

DECAY 2000011  4.6081998
    0.99999978   2    1000022    11

DECAY 1000013  0.43897696
    1   2    1000022    13

DECAY 2000013  4.6180892
    0.99785544   2    1000022    13
    0.0021436011   2    1000013    25

DECAY 1000015  4.6305212
    0.99901085   2    1000022    15
    0.00066067564   2   -1000024    16
    0.00032847672   2    1000023    15

DECAY 2000015  17.107449
    0.42955116   2   -1000024    16
    0.21675838   2    1000023    15
    0.1301103   2    1000022    15
    0.11206289   2    1000015    23
    0.10938287   2    1000015    25
    0.001087098   2    1000025    15
    0.00096644527   2    1000035    15

DECAY 1000012  0.43456905
    1   2    1000022    12

DECAY 1000014  0.43455093
    1   2    1000022    14

DECAY 1000016  17.185482
    0.43279361   2    1000024    15
    0.22186258   2    1000015    24
    0.2146725   2    1000023    16
    0.12893929   2    1000022    16
    0.0017148078   2    1000037    15

DECAY 2000001  142.89647
    0.98074699   2    1000021    1
    0.019243175   2    1000022    1

DECAY 1000001  201.12757
    0.70178897   2    1000021    1
    0.19515826   2   -1000024    2
    0.097761104   2    1000023    1
    0.0034525046   2    1000022    1
    0.0013360337   2   -1000037    2
    0.00047141213   2    1000035    1

DECAY 2000003  142.91973
    0.98057975   2    1000021    3
    0.019240072   2    1000022    3

DECAY 1000003  201.14337
    0.70174369   2    1000021    3
    0.19514382   2   -1000024    4
    0.097754192   2    1000023    3
    0.003452297   2    1000022    3
    0.0013425411   2   -1000037    4
    0.00050142675   2    1000035    3

DECAY 1000005  0.5787002
    0.87004797   2    1000022    5
    0.12995202   2    1000023    5

DECAY 2000005  9.381975
    0.3708461   2    1000006   -24
    0.36543563   2    1000005    23
    0.1141581   2   -1000024    6
    0.074765526   2    1000023    5
    0.050238094   2    1000005    25
    0.024556553   2    1000022    5

DECAY 2000002  151.30884
    0.92724892   2    1000021    2
    0.072715715   2    1000022    2

DECAY 1000002  201.11654
    0.70159741   2    1000021    2
    0.19616764   2    1000024    1
    0.097934306   2    1000023    2
    0.0033970333   2    1000022    2
    0.00050508025   2    1000037    1
    0.00037967271   2    1000035    2

DECAY 2000004  151.31148
    0.92723274   2    1000021    4
    0.072714445   2    1000022    4

DECAY 1000004  201.13038
    0.70155043   2    1000021    4
    0.19615489   2    1000024    3
    0.097927644   2    1000023    4
    0.0033968014   2    1000022    4
    0.00056517642   2    1000037    3
    0.000382907   2    1000035    4

DECAY 1000006  1.7608182
    0.46406588   2    1000024    5
    0.24019905   2    1000022    6
    0.14766796   2    1000023    6
    0.09817551   2    1000023    4
    0.029325018   2    1000022    4
    0.019376181   2    1000005    24
    0.0011884159   3    1000022    24    5

DECAY 2000006  108.40123
    0.25931182   2    1000006    23
    0.2468808   2    1000006    25
    0.24423773   2    1000005    24
    0.20205362   2    2000005    24
    0.030337359   2    1000022    6
    0.011555033   2    1000024    5
    0.0056236336   2    1000023    6

DECAY 1000024  5.2722689
    0.25286627   2    1000014   -13
    0.25284997   2    1000012   -11
    0.24678052   2   -1000013    14
    0.24671528   2   -1000011    12
    0.00076056693   2    1000022    24

DECAY 1000037  37.165548
    0.33699161   2   -1000005    6
    0.19257312   2    1000006   -5
    0.11409116   2   -2000005    6
    0.098815119   2    1000024    25
    0.096012156   2    1000023    24
    0.090295934   2    1000024    23
    0.034604402   2    1000022    24
    0.027255618   2   -1000015    16
    0.0021219018   3    1000023   -5    6
    0.0019438541   3    1000024    6   -6
    0.0014053621   3    1000022   -5    6
    0.0012616374   2   -1000013    14
    0.0012615604   2   -1000011    12
    0.0006851292   2    1000014   -13
    0.00047896073   2    1000012   -11

DECAY 1000022 -1


DECAY 1000023  5.2698823
    0.12576315   2    1000014   -14
    0.12576315   2   -1000014    14
    0.12575678   2    1000012   -12
    0.12575678   2   -1000012    12
    0.12405663   2    1000013   -13
    0.12405663   2   -1000013    13
    0.12402273   2    1000011   -11
    0.12402273   2   -1000011    11
    0.00067080577   2    1000022    25
    0.00010509018   2    1000022    23

DECAY 1000025  42.901698
    0.18269799   2    1000006   -6
    0.18269799   2   -1000006    6
    0.085835007   2    1000005   -5
    0.085835007   2   -1000005    5
    0.07787021   2    1000024   -24
    0.07787021   2   -1000024    24
    0.074590394   2    1000023    25
    0.074298077   2    1000023    23
    0.043350014   2    2000005   -5
    0.043350014   2   -2000005    5
    0.022786696   2    1000022    23
    0.0196572   2    1000022    25
    0.011973898   2    1000015   -15
    0.011973898   2   -1000015    15
    0.0018082504   3    1000024    5   -6
    0.0018082504   3   -1000024   -5    6
    0.00057895794   3    1000023    6   -6
    0.00050922026   3    1000022    6   -6

DECAY 1000035  40.843371
    0.20733693   2    1000006   -6
    0.20733693   2   -1000006    6
    0.085657444   2    1000005   -5
    0.085657444   2   -1000005    5
    0.085513761   2    1000023    25
    0.081058547   2    1000024   -24
    0.081058547   2   -1000024    24
    0.048658843   2    2000005   -5
    0.048658843   2   -2000005    5
    0.022680669   2    1000022    25
    0.012479781   2    1000015   -15
    0.012479781   2   -1000015    15
    0.0078518457   2    1000022    23
    0.0045320768   2    1000023    23
    0.0021821245   3    1000024    5   -6
    0.0021821245   3   -1000024   -5    6
    0.00069414913   3    1000023    6   -6
    0.0005901971   3    1000022    6   -6
    0.00049451038   2    1000014   -14
    0.00049451038   2   -1000014    14
    0.00049450456   2    1000012   -12
    0.00049450456   2   -1000012    12
    0.00034957123   2    1000013   -13
    0.00034957123   2   -1000013    13
    0.00025608249   2    1000011   -11
    0.00025608249   2   -1000011    11

DECAY 1000021  243.10008
    0.1354388   2    1000005   -5
    0.1354388   2   -1000005    5
    0.11638384   2    1000006   -6
    0.11638384   2   -1000006    6
    0.11579899   2    2000005   -5
    0.11579899   2   -2000005    5
    0.086818841   2    2000006   -6
    0.086818841   2   -2000006    6
    0.04464192   2    1000006   -4
    0.04464192   2   -1000006    4
    0.00037680886   3    1000037    5   -6
    0.00037680886   3   -1000037   -5    6
    0.00026663396   3    1000025    6   -6
    0.0002445126   3    1000035    6   -6
    0.00018384547   3    1000024    5   -6
    0.00018384547   3   -1000024   -5    6

DECAY 25  0.0036010278
    0.60510626   2   -5    5
    0.19714435   2   -24    24
    0.071262957   2    21    21
    0.069488439   2   -15    15
    0.029928162   2   -4    4
    0.022893491   2    23    23
    0.0023697316   2    22    22
    0.0013371582   2    22    23
    0.00024103587   2   -13    13
    0.0002276257   2   -3    3
    6.2936441e-07   2   -1    1
    1.5423287e-07   2   -2    2
    5.4187838e-09   2   -11    11

DECAY 35  123.55202
    0.92612869   2   -5    5
    0.072203441   2   -15    15
    0.00095293799   2   -6    6
    0.00026579209   2   -13    13
    0.00018393845   2   -3    3
    0.0001037322   2    1000022    1000023
    6.1091553e-05   2   -1000024    1000024
    4.602183e-05   2    21    21
    3.0369566e-05   2    1000023    1000023
    1.9769573e-05   2    1000022    1000022
    3.0782911e-06   2    25    25
    5.087683e-07   2   -1    1
    1.0304619e-07   2    23    23
    6.4680092e-08   2    22    23
    4.1023741e-08   2   -24    24
    4.0919444e-08   2   -1000011    1000011
    3.9314254e-08   2   -1000013    1000013
    2.3125826e-08   2   -2000013    1000013
    2.3125826e-08   2   -1000013    2000013
    1.9052951e-08   2    22    22
    5.969899e-09   2   -11    11
    3.8670093e-09   2   -4    4
    5.4107491e-13   2   -2000011    1000011
    5.4107491e-13   2   -1000011    2000011
    1.9912869e-14   2   -2    2

DECAY 36  115.32911
    0.92529969   2   -5    5
    0.072110056   2   -15    15
    0.0011225909   2   -6    6
    0.00051866598   2   -1000024    1000024
    0.00026546459   2   -13    13
    0.00025787717   2    1000023    1000023
    0.00019528421   2    1000022    1000023
    0.00018369347   2   -3    3
    2.6015884e-05   2    1000022    1000022
    1.9842086e-05   2    21    21
    5.0809291e-07   2   -1    1
    1.5956019e-07   2    23    25
    7.0568727e-08   2    22    23
    2.4588397e-08   2   -2000013    1000013
    2.4588397e-08   2   -1000013    2000013
    2.0482276e-08   2    22    22
    5.9625458e-09   2   -11    11
    5.063308e-09   2   -4    4
    5.751168e-13   2   -2000011    1000011
    5.751168e-13   2   -1000011    2000011
    4.4775862e-14   2    23    35
    2.60748e-14   2   -2    2
    1.481177e-40   2    25    25

DECAY 37  98.165308
    0.9168964   2   -5    6
    0.080864328   2   -15    16
    0.001360428   2   -5    4
    0.0003592865   2    1000022    1000024
    0.00028588437   2   -13    14
    0.00021156301   2   -3    4
    9.8855186e-06   2   -3    2
    9.714862e-06   2   -5    2
    1.1926089e-06   2   -3    6
    5.8760285e-07   2   -1    2
    2.0236921e-07   2   -1000011    1000012
    1.995102e-07   2   -1000013    1000014
    1.8783348e-07   2    24    25
    5.9668379e-08   2   -2000013    1000014
    4.0413851e-08   2   -1    6
    2.7747533e-08   2   -1    4
    6.6868651e-09   2   -11    12
    1.3644625e-09   2    1000023    1000024
    1.3958667e-12   2   -2000011    1000012
    7.5385192e-13   2    24    35

DECAY 6  2.43
    1   2    5    24

DECAY 15 -1
