# SUSY Les Houches Accord 2 - MSSM spectrum + Decays
# SPheno v4.0.5be
# W. Porod, Comput. Phys. Commun. 153 (2003) 275-315, hep-ph/0301101;
# W. Porod, F.~Staub, Comput. Phys. Commun. 183 (2012) 2458
#                     arXiv:1104.1573 [hep-ph] 
# in case of problems send email to porod@physik.uni-wuerzburg.de
# Created: 12.05.2022,  16:41
Block SPINFO         # Program information
     1   SPheno      # spectrum calculator
     2   v4.0.5be    # version number
#
Block SPhenoINFO     # SPheno specific information
    1      2         # using 2-loop RGEs
    2      2         # using pole masses for boundary conditions at mZ
Block MODSEL  # Model selection
    1    0    # general MSSM
Block MINPAR  # Input parameters
    3    1.46172502E+01  # tanb at m_Z    
    4   -1.00000000E+00  # Sign(mu)
Block EXTPAR  # non-universal input parameters
    0    4.76063563E+03  # scale for input parameters
    1   -1.73649544E+02  # M_1
    2   -1.34164347E+03  # M_2
    3    2.41328249E+03  # M_3
   11    3.79609605E+02  # A_t
   12   -1.13789824E+02  # A_b
   13    1.96356052E+03  # A_tau
   23   -7.17248114E+02  # mu
   25    1.38931245E+01  # tan(beta)
   26    1.51903542E+03  # m_A, pole mass
   31    1.00000000E+04  # M_L11
   32    1.00000000E+04  # M_L22
   33    1.00000000E+04  # M_L33
   34    1.00000000E+04  # M_E11
   35    1.00000000E+04  # M_E22
   36    1.00000000E+04  # M_E33
   41    1.00000000E+04  # M_Q11
   42    1.00000000E+04  # M_Q22
   43    4.50356050E+03  # M_Q33
   44    1.00000000E+04  # M_U11
   45    1.00000000E+04  # M_U22
   46    4.95570769E+03  # M_U33
   47    1.00000000E+04  # M_D11
   48    1.00000000E+04  # M_D22
   49    3.68372409E+03  # M_D33
Block SMINPUTS  # SM parameters
         1     1.27908970E+02  # alpha_em^-1(MZ)^MSbar
         2     1.16637870E-05  # G_mu [GeV^-2]
         3     1.18400000E-01  # alpha_s(MZ)^MSbar
         4     9.11876000E+01  # m_Z(pole)
         5     4.18000000E+00  # m_b(m_b), MSbar
         6     1.73200000E+02  # m_t(pole)
         7     1.77700000E+00  # m_tau(pole)
         8     0.00000000E+00  # m_nu_3
        11     5.10998930E-04  # m_e(pole)
        12     0.00000000E+00  # m_nu_1
        13     1.05658372E-01  # m_muon(pole)
        14     0.00000000E+00  # m_nu_2
        21     5.00000000E-03  # m_d(2 GeV), MSbar
        22     2.50000000E-03  # m_u(2 GeV), MSbar
        23     9.50000000E-02  # m_s(2 GeV), MSbar
        24     1.27000000E+00  # m_c(m_c), MSbar
Block gauge Q=  4.76063563E+03  # (SUSY scale)
   1    3.55362975E-01  # g'(Q)^DRbar
   2    6.65198874E-01  # g(Q)^DRbar
   3    1.21977796E+00  # g3(Q)^DRbar
Block Yu Q=  4.76063563E+03  # (SUSY scale)
  1  1     8.40606312E-06   # Y_u(Q)^DRbar
  2  2     4.27028006E-03   # Y_c(Q)^DRbar
  3  3     1.01551994E+00   # Y_t(Q)^DRbar
Block Yd Q=  4.76063563E+03  # (SUSY scale)
  1  1     2.34678240E-04   # Y_d(Q)^DRbar
  2  2     4.45888655E-03   # Y_s(Q)^DRbar
  3  3     2.32727276E-01   # Y_b(Q)^DRbar
Block Ye Q=  4.76063563E+03  # (SUSY scale)
  1  1     4.09530689E-05   # Y_e(Q)^DRbar
  2  2     8.46779579E-03   # Y_mu(Q)^DRbar
  3  3     1.42414395E-01   # Y_tau(Q)^DRbar
Block Au Q=  4.76063563E+03  # (SUSY scale)
  1  1     0.00000000E+00   # A_u(Q)^DRbar
  2  2     0.00000000E+00   # A_c(Q)^DRbar
  3  3     3.79609608E+02   # A_t(Q)^DRbar
Block Ad Q=  4.76063563E+03  # (SUSY scale)
  1  1     0.00000000E+00   # A_d(Q)^DRbar
  2  2     0.00000000E+00   # A_s(Q)^DRbar
  3  3    -1.13789823E+02   # A_b(Q)^DRbar
Block Ae Q=  4.76063563E+03  # (SUSY scale)
  1  1     0.00000000E+00   # A_e(Q)^DRbar
  2  2     0.00000000E+00   # A_mu(Q)^DRbar
  3  3     1.96356051E+03   # A_tau(Q)^DRbar
Block MSOFT Q=  4.76063563E+03  # soft SUSY breaking masses at Q
   1   -1.73649544E+02  # M_1
   2   -1.34164347E+03  # M_2
   3    2.41328249E+03  # M_3
  21    1.74216714E+06  # M^2_(H,d)
  22    9.63874778E+03  # M^2_(H,u)
  31    1.00000000E+04  # M_(L,11)
  32    1.00000000E+04  # M_(L,22)
  33    1.00000000E+04  # M_(L,33)
  34    1.00000000E+04  # M_(E,11)
  35    1.00000000E+04  # M_(E,22)
  36    1.00000000E+04  # M_(E,33)
  41    1.00000000E+04  # M_(Q,11)
  42    1.00000000E+04  # M_(Q,22)
  43    4.50356050E+03  # M_(Q,33)
  44    1.00000000E+04  # M_(U,11)
  45    1.00000000E+04  # M_(U,22)
  46    4.95570769E+03  # M_(U,33)
  47    1.00000000E+04  # M_(D,11)
  48    1.00000000E+04  # M_(D,22)
  49    3.68372409E+03  # M_(D,33)
Block MASS  # Mass spectrum
#   PDG code      mass          particle
         6     1.73200000E+02  # m_t(pole)
        23     9.11876000E+01  # m_Z(pole)
        24     8.04299946E+01  # W+
        15     1.77700000E+00  # m_tau(pole)
        25     1.22254054E+02  # h0
        35     1.51912813E+03  # H0
        36     1.51903542E+03  # A0
        37     1.52179683E+03  # H+
   1000001     1.01176397E+04  # ~d_L
   2000001     1.00930431E+04  # ~d_R
   1000002     1.01172809E+04  # ~u_L
   2000002     1.00962639E+04  # ~u_R
   1000003     1.01176397E+04  # ~s_L
   2000003     1.00930430E+04  # ~s_R
   1000004     1.01172809E+04  # ~c_L
   2000004     1.00962639E+04  # ~c_R
   1000005     3.77019445E+03  # ~b_1
   2000005     4.55951623E+03  # ~b_2
   1000006     4.56121307E+03  # ~t_1
   2000006     4.96877722E+03  # ~t_2
   1000011     1.00209974E+04  # ~e_L-
   2000011     1.00089504E+04  # ~e_R-
   1000012     1.00202342E+04  # ~nu_eL
   1000013     1.00209975E+04  # ~mu_L-
   2000013     1.00089498E+04  # ~mu_R-
   1000014     1.00202341E+04  # ~nu_muL
   1000015     1.00087646E+04  # ~tau_1-
   2000015     1.00210464E+04  # ~tau_2-
   1000016     1.00201862E+04  # ~nu_tauL
   1000021     2.88999428E+03  # ~g
   1000022     1.72584873E+02  # ~chi_10
   1000023     7.02049156E+02  # ~chi_20
   1000025     7.07158665E+02  # ~chi_30
   1000035     1.43710466E+03  # ~chi_40
   1000024     7.01230697E+02  # ~chi_1+
   1000037     1.43706936E+03  # ~chi_2+
# Higgs mixing
Block alpha # Effective Higgs mixing angle
          -6.90168781E-02   # alpha
Block Hmix Q=  4.76063563E+03  # Higgs mixing parameters
   1   -7.17248114E+02  # mu
   2    1.38931245E+01  # tan[beta](Q)
   3    2.42769577E+02  # v(Q)
   4    2.30746861E+06  # m^2_A(Q)
Block stopmix # stop mixing matrix
   1  1    -9.99972143E-01   # Re[R_st(1,1)]
   1  2     7.46409237E-03   # Re[R_st(1,2)]
   2  1    -7.46409237E-03   # Re[R_st(2,1)]
   2  2    -9.99972143E-01   # Re[R_st(2,2)]
Block sbotmix # sbottom mixing matrix
   1  1    -3.41442101E-03   # Re[R_sb(1,1)]
   1  2     9.99994171E-01   # Re[R_sb(1,2)]
   2  1    -9.99994171E-01   # Re[R_sb(2,1)]
   2  2    -3.41442101E-03   # Re[R_sb(2,2)]
Block staumix # stau mixing matrix
   1  1    -8.88255679E-02   # Re[R_sta(1,1)]
   1  2     9.96047197E-01   # Re[R_sta(1,2)]
   2  1    -9.96047197E-01   # Re[R_sta(2,1)]
   2  2    -8.88255679E-02   # Re[R_sta(2,2)]
Block Nmix # neutralino mixing matrix
   1  1     9.97463858E-01   # Re[N(1,1)]
   1  2    -1.54145337E-03   # Re[N(1,2)]
   1  3    -6.78708269E-02   # Re[N(1,3)]
   1  4     2.13781631E-02   # Re[N(1,4)]
   2  1     6.31038636E-02   # Re[N(2,1)]
   2  2     8.44813913E-02   # Re[N(2,2)]
   2  3     7.04388797E-01   # Re[N(2,3)]
   2  4    -7.01938188E-01   # Re[N(2,4)]
   3  1     3.27835277E-02   # Re[N(3,1)]
   3  2    -2.45924756E-02   # Re[N(3,2)]
   3  3     7.05286806E-01   # Re[N(3,3)]
   3  4     7.07736513E-01   # Re[N(3,4)]
   4  1    -2.99896504E-03   # Re[N(4,1)]
   4  2     9.96120338E-01   # Re[N(4,2)]
   4  3    -4.24322395E-02   # Re[N(4,3)]
   4  4     7.70375407E-02   # Re[N(4,4)]
Block Umix # chargino mixing matrix
   1  1    -5.94602783E-02   # Re[U(1,1)]
   1  2    -9.98230672E-01   # Re[U(1,2)]
   2  1    -9.98230672E-01   # Re[U(2,1)]
   2  2     5.94602783E-02   # Re[U(2,2)]
Block Vmix # chargino mixing matrix
   1  1     1.08255765E-01   # Re[V(1,1)]
   1  2     9.94123076E-01   # Re[V(1,2)]
   2  1     9.94123076E-01   # Re[V(2,1)]
   2  2    -1.08255765E-01   # Re[V(2,2)]
DECAY        23     2.49520000E+00   # Z
DECAY        24     2.08500000E+00   # W
DECAY   2000011     5.02590482E+01   # ~e^-_R
#    BR                NDA      ID1      ID2
     9.94981072E-01    2     1000022        11   # BR(~e^-_R -> chi^0_1 e^-)
     3.94554587E-03    2     1000023        11   # BR(~e^-_R -> chi^0_2 e^-)
     1.06474302E-03    2     1000025        11   # BR(~e^-_R -> chi^0_3 e^-)
DECAY   1000011     1.39540181E+02   # ~e^-_L
#    BR                NDA      ID1      ID2
     8.91818705E-02    2     1000022        11   # BR(~e^-_L -> chi^0_1 e^-)
     4.37243349E-03    2     1000023        11   # BR(~e^-_L -> chi^0_2 e^-)
     2.99909665E-01    2     1000035        11   # BR(~e^-_L -> chi^0_4 e^-)
     2.21327341E-03    2    -1000024        12   # BR(~e^-_L -> chi^-_1 nu_e)
     6.04307074E-01    2    -1000037        12   # BR(~e^-_L -> chi^-_2 nu_e)
#    BR                NDA      ID1      ID2       ID3
DECAY   2000013     5.02873172E+01   # ~mu^-_R
#    BR                NDA      ID1      ID2
     9.94422993E-01    2     1000022        13   # BR(~mu^-_R -> chi^0_1 mu^-)
     4.08281180E-03    2     1000023        13   # BR(~mu^-_R -> chi^0_2 mu^-)
     1.20396529E-03    2     1000025        13   # BR(~mu^-_R -> chi^0_3 mu^-)
     2.80148843E-04    2    -1000024        14   # BR(~mu^-_R -> chi^-_1 nu_mu)
DECAY   1000013     1.39554336E+02   # ~mu^-_L
#    BR                NDA      ID1      ID2
     8.91732972E-02    2     1000022        13   # BR(~mu^-_L -> chi^0_1 mu^-)
     4.42231595E-03    2     1000023        13   # BR(~mu^-_L -> chi^0_2 mu^-)
     2.99879424E-01    2     1000035        13   # BR(~mu^-_L -> chi^0_4 mu^-)
     2.21304894E-03    2    -1000024        14   # BR(~mu^-_L -> chi^-_1 nu_mu)
     6.04245786E-01    2    -1000037        14   # BR(~mu^-_L -> chi^-_2 nu_mu)
#    BR                NDA      ID1      ID2       ID3
DECAY   1000015     5.89365375E+01   # ~tau^-_1
#    BR                NDA      ID1      ID2
     8.45206119E-01    2     1000022        15   # BR(~tau^-_1 -> chi^0_1 tau^-)
     3.85019531E-02    2     1000023        15   # BR(~tau^-_1 -> chi^0_2 tau^-)
     3.34692467E-02    2     1000025        15   # BR(~tau^-_1 -> chi^0_3 tau^-)
     4.09452490E-03    2     1000035        15   # BR(~tau^-_1 -> chi^0_4 tau^-)
     7.04480972E-02    2    -1000024        16   # BR(~tau^-_1 -> chi^-_1 nu_tau)
     8.28005944E-03    2    -1000037        16   # BR(~tau^-_1 -> chi^-_2 nu_tau)
DECAY   2000015     1.42862023E+02   # ~tau^-_2
#    BR                NDA      ID1      ID2
     8.87173037E-02    2     1000022        15   # BR(~tau^-_2 -> chi^0_1 tau^-)
     1.75680992E-02    2     1000023        15   # BR(~tau^-_2 -> chi^0_2 tau^-)
     1.44433417E-02    2     1000025        15   # BR(~tau^-_2 -> chi^0_3 tau^-)
     2.91346678E-01    2     1000035        15   # BR(~tau^-_2 -> chi^0_4 tau^-)
     9.90202774E-04    2    -1000024        16   # BR(~tau^-_2 -> chi^-_1 nu_tau)
     5.86934375E-01    2    -1000037        16   # BR(~tau^-_2 -> chi^-_2 nu_tau)
#    BR                NDA      ID1      ID2       ID3
DECAY   1000012     1.39543698E+02   # ~nu_e
#    BR                NDA      ID1      ID2
     9.02106414E-02    2     1000022        12   # BR(~nu_e -> chi^0_1 nu_e)
     8.06697919E-04    2     1000023        12   # BR(~nu_e -> chi^0_2 nu_e)
     5.54784404E-04    2     1000025        12   # BR(~nu_e -> chi^0_3 nu_e)
     3.01812799E-01    2     1000035        12   # BR(~nu_e -> chi^0_4 nu_e)
     7.33565207E-03    2     1000024        11   # BR(~nu_e -> chi^+_1 e^-)
     5.99279426E-01    2     1000037        11   # BR(~nu_e -> chi^+_2 e^-)
#    BR                NDA      ID1      ID2       ID3
DECAY   1000014     1.39557849E+02   # ~nu_mu
#    BR                NDA      ID1      ID2
     9.02014933E-02    2     1000022        14   # BR(~nu_mu -> chi^0_1 nu_mu)
     8.06616114E-04    2     1000023        14   # BR(~nu_mu -> chi^0_2 nu_mu)
     5.54728145E-04    2     1000025        14   # BR(~nu_mu -> chi^0_3 nu_mu)
     3.01782192E-01    2     1000035        14   # BR(~nu_mu -> chi^0_4 nu_mu)
     7.43596622E-03    2     1000024        13   # BR(~nu_mu -> chi^+_1 mu^-)
     5.99219004E-01    2     1000037        13   # BR(~nu_mu -> chi^+_2 mu^-)
#    BR                NDA      ID1      ID2       ID3
DECAY   1000016     1.43546129E+02   # ~nu_tau
#    BR                NDA      ID1      ID2
     8.76949189E-02    2     1000022        16   # BR(~nu_tau -> chi^0_1 nu_tau)
     7.84201301E-04    2     1000023        16   # BR(~nu_tau -> chi^0_2 nu_tau)
     5.39312970E-04    2     1000025        16   # BR(~nu_tau -> chi^0_3 nu_tau)
     2.93395967E-01    2     1000035        16   # BR(~nu_tau -> chi^0_4 nu_tau)
     3.49223690E-02    2     1000024        15   # BR(~nu_tau -> chi^+_1 tau^-)
     5.82663230E-01    2     1000037        15   # BR(~nu_tau -> chi^+_2 tau^-)
#    BR                NDA      ID1      ID2       ID3
DECAY   2000001     6.77028331E+02   # ~d_R
#    BR                NDA      ID1      ID2
     8.27594524E-03    2     1000022         1   # BR(~d_R -> chi^0_1 d)
     9.91682270E-01    2     1000021         1   # BR(~d_R -> ~g d)
DECAY   1000001     8.03310077E+02   # ~d_L
#    BR                NDA      ID1      ID2
     1.77846332E-03    2     1000022         1   # BR(~d_L -> chi^0_1 d)
     2.94553517E-04    2     1000023         1   # BR(~d_L -> chi^0_2 d)
     5.28670579E-02    2     1000035         1   # BR(~d_L -> chi^0_4 d)
     3.88240350E-04    2    -1000024         2   # BR(~d_L -> chi^-_1 u)
     1.06069051E-01    2    -1000037         2   # BR(~d_L -> chi^-_2 u)
     8.38551793E-01    2     1000021         1   # BR(~d_L -> ~g d)
DECAY   2000003     6.77036206E+02   # ~s_R
#    BR                NDA      ID1      ID2
     8.27587599E-03    2     1000022         3   # BR(~s_R -> chi^0_1 s)
     9.91670721E-01    2     1000021         3   # BR(~s_R -> ~g s)
DECAY   1000003     8.03317663E+02   # ~s_L
#    BR                NDA      ID1      ID2
     1.77846941E-03    2     1000022         3   # BR(~s_L -> chi^0_1 s)
     2.96992101E-04    2     1000023         3   # BR(~s_L -> chi^0_2 s)
     5.28665670E-02    2     1000035         3   # BR(~s_L -> chi^0_4 s)
     3.92707352E-04    2    -1000024         4   # BR(~s_L -> chi^-_1 c)
     1.06068102E-01    2    -1000037         4   # BR(~s_L -> chi^-_2 c)
     8.38543874E-01    2     1000021         3   # BR(~s_L -> ~g s)
DECAY   1000005     6.02613249E+01   # ~b_1
#    BR                NDA      ID1      ID2
     3.49497896E-02    2     1000022         5   # BR(~b_1 -> chi^0_1 b)
     3.13278288E-02    2     1000023         5   # BR(~b_1 -> chi^0_2 b)
     3.12240084E-02    2     1000025         5   # BR(~b_1 -> chi^0_3 b)
     6.23772463E-02    2    -1000024         6   # BR(~b_1 -> chi^-_1 t)
     1.20835505E-04    2    -1000037         6   # BR(~b_1 -> chi^-_2 t)
     8.39937846E-01    2     1000021         5   # BR(~b_1 -> ~g b)
DECAY   2000005     2.71865766E+02   # ~b_2
#    BR                NDA      ID1      ID2
     2.43688833E-03    2     1000022         5   # BR(~b_2 -> chi^0_1 b)
     8.91619897E-03    2     1000023         5   # BR(~b_2 -> chi^0_2 b)
     8.63360718E-03    2     1000025         5   # BR(~b_2 -> chi^0_3 b)
     5.95130215E-02    2     1000035         5   # BR(~b_2 -> chi^0_4 b)
     3.23353183E-01    2    -1000024         6   # BR(~b_2 -> chi^-_1 t)
     1.23238425E-01    2    -1000037         6   # BR(~b_2 -> chi^-_2 t)
     4.73797907E-01    2     1000021         5   # BR(~b_2 -> ~g b)
DECAY   2000002     6.94220236E+02   # ~u_R
#    BR                NDA      ID1      ID2
     3.22943017E-02    2     1000022         2   # BR(~u_R -> chi^0_1 u)
     1.28081780E-04    2     1000023         2   # BR(~u_R -> chi^0_2 u)
     9.67542772E-01    2     1000021         2   # BR(~u_R -> ~g u)
DECAY   1000002     8.03297294E+02   # ~u_L
#    BR                NDA      ID1      ID2
     1.71775131E-03    2     1000022         2   # BR(~u_L -> chi^0_1 u)
     5.03025683E-04    2     1000023         2   # BR(~u_L -> chi^0_2 u)
     5.27526224E-02    2     1000035         2   # BR(~u_L -> chi^0_4 u)
     1.28689954E-03    2     1000024         1   # BR(~u_L -> chi^+_1 d)
     1.05195561E-01    2     1000037         1   # BR(~u_L -> chi^+_2 d)
     8.38524832E-01    2     1000021         2   # BR(~u_L -> ~g u)
DECAY   2000004     6.94227456E+02   # ~c_R
#    BR                NDA      ID1      ID2
     3.22939670E-02    2     1000022         4   # BR(~c_R -> chi^0_1 c)
     1.30654204E-04    2     1000023         4   # BR(~c_R -> chi^0_2 c)
     9.67532664E-01    2     1000021         4   # BR(~c_R -> ~g c)
DECAY   1000004     8.03304846E+02   # ~c_L
#    BR                NDA      ID1      ID2
     1.71773716E-03    2     1000022         4   # BR(~c_L -> chi^0_1 c)
     5.05251851E-04    2     1000023         4   # BR(~c_L -> chi^0_2 c)
     5.27521474E-02    2     1000035         4   # BR(~c_L -> chi^0_4 c)
     1.29178970E-03    2     1000024         3   # BR(~c_L -> chi^+_1 s)
     1.05194589E-01    2     1000037         3   # BR(~c_L -> chi^+_2 s)
     8.38516910E-01    2     1000021         4   # BR(~c_L -> ~g c)
DECAY   1000006     2.71310114E+02   # ~t_1
#    BR                NDA      ID1      ID2
     2.46298572E-03    2     1000022         6   # BR(~t_1 -> chi^0_1 t)
     1.62500380E-01    2     1000023         6   # BR(~t_1 -> chi^0_2 t)
     1.64234663E-01    2     1000025         6   # BR(~t_1 -> chi^0_3 t)
     6.02714393E-02    2     1000035         6   # BR(~t_1 -> chi^0_4 t)
     1.92206897E-02    2     1000024         5   # BR(~t_1 -> chi^+_1 b)
     1.18418956E-01    2     1000037         5   # BR(~t_1 -> chi^+_2 b)
     4.71014925E-01    2     1000021         6   # BR(~t_1 -> ~g t)
#    BR                NDA      ID1      ID2       ID3
     1.78284790E-03    3     1000022        24         5   # BR(~t_1 -> chi^0_1 W^+ b)
DECAY   2000006     3.77347381E+02   # ~t_2
#    BR                NDA      ID1      ID2
     2.92244817E-02    2     1000022         6   # BR(~t_2 -> chi^0_1 t)
     1.27478371E-01    2     1000023         6   # BR(~t_2 -> chi^0_2 t)
     1.29560960E-01    2     1000025         6   # BR(~t_2 -> chi^0_3 t)
     1.46424868E-03    2     1000035         6   # BR(~t_2 -> chi^0_4 t)
     2.56174267E-01    2     1000024         5   # BR(~t_2 -> chi^+_1 b)
     2.90246268E-03    2     1000037         5   # BR(~t_2 -> chi^+_2 b)
     4.52976835E-01    2     1000021         6   # BR(~t_2 -> ~g t)
     1.50385583E-04    2     1000006        25   # BR(~t_2 -> ~t_1 h^0)
DECAY   1000024     5.02229637E-01   # chi^+_1
#    BR                NDA      ID1      ID2
     9.93269160E-01    2     1000022        24   # BR(chi^+_1 -> chi^0_1 W^+)
#    BR                NDA      ID1      ID2       ID3
     6.73048365E-03    3     1000022        -5         6   # BR(chi^+_1 -> chi^0_1 b_bar t)
DECAY   1000037     1.34897939E+01   # chi^+_2
#    BR                NDA      ID1      ID2
     2.49402314E-04    2     1000022        24   # BR(chi^+_2 -> chi^0_1 W^+)
     2.61645720E-01    2     1000023        24   # BR(chi^+_2 -> chi^0_2 W^+)
     2.45621632E-01    2     1000025        24   # BR(chi^+_2 -> chi^0_3 W^+)
     2.45706531E-01    2     1000024        23   # BR(chi^+_2 -> chi^+_1 Z)
     2.33851512E-01    2     1000024        25   # BR(chi^+_2 -> chi^+_1 h^0)
#    BR                NDA      ID1      ID2       ID3
     4.35699378E-03    3     1000024         6        -6   # BR(chi^+_2 -> chi^+_1 t t_bar)
     3.90242458E-03    3     1000023        -5         6   # BR(chi^+_2 -> chi^0_2 b_bar t)
     4.65125917E-03    3     1000025        -5         6   # BR(chi^+_2 -> chi^0_3 b_bar t)
DECAY   1000022     0.00000000E+00   # chi^0_1
DECAY   1000023     4.51579374E-01   # chi^0_2
#    BR                NDA      ID1      ID2
     2.38804309E-01    2     1000022        23   # BR(chi^0_2 -> chi^0_1 Z)
     7.59781827E-01    2     1000022        25   # BR(chi^0_2 -> chi^0_1 h^0)
#    BR                NDA      ID1      ID2       ID3
     1.39939321E-03    3     1000022         6        -6   # BR(chi^0_2 -> chi^0_1 t t_bar)
DECAY   1000025     6.73980456E-01   # chi^0_3
#    BR                NDA      ID1      ID2
     6.04515726E-01    2     1000022        23   # BR(chi^0_3 -> chi^0_1 Z)
     3.94646419E-01    2     1000022        25   # BR(chi^0_3 -> chi^0_1 h^0)
#    BR                NDA      ID1      ID2       ID3
     8.28051797E-04    3     1000022         6        -6   # BR(chi^0_3 -> chi^0_1 t t_bar)
DECAY   1000035     1.55117012E+01   # chi^0_4
#    BR                NDA      ID1      ID2
     2.18116555E-01    2     1000024       -24   # BR(chi^0_4 -> chi^+_1 W^-)
     2.18116555E-01    2    -1000024        24   # BR(chi^0_4 -> chi^-_1 W^+)
     1.71422866E-02    2     1000023        23   # BR(chi^0_4 -> chi^0_2 Z)
     2.06187856E-01    2     1000025        23   # BR(chi^0_4 -> chi^0_3 Z)
     1.86359558E-01    2     1000023        25   # BR(chi^0_4 -> chi^0_2 h^0)
     1.43718029E-01    2     1000025        25   # BR(chi^0_4 -> chi^0_3 h^0)
#    BR                NDA      ID1      ID2       ID3
     1.48366673E-03    3     1000023         6        -6   # BR(chi^0_4 -> chi^0_2 t t_bar)
     1.17892514E-03    3     1000025         6        -6   # BR(chi^0_4 -> chi^0_3 t t_bar)
     3.73987667E-03    3     1000024         5        -6   # BR(chi^0_4 -> chi^+_1 b t_bar)
     3.73987667E-03    3    -1000024        -5         6   # BR(chi^0_4 -> chi^-_1 b_bar t)
DECAY   1000021     4.39436981E-02   # ~g
#    BR                NDA      ID1      ID2
     4.18851316E-03    2     1000023        21   # BR(~g -> chi^0_2 g)
     4.52380863E-03    2     1000025        21   # BR(~g -> chi^0_3 g)
#    BR                NDA      ID1      ID2       ID3
     9.43563600E-04    3     1000022         2        -2   # BR(~g -> chi^0_1 u u_bar)
     9.43563779E-04    3     1000022         4        -4   # BR(~g -> chi^0_1 c c_bar)
     2.04916218E-02    3     1000022         6        -6   # BR(~g -> chi^0_1 t t_bar)
     2.78708920E-04    3     1000022         1        -1   # BR(~g -> chi^0_1 d d_bar)
     2.78710889E-04    3     1000022         3        -3   # BR(~g -> chi^0_1 s s_bar)
     2.16992615E-02    3     1000022         5        -5   # BR(~g -> chi^0_1 b b_bar)
     1.97090731E-01    3     1000023         6        -6   # BR(~g -> chi^0_2 t t_bar)
     2.43680192E-02    3     1000023         5        -5   # BR(~g -> chi^0_2 b b_bar)
     1.97889925E-01    3     1000025         6        -6   # BR(~g -> chi^0_3 t t_bar)
     2.39833561E-02    3     1000025         5        -5   # BR(~g -> chi^0_3 b b_bar)
     3.93658009E-04    3     1000035         2        -2   # BR(~g -> chi^0_4 u u_bar)
     3.93658414E-04    3     1000035         4        -4   # BR(~g -> chi^0_4 c c_bar)
     1.12561203E-02    3     1000035         6        -6   # BR(~g -> chi^0_4 t t_bar)
     3.94442983E-04    3     1000035         1        -1   # BR(~g -> chi^0_4 d d_bar)
     3.94443116E-04    3     1000035         3        -3   # BR(~g -> chi^0_4 s s_bar)
     1.49352824E-02    3     1000035         5        -5   # BR(~g -> chi^0_4 b b_bar)
     2.25871917E-01    3     1000024         5        -6   # BR(~g -> chi^+_1 b t_bar)
     2.25871917E-01    3    -1000024        -5         6   # BR(~g -> chi^-_1 b_bar t)
     3.00801543E-04    3     1000037         1        -2   # BR(~g -> chi^+_2 d u_bar)
     3.00801543E-04    3    -1000037        -1         2   # BR(~g -> chi^-_2 d_bar u)
     3.00802073E-04    3     1000037         3        -4   # BR(~g -> chi^+_2 s c_bar)
     3.00802073E-04    3    -1000037        -3         4   # BR(~g -> chi^-_2 s_bar c)
     1.12246531E-02    3     1000037         5        -6   # BR(~g -> chi^+_2 b t_bar)
     1.12246531E-02    3    -1000037        -5         6   # BR(~g -> chi^-_2 b_bar t)
DECAY        25     3.33320039E-03   # Gamma(h0)
     2.49016941E-03   2        22        22   # BR(h0 -> photon photon)
     1.35142159E-03   2        22        23   # BR(h0 -> photon Z)
     2.26341168E-02   2        23        23   # BR(h0 -> Z Z)
     1.97610032E-01   2       -24        24   # BR(h0 -> W W)
     7.90910756E-02   2        21        21   # BR(h0 -> gluon gluon)
     5.35066207E-09   2       -11        11   # BR(h0 -> Electron electron)
     2.38005423E-04   2       -13        13   # BR(h0 -> Muon muon)
     6.86217174E-02   2       -15        15   # BR(h0 -> Tau tau)
     1.50083033E-07   2        -2         2   # BR(h0 -> Up up)
     2.91254078E-02   2        -4         4   # BR(h0 -> Charm charm)
     6.21866487E-07   2        -1         1   # BR(h0 -> Down down)
     2.24914457E-04   2        -3         3   # BR(h0 -> Strange strange)
     5.98612362E-01   2        -5         5   # BR(h0 -> Bottom bottom)
DECAY        35     5.79739995E+00   # Gamma(HH)
     1.85551761E-07   2        22        22   # BR(HH -> photon photon)
     1.95030709E-07   2        22        23   # BR(HH -> photon Z)
     7.33382015E-05   2        23        23   # BR(HH -> Z Z)
     5.75752716E-05   2       -24        24   # BR(HH -> W W)
     1.65534968E-05   2        21        21   # BR(HH -> gluon gluon)
     8.29124177E-09   2       -11        11   # BR(HH -> Electron electron)
     3.69087333E-04   2       -13        13   # BR(HH -> Muon muon)
     1.06585217E-01   2       -15        15   # BR(HH -> Tau tau)
     2.97875525E-12   2        -2         2   # BR(HH -> Up up)
     5.77751890E-07   2        -4         4   # BR(HH -> Charm charm)
     4.24011499E-02   2        -6         6   # BR(HH -> Top top)
     6.69003316E-07   2        -1         1   # BR(HH -> Down down)
     2.41982142E-04   2        -3         3   # BR(HH -> Strange strange)
     6.65356749E-01   2        -5         5   # BR(HH -> Bottom bottom)
     1.18636069E-03   2  -1000024   1000024   # BR(HH -> Chargino1 chargino1)
     2.26946404E-03   2   1000022   1000022   # BR(HH -> neutralino1 neutralino1)
     6.75775143E-02   2   1000022   1000023   # BR(HH -> neutralino1 neutralino2)
     1.13094473E-01   2   1000022   1000025   # BR(HH -> neutralino1 neutralino3)
     1.50864207E-04   2   1000023   1000023   # BR(HH -> neutralino2 neutralino2)
     1.42751020E-04   2   1000023   1000025   # BR(HH -> neutralino2 neutralino3)
     7.26800811E-05   2   1000025   1000025   # BR(HH -> neutralino3 neutralino3)
     4.02604343E-04   2        25        25   # BR(HH -> h0 h0)
DECAY        36     5.79329184E+00   # Gamma(A0)
     6.37735521E-07   2        22        22   # BR(A0 -> photon photon)
     5.20629066E-07   2        22        23   # BR(A0 -> photon Z)
     1.18854316E-04   2        21        21   # BR(A0 -> gluon gluon)
     8.14480189E-09   2       -11        11   # BR(A0 -> Electron electron)
     3.62568344E-04   2       -13        13   # BR(A0 -> Muon muon)
     1.04703271E-01   2       -15        15   # BR(A0 -> Tau tau)
     2.81473645E-12   2        -2         2   # BR(A0 -> Up up)
     5.45906407E-07   2        -4         4   # BR(A0 -> Charm charm)
     4.24401133E-02   2        -6         6   # BR(A0 -> Top top)
     6.57191996E-07   2        -1         1   # BR(A0 -> Down down)
     2.37710043E-04   2        -3         3   # BR(A0 -> Strange strange)
     6.53625632E-01   2        -5         5   # BR(A0 -> Bottom bottom)
     1.16470042E-02   2  -1000024   1000024   # BR(A0 -> Chargino1 chargino1)
     2.60380539E-03   2   1000022   1000022   # BR(A0 -> neutralino1 neutralino1)
     1.17500708E-01   2   1000022   1000023   # BR(A0 -> neutralino1 neutralino2)
     6.44367613E-02   2   1000022   1000025   # BR(A0 -> neutralino1 neutralino3)
     1.68324858E-03   2   1000023   1000023   # BR(A0 -> neutralino2 neutralino2)
     3.71945920E-06   2   1000023   1000025   # BR(A0 -> neutralino2 neutralino3)
     5.36887445E-04   2   1000025   1000025   # BR(A0 -> neutralino3 neutralino3)
     9.73474721E-05   2        23        25   # BR(A0 -> Z h0)
     6.37254340E-38   2        25        25   # BR(A0 -> h0 h0)
DECAY        37     5.98953514E+00   # Gamma(Hp)
     8.97750354E-09   2       -11        12   # BR(Hp -> Electron nu_e)
     3.83816313E-04   2       -13        14   # BR(Hp -> Muon nu_mu)
     1.08564860E-01   2       -15        16   # BR(Hp -> Tau nu_tau)
     6.31354535E-07   2        -1         2   # BR(Hp -> Down up)
     1.05699894E-05   2        -3         2   # BR(Hp -> Strange up)
     7.05649271E-06   2        -5         2   # BR(Hp -> Bottom up)
     5.94234594E-08   2        -1         4   # BR(Hp -> Down charm)
     2.28184104E-04   2        -3         4   # BR(Hp -> Strange charm)
     9.88161417E-04   2        -5         4   # BR(Hp -> Bottom charm)
     3.23840551E-06   2        -1         6   # BR(Hp -> Down top)
     7.09355566E-05   2        -3         6   # BR(Hp -> Strange top)
     7.08752135E-01   2        -5         6   # BR(Hp -> Bottom top)
     1.78809615E-01   2   1000022   1000024   # BR(Hp -> neutralino1 chargino1)
     7.59883766E-06   2   1000022   1000037   # BR(Hp -> neutralino1 chargino2)
     6.74751705E-04   2   1000023   1000024   # BR(Hp -> neutralino2 chargino1)
     1.40346254E-03   2   1000024   1000025   # BR(Hp -> chargino1 neutralino3)
     9.49158062E-05   2        24        25   # BR(Hp -> W h0)
     3.07198729E-11   2        24        35   # BR(Hp -> W HH)
     3.64382012E-11   2        24        36   # BR(Hp -> W A0)
DECAY         6     2.43000000E+00   # top
#    BR                NDA      ID1      ID2
     1.00000000E+00    2           5        24   # BR(t -> b W)
Block HiggsBoundsInputHiggsCouplingsFermions
# ScalarNormEffCoupSq PseudoSNormEffCoupSq NP IP1 IP2 IP2
    9.22709529E-01    0.00000000E+00        3  25   5   5  # h0-b-b eff. coupling^2, normalised to SM
    1.93096199E+02    0.00000000E+00        3  35   5   5  # H0-b-b eff. coupling^2, normalised to SM
    0.00000000E+00    1.93018908E+02        3  36   5   5  # A0-b-b eff. coupling^2, normalised to SM
#
    1.00040043E+00    0.00000000E+00        3  25   6   6  # h0-t-t eff. coupling^2, normalised to SM
    4.78041005E-03    0.00000000E+00        3  35   6   6  # H0-t-t eff. coupling^2, normalised to SM
    0.00000000E+00    5.18083958E-03        3  36   6   6  # A0-t-t eff. coupling^2, normalised to SM
#
    9.22709529E-01    0.00000000E+00        3  25  15  15  # h0-tau-tau eff. coupling^2, normalised to SM
    1.93096199E+02    0.00000000E+00        3  35  15  15  # H0-tau-tau eff. coupling^2, normalised to SM
    0.00000000E+00    1.93018908E+02        3  36  15  15  # A0-tau-tau eff. coupling^2, normalised to SM
#
Block HiggsBoundsInputHiggsCouplingsBosons
    9.99991950E-01        3  25  24  24  # h0-W-W eff. coupling^2, normalised to SM
    8.04998817E-06        3  35  24  24  # H0-W-W eff. coupling^2, normalised to SM
    0.00000000E+00        3  36  24  24  # A0-W-W eff. coupling^2, normalised to SM
#
    9.99991950E-01        3  25  23  23  # h0-Z-Z eff. coupling^2, normalised to SM
    8.04998817E-06        3  35  23  23  # H0-Z-Z eff. coupling^2, normalised to SM
    0.00000000E+00        3  36  23  23  # A0-Z-Z eff. coupling^2, normalised to SM
#
    1.27364298E+00        3  25  21  21  # h0-g-g eff. coupling^2, normalised to SM
    2.78789732E-03        3  35  21  21  # H0-g-g eff. coupling^2, normalised to SM
    1.06908479E-01        3  36  21  21  # A0-g-g eff. coupling^2, normalised to SM
#
    0.00000000E+00        3  25  25  23  # h0-h0-Z eff. coupling^2, normalised to SM
    0.00000000E+00        3  35  25  23  # H0-h0-Z eff. coupling^2, normalised to SM
    8.04998817E-06        3  36  25  23  # A0-h0-Z eff. coupling^2, normalised to SM
    0.00000000E+00        3  35  35  23  # H0-H0-Z eff. coupling^2, normalised to SM
    9.99991950E-01        3  36  35  23  # A0-H0-Z eff. coupling^2, normalised to SM
    0.00000000E+00        3  36  36  23  # A0-A0-Z eff. coupling^2, normalised to SM
#
    0.00000000E+00        4  25  21  21  23  # h0-g-g-Z eff. coupling^2, normalised to SM
    0.00000000E+00        4  35  21  21  23  # H0-g-g-Z eff. coupling^2, normalised to SM
    0.00000000E+00        4  36  21  21  23  # A0-g-g-Z eff. coupling^2, normalised to SM
Block SPhenoLowEnergy  # low energy observables
    1    3.40295722E-04   # BR(b -> s gamma)
    2    1.58840444E-06   # BR(b -> s mu+ mu-)
    3    3.52568160E-05   # BR(b -> s nu nu)
    4    2.54495400E-15   # BR(Bd -> e+ e-)
    5    1.08717548E-10   # BR(Bd -> mu+ mu-)
    6    2.27590842E-08   # BR(Bd -> tau+ tau-)
    7    8.60235710E-14   # BR(Bs -> e+ e-)
    8    3.67492425E-09   # BR(Bs -> mu+ mu-)
    9    7.79485677E-07   # BR(Bs -> tau+ tau-)
   10    9.62351198E-05   # BR(B_u -> tau nu)
   11    9.94071945E-01   # BR(B_u -> tau nu)/BR(B_u -> tau nu)_SM
   12    5.42076716E-01   # |Delta(M_Bd)| [ps^-1] 
   13    1.93658741E+01   # |Delta(M_Bs)| [ps^-1] 
   14    0.00000000E+00   # neutron EDM according to the chiral quark model
   15    0.00000000E+00   # neutron EDM according to the relativistic quark-parton model
   16    2.15765803E-03   # epsilon_K
   17    2.28166234E-15   # Delta(M_K)
   18    2.48019481E-11   # BR(K^0 -> pi^0 nu nu)
   19    8.29097041E-11   # BR(K^+ -> pi^+ nu nu)
   20    1.32275100E-16   # Delta(g-2)_electron/2
   21    5.65517616E-12   # Delta(g-2)_muon/2
   22    1.59993335E-09   # Delta(g-2)_tau/2
   23    0.00000000E+00   # electric dipole moment of the electron
   24    0.00000000E+00   # electric dipole moment of the muon
   25    0.00000000E+00   # electric dipole moment of the tau
   26    0.00000000E+00   # Br(mu -> e gamma)
   27    0.00000000E+00   # Br(tau -> e gamma)
   28    0.00000000E+00   # Br(tau -> mu gamma)
   29    0.00000000E+00   # Br(mu -> 3 e)
   30    0.00000000E+00   # Br(tau -> 3 e)
   31    0.00000000E+00   # Br(tau -> 3 mu)
   39    2.75882413E-05   # Delta(rho_parameter)
   40    0.00000000E+00   # BR(Z -> e mu)
   41    0.00000000E+00   # BR(Z -> e tau)
   42    0.00000000E+00   # BR(Z -> mu tau)
Block FWCOEF Q=  1.60000000E+02  # Wilson coefficients at scale Q
#    id        order  M        value         comment
     0305 4422   00   0    -1.88819110E-01   # C7
     0305 4422   00   2    -2.09030194E-01   # C7
     0305 4322   00   2    -3.96174201E-04   # C7'
     0305 6421   00   0    -9.52278348E-02   # C8
     0305 6421   00   2    -1.19562802E-01   # C8
     0305 6321   00   2    -4.78325874E-04   # C8'
 03051111 4133   00   0     1.63232873E+00   # C9 e+e-
 03051111 4133   00   2     1.63257381E+00   # C9 e+e-
 03051111 4233   00   2     4.04905648E-05   # C9' e+e-
 03051111 4137   00   0    -4.45502084E+00   # C10 e+e-
 03051111 4137   00   2    -4.45376938E+00   # C10 e+e-
 03051111 4237   00   2    -2.96426453E-04   # C10' e+e-
 03051313 4133   00   0     1.63232873E+00   # C9 mu+mu-
 03051313 4133   00   2     1.63257379E+00   # C9 mu+mu-
 03051313 4233   00   2     4.04905017E-05   # C9' mu+mu-
 03051313 4137   00   0    -4.45502084E+00   # C10 mu+mu-
 03051313 4137   00   2    -4.45376940E+00   # C10 mu+mu-
 03051313 4237   00   2    -2.96426397E-04   # C10' mu+mu-
 03051212 4137   00   0     1.50535012E+00   # C11 nu_1 nu_1
 03051212 4137   00   2     1.50508106E+00   # C11 nu_1 nu_1
 03051212 4237   00   2     6.40165095E-05   # C11' nu_1 nu_1
 03051414 4137   00   0     1.50535012E+00   # C11 nu_2 nu_2
 03051414 4137   00   2     1.50508106E+00   # C11 nu_2 nu_2
 03051414 4237   00   2     6.40165227E-05   # C11' nu_2 nu_2
 03051616 4137   00   0     1.50535012E+00   # C11 nu_3 nu_3
 03051616 4137   00   2     1.50508106E+00   # C11 nu_3 nu_3
 03051616 4237   00   2     6.40202477E-05   # C11' nu_3 nu_3
Block IMFWCOEF Q=  1.60000000E+02  # Im(Wilson coefficients) at scale Q
#    id        order  M        value         comment
     0305 4422   00   0     3.85822760E-07   # C7
     0305 4422   00   2     1.94054545E-06   # C7
     0305 4322   00   2    -1.76376643E-08   # C7'
     0305 6421   00   0     3.30482710E-07   # C8
     0305 6421   00   2     6.44968160E-06   # C8
     0305 6321   00   2     1.01320863E-07   # C8'
 03051111 4133   00   2     2.62656078E-07   # C9 e+e-
 03051111 4233   00   2     1.00985670E-06   # C9' e+e-
 03051111 4137   00   2     1.99176578E-07   # C10 e+e-
 03051111 4237   00   2    -7.39999039E-06   # C10' e+e-
 03051313 4133   00   2     2.62655722E-07   # C9 mu+mu-
 03051313 4233   00   2     1.00985667E-06   # C9' mu+mu-
 03051313 4137   00   2     1.99176954E-07   # C10 mu+mu-
 03051313 4237   00   2    -7.39999049E-06   # C10' mu+mu-
 03051212 4137   00   2    -2.15170492E-08   # C11 nu_1 nu_1
 03051212 4237   00   2     1.59811468E-06   # C11' nu_1 nu_1
 03051414 4137   00   2    -2.15170333E-08   # C11 nu_2 nu_2
 03051414 4237   00   2     1.59811468E-06   # C11' nu_2 nu_2
 03051616 4137   00   2    -2.15124622E-08   # C11 nu_3 nu_3
 03051616 4237   00   2     1.59811467E-06   # C11' nu_3 nu_3
