BLOCK SPINFO
   1   SPheno
   2   v4.0.5be

BLOCK SPHENOINFO
   1   2
   2   2

BLOCK MODSEL
   1   0

BLOCK MINPAR
   3    13.614737
   4    1

BLOCK EXTPAR
   0    1345.4766
   1    575.90784
   2    591.96726
   3    3000
   11   -3383.7225
   12   -1424.7593
   13   -1211.8019
   23    700.48067
   25    13.115745
   26    1777.7234
   31    1662.2006
   32    1662.2006
   33    1154.9475
   34    708.01067
   35    708.01067
   36    771.9182
   41    5000
   42    5000
   43    1335.2372
   44    5000
   45    5000
   46    1535.2172
   47    5000
   48    5000
   49    856.73294

BLOCK SMINPUTS
   1    127.90897
   2    1.1663787e-05
   3    0.1184
   4    91.1876
   5    4.18
   6    173.2
   7    1.777
   8    0
   11    0.00051099893
   12    0
   13    0.10565837
   14    0
   21    0.005
   22    0.0025
   23    0.095
   24    1.27

BLOCK GAUGE Q=  1345.4766
   1    0.35536298
   2    0.66519887
   3    1.219778

BLOCK YU Q=  1345.4766
   1   1    8.4087068e-06
   2   2    0.004271623
   3   3    1.0158393

BLOCK YD Q=  1345.4766
   1   1    0.00022161668
   2   2    0.0042107168
   3   3    0.2197743

BLOCK YE Q=  1345.4766
   1   1    3.8673731e-05
   2   2    0.0079965009
   3   3    0.13448799

BLOCK AU Q=  1345.4766
   1   1    0
   2   2    0
   3   3   -3383.7225

BLOCK AD Q=  1345.4766
   1   1    0
   2   2    0
   3   3   -1424.7594

BLOCK AE Q=  1345.4766
   1   1    0
   2   2    0
   3   3   -1211.8019

BLOCK MSOFT Q=  1345.4766
   1    575.90784
   2    591.96726
   3    3000
   21    2649731.9
   22   -449690.12
   31    1662.2006
   32    1662.2006
   33    1154.9475
   34    708.01067
   35    708.01067
   36    771.9182
   41    5000
   42    5000
   43    1335.2372
   44    5000
   45    5000
   46    1535.2172
   47    5000
   48    5000
   49    856.73294

BLOCK MASS
   6    173.2
   23    91.1876
   24    80.429995
   15    1.777
   25    123.10502
   35    1777.5547
   36    1777.7234
   37    1779.6989
   1000001    5023.8586
   2000001    5013.6147
   1000002    5023.4272
   2000002    5014.6141
   1000003    5023.8596
   2000003    5013.6153
   1000004    5023.4281
   2000004    5014.615
   1000005    798.12868
   2000005    1290.7124
   1000006    1169.5388
   2000006    1547.8813
   1000011    1666.0287
   2000011    714.7754
   1000012    1663.8142
   1000013    1666.0279
   2000013    714.77329
   1000014    1663.8133
   1000015    777.18361
   2000015    1159.0632
   1000016    1155.837
   1000021    3181.2516
   1000022    562.53321
   1000023    601.3671
   1000025   -709.1132
   1000035    744.09722
   1000024    595.06347
   1000037    740.90048

BLOCK ALPHA
      -0.073879911

BLOCK HMIX Q=  1345.4766
   1    700.48067
   2    13.115745
   3    244.09294
   4    3160300.7

BLOCK STOPMIX
   1   1    0.84365739
   1   2    0.53688193
   2   1   -0.53688193
   2   2    0.84365739

BLOCK SBOTMIX
   1   1    0.023107737
   1   2    0.99973298
   2   1   -0.99973298
   2   2    0.023107737

BLOCK STAUMIX
   1   1    0.025169359
   1   2    0.9996832
   2   1   -0.9996832
   2   2    0.025169359

BLOCK NMIX
   1   1    0.88873289
   1   2   -0.30618671
   1   3    0.26335847
   1   4   -0.21690057
   2   1    0.42100461
   2   2    0.83957868
   2   3   -0.25935409
   2   4    0.22494047
   3   1   -0.02247606
   3   2    0.039226107
   3   3    0.70465077
   3   4    0.70811258
   4   1   -0.18001052
   4   2    0.4470108
   4   3    0.60567736
   4   4   -0.63319231

BLOCK UMIX
   1   1   -0.86571038
   1   2    0.50054525
   2   1    0.50054525
   2   2    0.86571038

BLOCK VMIX
   1   1   -0.90220307
   1   2    0.43131151
   2   1    0.43131151
   2   2    0.90220307

BLOCK HIGGSBOUNDSINPUTHIGGSCOUPLINGSFERMIONS
       0, 172.02278,3,36,15,15

BLOCK HIGGSBOUNDSINPUTHIGGSCOUPLINGSBOSONS
       0,4,36,21,21,23

BLOCK SPHENOLOWENERGY
   1    0.00031254756
   2    1.5925056e-06
   3    3.52709e-05
   4    2.4561823e-15
   5    1.0492529e-10
   6    2.1963703e-08
   7    8.2693414e-14
   8    3.5326592e-09
   9    7.4926297e-07
   10    9.6516697e-05
   11    0.99698053
   12    0.54272254
   13    19.390505
   14    0
   15    0
   16    0.0021600517
   17    2.2816864e-15
   18    2.4806575e-11
   19    8.2920567e-11
   20    2.2851718e-15
   21    9.7697656e-11
   22    4.6982989e-08
   23    0
   24    0
   25    0
   26    0
   27    0
   28    0
   29    0
   30    0
   31    0
   39    3.9122256e-05
   40    0
   41    0
   42    0

BLOCK FWCOEF Q=  160
   305   4422   0   0   -0.18881911
   305   4422   0   2   -0.17692191
   305   4322   0   2   -0.00012996378
   305   6421   0   0   -0.095227835
   305   6421   0   2   -0.099902585
   305   6321   0   2   -0.00029369728
   3051111   4133   0   0    1.587902
   3051111   4133   0   2    1.5893802
   3051111   4233   0   2    2.2870274e-05
   3051111   4137   0   0   -4.4105941
   3051111   4137   0   2   -4.4106559
   3051111   4237   0   2   -0.00017809427
   3051313   4133   0   0    1.587902
   3051313   4133   0   2    1.5893799
   3051313   4233   0   2    2.2870233e-05
   3051313   4137   0   0   -4.4105941
   3051313   4137   0   2   -4.4106562
   3051313   4237   0   2   -0.00017809429
   3051212   4137   0   0    1.5053501
   3051212   4137   0   2    1.5053805
   3051212   4237   0   2    3.884322e-05
   3051414   4137   0   0    1.5053501
   3051414   4137   0   2    1.5053805
   3051414   4237   0   2    3.8843225e-05
   3051616   4137   0   0    1.5053501
   3051616   4137   0   2    1.5053809
   3051616   4237   0   2    3.8844591e-05

BLOCK IMFWCOEF Q=  160
   305   4422   0   0    3.8585442e-07
   305   4422   0   2    1.2287406e-05
   305   4322   0   2    2.7027867e-06
   305   6421   0   0    3.3050983e-07
   305   6421   0   2   -1.8495615e-06
   305   6321   0   2    1.0229232e-06
   3051111   4133   0   2   -9.8212791e-07
   3051111   4233   0   2    5.8596484e-07
   3051111   4137   0   2    1.1230543e-05
   3051111   4237   0   2   -4.5734021e-06
   3051313   4133   0   2   -9.8213249e-07
   3051313   4233   0   2    5.8596455e-07
   3051313   4137   0   2    1.1230542e-05
   3051313   4237   0   2   -4.5734028e-06
   3051212   4137   0   2   -2.1613715e-06
   3051212   4237   0   2    9.9752906e-07
   3051414   4137   0   2   -2.1613714e-06
   3051414   4237   0   2    9.9752906e-07
   3051616   4137   0   2   -2.1543271e-06
   3051616   4237   0   2    9.9752606e-07

DECAY 23  2.4952


DECAY 24  2.085


DECAY 2000011  0.46529396
    0.88322736   2    1000022    11
    0.11677167   2    1000023    11

DECAY 1000011  17.761703
    0.47101382   2   -1000024    12
    0.35385926   2    1000023    11
    0.13314299   2   -1000037    12
    0.03256714   2    1000035    11
    0.0092116938   2    1000022    11
    0.00020508861   2    1000025    11

DECAY 2000013  0.46531749
    0.88317745   2    1000022    13
    0.1167752   2    1000023    13

DECAY 1000013  17.763265
    0.47097201   2   -1000024    14
    0.35383375   2    1000023    13
    0.13313114   2   -1000037    14
    0.032592425   2    1000035    13
    0.0092173957   2    1000022    13
    0.00024480358   2    1000025    13

DECAY 1000015  0.84581964
    0.83308955   2    1000022    15
    0.13773204   2    1000023    15
    0.020934631   2   -1000024    16
    0.0046322708   2    1000025    15
    0.0018380829   2    1000035    15
    0.0017734263   2   -1000037    16

DECAY 2000015  8.6808248
    0.47461378   2   -1000024    16
    0.35635394   2    1000023    15
    0.10475069   2   -1000037    16
    0.032125914   2    1000035    15
    0.010894294   2    1000022    15
    0.0096384048   2    1000025    15
    0.0058788618   2    1000015    23
    0.0057441183   2    1000015    25

DECAY 1000012  17.808925
    0.50912904   2    1000024    11
    0.19674223   2    1000022    12
    0.1174234   2    1000023    12
    0.098335975   2    1000037    11
    0.077646483   2    1000035    12
    0.00072286805   2    1000025    12

DECAY 1000014  17.81033
    0.50911068   2    1000024    13
    0.19672654   2    1000022    14
    0.11741402   2    1000023    14
    0.098385679   2    1000037    13
    0.077640266   2    1000035    14
    0.00072281022   2    1000025    14

DECAY 1000016  8.7455594
    0.51770376   2    1000024    15
    0.20662266   2    1000022    16
    0.11689858   2    1000023    16
    0.087685094   2    1000037    15
    0.058847758   2    1000035    16
    0.011648355   2    1000015    24
    0.00059380357   2    1000025    16

DECAY 2000001  143.95149
    0.98106599   2    1000021    1
    0.014973909   2    1000022    1
    0.0033479843   2    1000023    1
    0.00060263568   2    1000035    1

DECAY 1000001  207.223
    0.68666441   2    1000021    1
    0.15549106   2   -1000024    2
    0.060610184   2    1000023    1
    0.051170498   2   -1000037    2
    0.023427537   2    1000035    1
    0.022444764   2    1000022    1
    0.00019155298   2    1000025    1

DECAY 2000003  143.95495
    0.9810429   2    1000021    3
    0.014974378   2    1000022    3
    0.003348706   2    1000023    3
    0.00060692101   2    1000035    3

DECAY 1000003  207.22657
    0.68665309   2    1000021    3
    0.15548992   2   -1000024    4
    0.060609706   2    1000023    3
    0.051176576   2   -1000037    4
    0.023430139   2    1000035    3
    0.022444957   2    1000022    3
    0.00019561768   2    1000025    3

DECAY 1000005  0.17350416
    0.60764269   2    1000022    5
    0.15764447   2    1000023    5
    0.11061244   2   -1000024    6
    0.096605592   2    1000025    5
    0.027494809   2    1000035    5

DECAY 2000005  25.019205
    0.46669915   2   -1000037    6
    0.26359801   2   -1000024    6
    0.099582837   2    1000006   -24
    0.08278635   2    1000023    5
    0.033667574   2    1000022    5
    0.032202443   2    1000035    5
    0.01230974   2    1000025    5
    0.0056748888   2    1000005    25
    0.0034790088   2    1000005    23

DECAY 2000002  152.23453
    0.92836994   2    1000021    2
    0.056648588   2    1000022    2
    0.012665949   2    1000023    2
    0.0022798357   2    1000035    2

DECAY 1000002  207.21934
    0.68645968   2    1000021    2
    0.16886399   2    1000024    1
    0.08670588   2    1000023    2
    0.037991139   2    1000037    1
    0.017575448   2    1000035    2
    0.0022767025   2    1000022    2
    0.00012716297   2    1000025    2

DECAY 2000004  152.23806
    0.92834864   2    1000021    4
    0.056647802   2    1000022    4
    0.012666255   2    1000023    4
    0.0022843856   2    1000035    4

DECAY 1000004  207.22284
    0.68644827   2    1000021    4
    0.16886324   2    1000024    3
    0.086704828   2    1000023    4
    0.037996635   2    1000037    3
    0.017578569   2    1000035    4
    0.002277064   2    1000022    4
    0.00013139544   2    1000025    4

DECAY 1000006  17.056468
    0.41792339   2    1000024    5
    0.1891428   2    1000025    6
    0.1528606   2    1000023    6
    0.098361985   2    1000035    6
    0.095186794   2    1000022    6
    0.042844519   2    1000037    5
    0.0034333579   2    1000005    24
    0.00017668051   3    1000022    24    5

DECAY 2000006  81.80853
    0.22815038   2    1000006    23
    0.21511324   2    2000005    24
    0.19480272   2    1000037    5
    0.13838023   2    1000035    6
    0.12674424   2    1000025    6
    0.068351282   2    1000006    25
    0.015180642   2    1000023    6
    0.0098619743   2    1000022    6
    0.0018427442   2    1000005    24
    0.0015725501   2    1000024    5

DECAY 1000024  2.570446e-05
    0.33437281   3    1000022   -1    2
    0.33201153   3    1000022   -3    4
    0.11163714   3    1000022   -11    12
    0.11163671   3    1000022   -13    14
    0.1103418   3    1000022   -15    16

DECAY 1000037  1.3990617
    0.50644258   2    1000023    24
    0.36087584   2    1000024    23
    0.13147536   2    1000024    25
    0.0011187259   2    1000022    24

DECAY 1000022 -1


DECAY 1000023  1.9625804e-07
    0.11200717   3    1000022    5   -5
    0.11047721   3    1000022    12   -12
    0.100082   3    1000022    1   -1
    0.10007838   3    1000022    3   -3
    0.077190212   3    1000022    2   -2
    0.076580467   3    1000022    4   -4
    0.063921917   3    1000024    1   -2
    0.063921917   3   -1000024   -1    2
    0.052517242   3    1000024    3   -4
    0.052517242   3   -1000024   -3    4
    0.030169286   2    1000022    22
    0.021353282   3    1000024    11   -12
    0.021353282   3   -1000024   -11    12
    0.021323287   3    1000024    13   -14
    0.021323287   3   -1000024   -13    14
    0.016800934   3    1000022    13   -13
    0.016798566   3    1000022    11   -11
    0.014647773   3    1000024    15   -16
    0.014647773   3   -1000024   -15    16
    0.012288771   3    1000022    15   -15

DECAY 1000025  3.5836984
    0.2733587   2    1000022    23
    0.26883772   2    1000024   -24
    0.26883772   2   -1000024    24
    0.11278678   2    1000023    23
    0.075985552   2    1000022    25
    0.00013736587   2    1000023    22

DECAY 1000035  1.5145877
    0.38908913   2    1000024   -24
    0.38908913   2   -1000024    24
    0.16577952   2    1000022    25
    0.049199856   2    1000023    25
    0.0046210275   2    1000022    23
    0.0011506545   2    1000023    23
    0.00023935052   2    2000013   -13
    0.00023935052   2   -2000013    13
    0.00023872807   2    2000011   -11
    0.00023872807   2   -2000011    11

DECAY 1000021  272.64085
    0.15161569   2    1000005   -5
    0.15161569   2   -1000005    5
    0.12053342   2    2000005   -5
    0.12053342   2   -2000005    5
    0.11435848   2    1000006   -6
    0.11435848   2   -1000006    6
    0.11327603   2    2000006   -6
    0.11327603   2   -2000006    6

DECAY 25  0.0036633351
    0.60426006   2   -5    5
    0.19748853   2   -24    24
    0.07215616   2    21    21
    0.069390032   2   -15    15
    0.029543052   2   -4    4
    0.023013877   2    23    23
    0.0023431858   2    22    22
    0.0013367063   2    22    23
    0.00024063671   2   -13    13
    0.00022697057   2   -3    3
    6.2754974e-07   2   -1    1
    1.52248e-07   2   -2    2
    5.4098054e-09   2   -11    11

DECAY 35  17.458794
    0.21337018   2   -5    5
    0.18542773   2   -1000024    1000037
    0.18542773   2   -1000037    1000024
    0.15562343   2    1000022    1000025
    0.057330105   2   -1000024    1000024
    0.040115943   2   -15    15
    0.03979084   2    1000025    1000035
    0.035769484   2    1000022    1000022
    0.023567721   2    1000022    1000035
    0.020855075   2   -6    6
    0.014050021   2   -1000037    1000037
    0.012013155   2    1000035    1000035
    0.0094516993   2    1000023    1000025
    0.0050826524   2    1000022    1000023
    0.0012003157   2    1000023    1000035
    0.00029844414   2    1000025    1000025
    0.00017762441   2    1000023    1000023
    0.0001523787   2    25    25
    0.00013767222   2   -13    13
    8.3310193e-05   2   -3    3
    2.4556289e-05   2    23    23
    1.833715e-05   2   -1000015    1000015
    1.5420297e-05   2   -24    24
    1.0689344e-05   2    21    21
    1.8173445e-06   2   -1000011    1000011
    1.8148707e-06   2   -1000013    1000013
    8.4448957e-07   2    22    23
    4.5065949e-07   2    22    22
    3.1874605e-07   2   -4    4
    2.3032203e-07   2   -1    1
    3.0925395e-09   2   -11    11
    1.643316e-12   2   -2    2

DECAY 36  17.291758
    0.21030256   2   -5    5
    0.12900533   2   -1000024    1000037
    0.12900533   2   -1000037    1000024
    0.12375597   2   -1000024    1000024
    0.075652845   2    1000022    1000022
    0.069315372   2    1000022    1000035
    0.06296738   2   -1000037    1000037
    0.057793924   2    1000022    1000025
    0.051871108   2    1000035    1000035
    0.039537529   2   -15    15
    0.020410149   2   -6    6
    0.011124138   2    1000022    1000023
    0.010905778   2    1000025    1000035
    0.0037066463   2    1000023    1000035
    0.0033529783   2    1000023    1000025
    0.00059912127   2    1000025    1000025
    0.00040276082   2    1000023    1000023
    0.00013568652   2   -13    13
    8.210846e-05   2   -3    3
    3.7826655e-05   2    21    21
    3.2898555e-05   2    23    25
    1.2991587e-06   2    22    23
    7.2371991e-07   2    22    22
    3.0056661e-07   2   -4    4
    2.2699959e-07   2   -1    1
    3.0479323e-09   2   -11    11
    1.5497386e-12   2   -2    2
    8.0809154e-36   2    25    25

DECAY 37  17.425974
    0.23779258   2   -5    6
    0.21605682   2    1000023    1000037
    0.18648776   2    1000024    1000025
    0.18457308   2    1000024    1000035
    0.051484048   2    1000022    1000037
    0.037858433   2   -15    16
    0.031279927   2    1000023    1000024
    0.031241417   2    1000025    1000037
    0.019780398   2    1000022    1000024
    0.0028425421   2    1000035    1000037
    0.00032072271   2   -5    4
    0.00013384325   2   -13    14
    7.5632989e-05   2   -3    4
    3.2814286e-05   2    24    25
    3.246548e-05   2   -3    6
    3.5067304e-06   2   -3    2
    2.2902894e-06   2   -5    2
    1.4839957e-06   2   -1    6
    2.0900394e-07   2   -1    2
    2.3432918e-08   2   -1    4
    3.1306075e-09   2   -11    12
    3.5376774e-12   2    24    35
    2.3481309e-12   2    24    36

DECAY 6  2.43
    1   2    5    24

DECAY 15 -1
