# SUSY Les Houches Accord 2 - MSSM spectrum + Decays
# SPheno v4.0.5be
# W. Porod, Comput. Phys. Commun. 153 (2003) 275-315, hep-ph/0301101;
# W. Porod, F.~Staub, Comput. Phys. Commun. 183 (2012) 2458
#                     arXiv:1104.1573 [hep-ph] 
# in case of problems send email to porod@physik.uni-wuerzburg.de
# Created: 07.09.2021,  16:30
Block SPINFO         # Program information
     1   SPheno      # spectrum calculator
     2   v4.0.5be    # version number
#
Block SPhenoINFO     # SPheno specific information
    1      2         # using 2-loop RGEs
    2      2         # using pole masses for boundary conditions at mZ
Block MODSEL  # Model selection
    1    0    # general MSSM
Block MINPAR  # Input parameters
    3    4.15325917E+01  # tanb at m_Z    
    4    1.00000000E+00  # Sign(mu)
Block EXTPAR  # non-universal input parameters
    0    3.82886078E+03  # scale for input parameters
    1   -2.09846073E+02  # M_1
    2    4.95182264E+02  # M_2
    3    1.55282961E+03  # M_3
   11    3.37490884E+03  # A_t
   12   -1.77126501E+03  # A_b
   13    5.68436905E+02  # A_tau
   23    1.93160717E+02  # mu
   25    4.04391429E+01  # tan(beta)
   26    1.94733905E+03  # m_A, pole mass
   31    1.00000000E+04  # M_L11
   32    1.00000000E+04  # M_L22
   33    1.00000000E+04  # M_L33
   34    1.00000000E+04  # M_E11
   35    1.00000000E+04  # M_E22
   36    1.00000000E+04  # M_E33
   41    1.00000000E+04  # M_Q11
   42    1.00000000E+04  # M_Q22
   43    3.75539217E+03  # M_Q33
   44    1.00000000E+04  # M_U11
   45    1.00000000E+04  # M_U22
   46    3.92498557E+03  # M_U33
   47    1.00000000E+04  # M_D11
   48    1.00000000E+04  # M_D22
   49    3.84496985E+03  # M_D33
Block SMINPUTS  # SM parameters
         1     1.27908970E+02  # alpha_em^-1(MZ)^MSbar
         2     1.16637870E-05  # G_mu [GeV^-2]
         3     1.18400000E-01  # alpha_s(MZ)^MSbar
         4     9.11876000E+01  # m_Z(pole)
         5     4.18000000E+00  # m_b(m_b), MSbar
         6     1.73200000E+02  # m_t(pole)
         7     1.77700000E+00  # m_tau(pole)
         8     0.00000000E+00  # m_nu_3
        11     5.10998930E-04  # m_e(pole)
        12     0.00000000E+00  # m_nu_1
        13     1.05658372E-01  # m_muon(pole)
        14     0.00000000E+00  # m_nu_2
        21     5.00000000E-03  # m_d(2 GeV), MSbar
        22     2.50000000E-03  # m_u(2 GeV), MSbar
        23     9.50000000E-02  # m_s(2 GeV), MSbar
        24     1.27000000E+00  # m_c(m_c), MSbar
Block gauge Q=  3.82886078E+03  # (SUSY scale)
   1    3.55362975E-01  # g'(Q)^DRbar
   2    6.65198874E-01  # g(Q)^DRbar
   3    1.21977796E+00  # g3(Q)^DRbar
Block Yu Q=  3.82886078E+03  # (SUSY scale)
  1  1     8.38693526E-06   # Y_u(Q)^DRbar
  2  2     4.26056311E-03   # Y_c(Q)^DRbar
  3  3     1.01320914E+00   # Y_t(Q)^DRbar
Block Yd Q=  3.82886078E+03  # (SUSY scale)
  1  1     6.81530789E-04   # Y_d(Q)^DRbar
  2  2     1.29490850E-02   # Y_s(Q)^DRbar
  3  3     6.75864982E-01   # Y_b(Q)^DRbar
Block Ye Q=  3.82886078E+03  # (SUSY scale)
  1  1     1.18932106E-04   # Y_e(Q)^DRbar
  2  2     2.45913876E-02   # Y_mu(Q)^DRbar
  3  3     4.13586684E-01   # Y_tau(Q)^DRbar
Block Au Q=  3.82886078E+03  # (SUSY scale)
  1  1     0.00000000E+00   # A_u(Q)^DRbar
  2  2     0.00000000E+00   # A_c(Q)^DRbar
  3  3     3.37490860E+03   # A_t(Q)^DRbar
Block Ad Q=  3.82886078E+03  # (SUSY scale)
  1  1     0.00000000E+00   # A_d(Q)^DRbar
  2  2     0.00000000E+00   # A_s(Q)^DRbar
  3  3    -1.77126530E+03   # A_b(Q)^DRbar
Block Ae Q=  3.82886078E+03  # (SUSY scale)
  1  1     0.00000000E+00   # A_e(Q)^DRbar
  2  2     0.00000000E+00   # A_mu(Q)^DRbar
  3  3     5.68436895E+02   # A_tau(Q)^DRbar
Block MSOFT Q=  3.82886078E+03  # soft SUSY breaking masses at Q
   1   -2.09846073E+02  # M_1
   2    4.95182264E+02  # M_2
   3    1.55282961E+03  # M_3
  21    3.78012835E+06  # M^2_(H,d)
  22    3.00375363E+05  # M^2_(H,u)
  31    1.00000000E+04  # M_(L,11)
  32    1.00000000E+04  # M_(L,22)
  33    1.00000000E+04  # M_(L,33)
  34    1.00000000E+04  # M_(E,11)
  35    1.00000000E+04  # M_(E,22)
  36    1.00000000E+04  # M_(E,33)
  41    1.00000000E+04  # M_(Q,11)
  42    1.00000000E+04  # M_(Q,22)
  43    3.75539217E+03  # M_(Q,33)
  44    1.00000000E+04  # M_(U,11)
  45    1.00000000E+04  # M_(U,22)
  46    3.92498557E+03  # M_(U,33)
  47    1.00000000E+04  # M_(D,11)
  48    1.00000000E+04  # M_(D,22)
  49    3.84496985E+03  # M_(D,33)
Block MASS  # Mass spectrum
#   PDG code      mass          particle
         6     1.73200000E+02  # m_t(pole)
        23     9.11876000E+01  # m_Z(pole)
        24     8.04299946E+01  # W+
        15     1.77700000E+00  # m_tau(pole)
        25     1.24958270E+02  # h0
        35     1.94668118E+03  # H0
        36     1.94733905E+03  # A0
        37     1.95078359E+03  # H+
   1000001     1.01208151E+04  # ~d_L
   2000001     1.00955505E+04  # ~d_R
   1000002     1.01204503E+04  # ~u_L
   2000002     1.00986842E+04  # ~u_R
   1000003     1.01208182E+04  # ~s_L
   2000003     1.00955558E+04  # ~s_R
   1000004     1.01204534E+04  # ~c_L
   2000004     1.00986849E+04  # ~c_R
   1000005     3.76345653E+03  # ~b_1
   2000005     3.87126694E+03  # ~b_2
   1000006     3.74345840E+03  # ~t_1
   2000006     3.91621152E+03  # ~t_2
   1000011     1.00213846E+04  # ~e_L-
   2000011     1.00090144E+04  # ~e_R-
   1000012     1.00206126E+04  # ~nu_eL
   1000013     1.00213991E+04  # ~mu_L-
   2000013     1.00090423E+04  # ~mu_R-
   1000014     1.00206269E+04  # ~nu_muL
   1000015     1.00169347E+04  # ~tau_1-
   2000015     1.00255194E+04  # ~tau_2-
   1000016     1.00247035E+04  # ~nu_tauL
   1000021     1.92740247E+03  # ~g
   1000022     1.83947744E+02  # ~chi_10
   1000023     2.04483584E+02  # ~chi_20
   1000025     2.45448253E+02  # ~chi_30
   1000035     5.55466680E+02  # ~chi_40
   1000024     2.06130588E+02  # ~chi_1+
   1000037     5.55578772E+02  # ~chi_2+
# Higgs mixing
Block alpha # Effective Higgs mixing angle
          -2.42376098E-02   # alpha
Block Hmix Q=  3.82886078E+03  # Higgs mixing parameters
   1    1.93160717E+02  # mu
   2    4.04391429E+01  # tan[beta](Q)
   3    2.42968741E+02  # v(Q)
   4    3.79212938E+06  # m^2_A(Q)
Block stopmix # stop mixing matrix
   1  1    -9.39244598E-01   # Re[R_st(1,1)]
   1  2     3.43248576E-01   # Re[R_st(1,2)]
   2  1    -3.43248576E-01   # Re[R_st(2,1)]
   2  2    -9.39244598E-01   # Re[R_st(2,2)]
Block sbotmix # sbottom mixing matrix
   1  1     9.99797161E-01   # Re[R_sb(1,1)]
   1  2     2.01404387E-02   # Re[R_sb(1,2)]
   2  1    -2.01404387E-02   # Re[R_sb(2,1)]
   2  2     9.99797161E-01   # Re[R_sb(2,2)]
Block staumix # stau mixing matrix
   1  1     7.36269740E-02   # Re[R_sta(1,1)]
   1  2     9.97285851E-01   # Re[R_sta(1,2)]
   2  1    -9.97285851E-01   # Re[R_sta(2,1)]
   2  2     7.36269740E-02   # Re[R_sta(2,2)]
Block Nmix # neutralino mixing matrix
   1  1     7.17136089E-01   # Re[N(1,1)]
   1  2     4.93566032E-02   # Re[N(1,2)]
   1  3     5.26417026E-01   # Re[N(1,3)]
   1  4     4.54053818E-01   # Re[N(1,4)]
   2  1    -7.46844150E-02   # Re[N(2,1)]
   2  2    -1.67315130E-01   # Re[N(2,2)]
   2  3     7.06787994E-01   # Re[N(2,3)]
   2  4    -6.83285165E-01   # Re[N(2,4)]
   3  1    -6.92847685E-01   # Re[N(3,1)]
   3  2     5.49217329E-02   # Re[N(3,2)]
   3  3     4.67705670E-01   # Re[N(3,3)]
   3  4     5.46074257E-01   # Re[N(3,4)]
   4  1     1.00076234E-02   # Re[N(4,1)]
   4  2    -9.83134363E-01   # Re[N(4,2)]
   4  3    -6.77292597E-02   # Re[N(4,3)]
   4  4     1.69586021E-01   # Re[N(4,4)]
Block Umix # chargino mixing matrix
   1  1    -9.62688550E-02   # Re[U(1,1)]
   1  2     9.95355367E-01   # Re[U(1,2)]
   2  1     9.95355367E-01   # Re[U(2,1)]
   2  2     9.62688550E-02   # Re[U(2,2)]
Block Vmix # chargino mixing matrix
   1  1    -2.41259301E-01   # Re[V(1,1)]
   1  2     9.70460689E-01   # Re[V(1,2)]
   2  1     9.70460689E-01   # Re[V(2,1)]
   2  2     2.41259301E-01   # Re[V(2,2)]
DECAY        23     2.49520000E+00   # Z
DECAY        24     2.08500000E+00   # W
DECAY   2000011     5.02448856E+01   # ~e^-_R
#    BR                NDA      ID1      ID2
     5.14415083E-01    2     1000022        11   # BR(~e^-_R -> chi^0_1 e^-)
     5.57832076E-03    2     1000023        11   # BR(~e^-_R -> chi^0_2 e^-)
     4.79906910E-01    2     1000025        11   # BR(~e^-_R -> chi^0_3 e^-)
DECAY   1000011     1.44108329E+02   # ~e^-_L
#    BR                NDA      ID1      ID2
     5.72073863E-02    2     1000022        11   # BR(~e^-_L -> chi^0_1 e^-)
     1.31315132E-02    2     1000023        11   # BR(~e^-_L -> chi^0_2 e^-)
     3.03756527E-02    2     1000025        11   # BR(~e^-_L -> chi^0_3 e^-)
     2.90843012E-01    2     1000035        11   # BR(~e^-_L -> chi^0_4 e^-)
     5.66860048E-03    2    -1000024        12   # BR(~e^-_L -> chi^-_1 nu_e)
     6.02773835E-01    2    -1000037        12   # BR(~e^-_L -> chi^-_2 nu_e)
#    BR                NDA      ID1      ID2       ID3
DECAY   2000013     5.04856392E+01   # ~mu^-_R
#    BR                NDA      ID1      ID2
     5.12623886E-01    2     1000022        13   # BR(~mu^-_R -> chi^0_1 mu^-)
     6.74222873E-03    2     1000023        13   # BR(~mu^-_R -> chi^0_2 mu^-)
     4.78140818E-01    2     1000025        13   # BR(~mu^-_R -> chi^0_3 mu^-)
     1.10028559E-04    2     1000035        13   # BR(~mu^-_R -> chi^0_4 mu^-)
     2.36106928E-03    2    -1000024        14   # BR(~mu^-_R -> chi^-_1 nu_mu)
DECAY   1000013     1.44228995E+02   # ~mu^-_L
#    BR                NDA      ID1      ID2
     5.73910988E-02    2     1000022        13   # BR(~mu^-_L -> chi^0_1 mu^-)
     1.35377768E-02    2     1000023        13   # BR(~mu^-_L -> chi^0_2 mu^-)
     3.05329169E-02    2     1000025        13   # BR(~mu^-_L -> chi^0_3 mu^-)
     2.90603923E-01    2     1000035        13   # BR(~mu^-_L -> chi^0_4 mu^-)
     5.66386617E-03    2    -1000024        14   # BR(~mu^-_L -> chi^-_1 nu_mu)
     6.02270419E-01    2    -1000037        14   # BR(~mu^-_L -> chi^-_2 nu_mu)
#    BR                NDA      ID1      ID2       ID3
DECAY   1000015     1.18729535E+02   # ~tau^-_1
#    BR                NDA      ID1      ID2
     3.04986266E-01    2     1000022        15   # BR(~tau^-_1 -> chi^0_1 tau^-)
     1.50054009E-01    2     1000023        15   # BR(~tau^-_1 -> chi^0_2 tau^-)
     2.55558743E-01    2     1000025        15   # BR(~tau^-_1 -> chi^0_3 tau^-)
     2.89191470E-01    2    -1000024        16   # BR(~tau^-_1 -> chi^-_1 nu_tau)
     1.36372108E-04    2    -1000037        16   # BR(~tau^-_1 -> chi^-_2 nu_tau)
DECAY   2000015     1.77924388E+02   # ~tau^-_2
#    BR                NDA      ID1      ID2
     9.43699949E-02    2     1000022        15   # BR(~tau^-_2 -> chi^0_1 tau^-)
     1.03417693E-01    2     1000023        15   # BR(~tau^-_2 -> chi^0_2 tau^-)
     7.34682502E-02    2     1000025        15   # BR(~tau^-_2 -> chi^0_3 tau^-)
     2.37392503E-01    2     1000035        15   # BR(~tau^-_2 -> chi^0_4 tau^-)
     1.26105449E-03    2    -1000024        16   # BR(~tau^-_2 -> chi^-_1 nu_tau)
     4.90090505E-01    2    -1000037        16   # BR(~tau^-_2 -> chi^-_2 nu_tau)
#    BR                NDA      ID1      ID2       ID3
DECAY   1000012     1.44113187E+02   # ~nu_e
#    BR                NDA      ID1      ID2
     3.40682255E-02    2     1000022        12   # BR(~nu_e -> chi^0_1 nu_e)
     4.96464126E-03    2     1000023        12   # BR(~nu_e -> chi^0_2 nu_e)
     5.52284994E-02    2     1000025        12   # BR(~nu_e -> chi^0_3 nu_e)
     2.97205595E-01    2     1000035        12   # BR(~nu_e -> chi^0_4 nu_e)
     3.55979059E-02    2     1000024        11   # BR(~nu_e -> chi^+_1 e^-)
     5.72935133E-01    2     1000037        11   # BR(~nu_e -> chi^+_2 e^-)
#    BR                NDA      ID1      ID2       ID3
DECAY   1000014     1.44233841E+02   # ~nu_mu
#    BR                NDA      ID1      ID2
     3.40397756E-02    2     1000022        14   # BR(~nu_mu -> chi^0_1 nu_mu)
     4.96049535E-03    2     1000023        14   # BR(~nu_mu -> chi^0_2 nu_mu)
     5.51823788E-02    2     1000025        14   # BR(~nu_mu -> chi^0_3 nu_mu)
     2.96957407E-01    2     1000035        14   # BR(~nu_mu -> chi^0_4 nu_mu)
     3.63955490E-02    2     1000024        13   # BR(~nu_mu -> chi^+_1 mu^-)
     5.72464394E-01    2     1000037        13   # BR(~nu_mu -> chi^+_2 mu^-)
#    BR                NDA      ID1      ID2       ID3
DECAY   1000016     1.78256319E+02   # ~nu_tau
#    BR                NDA      ID1      ID2
     2.75540730E-02    2     1000022        16   # BR(~nu_tau -> chi^0_1 nu_tau)
     4.01535751E-03    2     1000023        16   # BR(~nu_tau -> chi^0_2 nu_tau)
     4.46683304E-02    2     1000025        16   # BR(~nu_tau -> chi^0_3 nu_tau)
     2.40378277E-01    2     1000035        16   # BR(~nu_tau -> chi^0_4 nu_tau)
     2.18233285E-01    2     1000024        15   # BR(~nu_tau -> chi^+_1 tau^-)
     4.65150677E-01    2     1000037        15   # BR(~nu_tau -> chi^+_2 tau^-)
#    BR                NDA      ID1      ID2       ID3
DECAY   2000001     7.45474910E+02   # ~d_R
#    BR                NDA      ID1      ID2
     3.88577433E-03    2     1000022         1   # BR(~d_R -> chi^0_1 d)
     3.62513516E-03    2     1000025         1   # BR(~d_R -> chi^0_3 d)
     9.92446013E-01    2     1000021         1   # BR(~d_R -> ~g d)
DECAY   1000001     8.76234155E+02   # ~d_L
#    BR                NDA      ID1      ID2
     3.11882042E-04    2     1000022         1   # BR(~d_L -> chi^0_1 d)
     1.20501830E-03    2     1000023         1   # BR(~d_L -> chi^0_2 d)
     1.61433765E-03    2     1000025         1   # BR(~d_L -> chi^0_3 d)
     4.90204106E-02    2     1000035         1   # BR(~d_L -> chi^0_4 d)
     9.41542027E-04    2    -1000024         2   # BR(~d_L -> chi^-_1 u)
     1.00129815E-01    2    -1000037         2   # BR(~d_L -> chi^-_2 u)
     8.46776994E-01    2     1000021         1   # BR(~d_L -> ~g d)
DECAY   2000003     7.45542469E+02   # ~s_R
#    BR                NDA      ID1      ID2
     3.89789867E-03    2     1000022         3   # BR(~s_R -> chi^0_1 s)
     3.63465121E-03    2     1000025         3   # BR(~s_R -> chi^0_3 s)
     9.92356680E-01    2     1000021         3   # BR(~s_R -> ~g s)
DECAY   1000003     8.76271748E+02   # ~s_L
#    BR                NDA      ID1      ID2
     3.22508950E-04    2     1000022         3   # BR(~s_L -> chi^0_1 s)
     1.22414474E-03    2     1000023         3   # BR(~s_L -> chi^0_2 s)
     1.62266403E-03    2     1000025         3   # BR(~s_L -> chi^0_3 s)
     4.90184985E-02    2     1000035         3   # BR(~s_L -> chi^0_4 s)
     9.45426153E-04    2    -1000024         4   # BR(~s_L -> chi^-_1 c)
     1.00125793E-01    2    -1000037         4   # BR(~s_L -> chi^-_2 c)
     8.46740965E-01    2     1000021         3   # BR(~s_L -> ~g s)
DECAY   1000005     3.19772723E+02   # ~b_1
#    BR                NDA      ID1      ID2
     3.03379363E-02    2     1000022         5   # BR(~b_1 -> chi^0_1 b)
     5.46006230E-02    2     1000023         5   # BR(~b_1 -> chi^0_2 b)
     2.42415619E-02    2     1000025         5   # BR(~b_1 -> chi^0_3 b)
     4.83468713E-02    2     1000035         5   # BR(~b_1 -> chi^0_4 b)
     2.25184458E-01    2    -1000024         6   # BR(~b_1 -> chi^-_1 t)
     1.11684357E-01    2    -1000037         6   # BR(~b_1 -> chi^-_2 t)
     5.05604192E-01    2     1000021         5   # BR(~b_1 -> ~g b)
DECAY   2000005     2.44836190E+02   # ~b_2
#    BR                NDA      ID1      ID2
     4.34496966E-02    2     1000022         5   # BR(~b_2 -> chi^0_1 b)
     7.10699620E-02    2     1000023         5   # BR(~b_2 -> chi^0_2 b)
     3.61801612E-02    2     1000025         5   # BR(~b_2 -> chi^0_3 b)
     9.18062345E-04    2     1000035         5   # BR(~b_2 -> chi^0_4 b)
     1.40547038E-01    2    -1000024         6   # BR(~b_2 -> chi^-_1 t)
     1.85661829E-03    2    -1000037         6   # BR(~b_2 -> chi^-_2 t)
     7.05970225E-01    2     1000021         5   # BR(~b_2 -> ~g b)
DECAY   2000002     7.62639487E+02   # ~u_R
#    BR                NDA      ID1      ID2
     1.51978587E-02    2     1000022         2   # BR(~u_R -> chi^0_1 u)
     1.64805338E-04    2     1000023         2   # BR(~u_R -> chi^0_2 u)
     1.41784830E-02    2     1000025         2   # BR(~u_R -> chi^0_3 u)
     9.70455909E-01    2     1000021         2   # BR(~u_R -> ~g u)
DECAY   1000002     8.76223344E+02   # ~u_L
#    BR                NDA      ID1      ID2
     1.59272210E-03    2     1000022         2   # BR(~u_L -> chi^0_1 u)
     1.65706099E-03    2     1000023         2   # BR(~u_L -> chi^0_2 u)
     2.37958719E-04    2     1000025         2   # BR(~u_L -> chi^0_3 u)
     4.86650900E-02    2     1000035         2   # BR(~u_L -> chi^0_4 u)
     5.91335098E-03    2     1000024         1   # BR(~u_L -> chi^+_1 d)
     9.51814913E-02    2     1000037         1   # BR(~u_L -> chi^+_2 d)
     8.46752326E-01    2     1000021         2   # BR(~u_L -> ~g u)
DECAY   2000004     7.62646801E+02   # ~c_R
#    BR                NDA      ID1      ID2
     1.51986999E-02    2     1000022         4   # BR(~c_R -> chi^0_1 c)
     1.67034732E-04    2     1000023         4   # BR(~c_R -> chi^0_2 c)
     1.41797698E-02    2     1000025         4   # BR(~c_R -> chi^0_3 c)
     9.70446639E-01    2     1000021         4   # BR(~c_R -> ~g c)
DECAY   1000004     8.76260904E+02   # ~c_L
#    BR                NDA      ID1      ID2
     1.59351320E-03    2     1000022         4   # BR(~c_L -> chi^0_1 c)
     1.65893548E-03    2     1000023         4   # BR(~c_L -> chi^0_2 c)
     2.39191101E-04    2     1000025         4   # BR(~c_L -> chi^0_3 c)
     4.86631388E-02    2     1000035         4   # BR(~c_L -> chi^0_4 c)
     5.95113193E-03    2     1000024         3   # BR(~c_L -> chi^+_1 s)
     9.51777957E-02    2     1000037         3   # BR(~c_L -> chi^+_2 s)
     8.46716294E-01    2     1000021         4   # BR(~c_L -> ~g c)
DECAY   1000006     3.49761874E+02   # ~t_1
#    BR                NDA      ID1      ID2
     3.37098255E-04    2     1000022         4   # BR(~t_1 -> chi^0_1 c)
     5.72854023E-02    2     1000022         6   # BR(~t_1 -> chi^0_1 t)
     3.50369994E-04    2     1000023         4   # BR(~t_1 -> chi^0_2 c)
     9.69514024E-02    2     1000023         6   # BR(~t_1 -> chi^0_2 t)
     5.11278142E-02    2     1000025         6   # BR(~t_1 -> chi^0_3 t)
     5.49955310E-02    2     1000035         6   # BR(~t_1 -> chi^0_4 t)
     9.18831857E-02    2     1000024         5   # BR(~t_1 -> chi^+_1 b)
     9.77900970E-02    2     1000037         5   # BR(~t_1 -> chi^+_2 b)
     1.04649958E-01    2     1000021         4   # BR(~t_1 -> ~g c)
     4.33661499E-01    2     1000021         6   # BR(~t_1 -> ~g t)
#    BR                NDA      ID1      ID2       ID3
     1.09676415E-02    3     1000022        24         5   # BR(~t_1 -> chi^0_1 W^+ b)
DECAY   2000006     3.53022804E+02   # ~t_2
#    BR                NDA      ID1      ID2
     4.75109935E-02    2     1000022         6   # BR(~t_2 -> chi^0_1 t)
     1.10648422E-01    2     1000023         6   # BR(~t_2 -> chi^0_2 t)
     9.22122466E-02    2     1000025         6   # BR(~t_2 -> chi^0_3 t)
     6.58747723E-04    2     1000035         6   # BR(~t_2 -> chi^0_4 t)
     2.21883120E-01    2     1000024         5   # BR(~t_2 -> chi^+_1 b)
     1.19266041E-04    2     1000037         5   # BR(~t_2 -> chi^+_2 b)
     5.17948151E-01    2     1000021         6   # BR(~t_2 -> ~g t)
     3.74840552E-03    2     1000005        24   # BR(~t_2 -> ~b_1 W^+)
     2.36683589E-03    2     1000006        23   # BR(~t_2 -> ~t_1 Z)
     2.90381211E-03    2     1000006        25   # BR(~t_2 -> ~t_1 h^0)
DECAY   1000024     9.79341481E-06   # chi^+_1
#    BR                NDA      ID1      ID2       ID3
     3.36204930E-01    3     1000022        -1         2   # BR(chi^+_1 -> chi^0_1 d_bar u)
     3.30964390E-01    3     1000022        -3         4   # BR(chi^+_1 -> chi^0_1 s_bar c)
     1.12066597E-01    3     1000022       -11        12   # BR(chi^+_1 -> chi^0_1 e^+ nu_e)
     1.12058199E-01    3     1000022       -13        14   # BR(chi^+_1 -> chi^0_1 mu^+ nu_mu)
     1.08704868E-01    3     1000022       -15        16   # BR(chi^+_1 -> chi^0_1 tau^+ nu_tau)
DECAY   1000037     4.55259944E+00   # chi^+_2
#    BR                NDA      ID1      ID2
     1.50725345E-01    2     1000022        24   # BR(chi^+_2 -> chi^0_1 W^+)
     2.55609661E-01    2     1000023        24   # BR(chi^+_2 -> chi^0_2 W^+)
     1.28409965E-01    2     1000025        24   # BR(chi^+_2 -> chi^0_3 W^+)
     2.47678753E-01    2     1000024        23   # BR(chi^+_2 -> chi^+_1 Z)
     2.16088701E-01    2     1000024        25   # BR(chi^+_2 -> chi^+_1 h^0)
#    BR                NDA      ID1      ID2       ID3
     4.89882556E-04    3     1000022        -5         6   # BR(chi^+_2 -> chi^0_1 b_bar t)
     7.62229600E-04    3     1000023        -5         6   # BR(chi^+_2 -> chi^0_2 b_bar t)
     2.33647055E-04    3     1000025        -5         6   # BR(chi^+_2 -> chi^0_3 b_bar t)
DECAY   1000022     0.00000000E+00   # chi^0_1
DECAY   1000023     5.32834241E-06   # chi^0_2
#    BR                NDA      ID1      ID2
     7.04298843E-02    2     1000022        22   # BR(chi^0_2 -> chi^0_1 photon)
#    BR                NDA      ID1      ID2       ID3
     1.18266981E-01    3     1000022         2        -2   # BR(chi^0_2 -> chi^0_1 u u_bar)
     1.12456281E-01    3     1000022         4        -4   # BR(chi^0_2 -> chi^0_1 c c_bar)
     1.51640879E-01    3     1000022         1        -1   # BR(chi^0_2 -> chi^0_1 d d_bar)
     1.51603892E-01    3     1000022         3        -3   # BR(chi^0_2 -> chi^0_1 s s_bar)
     9.36685182E-02    3     1000022         5        -5   # BR(chi^0_2 -> chi^0_1 b b_bar)
     3.42200029E-02    3     1000022        11       -11   # BR(chi^0_2 -> chi^0_1 e^- e^+)
     3.42068211E-02    3     1000022        13       -13   # BR(chi^0_2 -> chi^0_1 mu^- mu^+)
     3.07214041E-02    3     1000022        15       -15   # BR(chi^0_2 -> chi^0_1 tau^- tau^+)
     2.02785336E-01    3     1000022        12       -12   # BR(chi^0_2 -> chi^0_1 nu_e nu_bar_e)
DECAY   1000025     5.95144192E-04   # chi^0_3
#    BR                NDA      ID1      ID2
     2.37343344E-04    2     1000022        22   # BR(chi^0_3 -> chi^0_1 photon)
     1.00232588E-02    2     1000023        22   # BR(chi^0_3 -> chi^0_2 photon)
#    BR                NDA      ID1      ID2       ID3
     3.74690936E-02    3     1000023         2        -2   # BR(chi^0_3 -> chi^0_2 u u_bar)
     3.70294946E-02    3     1000023         4        -4   # BR(chi^0_3 -> chi^0_2 c c_bar)
     4.80428758E-02    3     1000023         1        -1   # BR(chi^0_3 -> chi^0_2 d d_bar)
     4.80401663E-02    3     1000023         3        -3   # BR(chi^0_3 -> chi^0_2 s s_bar)
     4.31167785E-02    3     1000023         5        -5   # BR(chi^0_3 -> chi^0_2 b b_bar)
     1.08421853E-02    3     1000023        11       -11   # BR(chi^0_3 -> chi^0_2 e^- e^+)
     1.08412126E-02    3     1000023        13       -13   # BR(chi^0_3 -> chi^0_2 mu^- mu^+)
     1.05716333E-02    3     1000023        15       -15   # BR(chi^0_3 -> chi^0_2 tau^- tau^+)
     6.42479968E-02    3     1000023        12       -12   # BR(chi^0_3 -> chi^0_2 nu_e nu_bar_e)
     1.13532400E-01    3     1000024         1        -2   # BR(chi^0_3 -> chi^+_1 d u_bar)
     1.13532400E-01    3    -1000024        -1         2   # BR(chi^0_3 -> chi^-_1 d_bar u)
     1.13021808E-01    3     1000024         3        -4   # BR(chi^0_3 -> chi^+_1 s c_bar)
     1.13021808E-01    3    -1000024        -3         4   # BR(chi^0_3 -> chi^-_1 s_bar c)
     3.78446369E-02    3     1000024        11       -12   # BR(chi^0_3 -> chi^+_1 e^- nu_bar_e)
     3.78446369E-02    3    -1000024       -11        12   # BR(chi^0_3 -> chi^-_1 e^+ nu_e)
     3.78438246E-02    3     1000024        13       -14   # BR(chi^0_3 -> chi^+_1 mu^- nu_bar_mu)
     3.78438246E-02    3    -1000024       -13        14   # BR(chi^0_3 -> chi^-_1 mu^+ nu_mu)
     3.75176704E-02    3     1000024        15       -16   # BR(chi^0_3 -> chi^+_1 tau^- nu_bar_tau)
     3.75176704E-02    3    -1000024       -15        16   # BR(chi^0_3 -> chi^-_1 tau^+ nu_tau)
DECAY   1000035     5.26253563E+00   # chi^0_4
#    BR                NDA      ID1      ID2
     2.28356194E-01    2     1000024       -24   # BR(chi^0_4 -> chi^+_1 W^-)
     2.28356194E-01    2    -1000024        24   # BR(chi^0_4 -> chi^-_1 W^+)
     1.05343163E-01    2     1000022        23   # BR(chi^0_4 -> chi^0_1 Z)
     3.55010338E-02    2     1000023        23   # BR(chi^0_4 -> chi^0_2 Z)
     9.80573615E-02    2     1000025        23   # BR(chi^0_4 -> chi^0_3 Z)
     8.03841025E-02    2     1000022        25   # BR(chi^0_4 -> chi^0_1 h^0)
     1.51476329E-01    2     1000023        25   # BR(chi^0_4 -> chi^0_2 h^0)
     7.11676613E-02    2     1000025        25   # BR(chi^0_4 -> chi^0_3 h^0)
#    BR                NDA      ID1      ID2       ID3
     6.68252168E-04    3     1000024         5        -6   # BR(chi^0_4 -> chi^+_1 b t_bar)
     6.68252168E-04    3    -1000024        -5         6   # BR(chi^0_4 -> chi^-_1 b_bar t)
DECAY   1000021     2.15217260E-02   # ~g
#    BR                NDA      ID1      ID2
     2.52736711E-03    2     1000022        21   # BR(~g -> chi^0_1 g)
     4.80740021E-03    2     1000023        21   # BR(~g -> chi^0_2 g)
     3.52922735E-03    2     1000025        21   # BR(~g -> chi^0_3 g)
     2.62676728E-04    2     1000035        21   # BR(~g -> chi^0_4 g)
#    BR                NDA      ID1      ID2       ID3
     1.34387271E-04    3     1000022         2        -2   # BR(~g -> chi^0_1 u u_bar)
     1.34407146E-04    3     1000022         4        -4   # BR(~g -> chi^0_1 c c_bar)
     7.56008278E-02    3     1000022         6        -6   # BR(~g -> chi^0_1 t t_bar)
     4.22126566E-02    3     1000022         5        -5   # BR(~g -> chi^0_1 b b_bar)
     1.30838567E-01    3     1000023         6        -6   # BR(~g -> chi^0_2 t t_bar)
     7.25623600E-02    3     1000023         5        -5   # BR(~g -> chi^0_2 b b_bar)
     1.12381227E-04    3     1000025         2        -2   # BR(~g -> chi^0_3 u u_bar)
     1.12408530E-04    3     1000025         4        -4   # BR(~g -> chi^0_3 c c_bar)
     7.57169440E-02    3     1000025         6        -6   # BR(~g -> chi^0_3 t t_bar)
     3.30531092E-02    3     1000025         5        -5   # BR(~g -> chi^0_3 b b_bar)
     3.01284562E-04    3     1000035         2        -2   # BR(~g -> chi^0_4 u u_bar)
     3.01285823E-04    3     1000035         4        -4   # BR(~g -> chi^0_4 c c_bar)
     2.99871666E-02    3     1000035         6        -6   # BR(~g -> chi^0_4 t t_bar)
     3.03420394E-04    3     1000035         1        -1   # BR(~g -> chi^0_4 d d_bar)
     3.03422423E-04    3     1000035         3        -3   # BR(~g -> chi^0_4 s s_bar)
     2.03943113E-02    3     1000035         5        -5   # BR(~g -> chi^0_4 b b_bar)
     2.01130511E-01    3     1000024         5        -6   # BR(~g -> chi^+_1 b t_bar)
     2.01130511E-01    3    -1000024        -5         6   # BR(~g -> chi^-_1 b_bar t)
     6.04323717E-04    3     1000037         1        -2   # BR(~g -> chi^+_2 d u_bar)
     6.04323717E-04    3    -1000037        -1         2   # BR(~g -> chi^-_2 d_bar u)
     6.04327050E-04    3     1000037         3        -4   # BR(~g -> chi^+_2 s c_bar)
     6.04327050E-04    3    -1000037        -3         4   # BR(~g -> chi^-_2 s_bar c)
     5.09017287E-02    3     1000037         5        -6   # BR(~g -> chi^+_2 b t_bar)
     5.09017287E-02    3    -1000037        -5         6   # BR(~g -> chi^-_2 b_bar t)
DECAY        25     3.55817014E-03   # Gamma(h0)
     2.56002965E-03   2        22        22   # BR(h0 -> photon photon)
     1.62791392E-03   2        22        23   # BR(h0 -> photon Z)
     2.99980010E-02   2        23        23   # BR(h0 -> Z Z)
     2.48011299E-01   2       -24        24   # BR(h0 -> W W)
     7.90505655E-02   2        21        21   # BR(h0 -> gluon gluon)
     4.92655056E-09   2       -11        11   # BR(h0 -> Electron electron)
     2.19141762E-04   2       -13        13   # BR(h0 -> Muon muon)
     6.31863547E-02   2       -15        15   # BR(h0 -> Tau tau)
     1.38655599E-07   2        -2         2   # BR(h0 -> Up up)
     2.69100598E-02   2        -4         4   # BR(h0 -> Charm charm)
     5.70256444E-07   2        -1         1   # BR(h0 -> Down down)
     2.06248266E-04   2        -3         3   # BR(h0 -> Strange strange)
     5.48229673E-01   2        -5         5   # BR(h0 -> Bottom bottom)
DECAY        35     6.20205552E+01   # Gamma(HH)
     2.65632122E-08   2        22        22   # BR(HH -> photon photon)
     1.06280630E-07   2        22        23   # BR(HH -> photon Z)
     7.75024485E-07   2        23        23   # BR(HH -> Z Z)
     4.27127351E-07   2       -24        24   # BR(HH -> W W)
     1.31598726E-05   2        21        21   # BR(HH -> gluon gluon)
     7.54074087E-09   2       -11        11   # BR(HH -> Electron electron)
     3.35705022E-04   2       -13        13   # BR(HH -> Muon muon)
     9.69489850E-02   2       -15        15   # BR(HH -> Tau tau)
     4.52874074E-14   2        -2         2   # BR(HH -> Up up)
     8.78436397E-09   2        -4         4   # BR(HH -> Charm charm)
     6.28248759E-04   2        -6         6   # BR(HH -> Top top)
     5.82329507E-07   2        -1         1   # BR(HH -> Down down)
     2.10627394E-04   2        -3         3   # BR(HH -> Strange strange)
     5.36819333E-01   2        -5         5   # BR(HH -> Bottom bottom)
     1.60171549E-02   2  -1000024   1000024   # BR(HH -> Chargino1 chargino1)
     1.01459980E-01   2  -1000024   1000037   # BR(HH -> Chargino1 chargino2)
     1.01459980E-01   2  -1000037   1000024   # BR(HH -> Chargino2 chargino1)
     1.39930670E-03   2  -1000037   1000037   # BR(HH -> Chargino2 chargino2)
     6.29307840E-03   2   1000022   1000022   # BR(HH -> neutralino1 neutralino1)
     9.13182205E-03   2   1000022   1000023   # BR(HH -> neutralino1 neutralino2)
     3.63057083E-03   2   1000022   1000025   # BR(HH -> neutralino1 neutralino3)
     3.74147146E-02   2   1000022   1000035   # BR(HH -> neutralino1 neutralino4)
     2.26238922E-03   2   1000023   1000023   # BR(HH -> neutralino2 neutralino2)
     9.13463768E-03   2   1000023   1000025   # BR(HH -> neutralino2 neutralino3)
     4.66143910E-02   2   1000023   1000035   # BR(HH -> neutralino2 neutralino4)
     8.40469548E-03   2   1000025   1000025   # BR(HH -> neutralino3 neutralino3)
     2.10905650E-02   2   1000025   1000035   # BR(HH -> neutralino3 neutralino4)
     7.24542422E-04   2   1000035   1000035   # BR(HH -> neutralino4 neutralino4)
     4.17926480E-06   2        25        25   # BR(HH -> h0 h0)
DECAY        36     5.99751262E+01   # Gamma(A0)
     1.37031428E-07   2        22        22   # BR(A0 -> photon photon)
     2.19201339E-07   2        22        23   # BR(A0 -> photon Z)
     2.31929010E-05   2        21        21   # BR(A0 -> gluon gluon)
     7.39113517E-09   2       -11        11   # BR(A0 -> Electron electron)
     3.29044623E-04   2       -13        13   # BR(A0 -> Muon muon)
     9.50258617E-02   2       -15        15   # BR(A0 -> Tau tau)
     4.31694981E-14   2        -2         2   # BR(A0 -> Up up)
     8.37244615E-09   2        -4         4   # BR(A0 -> Charm charm)
     6.19885366E-04   2        -6         6   # BR(A0 -> Top top)
     5.70752074E-07   2        -1         1   # BR(A0 -> Down down)
     2.06439579E-04   2        -3         3   # BR(A0 -> Strange strange)
     5.26156604E-01   2        -5         5   # BR(A0 -> Bottom bottom)
     1.78576754E-02   2  -1000024   1000024   # BR(A0 -> Chargino1 chargino1)
     1.03759385E-01   2  -1000024   1000037   # BR(A0 -> Chargino1 chargino2)
     1.03759385E-01   2  -1000037   1000024   # BR(A0 -> Chargino2 chargino1)
     2.56502906E-03   2  -1000037   1000037   # BR(A0 -> Chargino2 chargino2)
     6.16683323E-03   2   1000022   1000022   # BR(A0 -> neutralino1 neutralino1)
     9.48685111E-03   2   1000022   1000023   # BR(A0 -> neutralino1 neutralino2)
     3.67200700E-03   2   1000022   1000025   # BR(A0 -> neutralino1 neutralino3)
     3.16936086E-02   2   1000022   1000035   # BR(A0 -> neutralino1 neutralino4)
     2.66384356E-03   2   1000023   1000023   # BR(A0 -> neutralino2 neutralino2)
     1.03073171E-02   2   1000023   1000025   # BR(A0 -> neutralino2 neutralino3)
     5.88180447E-02   2   1000023   1000035   # BR(A0 -> neutralino2 neutralino4)
     8.19893918E-03   2   1000025   1000025   # BR(A0 -> neutralino3 neutralino3)
     1.73704383E-02   2   1000025   1000035   # BR(A0 -> neutralino3 neutralino4)
     1.31759604E-03   2   1000035   1000035   # BR(A0 -> neutralino4 neutralino4)
     1.07646339E-06   2        23        25   # BR(A0 -> Z h0)
     1.35117318E-40   2        25        25   # BR(A0 -> h0 h0)
DECAY        37     6.62358546E+01   # Gamma(Hp)
     8.40145838E-09   2       -11        12   # BR(Hp -> Electron nu_e)
     3.59188585E-04   2       -13        14   # BR(Hp -> Muon nu_mu)
     1.01598860E-01   2       -15        16   # BR(Hp -> Tau nu_tau)
     5.64588187E-07   2        -1         2   # BR(Hp -> Down up)
     9.48154661E-06   2        -3         2   # BR(Hp -> Strange up)
     5.89901675E-06   2        -5         2   # BR(Hp -> Bottom up)
     2.66540297E-08   2        -1         4   # BR(Hp -> Down charm)
     2.03476315E-04   2        -3         4   # BR(Hp -> Strange charm)
     8.26073010E-04   2        -5         4   # BR(Hp -> Bottom charm)
     4.56920019E-08   2        -1         6   # BR(Hp -> Down top)
     1.29323032E-06   2        -3         6   # BR(Hp -> Strange top)
     5.55372478E-01   2        -5         6   # BR(Hp -> Bottom top)
     2.62288949E-02   2   1000022   1000024   # BR(Hp -> neutralino1 chargino1)
     6.29165915E-02   2   1000022   1000037   # BR(Hp -> neutralino1 chargino2)
     1.55425556E-03   2   1000023   1000024   # BR(Hp -> neutralino2 chargino1)
     1.06515551E-01   2   1000023   1000037   # BR(Hp -> neutralino2 chargino2)
     1.09529416E-02   2   1000024   1000025   # BR(Hp -> chargino1 neutralino3)
     3.48665689E-02   2   1000025   1000037   # BR(Hp -> neutralino3 chargino2)
     9.85866339E-02   2   1000024   1000035   # BR(Hp -> chargino1 neutralino4)
     1.86706122E-07   2   1000035   1000037   # BR(Hp -> neutralino4 chargino2)
     9.81415500E-07   2        24        25   # BR(Hp -> W h0)
     2.38541016E-11   2        24        35   # BR(Hp -> W HH)
     9.95524041E-12   2        24        36   # BR(Hp -> W A0)
DECAY         6     2.43000000E+00   # top
#    BR                NDA      ID1      ID2
     1.00000000E+00    2           5        24   # BR(t -> b W)
Block HiggsBoundsInputHiggsCouplingsFermions
# ScalarNormEffCoupSq PseudoSNormEffCoupSq NP IP1 IP2 IP2
    9.61089666E-01    0.00000000E+00        3  25   5   5  # h0-b-b eff. coupling^2, normalised to SM
    1.63536319E+03    0.00000000E+00        3  35   5   5  # H0-b-b eff. coupling^2, normalised to SM
    0.00000000E+00    1.63532428E+03        3  36   5   5  # A0-b-b eff. coupling^2, normalised to SM
#
    1.00002379E+00    0.00000000E+00        3  25   6   6  # h0-t-t eff. coupling^2, normalised to SM
    5.87705863E-04    0.00000000E+00        3  35   6   6  # H0-t-t eff. coupling^2, normalised to SM
    0.00000000E+00    6.11499513E-04        3  36   6   6  # A0-t-t eff. coupling^2, normalised to SM
#
    9.61089666E-01    0.00000000E+00        3  25  15  15  # h0-tau-tau eff. coupling^2, normalised to SM
    1.63536319E+03    0.00000000E+00        3  35  15  15  # H0-tau-tau eff. coupling^2, normalised to SM
    0.00000000E+00    1.63532428E+03        3  36  15  15  # A0-tau-tau eff. coupling^2, normalised to SM
#
Block HiggsBoundsInputHiggsCouplingsBosons
    9.99999764E-01        3  25  24  24  # h0-W-W eff. coupling^2, normalised to SM
    2.36067451E-07        3  35  24  24  # H0-W-W eff. coupling^2, normalised to SM
    0.00000000E+00        3  36  24  24  # A0-W-W eff. coupling^2, normalised to SM
#
    9.99999764E-01        3  25  23  23  # h0-Z-Z eff. coupling^2, normalised to SM
    2.36067451E-07        3  35  23  23  # H0-Z-Z eff. coupling^2, normalised to SM
    0.00000000E+00        3  36  23  23  # A0-Z-Z eff. coupling^2, normalised to SM
#
    1.26685951E+00        3  25  21  21  # h0-g-g eff. coupling^2, normalised to SM
    1.09124300E-02        3  35  21  21  # H0-g-g eff. coupling^2, normalised to SM
    1.34622288E-01        3  36  21  21  # A0-g-g eff. coupling^2, normalised to SM
#
    0.00000000E+00        3  25  25  23  # h0-h0-Z eff. coupling^2, normalised to SM
    0.00000000E+00        3  35  25  23  # H0-h0-Z eff. coupling^2, normalised to SM
    2.36067451E-07        3  36  25  23  # A0-h0-Z eff. coupling^2, normalised to SM
    0.00000000E+00        3  35  35  23  # H0-H0-Z eff. coupling^2, normalised to SM
    9.99999764E-01        3  36  35  23  # A0-H0-Z eff. coupling^2, normalised to SM
    0.00000000E+00        3  36  36  23  # A0-A0-Z eff. coupling^2, normalised to SM
#
    0.00000000E+00        4  25  21  21  23  # h0-g-g-Z eff. coupling^2, normalised to SM
    0.00000000E+00        4  35  21  21  23  # H0-g-g-Z eff. coupling^2, normalised to SM
    0.00000000E+00        4  36  21  21  23  # A0-g-g-Z eff. coupling^2, normalised to SM
Block SPhenoLowEnergy  # low energy observables
    1    3.40492252E-04   # BR(b -> s gamma)
    2    1.58759982E-06   # BR(b -> s mu+ mu-)
    3    3.52380764E-05   # BR(b -> s nu nu)
    4    2.12470865E-15   # BR(Bd -> e+ e-)
    5    9.07651214E-11   # BR(Bd -> mu+ mu-)
    6    1.89998065E-08   # BR(Bd -> tau+ tau-)
    7    7.05714432E-14   # BR(Bs -> e+ e-)
    8    3.01480741E-09   # BR(Bs -> mu+ mu-)
    9    6.39333254E-07   # BR(Bs -> tau+ tau-)
   10    9.42180625E-05   # BR(B_u -> tau nu)
   11    9.73236515E-01   # BR(B_u -> tau nu)/BR(B_u -> tau nu)_SM
   12    5.42075784E-01   # |Delta(M_Bd)| [ps^-1] 
   13    1.93569267E+01   # |Delta(M_Bs)| [ps^-1] 
   14    0.00000000E+00   # neutron EDM according to the chiral quark model
   15    0.00000000E+00   # neutron EDM according to the relativistic quark-parton model
   16    2.15784094E-03   # epsilon_K
   17    2.28166652E-15   # Delta(M_K)
   18    2.47904017E-11   # BR(K^0 -> pi^0 nu nu)
   19    8.28818733E-11   # BR(K^+ -> pi^+ nu nu)
   20    3.31737776E-16   # Delta(g-2)_electron/2
   21    1.41829674E-11   # Delta(g-2)_muon/2
   22    4.02251060E-09   # Delta(g-2)_tau/2
   23    0.00000000E+00   # electric dipole moment of the electron
   24    0.00000000E+00   # electric dipole moment of the muon
   25    0.00000000E+00   # electric dipole moment of the tau
   26    0.00000000E+00   # Br(mu -> e gamma)
   27    0.00000000E+00   # Br(tau -> e gamma)
   28    0.00000000E+00   # Br(tau -> mu gamma)
   29    0.00000000E+00   # Br(mu -> 3 e)
   30    0.00000000E+00   # Br(tau -> 3 e)
   31    0.00000000E+00   # Br(tau -> 3 mu)
   39    7.53481214E-05   # Delta(rho_parameter)
   40    0.00000000E+00   # BR(Z -> e mu)
   41    0.00000000E+00   # BR(Z -> e tau)
   42    0.00000000E+00   # BR(Z -> mu tau)
Block FWCOEF Q=  1.60000000E+02  # Wilson coefficients at scale Q
#    id        order  M        value         comment
     0305 4422   00   0    -1.88819110E-01   # C7
     0305 4422   00   2    -2.10102385E-01   # C7
     0305 4322   00   2    -2.94810690E-04   # C7'
     0305 6421   00   0    -9.52278348E-02   # C8
     0305 6421   00   2    -1.16975452E-01   # C8
     0305 6321   00   2    -3.71558698E-04   # C8'
 03051111 4133   00   0     1.62555835E+00   # C9 e+e-
 03051111 4133   00   2     1.62586684E+00   # C9 e+e-
 03051111 4233   00   2     3.74114819E-04   # C9' e+e-
 03051111 4137   00   0    -4.44825046E+00   # C10 e+e-
 03051111 4137   00   2    -4.44524719E+00   # C10 e+e-
 03051111 4237   00   2    -2.77183399E-03   # C10' e+e-
 03051313 4133   00   0     1.62555835E+00   # C9 mu+mu-
 03051313 4133   00   2     1.62586670E+00   # C9 mu+mu-
 03051313 4233   00   2     3.74113103E-04   # C9' mu+mu-
 03051313 4137   00   0    -4.44825046E+00   # C10 mu+mu-
 03051313 4137   00   2    -4.44524733E+00   # C10 mu+mu-
 03051313 4237   00   2    -2.77183282E-03   # C10' mu+mu-
 03051212 4137   00   0     1.50535012E+00   # C11 nu_1 nu_1
 03051212 4137   00   2     1.50470232E+00   # C11 nu_1 nu_1
 03051212 4237   00   2     5.99526360E-04   # C11' nu_1 nu_1
 03051414 4137   00   0     1.50535012E+00   # C11 nu_2 nu_2
 03051414 4137   00   2     1.50470232E+00   # C11 nu_2 nu_2
 03051414 4237   00   2     5.99526702E-04   # C11' nu_2 nu_2
 03051616 4137   00   0     1.50535012E+00   # C11 nu_3 nu_3
 03051616 4137   00   2     1.50470232E+00   # C11 nu_3 nu_3
 03051616 4237   00   2     5.99623026E-04   # C11' nu_3 nu_3
Block IMFWCOEF Q=  1.60000000E+02  # Im(Wilson coefficients) at scale Q
#    id        order  M        value         comment
     0305 4422   00   0     3.85813725E-07   # C7
     0305 4422   00   2     1.60596649E-05   # C7
     0305 4322   00   2    -5.52151467E-07   # C7'
     0305 6421   00   0     3.30474971E-07   # C8
     0305 6421   00   2    -2.27371521E-05   # C8
     0305 6321   00   2    -7.40391549E-07   # C8'
 03051111 4133   00   2     7.50071535E-07   # C9 e+e-
 03051111 4233   00   2     8.21267113E-06   # C9' e+e-
 03051111 4137   00   2     9.31698591E-07   # C10 e+e-
 03051111 4237   00   2    -6.08597038E-05   # C10' e+e-
 03051313 4133   00   2     7.50067260E-07   # C9 mu+mu-
 03051313 4233   00   2     8.21266872E-06   # C9' mu+mu-
 03051313 4137   00   2     9.31703223E-07   # C10 mu+mu-
 03051313 4237   00   2    -6.08597110E-05   # C10' mu+mu-
 03051212 4137   00   2    -1.69632039E-07   # C11 nu_1 nu_1
 03051212 4237   00   2     1.31634890E-05   # C11' nu_1 nu_1
 03051414 4137   00   2    -1.69631813E-07   # C11 nu_2 nu_2
 03051414 4237   00   2     1.31634890E-05   # C11' nu_2 nu_2
 03051616 4137   00   2    -1.69568853E-07   # C11 nu_3 nu_3
 03051616 4237   00   2     1.31634890E-05   # C11' nu_3 nu_3
