BLOCK DCINFO
   1   SDECAY/HDECAY
   2   1.3b /3.4

BLOCK SPINFO
   1   SOFTSUSY
   2   3.4.0

BLOCK MODSEL
   1   0

BLOCK SMINPUTS
   1    127.90897
   2    1.1663787e-05
   3    0.1184
   4    91.1876
   5    4.18
   6    173.2
   7    1.777

BLOCK MINPAR
   3    9.85

BLOCK EXTPAR
   0   -1
   1   -1822.85
   2   -2409.02
   3    3182
   11    3003.32
   12    3971.91
   13   -619.32
   23   -464.98
   26    2671.84
   31    1983
   32    1983
   33    634.22
   34    559.78
   35    559.78
   36    1201.98
   41    3635.84
   42    3635.84
   43    1215.12
   44    2472.95
   45    2472.95
   46    3460.62
   47    2590.89
   48    2590.89
   49    3387.66

BLOCK MASS
   24    80.407054
   25    124.50008
   35    2671.919
   36    2671.84
   37    2673.2862
   5    4.8187603
   1000001    3695.7439
   2000001    2659.4393
   1000002    3695.0475
   2000002    2540.3846
   1000003    3695.7439
   2000003    2659.4393
   1000004    3695.0475
   2000004    2540.3846
   1000005    1294.3205
   2000005    3444.7636
   1000006    1293.0199
   2000006    3486.5489
   1000011    2000.2157
   2000011    586.96265
   1000012    1998.3357
   1000013    2000.2157
   2000013    586.96265
   1000014    1998.3357
   1000015    662.41604
   2000015    1216.515
   1000016    657.44867
   1000021    3269.7307
   1000022   -478.07438
   1000023    482.41267
   1000025   -1805.5796
   1000035   -2425.8688
   1000024    480.29608
   1000037    2426.0314

BLOCK NMIX
   1   1   -0.025522133
   1   2    0.031840359
   1   3    0.70829834
   1   4   -0.70473277
   2   1    0.011953034
   2   2   -0.017486777
   2   3    0.70577322
   2   4    0.70812111
   3   1    0.99959922
   3   2    0.0036950928
   3   3    0.0096175932
   3   4   -0.02636762
   4   1   -0.0026737409
   4   2    0.99933315
   4   3   -0.01025315
   4   4    0.034942432

BLOCK UMIX
   1   1    0.014485826
   1   2    0.99989507
   2   1   -0.99989507
   2   2    0.014485826

BLOCK VMIX
   1   1   -0.049382191
   1   2   -0.99877996
   2   1    0.99877996
   2   2   -0.049382191

BLOCK STOPMIX
   1   1    0.99909339
   1   2   -0.042572222
   2   1    0.042572222
   2   2    0.99909339

BLOCK SBOTMIX
   1   1    0.999998
   1   2   -0.0019994989
   2   1    0.0019994989
   2   2    0.999998

BLOCK STAUMIX
   1   1    0.99997825
   1   2   -0.0065960236
   2   1    0.0065960236
   2   2    0.99997825

BLOCK ALPHA
      -0.10609065

BLOCK HMIX Q=  2052.193
   1   -471.53333
   2    9.4204608
   3    243.43475
   4    7206938

BLOCK GAUGE Q=  2052.193
   1    0.3641421
   2    0.63682582
   3    1.0165402

BLOCK AU Q=  2052.193
   1   1    0
   2   2    0
   3   3    3003.32

BLOCK AD Q=  2052.193
   1   1    0
   2   2    0
   3   3    3971.91

BLOCK AE Q=  2052.193
   1   1    0
   2   2    0
   3   3   -619.32

BLOCK YU Q=  2052.193
   1   1    0
   2   2    0
   3   3    0.84789466

BLOCK YD Q=  2052.193
   1   1    0
   2   2    0
   3   3    0.13342358

BLOCK YE Q=  2052.193
   1   1    0
   2   2    0
   3   3    0.097814888

BLOCK MSOFT Q=  2052.193
   1   -1822.85
   2   -2409.02
   3    3182
   21    6776895.6
   22   -201102.01
   31    1983
   32    1983
   33    634.22
   34    559.78
   35    559.78
   36    1201.98
   41    3635.84
   42    3635.84
   43    1215.12
   44    2472.95
   45    2472.95
   46    3460.62
   47    2590.89
   48    2590.89
   49    3387.66

BLOCK HIGGSBOUNDSINPUTHIGGSCOUPLINGSFERMIONS
       0, 88.745083,3,36,15,15

BLOCK HIGGSBOUNDSINPUTHIGGSCOUPLINGSBOSONS
       0,4,36,21,21,23

DECAY 6  1.4275165
    1   2    5    24

DECAY 1000021  119.80313
    0.17835517   2    1000006   -6
    0.17835517   2   -1000006    6
    0.17674485   2    1000005   -5
    0.17674485   2   -1000005    5
    0.041898868   2    2000002   -2
    0.041898868   2   -2000002    2
    0.041898787   2    2000004   -4
    0.041898787   2   -2000004    4
    0.030551162   2    2000001   -1
    0.030551162   2   -2000001    1
    0.030551162   2    2000003   -3
    0.030551162   2   -2000003    3

DECAY 1000006  13.506073
    0.49134077   2    1000023    6
    0.47715538   2    1000022    6
    0.031503855   2    1000024    5

DECAY 2000006  164.03816
    0.29041546   2    1000024    5
    0.18680507   2    1000005    24
    0.14553533   2    1000023    6
    0.14432274   2    1000022    6
    0.098461441   2    1000006    25
    0.096219735   2    1000006    23
    0.026803287   2    1000025    6
    0.010636511   2    1000021    6
    0.00053427203   2    1000037    5
    0.00026615426   2    1000035    6

DECAY 1000005  13.39
    0.97406085   2   -1000024    6
    0.0131963   2    1000022    5
    0.01274285   2    1000023    5

DECAY 2000005  5.3870535
    0.34376186   2    1000021    5
    0.21661067   2   -1000024    6
    0.19704544   2    1000025    5
    0.1094145   2    1000022    5
    0.10852452   2    1000023    5
    0.011950262   2    1000006   -24
    0.0064771543   2    1000005    25
    0.0061654345   2    1000005    23
    3.281483e-05   2   -1000037    6
    1.7345966e-05   2    1000035    5

DECAY 1000002  27.526489
    0.4784511   2    1000021    2
    0.33815423   2    1000037    1
    0.16912575   2    1000035    2
    0.011359725   2    1000025    2
    0.0024310994   2    1000024    1
    0.00036283752   2    1000022    2
    0.00011525978   2    1000023    2

DECAY 2000002  1.4656221
    0.99702859   2    1000025    2
    0.0024372721   2    1000022    2
    0.00053389284   2    1000023    2
    2.4053314e-07   2    1000035    2

DECAY 1000001  27.531966
    0.47974835   2    1000021    1
    0.33909719   2   -1000037    2
    0.1695648   2    1000035    1
    0.010514037   2    1000025    1
    0.00067175988   2    1000022    1
    0.00020919393   2   -1000024    2
    0.00019467131   2    1000023    1

DECAY 2000001  0.45269258
    0.99747397   2    1000025    1
    0.0020714858   2    1000022    1
    0.00045382109   2    1000023    1
    7.1940844e-07   2    1000035    1

DECAY 1000004  24.385216
    0.39474314   2    1000037    3
    0.3910187   2    1000021    4
    0.1974287   2    1000035    4
    0.0133614   2    1000025    4
    0.0028814078   2    1000024    3
    0.00043005046   2    1000022    4
    0.0001366075   2    1000023    4

DECAY 2000004  1.4618329
    0.99698915   2    1000025    4
    0.0024696507   2    1000022    4
    0.00054097393   2    1000023    4
    2.2620813e-07   2    1000035    4

DECAY 1000003  24.378193
    0.39603939   2   -1000037    4
    0.392273   2    1000021    3
    0.19803936   2    1000035    3
    0.012372759   2    1000025    3
    0.0007965875   2    1000022    3
    0.00024806361   2   -1000024    4
    0.00023083992   2    1000023    3

DECAY 2000003  0.45380755
    0.99744478   2    1000025    3
    0.0020954597   2    1000022    3
    0.00045906346   2    1000023    3
    6.9267062e-07   2    1000035    3

DECAY 1000011  0.097490161
    0.93893802   2    1000025    11
    0.030845412   2   -1000024    12
    0.021886251   2    1000022    11
    0.0083303173   2    1000023    11

DECAY 2000011  0.00027515322
    0.83065657   2    1000022    11
    0.16934038   2    1000023    11
    2.2239246e-06   3    11    24   -1000024
    4.4175388e-07   3    11    23    1000022
    3.1705245e-07   3    11   -24    1000024
    5.9370558e-08   3    11    23    1000023

DECAY 1000013  0.097490146
    0.93893801   2    1000025    13
    0.030845417   2   -1000024    14
    0.021886254   2    1000022    13
    0.0083303186   2    1000023    13

DECAY 2000013  0.00027515306
    0.83065658   2    1000022    13
    0.16934038   2    1000023    13
    2.2260338e-06   3    13    24   -1000024
    4.4149973e-07   3    13    23    1000022
    3.1718347e-07   3    13   -24    1000024
    5.9512332e-08   3    13    23    1000023

DECAY 1000015  0.028896446
    0.50985299   2    1000022    15
    0.48015381   2    1000023    15
    0.0099932037   2   -1000024    16

DECAY 2000015  0.36699657
    0.44890659   2   -1000024    16
    0.23344725   2    1000022    15
    0.22539433   2    1000023    15
    0.045662493   2    1000016   -24
    0.02371743   2    1000015    25
    0.022871902   2    1000015    23

DECAY 1000012  0.14222965
    0.61622981   2    1000025    12
    0.24541831   2    1000024    11
    0.10861806   2    1000022    12
    0.029733815   2    1000023    12

DECAY 1000014  0.14222965
    0.61622982   2    1000025    14
    0.24541831   2    1000024    13
    0.10861806   2    1000022    14
    0.029733815   2    1000023    14

DECAY 1000016  0.0314715
    0.94903029   2    1000024    15
    0.040348297   2    1000022    16
    0.010621411   2    1000023    16

DECAY 1000024  5.7061274e-11
    0.37414114   3    1000022    2   -1
    0.37414114   3    1000022    4   -3
    0.12471414   3    1000022   -11    12
    0.12471414   3    1000022   -13    14
    0.0022894358   3    1000022   -15    16

DECAY 1000037  71.344669
    0.20885473   2    1000006   -5
    0.20477302   2   -1000005    6
    0.1174796   2    1000016   -15
    0.11745083   2   -1000015    16
    0.075418958   2    1000024    23
    0.073355552   2    1000023    24
    0.073332486   2    1000024    25
    0.072687535   2    1000022    24
    0.014144983   2    1000012   -11
    0.014144983   2    1000014   -13
    0.014064177   2   -1000011    12
    0.014064177   2   -1000013    14
    0.00022298371   2    1000025    24
    5.9798219e-06   2   -2000015    16

DECAY 1000022 -1


DECAY 1000023  1.4491549e-09
    0.16005564   3    1000022   -1    1
    0.16005564   3    1000022   -3    3
    0.12329103   3    1000022   -2    2
    0.12329103   3    1000022   -4    4
    0.073550049   3    1000022   -16    16
    0.07354516   3    1000022   -12    12
    0.07354516   3    1000022   -14    14
    0.072110105   2    1000022    22
    0.036778451   3    1000022   -11    11
    0.036778451   3    1000022   -13    13
    0.011546525   3    1000024   -2    1
    0.011546525   3   -1000024   -1    2
    0.011546525   3    1000024   -4    3
    0.011546525   3   -1000024   -3    4
    0.0053493649   3    1000022   -15    15
    0.0038488476   3    1000024   -12    11
    0.0038488476   3   -1000024    12   -11
    0.0038488476   3    1000024   -14    13
    0.0038488476   3   -1000024    14   -13
    3.4215469e-05   3    1000024   -16    15
    3.4215469e-05   3   -1000024    16   -15

DECAY 1000025  26.832853
    0.14186023   2    2000011   -11
    0.14186023   2   -2000011    11
    0.14186023   2    2000013   -13
    0.14186023   2   -2000013    13
    0.052886515   2    2000015   -15
    0.052886515   2   -2000015    15
    0.043891173   2    1000024   -24
    0.043891173   2   -1000024    24
    0.038614986   2    1000022    25
    0.036476584   2    1000023    23
    0.033641215   2    1000015   -15
    0.033641215   2   -1000015    15
    0.032933298   2    1000016   -16
    0.032933298   2   -1000016    16
    0.0084883444   2    1000023    25
    0.0079021937   2    1000022    23
    0.0038281494   2    1000006   -6
    0.0038281494   2   -1000006    6
    0.0033581355   2    1000005   -5
    0.0033581355   2   -1000005    5

DECAY 1000035  71.340115
    0.10524879   2    1000005   -5
    0.10524879   2   -1000005    5
    0.10156087   2    1000006   -6
    0.10156087   2   -1000006    6
    0.073135164   2    1000024   -24
    0.073135164   2   -1000024    24
    0.058983637   2    1000016   -16
    0.058983637   2   -1000016    16
    0.058478495   2    1000015   -15
    0.058478495   2   -1000015    15
    0.058257811   2    1000023    23
    0.056435284   2    1000022    25
    0.017273345   2    1000022    23
    0.016613628   2    1000023    25
    0.0070979658   2    1000012   -12
    0.0070979658   2   -1000012    12
    0.0070979658   2    1000014   -14
    0.0070979658   2   -1000014    14
    0.006998701   2    1000011   -11
    0.006998701   2   -1000011    11
    0.006998701   2    1000013   -13
    0.006998701   2   -1000013    13
    0.0002064103   2    1000025    25
    3.9890228e-06   2    1000025    23
    3.3404478e-06   2    2000015   -15
    3.3404478e-06   2   -2000015    15
    5.6838634e-07   2    2000011   -11
    5.6838634e-07   2   -2000011    11
    5.6838634e-07   2    2000013   -13
    5.6838634e-07   2   -2000013    13

DECAY 25  0.0039003085
    0.59708149   2    5   -5
    0.20349536   2    24   -24
    0.081119517   2    21    21
    0.066485828   2   -15    15
    0.025259315   2    23    23
    0.022163617   2    4   -4
    0.0023704603   2    22    22
    0.0015319379   2    22    23
    0.00025712608   2    3   -3
    0.00023534676   2   -13    13

DECAY 35  5.3944598
    0.51360503   2    5   -5
    0.22937753   2    6   -6
    0.12118957   2    1000023    1000025
    0.088772383   2   -15    15
    0.02847883   2    1000022    1000025
    0.0077279812   2    1000024   -1000024
    0.0028084777   2    1000022    1000022
    0.0019899333   2    1000015   -2000015
    0.0019899333   2    2000015   -1000015
    0.0011729737   2    1000023    1000023
    0.00080825432   2    1000022    1000023
    0.00057234277   2    1000006   -1000006
    0.00048873635   2    25    25
    0.00031777439   2   -13    13
    0.00020986743   2    3   -3
    0.00012718519   2    24   -24
    0.00010882304   2    21    21
    8.3633163e-05   2    1000005   -1000005
    6.3430164e-05   2    23    23
    6.0586503e-05   2    1000016   -1000016
    1.2377306e-05   2    2000011   -2000011
    1.2377306e-05   2    2000013   -2000013
    1.1512985e-05   2    1000015   -1000015
    7.0622902e-06   2    2000015   -2000015
    2.3409287e-06   2    4   -4
    8.7908002e-07   2    22    22
    1.64983e-07   2    23    22

DECAY 36  5.4134639
    0.51198435   2    5   -5
    0.22967852   2    6   -6
    0.12116695   2    1000022    1000025
    0.088464662   2   -15    15
    0.027832295   2    1000023    1000025
    0.010018463   2    1000024   -1000024
    0.0049086541   2    1000022    1000022
    0.0019820356   2    1000015   -2000015
    0.0019820356   2   -1000015    2000015
    0.00087591988   2    1000023    1000023
    0.00031667216   2   -13    13
    0.00028018485   2    21    21
    0.0002093059   2    3   -3
    0.00016782909   2    1000022    1000023
    0.00012828294   2    23    25
    2.3394353e-06   2    4   -4
    1.1821365e-06   2    22    22
    3.2216577e-07   2    23    22

DECAY 37  5.3882911
    0.74955816   2    6   -5
    0.15434244   2    1000024    1000025
    0.088926055   2   -15    16
    0.0039973421   2   -2000015    1000016
    0.0012419711   2    1000024    1000023
    0.00088070236   2    4   -5
    0.00031832378   2   -13    14
    0.00027374976   2    1000006   -1000005
    0.00020917354   2    4   -3
    0.0001291941   2    24    25
    6.2269108e-05   2   -1000015    1000016
    4.1306281e-05   2    1000024    1000022
    1.0512594e-05   2    2   -3
    8.8069729e-06   2    2   -5
    1.5444848e-12   2    24    36

DECAY 5 -1


DECAY 15 -1


DECAY 23  2.4952


DECAY 24  2.085
