BLOCK SPINFO
   1   SPheno
   2   v4.0.5be

BLOCK SPHENOINFO
   1   2
   2   2

BLOCK MODSEL
   1   0

BLOCK MINPAR
   3    31.736343
   4    1

BLOCK EXTPAR
   0    1480.0799
   1    155.41992
   2    1063.4277
   3    3000
   11    4135.0123
   12    1225.9001
   13    1104.1356
   23    333.22973
   25    30.681142
   26    4833.6834
   31    167.98982
   32    167.98982
   33    558.75551
   34    1521.6923
   35    1521.6923
   36    1287.653
   41    5000
   42    5000
   43    1282.225
   44    5000
   45    5000
   46    1881.9157
   47    5000
   48    5000
   49    1091.0901

BLOCK SMINPUTS
   1    127.90897
   2    1.1663787e-05
   3    0.1184
   4    91.1876
   5    4.18
   6    173.2
   7    1.777
   8    0
   11    0.00051099893
   12    0
   13    0.10565837
   14    0
   21    0.005
   22    0.0025
   23    0.095
   24    1.27

BLOCK GAUGE Q=  1480.0799
   1    0.35536298
   2    0.66519887
   3    1.219778

BLOCK YU Q=  1480.0799
   1   1    8.3888244e-06
   2   2    0.0042615228
   3   3    1.0134374

BLOCK YD Q=  1480.0799
   1   1    0.00051719329
   2   2    0.0098266724
   3   3    0.51289367

BLOCK YE Q=  1480.0799
   1   1    9.025401e-05
   2   2    0.018661667
   3   3    0.31385854

BLOCK AU Q=  1480.0799
   1   1    0
   2   2    0
   3   3    4135.0124

BLOCK AD Q=  1480.0799
   1   1    0
   2   2    0
   3   3    1225.9001

BLOCK AE Q=  1480.0799
   1   1    0
   2   2    0
   3   3    1104.1355

BLOCK MSOFT Q=  1480.0799
   1    155.41992
   2    1063.4277
   3    3000
   21    23130463
   22   -17403.486
   31    167.98982
   32    167.98982
   33    558.75551
   34    1521.6923
   35    1521.6923
   36    1287.653
   41    5000
   42    5000
   43    1282.225
   44    5000
   45    5000
   46    1881.9157
   47    5000
   48    5000
   49    1091.0901

BLOCK MASS
   6    173.2
   23    91.1876
   24    80.429995
   15    1.777
   25    125.10558
   35    4832.0811
   36    4833.6834
   37    4833.1022
   1000001    5028.382
   2000001    5018.2334
   1000002    5027.96
   2000002    5023.1002
   1000003    5028.386
   2000003    5018.2398
   1000004    5027.9637
   2000004    5023.101
   1000005    1108.1569
   2000005    1265.1007
   1000006    1185.681
   2000006    1847.5765
   1000011    248.09557
   2000011    1513.789
   1000012    235.08491
   1000013    248.2193
   2000013    1513.8263
   1000014    235.23091
   1000015    605.35885
   2000015    1290.9106
   1000016    600.77464
   1000021    3191.1576
   1000022    150.9778
   1000023    337.85449
   1000025   -339.4838
   1000035    1105.219
   1000024    333.83664
   1000037    1105.3602

BLOCK ALPHA
      -0.031528717

BLOCK HMIX Q=  1480.0799
   1    333.22973
   2    30.681142
   3    243.98473
   4    23364496

BLOCK STOPMIX
   1   1   -0.94819674
   1   2    0.31768373
   2   1   -0.31768373
   2   2   -0.94819674

BLOCK SBOTMIX
   1   1    0.050075601
   1   2    0.99874543
   2   1   -0.99874543
   2   2    0.050075601

BLOCK STAUMIX
   1   1    0.99992019
   1   2    0.012633536
   2   1   -0.012633536
   2   2    0.99992019

BLOCK NMIX
   1   1   -0.98303949
   1   2    0.0070896913
   1   3   -0.1655227
   1   4    0.078646923
   2   1    0.17287136
   2   2    0.075886223
   2   3   -0.69269379
   2   4    0.69608339
   3   1    0.061108754
   3   2   -0.038369918
   3   3   -0.7014647
   3   4   -0.70904213
   4   1    0.0038182965
   4   2   -0.99635273
   4   3   -0.026922471
   4   4    0.080881607

BLOCK UMIX
   1   1   -0.038040364
   1   2    0.9992762
   2   1    0.9992762
   2   2    0.038040364

BLOCK VMIX
   1   1   -0.11434739
   1   2    0.99344082
   2   1    0.99344082
   2   2    0.11434739

BLOCK HIGGSBOUNDSINPUTHIGGSCOUPLINGSFERMIONS
       0, 941.3325,3,36,15,15

BLOCK HIGGSBOUNDSINPUTHIGGSCOUPLINGSBOSONS
       0,4,36,21,21,23

BLOCK SPHENOLOWENERGY
   1    0.00035806924
   2    1.5859048e-06
   3    3.521445e-05
   4    2.7452827e-15
   5    1.1727579e-10
   6    2.4572233e-08
   7    9.2106293e-14
   8    3.9347925e-09
   9    8.3535561e-07
   10    9.6514843e-05
   11    0.99696138
   12    0.54306979
   13    19.403109
   14    0
   15    0
   16    0.0021629069
   17    2.2817154e-15
   18    2.4786312e-11
   19    8.2866651e-11
   20    2.0369034e-14
   21    8.7431335e-10
   22    1.4433737e-07
   23    0
   24    0
   25    0
   26    0
   27    0
   28    0
   29    0
   30    0
   31    0
   39    0.00021614158
   40    0
   41    0
   42    0

BLOCK FWCOEF Q=  160
   305   4422   0   0   -0.18881911
   305   4422   0   2   -0.23269753
   305   4322   0   2   -0.00025934489
   305   6421   0   0   -0.095227835
   305   6421   0   2   -0.11919313
   305   6321   0   2   -0.00016497203
   3051111   4133   0   0    1.5915871
   3051111   4133   0   2    1.5925481
   3051111   4233   0   2    0.00018673584
   3051111   4137   0   0   -4.4142792
   3051111   4137   0   2   -4.4088844
   3051111   4237   0   2   -0.0014532065
   3051313   4133   0   0    1.5915871
   3051313   4133   0   2    1.5925438
   3051313   4233   0   2    0.00018673541
   3051313   4137   0   0   -4.4142792
   3051313   4137   0   2   -4.4088887
   3051313   4237   0   2   -0.0014532083
   3051212   4137   0   0    1.5053501
   3051212   4137   0   2    1.5041861
   3051212   4237   0   2    0.00031672036
   3051414   4137   0   0    1.5053501
   3051414   4137   0   2    1.5041861
   3051414   4237   0   2    0.00031672037
   3051616   4137   0   0    1.5053501
   3051616   4137   0   2    1.5041875
   3051616   4237   0   2    0.00031672247

BLOCK IMFWCOEF Q=  160
   305   4422   0   0    3.8576468e-07
   305   4422   0   2    2.7717191e-05
   305   4322   0   2   -3.6576646e-06
   305   6421   0   0    3.3043296e-07
   305   6421   0   2   -2.1879661e-06
   305   6321   0   2   -1.6219347e-06
   3051111   4133   0   2   -1.9076517e-06
   3051111   4233   0   2    3.5267367e-06
   3051111   4137   0   2    1.3571503e-05
   3051111   4237   0   2   -2.7448243e-05
   3051313   4133   0   2   -1.9075686e-06
   3051313   4233   0   2    3.5267298e-06
   3051313   4137   0   2    1.357153e-05
   3051313   4237   0   2   -2.7448276e-05
   3051212   4137   0   2   -2.7299377e-06
   3051212   4237   0   2    5.9822493e-06
   3051414   4137   0   2   -2.7299726e-06
   3051414   4237   0   2    5.9822494e-06
   3051616   4137   0   2   -2.7049111e-06
   3051616   4237   0   2    5.9822651e-06

DECAY 23  2.4952


DECAY 24  2.085


DECAY 1000011  0.11620609
    0.99999446   2    1000022    11

DECAY 2000011  7.4357814
    0.96895138   2    1000022    11
    0.027600007   2    1000023    11
    0.0034453332   2    1000025    11

DECAY 1000013  0.11642139
    0.99999452   2    1000022    13

DECAY 2000013  7.4551832
    0.96649205   2    1000022    13
    0.028138724   2    1000023    13
    0.0040609211   2    1000025    13
    0.0012715034   2   -1000024    14

DECAY 1000015  1.2444508
    0.5317829   2    1000022    15
    0.24459547   2    1000023    15
    0.21960812   2    1000025    15
    0.0040135017   2   -1000024    16

DECAY 2000015  10.894123
    0.56506688   2    1000022    15
    0.20146323   2   -1000024    16
    0.11227044   2    1000023    15
    0.10133549   2    1000025    15
    0.010073944   2    1000016   -24
    0.0049376551   2    1000015    23
    0.0047475414   2    1000015    25

DECAY 1000012  0.10119077
    1   2    1000022    12

DECAY 1000014  0.10143011
    1   2    1000022    14

DECAY 1000016  1.2574314
    0.52287443   2    1000022    16
    0.47194506   2    1000024    15
    0.0049139751   2    1000025    16
    0.00026653569   2    1000023    16

DECAY 2000001  143.31748
    0.98049128   2    1000021    1
    0.018856851   2    1000022    1
    0.0005790023   2    1000023    1

DECAY 1000001  202.43142
    0.69938628   2    1000021    1
    0.19775798   2   -1000037    2
    0.098438042   2    1000035    1
    0.0036207256   2    1000022    1
    0.00031364323   2   -1000024    2
    0.00026286671   2    1000025    1
    0.00022046854   2    1000023    1

DECAY 2000003  143.33719
    0.980361   2    1000021    3
    0.018856114   2    1000022    3
    0.00061081601   2    1000023    3
    0.00010511537   2    1000025    3

DECAY 1000003  202.44324
    0.69934749   2    1000021    3
    0.19774673   2   -1000037    4
    0.098432423   2    1000035    3
    0.0036218181   2    1000022    3
    0.00032239991   2   -1000024    4
    0.00028605357   2    1000025    3
    0.00024308143   2    1000023    3

DECAY 1000005  9.8628321
    0.4529788   2   -1000024    6
    0.23552471   2    1000025    5
    0.23319216   2    1000023    5
    0.078304324   2    1000022    5

DECAY 2000005  27.333095
    0.77127995   2   -1000024    6
    0.1040623   2    1000025    5
    0.10080914   2    1000023    5
    0.01138152   2    1000035    5
    0.011149049   2    1000022    5
    0.00089063755   2    1000005    25
    0.00042740096   2    1000005    23

DECAY 2000002  152.22242
    0.92645997   2    1000021    2
    0.071084036   2    1000022    2
    0.0021823427   2    1000023    2
    0.00027267516   2    1000025    2

DECAY 1000002  202.4297
    0.69917518   2    1000021    2
    0.19543699   2    1000037    1
    0.098160622   2    1000035    2
    0.0030787028   2    1000022    2
    0.0028339078   2    1000024    1
    0.0012327498   2    1000023    2

DECAY 2000004  152.22603
    0.92643811   2    1000021    4
    0.071082419   2    1000022    4
    0.0021880237   2    1000023    4
    0.00027860455   2    1000025    4

DECAY 1000004  202.44143
    0.6991363   2    1000021    4
    0.19542591   2    1000037    3
    0.098155078   2    1000035    4
    0.0030785821   2    1000022    4
    0.0028808352   2    1000024    3
    0.0012369822   2    1000023    4

DECAY 1000006  26.399345
    0.37857035   2    1000025    6
    0.37693507   2    1000023    6
    0.22577149   2    1000024    5
    0.0088202949   2    1000022    6
    0.0067522119   2    1000037    5
    0.0021120097   2    1000022    4
    0.00074301314   2    1000023    4
    0.0002955606   3    1000022    24    5

DECAY 2000006  208.15444
    0.30180996   2    2000005    24
    0.18465243   2    1000006    23
    0.16537148   2    1000006    25
    0.16264065   2    1000024    5
    0.0839509   2    1000025    6
    0.07920842   2    1000023    6
    0.019852121   2    1000022    6
    0.0013435345   2    1000005    24
    0.00073194441   2    1000037    5
    0.00043856829   2    1000035    6

DECAY 1000024  0.18354644
    0.94060913   2    1000022    24
    0.028147588   2    1000014   -13
    0.02660128   2    1000012   -11
    0.0023220262   2   -1000011    12
    0.0023163143   2   -1000013    14

DECAY 1000037  32.235425
    0.13590872   2   -1000011    12
    0.13589434   2   -1000013    14
    0.13578559   2    1000012   -11
    0.1357697   2    1000014   -13
    0.077669277   2    1000025    24
    0.076691168   2    1000023    24
    0.07605493   2    1000024    23
    0.073961797   2    1000016   -15
    0.073818067   2   -1000015    16
    0.073787861   2    1000024    25
    0.0015528189   3    1000023   -5    6
    0.0014278114   3    1000025   -5    6
    0.0013463351   3    1000024    6   -6
    0.00019881881   2    1000022    24
    0.00010747045   3    1000024    5   -5

DECAY 1000022 -1


DECAY 1000023  0.16886517
    0.71691917   2    1000022    25
    0.17466209   2    1000022    23
    0.027112957   2    1000013   -13
    0.027112957   2   -1000013    13
    0.02645862   2    1000011   -11
    0.02645862   2   -1000011    11
    0.00031763326   2    1000012   -12
    0.00031763326   2   -1000012    12
    0.00031689286   2    1000014   -14
    0.00031689286   2   -1000014    14

DECAY 1000025  0.36844316
    0.6714851   2    1000022    23
    0.31667964   2    1000022    25
    0.0027703023   2    1000012   -12
    0.0027703023   2   -1000012    12
    0.0027639635   2    1000014   -14
    0.0027639635   2   -1000014    14
    0.00035438143   2    1000013   -13
    0.00035438143   2   -1000013    13

DECAY 1000035  33.428309
    0.074098322   2    1000024   -24
    0.074098322   2   -1000024    24
    0.06611429   2    1000012   -12
    0.06611429   2   -1000012    12
    0.066106505   2    1000014   -14
    0.066106505   2   -1000014    14
    0.064870039   2    1000011   -11
    0.064870039   2   -1000011    11
    0.064863218   2    1000013   -13
    0.064863218   2   -1000013    13
    0.060198623   2    1000025    23
    0.056517263   2    1000023    25
    0.050739757   2    1000025    25
    0.035999609   2    1000016   -16
    0.035999609   2   -1000016    16
    0.035232444   2    1000015   -15
    0.035232444   2   -1000015    15
    0.014726831   2    1000023    23
    0.0010886418   3    1000024    5   -6
    0.0010886418   3   -1000024   -5    6
    0.00041191299   3    1000023    6   -6
    0.00038591276   3    1000025    6   -6
    0.0001456751   2    1000022    25

DECAY 1000021  281.26872
    0.13403649   2    1000006   -6
    0.13403649   2   -1000006    6
    0.12982046   2    1000005   -5
    0.12982046   2   -1000005    5
    0.11931887   2    2000005   -5
    0.11931887   2   -2000005    5
    0.066638925   2    2000006   -6
    0.066638925   2   -2000006    6
    0.04881342   2    1000006   -4
    0.04881342   2   -1000006    4
    0.0010209736   3    1000037    5   -6
    0.0010209736   3   -1000037   -5    6
    0.00056478297   3    1000035    6   -6

DECAY 25  0.0038823132
    0.57182538   2   -5    5
    0.23085296   2   -24    24
    0.070928778   2    21    21
    0.065794509   2   -15    15
    0.02831749   2   -4    4
    0.028004182   2    23    23
    0.0023294883   2    22    22
    0.0015043358   2    22    23
    0.00022750369   2   -13    13
    0.00021462679   2   -3    3
    5.9342117e-07   2   -1    1
    1.4592649e-07   2   -2    2
    5.1145362e-09   2   -11    11

DECAY 35  113.30146
    0.34999982   2   -5    5
    0.15420179   2   -1000024    1000037
    0.15420179   2   -1000037    1000024
    0.093955664   2   -15    15
    0.084375885   2    1000025    1000035
    0.067900698   2    1000023    1000035
    0.024280898   2    1000022    1000025
    0.021793409   2    1000022    1000023
    0.0079681273   2   -2000005    1000005
    0.0079681273   2   -1000005    2000005
    0.0046818377   2   -2000006    1000006
    0.0046818377   2   -1000006    2000006
    0.004660252   2   -1000024    1000024
    0.0034039227   2    1000022    1000035
    0.0026828898   2   -1000006    1000006
    0.0026019395   2    1000022    1000022
    0.0022366695   2   -2000006    2000006
    0.0020861974   2   -2000015    1000015
    0.0020861974   2   -1000015    2000015
    0.0015203423   2   -6    6
    0.00090819552   2    1000025    1000025
    0.00057829667   2    1000023    1000025
    0.00034395258   2   -13    13
    0.00032983049   2   -1000037    1000037
    0.00016676742   2    1000035    1000035
    0.00016404983   2   -3    3
    9.2957245e-05   2   -1000005    1000005
    8.9091636e-05   2   -2000005    2000005
    2.7948758e-05   2    1000023    1000023
    4.4268741e-06   2    25    25
    2.4383673e-06   2    21    21
    1.2609023e-06   2   -2000015    2000015
    1.2363951e-06   2   -1000015    1000015
    4.5356487e-07   2   -1    1
    1.0725588e-07   2    23    23
    4.8602444e-08   2   -1000011    1000011
    4.8353934e-08   2   -1000013    1000013
    2.6080035e-08   2    22    23
    2.4483988e-08   2   -2000011    2000011
    2.4342806e-08   2   -2000013    2000013
    2.0885406e-08   2   -4    4
    1.838166e-08   2   -24    24
    9.7988283e-09   2    22    22
    7.7237642e-09   2   -11    11
    6.4691445e-10   2   -2000013    1000013
    6.4691445e-10   2   -1000013    2000013
    1.076611e-13   2   -2    2
    1.5131411e-14   2   -2000011    1000011
    1.5131411e-14   2   -1000011    2000011

DECAY 36  110.15097
    0.33734641   2   -5    5
    0.15838699   2   -1000024    1000037
    0.15838699   2   -1000037    1000024
    0.090563057   2   -15    15
    0.084601491   2    1000023    1000035
    0.071683809   2    1000025    1000035
    0.025679853   2    1000022    1000023
    0.021661855   2    1000022    1000025
    0.0082876718   2   -2000005    1000005
    0.0082876718   2   -1000005    2000005
    0.0074131253   2   -2000006    1000006
    0.0074131253   2   -1000006    2000006
    0.0050990339   2   -1000024    1000024
    0.0037124522   2    1000022    1000035
    0.0028555681   2    1000022    1000022
    0.0021465535   2   -2000015    1000015
    0.0021465535   2   -1000015    2000015
    0.0014007157   2   -6    6
    0.0008387703   2    1000025    1000025
    0.00063576496   2    1000023    1000025
    0.00061441393   2   -1000037    1000037
    0.00033153707   2   -13    13
    0.00030986399   2    1000035    1000035
    0.00015811555   2   -3    3
    3.3269515e-05   2    1000023    1000023
    4.5027368e-06   2    21    21
    4.3715461e-07   2   -1    1
    2.9234429e-07   2    23    25
    4.9260233e-08   2    22    23
    3.483722e-08   2    22    22
    1.9454456e-08   2   -4    4
    7.4449427e-09   2   -11    11
    6.6295786e-10   2   -2000013    1000013
    6.6295786e-10   2   -1000013    2000013
    1.053711e-13   2    23    35
    1.0028898e-13   2   -2    2
    1.5506653e-14   2   -2000011    1000011
    1.5506653e-14   2   -1000011    2000011
    1.8889097e-37   2    25    25

DECAY 37  111.18707
    0.35201931   2   -5    6
    0.15786008   2    1000024    1000035
    0.15631121   2    1000025    1000037
    0.15531788   2    1000023    1000037
    0.087554982   2   -15    16
    0.049056232   2    1000022    1000024
    0.014436142   2   -1000005    1000006
    0.0080297361   2   -2000005    2000006
    0.0072025699   2    1000022    1000037
    0.0042548078   2   -2000015    1000016
    0.0030321512   2    1000023    1000024
    0.0024700636   2   -1000005    2000006
    0.0010647221   2   -2000005    1000006
    0.00052031187   2   -5    4
    0.00039050708   2    1000024    1000025
    0.00030953799   2   -13    14
    0.00015470101   2   -3    4
    7.2828298e-06   2   -3    2
    3.7155627e-06   2   -5    2
    2.5422032e-06   2   -3    6
    4.2928978e-07   2   -1    2
    2.8958449e-07   2    24    25
    2.6377613e-07   2   -1000015    1000016
    1.9458411e-07   2   -1000011    1000012
    1.9422885e-07   2   -1000013    1000014
    1.0599449e-07   2   -1    6
    2.1117868e-08   2   -1    4
    7.2401257e-09   2   -11    12
    5.447999e-09   2    1000035    1000037
    1.3290421e-09   2   -2000013    1000014
    3.1086744e-14   2   -2000011    1000012
    1.3597801e-14   2    24    35

DECAY 6  2.43
    1   2    5    24

DECAY 15 -1
