BLOCK SPINFO
   1   SPheno
   2   v4.0.5be

BLOCK SPHENOINFO
   1   2
   2   2

BLOCK MODSEL
   1   0

BLOCK MINPAR
   3    28.022292
   4   -1

BLOCK EXTPAR
   0    3134.0623
   1   -551.53139
   2   -3613.9194
   3    4420.5098
   11   -5892.0558
   12    1303.0714
   13    7854.8643
   23   -2454.0289
   25    27.049518
   26    4661.7124
   31    4303.4991
   32    4303.4991
   33    3550.9675
   34    3347.1123
   35    3347.1123
   36    1119.6519
   41    3968.6984
   42    3968.6984
   43    4765.0663
   44    3882.5017
   45    3882.5017
   46    1892.954
   47    926.47817
   48    926.47817
   49    3754.004

BLOCK SMINPUTS
   1    127.90897
   2    1.1663787e-05
   3    0.1184
   4    91.1876
   5    4.18
   6    173.2
   7    1.777
   8    0
   11    0.00051099893
   12    0
   13    0.10565837
   14    0
   21    0.005
   22    0.0025
   23    0.095
   24    1.27

BLOCK GAUGE Q=  3134.0623
   1    0.35536298
   2    0.66519887
   3    1.219778

BLOCK YU Q=  3134.0623
   1   1    8.3900997e-06
   2   2    0.0042621707
   3   3    1.0135914

BLOCK YD Q=  3134.0623
   1   1    0.00045604416
   2   2    0.008664839
   3   3    0.4522529

BLOCK YE Q=  3134.0623
   1   1    7.9583041e-05
   2   2    0.016455249
   3   3    0.27675021

BLOCK AU Q=  3134.0623
   1   1    0
   2   2    0
   3   3   -5892.0557

BLOCK AD Q=  3134.0623
   1   1    0
   2   2    0
   3   3    1303.0713

BLOCK AE Q=  3134.0623
   1   1    0
   2   2    0
   3   3    7854.8643

BLOCK MSOFT Q=  3134.0623
   1   -551.53139
   2   -3613.9194
   3    4420.5098
   21    15644073
   22   -6090195.4
   31    4303.4991
   32    4303.4991
   33    3550.9675
   34    3347.1123
   35    3347.1123
   36    1119.6519
   41    3968.6984
   42    3968.6984
   43    4765.0663
   44    3882.5017
   45    3882.5017
   46    1892.954
   47    926.47817
   48    926.47817
   49    3754.004

BLOCK MASS
   6    173.2
   23    91.1876
   24    80.429995
   15    1.777
   25    124.54249
   35    4661.5146
   36    4661.7124
   37    4662.699
   1000001    4102.1011
   2000001    1062.1444
   1000002    4101.322
   2000002    3993.3543
   1000003    4102.0989
   2000003    1062.1458
   1000004    4101.3198
   2000004    3993.354
   1000005    3861.7008
   2000005    4835.8367
   1000006    2028.891
   2000006    4841.2392
   1000011    4321.4986
   2000011    3352.0926
   1000012    4320.3608
   1000013    4321.4912
   2000013    3352.0829
   1000014    4320.3527
   1000015    1143.4045
   2000015    3571.0849
   1000016    3569.5913
   1000021    4533.8321
   1000022   -547.47551
   1000023   -2463.5
   1000025    2465.8481
   1000035   -3667.3983
   1000024    2463.5271
   1000037    3667.4522

BLOCK ALPHA
      -0.03571763

BLOCK HMIX Q=  3134.0623
   1   -2454.0289
   2    27.049518
   3    243.21839
   4    21731562

BLOCK STOPMIX
   1   1    0.042520174
   1   2    0.99909561
   2   1   -0.99909561
   2   2    0.042520174

BLOCK SBOTMIX
   1   1   -0.018711852
   1   2    0.99982492
   2   1   -0.99982492
   2   2   -0.018711852

BLOCK STAUMIX
   1   1   -0.011583043
   1   2    0.99993291
   2   1   -0.99993291
   2   2   -0.011583043

BLOCK NMIX
   1   1    0.99979802
   1   2   -0.00012529213
   1   3   -0.019481141
   1   4    0.0049379551
   2   1    0.017258638
   2   2    0.046540008
   2   3    0.70648938
   2   4   -0.70598083
   3   1    0.010281273
   3   2   -0.0085613318
   3   3    0.70694539
   3   4    0.70714158
   4   1   -0.00059059054
   4   2    0.99887973
   4   3   -0.026860159
   4   4    0.038954686

BLOCK UMIX
   1   1   -0.037380125
   1   2   -0.99930112
   2   1   -0.99930112
   2   2    0.037380125

BLOCK VMIX
   1   1    0.054451711
   1   2    0.99851641
   2   1    0.99851641
   2   2   -0.054451711

BLOCK HIGGSBOUNDSINPUTHIGGSCOUPLINGSFERMIONS
       0, 731.67641,3,36,15,15

BLOCK HIGGSBOUNDSINPUTHIGGSCOUPLINGSBOSONS
       0,4,36,21,21,23

BLOCK SPHENOLOWENERGY
   1    0.0003301327
   2    1.5892727e-06
   3    3.5256556e-05
   4    2.5057785e-15
   5    1.0704452e-10
   6    2.2438804e-08
   7    8.4722636e-14
   8    3.6193653e-09
   9    7.6871932e-07
   10    9.6523165e-05
   11    0.99704734
   12    0.54224052
   13    19.372791
   14    0
   15    0
   16    0.0021586202
   17    2.2816717e-15
   18    2.4805814e-11
   19    8.2911527e-11
   20    5.3683927e-16
   21    2.2951272e-11
   22    8.0111043e-09
   23    0
   24    0
   25    0
   26    0
   27    0
   28    0
   29    0
   30    0
   31    0
   39    5.4526536e-05
   40    0
   41    0
   42    0

BLOCK FWCOEF Q=  160
   305   4422   0   0   -0.18881911
   305   4422   0   2   -0.20009756
   305   4322   0   2   -0.00025300684
   305   6421   0   0   -0.095227835
   305   6421   0   2   -0.10394484
   305   6321   0   2   -0.00019329915
   3051111   4133   0   0    1.6180416
   3051111   4133   0   2    1.6181506
   3051111   4233   0   2    9.2134097e-05
   3051111   4137   0   0   -4.4407337
   3051111   4137   0   2   -4.4394794
   3051111   4237   0   2   -0.00069110831
   3051313   4133   0   0    1.6180416
   3051313   4133   0   2    1.6181503
   3051313   4233   0   2    9.2134053e-05
   3051313   4137   0   0   -4.4407337
   3051313   4137   0   2   -4.4394797
   3051313   4237   0   2   -0.00069110837
   3051212   4137   0   0    1.5053501
   3051212   4137   0   2    1.5050789
   3051212   4237   0   2    0.00014973624
   3051414   4137   0   0    1.5053501
   3051414   4137   0   2    1.5050789
   3051414   4237   0   2    0.00014973625
   3051616   4137   0   0    1.5053501
   3051616   4137   0   2    1.5050789
   3051616   4237   0   2    0.0001497372

BLOCK IMFWCOEF Q=  160
   305   4422   0   0    3.8573789e-07
   305   4422   0   2    1.2596243e-06
   305   4322   0   2   -3.4366764e-06
   305   6421   0   0    3.3041001e-07
   305   6421   0   2    5.5465357e-06
   305   6321   0   2   -1.9844388e-06
   3051111   4133   0   2   -1.4202026e-06
   3051111   4233   0   2    1.8177366e-06
   3051111   4137   0   2    1.1115171e-05
   3051111   4237   0   2   -1.3634493e-05
   3051313   4133   0   2   -1.4202007e-06
   3051313   4233   0   2    1.8177361e-06
   3051313   4137   0   2    1.1115174e-05
   3051313   4237   0   2   -1.3634494e-05
   3051212   4137   0   2   -2.3977582e-06
   3051212   4237   0   2    2.9540604e-06
   3051414   4137   0   2   -2.3977583e-06
   3051414   4237   0   2    2.9540604e-06
   3051616   4137   0   2   -2.3982455e-06
   3051616   4237   0   2    2.9540614e-06

DECAY 23  2.4952


DECAY 24  2.085


DECAY 2000011  15.951455
    0.99990997   2    1000022    11

DECAY 1000011  9.7611123
    0.53795614   2    1000022    11
    0.30466326   2   -1000037    12
    0.15213004   2    1000035    11
    0.0027608157   2    1000023    11
    0.0024813799   2   -1000024    12

DECAY 2000013  15.95903
    0.99943256   2    1000022    13
    0.00023896868   2   -1000024    14
    0.00018591979   2    1000023    13
    0.00014254719   2    1000025    13

DECAY 1000013  9.7730939
    0.53729651   2    1000022    13
    0.30428391   2   -1000037    14
    0.15194071   2    1000035    13
    0.0032992609   2    1000023    13
    0.0024783255   2   -1000024    14
    0.00054979083   2    1000025    13
    0.00015150065   2    2000013    25

DECAY 1000015  3.4119997
    1   2    1000022    15

DECAY 2000015  8.7127742
    0.49069258   2    1000022    15
    0.17198168   2    1000015    23
    0.16375066   2    1000015    25
    0.087016556   2    1000023    15
    0.085507702   2    1000025    15
    0.001050821   2   -1000024    16

DECAY 1000012  9.7624067
    0.53823876   2    1000022    12
    0.30324053   2    1000037    11
    0.15184948   2    1000035    12
    0.0052607141   2    1000024    11
    0.0012356176   2    1000023    12
    0.0001748992   2    1000025    12

DECAY 1000014  9.7728872
    0.53766048   2    1000022    14
    0.30290924   2    1000037    13
    0.15168341   2    1000035    14
    0.0063378743   2    1000024    13
    0.0012342857   2    1000023    14
    0.00017471068   2    1000025    14

DECAY 1000016  8.7917644
    0.48633921   2    1000022    16
    0.34059535   2    1000015    24
    0.17228627   2    1000024    15
    0.00068268239   2    1000023    16

DECAY 2000001  0.31962326
    1   2    1000022    1

DECAY 1000001  2.7665155
    0.52498023   2   -1000037    2
    0.26238535   2    1000035    1
    0.19984806   2    1000022    1
    0.0074549913   2   -1000024    2
    0.0050416017   2    1000023    1
    0.00028873802   2    1000025    1

DECAY 2000003  0.31962473
    1   2    1000022    3

DECAY 1000003  2.7706029
    0.52419927   2   -1000037    4
    0.26199587   2    1000035    3
    0.19955394   2    1000022    3
    0.0076603986   2   -1000024    4
    0.0054844138   2    1000023    3
    0.00073779324   2    1000025    3
    0.00036831232   2    2000003    25

DECAY 1000005  13.03721
    0.41649077   2   -1000024    6
    0.2120393   2    1000023    5
    0.2111522   2    1000025    5
    0.15959712   2    1000022    5
    0.00071965099   2    1000006   -24

DECAY 2000005  161.60478
    0.4807103   2    1000006   -24
    0.33222849   2   -1000024    6
    0.048150336   2   -1000037    6
    0.034597468   2    1000021    5
    0.033395305   2    1000023    5
    0.033352918   2    1000025    5
    0.023752783   2    1000035    5
    0.0058266355   2    1000005    25
    0.0040756265   2    1000022    5
    0.0039101364   2    1000005    23

DECAY 2000002  8.5836751
    0.99983921   2    1000022    2
    0.00011873826   2    1000023    2

DECAY 1000002  2.7821315
    0.51953904   2    1000037    1
    0.25996475   2    1000035    2
    0.19812734   2    1000022    2
    0.015723292   2    1000024    1
    0.0065257396   2    1000023    2
    0.00011983816   2    1000025    2

DECAY 2000004  8.5847767
    0.99971061   2    1000022    4
    0.00015078561   2    1000023    4

DECAY 1000004  2.785204
    0.51896147   2    1000037    3
    0.25967354   2    1000035    4
    0.19790861   2    1000022    4
    0.016600045   2    1000024    3
    0.0066279855   2    1000023    4
    0.00022835003   2    1000025    4

DECAY 1000006  3.8289324
    0.99978893   2    1000022    6
    0.00012727868   3    1000022    24    5

DECAY 2000006  180.38411
    0.32197944   2    1000006    25
    0.2159611   2    1000006    23
    0.15101912   2    1000023    6
    0.15054898   2    1000025    6
    0.061595401   2    1000024    5
    0.042429373   2    1000037    5
    0.024947166   2    1000021    6
    0.020606998   2    1000035    6
    0.0071243731   2    1000005    24
    0.0037880428   2    1000022    6

DECAY 1000024  10.749791
    0.72152993   2    1000006   -5
    0.16419012   2    1000022    24
    0.10753431   2   -1000015    16
    0.0064028292   3    1000022   -5    6
    0.00033982845   2   -2000003    4

DECAY 1000037  26.399187
    0.25583571   2    1000024    25
    0.24241927   2    1000023    24
    0.22682364   2    1000024    23
    0.22679758   2    1000025    24
    0.013881309   2    1000006   -5
    0.012553587   3    1000024    6   -6
    0.0094379165   3    1000025   -5    6
    0.0085898814   3    1000023   -5    6
    0.0016894929   2    1000016   -15
    0.0016427475   2   -2000015    16
    0.00018552001   2    1000022    24

DECAY 1000022 -1


DECAY 1000023  10.400145
    0.36305037   2    1000006   -6
    0.36305037   2   -1000006    6
    0.11242156   2    1000022    25
    0.055677219   2    1000015   -15
    0.055677219   2   -1000015    15
    0.0444611   2    1000022    23
    0.0051362269   3    1000022    6   -6
    0.00021473738   2    2000003   -3
    0.00021473738   2   -2000003    3

DECAY 1000025  11.1148
    0.34093218   2    1000006   -6
    0.34093218   2   -1000006    6
    0.11776667   2    1000022    23
    0.091481355   2    1000022    25
    0.052050211   2    1000015   -15
    0.052050211   2   -1000015    15
    0.0043891092   3    1000022    6   -6
    0.00017782157   2    2000003   -3
    0.00017782157   2   -2000003    3

DECAY 1000035  31.482628
    0.20752078   2    1000023    25
    0.1914374   2    1000025    23
    0.1878442   2    1000024   -24
    0.1878442   2   -1000024    24
    0.18074839   2    1000025    25
    0.0073059223   3    1000024    5   -6
    0.0073059223   3   -1000024   -5    6
    0.0064545778   2    1000023    23
    0.0059507028   2    1000006   -6
    0.0059507028   2   -1000006    6
    0.0045277129   3    1000023    6   -6
    0.0040011255   3    1000025    6   -6
    0.00070889897   2    1000016   -16
    0.00070889897   2   -1000016    16
    0.00068745368   2    2000015   -15
    0.00068745368   2   -2000015    15

DECAY 1000021  366.25067
    0.16365153   2    2000001   -1
    0.16365153   2   -2000001    1
    0.16365148   2    2000003   -3
    0.16365148   2   -2000003    3
    0.11612266   2    1000006   -6
    0.11612266   2   -1000006    6
    0.013810006   2    1000005   -5
    0.013810006   2   -1000005    5
    0.0092098857   2    2000002   -2
    0.0092098857   2   -2000002    2
    0.0092098717   2    2000004   -4
    0.0092098717   2   -2000004    4
    0.0060481463   2    1000004   -4
    0.0060481463   2   -1000004    4
    0.0060481108   2    1000002   -2
    0.0060481108   2   -1000002    2
    0.0060274859   2    1000003   -3
    0.0060274859   2   -1000003    3
    0.0060274295   2    1000001   -1
    0.0060274295   2   -1000001    1

DECAY 25  0.0038106897
    0.57910275   2   -5    5
    0.22161928   2   -24    24
    0.073095408   2    21    21
    0.06663997   2   -15    15
    0.028694579   2   -4    4
    0.02658485   2    23    23
    0.0023501154   2    22    22
    0.0014632647   2    22    23
    0.00023111173   2   -13    13
    0.00021791542   2   -3    3
    6.025156e-07   2   -1    1
    1.478712e-07   2   -2    2
    5.1956541e-09   2   -11    11

DECAY 35  55.63018
    0.8014986   2   -5    5
    0.1406247   2   -15    15
    0.030578834   2    1000022    1000025
    0.018708066   2    1000022    1000023
    0.0048468789   2   -6    6
    0.0025725786   2   -1000006    1000006
    0.00052133174   2   -3    3
    0.00047805943   2   -13    13
    9.3812578e-05   2   -1000015    1000015
    6.1299271e-05   2    1000022    1000022
    1.0474861e-05   2    25    25
    2.8864202e-06   2    21    21
    1.4419628e-06   2   -1    1
    5.1829717e-07   2    23    23
    2.8465698e-07   2    1000022    1000035
    9.2273943e-08   2   -24    24
    6.02707e-08   2   -4    4
    2.6108301e-08   2   -1000001    1000001
    2.5941329e-08   2   -1000003    1000003
    2.0838698e-08   2    22    23
    1.0735386e-08   2   -11    11
    1.7902289e-09   2    22    22
    3.1068809e-13   2   -2    2

DECAY 36  54.498425
    0.80254443   2   -5    5
    0.14080908   2   -15    15
    0.031390941   2    1000022    1000023
    0.01896753   2    1000022    1000025
    0.0052046547   2   -6    6
    0.00052202236   2   -3    3
    0.00047868204   2   -13    13
    6.8774582e-05   2    1000022    1000022
    1.0682265e-05   2    21    21
    1.4438675e-06   2   -1    1
    1.3369154e-06   2    23    25
    3.3604792e-07   2    1000022    1000035
    6.447395e-08   2   -4    4
    1.0749557e-08   2   -11    11
    6.3676653e-09   2    22    22
    3.7436394e-09   2    22    23
    3.3235482e-13   2   -2    2
    7.3381936e-39   2    25    25

DECAY 37  52.21424
    0.80483795   2   -5    6
    0.14023329   2   -15    16
    0.052684195   2    1000022    1000024
    0.0011885283   2   -5    4
    0.00051672137   2   -3    4
    0.00049577453   2   -13    14
    2.4317053e-05   2   -3    2
    8.4873168e-06   2   -5    2
    6.8834121e-06   2   -3    6
    1.4344269e-06   2   -1    2
    1.3966468e-06   2    24    25
    6.601607e-07   2    1000022    1000037
    2.8031001e-07   2   -1    6
    6.9865801e-08   2   -1    4
    1.1596218e-08   2   -11    12
    9.3493046e-10   2   -1000003    1000006
    1.1884689e-13   2   -1000001    1000006
    6.078647e-14   2    24    35

DECAY 6  2.43
    1   2    5    24

DECAY 15 -1
