BLOCK DCINFO
   1   SDECAY/HDECAY
   2   1.3b /3.4

BLOCK SPINFO
   1   SOFTSUSY
   2   3.4.0

BLOCK MODSEL
   1   0

BLOCK SMINPUTS
   1    127.90897
   2    1.1663787e-05
   3    0.1184
   4    91.1876
   5    4.18
   6    173.2
   7    1.777

BLOCK MINPAR
   3    37.85

BLOCK EXTPAR
   0   -1
   1    3706.13
   2   -1782.75
   3    3089.64
   11    2663.11
   12    289.87
   13    3748.61
   23    302.21
   26    2052.95
   31    3272.62
   32    3272.62
   33    3745.53
   34    3636.8
   35    3636.8
   36    1939.12
   41    2932.18
   42    2932.18
   43    2476.02
   44    2520.39
   45    2520.39
   46    3178.54
   47    3271.41
   48    3271.41
   49    584.55

BLOCK MASS
   24    80.393646
   25    124.7143
   35    2052.96
   36    2052.9502
   37    2054.8786
   5    4.8187603
   1000001    3042.4639
   2000001    3362.1595
   1000002    3041.5494
   2000002    2630.8995
   1000003    3042.4639
   2000003    3362.1595
   1000004    3041.5494
   2000004    2630.8995
   1000005    779.50483
   2000005    2567.3259
   1000006    2563.7782
   2000006    3224.5281
   1000011    3284.0765
   2000011    3647.7939
   1000012    3282.781
   1000013    3284.0765
   2000013    3647.7939
   1000014    3282.781
   1000015    1943.6984
   2000015    3749.087
   1000016    3747.9145
   1000021    3207.9394
   1000022   -314.28769
   1000023    317.39107
   1000025   -1828.8595
   1000035    3663.4748
   1000024    316.00016
   1000037    1829.0286

BLOCK NMIX
   1   1   -0.0074420848
   1   2   -0.035959204
   1   3    0.70872556
   1   4    0.70452795
   2   1   -0.0093888254
   2   2   -0.027044885
   2   3   -0.70545386
   2   4    0.70817744
   3   1   -0.00034353216
   3   2    0.99898723
   3   3    0.0064125424
   3   4    0.044534068
   4   1    0.99992817
   4   2   -0.00017835972
   4   3   -0.0013468812
   4   4    0.011908265

BLOCK UMIX
   1   1   -0.0090846524
   1   2    0.99995873
   2   1   -0.99995873
   2   2   -0.0090846524

BLOCK VMIX
   1   1    0.063038488
   1   2    0.9980111
   2   1    0.9980111
   2   2   -0.063038488

BLOCK STOPMIX
   1   1    0.99561057
   1   2   -0.093592654
   2   1    0.093592654
   2   2    0.99561057

BLOCK SBOTMIX
   1   1    0.0040613295
   1   2    0.99999175
   2   1   -0.99999175
   2   2    0.0040613295

BLOCK STAUMIX
   1   1    0.0013057567
   1   2    0.99999915
   2   1   -0.99999915
   2   2    0.0013057567

BLOCK ALPHA
      -0.027368135

BLOCK HMIX Q=  2807.108
   1    308.33489
   2    36.740175
   3    242.67414
   4    3919957.8

BLOCK GAUGE Q=  2807.108
   1    0.36482889
   2    0.63792412
   3    1.0110822

BLOCK AU Q=  2807.108
   1   1    0
   2   2    0
   3   3    2663.11

BLOCK AD Q=  2807.108
   1   1    0
   2   2    0
   3   3    289.87001

BLOCK AE Q=  2807.108
   1   1    0
   2   2    0
   3   3    3748.61

BLOCK YU Q=  2807.108
   1   1    0
   2   2    0
   3   3    0.83342517

BLOCK YD Q=  2807.108
   1   1    0
   2   2    0
   3   3    0.46635082

BLOCK YE Q=  2807.108
   1   1    0
   2   2    0
   3   3    0.37285055

BLOCK MSOFT Q=  2807.108
   1    3706.13
   2   -1782.75
   3    3089.64
   21    4146662.8
   22    43868.666
   31    3272.62
   32    3272.62
   33    3745.53
   34    3636.8
   35    3636.8
   36    1939.12
   41    2932.18
   42    2932.18
   43    2476.02
   44    2520.39
   45    2520.39
   46    3178.54
   47    3271.41
   48    3271.41
   49    584.54995

BLOCK HIGGSBOUNDSINPUTHIGGSCOUPLINGSFERMIONS
       0, 1349.8404,3,36,15,15

BLOCK HIGGSBOUNDSINPUTHIGGSCOUPLINGSBOSONS
       0,4,36,21,21,23

DECAY 6  1.4330412
    1   2    5    24

DECAY 1000021  83.713026
    0.31156814   2    1000005   -5
    0.31156814   2   -1000005    5
    0.047600206   2    1000006   -6
    0.047600206   2   -1000006    6
    0.046206128   2    2000005   -5
    0.046206128   2   -2000005    5
    0.039775816   2    2000002   -2
    0.039775816   2   -2000002    2
    0.039775686   2    2000004   -4
    0.039775686   2   -2000004    4
    0.0037887701   2    1000002   -2
    0.0037887701   2   -1000002    2
    0.0037885958   2    1000004   -4
    0.0037885958   2   -1000004    4
    0.0037483307   2    1000001   -1
    0.0037483307   2   -1000001    1
    0.0037483307   2    1000003   -3
    0.0037483307   2   -1000003    3

DECAY 1000006  52.899247
    0.32501772   2    1000023    6
    0.31987804   2    1000022    6
    0.21461492   2    1000024    5
    0.091960365   2    1000037    5
    0.046099986   2    1000025    6
    0.0024289709   2    1000005    24

DECAY 2000006  105.26404
    0.40734341   2    1000024    5
    0.20590699   2    1000023    6
    0.20442362   2    1000022    6
    0.083790548   2    2000005    24
    0.049902047   2    1000006    25
    0.043180904   2    1000006    23
    0.0035100126   2    1000037    5
    0.0017513096   2    1000025    6
    0.00016715202   2    1000005    37
    2.4005501e-05   2    1000005    24

DECAY 1000005  4.3790027
    0.46199729   2   -1000024    6
    0.27137778   2    1000022    5
    0.26662493   2    1000023    5

DECAY 2000005  52.432195
    0.64744814   2   -1000024    6
    0.10344401   2    1000022    5
    0.1023849   2    1000023    5
    0.096140813   2   -1000037    6
    0.047993118   2    1000025    5
    0.0013090119   2    1000005    25
    0.001280004   2    1000005    23

DECAY 1000002  14.837186
    0.66086776   2    1000037    1
    0.33110574   2    1000025    2
    0.0062686338   2    1000024    1
    0.0011021982   2    1000022    2
    0.00065566537   2    1000023    2

DECAY 2000002  0.087741015
    0.74702806   3    2    5   -1000005
    0.23612674   3    2   -5    1000005
    0.0059501088   2    1000023    2
    0.0037405343   2    1000022    2
    0.0029791085   3    2    24   -1000024
    0.0011813175   3    2    23    1000022
    0.0011382818   3    2    25    1000023
    0.0006382078   3    2    23    1000023
    0.00056721477   3    2    25    1000022
    0.00052514779   3    2   -24    1000024
    8.4293531e-05   3    2    15   -1000015
    3.328432e-05   3    2   -15    1000015
    2.3858853e-06   3    2   -37    1000024
    1.5263101e-06   3    2    36    1000022
    1.470464e-06   3    2    35    1000023
    1.0465801e-06   3    2    37   -1000024
    2.5666446e-07   3    2    35    1000022
    2.4541544e-07   3    2    36    1000023
    2.3879368e-07   3    2   -5    2000005
    2.0129697e-07   3    2    24   -1000037
    1.5526376e-07   3    2    5   -2000005
    1.0727138e-07   3    2    25    1000025
    4.3799356e-08   3    2   -24    1000037
    2.3980803e-08   3    2    23    1000025

DECAY 1000001  14.794917
    0.66597002   2   -1000037    2
    0.33245067   2    1000025    1
    0.00094415865   2    1000022    1
    0.00050455254   2    1000023    1
    0.00013059794   2   -1000024    2

DECAY 2000001  2.0193623
    0.99986807   2    1000021    1
    8.0977418e-05   2    1000023    1
    5.0894936e-05   2    1000022    1
    5.5233397e-08   2    1000025    1

DECAY 1000004  15.125646
    0.6608148   2    1000037    3
    0.33107956   2    1000025    4
    0.0063304436   2    1000024    3
    0.0011130762   2    1000022    4
    0.0006621248   2    1000023    4

DECAY 2000004  0.087898277
    0.74754594   3    4    5   -1000005
    0.2354995   3    4   -5    1000005
    0.0060307042   2    1000023    4
    0.0037912667   2    1000022    4
    0.0029733234   3    4    24   -1000024
    0.0011761323   3    4    23    1000022
    0.0011346866   3    4    25    1000023
    0.00063955747   3    4    23    1000023
    0.00055729193   3    4    25    1000022
    0.00052663148   3    4   -24    1000024
    8.4026676e-05   3    4    15   -1000015
    3.3274828e-05   3    4   -15    1000015
    2.3644377e-06   3    4   -37    1000024
    1.5321119e-06   3    4    36    1000022
    1.4751142e-06   3    4    35    1000023
    1.0341613e-06   3    4    37   -1000024
    2.5753633e-07   3    4    35    1000022
    2.4117651e-07   3    4    36    1000023
    2.3395225e-07   3    4   -5    2000005
    2.0091406e-07   3    4    24   -1000037
    1.5407583e-07   3    4    5   -2000005
    1.0713179e-07   3    4    25    1000025
    4.3758537e-08   3    4   -24    1000037
    2.3947e-08   3    4    23    1000025

DECAY 1000003  15.082232
    0.66595885   2   -1000037    4
    0.33244617   2    1000025    3
    0.00095353494   2    1000022    3
    0.00050955427   2    1000023    3
    0.00013189358   2   -1000024    4

DECAY 2000003  2.0334157
    0.41707163   3    3    5   -1000005
    0.33511102   3    3   -5    1000005
    0.03354651   3    3   -6    1000006
    0.033015875   3    3   -5    2000005
    0.032126731   3    3    6   -1000006
    0.031412662   3    3    5   -2000005
    0.026660067   3    3    4   -2000004
    0.026344342   3    3    2   -2000002
    0.025481754   3    3   -2    2000002
    0.025199471   3    3   -4    2000004
    0.0017114553   3    3    4   -1000004
    0.0017109143   3    3   -2    1000002
    0.0017018655   3    3    2   -1000002
    0.0016906036   3    3   -4    1000004
    0.0016902102   3    3   -1    1000001
    0.0016866694   3    3    3   -1000003
    0.0016862268   3    3   -3    1000003
    0.0016754567   3    3    1   -1000001
    9.9295977e-05   3    3    24   -1000024
    8.4243341e-05   2    1000023    3
    5.2948572e-05   2    1000022    3
    4.3190381e-05   3    3    23    1000022
    4.2236813e-05   3    3    25    1000023
    3.6191812e-05   3    3    15   -1000015
    3.3726502e-05   3    3   -24    1000024
    2.3315941e-05   3    3    23    1000023
    2.2925465e-05   3    3    25    1000022
    2.0555069e-05   3    3   -15    1000015
    5.5261696e-06   3    3   -37    1000024
    3.3423564e-06   3    3    37   -1000024
    3.1735272e-06   3    3    36    1000022
    3.1513969e-06   3    3    35    1000023
    1.3456176e-06   3    3    35    1000022
    1.3138976e-06   3    3    36    1000023
    3.4749412e-08   3    3    24   -1000037
    1.031909e-08   3    3    23    1000025
    9.5322368e-09   3    3    25    1000025
    4.3871993e-09   3    3   -24    1000037
    3.8095506e-11   3    3   -12    1000012
    3.7637655e-11   3    3   -14    1000014
    3.531988e-11   3    3   -11    1000011
    3.4950551e-11   3    3   -13    1000013
    3.1733796e-11   3    3    14   -1000014
    3.1486921e-11   3    3    12   -1000012
    2.9088494e-11   3    3    13   -1000013
    2.9038332e-11   3    3    11   -1000011

DECAY 1000011  18.99939
    0.66585081   2   -1000037    12
    0.33220336   2    1000025    11
    0.0011109729   2    1000022    11
    0.0007214987   2    1000023    11
    0.000113365   2   -1000024    12

DECAY 2000011  0.027129746
    0.12513202   3    11    24   -1000024
    0.11797752   3    11    5   -1000005
    0.095076453   3    11    15   -1000015
    0.068780593   3    11   -15    1000015
    0.065599583   3    11   -5    1000005
    0.06182227   2    1000023    11
    0.061817756   3    11   -24    1000024
    0.058529852   3    11    25    1000023
    0.058526166   3    11    23    1000022
    0.038854433   2    1000022    11
    0.032995149   3    11    23    1000023
    0.032691054   3    11    25    1000022
    0.02835338   3    11    4   -2000004
    0.028010952   3    11    2   -2000002
    0.023090154   3    11   -2    2000002
    0.023008325   3    11   -4    2000004
    0.018348863   3    11   -37    1000024
    0.013511737   3    11    37   -1000024
    0.010342154   3    11    36    1000022
    0.010271751   3    11    35    1000023
    0.0055850136   3    11    35    1000022
    0.0054865977   3    11    36    1000023
    0.0029402045   3    11   -6    1000006
    0.002583548   3    11    6   -1000006
    0.0020929794   3    11   -5    2000005
    0.0017157183   3    11    5   -2000005
    0.0011174082   3    11    6   -2000006
    0.0010256639   3    11   -6    2000006
    0.00035152191   3    11   -3    1000003
    0.00034840356   3    11   -4    1000004
    0.00034779537   3    11   -1    1000001
    0.00034667114   3    11   -2    1000002
    0.00031048946   3    11    1   -1000001
    0.00030854694   3    11    2   -1000002
    0.00030652702   3    11    4   -1000004
    0.00030640169   3    11    3   -1000003
    0.00019721526   3    11   -14    1000014
    0.00019698673   3    11   -12    1000012
    0.00019551234   3    11   -11    1000011
    0.00019401951   3    11   -13    1000013
    0.00018405628   3    11    14   -1000014
    0.00018114434   3    11    12   -1000012
    0.00018080523   3    11    11   -1000011
    0.00017977315   3    11    13   -1000013
    0.00011443896   3    11    1   -2000001
    0.0001131673   3    11    3   -2000003
    0.00010889892   3    11   -1    2000001
    0.00010796268   3    11   -3    2000003
    6.763425e-05   3    11    24   -1000037
    3.2110879e-05   3    11    23    1000025
    2.0590315e-05   3    11   -24    1000037
    1.2031075e-05   3    11    25    1000025

DECAY 1000013  18.99939
    0.66585081   2   -1000037    14
    0.33220336   2    1000025    13
    0.0011109729   2    1000022    13
    0.0007214987   2    1000023    13
    0.000113365   2   -1000024    14

DECAY 2000013  0.027129873
    0.1251683   3    13    24   -1000024
    0.11799171   3    13    5   -1000005
    0.094814302   3    13    15   -1000015
    0.069307364   3    13   -15    1000015
    0.065558729   3    13   -5    1000005
    0.06182198   2    1000023    13
    0.061732688   3    13   -24    1000024
    0.058529577   3    13    25    1000023
    0.058426369   3    13    23    1000022
    0.038854251   2    1000022    13
    0.032998311   3    13    23    1000023
    0.032698642   3    13    25    1000022
    0.028329288   3    13    4   -2000004
    0.028104444   3    13    2   -2000002
    0.023116953   3    13   -2    2000002
    0.022899849   3    13   -4    2000004
    0.018273583   3    13   -37    1000024
    0.01352052   3    13    37   -1000024
    0.010339156   3    13    36    1000022
    0.0102647   3    13    35    1000023
    0.005577984   3    13    35    1000022
    0.0054906265   3    13    36    1000023
    0.0029313443   3    13   -6    1000006
    0.0025777857   3    13    6   -1000006
    0.0020936331   3    13   -5    2000005
    0.0017165211   3    13    5   -2000005
    0.0011080406   3    13    6   -2000006
    0.0010325518   3    13   -6    2000006
    0.00035115166   3    13   -3    1000003
    0.00034939713   3    13   -1    1000001
    0.00034786008   3    13   -4    1000004
    0.00034705286   3    13   -2    1000002
    0.00031329302   3    13    1   -1000001
    0.00030915736   3    13    4   -1000004
    0.00030812529   3    13    2   -1000002
    0.00030590265   3    13    3   -1000003
    0.00019860395   3    13   -13    1000013
    0.00019661353   3    13   -12    1000012
    0.00019617858   3    13   -14    1000014
    0.00019495115   3    13   -11    1000011
    0.00018721061   3    13    14   -1000014
    0.00018156001   3    13    13   -1000013
    0.00018121353   3    13    12   -1000012
    0.00017839744   3    13    11   -1000011
    0.00011412143   3    13    3   -2000003
    0.00011282766   3    13    1   -2000001
    0.00010753828   3    13   -3    2000003
    0.00010731344   3    13   -1    2000001
    6.7534411e-05   3    13    24   -1000037
    3.2146851e-05   3    13    23    1000025
    2.0625972e-05   3    13   -24    1000037
    1.2029544e-05   3    13    25    1000025

DECAY 1000015  10.191723
    0.49991403   2   -1000024    16
    0.25134725   2    1000022    15
    0.24873823   2    1000023    15
    3.2459407e-07   2   -1000037    16
    1.631503e-07   2    1000025    15

DECAY 2000015  36.710493
    0.48003706   2   -1000037    16
    0.23949084   2    1000025    15
    0.14052412   2    1000022    15
    0.1389986   2    1000023    15
    0.00030985399   2    1000015    25
    0.00030778166   2    1000015    23
    0.00027530584   2    1000035    15
    5.6443426e-05   2   -1000024    16

DECAY 1000012  19.020177
    0.66180327   2    1000037    11
    0.33173488   2    1000025    12
    0.0054503112   2    1000024    11
    0.00068939843   2    1000022    12
    0.00032213869   2    1000023    12

DECAY 1000014  19.020177
    0.66180327   2    1000037    13
    0.33173488   2    1000025    14
    0.0054503112   2    1000024    13
    0.00068939843   2    1000022    14
    0.00032213869   2    1000023    14

DECAY 1000016  36.724528
    0.47765417   2    1000037    15
    0.28146941   2    1000024    15
    0.23941126   2    1000025    16
    0.00059613011   2   -1000015   -24
    0.00040939729   2    1000022    16
    0.00026832079   2    1000035    16
    0.00019131761   2    1000023    16

DECAY 1000024  9.7482341e-12
    0.60000011   3    1000022    2   -1
    0.19999995   3    1000022   -11    12
    0.19999995   3    1000022   -13    14

DECAY 1000037  14.303046
    0.2547126   2    1000024    23
    0.25028858   2    1000024    25
    0.24868475   2    1000023    24
    0.24630666   2    1000022    24
    7.412477e-06   2   -1000005    6

DECAY 1000022 -1


DECAY 1000023  2.8178428e-10
    0.1549788   3    1000022   -1    1
    0.1549788   3    1000022   -3    3
    0.14195158   2    1000022    22
    0.11937767   3    1000022   -2    2
    0.071217455   3    1000022   -12    12
    0.071217455   3    1000022   -14    14
    0.071217441   3    1000022   -16    16
    0.03561578   3    1000022   -11    11
    0.03561578   3    1000022   -13    13
    0.0073354744   3    1000024   -2    1
    0.0073354744   3   -1000024   -1    2
    0.002445157   3    1000024   -12    11
    0.002445157   3   -1000024    12   -11
    0.002445157   3    1000024   -14    13
    0.002445157   3   -1000024    14   -13

DECAY 1000025  14.301471
    0.24832565   2    1000024   -24
    0.24832565   2   -1000024    24
    0.16347024   2    1000023    23
    0.15950198   2    1000022    25
    0.091152476   2    1000022    23
    0.089217108   2    1000023    25
    3.4474256e-06   2    1000005   -5
    3.4474256e-06   2   -1000005    5

DECAY 1000035  44.991608
    0.11129208   2    1000015   -15
    0.11129208   2   -1000015    15
    0.065523144   2    2000002   -2
    0.065523144   2   -2000002    2
    0.065523088   2    2000004   -4
    0.065523088   2   -2000004    4
    0.065496947   2    1000005   -5
    0.065496947   2   -1000005    5
    0.047994968   2    1000024   -24
    0.047994968   2   -1000024    24
    0.033391955   2    1000023    25
    0.030137292   2    1000022    23
    0.024696476   2    1000024   -37
    0.024696476   2   -1000024    37
    0.020972043   2    1000022    25
    0.019331049   2    1000023    23
    0.0148833   2    1000022    36
    0.014763851   2    1000023    35
    0.012796272   2    2000006   -6
    0.012796272   2   -2000006    6
    0.010008735   2    1000022    35
    0.0098885101   2    1000023    36
    0.0064229556   2    1000006   -6
    0.0064229556   2   -1000006    6
    0.0046616821   2    2000005   -5
    0.0046616821   2   -2000005    5
    0.0020936255   2    1000012   -12
    0.0020936255   2   -1000012    12
    0.0020936255   2    1000014   -14
    0.0020936255   2   -1000014    14
    0.0020775835   2    1000011   -11
    0.0020775835   2   -1000011    11
    0.0020775835   2    1000013   -13
    0.0020775835   2   -1000013    13
    0.0018116676   2    2000001   -1
    0.0018116676   2   -2000001    1
    0.0018116676   2    2000003   -3
    0.0018116676   2   -2000003    3
    0.0017100396   2    1000001   -1
    0.0017100396   2   -1000001    1
    0.0017100396   2    1000003   -3
    0.0017100396   2   -1000003    3
    0.0017081238   2    1000002   -2
    0.0017081238   2   -1000002    2
    0.001708119   2    1000004   -4
    0.001708119   2   -1000004    4
    4.6077828e-05   2    1000037   -24
    4.6077828e-05   2   -1000037    24
    4.3252089e-05   2    1000025    23
    1.5731204e-05   2    2000011   -11
    1.5731204e-05   2   -2000011    11
    1.5731204e-05   2    2000013   -13
    1.5731204e-05   2   -2000013    13
    5.5602075e-06   2    1000025    25

DECAY 25  0.0041747592
    0.61726492   2    5   -5
    0.1950117   2    24   -24
    0.076032188   2    21    21
    0.062556264   2   -15    15
    0.024244265   2    23    23
    0.020736463   2    4   -4
    0.0022325855   2    22    22
    0.0014584988   2    22    23
    0.00024169024   2    3   -3
    0.00022142984   2   -13    13

DECAY 35  35.76552
    0.83207009   2    5   -5
    0.16314684   2   -15    15
    0.001802391   2    6   -6
    0.0016784397   2    1000024   -1000024
    0.00057790566   2   -13    13
    0.00035382113   2    3   -3
    0.00022749011   2    1000022    1000022
    9.5508643e-05   2    1000023    1000023
    2.7627187e-05   2    21    21
    8.0781839e-06   2    1000022    1000023
    7.3052939e-06   2    25    25
    1.8988603e-06   2    24   -24
    1.6131766e-06   2    1000005   -1000005
    9.4593469e-07   2    23    23
    1.8587794e-08   2    4   -4
    1.3548336e-08   2    23    22
    1.2672652e-08   2    22    22

DECAY 36  35.773847
    0.8319042   2    5   -5
    0.16310995   2   -15    15
    0.0018248496   2    1000024   -1000024
    0.001816777   2    6   -6
    0.00057777327   2   -13    13
    0.00035375893   2    3   -3
    0.00022514741   2    1000022    1000022
    0.00011781576   2    1000023    1000023
    5.4365022e-05   2    21    21
    1.3377799e-05   2    1000022    1000023
    1.9157093e-06   2    23    25
    3.3112336e-08   2    23    22
    1.8540455e-08   2    4   -4
    1.251503e-08   2    22    22

DECAY 37  33.235743
    0.82122701   2    6   -5
    0.17573104   2   -15    16
    0.0013821693   2    4   -5
    0.0006224801   2   -13    14
    0.00040111719   2    1000024    1000023
    0.000374693   2    4   -3
    0.00022656592   2    1000024    1000022
    1.9035375e-05   2    2   -3
    1.3821659e-05   2    2   -5
    2.0706467e-06   2    24    25
    1.0551337e-12   2    24    36

DECAY 5 -1


DECAY 15 -1


DECAY 23  2.4952


DECAY 24  2.085
