BLOCK SPINFO
   1   SPheno
   2   v4.0.5be

BLOCK SPHENOINFO
   1   2
   2   2

BLOCK MODSEL
   1   0

BLOCK MINPAR
   3    30.745464
   4   -1

BLOCK EXTPAR
   0    2430.4513
   1    788.14952
   2   -1939.9469
   3    2690.9129
   11   -7187.384
   12    5719.6806
   13    986.09546
   23   -4810.4378
   25    29.865892
   26    2924.4306
   31    2964.9757
   32    2964.9757
   33    4235.2973
   34    921.13737
   35    921.13737
   36    2180.4486
   41    4382.5949
   42    4382.5949
   43    4609.9801
   44    656.06918
   45    656.06918
   46    1060.2193
   47    3326.6075
   48    3326.6075
   49    3982.5328

BLOCK SMINPUTS
   1    127.90897
   2    1.1663787e-05
   3    0.1184
   4    91.1876
   5    4.18
   6    173.2
   7    1.777
   8    0
   11    0.00051099893
   12    0
   13    0.10565837
   14    0
   21    0.005
   22    0.0025
   23    0.095
   24    1.27

BLOCK GAUGE Q=  2430.4513
   1    0.35536298
   2    0.66519887
   3    1.219778

BLOCK YU Q=  2430.4513
   1   1    8.3890707e-06
   2   2    0.0042616479
   3   3    1.0134671

BLOCK YD Q=  2430.4513
   1   1    0.00050346535
   2   2    0.0095658417
   3   3    0.49927987

BLOCK YE Q=  2430.4513
   1   1    8.7858386e-05
   2   2    0.018166328
   3   3    0.30552775

BLOCK AU Q=  2430.4513
   1   1    0
   2   2    0
   3   3   -7187.3858

BLOCK AD Q=  2430.4513
   1   1    0
   2   2    0
   3   3    5719.6866

BLOCK AE Q=  2430.4513
   1   1    0
   2   2    0
   3   3    986.09544

BLOCK MSOFT Q=  2430.4513
   1    788.14952
   2   -1939.9469
   3    2690.9129
   21   -14842970
   22   -23642529
   31    2964.9757
   32    2964.9757
   33    4235.2973
   34    921.13737
   35    921.13737
   36    2180.4486
   41    4382.5949
   42    4382.5949
   43    4609.9801
   44    656.06918
   45    656.06918
   46    1060.2193
   47    3326.6075
   48    3326.6075
   49    3982.5328

BLOCK MASS
   6    173.2
   23    91.1876
   24    80.429995
   15    1.777
   25    125.04081
   35    2923.7721
   36    2924.4306
   37    2925.8113
   1000001    4439.9605
   2000001    3391.2255
   1000002    4439.3978
   2000002    794.7882
   1000003    4439.9562
   2000003    3391.2207
   1000004    4439.3924
   2000004    794.78891
   1000005    4036.4772
   2000005    4615.651
   1000006    1278.6435
   2000006    4619.8128
   1000011    2973.3366
   2000011    939.96316
   1000012    2971.9245
   1000013    2973.3145
   2000013    939.82967
   1000014    2971.8971
   1000015    2182.9117
   2000015    4239.0985
   1000016    4237.4089
   1000021    2925.7718
   1000022    777.03919
   1000023   -2023.2881
   1000025    4797.2169
   1000035   -4797.839
   1000024    2022.4997
   1000037    4798.2239

BLOCK ALPHA
      -0.032595895

BLOCK HMIX Q=  2430.4513
   1   -4810.4378
   2    29.865892
   3    243.55403
   4    8552294.6

BLOCK STOPMIX
   1   1    0.051206214
   1   2    0.9986881
   2   1   -0.9986881
   2   2    0.051206214

BLOCK SBOTMIX
   1   1   -0.077345057
   1   2    0.99700438
   2   1   -0.99700438
   2   2   -0.077345057

BLOCK STAUMIX
   1   1   -0.02010254
   1   2    0.99979792
   2   1   -0.99979792
   2   2   -0.02010254

BLOCK NMIX
   1   1    0.99994994
   1   2    5.1616222e-05
   1   3   -0.0098995741
   1   4   -0.0014529422
   2   1    0.00012691979
   2   2    0.99978102
   2   3    0.019240547
   2   4   -0.0082280377
   3   1    0.0080274678
   3   2   -0.0077883626
   3   3    0.70702998
   3   4    0.70709512
   4   1    0.0059715093
   4   2   -0.01942303
   4   3    0.70685247
   4   4   -0.70706908

BLOCK UMIX
   1   1   -0.99962938
   1   2   -0.027223312
   2   1   -0.027223312
   2   2    0.99962938

BLOCK VMIX
   1   1    0.99993169
   1   2    0.011688475
   2   1    0.011688475
   2   2   -0.99993169

BLOCK HIGGSBOUNDSINPUTHIGGSCOUPLINGSFERMIONS
       0, 891.97149,3,36,15,15

BLOCK HIGGSBOUNDSINPUTHIGGSCOUPLINGSBOSONS
       0,4,36,21,21,23

BLOCK SPHENOLOWENERGY
   1    0.00033595439
   2    1.5883625e-06
   3    3.525121e-05
   4    2.1261671e-15
   5    9.0826955e-11
   6    1.8984489e-08
   7    7.1923516e-14
   8    3.0725553e-09
   9    6.5080213e-07
   10    9.5638912e-05
   11    0.98791334
   12    0.54241477
   13    19.370153
   14    0
   15    0
   16    0.0021604339
   17    2.2816909e-15
   18    2.4811617e-11
   19    8.2910114e-11
   20   -2.5000091e-16
   21   -1.0682342e-11
   22    5.9009506e-09
   23    0
   24    0
   25    0
   26    0
   27    0
   28    0
   29    0
   30    0
   31    0
   39    6.4325413e-05
   40    0
   41    0
   42    0

BLOCK FWCOEF Q=  160
   305   4422   0   0   -0.18881911
   305   4422   0   2   -0.20571179
   305   4322   0   2   -0.00034536118
   305   6421   0   0   -0.095227835
   305   6421   0   2   -0.11138384
   305   6321   0   2   -0.000330101
   3051111   4133   0   0    1.6091686
   3051111   4133   0   2    1.6088872
   3051111   4233   0   2    5.9897266e-05
   3051111   4137   0   0   -4.4318607
   3051111   4137   0   2   -4.4300679
   3051111   4237   0   2   -0.00045512953
   3051313   4133   0   0    1.6091686
   3051313   4133   0   2    1.6088863
   3051313   4233   0   2    5.9897123e-05
   3051313   4137   0   0   -4.4318607
   3051313   4137   0   2   -4.4300688
   3051313   4237   0   2   -0.00045512949
   3051212   4137   0   0    1.5053501
   3051212   4137   0   2    1.5049628
   3051212   4237   0   2    9.8805732e-05
   3051414   4137   0   0    1.5053501
   3051414   4137   0   2    1.5049628
   3051414   4237   0   2    9.8805757e-05
   3051616   4137   0   0    1.5053501
   3051616   4137   0   2    1.5049628
   3051616   4237   0   2    9.8812754e-05

BLOCK IMFWCOEF Q=  160
   305   4422   0   0    3.8561702e-07
   305   4422   0   2   -7.3107343e-07
   305   4322   0   2   -3.8366592e-06
   305   6421   0   0    3.3030648e-07
   305   6421   0   2    1.6157709e-05
   305   6321   0   2   -2.8679641e-06
   3051111   4133   0   2   -4.4655093e-06
   3051111   4233   0   2    1.5073985e-06
   3051111   4137   0   2    3.4518088e-05
   3051111   4237   0   2   -1.1453335e-05
   3051313   4133   0   2   -4.4655e-06
   3051313   4233   0   2    1.507398e-06
   3051313   4137   0   2    3.4518096e-05
   3051313   4237   0   2   -1.1453337e-05
   3051212   4137   0   2   -7.4586876e-06
   3051212   4237   0   2    2.4864425e-06
   3051414   4137   0   2   -7.4586876e-06
   3051414   4237   0   2    2.4864425e-06
   3051616   4137   0   2   -7.4592744e-06
   3051616   4237   0   2    2.4864422e-06

DECAY 23  2.4952


DECAY 24  2.085


DECAY 2000011  0.47341312
    1   2    1000022    11

DECAY 1000011  14.565698
    0.51841326   2   -1000024    12
    0.25897229   2    1000023    11
    0.22261441   2    1000022    11

DECAY 2000013  0.4727657
    1   2    1000022    13

DECAY 1000013  14.588212
    0.51759608   2   -1000024    14
    0.25856423   2    1000023    13
    0.22226882   2    1000022    13
    0.0015708686   2    2000013    25

DECAY 1000015  8.3633202
    0.99992684   2    1000022    15

DECAY 2000015  46.213647
    0.48091793   2   -1000024    16
    0.24049465   2    1000023    15
    0.10771715   2    1000022    15
    0.089589993   2    1000015    23
    0.081280277   2    1000015    25

DECAY 1000012  14.542085
    0.51847263   2    1000024    11
    0.25877454   2    1000023    12
    0.22275283   2    1000022    12

DECAY 1000014  14.541585
    0.51846937   2    1000024    13
    0.2587728   2    1000023    14
    0.22275783   2    1000022    14

DECAY 1000016  46.594361
    0.47736348   2    1000024    15
    0.23843364   2    1000023    16
    0.17754968   2    1000015    24
    0.1066532   2    1000022    16

DECAY 2000001  19.196591
    0.91146642   2    1000021    1
    0.088533581   2    1000022    1

DECAY 1000001  149.5542
    0.75009515   2    1000021    1
    0.16401738   2   -1000024    2
    0.081996371   2    1000023    1
    0.0038910566   2    1000022    1

DECAY 2000003  19.196276
    0.91146494   2    1000021    3
    0.088534911   2    1000022    3

DECAY 1000003  149.55654
    0.75008049   2    1000021    3
    0.16401444   2   -1000024    4
    0.081994945   2    1000023    3
    0.0038909968   2    1000022    3

DECAY 1000005  74.624482
    0.96126922   2    1000021    5
    0.028090232   2    1000022    5
    0.0068379954   2    1000006   -24
    0.0025284488   2   -1000024    6
    0.0012741084   2    1000023    5

DECAY 2000005  355.65321
    0.38543231   2    1000006   -24
    0.3666768   2    1000021    5
    0.12036937   2    1000006   -37
    0.073447578   2   -1000024    6
    0.036937873   2    1000023    5
    0.0084284432   2    1000005    25
    0.0070087739   2    1000005    23
    0.0016988495   2    1000022    5

DECAY 2000002  0.0034615297
    1   2    1000022    2

DECAY 1000002  149.50332
    0.7499634   2    1000021    2
    0.16412986   2    1000024    1
    0.0820104   2    1000023    2
    0.0038963404   2    1000022    2

DECAY 2000004  0.0034507155
    1   2    1000022    4

DECAY 1000004  149.5035
    0.7499583   2    1000021    4
    0.16412926   2    1000024    3
    0.082010073   2    1000023    4
    0.0038963295   2    1000022    4

DECAY 1000006  1.0334933
    0.99999968   2    1000022    6

DECAY 2000006  386.42075
    0.33311242   2    1000021    6
    0.25804324   2    1000006    25
    0.17847525   2    1000006    23
    0.068729289   2    1000024    5
    0.056566717   2    1000006    36
    0.055885559   2    1000006    35
    0.034242221   2    1000023    6
    0.01332752   2    1000005    24
    0.0016177707   2    1000022    6

DECAY 1000024  0.010963492
    0.98171922   2    1000006   -5
    0.0073996975   2    1000022    24
    0.0044657801   3    1000022   -13    14
    0.0044655562   3    1000022   -11    12
    0.00087982985   3    1000022   -15    16
    0.00037862608   3    1000022   -5    6
    0.00027590591   2   -2000013    14
    0.00020280552   3    1000022   -3    4
    0.00020280053   3    1000022   -1    2

DECAY 1000037  169.32551
    0.74850659   2    1000006   -5
    0.063016517   2    1000024    25
    0.054286703   2    1000023    24
    0.054077569   2    1000024    23
    0.020508203   2    1000022    24
    0.019183446   2   -1000005    6
    0.016489334   2   -1000015    16
    0.0068283061   2    37    1000022
    0.0066517959   3    1000024    6   -6
    0.004158494   3    1000023   -5    6
    0.0013877876   2   -2000005    6
    0.0012743157   2    1000016   -15
    0.0012207737   3    1000022   -5    6
    0.0011322479   2    2000006   -5
    0.00078108631   3    1000024    5   -5

DECAY 1000022 -1


DECAY 1000023  0.010913569
    0.47915601   2    1000006   -6
    0.47915601   2   -1000006    6
    0.010844342   3    1000022    12   -12
    0.0085579142   2    1000022    25
    0.0065970249   2    1000022    23
    0.0049715558   3    1000022    13   -13
    0.0049713458   3    1000022    11   -11
    0.0014670582   2    1000006   -4
    0.0014670582   2   -1000006    4
    0.0010094992   3    1000022    15   -15
    0.00028642756   3    1000022    6   -6
    0.00023863857   3    1000022    2   -2
    0.00023863716   3    1000022    4   -4
    0.00023821476   3    1000022    3   -3
    0.00023820501   3    1000022    1   -1
    0.00022734053   3    1000022    5   -5
    0.00014318553   2    2000013   -13
    0.00014318553   2   -2000013    13

DECAY 1000025  175.03777
    0.36474603   2    1000006   -6
    0.36474603   2   -1000006    6
    0.05238856   2    1000024   -24
    0.05238856   2   -1000024    24
    0.046767764   2    1000023    25
    0.045033048   2    1000023    23
    0.010561488   2    1000022    25
    0.008661307   2    1000005   -5
    0.008661307   2   -1000005    5
    0.0079929623   2    1000015   -15
    0.0079929623   2   -1000015    15
    0.0070684361   2    1000022    23
    0.0050998896   2    1000022    35
    0.0043004087   3    1000024    5   -6
    0.0043004087   3   -1000024   -5    6
    0.0027061565   3    1000023    6   -6
    0.0015087978   2    1000022    36
    0.00098915572   3    1000022    6   -6
    0.00061175319   2    2000015   -15
    0.00061175319   2   -2000015    15
    0.00056577168   2    2000005   -5
    0.00056577168   2   -2000005    5
    0.00043522229   2    2000006   -6
    0.00043522229   2   -2000006    6
    0.00042220132   3    1000023    5   -5

DECAY 1000035  171.12851
    0.37435278   2    1000006   -6
    0.37435278   2   -1000006    6
    0.054456696   2    1000023    25
    0.053291973   2    1000024   -24
    0.053291973   2   -1000024    24
    0.013060433   2    1000022    23
    0.012310894   2    1000022    25
    0.0088476179   2    1000005   -5
    0.0088476179   2   -1000005    5
    0.008164726   2    1000015   -15
    0.008164726   2   -1000015    15
    0.0074001672   2    1000023    23
    0.0045749075   2    1000022    35
    0.0042580801   3    1000024    5   -6
    0.0042580801   3   -1000024   -5    6
    0.0032155164   3    1000023    6   -6
    0.0017641462   2    1000022    36
    0.0010810546   3    1000022    6   -6
    0.00062809153   2    2000015   -15
    0.00062809153   2   -2000015    15
    0.00058421766   2    2000005   -5
    0.00058421766   2   -2000005    5
    0.00049481153   2    2000006   -6
    0.00049481153   2   -2000006    6
    0.00038397394   3    1000023    5   -5

DECAY 1000021  204.31408
    0.18181047   2    2000002   -2
    0.18181047   2   -2000002    2
    0.18181042   2    2000004   -4
    0.18181042   2   -2000004    4
    0.13635807   2    1000006   -6
    0.13635807   2   -1000006    6

DECAY 25  0.003871325
    0.57170766   2   -5    5
    0.22993775   2   -24    24
    0.072112197   2    21    21
    0.065813475   2   -15    15
    0.02826406   2   -4    4
    0.027857444   2    23    23
    0.0023571907   2    22    22
    0.0015058872   2    22    23
    0.00022828901   2   -13    13
    0.00021529419   2   -3    3
    5.9526972e-07   2   -1    1
    1.4565144e-07   2   -2    2
    5.1321923e-09   2   -11    11

DECAY 35  46.497956
    0.84268772   2   -5    5
    0.13066962   2   -15    15
    0.022239781   2   -1000006    1000006
    0.0033280467   2   -6    6
    0.00053515734   2   -3    3
    0.00047179803   2   -13    13
    2.8331397e-05   2    1000022    1000023
    1.7092475e-05   2    25    25
    1.0431488e-05   2    21    21
    7.4248904e-06   2    1000022    1000022
    1.4808813e-06   2   -1    1
    9.0322557e-07   2   -1000004    1000004
    9.0311137e-07   2   -1000002    1000002
    7.4088936e-07   2    23    23
    2.3144638e-07   2   -24    24
    1.0513266e-07   2   -1000011    1000011
    1.0280086e-07   2   -1000013    1000013
    5.2727145e-08   2   -4    4
    3.6867896e-08   2    22    23
    2.5884225e-08   2    22    22
    1.0596355e-08   2   -11    11
    2.718124e-13   2   -2    2

DECAY 36  43.51321
    0.86093102   2   -5    5
    0.13349044   2   -15    15
    0.0045124232   2   -6    6
    0.00054676977   2   -3    3
    0.00048198567   2   -13    13
    1.8705365e-05   2    21    21
    1.0997767e-05   2    1000022    1000022
    4.7819009e-06   2    1000022    1000023
    1.5130206e-06   2   -1    1
    1.2648155e-06   2    23    25
    6.9051038e-08   2   -4    4
    2.0149975e-08   2    22    22
    1.0825221e-08   2   -11    11
    4.6346385e-09   2    22    23
    3.5598536e-13   2   -2    2
    2.6242773e-36   2    25    25

DECAY 37  37.970095
    0.85188426   2   -5    6
    0.14566725   2   -15    16
    0.0012588587   2   -5    4
    0.0005888167   2   -3    4
    0.00051498576   2   -13    14
    4.0427359e-05   2    1000022    1000024
    2.7569097e-05   2   -3    2
    8.98955e-06   2   -5    2
    5.4565851e-06   2   -3    6
    1.6355406e-06   2   -1    2
    1.4524759e-06   2    24    25
    2.1030663e-07   2   -1    6
    7.8281651e-08   2   -1    4
    1.204557e-08   2   -11    12
    1.2640251e-12   2    24    35
    1.7987271e-13   2    24    36

DECAY 6  2.43
    1   2    5    24

DECAY 15 -1
