BLOCK SPINFO
   1   SPheno
   2   v4.0.5be

BLOCK SPHENOINFO
   1   2
   2   2

BLOCK MODSEL
   1   0

BLOCK MINPAR
   3    20.811717
   4    1

BLOCK EXTPAR
   0    1610.8181
   1    83.617627
   2    1095.6985
   3    3000
   11    2238.0184
   12    1757.7874
   13   -1277.1819
   23    773.23639
   25    20.014162
   26    1528.3267
   31    1241.4329
   32    1241.4329
   33    1173.6875
   34    749.95879
   35    749.95879
   36    1216.8188
   41    5000
   42    5000
   43    1759.7679
   44    5000
   45    5000
   46    1476.881
   47    5000
   48    5000
   49    1243.1786

BLOCK SMINPUTS
   1    127.90897
   2    1.1663787e-05
   3    0.1184
   4    91.1876
   5    4.18
   6    173.2
   7    1.777
   8    0
   11    0.00051099893
   12    0
   13    0.10565837
   14    0
   21    0.005
   22    0.0025
   23    0.095
   24    1.27

BLOCK GAUGE Q=  1610.8181
   1    0.35536298
   2    0.66519887
   3    1.219778

BLOCK YU Q=  1610.8181
   1   1    8.3948313e-06
   2   2    0.0042645743
   3   3    1.014163

BLOCK YD Q=  1610.8181
   1   1    0.00033762113
   2   2    0.0064148015
   3   3    0.33481437

BLOCK YE Q=  1610.8181
   1   1    5.8917356e-05
   2   2    0.012182241
   3   3    0.20488525

BLOCK AU Q=  1610.8181
   1   1    0
   2   2    0
   3   3    2238.0184

BLOCK AD Q=  1610.8181
   1   1    0
   2   2    0
   3   3    1757.7875

BLOCK AE Q=  1610.8181
   1   1    0
   2   2    0
   3   3   -1277.1819

BLOCK MSOFT Q=  1610.8181
   1    83.617627
   2    1095.6985
   3    3000
   21    1719352.7
   22   -547817.38
   31    1241.4329
   32    1241.4329
   33    1173.6875
   34    749.95879
   35    749.95879
   36    1216.8188
   41    5000
   42    5000
   43    1759.7679
   44    5000
   45    5000
   46    1476.881
   47    5000
   48    5000
   49    1243.1786

BLOCK MASS
   6    173.2
   23    91.1876
   24    80.429995
   15    1.777
   25    120.05504
   35    1528.4568
   36    1528.3267
   37    1530.9915
   1000001    5031.615
   2000001    5022.0849
   1000002    5031.163
   2000002    5023.149
   1000003    5031.6165
   2000003    5022.0858
   1000004    5031.164
   2000004    5023.1497
   1000005    1261.0241
   2000005    1775.7784
   1000006    1435.8541
   2000006    1807.1022
   1000011    1251.3505
   2000011    754.38717
   1000012    1248.448
   1000013    1251.3486
   2000013    754.37952
   1000014    1248.445
   1000015    1179.1578
   2000015    1222.1887
   1000016    1180.282
   1000021    3194.2243
   1000022    82.721933
   1000023    774.00993
   1000025   -783.79575
   1000035    1146.9219
   1000024    774.02597
   1000037    1147.059

BLOCK ALPHA
      -0.048549052

BLOCK HMIX Q=  1610.8181
   1    773.23639
   2    20.014162
   3    243.94987
   4    2335782.6

BLOCK STOPMIX
   1   1   -0.28538118
   1   2    0.9584141
   2   1   -0.9584141
   2   2   -0.28538118

BLOCK SBOTMIX
   1   1    0.018299877
   1   2    0.99983254
   2   1   -0.99983254
   2   2    0.018299877

BLOCK STAUMIX
   1   1    0.95152793
   1   2    0.30756234
   2   1   -0.30756234
   2   2    0.95152793

BLOCK NMIX
   1   1    0.99826739
   1   2   -0.0008055085
   1   3    0.058153393
   1   4   -0.00893041
   2   1    0.047140335
   2   2    0.15898305
   2   3   -0.70040584
   2   4    0.69421455
   3   1   -0.034732881
   3   2    0.027839754
   3   3    0.7052686
   3   4    0.70754136
   4   1    0.0057994869
   4   2   -0.98688839
   4   3   -0.092984165
   4   4    0.13180144

BLOCK UMIX
   1   1   -0.13085924
   1   2    0.99140096
   2   1    0.99140096
   2   2    0.13085924

BLOCK VMIX
   1   1   -0.18580446
   1   2    0.98258674
   2   1    0.98258674
   2   2    0.18580446

BLOCK HIGGSBOUNDSINPUTHIGGSCOUPLINGSFERMIONS
       0, 400.56667,3,36,15,15

BLOCK HIGGSBOUNDSINPUTHIGGSCOUPLINGSBOSONS
       0,4,36,21,21,23

BLOCK SPHENOLOWENERGY
   1    0.00034604349
   2    1.5858724e-06
   3    3.5205321e-05
   4    2.6885417e-15
   5    1.1485151e-10
   6    2.4046936e-08
   7    9.0291992e-14
   8    3.8572731e-09
   9    8.1828951e-07
   10    9.5611397e-05
   11    0.98762912
   12    0.5432269
   13    19.404669
   14    0
   15    0
   16    0.0021632553
   17    2.2817199e-15
   18    2.4769487e-11
   19    8.2830362e-11
   20    4.2175472e-15
   21    1.8031145e-10
   22    5.3480489e-08
   23    0
   24    0
   25    0
   26    0
   27    0
   28    0
   29    0
   30    0
   31    0
   39    7.157717e-05
   40    0
   41    0
   42    0

BLOCK FWCOEF Q=  160
   305   4422   0   0   -0.18881911
   305   4422   0   2   -0.21597268
   305   4322   0   2   -0.00041344307
   305   6421   0   0   -0.095227835
   305   6421   0   2   -0.12198071
   305   6321   0   2   -0.00046802407
   3051111   4133   0   0    1.5943855
   3051111   4133   0   2    1.5954258
   3051111   4233   0   2    3.1664334e-05
   3051111   4137   0   0   -4.4170776
   3051111   4137   0   2   -4.4107582
   3051111   4237   0   2   -0.00024450921
   3051313   4133   0   0    1.5943855
   3051313   4133   0   2    1.595425
   3051313   4233   0   2    3.1664026e-05
   3051313   4137   0   0   -4.4170776
   3051313   4137   0   2   -4.4107591
   3051313   4237   0   2   -0.00024450917
   3051212   4137   0   0    1.5053501
   3051212   4137   0   2    1.5039811
   3051212   4237   0   2    5.3240824e-05
   3051414   4137   0   0    1.5053501
   3051414   4137   0   2    1.5039811
   3051414   4237   0   2    5.3240874e-05
   3051616   4137   0   0    1.5053501
   3051616   4137   0   2    1.5039811
   3051616   4237   0   2    5.3254818e-05

BLOCK IMFWCOEF Q=  160
   305   4422   0   0    3.8578905e-07
   305   4422   0   2    1.0578645e-05
   305   4322   0   2   -9.801254e-07
   305   6421   0   0    3.3045384e-07
   305   6421   0   2   -1.16613e-06
   305   6321   0   2   -4.7985582e-07
   3051111   4133   0   2   -4.5777799e-07
   3051111   4233   0   2    1.0889441e-06
   3051111   4137   0   2    3.9390424e-06
   3051111   4237   0   2   -8.4326991e-06
   3051313   4133   0   2   -4.5777585e-07
   3051313   4233   0   2    1.0889428e-06
   3051313   4137   0   2    3.9390465e-06
   3051313   4237   0   2   -8.4327027e-06
   3051212   4137   0   2   -7.2583539e-07
   3051212   4237   0   2    1.8364826e-06
   3051414   4137   0   2   -7.258354e-07
   3051414   4237   0   2    1.8364826e-06
   3051616   4137   0   2   -7.2598367e-07
   3051616   4237   0   2    1.8364804e-06

DECAY 23  2.4952


DECAY 24  2.085


DECAY 2000011  3.6871029
    1   2    1000022    11

DECAY 1000011  2.1040328
    0.73577953   2    1000022    11
    0.13130654   2   -1000037    12
    0.064811824   2    1000035    11
    0.034173658   2   -1000024    12
    0.033845103   2    1000023    11

DECAY 2000013  3.6870705
    1   2    1000022    13

DECAY 1000013  2.1058315
    0.7351559   2    1000022    13
    0.13119018   2   -1000037    14
    0.064755051   2    1000035    13
    0.034144296   2   -1000024    14
    0.03414297   2    1000023    13
    0.00040556232   2    1000025    13
    0.00020604467   2    2000013    25

DECAY 1000015  2.50299
    0.7657785   2    1000022    15
    0.099001583   2    1000023    15
    0.064087356   2   -1000024    16
    0.055600157   2    1000025    15
    0.01036542   2   -1000037    16
    0.0051669859   2    1000035    15

DECAY 2000015  6.201638
    0.90201944   2    1000022    15
    0.038989709   2   -1000024    16
    0.0313321   2    1000025    15
    0.02330433   2    1000023    15
    0.0029028573   2   -1000037    16
    0.0014456204   2    1000035    15

DECAY 1000012  2.1279959
    0.73017522   2    1000022    12
    0.1210791   2    1000037    11
    0.067570779   2    1000024    11
    0.061614114   2    1000035    12
    0.017520616   2    1000023    12
    0.0020401723   2    1000025    12

DECAY 1000014  2.1293402
    0.72971247   2    1000022    14
    0.12099731   2    1000037    13
    0.068170077   2    1000024    13
    0.061571867   2    1000035    14
    0.017509408   2    1000023    14
    0.0020388667   2    1000025    14

DECAY 1000016  1.977861
    0.74192857   2    1000022    16
    0.21733914   2    1000024    15
    0.01569565   2    1000037    15
    0.015274714   2    1000023    16
    0.0079952298   2    1000035    16
    0.0017666957   2    1000025    16

DECAY 2000001  143.35738
    0.9804556   2    1000021    1
    0.019479781   2    1000022    1

DECAY 1000001  202.0341
    0.70061109   2    1000021    1
    0.19366818   2   -1000037    2
    0.096158025   2    1000035    1
    0.00357868   2   -1000024    2
    0.0034935798   2    1000022    1
    0.0023695942   2    1000023    1
    0.00012084691   2    1000025    1

DECAY 2000003  143.36527
    0.98040221   2    1000021    3
    0.019478808   2    1000022    3

DECAY 1000003  202.03992
    0.70059168   2    1000021    3
    0.19366298   2   -1000037    4
    0.096155453   2    1000035    3
    0.0035868397   2   -1000024    4
    0.0034935489   2    1000022    3
    0.0023790298   2    1000023    3
    0.00013047242   2    1000025    3

DECAY 1000005  2.7282263
    0.34874292   2   -1000024    6
    0.25993773   2    1000022    5
    0.19861945   2    1000023    5
    0.19255928   2    1000025    5
    0.00014061542   2    1000035    5

DECAY 2000005  45.603342
    0.48473825   2   -1000024    6
    0.2586386   2    1000006   -24
    0.13062387   2   -1000037    6
    0.057241995   2    1000035    5
    0.030185036   2    1000023    5
    0.028240166   2    1000025    5
    0.0056008176   2    1000022    5
    0.0031093908   2    1000005    25
    0.0016218708   2    1000005    23

DECAY 2000002  151.87589
    0.92619217   2    1000021    2
    0.073564346   2    1000022    2
    0.00015643094   2    1000023    2

DECAY 1000002  202.02678
    0.70040358   2    1000021    2
    0.19022586   2    1000037    1
    0.095749346   2    1000035    2
    0.007214437   2    1000024    1
    0.0034306434   2    1000022    2
    0.0029271975   2    1000023    2

DECAY 2000004  151.87936
    0.92617109   2    1000021    4
    0.073562665   2    1000022    4
    0.00016192889   2    1000023    4

DECAY 1000004  202.03248
    0.70038403   2    1000021    4
    0.19022086   2    1000037    3
    0.095746822   2    1000035    4
    0.0072332716   2    1000024    3
    0.0034305474   2    1000022    4
    0.0029312347   2    1000023    4

DECAY 1000006  30.342757
    0.40543467   2    1000024    5
    0.24334713   2    1000025    6
    0.23439067   2    1000023    6
    0.092484973   2    1000022    6
    0.016642447   2    1000037    5
    0.0076540874   2    1000035    6

DECAY 2000006  50.047139
    0.22727156   2    1000023    6
    0.2268643   2    1000025    6
    0.1368137   2    1000006    23
    0.13427308   2    1000006    25
    0.12588646   2    1000024    5
    0.084497484   2    1000037    5
    0.049274075   2    1000035    6
    0.011897599   2    1000022    6
    0.0032217438   2    1000005    24

DECAY 1000024  0.52617843
    0.98874692   2    1000022    24
    0.011199315   3    1000022   -5    6

DECAY 1000037  7.9452877
    0.26931671   2    1000025    24
    0.25136958   2    1000023    24
    0.24078273   2    1000024    23
    0.23304741   2    1000024    25
    0.0026892607   2    1000022    24
    0.001267   3    1000023   -5    6
    0.001052987   3    1000025   -5    6
    0.00015586149   3    1000022   -15    16

DECAY 1000022 -1


DECAY 1000023  0.4849181
    0.61883127   2    1000022    25
    0.37791221   2    1000022    23
    0.0030679043   3    1000022    6   -6

DECAY 1000025  0.61784052
    0.57900779   2    1000022    23
    0.41784685   2    1000022    25
    0.0029607582   3    1000022    6   -6

DECAY 1000035  9.4679322
    0.22494745   2    1000025    23
    0.20544756   2    1000024   -24
    0.20544756   2   -1000024    24
    0.18883474   2    1000023    25
    0.16428895   2    1000025    25
    0.0065874294   2    1000023    23
    0.0011145764   2    1000022    25
    0.0010048626   3    1000024    5   -6
    0.0010048626   3   -1000024   -5    6
    0.00095756796   2    1000022    23
    0.00014437197   3    1000022    12   -12

DECAY 1000021  216.97555
    0.15523963   2    1000005   -5
    0.15523963   2   -1000005    5
    0.14871735   2    1000006   -6
    0.14871735   2   -1000006    6
    0.10402859   2    2000005   -5
    0.10402859   2   -2000005    5
    0.091598319   2    2000006   -6
    0.091598319   2   -2000006    6
    0.0003291029   2    1000006   -4
    0.0003291029   2   -1000006    4

DECAY 25  0.003370582
    0.64733293   2   -5    5
    0.15198599   2   -24    24
    0.074318558   2    21    21
    0.074290846   2   -15    15
    0.031554053   2   -4    4
    0.016657264   2    23    23
    0.002283859   2    22    22
    0.0010739951   2    22    23
    0.00025769612   2   -13    13
    0.00024396392   2   -3    3
    6.7453663e-07   2   -1    1
    1.6262184e-07   2   -2    2
    5.7933661e-09   2   -11    11

DECAY 35  8.9494108
    0.7134838   2   -5    5
    0.16186312   2   -15    15
    0.063245385   2    1000022    1000025
    0.047932383   2    1000022    1000023
    0.011031522   2   -6    6
    0.00123816   2    1000022    1000022
    0.00055920468   2   -13    13
    0.00032868326   2   -3    3
    0.00025369781   2    25    25
    2.7536362e-05   2    23    23
    2.1432957e-05   2   -24    24
    1.0906435e-05   2    21    21
    1.4961359e-06   2    1000022    1000035
    9.0874402e-07   2   -1    1
    5.4388775e-07   2   -1000011    1000011
    5.4164379e-07   2   -1000013    1000013
    1.8294497e-07   2   -4    4
    1.8073652e-07   2    22    23
    1.0810712e-07   2    22    22
    1.0422962e-07   2   -1000024    1000024
    9.0381617e-08   2    1000023    1000023
    1.2562028e-08   2   -11    11
    9.4323132e-13   2   -2    2

DECAY 36  8.8045733
    0.71123358   2   -5    5
    0.16136799   2   -15    15
    0.068004542   2    1000022    1000023
    0.045508766   2    1000022    1000025
    0.011345981   2   -6    6
    0.0013122206   2    1000022    1000022
    0.00055747834   2   -13    13
    0.00032762362   2   -3    3
    0.00022948185   2    1000023    1000023
    7.1243729e-05   2    21    21
    3.7132881e-05   2    23    25
    1.8591672e-06   2    1000022    1000035
    9.0581399e-07   2   -1    1
    6.5794825e-07   2    22    23
    3.5152609e-07   2    22    22
    1.7693891e-07   2   -4    4
    1.2523255e-08   2   -11    11
    9.1228444e-13   2   -2    2
    3.1588582e-36   2    25    25

DECAY 37  8.5635859
    0.72337743   2   -5    6
    0.15485574   2   -15    16
    0.11969902   2    1000022    1000024
    0.0010588564   2   -5    4
    0.0005474714   2   -13    14
    0.00031130252   2   -3    4
    5.928144e-05   2    1000023    1000024
    3.8475021e-05   2    24    25
    2.494842e-05   2   -3    6
    1.4452079e-05   2   -3    2
    7.5613325e-06   2   -5    2
    3.4157993e-06   2    1000022    1000037
    1.1236956e-06   2   -1    6
    8.6327312e-07   2   -1    2
    5.0457376e-08   2   -1    4
    1.2805413e-08   2   -11    12
    2.132939e-11   2    24    36
    1.6609149e-11   2    24    35

DECAY 6  2.43
    1   2    5    24

DECAY 15 -1
