BLOCK SPINFO
   1   SPheno
   2   v4.0.5be

BLOCK SPHENOINFO
   1   2
   2   2

BLOCK MODSEL
   1   0

BLOCK MINPAR
   3    12.274533
   4   -1

BLOCK EXTPAR
   0    1434.1972
   1    122.58723
   2   -129.49077
   3    3000
   11   -3800.1358
   12   -692.67023
   13   -364.22869
   23   -415.35849
   25    11.815855
   26    4489.088
   31    976.9133
   32    976.9133
   33    719.37753
   34    740.44126
   35    740.44126
   36    1789.8267
   41    5000
   42    5000
   43    1348.8179
   44    5000
   45    5000
   46    1688.9309
   47    5000
   48    5000
   49    1788.0159

BLOCK SMINPUTS
   1    127.90897
   2    1.1663787e-05
   3    0.1184
   4    91.1876
   5    4.18
   6    173.2
   7    1.777
   8    0
   11    0.00051099893
   12    0
   13    0.10565837
   14    0
   21    0.005
   22    0.0025
   23    0.095
   24    1.27

BLOCK GAUGE Q=  1434.1972
   1    0.35536298
   2    0.66519887
   3    1.219778

BLOCK YU Q=  1434.1972
   1   1    8.4143454e-06
   2   2    0.0042744875
   3   3    1.0165205

BLOCK YD Q=  1434.1972
   1   1    0.00019978631
   2   2    0.00379594
   3   3    0.19812542

BLOCK YE Q=  1434.1972
   1   1    3.4864173e-05
   2   2    0.0072088052
   3   3    0.12124024

BLOCK AU Q=  1434.1972
   1   1    0
   2   2    0
   3   3   -3800.1357

BLOCK AD Q=  1434.1972
   1   1    0
   2   2    0
   3   3   -692.67022

BLOCK AE Q=  1434.1972
   1   1    0
   2   2    0
   3   3   -364.22869

BLOCK MSOFT Q=  1434.1972
   1    122.58723
   2   -129.49077
   3    3000
   21    19755060
   22    18408.707
   31    976.9133
   32    976.9133
   33    719.37753
   34    740.44126
   35    740.44126
   36    1789.8267
   41    5000
   42    5000
   43    1348.8179
   44    5000
   45    5000
   46    1688.9309
   47    5000
   48    5000
   49    1788.0159

BLOCK MASS
   6    173.2
   23    91.1876
   24    80.429995
   15    1.777
   25    124.13563
   35    4488.2716
   36    4489.088
   37    4489.369
   1000001    5027.8223
   2000001    5016.5277
   1000002    5027.3886
   2000002    5020.2418
   1000003    5027.8233
   2000003    5016.5287
   1000004    5027.3895
   2000004    5020.2426
   1000005    1316.14
   2000005    1813.4189
   1000006    1222.5789
   2000006    1682.4448
   1000011    984.52916
   2000011    729.21
   1000012    980.99228
   1000013    984.5327
   2000013    729.21852
   1000014    980.99539
   1000015    729.95398
   2000015    1787.2202
   1000016    725.31155
   1000021    3186.3516
   1000022    122.09384
   1000023   -132.07042
   1000025    428.69274
   1000035   -437.26764
   1000024    132.28888
   1000037    440.02403

BLOCK ALPHA
      -0.081381241

BLOCK HMIX Q=  1434.1972
   1   -415.35849
   2    11.815855
   3    244.01865
   4    20151911

BLOCK STOPMIX
   1   1    0.90627751
   1   2    0.42268319
   2   1   -0.42268319
   2   2    0.90627751

BLOCK SBOTMIX
   1   1   -0.99998031
   1   2    0.0062758457
   2   1   -0.0062758457
   2   2   -0.99998031

BLOCK STAUMIX
   1   1   -0.99999534
   1   2    0.0030520418
   2   1   -0.0030520418
   2   2   -0.99999534

BLOCK NMIX
   1   1    0.99364933
   1   2    0.0049137346
   1   3   -0.10991521
   1   4   -0.023569124
   2   1   -0.01644512
   2   2   -0.97441655
   2   3   -0.20938279
   2   4    0.080004941
   3   1   -0.094003324
   3   2    0.092561108
   3   3   -0.69386739
   3   4   -0.70791515
   4   1   -0.059614888
   4   2    0.20474541
   4   3   -0.68016582
   4   4    0.70135572

BLOCK UMIX
   1   1   -0.9559042
   1   2   -0.29367868
   2   1   -0.29367868
   2   2    0.9559042

BLOCK VMIX
   1   1    0.99360244
   1   2    0.1129345
   2   1    0.1129345
   2   2   -0.99360244

BLOCK HIGGSBOUNDSINPUTHIGGSCOUPLINGSFERMIONS
       0, 139.61443,3,36,15,15

BLOCK HIGGSBOUNDSINPUTHIGGSCOUPLINGSBOSONS
       0,4,36,21,21,23

BLOCK SPHENOLOWENERGY
   1    0.00034204795
   2    1.5874922e-06
   3    3.5235639e-05
   4    2.4349079e-15
   5    1.0401655e-10
   6    2.1777623e-08
   7    8.21054e-14
   8    3.5075417e-09
   9    7.4406818e-07
   10    9.6761636e-05
   11    0.99951065
   12    0.54296078
   13    19.400301
   14    0
   15    0
   16    0.0021618075
   17    2.2817039e-15
   18    2.4796534e-11
   19    8.2891827e-11
   20    3.071946e-15
   21    1.3133527e-10
   22    6.536107e-08
   23    0
   24    0
   25    0
   26    0
   27    0
   28    0
   29    0
   30    0
   31    0
   39    1.1855349e-05
   40    0
   41    0
   42    0

BLOCK FWCOEF Q=  160
   305   4422   0   0   -0.18881911
   305   4422   0   2   -0.21409012
   305   4322   0   2   -0.00018833392
   305   6421   0   0   -0.095227835
   305   6421   0   2   -0.11084273
   305   6321   0   2   -0.00013510533
   3051111   4133   0   0    1.5901611
   3051111   4133   0   2    1.5912125
   3051111   4233   0   2    2.8148913e-05
   3051111   4137   0   0   -4.4128532
   3051111   4137   0   2   -4.4093335
   3051111   4237   0   2   -0.0002192908
   3051313   4133   0   0    1.5901611
   3051313   4133   0   2    1.5912121
   3051313   4233   0   2    2.8148899e-05
   3051313   4137   0   0   -4.4128532
   3051313   4137   0   2   -4.4093339
   3051313   4237   0   2   -0.00021929084
   3051212   4137   0   0    1.5053501
   3051212   4137   0   2    1.5046276
   3051212   4237   0   2    4.7798724e-05
   3051414   4137   0   0    1.5053501
   3051414   4137   0   2    1.5046276
   3051414   4237   0   2    4.7798724e-05
   3051616   4137   0   0    1.5053501
   3051616   4137   0   2    1.5046298
   3051616   4237   0   2    4.7798261e-05

BLOCK IMFWCOEF Q=  160
   305   4422   0   0    3.8579934e-07
   305   4422   0   2    5.3921521e-06
   305   4322   0   2   -2.2701981e-06
   305   6421   0   0    3.3046265e-07
   305   6421   0   2    5.019711e-06
   305   6321   0   2   -9.2422252e-07
   3051111   4133   0   2   -1.4507171e-06
   3051111   4233   0   2    5.3587989e-07
   3051111   4137   0   2    2.3140664e-05
   3051111   4237   0   2   -4.175529e-06
   3051313   4133   0   2   -1.4507591e-06
   3051313   4233   0   2    5.3587966e-07
   3051313   4137   0   2    2.3140711e-05
   3051313   4237   0   2   -4.1755296e-06
   3051212   4137   0   2   -4.2106412e-06
   3051212   4237   0   2    9.1015356e-07
   3051414   4137   0   2   -4.2106392e-06
   3051414   4237   0   2    9.1015356e-07
   3051616   4137   0   2   -4.1702232e-06
   3051616   4237   0   2    9.1014463e-07

DECAY 23  2.4952


DECAY 24  2.085


DECAY 2000011  3.4377679
    0.99414369   2    1000022    11
    0.0040331061   2    1000025    11
    0.001553556   2    1000035    11
    0.00026964067   2    1000023    11

DECAY 1000011  13.448725
    0.56778508   2   -1000024    12
    0.30037469   2    1000023    11
    0.089660197   2    1000022    11
    0.035593641   2   -1000037    12
    0.0062069845   2    1000035    11
    0.00037940801   2    1000025    11

DECAY 2000013  3.4384896
    0.99395059   2    1000022    13
    0.004077387   2    1000025    13
    0.0015947527   2    1000035    13
    0.00027857415   2    1000023    13

DECAY 1000013  13.449494
    0.56775483   2   -1000024    14
    0.30036194   2    1000023    13
    0.089656287   2    1000022    13
    0.035591864   2   -1000037    14
    0.0062291458   2    1000035    13
    0.00040329605   2    1000025    13

DECAY 1000015  9.633251
    0.57032441   2   -1000024    16
    0.30268044   2    1000023    15
    0.090720141   2    1000022    15
    0.023231758   2   -1000037    16
    0.0082400651   2    1000035    15
    0.0048031802   2    1000025    15

DECAY 2000015  9.8574192
    0.89165349   2    1000022    15
    0.043192219   2   -1000037    16
    0.029921543   2    1000025    15
    0.024711774   2    1000035    15
    0.0040432033   2   -1000024    16
    0.0022986165   2    1000023    15
    0.0021175371   2    1000016   -24
    0.0010475867   2    1000015    23
    0.0010140293   2    1000015    25

DECAY 1000012  13.540499
    0.60694401   2    1000024    11
    0.28666128   2    1000023    12
    0.085487791   2    1000022    12
    0.01146159   2    1000035    12
    0.005190351   2    1000037    11
    0.0042549821   2    1000025    12

DECAY 1000014  13.541221
    0.6069198   2    1000024    13
    0.28664696   2    1000023    14
    0.085483519   2    1000022    14
    0.011461051   2    1000035    14
    0.0052338904   2    1000037    13
    0.0042547814   2    1000025    14

DECAY 1000016  9.7342413
    0.60688298   2    1000024    15
    0.28586506   2    1000023    16
    0.085642193   2    1000022    16
    0.011340572   2    1000037    15
    0.0074386346   2    1000035    16
    0.0028305575   2    1000025    16

DECAY 2000001  143.7158
    0.98053859   2    1000021    1
    0.019218182   2    1000022    1
    0.0001697127   2    1000025    1

DECAY 1000001  209.02367
    0.67980232   2    1000021    1
    0.19321677   2   -1000024    2
    0.099784492   2    1000023    1
    0.017983905   2   -1000037    2
    0.0048364727   2    1000035    1
    0.0031295238   2    1000022    1
    0.0012465172   2    1000025    1

DECAY 2000003  143.71873
    0.98051931   2    1000021    3
    0.019217915   2    1000022    3
    0.00017444298   2    1000025    3

DECAY 1000003  209.027
    0.67979197   2    1000021    3
    0.19321381   2   -1000024    4
    0.099783224   2    1000023    3
    0.017992158   2   -1000037    4
    0.0048395278   2    1000035    3
    0.0031295576   2    1000022    3
    0.0012497591   2    1000025    3

DECAY 1000005  38.990359
    0.55608916   2   -1000037    6
    0.26285429   2   -1000024    6
    0.13871076   2    1000023    5
    0.014969277   2    1000035    5
    0.011479241   2    1000025    5
    0.011216092   2    1000006   -24
    0.0046811831   2    1000022    5

DECAY 2000005  3.5547658
    0.32129703   2   -1000037    6
    0.28275719   2    1000022    5
    0.17420311   2    1000025    5
    0.16605402   2    1000035    5
    0.028963928   2   -1000024    6
    0.015063693   2    1000023    5
    0.0058210329   2    1000006   -24
    0.0035690166   2    1000005    25
    0.0022603365   2    1000005    23

DECAY 2000002  152.50141
    0.9265848   2    1000021    2
    0.072497851   2    1000022    2
    0.00064018026   2    1000025    2
    0.00025731643   2    1000035    2

DECAY 1000002  209.02229
    0.67959072   2    1000021    2
    0.20874048   2    1000024    1
    0.10098321   2    1000023    2
    0.0039295293   2    1000035    2
    0.003497017   2    1000022    2
    0.0026592517   2    1000037    1
    0.0005997913   2    1000025    2

DECAY 2000004  152.50503
    0.92656297   2    1000021    4
    0.072496137   2    1000022    4
    0.0006460804   2    1000025    4
    0.00026310346   2    1000035    4

DECAY 1000004  209.02555
    0.67958029   2    1000021    4
    0.20873785   2    1000024    3
    0.10098169   2    1000023    4
    0.0039336911   2    1000035    4
    0.0034969675   2    1000022    4
    0.0026653995   2    1000037    3
    0.00060410467   2    1000025    4

DECAY 1000006  33.466823
    0.27034057   2    1000035    6
    0.23416139   2    1000025    6
    0.21703435   2    1000024    5
    0.15141936   2    1000037    5
    0.10468956   2    1000023    6
    0.021571676   2    1000022    6
    0.00066003281   2    1000023    4
    0.00010013186   3    1000022    24    5

DECAY 2000006  133.78734
    0.23450969   2    1000005    24
    0.17563886   2    1000006    23
    0.17086664   2    1000037    5
    0.1240507   2    1000025    6
    0.11992751   2    1000006    25
    0.099607664   2    1000035    6
    0.036471369   2    1000024    5
    0.021285175   2    1000022    6
    0.017642394   2    1000023    6

DECAY 1000024  1.2711505e-10
    0.37072552   3    1000022   -1    2
    0.34372234   3    1000022   -3    4
    0.10387989   3    1000022   -11    12
    0.10382519   3    1000022   -13    14
    0.077837772   3    1000022   -15    16

DECAY 1000037  3.0270044
    0.35757788   2    1000023    24
    0.3066796   2    1000024    23
    0.2476543   2    1000024    25
    0.087546845   2    1000022    24
    0.00040752317   3    1000023   -5    6
    0.00012880072   3    1000022   -5    6

DECAY 1000022 -1


DECAY 1000023  2.6436566e-10
    0.47181491   2    1000022    22
    0.11079563   3    1000022    1   -1
    0.1106791   3    1000022    3   -3
    0.100143   3    1000022    12   -12
    0.086461438   3    1000022    2   -2
    0.069629693   3    1000022    4   -4
    0.017696204   3    1000022    11   -11
    0.01766697   3    1000022    13   -13
    0.0086411943   3    1000022    15   -15
    0.0064718606   3    1000022    5   -5

DECAY 1000025  3.4932663
    0.26998498   2    1000024   -24
    0.26998498   2   -1000024    24
    0.25208655   2    1000023    23
    0.1446018   2    1000023    25
    0.039886328   2    1000022    25
    0.022776224   2    1000022    23
    0.00033540149   3    1000024    5   -6
    0.00033540149   3   -1000024   -5    6

DECAY 1000035  3.3935612
    0.32326833   2    1000024   -24
    0.32326833   2   -1000024    24
    0.18465909   2    1000023    25
    0.058764985   2    1000022    23
    0.058378605   2    1000022    25
    0.050682131   2    1000023    23
    0.00048449866   3    1000024    5   -6
    0.00048449866   3   -1000024   -5    6

DECAY 1000021  224.71339
    0.14436298   2    1000005   -5
    0.14436298   2   -1000005    5
    0.1375942   2    1000006   -6
    0.1375942   2   -1000006    6
    0.12131633   2    2000006   -6
    0.12131633   2   -2000006    6
    0.095924179   2    2000005   -5
    0.095924179   2   -2000005    5
    0.00067143136   2    1000006   -4
    0.00067143136   2   -1000006    4

DECAY 25  0.0037512364
    0.58571832   2   -5    5
    0.21558279   2   -24    24
    0.072293988   2    21    21
    0.067394537   2   -15    15
    0.0290296   2   -4    4
    0.025650764   2    23    23
    0.0024086764   2    22    22
    0.0014667438   2    22    23
    0.00023369051   2   -13    13
    0.00022012471   2   -3    3
    6.086226e-07   2   -1    1
    1.4959872e-07   2   -2    2
    5.2536331e-09   2   -11    11

DECAY 35  72.725466
    0.22662223   2   -1000024    1000037
    0.22662223   2   -1000037    1000024
    0.11995461   2    1000022    1000025
    0.096622112   2   -5    5
    0.075480222   2    1000022    1000035
    0.039836362   2   -1000024    1000024
    0.03540033   2    1000023    1000025
    0.022743997   2    1000023    1000035
    0.019122202   2    1000022    1000022
    0.018535362   2   -15    15
    0.017338425   2    1000025    1000035
    0.01593146   2   -6    6
    0.015793719   2   -1000006    1000006
    0.014793529   2   -2000006    2000006
    0.011440726   2    1000022    1000023
    0.010803432   2   -2000006    1000006
    0.010803432   2   -1000006    2000006
    0.010048833   2    1000035    1000035
    0.0055912187   2    1000025    1000025
    0.0029930187   2   -1000037    1000037
    0.001701153   2    1000023    1000023
    0.00077881435   2   -2000005    1000005
    0.00077881435   2   -1000005    2000005
    6.3859649e-05   2   -13    13
    5.8883794e-05   2   -2000015    1000015
    5.8883794e-05   2   -1000015    2000015
    3.7245061e-05   2   -3    3
    3.2204123e-05   2    25    25
    2.0155686e-06   2    21    21
    1.4056863e-06   2    23    23
    1.3500096e-06   2   -1000005    1000005
    4.8635357e-07   2   -2000011    2000011
    4.8614779e-07   2   -2000013    2000013
    3.4681636e-07   2   -1000015    1000015
    3.2999567e-07   2   -1000011    1000011
    3.2956685e-07   2   -1000013    1000013
    2.6072733e-07   2   -24    24
    2.0979537e-07   2   -4    4
    1.9489035e-07   2   -2000015    2000015
    1.7827463e-07   2   -2000005    2000005
    1.1302128e-07   2    22    23
    1.0297315e-07   2   -1    1
    5.5101416e-08   2    22    22
    1.7121188e-09   2   -2000013    1000013
    1.7121188e-09   2   -1000013    2000013
    1.4340621e-09   2   -11    11
    1.0813512e-12   2   -2    2
    4.0046919e-14   2   -2000011    1000011
    4.0046919e-14   2   -1000011    2000011

DECAY 36  72.25316
    0.22314502   2   -1000024    1000037
    0.22314502   2   -1000037    1000024
    0.10941161   2    1000022    1000035
    0.092127964   2   -5    5
    0.083779728   2    1000022    1000025
    0.045157995   2   -1000024    1000024
    0.03272763   2    1000023    1000035
    0.026554463   2   -2000006    1000006
    0.026554463   2   -1000006    2000006
    0.025485289   2    1000023    1000025
    0.02175599   2    1000022    1000022
    0.017674258   2   -15    15
    0.015528878   2    1000025    1000035
    0.014904017   2   -6    6
    0.014704745   2    1000035    1000035
    0.01179223   2    1000022    1000023
    0.0079783581   2   -1000037    1000037
    0.0041797163   2    1000025    1000025
    0.0016001651   2    1000023    1000023
    0.00078351268   2   -2000005    1000005
    0.00078351268   2   -1000005    2000005
    6.0892642e-05   2   -13    13
    5.9249092e-05   2   -2000015    1000015
    5.9249092e-05   2   -1000015    2000015
    3.5513818e-05   2   -3    3
    6.65682e-06   2    21    21
    3.4110467e-06   2    23    25
    1.9483022e-07   2   -4    4
    9.8186039e-08   2   -1    1
    9.4320373e-08   2    22    23
    6.33166e-08   2    22    22
    1.7344494e-09   2   -2000013    1000013
    1.7344494e-09   2   -1000013    2000013
    1.3674544e-09   2   -11    11
    1.004254e-12   2   -2    2
    4.0568951e-14   2   -2000011    1000011
    4.0568951e-14   2   -1000011    2000011
    8.2426714e-38   2    25    25

DECAY 37  71.199998
    0.26679045   2    1000022    1000037
    0.23874934   2    1000024    1000035
    0.22909512   2    1000024    1000025
    0.1132027   2   -5    6
    0.05556445   2    1000023    1000037
    0.028571498   2   -1000005    2000006
    0.02362801   2    1000023    1000024
    0.018998121   2   -15    16
    0.014788404   2    1000025    1000037
    0.0050439284   2   -1000005    1000006
    0.0034892566   2    1000035    1000037
    0.0012865145   2   -2000005    1000006
    0.00038178504   2   -2000005    2000006
    0.00014453537   2   -5    4
    0.00012039986   2   -2000015    1000016
    6.7165114e-05   2   -13    14
    3.5212278e-05   2   -3    4
    2.2620134e-05   2   -3    6
    7.4871045e-06   2    1000022    1000024
    3.463111e-06   2    24    25
    1.9516812e-06   2   -2000011    1000012
    1.9513834e-06   2   -2000013    1000014
    1.8025562e-06   2   -1000015    1000016
    1.64717e-06   2   -3    2
    1.0350662e-06   2   -1    6
    1.0321293e-06   2   -5    2
    9.7161605e-08   2   -1    2
    1.3983717e-08   2   -1    4
    3.3024487e-09   2   -1000013    1000014
    1.570999e-09   2   -11    12
    7.7244083e-14   2   -1000011    1000012
    3.0433873e-14   2    24    35

DECAY 6  2.43
    1   2    5    24

DECAY 15 -1
