BLOCK SPINFO
   1   SPheno
   2   v4.0.5be

BLOCK SPHENOINFO
   1   2
   2   2

BLOCK MODSEL
   1   0

BLOCK MINPAR
   3    37.234707
   4   -1

BLOCK EXTPAR
   0    4392.174
   1   -1015.3423
   2   -1801.793
   3    2259.7104
   11   -2742.7269
   12    231.12187
   13   -7306.5182
   23   -2294.5129
   25    36.35631
   26    3086.0558
   31    3471.9923
   32    3471.9923
   33    2641.6202
   34    4433.1092
   35    4433.1092
   36    4176.8564
   41    4963.2797
   42    4963.2797
   43    4721.9095
   44    724.17031
   45    724.17031
   46    4028.3156
   47    4088.8485
   48    4088.8485
   49    2125.4801

BLOCK SMINPUTS
   1    127.90897
   2    1.1663787e-05
   3    0.1184
   4    91.1876
   5    4.18
   6    173.2
   7    1.777
   8    0
   11    0.00051099893
   12    0
   13    0.10565837
   14    0
   21    0.005
   22    0.0025
   23    0.095
   24    1.27

BLOCK GAUGE Q=  4392.174
   1    0.35536298
   2    0.66519887
   3    1.219778

BLOCK YU Q=  4392.174
   1   1    8.3875432e-06
   2   2    0.0042608719
   3   3    1.0132826

BLOCK YD Q=  4392.174
   1   1    0.00061276622
   2   2    0.011642558
   3   3    0.60767208

BLOCK YE Q=  4392.174
   1   1    0.00010693219
   2   2    0.022110185
   3   3    0.37185693

BLOCK AU Q=  4392.174
   1   1    0
   2   2    0
   3   3   -2742.7275

BLOCK AD Q=  4392.174
   1   1    0
   2   2    0
   3   3    231.12199

BLOCK AE Q=  4392.174
   1   1    0
   2   2    0
   3   3   -7306.5178

BLOCK MSOFT Q=  4392.174
   1   -1015.3423
   2   -1801.793
   3    2259.7104
   21    4431822.3
   22   -4882975.7
   31    3471.9923
   32    3471.9923
   33    2641.6202
   34    4433.1092
   35    4433.1092
   36    4176.8564
   41    4963.2797
   42    4963.2797
   43    4721.9095
   44    724.17031
   45    724.17031
   46    4028.3156
   47    4088.8485
   48    4088.8485
   49    2125.4801

BLOCK MASS
   6    173.2
   23    91.1876
   24    80.429995
   15    1.777
   25    121.90651
   35    3085.7592
   36    3086.0558
   37    3087.567
   1000001    5047.4083
   2000001    4162.3828
   1000002    5046.824
   2000002    1016.1474
   1000003    5047.4019
   2000003    4162.3715
   1000004    5046.8175
   2000004    1016.1477
   1000005    2237.4141
   2000005    4756.1476
   1000006    4052.6729
   2000006    4760.1157
   1000011    3489.1431
   2000011    4432.7017
   1000012    3487.8124
   1000013    3489.1168
   2000013    4432.6503
   1000014    3487.7882
   1000015    2652.3603
   2000015    4146.8615
   1000016    2651.911
   1000021    2578.3826
   1000022   -996.55261
   1000023   -1867.2615
   1000025    2305.5547
   1000035   -2312.8599
   1000024    1866.7698
   1000037    2312.522

BLOCK ALPHA
      -0.026931481

BLOCK HMIX Q=  4392.174
   1   -2294.5129
   2    36.35631
   3    242.84651
   4    9523740.5

BLOCK STOPMIX
   1   1    0.063115011
   1   2    0.99800626
   2   1   -0.99800626
   2   2    0.063115011

BLOCK SBOTMIX
   1   1   -0.01211886
   1   2    0.99992656
   2   1   -0.99992656
   2   2   -0.01211886

BLOCK STAUMIX
   1   1   -0.99990932
   1   2    0.013466393
   2   1   -0.013466393
   2   2   -0.99990932

BLOCK NMIX
   1   1    0.99964903
   1   2   -0.0010187199
   1   3   -0.024084532
   1   4    0.010986682
   2   1    0.0041617736
   2   2    0.99241278
   2   3    0.095470858
   2   4   -0.077361973
   3   1    0.0092452389
   3   2   -0.012913833
   3   3    0.70686759
   3   4    0.70716757
   4   1    0.02447478
   4   2   -0.12226641
   4   3    0.70045947
   4   4   -0.70271505

BLOCK UMIX
   1   1   -0.99040189
   1   2   -0.13821759
   2   1   -0.13821759
   2   2    0.99040189

BLOCK VMIX
   1   1    0.99363059
   1   2    0.11268648
   2   1    0.11268648
   2   2   -0.99363059

BLOCK HIGGSBOUNDSINPUTHIGGSCOUPLINGSFERMIONS
       0, 1321.7813,3,36,15,15

BLOCK HIGGSBOUNDSINPUTHIGGSCOUPLINGSBOSONS
       0,4,36,21,21,23

BLOCK SPHENOLOWENERGY
   1    0.00033020885
   2    1.589165e-06
   3    3.5254239e-05
   4    2.2598877e-15
   5    9.6540346e-11
   6    2.0240055e-08
   7    7.7473222e-14
   8    3.3096703e-09
   9    7.030182e-07
   10    9.5861156e-05
   11    0.99020904
   12    0.54196547
   13    19.357509
   14    0
   15    0
   16    0.0021573011
   17    2.2816592e-15
   18    2.4801385e-11
   19    8.2906287e-11
   20    1.3105458e-15
   21    5.6029704e-11
   22    2.0825408e-08
   23    0
   24    0
   25    0
   26    0
   27    0
   28    0
   29    0
   30    0
   31    0
   39    6.6004282e-05
   40    0
   41    0
   42    0

BLOCK FWCOEF Q=  160
   305   4422   0   0   -0.18881911
   305   4422   0   2   -0.20005739
   305   4322   0   2   -0.00022167595
   305   6421   0   0   -0.095227835
   305   6421   0   2   -0.104404
   305   6321   0   2   -0.00018486346
   3051111   4133   0   0    1.6302007
   3051111   4133   0   2    1.6303188
   3051111   4233   0   2    0.0001640502
   3051111   4137   0   0   -4.4528928
   3051111   4137   0   2   -4.4514199
   3051111   4237   0   2   -0.0012069931
   3051313   4133   0   0    1.6302007
   3051313   4133   0   2    1.6303183
   3051313   4233   0   2    0.00016404989
   3051313   4137   0   0   -4.4528928
   3051313   4137   0   2   -4.4514204
   3051313   4237   0   2   -0.0012069932
   3051212   4137   0   0    1.5053501
   3051212   4137   0   2    1.5050339
   3051212   4237   0   2    0.00026079055
   3051414   4137   0   0    1.5053501
   3051414   4137   0   2    1.5050339
   3051414   4237   0   2    0.0002607906
   3051616   4137   0   0    1.5053501
   3051616   4137   0   2    1.5050339
   3051616   4237   0   2    0.00026080323

BLOCK IMFWCOEF Q=  160
   305   4422   0   0    3.8579147e-07
   305   4422   0   2   -1.9109076e-06
   305   4322   0   2   -1.6914165e-06
   305   6421   0   0    3.3045591e-07
   305   6421   0   2    2.7621875e-05
   305   6321   0   2   -3.5062394e-07
   3051111   4133   0   2   -2.6321587e-07
   3051111   4233   0   2    3.5474353e-06
   3051111   4137   0   2    2.7741286e-06
   3051111   4237   0   2   -2.6106218e-05
   3051313   4133   0   2   -2.6321756e-07
   3051313   4233   0   2    3.5474336e-06
   3051313   4137   0   2    2.7741342e-06
   3051313   4237   0   2   -2.6106224e-05
   3051212   4137   0   2   -5.6236766e-07
   3051212   4237   0   2    5.6406781e-06
   3051414   4137   0   2   -5.6236764e-07
   3051414   4237   0   2    5.6406781e-06
   3051616   4137   0   2   -5.6244443e-07
   3051616   4237   0   2    5.6406774e-06

DECAY 23  2.4952


DECAY 24  2.085


DECAY 1000011  27.008038
    0.56829689   2   -1000024    12
    0.28646212   2    1000023    11
    0.13626779   2    1000022    11
    0.0068310732   2   -1000037    12
    0.0021306487   2    1000035    11

DECAY 2000011  20.072384
    0.99958444   2    1000022    11
    0.00035204392   2    1000035    11

DECAY 1000013  27.018329
    0.56806932   2   -1000024    14
    0.28635336   2    1000023    13
    0.1362151   2    1000022    13
    0.0068282593   2   -1000037    14
    0.0023233311   2    1000035    13
    0.00021063717   2    1000025    13

DECAY 2000013  20.120188
    0.99719665   2    1000022    13
    0.0011133347   2   -1000037    14
    0.00090792165   2    1000035    13
    0.00062001642   2    1000025    13
    0.00010819343   2    1000013    25

DECAY 1000015  11.710672
    0.49901338   2   -1000024    16
    0.25288252   2    1000023    15
    0.20947179   2    1000022    15
    0.018584624   2    1000025    15
    0.018087064   2    1000035    15
    0.001960629   2   -1000037    16

DECAY 2000015  32.945101
    0.56109748   2    1000022    15
    0.16230564   2   -1000037    16
    0.082679095   2    1000025    15
    0.081339561   2    1000035    15
    0.054892439   2    1000016   -24
    0.027386145   2    1000015    23
    0.026053884   2    1000015    25
    0.0028784513   2   -1000024    16
    0.0013673052   2    1000023    15

DECAY 1000012  27.01247
    0.57134634   2    1000024    11
    0.2835779   2    1000023    12
    0.13721805   2    1000022    12
    0.0045326315   2    1000037    11
    0.0032676666   2    1000035    12

DECAY 1000014  27.022789
    0.57112982   2    1000024    13
    0.28346449   2    1000023    14
    0.13716436   2    1000022    14
    0.0049176141   2    1000037    13
    0.0032663252   2    1000035    14

DECAY 1000016  11.7146
    0.50360352   2    1000024    15
    0.24837318   2    1000023    16
    0.2103753   2    1000022    16
    0.036583411   2    1000037    15
    0.0010456556   2    1000035    16

DECAY 2000001  126.84968
    0.98372546   2    1000021    1
    0.016268109   2    1000022    1

DECAY 1000001  267.77418
    0.81265729   2    1000021    1
    0.12128073   2   -1000024    2
    0.060785808   2    1000023    1
    0.002455933   2    1000022    1
    0.0019788448   2   -1000037    2
    0.00083032288   2    1000035    1

DECAY 2000003  126.85925
    0.98364187   2    1000021    3
    0.016266873   2    1000022    3

DECAY 1000003  267.7837
    0.81262593   2    1000021    3
    0.12127617   2   -1000024    4
    0.060783877   2    1000023    3
    0.0024558696   2    1000022    3
    0.0019830236   2   -1000037    4
    0.00084580163   2    1000035    3

DECAY 1000005  0.85734378
    0.94596579   2    1000022    5
    0.034652033   2   -1000024    6
    0.019382178   2    1000023    5

DECAY 2000005  321.18999
    0.58279034   2    1000021    5
    0.17657735   2   -1000037    6
    0.092538155   2   -1000024    6
    0.046434254   2    1000023    5
    0.031832064   2    1000025    5
    0.031826102   2    1000035    5
    0.018294192   2    1000006   -24
    0.0098792278   2    1000005    25
    0.0078839808   2    1000005    23
    0.0019443341   2    1000022    5

DECAY 2000002  0.0033080548
    1   2    1000022    2

DECAY 1000002  267.7414
    0.81252981   2    1000021    2
    0.12206462   2    1000024    1
    0.060963578   2    1000023    2
    0.0024003226   2    1000022    2
    0.0013152457   2    1000037    1
    0.00071982075   2    1000035    2

DECAY 2000004  0.0032995761
    1   2    1000022    4

DECAY 1000004  267.7504
    0.81249976   2    1000021    4
    0.12206096   2    1000024    3
    0.06096144   2    1000023    4
    0.0024002384   2    1000022    4
    0.0013462526   2    1000037    3
    0.00072186727   2    1000035    4

DECAY 1000006  196.37612
    0.57777615   2    1000021    6
    0.19060871   2    1000037    5
    0.094715976   2    1000025    6
    0.093938769   2    1000035    6
    0.040339216   2    1000022    6
    0.0013371905   2    1000024    5
    0.00060417534   2    1000023    6
    0.00057531987   2    1000021    4

DECAY 2000006  320.53564
    0.57805088   2    1000021    6
    0.095542239   2    1000024    5
    0.089179509   2    1000025    6
    0.086445589   2    1000035    6
    0.06223591   2    1000037    5
    0.048592548   2    1000023    6
    0.015809263   2    1000005    24
    0.012833831   2    1000006    25
    0.0092250776   2    1000006    23
    0.0020851512   2    1000022    6

DECAY 1000024  0.024858608
    0.97753271   2    1000022    24
    0.021028228   3    1000022   -5    6
    0.00080705418   3    1000022   -15    16
    0.00025582951   2    2000004   -3
    0.00017737759   3    1000022   -13    14
    0.00017733642   3    1000022   -11    12

DECAY 1000037  10.074559
    0.30373442   2    1000023    24
    0.27565693   2    1000024    25
    0.25944412   2    1000024    23
    0.15277864   2    1000022    24
    0.0051007789   3    1000022   -5    6
    0.0025118149   3    1000023   -5    6
    0.00067874386   3    1000024    6   -6

DECAY 1000022 -1


DECAY 1000023  0.022373929
    0.89860276   2    1000022    25
    0.077194985   2    1000022    23
    0.010855393   3    1000022    6   -6
    0.0025350865   2    2000004   -4
    0.0025350865   2   -2000004    4
    0.0023988365   2    2000002   -2
    0.0023988365   2   -2000002    2
    0.0016176156   3    1000022    12   -12
    0.001118416   3    1000022    15   -15
    0.00025913526   3    1000022    13   -13
    0.00025909683   3    1000022    11   -11
    0.0001546845   3    1000022    5   -5

DECAY 1000025  13.098694
    0.20558735   2    1000023    23
    0.19687362   2    1000024   -24
    0.19687362   2   -1000024    24
    0.19512173   2    1000023    25
    0.10585516   2    1000022    23
    0.087067345   2    1000022    25
    0.0032758074   2    1000005   -5
    0.0032758074   2   -1000005    5
    0.0022040462   3    1000022    6   -6
    0.0017571985   3    1000024    5   -6
    0.0017571985   3   -1000024   -5    6

DECAY 1000035  9.6849753
    0.28414055   2    1000023    25
    0.27175225   2    1000024   -24
    0.27175225   2   -1000024    24
    0.1286418   2    1000022    25
    0.01976701   2    1000022    23
    0.0052895873   2    1000005   -5
    0.0052895873   2   -1000005    5
    0.0033049679   3    1000022    6   -6
    0.0030439486   2    1000023    23
    0.0027545891   3    1000024    5   -6
    0.0027545891   3   -1000024   -5    6
    0.00035396299   2    2000004   -4
    0.00035396299   2   -2000004    4
    0.00031204803   2    2000002   -2
    0.00031204803   2   -2000002    2
    0.00015257151   3    1000023    6   -6

DECAY 1000021  113.56664
    0.23974299   2    2000002   -2
    0.23974299   2   -2000002    2
    0.2397429   2    2000004   -4
    0.2397429   2   -2000004    4
    0.020504237   2    1000005   -5
    0.020504237   2   -1000005    5

DECAY 25  0.0035201828
    0.61985675   2   -5    5
    0.17998531   2   -24    24
    0.074096271   2    21    21
    0.070977477   2   -15    15
    0.030566161   2   -4    4
    0.0204708   2    23    23
    0.002330552   2    22    22
    0.0012367839   2    22    23
    0.00024616011   2   -13    13
    0.00023292803   2   -3    3
    6.4402374e-07   2   -1    1
    1.5752532e-07   2   -2    2
    5.5339947e-09   2   -11    11

DECAY 35  80.236014
    0.87706911   2   -5    5
    0.12091519   2   -15    15
    0.0012035314   2   -6    6
    0.00040941091   2   -13    13
    0.00031171375   2   -3    3
    5.4178021e-05   2    1000022    1000023
    2.1087842e-05   2    1000022    1000022
    8.5496581e-06   2    21    21
    5.0267163e-06   2    25    25
    8.6189297e-07   2   -1    1
    4.7464979e-07   2    23    23
    3.3446413e-07   2   -1000002    1000002
    3.3431925e-07   2   -1000004    1000004
    1.3812303e-07   2   -24    24
    2.1409243e-08   2   -4    4
    2.1067693e-08   2    22    23
    1.009819e-08   2    22    22
    9.1950672e-09   2   -11    11
    1.10355e-13   2   -2    2

DECAY 36  75.365807
    0.87677001   2   -5    5
    0.12087455   2   -15    15
    0.0012327994   2   -6    6
    0.00040927086   2   -13    13
    0.00034128991   2    1000022    1000023
    0.00031160475   2   -3    3
    4.1602041e-05   2    1000022    1000022
    1.7124394e-05   2    21    21
    8.6159174e-07   2   -1    1
    8.3910596e-07   2    23    25
    2.1594516e-08   2   -4    4
    9.1919147e-09   2   -11    11
    7.6810458e-09   2    22    22
    4.5902732e-09   2    22    23
    1.1130832e-13   2   -2    2
    1.3329747e-37   2    25    25

DECAY 37  74.83456
    0.88316256   2   -5    6
    0.11439454   2   -15    16
    0.0013081595   2   -5    4
    0.00040442551   2   -13    14
    0.00040151692   2    1000022    1000024
    0.00030141907   2   -3    4
    1.4121742e-05   2   -3    2
    9.3416084e-06   2   -5    2
    2.1123505e-06   2   -3    6
    8.4680734e-07   2    24    25
    8.3648316e-07   2   -1    2
    7.6399845e-08   2   -1    6
    3.977502e-08   2   -1    4
    9.4595547e-09   2   -11    12
    1.5561015e-11   2   -1000005    1000004
    3.5121498e-13   2    24    35
    1.4337154e-13   2    24    36
    5.828475e-19   2   -1000005    1000002

DECAY 6  2.43
    1   2    5    24

DECAY 15 -1
