BLOCK SPINFO
   1   SPheno
   2   v4.0.5be

BLOCK SPHENOINFO
   1   2
   2   2

BLOCK MODSEL
   1   0

BLOCK MINPAR
   3    49.272043
   4   -1

BLOCK EXTPAR
   0    1377.5893
   1   -56.293851
   2    1462.4718
   3    3000
   11    3863.3097
   12    1817.4368
   13   -1836.7833
   23   -640.054
   25    50.336567
   26    2194.5528
   31    1145.8536
   32    1145.8536
   33    1381.9335
   34    24.519668
   35    24.519668
   36    1052.7301
   41    5000
   42    5000
   43    1398.3828
   44    5000
   45    5000
   46    1567.9815
   47    5000
   48    5000
   49    1957.8066

BLOCK SMINPUTS
   1    127.90897
   2    1.1663787e-05
   3    0.1184
   4    91.1876
   5    4.18
   6    173.2
   7    1.777
   8    0
   11    0.00051099893
   12    0
   13    0.10565837
   14    0
   21    0.005
   22    0.0025
   23    0.095
   24    1.27

BLOCK GAUGE Q=  1377.5893
   1    0.35536298
   2    0.66519887
   3    1.219778

BLOCK YU Q=  1377.5893
   1   1    8.3860265e-06
   2   2    0.0042601015
   3   3    1.0130994

BLOCK YD Q=  1377.5893
   1   1    0.00084824258
   2   2    0.016116609
   3   3    0.84119084

BLOCK YE Q=  1377.5893
   1   1    0.00014802453
   2   2    0.030606779
   3   3    0.51475567

BLOCK AU Q=  1377.5893
   1   1    0
   2   2    0
   3   3    3863.3097

BLOCK AD Q=  1377.5893
   1   1    0
   2   2    0
   3   3    1817.4371

BLOCK AE Q=  1377.5893
   1   1    0
   2   2    0
   3   3   -1836.7833

BLOCK MSOFT Q=  1377.5893
   1   -56.293851
   2    1462.4718
   3    3000
   21    4629836.6
   22   -345407.1
   31    1145.8536
   32    1145.8536
   33    1381.9335
   34    24.519668
   35    24.519668
   36    1052.7301
   41    5000
   42    5000
   43    1398.3828
   44    5000
   45    5000
   46    1567.9815
   47    5000
   48    5000
   49    1957.8066

BLOCK MASS
   6    173.2
   23    91.1876
   24    80.429995
   15    1.777
   25    124.99084
   35    2191.4398
   36    2194.5528
   37    2195.0425
   1000001    5024.253
   2000001    5016.0733
   1000002    5023.8255
   2000002    5017.0231
   1000003    5024.2623
   2000003    5016.0828
   1000004    5023.8322
   2000004    5017.024
   1000005    1346.7315
   2000005    1952.1016
   1000006    1188.1112
   2000006    1597.285
   1000011    1158.917
   2000011    85.381738
   1000012    1155.8682
   1000013    1158.9111
   2000013    85.240334
   1000014    1155.8538
   1000015    1049.3098
   2000015    1391.1325
   1000016    1387.0976
   1000021    3184.2002
   1000022   -55.26108
   1000023    645.15702
   1000025   -649.47983
   1000035    1505.0407
   1000024    644.90316
   1000037    1505.3855

BLOCK ALPHA
      -0.020422843

BLOCK HMIX Q=  1377.5893
   1   -640.054
   2    50.336567
   3    244.04927
   4    4816061.9

BLOCK STOPMIX
   1   1   -0.80082716
   1   2    0.59889553
   2   1   -0.59889553
   2   2   -0.80082716

BLOCK SBOTMIX
   1   1   -0.9983707
   1   2    0.057060903
   2   1   -0.057060903
   2   2   -0.9983707

BLOCK STAUMIX
   1   1   -0.062696177
   1   2    0.99803266
   2   1   -0.99803266
   2   2   -0.062696177

BLOCK NMIX
   1   1   -0.99758
   1   2   -0.00053690446
   1   3    0.069118501
   1   4   -0.007515393
   2   1   -0.043574467
   2   2   -0.063037508
   2   3   -0.70595356
   2   4   -0.70410021
   3   1    0.05414789
   3   2   -0.026604293
   3   3    0.70440567
   3   4   -0.70722901
   4   1    0.0018461915
   4   2   -0.99765635
   4   3    0.025784658
   4   4    0.063352562

BLOCK UMIX
   1   1   -0.036415827
   1   2   -0.99933672
   2   1    0.99933672
   2   2   -0.036415827

BLOCK VMIX
   1   1   -0.089589336
   1   2    0.99597879
   2   1    0.99597879
   2   2    0.089589336

BLOCK HIGGSBOUNDSINPUTHIGGSCOUPLINGSFERMIONS
       0, 2533.77,3,36,15,15

BLOCK HIGGSBOUNDSINPUTHIGGSCOUPLINGSBOSONS
       0,4,36,21,21,23

BLOCK SPHENOLOWENERGY
   1    0.00027663514
   2    1.5979188e-06
   3    3.5218741e-05
   4    4.659714e-15
   5    1.9902955e-10
   6    4.0036147e-08
   7    1.602107e-13
   8    6.8432325e-09
   9    1.3950174e-06
   10    9.5083282e-05
   11    0.98217391
   12    0.5421361
   13    19.369846
   14    0
   15    0
   16    0.0021577169
   17    2.2816655e-15
   18    2.4789654e-11
   19    8.2874104e-11
   20   -6.9944534e-15
   21   -2.9859801e-10
   22   -9.0763137e-08
   23    0
   24    0
   25    0
   26    0
   27    0
   28    0
   29    0
   30    0
   31    0
   39    8.2736588e-05
   40    0
   41    0
   42    0

BLOCK FWCOEF Q=  160
   305   4422   0   0   -0.18881911
   305   4422   0   2   -0.13216877
   305   4322   0   2    0.00014351288
   305   6421   0   0   -0.095227835
   305   6421   0   2   -0.074980053
   305   6321   0   2   -0.00010637699
   3051111   4133   0   0    1.5895903
   3051111   4133   0   2    1.5907114
   3051111   4233   0   2    0.0003312491
   3051111   4137   0   0   -4.4122824
   3051111   4137   0   2   -4.4073828
   3051111   4237   0   2   -0.0025867375
   3051313   4133   0   0    1.5895903
   3051313   4133   0   2    1.590706
   3051313   4233   0   2    0.00033124269
   3051313   4137   0   0   -4.4122824
   3051313   4137   0   2   -4.4073883
   3051313   4237   0   2   -0.0025867447
   3051212   4137   0   0    1.5053501
   3051212   4137   0   2    1.504288
   3051212   4237   0   2    0.00056403252
   3051414   4137   0   0    1.5053501
   3051414   4137   0   2    1.504288
   3051414   4237   0   2    0.00056403302
   3051616   4137   0   0    1.5053501
   3051616   4137   0   2    1.5042881
   3051616   4237   0   2    0.00056417185

BLOCK IMFWCOEF Q=  160
   305   4422   0   0    3.8591437e-07
   305   4422   0   2   -3.0443749e-05
   305   4322   0   2    6.1585118e-06
   305   6421   0   0    3.3056118e-07
   305   6421   0   2    1.5783697e-06
   305   6321   0   2    2.6722621e-06
   3051111   4133   0   2   -1.4646505e-06
   3051111   4233   0   2    7.6994425e-06
   3051111   4137   0   2    1.2552042e-05
   3051111   4237   0   2   -6.0152849e-05
   3051313   4133   0   2   -1.4645353e-06
   3051313   4233   0   2    7.6993698e-06
   3051313   4137   0   2    1.2552156e-05
   3051313   4237   0   2   -6.0153018e-05
   3051212   4137   0   2   -2.620105e-06
   3051212   4237   0   2    1.311631e-05
   3051414   4137   0   2   -2.620106e-06
   3051414   4237   0   2    1.311631e-05
   3051616   4137   0   2   -2.6185707e-06
   3051616   4237   0   2    1.3116314e-05

DECAY 23  2.4952


DECAY 24  2.085


DECAY 2000011  0.14416805
    1   2    1000022    11

DECAY 1000011  1.4696328
    0.98328843   2    1000022    11
    0.012315467   2    1000023    11
    0.0043871628   2   -1000024    12

DECAY 2000013  0.14324566
    1   2    1000022    13

DECAY 1000013  1.4831345
    0.97440124   2    1000022    13
    0.015661246   2    1000023    13
    0.0043471633   2   -1000024    14
    0.0034084452   2    1000025    13
    0.0021819019   2    2000013    25

DECAY 1000015  9.5132138
    0.55206835   2    1000022    15
    0.22529182   2   -1000024    16
    0.11323267   2    1000023    15
    0.10940717   2    1000025    15

DECAY 2000015  6.8004653
    0.33314341   2    1000023    15
    0.33013094   2    1000025    15
    0.25904491   2    1000022    15
    0.039788605   2    1000015    25
    0.037728536   2    1000015    23
    0.00016359168   2   -1000024    16

DECAY 1000012  1.4853348
    0.96640859   2    1000022    12
    0.026079462   2    1000024    11
    0.0049455826   2    1000025    12
    0.0025663614   2    1000023    12

DECAY 1000014  1.4955242
    0.95981217   2    1000022    14
    0.032727331   2    1000024    13
    0.0049117137   2    1000025    14
    0.0025487872   2    1000023    14

DECAY 1000016  6.8017432
    0.66870794   2    1000024    15
    0.25361303   2    1000022    16
    0.075120264   2    1000015    24
    0.0016873331   2    1000025    16
    0.00087142511   2    1000023    16

DECAY 2000001  143.92845
    0.98054971   2    1000021    1
    0.019358393   2    1000022    1

DECAY 1000001  197.66968
    0.71827231   2    1000021    1
    0.18513409   2   -1000037    2
    0.09232516   2    1000035    1
    0.0035082849   2    1000022    1
    0.00033084845   2    1000023    1
    0.00028702197   2   -1000024    2
    0.00014228688   2    1000025    1

DECAY 2000003  143.97944
    0.98020934   2    1000021    3
    0.019352432   2    1000022    3
    0.00017389536   2   -1000024    4
    0.00014148823   2    1000025    3
    0.00012249493   2    1000023    3

DECAY 1000003  197.69758
    0.71817583   2    1000021    3
    0.18510851   2   -1000037    4
    0.092312435   2    1000035    3
    0.0035084219   2    1000022    3
    0.00039393858   2    1000023    3
    0.00029577921   2   -1000024    4
    0.0002050927   2    1000025    3

DECAY 1000005  33.859942
    0.44228197   2   -1000024    6
    0.21855443   2    1000006   -24
    0.16669897   2    1000023    5
    0.16296175   2    1000025    5
    0.0095028758   2    1000022    5

DECAY 2000005  49.129251
    0.43769188   2   -1000024    6
    0.22059617   2    1000025    5
    0.22037985   2    1000023    5
    0.052738483   2    1000006   -24
    0.02334687   2    1000022    5
    0.023219085   2    1000005    23
    0.017131093   2    1000005    25
    0.0040093285   2    2000006   -24
    0.00058200226   2   -1000037    6
    0.00030523987   2    1000035    5

DECAY 2000002  152.42725
    0.92652646   2    1000021    2
    0.073129997   2    1000022    2
    0.00020834777   2    1000025    2
    0.00013498527   2    1000023    2

DECAY 1000002  197.66403
    0.71806762   2    1000021    2
    0.18387546   2    1000037    1
    0.092195242   2    1000035    2
    0.0035507535   2    1000022    2
    0.0017374339   2    1000024    1
    0.0005423699   2    1000023    2

DECAY 2000004  152.43078
    0.9265052   2    1000021    4
    0.073128306   2    1000022    4
    0.00021408405   2    1000025    4
    0.00014068429   2    1000023    4

DECAY 1000004  197.69155
    0.71797085   2    1000021    4
    0.18385033   2    1000037    3
    0.092182609   2    1000035    4
    0.0035502638   2    1000022    4
    0.0018637116   2    1000024    3
    0.00054668778   2    1000023    4

DECAY 1000006  22.967665
    0.38850888   2    1000024    5
    0.28300325   2    1000023    6
    0.2808026   2    1000025    6
    0.045239831   2    1000022    6
    0.0021436072   2    1000022    4
    0.00016900083   2    1000023    4
    0.00013284059   3    1000022    24    5

DECAY 2000006  93.957873
    0.27985748   2    1000006    23
    0.22924357   2    1000024    5
    0.21635284   2    1000005    24
    0.1084938   2    1000025    6
    0.10758905   2    1000023    6
    0.034095913   2    1000006    25
    0.023925018   2    1000022    6
    0.00044232003   2    1000037    5

DECAY 1000024  0.44023802
    0.97901789   2    1000022    24
    0.013160046   2   -2000013    14
    0.0076780362   3    1000022   -5    6
    0.0001431277   3    1000022   -15    16

DECAY 1000037  19.05597
    0.15783563   2    1000024    25
    0.15453769   2    1000025    24
    0.15380704   2    1000023    24
    0.15238947   2    1000024    23
    0.11503204   2    1000006   -5
    0.0581128   2    1000014   -13
    0.058108432   2    1000012   -11
    0.057618243   2   -1000013    14
    0.057616556   2   -1000011    12
    0.0078747645   2    1000016   -15
    0.0076095702   3    1000024    6   -6
    0.0074023156   2   -2000015    16
    0.005593243   3    1000025   -5    6
    0.0053769818   3    1000023   -5    6
    0.00065130041   2    1000022    24
    0.00019482545   3    1000024    5   -5
    0.00012139441   3    1000022   -5    6
    0.00010959149   2   -1000015    16

DECAY 1000022 -1


DECAY 1000023  0.49012965
    0.53812759   2    1000022    23
    0.42441651   2    1000022    25
    0.01196699   2    2000013   -13
    0.01196699   2   -2000013    13
    0.0060611534   2    2000011   -11
    0.0060611534   2   -2000011    11
    0.0012332311   3    1000022    6   -6
    0.0001272146   3    1000022    15   -15

DECAY 1000025  0.42726904
    0.53620921   2    1000022    25
    0.40504767   2    1000022    23
    0.017608445   2    2000013   -13
    0.017608445   2   -2000013    13
    0.010813489   2    2000011   -11
    0.010813489   2   -2000011    11
    0.0016845372   3    1000022    6   -6
    0.00014949631   3    1000022    15   -15

DECAY 1000035  21.491757
    0.13587896   2    1000024   -24
    0.13587896   2   -1000024    24
    0.1300516   2    1000025    25
    0.11897847   2    1000023    25
    0.11694118   2    1000025    23
    0.038214442   2    1000006   -6
    0.038214442   2   -1000006    6
    0.025861152   2    1000014   -14
    0.025861152   2   -1000014    14
    0.025859308   2    1000012   -12
    0.025859308   2   -1000012    12
    0.02536829   2    1000013   -13
    0.02536829   2   -1000013    13
    0.025367446   2    1000011   -11
    0.025367446   2   -1000011    11
    0.020746184   2    1000023    23
    0.018216528   2    1000005   -5
    0.018216528   2   -1000005    5
    0.0034854567   2    1000016   -16
    0.0034854567   2   -1000016    16
    0.0034580253   3    1000024    5   -6
    0.0034580253   3   -1000024   -5    6
    0.0032512624   2    2000015   -15
    0.0032512624   2   -2000015    15
    0.0013466993   3    1000025    6   -6
    0.001273841   3    1000023    6   -6
    0.0002927944   2    1000022    25
    0.00027431838   2    1000022    23

DECAY 1000021  244.7903
    0.15969451   2    1000006   -6
    0.15969451   2   -1000006    6
    0.12984915   2    1000005   -5
    0.12984915   2   -1000005    5
    0.092594429   2    2000006   -6
    0.092594429   2   -2000006    6
    0.074963316   2    2000005   -5
    0.074963316   2   -2000005    5
    0.04248317   2    1000006   -4
    0.04248317   2   -1000006    4
    0.0002174893   3    1000037    5   -6
    0.0002174893   3   -1000037   -5    6
    0.00014293368   3    1000035    5   -5
    0.000142528   3    1000035    6   -6

DECAY 25  0.046160748
    0.45914581   2   -1000011    1000011
    0.45628961   2   -1000013    1000013
    0.048789227   2   -5    5
    0.019182903   2   -24    24
    0.0059067845   2    21    21
    0.0055896302   2   -15    15
    0.0023815079   2   -4    4
    0.0023217504   2    23    23
    0.00019420068   2    22    22
    0.00011868041   2    22    23
    4.2092164e-05   2    1000022    1000022
    1.9457042e-05   2   -13    13
    1.8278789e-05   2   -3    3
    5.0538853e-08   2   -1    1
    1.2272487e-08   2   -2    2
    4.3743119e-10   2   -11    11

DECAY 35  141.93906
    0.89675856   2   -5    5
    0.06443402   2   -15    15
    0.0080713307   2    1000022    1000023
    0.0072675212   2   -1000024    1000037
    0.0072675212   2   -1000037    1000024
    0.0068784682   2    1000022    1000025
    0.0064191621   2    1000025    1000035
    0.00069867622   2   -6    6
    0.00064389542   2    1000023    1000035
    0.00061827559   2   -1000024    1000024
    0.0002210936   2   -13    13
    0.00017013907   2   -3    3
    0.0001634943   2    1000022    1000022
    0.00012916393   2   -1000015    1000015
    9.9585072e-05   2    1000025    1000025
    6.907853e-05   2    1000023    1000023
    5.4272024e-05   2    1000022    1000035
    2.7579523e-05   2    21    21
    4.8887644e-06   2    1000023    1000025
    2.2700324e-06   2    25    25
    4.7031304e-07   2   -1    1
    2.9374677e-07   2    23    23
    1.3665545e-07   2   -24    24
    2.3153025e-08   2   -1000011    1000011
    2.2802387e-08   2    22    22
    2.2711663e-08   2   -1000013    1000013
    1.2528054e-08   2    22    23
    7.5373539e-09   2   -4    4
    4.9660797e-09   2   -11    11
    3.4105503e-09   2   -2000013    1000013
    3.4105503e-09   2   -1000013    2000013
    7.9775035e-14   2   -2000011    1000011
    7.9775035e-14   2   -1000011    2000011
    3.8860455e-14   2   -2    2

DECAY 36  128.61761
    0.89249423   2   -5    5
    0.064116044   2   -15    15
    0.0085358828   2    1000022    1000025
    0.0080984235   2   -1000024    1000037
    0.0080984235   2   -1000037    1000024
    0.0079724851   2    1000022    1000023
    0.0074298669   2    1000023    1000035
    0.00099973359   2   -1000024    1000024
    0.00068087412   2    1000025    1000035
    0.0006254937   2   -6    6
    0.00021999599   2   -13    13
    0.00018275049   2    1000022    1000022
    0.00018240682   2    1000025    1000025
    0.00016928615   2   -3    3
    0.00010650676   2    1000023    1000023
    5.6897349e-05   2    1000022    1000035
    2.7893209e-05   2    21    21
    1.7745993e-06   2    1000023    1000025
    4.6795464e-07   2   -1    1
    4.4994927e-07   2    23    25
    7.0763485e-08   2    22    23
    2.1712419e-08   2    22    22
    6.5478442e-09   2   -4    4
    4.9414476e-09   2   -11    11
    3.7249903e-09   2   -2000013    1000013
    3.7249903e-09   2   -1000013    2000013
    2.494637e-12   2    23    35
    8.7127753e-14   2   -2000011    1000011
    8.7127753e-14   2   -1000011    2000011
    3.3765982e-14   2   -2    2
    1.736281e-38   2    25    25

DECAY 37  144.40272
    0.88731984   2   -5    6
    0.073801236   2   -15    16
    0.015087891   2    1000022    1000024
    0.0073984761   2    1000023    1000037
    0.0073174735   2    1000024    1000035
    0.0070506844   2    1000025    1000037
    0.0013185831   2   -5    4
    0.00026091388   2   -13    14
    0.00015409336   2   -3    4
    0.00010641813   2    1000023    1000024
    0.00010450609   2    1000022    1000037
    6.1809938e-05   2    1000024    1000025
    9.4160475e-06   2   -5    2
    7.1908875e-06   2   -3    2
    5.8803476e-07   2   -3    6
    4.2732566e-07   2   -1    2
    4.0150328e-07   2    24    25
    2.0036072e-08   2   -1    4
    1.660463e-08   2   -1    6
    6.5175749e-09   2   -1000013    1000014
    6.1028027e-09   2   -11    12
    5.7170109e-12   2    24    35
    1.5244072e-13   2   -1000011    1000012

DECAY 6  2.43
    1   2    5    24

DECAY 15 -1
