BLOCK SPINFO
   1   SPheno
   2   v4.0.5be

BLOCK SPHENOINFO
   1   2
   2   2

BLOCK MODSEL
   1   0

BLOCK MINPAR
   3    23.666321
   4    1

BLOCK EXTPAR
   0    3648.4646
   1    900.27481
   2   -4405.9494
   3    4077.6222
   11   -4774.1313
   12    7949.5496
   13    4408.986
   23    461.64081
   25    22.702143
   26    4631.3883
   31    835.41066
   32    835.41066
   33    3180.0095
   34    1169.0512
   35    1169.0512
   36    2683.4552
   41    3963.0087
   42    3963.0087
   43    2735.0776
   44    1435.3937
   45    1435.3937
   46    4578.0524
   47    1673.8954
   48    1673.8954
   49    1352.0038

BLOCK SMINPUTS
   1    127.90897
   2    1.1663787e-05
   3    0.1184
   4    91.1876
   5    4.18
   6    173.2
   7    1.777
   8    0
   11    0.00051099893
   12    0
   13    0.10565837
   14    0
   21    0.005
   22    0.0025
   23    0.095
   24    1.27

BLOCK GAUGE Q=  3648.4646
   1    0.35536298
   2    0.66519887
   3    1.219778

BLOCK YU Q=  3648.4646
   1   1    8.3925022e-06
   2   2    0.0042633911
   3   3    1.0138817

BLOCK YD Q=  3648.4646
   1   1    0.00038285874
   2   2    0.0072743161
   3   3    0.3796759

BLOCK YE Q=  3648.4646
   1   1    6.681165e-05
   2   2    0.01381453
   3   3    0.23233767

BLOCK AU Q=  3648.4646
   1   1    0
   2   2    0
   3   3   -4774.1313

BLOCK AD Q=  3648.4646
   1   1    0
   2   2    0
   3   3    7949.5554

BLOCK AE Q=  3648.4646
   1   1    0
   2   2    0
   3   3    4408.986

BLOCK MSOFT Q=  3648.4646
   1    900.27481
   2   -4405.9494
   3    4077.6222
   21    21324371
   22   -20230.413
   31    835.41066
   32    835.41066
   33    3180.0095
   34    1169.0512
   35    1169.0512
   36    2683.4552
   41    3963.0087
   42    3963.0087
   43    2735.0776
   44    1435.3937
   45    1435.3937
   46    4578.0524
   47    1673.8954
   48    1673.8954
   49    1352.0038

BLOCK MASS
   6    173.2
   23    91.1876
   24    80.429995
   15    1.777
   25    123.22883
   35    4631.0985
   36    4631.3883
   37    4632.4771
   1000001    4127.7107
   2000001    1863.2836
   1000002    4126.9447
   2000002    1639.9416
   1000003    4127.7093
   2000003    1863.28
   1000004    4126.9433
   2000004    1639.9407
   1000005    1550.9687
   2000005    2890.0931
   1000006    2886.3794
   2000006    4611.7617
   1000011    898.30929
   2000011    1173.7769
   1000012    894.47472
   1000013    898.29624
   2000013    1173.7598
   1000014    894.46354
   1000015    2681.4859
   2000015    3210.4353
   1000016    3209.0107
   1000021    4186.8273
   1000022    465.06399
   1000023   -466.96465
   1000025    885.78923
   1000035   -4377.7987
   1000024    467.16499
   1000037    4377.8799

BLOCK ALPHA
      -0.042270761

BLOCK HMIX Q=  3648.4646
   1    461.64081
   2    22.702143
   3    243.05403
   4    21449758

BLOCK STOPMIX
   1   1    0.99866646
   1   2    0.051626592
   2   1   -0.051626592
   2   2    0.99866646

BLOCK SBOTMIX
   1   1    0.00099619812
   1   2    0.9999995
   2   1   -0.9999995
   2   2    0.00099619812

BLOCK STAUMIX
   1   1    0.0034543776
   1   2    0.99999403
   2   1   -0.99999403
   2   2    0.0034543776

BLOCK NMIX
   1   1    0.076616786
   1   2    0.011824478
   1   3    0.70628813
   1   4   -0.70366692
   2   1    0.021805035
   2   2    0.013420519
   2   3   -0.70685826
   2   4   -0.70689166
   3   1    0.99682214
   3   2   -0.0010572518
   3   3   -0.038823674
   3   4    0.069550103
   4   1    0.00014471964
   4   2   -0.99983946
   4   3   -0.0010940457
   4   4   -0.01788375

BLOCK UMIX
   1   1   -0.0015478319
   1   2    0.9999988
   2   1   -0.9999988
   2   2   -0.0015478319

BLOCK VMIX
   1   1    0.025293827
   1   2    0.99968006
   2   1    0.99968006
   2   2   -0.025293827

BLOCK HIGGSBOUNDSINPUTHIGGSCOUPLINGSFERMIONS
       0, 515.3873,3,36,15,15

BLOCK HIGGSBOUNDSINPUTHIGGSCOUPLINGSBOSONS
       0,4,36,21,21,23

BLOCK SPHENOLOWENERGY
   1    0.00031758348
   2    1.5909001e-06
   3    3.5258522e-05
   4    2.6204604e-15
   5    1.1194301e-10
   6    2.3428975e-08
   7    8.7792461e-14
   8    3.7504888e-09
   9    7.9535204e-07
   10    9.6659088e-05
   11    0.99845137
   12    0.5418548
   13    19.360018
   14    0
   15    0
   16    0.0021568136
   17    2.2816532e-15
   18    2.4806338e-11
   19    8.2916325e-11
   20    1.7961504e-16
   21    7.6900704e-12
   22   -6.7541542e-09
   23    0
   24    0
   25    0
   26    0
   27    0
   28    0
   29    0
   30    0
   31    0
   39    5.0376312e-05
   40    0
   41    0
   42    0

BLOCK FWCOEF Q=  160
   305   4422   0   0   -0.18881911
   305   4422   0   2   -0.18498122
   305   4322   0   2    4.1836612e-05
   305   6421   0   0   -0.095227835
   305   6421   0   2   -0.096734756
   305   6321   0   2   -4.8558856e-05
   3051111   4133   0   0    1.623248
   3051111   4133   0   2    1.6235114
   3051111   4233   0   2    0.0001505952
   3051111   4137   0   0   -4.4459401
   3051111   4137   0   2   -4.4448979
   3051111   4237   0   2   -0.0011200121
   3051313   4133   0   0    1.623248
   3051313   4133   0   2    1.623511
   3051313   4233   0   2    0.00015059511
   3051313   4137   0   0   -4.4459401
   3051313   4137   0   2   -4.4448983
   3051313   4237   0   2   -0.0011200124
   3051212   4137   0   0    1.5053501
   3051212   4137   0   2    1.5051245
   3051212   4237   0   2    0.00024237593
   3051414   4137   0   0    1.5053501
   3051414   4137   0   2    1.5051245
   3051414   4237   0   2    0.00024237593
   3051616   4137   0   0    1.5053501
   3051616   4137   0   2    1.5051248
   3051616   4237   0   2    0.00024237642

BLOCK IMFWCOEF Q=  160
   305   4422   0   0    3.8583272e-07
   305   4422   0   2   -1.2704319e-06
   305   4322   0   2    1.884693e-06
   305   6421   0   0    3.3049124e-07
   305   6421   0   2   -8.8444219e-06
   305   6321   0   2    6.6012662e-07
   3051111   4133   0   2   -6.1846439e-07
   3051111   4233   0   2    2.8151977e-06
   3051111   4137   0   2    6.1255409e-06
   3051111   4237   0   2   -2.093773e-05
   3051313   4133   0   2   -6.1845927e-07
   3051313   4233   0   2    2.8151962e-06
   3051313   4137   0   2    6.1255413e-06
   3051313   4237   0   2   -2.0937735e-05
   3051212   4137   0   2   -1.3270994e-06
   3051212   4237   0   2    4.5310242e-06
   3051414   4137   0   2   -1.3270998e-06
   3051414   4237   0   2    4.5310242e-06
   3051616   4137   0   2   -1.3208334e-06
   3051616   4237   0   2    4.5310246e-06

DECAY 23  2.4952


DECAY 24  2.085


DECAY 1000011  0.0080851018
    0.72922566   2    1000022    11
    0.16368806   2    1000023    11
    0.10583781   2    1000025    11
    0.001248322   2   -1000024    12

DECAY 2000011  1.1127228
    0.97610261   2    1000025    11
    0.022111776   2    1000022    11
    0.0017855458   2    1000023    11

DECAY 1000013  0.0099024485
    0.68749974   2    1000022    13
    0.22525042   2    1000023    13
    0.086230523   2    1000025    13
    0.001019187   2   -1000024    14

DECAY 2000013  1.1190659
    0.97048249   2    1000025    13
    0.023396653   2    1000022    13
    0.0031853333   2    1000023    13
    0.0028218094   2   -1000024    14
    0.00011371536   2    1000013    25

DECAY 1000015  16.121654
    0.65926594   2    1000025    15
    0.16795928   2   -1000024    16
    0.088478487   2    1000022    15
    0.084296299   2    1000023    15

DECAY 2000015  6.7635752
    0.50447931   2    1000025    15
    0.24916981   2    1000022    15
    0.24527675   2    1000023    15
    0.00054909093   2    1000015    25
    0.00052457365   2    1000015    23

DECAY 1000012  0.004867678
    0.54784084   2    1000024    11
    0.36480843   2    1000022    12
    0.086007021   2    1000025    12
    0.0013437087   2    1000023    12

DECAY 1000014  0.0066647807
    0.66993011   2    1000024    13
    0.2664326   2    1000022    14
    0.062655923   2    1000025    14
    0.00098135816   2    1000023    14

DECAY 1000016  6.7697708
    0.50694606   2    1000025    16
    0.49030273   2    1000024    15
    0.0016940328   2    1000022    16
    0.0010508965   2    1000015    24

DECAY 2000001  0.6250568
    0.9906996   2    1000025    1
    0.0085939307   2    1000022    1
    0.00069883211   2    1000023    1

DECAY 1000001  0.52894071
    0.99666149   2    1000025    1
    0.0030561479   2    1000023    1
    0.00016040867   2   -1000024    2
    0.00012184164   2    1000022    1

DECAY 2000003  0.62849063
    0.98528592   2    1000025    3
    0.0099116701   2    1000022    3
    0.0027413949   2   -1000024    4
    0.0020610154   2    1000023    3

DECAY 1000003  0.53463882
    0.98605007   2    1000025    3
    0.006970195   2    1000023    3
    0.0040616999   2    1000022    3
    0.002877698   2   -1000024    4

DECAY 1000005  7.6403937
    0.46680033   2   -1000024    6
    0.24106032   2    1000022    5
    0.24058397   2    1000023    5
    0.051555369   2    1000025    5

DECAY 2000005  63.801721
    0.87141665   2   -1000024    6
    0.0615791   2    1000023    5
    0.061484979   2    1000022    5
    0.0053871119   2    1000025    5

DECAY 2000002  1.8450766
    0.98935024   2    1000025    2
    0.0098528536   2    1000022    2
    0.00079690329   2    1000023    2

DECAY 1000002  0.55409804
    0.92880589   2    1000025    2
    0.040901679   2    1000024    1
    0.020726731   2    1000022    2
    0.0095657048   2    1000023    2

DECAY 2000004  1.8460705
    0.98881643   2    1000025    4
    0.0099808073   2    1000022    4
    0.00093166596   2    1000023    4
    0.00027109838   2    1000024    3

DECAY 1000004  0.55977403
    0.91939812   2    1000025    4
    0.048030239   2    1000024    3
    0.021804087   2    1000022    4
    0.010767533   2    1000023    4

DECAY 1000006  64.628076
    0.4288437   2    1000023    6
    0.42618117   2    1000022    6
    0.122195   2    1000024    5
    0.015336841   3    1000022    24    5
    0.0071821758   2    1000025    6

DECAY 2000006  293.88734
    0.31399002   2    1000024    5
    0.15677098   2    1000023    6
    0.15516708   2    1000022    6
    0.13507924   2    2000005    24
    0.10382332   2    1000006    25
    0.067630382   2    1000006    23
    0.034276191   2    1000025    6
    0.033262079   2    1000021    6

DECAY 1000024  1.5732094e-11
    0.58060179   3    1000022   -1    2
    0.19354132   3    1000022   -11    12
    0.19031057   3    1000022   -13    14
    0.035544964   3    1000022   -3    4

DECAY 1000037  156.84713
    0.11786383   2    1000006   -5
    0.11572409   2   -2000005    6
    0.11273928   2    1000014   -13
    0.11273904   2    1000012   -11
    0.11272679   2   -1000013    14
    0.1127265   2   -1000011    12
    0.060188653   2    1000024    25
    0.056463885   2    1000023    24
    0.056426032   2    1000024    23
    0.056033633   2    1000022    24
    0.026285558   2    1000016   -15
    0.026247851   2   -2000015    16
    0.0068176072   3    1000024    6   -6
    0.0045670629   2    1000004   -3
    0.0045670144   2    1000002   -1
    0.0045428875   2   -1000001    2
    0.0045428752   2   -1000003    4
    0.0042517178   3    1000023   -5    6
    0.0040427456   3    1000022   -5    6
    0.00039950351   2    1000025    24

DECAY 1000022 -1


DECAY 1000023  1.4429304e-09
    0.95932024   2    1000022    22
    0.012009605   3    1000022    12   -12
    0.0089798538   3    1000022    1   -1
    0.0087235602   3    1000022    3   -3
    0.0070038941   3    1000022    2   -2
    0.0020265594   3    1000022    11   -11
    0.0019362878   3    1000022    13   -13

DECAY 1000025  2.5609933
    0.21649843   2    1000023    23
    0.21132713   2    1000024   -24
    0.21132713   2   -1000024    24
    0.18320469   2    1000022    25
    0.15771329   2    1000023    25
    0.017234278   2    1000022    23
    0.0013011275   3    1000024    5   -6
    0.0013011275   3   -1000024   -5    6

DECAY 1000035  159.64385
    0.058366266   2    1000006   -6
    0.058366266   2   -1000006    6
    0.057611035   2    2000005   -5
    0.057611035   2   -2000005    5
    0.055483485   2    1000024   -24
    0.055483485   2   -1000024    24
    0.055407155   2    1000014   -14
    0.055407155   2   -1000014    14
    0.055407034   2    1000012   -12
    0.055407034   2   -1000012    12
    0.055348581   2    1000013   -13
    0.055348581   2   -1000013    13
    0.055348439   2    1000011   -11
    0.055348439   2   -1000011    11
    0.0392118   2    1000022    25
    0.033372174   2    1000023    25
    0.030838983   2    1000022    23
    0.024342263   2    1000023    23
    0.012917282   2    1000016   -16
    0.012917282   2   -1000016    16
    0.012886529   2    2000015   -15
    0.012886529   2   -2000015    15
    0.0045588801   3    1000024    5   -6
    0.0045588801   3   -1000024   -5    6
    0.0035543803   3    1000022    6   -6
    0.0034430263   3    1000023    6   -6
    0.0022427334   2    1000004   -4
    0.0022427334   2   -1000004    4
    0.0022427327   2    1000002   -2
    0.0022427327   2   -1000002    2
    0.0022297127   2    1000003   -3
    0.0022297127   2   -1000003    3
    0.0022296882   2    1000001   -1
    0.0022296882   2   -1000001    1
    0.00031717431   2    1000025    25
    0.00026110577   2    1000025    23

DECAY 1000021  513.55863
    0.089814984   2    1000005   -5
    0.089814984   2   -1000005    5
    0.086475123   2    2000004   -4
    0.086475123   2   -2000004    4
    0.086475093   2    2000002   -2
    0.086475093   2   -2000002    2
    0.077597143   2    2000003   -3
    0.077597143   2   -2000003    3
    0.077596994   2    2000001   -1
    0.077596994   2   -2000001    1
    0.03306807   2    2000005   -5
    0.03306807   2   -2000005    5
    0.032489045   2    1000006   -6
    0.032489045   2   -1000006    6
    0.015849374   2    1000006   -4
    0.015849374   2   -1000006    4
    0.00011583017   3    1000023    6   -6
    0.00011537729   3    1000024    5   -6
    0.00011537729   3   -1000024   -5    6
    0.0001140451   3    1000022    6   -6

DECAY 25  0.0036529925
    0.59923593   2   -5    5
    0.20074066   2   -24    24
    0.073912581   2    21    21
    0.068797643   2   -15    15
    0.029701957   2   -4    4
    0.023451602   2    23    23
    0.0023433631   2    22    22
    0.0013517383   2    22    23
    0.00023859866   2   -13    13
    0.00022514593   2   -3    3
    6.2250582e-07   2   -1    1
    1.5306691e-07   2   -2    2
    5.3639857e-09   2   -11    11

DECAY 35  54.113452
    0.41294454   2   -5    5
    0.19790177   2   -2000005    1000005
    0.19790177   2   -1000005    2000005
    0.093790269   2   -15    15
    0.0512104   2    1000023    1000025
    0.039617966   2    1000022    1000025
    0.0051627829   2   -6    6
    0.00044509511   2   -1000024    1000024
    0.00031214306   2   -13    13
    0.00020833375   2    1000022    1000022
    0.00017276589   2   -3    3
    0.00016875148   2    1000025    1000025
    0.0001504433   2    1000022    1000023
    2.7890126e-06   2    25    25
    2.6159446e-06   2   -1000005    1000005
    1.9426484e-06   2    1000023    1000023
    1.3332715e-06   2    21    21
    7.2374905e-07   2   -1000002    1000002
    7.2335476e-07   2   -1000004    1000004
    4.776349e-07   2   -1    1
    4.1745024e-07   2    23    23
    1.7822769e-07   2   -1000011    1000011
    1.7758926e-07   2   -1000013    1000013
    1.0673326e-07   2   -2000011    2000011
    1.0648808e-07   2   -2000013    2000013
    7.4843519e-08   2   -24    24
    6.9461934e-08   2   -4    4
    2.8481864e-08   2   -1000001    1000001
    2.8439507e-08   2   -1000003    1000003
    7.0095358e-09   2   -11    11
    2.7222339e-09   2   -2000013    1000013
    2.7222339e-09   2   -1000013    2000013
    1.5471719e-09   2    22    23
    8.7121607e-10   2    22    22
    3.5811128e-13   2   -2    2
    6.3674093e-14   2   -2000011    1000011
    6.3674093e-14   2   -1000011    2000011

DECAY 36  52.689937
    0.40243339   2   -5    5
    0.20333769   2   -2000005    1000005
    0.20333769   2   -1000005    2000005
    0.09140074   2   -15    15
    0.05223638   2    1000022    1000025
    0.040924525   2    1000023    1000025
    0.0047020611   2   -6    6
    0.00047104573   2   -1000024    1000024
    0.00030419239   2   -13    13
    0.00027950589   2    1000025    1000025
    0.00026370349   2    1000022    1000022
    0.00016836348   2   -3    3
    0.00012880277   2    1000022    1000023
    8.5267389e-06   2    21    21
    1.7544716e-06   2    1000023    1000023
    1.074507e-06   2    23    25
    4.6545624e-07   2   -1    1
    6.3007292e-08   2   -4    4
    8.4536316e-09   2    22    22
    6.9307805e-09   2    22    23
    6.8309908e-09   2   -11    11
    2.7752051e-09   2   -2000013    1000013
    2.7752051e-09   2   -1000013    2000013
    3.2484726e-13   2   -2    2
    6.4912335e-14   2   -2000011    1000011
    6.4912335e-14   2   -1000011    2000011
    3.8704182e-39   2    25    25

DECAY 37  56.336063
    0.44479606   2   -5    6
    0.37401818   2   -1000005    1000006
    0.092105096   2   -15    16
    0.086868674   2    1000024    1000025
    0.00087868421   2    1000022    1000024
    0.00065212276   2   -5    4
    0.00032562427   2   -13    14
    0.00017977803   2    1000023    1000024
    0.00015265562   2   -3    4
    8.1209685e-06   2   -3    6
    7.1809767e-06   2   -3    2
    4.6568279e-06   2   -5    2
    1.0059356e-06   2    24    25
    6.7259084e-07   2   -1000011    1000012
    6.717293e-07   2   -1000013    1000014
    4.2336879e-07   2   -1    2
    3.62013e-07   2   -1    6
    2.3162293e-08   2   -1    4
    7.6163854e-09   2   -11    12
    5.3945047e-09   2   -2000013    1000014
    2.272183e-10   2   -2000005    1000004
    5.6857925e-12   2   -1000005    1000004
    1.4801835e-12   2   -1000003    1000006
    1.1177944e-12   2   -1000003    1000004
    1.2618075e-13   2   -2000011    1000012
    1.2032769e-13   2    24    35
    3.6976351e-14   2    24    36
    1.8804501e-16   2   -1000001    1000006
    1.6564573e-16   2   -1000001    1000004
    8.5105815e-18   2   -2000005    1000002
    3.1405046e-19   2   -1000003    1000002
    2.1296424e-19   2   -1000005    1000002
    1.6267541e-20   2   -1000001    1000002

DECAY 6  2.43
    1   2    5    24

DECAY 15 -1
